1.000000000000000000e+01 6.170352453289073082e+02
1.040000000000000036e+01 8.030242716671089056e+02
1.080000000000000071e+01 9.049260407750182367e+02
1.119999999999999929e+01 9.784505115917539797e+02
1.159999999999999964e+01 9.879535298475764193e+02
1.200000000000000000e+01 1.026592941708674289e+03
1.240000000000000036e+01 1.054837415075071931e+03
1.280000000000000071e+01 1.075556945011394191e+03
1.319999999999999929e+01 1.074594526414290385e+03
1.359999999999999964e+01 1.077969191177896164e+03
1.400000000000000000e+01 1.090957481864159718e+03
1.440000000000000036e+01 1.111254783957958352e+03
1.480000000000000071e+01 1.091362582996013543e+03
1.519999999999999929e+01 1.072715331690361836e+03
1.560000000000000142e+01 1.055179636569219610e+03
1.600000000000000000e+01 1.038642160605467552e+03
1.639999999999999858e+01 1.023005774158977943e+03
1.680000000000000071e+01 1.008186596956888593e+03
1.719999999999999929e+01 9.941116915881891600e+02
1.760000000000000142e+01 9.807172417262947874e+02
1.800000000000000000e+01 9.679470965902365833e+02
1.839999999999999858e+01 9.557515959534201784e+02
1.880000000000000071e+01 9.440866127330605195e+02
1.920000000000000284e+01 9.329127662231968543e+02
1.960000000000000142e+01 9.221947705263594344e+02
2.000000000000000000e+01 9.119008910997947623e+02
2.039999999999999858e+01 9.020024884966635454e+02
2.080000000000000071e+01 8.924736329836021014e+02
2.120000000000000284e+01 8.832907771887565787e+02
2.160000000000000142e+01 8.744324765827279862e+02
2.200000000000000000e+01 8.658791496338787965e+02
2.239999999999999858e+01 8.576128710632838192e+02
2.280000000000000071e+01 8.496171928650376231e+02
2.320000000000000284e+01 8.418769887366041758e+02
2.360000000000000142e+01 8.343783183420719070e+02
2.400000000000000000e+01 8.271083084539377523e+02
2.439999999999999858e+01 8.200550485205505993e+02
2.480000000000000071e+01 8.132074986126549447e+02
2.520000000000000284e+01 8.065554080334842411e+02
2.560000000000000142e+01 8.000892431479377365e+02
2.600000000000000000e+01 7.938001232095482465e+02
2.640000000000000213e+01 7.876797631484907924e+02
2.680000000000000071e+01 7.817204224372160297e+02
2.719999999999999929e+01 7.759148592782322567e+02
2.760000000000000142e+01 7.702562894657319248e+02
2.800000000000000000e+01 7.647383493629135955e+02
2.840000000000000213e+01 7.593550625129419132e+02
2.880000000000000071e+01 7.541008094659664494e+02
2.920000000000000284e+01 7.489703004594248341e+02
2.960000000000000142e+01 7.439585506355954294e+02
3.000000000000000000e+01 7.390608575203589226e+02
3.040000000000000213e+01 7.342727805214403816e+02
3.080000000000000071e+01 7.295901222339314245e+02
3.120000000000000284e+01 7.250089113663829039e+02
3.160000000000000142e+01 7.205253871227994296e+02
3.200000000000000000e+01 7.161359848950030482e+02
3.240000000000000568e+01 7.118373231364630556e+02
3.279999999999999716e+01 7.076261913031905806e+02
3.320000000000000284e+01 7.034995387599659580e+02
3.360000000000000142e+01 6.994544645612642171e+02
3.400000000000000000e+01 6.954882080259709483e+02
3.440000000000000568e+01 6.915981400335543867e+02
3.479999999999999716e+01 6.877817549768924437e+02
3.520000000000000284e+01 6.840366633136186465e+02
3.560000000000000142e+01 6.803605846637437935e+02
3.600000000000000000e+01 6.767513414065257393e+02
3.640000000000000568e+01 6.732068527341976960e+02
3.679999999999999716e+01 6.697251291242848765e+02
3.720000000000000284e+01 6.663042671959103700e+02
3.760000000000000142e+01 6.629424449187682740e+02
3.800000000000000000e+01 6.596379171463637476e+02
3.840000000000000568e+01 6.563890114477433144e+02
3.879999999999999716e+01 6.531941242142871715e+02
3.920000000000000284e+01 6.500517170202335819e+02
3.960000000000000142e+01 6.469603132175146811e+02
4.000000000000000000e+01 6.439184947471707119e+02
4.040000000000000568e+01 6.409248991511608438e+02
4.079999999999999716e+01 6.379782167697658224e+02
4.120000000000000284e+01 6.350771881110354116e+02
4.160000000000000142e+01 6.322206013798659114e+02
4.200000000000000000e+01 6.294072901553213342e+02
4.239999999999999858e+01 6.266361312057392752e+02
4.280000000000000426e+01 6.239060424320143738e+02
4.320000000000000284e+01 6.212159809302153235e+02
4.360000000000000142e+01 6.185649411653942025e+02
4.400000000000000000e+01 6.159519532490809297e+02
4.439999999999999858e+01 6.133760813135431817e+02
4.480000000000000426e+01 6.108364219764119980e+02
4.520000000000000284e+01 6.083321028897692031e+02
4.560000000000000142e+01 6.058622813682278547e+02
4.600000000000000000e+01 6.034261430909467663e+02
4.639999999999999858e+01 6.010229008728913414e+02
4.680000000000000426e+01 5.986517935009934490e+02
4.720000000000000284e+01 5.963120846311765035e+02
4.760000000000000142e+01 5.940030617424979482e+02
4.800000000000000000e+01 5.917240351449338505e+02
4.840000000000000568e+01 5.894743370375584846e+02
4.880000000000000426e+01 5.872533206141140454e+02
4.920000000000000284e+01 5.850603592131582218e+02
4.960000000000000142e+01 5.828948455101763102e+02
5.000000000000000000e+01 5.807561907492187174e+02
5.040000000000000568e+01 5.786438240117845453e+02
5.080000000000000426e+01 5.765571915208288374e+02
5.120000000000000284e+01 5.744957559779026042e+02
5.160000000000000142e+01 5.724589959315709393e+02
5.200000000000000000e+01 5.704464051753718650e+02
5.240000000000000568e+01 5.684574921736841588e+02
5.280000000000000426e+01 5.664917795139846248e+02
5.320000000000000284e+01 5.645488033840655362e+02
5.360000000000000142e+01 5.626281130728689277e+02
5.400000000000000000e+01 5.607292704936854761e+02
5.440000000000000568e+01 5.588518497285353988e+02
5.480000000000000426e+01 5.569954365926207629e+02
5.520000000000000284e+01 5.551596282178118145e+02
5.560000000000000142e+01 5.533440326541827972e+02
5.600000000000000000e+01 5.515482684886789002e+02
5.640000000000000568e+01 5.497719644800444030e+02
5.680000000000000426e+01 5.480147592091954039e+02
5.720000000000000284e+01 5.462763007442684966e+02
5.760000000000000142e+01 5.445562463196158660e+02
5.800000000000000000e+01 5.428542620280658184e+02
5.840000000000000568e+01 5.411700225258026649e+02
5.880000000000000426e+01 5.395032107492517071e+02
5.920000000000000284e+01 5.378535176433988454e+02
5.960000000000000142e+01 5.362206419009983165e+02
6.000000000000000000e+01 5.346042897121516262e+02
6.040000000000000568e+01 5.330041745237765554e+02
6.080000000000000426e+01 5.314200168085012592e+02
6.120000000000000284e+01 5.298515438425503135e+02
6.160000000000000142e+01 5.282984894922091144e+02
6.200000000000000000e+01 5.267605940084771419e+02
6.240000000000000568e+01 5.252376038295378748e+02
6.280000000000000426e+01 5.237292713906974768e+02
6.320000000000000284e+01 5.222353549414548297e+02
6.360000000000000142e+01 5.207556183693930052e+02
6.400000000000000000e+01 5.192898310305855603e+02
6.440000000000000568e+01 5.178377675862404885e+02
6.480000000000001137e+01 5.163992078453044314e+02
6.520000000000000284e+01 5.149739366127768108e+02
6.559999999999999432e+01 5.135617435434837716e+02
6.600000000000000000e+01 5.121624230010852443e+02
6.640000000000000568e+01 5.107757739220901385e+02
6.680000000000001137e+01 5.094015996846737835e+02
6.720000000000000284e+01 5.080397079820917270e+02
6.759999999999999432e+01 5.066899107005077099e+02
6.800000000000000000e+01 5.053520238010470962e+02
6.840000000000000568e+01 5.040258672059067635e+02
6.880000000000001137e+01 5.027112646883570619e+02
6.920000000000000284e+01 5.014080437664777037e+02
6.959999999999999432e+01 5.001160356004780283e+02
7.000000000000000000e+01 4.988350748934601597e+02
7.040000000000000568e+01 4.975649997954879495e+02
7.080000000000001137e+01 4.963056518108306250e+02
7.120000000000000284e+01 4.950568757082608613e+02
7.159999999999999432e+01 4.938185194342834166e+02
7.200000000000000000e+01 4.925904340291860422e+02
7.240000000000000568e+01 4.913724735458010855e+02
7.280000000000001137e+01 4.901644949708767740e+02
7.320000000000000284e+01 4.889663581489568287e+02
7.359999999999999432e+01 4.877779257086768894e+02
7.400000000000000000e+01 4.865990629913837324e+02
7.440000000000000568e+01 4.854296379819949152e+02
7.479999999999999716e+01 4.842695212420117628e+02
7.520000000000000284e+01 4.831185858446087309e+02
7.560000000000000853e+01 4.819767073117247378e+02
7.600000000000000000e+01 4.808437635530781336e+02
7.640000000000000568e+01 4.797196348070434055e+02
7.679999999999999716e+01 4.786042035833156660e+02
7.720000000000000284e+01 4.774973546073024409e+02
7.760000000000000853e+01 4.763989747661822207e+02
7.800000000000000000e+01 4.753089530565678729e+02
7.840000000000000568e+01 4.742271805337210253e+02
7.879999999999999716e+01 4.731535502622620015e+02
7.920000000000000284e+01 4.720879572683222136e+02
7.960000000000000853e+01 4.710302984930933121e+02
8.000000000000000000e+01 4.699804727477191477e+02
8.040000000000000568e+01 4.689383806694888790e+02
8.079999999999999716e+01 4.679039246792867175e+02
8.120000000000000284e+01 4.668770089402521535e+02
8.160000000000000853e+01 4.658575393176151351e+02
8.200000000000000000e+01 4.648454233396630002e+02
8.240000000000000568e+01 4.638405701598017004e+02
8.279999999999999716e+01 4.628428905196783489e+02
8.320000000000000284e+01 4.618522967133254724e+02
8.360000000000000853e+01 4.608687025522974068e+02
8.400000000000000000e+01 4.598920233317637098e+02
8.440000000000000568e+01 4.589221757975299170e+02
8.479999999999999716e+01 4.579590781139563092e+02
8.520000000000000284e+01 4.570026498327433728e+02
8.560000000000000853e+01 4.560528118625588831e+02
8.600000000000000000e+01 4.551094864394789852e+02
8.640000000000000568e+01 4.541725970982153626e+02
8.680000000000001137e+01 4.532420686441086559e+02
8.720000000000000284e+01 4.523178271258591394e+02
8.760000000000000853e+01 4.513997998089732846e+02
8.800000000000000000e+01 4.504879151499059162e+02
8.840000000000000568e+01 4.495821027708740303e+02
8.880000000000001137e+01 4.486822934353225492e+02
8.920000000000000284e+01 4.477884190240221187e+02
8.960000000000000853e+01 4.469004125117801323e+02
9.000000000000000000e+01 4.460182079447445176e+02
9.040000000000000568e+01 4.451417404182866449e+02
9.080000000000001137e+01 4.442709460554392535e+02
9.120000000000000284e+01 4.434057619858805310e+02
9.160000000000000853e+01 4.425461263254413211e+02
9.200000000000000000e+01 4.416919781561258560e+02
9.240000000000000568e+01 4.408432575066249797e+02
9.280000000000001137e+01 4.399999053333127677e+02
9.320000000000000284e+01 4.391618635017092060e+02
9.360000000000000853e+01 4.383290747683967084e+02
9.400000000000000000e+01 4.375014827633760888e+02
9.440000000000000568e+01 4.366790319728519307e+02
9.480000000000001137e+01 4.358616677224315481e+02
9.520000000000000284e+01 4.350493361607283305e+02
9.560000000000000853e+01 4.342419842433579333e+02
9.600000000000000000e+01 4.334395597173143528e+02
9.640000000000000568e+01 4.326420111057163354e+02
9.680000000000001137e+01 4.318492876929149134e+02
9.720000000000000284e+01 4.310613395099499030e+02
9.760000000000000853e+01 4.302781173203465528e+02
9.800000000000000000e+01 4.294995726062439303e+02
9.840000000000000568e+01 4.287256575548431101e+02
9.880000000000001137e+01 4.279563250451705017e+02
9.920000000000000284e+01 4.271915286351438681e+02
9.960000000000000853e+01 4.264312225489356365e+02
1.000000000000000000e+02 4.256753616646223577e+02
1.004000000000000057e+02 4.249239015021169052e+02
1.008000000000000114e+02 4.241767982113714766e+02
1.012000000000000028e+02 4.234340085608477011e+02
1.016000000000000085e+02 4.226954899262428285e+02
1.020000000000000000e+02 4.219612002794702903e+02
1.024000000000000057e+02 4.212310981778835526e+02
1.028000000000000114e+02 4.205051427537381983e+02
1.032000000000000028e+02 4.197832937038874661e+02
1.036000000000000085e+02 4.190655112797034008e+02
1.040000000000000000e+02 4.183517562772179872e+02
1.044000000000000057e+02 4.176419900274792099e+02
1.048000000000000114e+02 4.169361743871170347e+02
1.052000000000000028e+02 4.162342717291115832e+02
1.056000000000000085e+02 4.155362449337611110e+02
1.060000000000000000e+02 4.148420573798429132e+02
1.064000000000000057e+02 4.141516729359635178e+02
1.068000000000000114e+02 4.134650559520914612e+02
1.072000000000000028e+02 4.127821712512703130e+02
1.076000000000000085e+02 4.121029841215067790e+02
1.080000000000000000e+02 4.114274603078277437e+02
1.084000000000000057e+02 4.107555660045048853e+02
1.088000000000000114e+02 4.100872678474404438e+02
1.092000000000000028e+02 4.094225329067118651e+02
1.096000000000000085e+02 4.087613286792695817e+02
1.100000000000000000e+02 4.081036230817858836e+02
1.104000000000000057e+02 4.074493844436508425e+02
1.108000000000000114e+02 4.067985815001102878e+02
1.112000000000000028e+02 4.061511833855449254e+02
1.116000000000000085e+02 4.055071596268845724e+02
1.120000000000000000e+02 4.048664801371559747e+02
1.124000000000000057e+02 4.042291152091608524e+02
1.128000000000000114e+02 4.035950355092803647e+02
1.132000000000000028e+02 4.029642120714033240e+02
1.136000000000000085e+02 4.023366162909756554e+02
1.140000000000000000e+02 4.017122199191672394e+02
1.144000000000000057e+02 4.010909950571548279e+02
1.148000000000000114e+02 4.004729141505176244e+02
1.152000000000000028e+02 3.998579499837408093e+02
1.156000000000000085e+02 3.992460756748299673e+02
1.160000000000000000e+02 3.986372646700267524e+02
1.164000000000000057e+02 3.980314907386298842e+02
1.168000000000000114e+02 3.974287279679148241e+02
1.172000000000000028e+02 3.968289507581514499e+02
1.176000000000000085e+02 3.962321338177176244e+02
1.180000000000000000e+02 3.956382521583070684e+02
1.184000000000000057e+02 3.950472810902260790e+02
1.188000000000000114e+02 3.944591962177825621e+02
1.192000000000000028e+02 3.938739734347601598e+02
1.196000000000000085e+02 3.932915889199788353e+02
1.200000000000000000e+02 3.927120191329382806e+02
1.204000000000000057e+02 3.921352408095432907e+02
1.208000000000000114e+02 3.915612309579086627e+02
1.212000000000000028e+02 3.909899668542424251e+02
1.216000000000000085e+02 3.904214260388047251e+02
1.220000000000000000e+02 3.898555863119419769e+02
1.224000000000000057e+02 3.892924257301938269e+02
1.228000000000000114e+02 3.887319226024711725e+02
1.232000000000000028e+02 3.881740554863046100e+02
1.236000000000000085e+02 3.876188031841605266e+02
1.240000000000000000e+02 3.870661447398247788e+02
1.244000000000000057e+02 3.865160594348515701e+02
1.248000000000000114e+02 3.859685267850755395e+02
1.252000000000000028e+02 3.854235265371880814e+02
1.256000000000000085e+02 3.848810386653739215e+02
1.260000000000000000e+02 3.843410433680075471e+02
1.264000000000000057e+02 3.838035210644093240e+02
1.268000000000000114e+02 3.832684523916581725e+02
1.272000000000000028e+02 3.827358182014616546e+02
1.276000000000000085e+02 3.822055995570797222e+02
1.280000000000000000e+02 3.816777777303043990e+02
1.284000000000000057e+02 3.811523341984903368e+02
1.288000000000000114e+02 3.806292506416382935e+02
1.291999999999999886e+02 3.801085089395297132e+02
1.296000000000000227e+02 3.795900911689092823e+02
1.300000000000000000e+02 3.790739796007184736e+02
1.304000000000000057e+02 3.785601566973743388e+02
1.308000000000000114e+02 3.780486051100970712e+02
1.311999999999999886e+02 3.775393076762817941e+02
1.316000000000000227e+02 3.770322474169159364e+02
1.320000000000000000e+02 3.765274075340404352e+02
1.324000000000000057e+02 3.760247714082537982e+02
1.328000000000000114e+02 3.755243225962582869e+02
1.331999999999999886e+02 3.750260448284477661e+02
1.336000000000000227e+02 3.745299220065354007e+02
1.340000000000000000e+02 3.740359382012219953e+02
1.344000000000000057e+02 3.735440776499022490e+02
1.348000000000000114e+02 3.730543247544098904e+02
1.351999999999999886e+02 3.725666640787995902e+02
1.356000000000000227e+02 3.720810803471662780e+02
1.360000000000000000e+02 3.715975584414996433e+02
1.364000000000000057e+02 3.711160833995743928e+02
1.368000000000000114e+02 3.706366404128746126e+02
1.371999999999999886e+02 3.701592148245526914e+02
1.376000000000000227e+02 3.696837921274207019e+02
1.380000000000000000e+02 3.692103579619748643e+02
1.384000000000000057e+02 3.687388981144515014e+02
1.388000000000000114e+02 3.682693985149156219e+02
1.392000000000000171e+02 3.678018452353779821e+02
1.395999999999999943e+02 3.673362244879450600e+02
1.400000000000000000e+02 3.668725226229958025e+02
1.404000000000000057e+02 3.664107261273897507e+02
1.408000000000000114e+02 3.659508216227027333e+02
1.412000000000000171e+02 3.654927958634897891e+02
1.415999999999999943e+02 3.650366357355773630e+02
1.420000000000000000e+02 3.645823282543798314e+02
1.424000000000000057e+02 3.641298605632452450e+02
1.428000000000000114e+02 3.636792199318248322e+02
1.432000000000000171e+02 3.632303937544691621e+02
1.435999999999999943e+02 3.627833695486486363e+02
1.440000000000000000e+02 3.623381349533988214e+02
1.444000000000000057e+02 3.618946777277899400e+02
1.448000000000000114e+02 3.614529857494194971e+02
1.452000000000000171e+02 3.610130470129286095e+02
1.455999999999999943e+02 3.605748496285410738e+02
1.460000000000000000e+02 3.601383818206239766e+02
1.464000000000000057e+02 3.597036319262716120e+02
1.468000000000000114e+02 3.592705883939101454e+02
1.472000000000000171e+02 3.588392397819229700e+02
1.475999999999999943e+02 3.584095747572981168e+02
1.480000000000000000e+02 3.579815820942947084e+02
1.484000000000000057e+02 3.575552506731310132e+02
1.488000000000000114e+02 3.571305694786904041e+02
1.492000000000000171e+02 3.567075275992482375e+02
1.495999999999999943e+02 3.562861142252164086e+02
1.500000000000000000e+02 3.558663186479082015e+02
