1.000000000000000000e+01 3.706722788244103128e+01
1.040000000000000036e+01 4.148076468133778150e+01
1.080000000000000071e+01 4.910552300032272655e+01
1.119999999999999929e+01 5.790651344374762033e+01
1.159999999999999964e+01 7.478624622131310673e+01
1.200000000000000000e+01 7.686837749129855979e+01
1.240000000000000036e+01 7.335667416691472908e+01
1.280000000000000071e+01 7.029394934904598813e+01
1.319999999999999929e+01 6.758859205772517953e+01
1.359999999999999964e+01 6.556289488359246320e+01
1.400000000000000000e+01 6.399437423494241983e+01
1.440000000000000036e+01 6.257492921785590312e+01
1.480000000000000071e+01 6.128178890784055710e+01
1.519999999999999929e+01 6.009683328893989795e+01
1.560000000000000142e+01 5.900542710464899443e+01
1.600000000000000000e+01 5.799559500693742820e+01
1.639999999999999858e+01 5.705742519707423810e+01
1.680000000000000071e+01 5.618262989849712596e+01
1.719999999999999929e+01 5.536421586257795013e+01
1.760000000000000142e+01 5.459623358896996592e+01
1.800000000000000000e+01 5.387358384268114264e+01
1.839999999999999858e+01 5.319186653375687968e+01
1.880000000000000071e+01 5.254726136292126171e+01
1.920000000000000284e+01 5.193643259439604520e+01
1.960000000000000142e+01 5.135645236958152537e+01
2.000000000000000000e+01 5.080473842222961878e+01
2.039999999999999858e+01 5.027900309070154350e+01
2.080000000000000071e+01 4.977721127310272209e+01
2.120000000000000284e+01 4.929754552158949821e+01
2.160000000000000142e+01 4.883837688071582050e+01
2.200000000000000000e+01 4.839824038113381732e+01
2.239999999999999858e+01 3.897641192775401464e+01
2.280000000000000071e+01 3.850837083668835703e+01
2.320000000000000284e+01 3.805717222363315244e+01
2.360000000000000142e+01 3.762179868660667381e+01
2.400000000000000000e+01 3.720131850262039563e+01
2.439999999999999858e+01 3.679487644701106319e+01
2.480000000000000071e+01 3.640168579836119278e+01
2.520000000000000284e+01 3.602102135097152313e+01
2.560000000000000142e+01 3.565221328716052085e+01
2.600000000000000000e+01 3.529464178623710069e+01
2.640000000000000213e+01 3.494773226701151003e+01
2.680000000000000071e+01 3.461095117710532065e+01
2.719999999999999929e+01 3.428380225581152985e+01
2.760000000000000142e+01 3.396582320840730063e+01
2.800000000000000000e+01 3.365658273907984466e+01
2.840000000000000213e+01 3.335567789734378863e+01
2.880000000000000071e+01 3.306273169928763167e+01
2.920000000000000284e+01 3.277739099041433946e+01
2.960000000000000142e+01 3.249932452141684536e+01
3.000000000000000000e+01 3.222822121210115398e+01
3.040000000000000213e+01 3.196378858195732064e+01
3.080000000000000071e+01 3.170575132867828572e+01
3.120000000000000284e+01 3.145385003831832904e+01
3.160000000000000142e+01 3.117723082907715693e+01
3.200000000000000000e+01 3.089449063368908099e+01
3.240000000000000568e+01 3.061851591164305475e+01
3.279999999999999716e+01 3.034903994754493439e+01
3.320000000000000284e+01 3.008581059263060808e+01
3.360000000000000142e+01 2.982858925351628798e+01
3.400000000000000000e+01 2.957714996573049859e+01
3.440000000000000568e+01 2.933127854373075394e+01
3.479999999999999716e+01 2.909077180003246355e+01
3.520000000000000284e+01 2.885543682688782141e+01
3.560000000000000142e+01 2.862509033466270836e+01
3.600000000000000000e+01 2.839955804168375408e+01
3.640000000000000568e+01 2.817867411087719987e+01
3.679999999999999716e+01 2.796228062900675226e+01
3.720000000000000284e+01 2.775022712474518372e+01
3.760000000000000142e+01 2.754237012219544312e+01
3.800000000000000000e+01 2.733857272681201067e+01
3.840000000000000568e+01 2.713870424097399336e+01
3.879999999999999716e+01 2.694263980672660352e+01
3.920000000000000284e+01 2.675026007344538215e+01
3.960000000000000142e+01 2.656145088838977841e+01
4.000000000000000000e+01 2.637610300830128907e+01
4.040000000000000568e+01 2.619411183037214741e+01
4.079999999999999716e+01 2.601537714106194699e+01
4.120000000000000284e+01 2.583980288137644266e+01
4.160000000000000142e+01 2.566729692734592305e+01
4.200000000000000000e+01 2.549777088455084240e+01
4.239999999999999858e+01 2.533113989564253288e+01
4.280000000000000426e+01 2.516732245989669181e+01
4.320000000000000284e+01 2.500624026391875887e+01
4.360000000000000142e+01 2.484781802269423778e+01
4.400000000000000000e+01 2.469198333024340641e+01
4.439999999999999858e+01 2.453866651920095521e+01
4.480000000000000426e+01 2.438780052869549664e+01
4.520000000000000284e+01 2.423932077995428003e+01
4.560000000000000142e+01 2.409316505910410200e+01
4.600000000000000000e+01 2.394927340668031235e+01
4.639999999999999858e+01 2.442827894577692049e+01
4.680000000000000426e+01 2.432081228862951505e+01
4.720000000000000284e+01 2.421477266727952227e+01
4.760000000000000142e+01 2.411012822644098819e+01
4.800000000000000000e+01 2.400684810819248938e+01
4.840000000000000568e+01 2.390490241187070097e+01
4.880000000000000426e+01 2.380426215592975936e+01
4.920000000000000284e+01 2.370489924165293871e+01
4.960000000000000142e+01 2.360678641861100857e+01
5.000000000000000000e+01 2.350989725176795986e+01
5.040000000000000568e+01 2.341420609014179632e+01
5.080000000000000426e+01 2.331968803693379755e+01
5.120000000000000284e+01 2.322631892104517704e+01
5.160000000000000142e+01 2.313407526990529917e+01
5.200000000000000000e+01 2.304293428354030127e+01
5.240000000000000568e+01 2.295287380981548608e+01
5.280000000000000426e+01 2.286387232078880416e+01
5.320000000000000284e+01 2.277590889011689512e+01
5.360000000000000142e+01 2.268896317145824426e+01
5.400000000000000000e+01 2.260301537782184411e+01
5.440000000000000568e+01 2.251804626181248636e+01
5.480000000000000426e+01 2.243403709672686119e+01
5.520000000000000284e+01 2.235096965845725947e+01
5.560000000000000142e+01 2.226882620816236624e+01
5.600000000000000000e+01 2.218758947566659501e+01
5.640000000000000568e+01 2.210724264355215496e+01
5.680000000000000426e+01 2.202776933190956399e+01
5.720000000000000284e+01 2.194915358371464364e+01
5.760000000000000142e+01 2.187137985080160618e+01
5.800000000000000000e+01 2.179443298040366628e+01
5.840000000000000568e+01 2.171829820223392460e+01
5.880000000000000426e+01 2.164296111608135931e+01
5.920000000000000284e+01 2.156840767989723773e+01
5.960000000000000142e+01 2.149462419834950211e+01
6.000000000000000000e+01 2.142159731182321991e+01
6.040000000000000568e+01 2.134931398584679485e+01
6.080000000000000426e+01 2.127776150092432061e+01
6.120000000000000284e+01 2.119935895183484575e+01
6.160000000000000142e+01 2.112140734763290340e+01
6.200000000000000000e+01 2.104427387194683874e+01
6.240000000000000568e+01 2.096794418322464182e+01
6.280000000000000426e+01 2.089240429205061389e+01
6.320000000000000284e+01 2.081764055004391167e+01
6.360000000000000142e+01 2.074363963918371567e+01
6.400000000000000000e+01 2.067038856154182014e+01
6.440000000000000568e+01 2.059787462940420610e+01
6.480000000000001137e+01 2.052608545576434551e+01
6.520000000000000284e+01 2.045500894517160972e+01
6.559999999999999432e+01 2.038463328491940629e+01
6.600000000000000000e+01 2.031494693655784545e+01
6.640000000000000568e+01 2.024593862771725128e+01
6.680000000000001137e+01 2.017759734422874018e+01
6.720000000000000284e+01 2.010991232252936811e+01
6.759999999999999432e+01 2.004287304233970701e+01
6.800000000000000000e+01 1.997646921960224731e+01
6.840000000000000568e+01 1.991069079966986877e+01
6.880000000000001137e+01 1.984552795073362930e+01
6.920000000000000284e+01 1.978097105748036455e+01
6.959999999999999432e+01 1.971701071497028934e+01
7.000000000000000000e+01 1.965363772272575815e+01
7.040000000000000568e+01 1.959084307902265110e+01
7.080000000000001137e+01 1.952861797537610400e+01
7.120000000000000284e+01 1.946695379121274883e+01
7.159999999999999432e+01 1.940584208872223471e+01
7.200000000000000000e+01 1.934527460788068609e+01
7.240000000000000568e+01 1.928524326163948999e+01
7.280000000000001137e+01 1.922574013127281134e+01
7.320000000000000284e+01 1.916675746187783602e+01
7.359999999999999432e+01 1.910828765802165208e+01
7.400000000000000000e+01 1.905032327952922344e+01
7.440000000000000568e+01 1.899285703740712705e+01
7.479999999999999716e+01 1.893588178989773851e+01
7.520000000000000284e+01 1.887939053865912342e+01
7.560000000000000853e+01 1.882337642506573872e+01
7.600000000000000000e+01 1.876783272662561686e+01
7.640000000000000568e+01 1.871275285350957773e+01
7.679999999999999716e+01 1.865813034518835067e+01
7.720000000000000284e+01 1.860395886717379099e+01
7.760000000000000853e+01 1.855023220786014804e+01
7.800000000000000000e+01 1.849694427546204167e+01
7.840000000000000568e+01 1.844408909504538485e+01
7.879999999999999716e+01 1.839166080564821115e+01
7.920000000000000284e+01 1.833965365748787946e+01
7.960000000000000853e+01 1.828806200925189884e+01
8.000000000000000000e+01 1.823688032546925086e+01
8.040000000000000568e+01 1.818610317395938480e+01
8.079999999999999716e+01 1.813572522335630666e+01
8.120000000000000284e+01 1.835812602102518554e+01
8.160000000000000853e+01 1.831271166171424269e+01
8.200000000000000000e+01 1.826763848233239784e+01
8.240000000000000568e+01 1.822290214455642499e+01
8.279999999999999716e+01 1.817849838794450079e+01
8.320000000000000284e+01 1.813442302812953599e+01
8.360000000000000853e+01 1.809067195506392167e+01
8.400000000000000000e+01 1.804724113131392471e+01
8.440000000000000568e+01 1.800412659040202357e+01
8.479999999999999716e+01 1.796132443519576327e+01
8.520000000000000284e+01 1.791883083634121476e+01
8.560000000000000853e+01 1.787664203074013258e+01
8.600000000000000000e+01 1.783475432006871131e+01
8.640000000000000568e+01 1.779316406933725503e+01
8.680000000000001137e+01 1.775186770548884141e+01
8.720000000000000284e+01 1.771086171603618808e+01
8.760000000000000853e+01 1.767014264773516175e+01
8.800000000000000000e+01 1.762970710529397422e+01
8.840000000000000568e+01 1.758955175011683636e+01
8.880000000000001137e+01 1.754967329908093276e+01
8.920000000000000284e+01 1.751006852334586839e+01
8.960000000000000853e+01 1.747073424719426171e+01
9.000000000000000000e+01 1.743166734690284514e+01
9.040000000000000568e+01 1.739286474964287876e+01
9.080000000000001137e+01 1.735432343240909603e+01
9.120000000000000284e+01 1.731604042097626817e+01
9.160000000000000853e+01 1.727801278888254188e+01
9.200000000000000000e+01 1.724023765643877582e+01
9.240000000000000568e+01 1.720271218976305860e+01
9.280000000000001137e+01 1.716543359983958084e+01
9.320000000000000284e+01 1.712839914160131727e+01
9.360000000000000853e+01 1.709160611303560984e+01
9.400000000000000000e+01 1.705505185431207593e+01
9.440000000000000568e+01 1.701873374693220597e+01
9.480000000000001137e+01 1.698264921289992557e+01
9.520000000000000284e+01 1.694679571391256445e+01
9.560000000000000853e+01 1.691117075057164243e+01
9.600000000000000000e+01 1.687577186161291465e+01
9.640000000000000568e+01 1.684059662315499040e+01
9.680000000000001137e+01 1.680564264796619867e+01
9.720000000000000284e+01 1.677090758474907517e+01
9.760000000000000853e+01 1.673638911744184554e+01
9.800000000000000000e+01 1.670208496453667735e+01
9.840000000000000568e+01 1.666799287841405786e+01
9.880000000000001137e+01 1.663411064469284284e+01
9.920000000000000284e+01 1.660043608159563178e+01
9.960000000000000853e+01 1.656696703932897918e+01
1.000000000000000000e+02 1.653370139947800155e+01
1.004000000000000057e+02 1.650063707441509209e+01
1.008000000000000114e+02 1.646777200672223529e+01
1.012000000000000028e+02 1.643510416862664414e+01
1.016000000000000085e+02 1.640250233733051033e+01
1.020000000000000000e+02 1.636989554279788095e+01
1.024000000000000057e+02 1.633748003930386616e+01
1.028000000000000114e+02 1.630525394331231226e+01
1.032000000000000028e+02 1.627321539731740785e+01
1.036000000000000085e+02 1.624136256938101397e+01
1.040000000000000000e+02 1.620969365268012652e+01
1.044000000000000057e+02 1.617820686506409444e+01
1.048000000000000114e+02 1.614690044862133078e+01
1.052000000000000028e+02 1.611577266925537799e+01
1.056000000000000085e+02 1.608482181626995811e+01
1.060000000000000000e+02 1.605404620196296150e+01
1.064000000000000057e+02 1.602344416122886273e+01
1.068000000000000114e+02 1.599301405116973562e+01
1.072000000000000028e+02 1.596275425071428522e+01
1.076000000000000085e+02 1.593266316024493001e+01
1.080000000000000000e+02 1.590273920123266649e+01
1.084000000000000057e+02 1.587298081587949738e+01
1.088000000000000114e+02 1.584338646676829043e+01
1.092000000000000028e+02 1.581395463651983846e+01
1.096000000000000085e+02 1.578468382745696275e+01
1.100000000000000000e+02 1.575557256127552819e+01
1.104000000000000057e+02 1.572661937872213400e+01
1.108000000000000114e+02 1.569782283927834499e+01
1.112000000000000028e+02 1.566918152085134430e+01
1.116000000000000085e+02 1.564069401947080351e+01
1.120000000000000000e+02 1.561235894899187926e+01
1.124000000000000057e+02 1.558417494080408616e+01
1.128000000000000114e+02 1.555614064354602988e+01
1.132000000000000028e+02 1.552825472282579788e+01
1.136000000000000085e+02 1.550051586094689604e+01
1.140000000000000000e+02 1.547292275663954442e+01
1.144000000000000057e+02 1.544547412479730220e+01
1.148000000000000114e+02 1.541816869621885111e+01
1.152000000000000028e+02 1.539100521735478821e+01
1.156000000000000085e+02 1.536398245005931962e+01
1.160000000000000000e+02 1.533709917134687295e+01
1.164000000000000057e+02 1.531035417315327329e+01
1.168000000000000114e+02 1.528374626210159448e+01
1.172000000000000028e+02 1.525727425927248326e+01
1.176000000000000085e+02 1.523093699997885864e+01
1.180000000000000000e+02 1.520473333354489398e+01
1.184000000000000057e+02 1.517866212308924290e+01
1.188000000000000114e+02 1.515272224531228318e+01
1.192000000000000028e+02 1.512691259028739488e+01
1.196000000000000085e+02 1.510123206125622630e+01
1.200000000000000000e+02 1.507567957442766904e+01
1.204000000000000057e+02 1.505025405878068057e+01
1.208000000000000114e+02 1.502495445587071998e+01
1.212000000000000028e+02 1.499977971963978263e+01
1.216000000000000085e+02 1.497472881622991636e+01
1.220000000000000000e+02 1.494980072380021063e+01
1.224000000000000057e+02 1.492499443234708778e+01
1.228000000000000114e+02 1.490030894352793744e+01
1.232000000000000028e+02 1.487574327048789158e+01
1.236000000000000085e+02 1.485129643768981289e+01
1.240000000000000000e+02 1.482696748074727466e+01
1.244000000000000057e+02 1.480275544626065454e+01
1.248000000000000114e+02 1.477865939165607045e+01
1.252000000000000028e+02 1.475467838502723872e+01
1.256000000000000085e+02 1.473081150498023817e+01
1.260000000000000000e+02 1.470705784048083942e+01
1.264000000000000057e+02 1.466916993634973387e+01
1.268000000000000114e+02 1.464660883450580897e+01
1.272000000000000028e+02 1.462415281705523995e+01
1.276000000000000085e+02 1.460180105719007848e+01
1.280000000000000000e+02 1.457955273727314705e+01
1.284000000000000057e+02 1.455740704870680879e+01
1.288000000000000114e+02 1.453536319180395431e+01
1.291999999999999886e+02 1.451342037566124432e+01
1.296000000000000227e+02 1.449157781803459777e+01
1.300000000000000000e+02 1.446983474521679192e+01
1.304000000000000057e+02 1.444819039191728294e+01
1.308000000000000114e+02 1.442664400114391121e+01
1.311999999999999886e+02 1.440519482408691232e+01
1.316000000000000227e+02 1.438384212000461382e+01
1.320000000000000000e+02 1.436258515611134001e+01
1.324000000000000057e+02 1.434142320746709309e+01
1.328000000000000114e+02 1.432035555686911898e+01
1.331999999999999886e+02 1.429938149474533304e+01
1.336000000000000227e+02 1.427850031904957184e+01
1.340000000000000000e+02 1.425771133515853073e+01
1.344000000000000057e+02 1.423701385577048306e+01
1.348000000000000114e+02 1.421640720080570475e+01
1.351999999999999886e+02 1.419589069730850106e+01
1.356000000000000227e+02 1.417546367935092277e+01
1.360000000000000000e+02 1.415512548793805436e+01
1.364000000000000057e+02 1.413487547091479613e+01
1.368000000000000114e+02 1.411471298287434273e+01
1.371999999999999886e+02 1.409463738506799046e+01
1.376000000000000227e+02 1.407464804531654501e+01
1.380000000000000000e+02 1.405474433792307032e+01
1.384000000000000057e+02 1.403492564358716876e+01
1.388000000000000114e+02 1.401519134932054200e+01
1.392000000000000171e+02 1.399554084836400136e+01
1.395999999999999943e+02 1.397597354010577320e+01
1.400000000000000000e+02 1.395648883000111340e+01
1.404000000000000057e+02 1.393708612949320447e+01
1.408000000000000114e+02 1.391776485593539903e+01
1.412000000000000171e+02 1.389852443251453273e+01
1.415999999999999943e+02 1.387936428817563161e+01
1.420000000000000000e+02 1.386028385754773318e+01
1.424000000000000057e+02 1.384128258087080532e+01
1.428000000000000114e+02 1.382235990392400105e+01
1.432000000000000171e+02 1.380351527795480671e+01
1.435999999999999943e+02 1.378474815960951183e+01
1.440000000000000000e+02 1.376605801086462755e+01
1.444000000000000057e+02 1.374744429895941877e+01
1.448000000000000114e+02 1.372890649632947380e+01
1.452000000000000171e+02 1.371044408054131836e+01
1.455999999999999943e+02 1.369205653422799784e+01
1.460000000000000000e+02 1.367374334502571820e+01
1.464000000000000057e+02 1.365550400551137500e+01
1.468000000000000114e+02 1.363733801314107907e+01
1.472000000000000171e+02 1.361924487018965380e+01
1.475999999999999943e+02 1.360122408369097791e+01
1.480000000000000000e+02 1.358327516537928581e+01
1.484000000000000057e+02 1.356539763163134360e+01
1.488000000000000114e+02 1.354759100340948308e+01
1.492000000000000171e+02 1.352985480620549730e+01
1.495999999999999943e+02 1.351218856998538520e+01
1.500000000000000000e+02 1.349459182913494004e+01
