1.000000000000000000e+01 3.228299329737353105e+02
1.040000000000000036e+01 3.442725554447412151e+02
1.080000000000000071e+01 4.041937598812368151e+02
1.119999999999999929e+01 4.100933591356882744e+02
1.159999999999999964e+01 4.205578804258590253e+02
1.200000000000000000e+01 4.111813105081339472e+02
1.240000000000000036e+01 4.024833878831298080e+02
1.280000000000000071e+01 3.943827039459772550e+02
1.319999999999999929e+01 3.868112092198197161e+02
1.359999999999999964e+01 3.797114764423424731e+02
1.400000000000000000e+01 3.730346272609850757e+02
1.440000000000000036e+01 3.667387386408043994e+02
1.480000000000000071e+01 3.607876019252828428e+02
1.519999999999999929e+01 3.551497450836836833e+02
1.560000000000000142e+01 3.497976540689123794e+02
1.600000000000000000e+01 3.447071466837861635e+02
1.639999999999999858e+01 3.398568645856719286e+02
1.680000000000000071e+01 3.352278577556090227e+02
1.719999999999999929e+01 3.308032420284328055e+02
1.760000000000000142e+01 3.265679148607422917e+02
1.800000000000000000e+01 3.225083178995683966e+02
1.839999999999999858e+01 3.186122374455104591e+02
1.880000000000000071e+01 3.148686358153451010e+02
1.920000000000000284e+01 3.112675080662049254e+02
1.960000000000000142e+01 3.077997596642059648e+02
2.000000000000000000e+01 3.044571015496711084e+02
2.039999999999999858e+01 3.012319597305801153e+02
2.080000000000000071e+01 2.981173970708823049e+02
2.120000000000000284e+01 2.951070453644799727e+02
2.160000000000000142e+01 2.921950461241671064e+02
2.200000000000000000e+01 2.893759987865611265e+02
2.239999999999999858e+01 2.866449152535187750e+02
2.280000000000000071e+01 2.839971798687143973e+02
2.320000000000000284e+01 2.814285140735051414e+02
2.360000000000000142e+01 2.789349451055024929e+02
2.400000000000000000e+01 2.765127782015917433e+02
2.439999999999999858e+01 2.741585718485329153e+02
2.480000000000000071e+01 2.718691156919420564e+02
2.520000000000000284e+01 2.696414107709429118e+02
2.560000000000000142e+01 2.674726517931137550e+02
2.600000000000000000e+01 2.653602112041801320e+02
2.640000000000000213e+01 2.633016248405173201e+02
2.680000000000000071e+01 2.612945789810045198e+02
2.719999999999999929e+01 2.593368986389745032e+02
2.760000000000000142e+01 2.574265369556363225e+02
2.800000000000000000e+01 2.555615655739948124e+02
2.840000000000000213e+01 2.537401658874245527e+02
2.880000000000000071e+01 2.519606210700732731e+02
2.920000000000000284e+01 2.502213088074954612e+02
2.960000000000000142e+01 2.485206946556249932e+02
3.000000000000000000e+01 2.468573259646093447e+02
3.040000000000000213e+01 2.452298263113403323e+02
3.080000000000000071e+01 2.436368903908874586e+02
3.120000000000000284e+01 2.420772793225979171e+02
3.160000000000000142e+01 2.405498163314933322e+02
3.200000000000000000e+01 2.390533827698590414e+02
3.240000000000000568e+01 2.375869144476710062e+02
3.279999999999999716e+01 2.361493982438006469e+02
3.320000000000000284e+01 2.347398689728528893e+02
3.360000000000000142e+01 2.333574064850623415e+02
3.400000000000000000e+01 2.320011329789484478e+02
3.440000000000000568e+01 2.306702105084531809e+02
3.479999999999999716e+01 2.293638386680751182e+02
3.520000000000000284e+01 2.280812524411128095e+02
3.560000000000000142e+01 2.268217201975533328e+02
3.600000000000000000e+01 2.255845418294110232e+02
3.640000000000000568e+01 2.243690470124579974e+02
3.679999999999999716e+01 2.231745935843065070e+02
3.720000000000000284e+01 2.220005660297121040e+02
3.760000000000000142e+01 2.208463740647905240e+02
3.800000000000000000e+01 2.197114513125723079e+02
3.840000000000000568e+01 2.185952540629870100e+02
3.879999999999999716e+01 2.174972601109645325e+02
3.920000000000000284e+01 2.164169676668813622e+02
3.960000000000000142e+01 2.153538943340678884e+02
4.000000000000000000e+01 2.143075761485350483e+02
4.040000000000000568e+01 2.132775666764768800e+02
4.079999999999999716e+01 2.122634361654715462e+02
4.120000000000000284e+01 2.112647707456298463e+02
4.160000000000000142e+01 2.102811716772428099e+02
4.200000000000000000e+01 2.093122546417508261e+02
4.239999999999999858e+01 2.083576490731058470e+02
4.280000000000000426e+01 2.074169975268260657e+02
4.320000000000000284e+01 2.064899550842469580e+02
4.360000000000000142e+01 2.055761887896643429e+02
4.400000000000000000e+01 2.046753771182364403e+02
4.439999999999999858e+01 2.037872094726704688e+02
4.480000000000000426e+01 2.029113857068658149e+02
4.520000000000000284e+01 2.020476156748166261e+02
4.560000000000000142e+01 2.011956188032020236e+02
4.600000000000000000e+01 2.003551236862003293e+02
4.639999999999999858e+01 1.995258677011723876e+02
4.680000000000000426e+01 1.987075966439484205e+02
4.720000000000000284e+01 1.979000643825447696e+02
4.760000000000000142e+01 1.971030325282162323e+02
4.800000000000000000e+01 1.963162701228227434e+02
4.840000000000000568e+01 1.955395533415609748e+02
4.880000000000000426e+01 1.947726652101716809e+02
4.920000000000000284e+01 1.940153953357956595e+02
4.960000000000000142e+01 1.932675396507025880e+02
5.000000000000000000e+01 1.925289001681694003e+02
5.040000000000000568e+01 1.917992847498315427e+02
5.080000000000000426e+01 1.910785068838719667e+02
5.120000000000000284e+01 1.903663854734547840e+02
5.160000000000000142e+01 1.896627446348475701e+02
5.200000000000000000e+01 1.889674135047093841e+02
5.240000000000000568e+01 1.882802260560560228e+02
5.280000000000000426e+01 1.876010209224426717e+02
5.320000000000000284e+01 1.869296412299321446e+02
5.360000000000000142e+01 1.862659344364431320e+02
5.400000000000000000e+01 1.856097521780976649e+02
5.440000000000000568e+01 1.849609501222082883e+02
5.480000000000000426e+01 1.843193878265680041e+02
5.520000000000000284e+01 1.836849286047245187e+02
5.560000000000000142e+01 1.830574393969396851e+02
5.600000000000000000e+01 1.824367906465517422e+02
5.640000000000000568e+01 1.818228561814738953e+02
5.680000000000000426e+01 1.812155131005786757e+02
5.720000000000000284e+01 1.806146416647302431e+02
5.760000000000000142e+01 1.800201251922413803e+02
5.800000000000000000e+01 1.794318499585436086e+02
5.840000000000000568e+01 1.788497050998704481e+02
5.880000000000000426e+01 1.782735825207647622e+02
5.920000000000000284e+01 1.777033768052318123e+02
5.960000000000000142e+01 1.771389851313685142e+02
6.000000000000000000e+01 1.765803071893087406e+02
6.040000000000000568e+01 1.760272451023333247e+02
6.080000000000000426e+01 1.754797033510008930e+02
6.120000000000000284e+01 1.749375887001630190e+02
6.160000000000000142e+01 1.744008101287352019e+02
6.200000000000000000e+01 1.738692787621006062e+02
6.240000000000000568e+01 1.733429078070303717e+02
6.280000000000000426e+01 1.728216124890106755e+02
6.320000000000000284e+01 1.723053099918708710e+02
6.360000000000000142e+01 1.717939193996139693e+02
6.400000000000000000e+01 1.712873616403544474e+02
6.440000000000000568e+01 1.707855594322734305e+02
6.480000000000001137e+01 1.702884372315061796e+02
6.520000000000000284e+01 1.697959211818794643e+02
6.559999999999999432e+01 1.693079390664229322e+02
6.600000000000000000e+01 1.688244202605794726e+02
6.640000000000000568e+01 1.683452956870450521e+02
6.680000000000001137e+01 1.678704977721710634e+02
6.720000000000000284e+01 1.673999604038651512e+02
6.759999999999999432e+01 1.669336188909306031e+02
6.800000000000000000e+01 1.664714099237854725e+02
6.840000000000000568e+01 1.660132715365070624e+02
6.880000000000001137e+01 1.655591430701481386e+02
6.920000000000000284e+01 1.651089651372761296e+02
6.959999999999999432e+01 1.646626795876854317e+02
7.000000000000000000e+01 1.642202294752386251e+02
7.040000000000000568e+01 1.637815590257919212e+02
7.080000000000001137e+01 1.633466136061635154e+02
7.120000000000000284e+01 1.629153396941046026e+02
7.159999999999999432e+01 1.624876848492345403e+02
7.200000000000000000e+01 1.620635976849050337e+02
7.240000000000000568e+01 1.616430278409565346e+02
7.280000000000001137e+01 1.612259259573347663e+02
7.320000000000000284e+01 1.608122436485347748e+02
7.359999999999999432e+01 1.604019334788423805e+02
7.400000000000000000e+01 1.599949489383430432e+02
7.440000000000000568e+01 1.595912444196707156e+02
7.479999999999999716e+01 1.591907751954695982e+02
7.520000000000000284e+01 1.587934973965427616e+02
7.560000000000000853e+01 1.583993679906629950e+02
7.600000000000000000e+01 1.580083447620231709e+02
7.640000000000000568e+01 1.576203862913015996e+02
7.679999999999999716e+01 1.572354519363220788e+02
7.720000000000000284e+01 1.568535018132874370e+02
7.760000000000000853e+01 1.564744967785663050e+02
7.800000000000000000e+01 1.560983984110136475e+02
7.840000000000000568e+01 1.557251689948072340e+02
7.879999999999999716e+01 1.553547715027820004e+02
7.920000000000000284e+01 1.549871695802448244e+02
7.960000000000000853e+01 1.546223275292544486e+02
8.000000000000000000e+01 1.542602102933494734e+02
8.040000000000000568e+01 1.539007834427105195e+02
8.079999999999999716e+01 1.535440131597412687e+02
8.120000000000000284e+01 1.531898662250545158e+02
8.160000000000000853e+01 1.528383100038506655e+02
8.200000000000000000e+01 1.524893124326739553e+02
8.240000000000000568e+01 1.521428420065360001e+02
8.279999999999999716e+01 1.517988677663934709e+02
8.320000000000000284e+01 1.514573592869683694e+02
8.360000000000000853e+01 1.511182866649008645e+02
8.400000000000000000e+01 1.507816205072226126e+02
8.440000000000000568e+01 1.504473319201413233e+02
8.479999999999999716e+01 1.501153924981264254e+02
8.520000000000000284e+01 1.497857743132859980e+02
8.560000000000000853e+01 1.494584499050262991e+02
8.600000000000000000e+01 1.491333922699843129e+02
8.640000000000000568e+01 1.488105748522257272e+02
8.680000000000001137e+01 1.484899715336991903e+02
8.720000000000000284e+01 1.481715566249395977e+02
8.760000000000000853e+01 1.478553048560124239e+02
8.800000000000000000e+01 1.475411913676917948e+02
8.840000000000000568e+01 1.472291917028650516e+02
8.880000000000001137e+01 1.469192817981573853e+02
8.920000000000000284e+01 1.466114379757692632e+02
8.960000000000000853e+01 1.463056369355207664e+02
9.000000000000000000e+01 1.460018557470964424e+02
9.040000000000000568e+01 1.457000718424846468e+02
9.080000000000001137e+01 1.454002630086059753e+02
9.120000000000000284e+01 1.451024073801245322e+02
9.160000000000000853e+01 1.448064834324375170e+02
9.200000000000000000e+01 1.445124699748371881e+02
9.240000000000000568e+01 1.442203461438406862e+02
9.280000000000001137e+01 1.439300913966823146e+02
9.320000000000000284e+01 1.436416855049646415e+02
9.360000000000000853e+01 1.433551085484625105e+02
9.400000000000000000e+01 1.430703409090765490e+02
9.440000000000000568e+01 1.427873632649316278e+02
9.480000000000001137e+01 1.425061565846161216e+02
9.520000000000000284e+01 1.422267021215582190e+02
9.560000000000000853e+01 1.419489814085351043e+02
9.600000000000000000e+01 1.416729762523116278e+02
9.640000000000000568e+01 1.413986687284044024e+02
9.680000000000001137e+01 1.411260411759687941e+02
9.720000000000000284e+01 1.408550761928041766e+02
9.760000000000000853e+01 1.405857566304750890e+02
9.800000000000000000e+01 1.403180655895448297e+02
9.840000000000000568e+01 1.400519864149184741e+02
9.880000000000001137e+01 1.397875026912925023e+02
9.920000000000000284e+01 1.395245982387075117e+02
9.960000000000000853e+01 1.392632571082023105e+02
1.000000000000000000e+02 1.390034635775656398e+02
1.004000000000000057e+02 1.387452021471837611e+02
1.008000000000000114e+02 1.384884575359806718e+02
1.012000000000000028e+02 1.382332146774489274e+02
1.016000000000000085e+02 1.379794587157687147e+02
1.020000000000000000e+02 1.377271750020124159e+02
1.024000000000000057e+02 1.374763490904330752e+02
1.028000000000000114e+02 1.372269667348340647e+02
1.032000000000000028e+02 1.369790138850180483e+02
1.036000000000000085e+02 1.367324766833130809e+02
1.040000000000000000e+02 1.364873414611743669e+02
1.044000000000000057e+02 1.362435947358588066e+02
1.048000000000000114e+02 1.360012232071714209e+02
1.052000000000000028e+02 1.357602137542811533e+02
1.056000000000000085e+02 1.355205534326046859e+02
1.060000000000000000e+02 1.352822294707566471e+02
1.064000000000000057e+02 1.350452292675637977e+02
1.068000000000000114e+02 1.348095403891426827e+02
1.072000000000000028e+02 1.345751505660381895e+02
1.076000000000000085e+02 1.343420476904224188e+02
1.080000000000000000e+02 1.341102198133512502e+02
1.084000000000000057e+02 1.338796551420785761e+02
1.088000000000000114e+02 1.336503420374253039e+02
1.092000000000000028e+02 1.334222690112030989e+02
1.096000000000000085e+02 1.331954247236906497e+02
1.100000000000000000e+02 1.329697979811616619e+02
1.104000000000000057e+02 1.327453777334631297e+02
1.108000000000000114e+02 1.325221530716425491e+02
1.112000000000000028e+02 1.323001132256233916e+02
1.116000000000000085e+02 1.320792475619271613e+02
1.120000000000000000e+02 1.318595455814411253e+02
1.124000000000000057e+02 1.316409969172307228e+02
1.128000000000000114e+02 1.314235913323953469e+02
1.132000000000000028e+02 1.312073187179670413e+02
1.136000000000000085e+02 1.309921690908502967e+02
1.140000000000000000e+02 1.307781325918026312e+02
1.144000000000000057e+02 1.305651994834545349e+02
1.148000000000000114e+02 1.303533601483687221e+02
1.152000000000000028e+02 1.301426050871363600e+02
1.156000000000000085e+02 1.299329249165107285e+02
1.160000000000000000e+02 1.297243103675772886e+02
1.164000000000000057e+02 1.295167522839578567e+02
1.168000000000000114e+02 1.293102416200507037e+02
1.172000000000000028e+02 1.291047694393031691e+02
1.176000000000000085e+02 1.289003269125178406e+02
1.180000000000000000e+02 1.286969053161906231e+02
1.184000000000000057e+02 1.284944960308804980e+02
1.188000000000000114e+02 1.282930905396097216e+02
1.192000000000000028e+02 1.280926804262942937e+02
1.196000000000000085e+02 1.278932573742038983e+02
1.200000000000000000e+02 1.276948131644503803e+02
1.204000000000000057e+02 1.274973396745045306e+02
1.208000000000000114e+02 1.273008288767402263e+02
1.212000000000000028e+02 1.271052728370055149e+02
1.216000000000000085e+02 1.269106637132200319e+02
1.220000000000000000e+02 1.267169937539981959e+02
1.224000000000000057e+02 1.265242552972974579e+02
1.228000000000000114e+02 1.263324407690913063e+02
1.232000000000000028e+02 1.261415426820662304e+02
1.236000000000000085e+02 1.259515536343424316e+02
1.240000000000000000e+02 1.257624663082176824e+02
1.244000000000000057e+02 1.255742734689333417e+02
1.248000000000000114e+02 1.253869679634630643e+02
1.252000000000000028e+02 1.252005427193226552e+02
1.256000000000000085e+02 1.250149907434016541e+02
1.260000000000000000e+02 1.248303051208148418e+02
1.264000000000000057e+02 1.246464790137750356e+02
1.268000000000000114e+02 1.244635056604849410e+02
1.272000000000000028e+02 1.242813783740490265e+02
1.276000000000000085e+02 1.241000905414040574e+02
1.280000000000000000e+02 1.239196356222685722e+02
1.284000000000000057e+02 1.237400071481106210e+02
1.288000000000000114e+02 1.235611987211332092e+02
1.291999999999999886e+02 1.233832040132774921e+02
1.296000000000000227e+02 1.232060167652431062e+02
1.300000000000000000e+02 1.230296307855252280e+02
1.304000000000000057e+02 1.228540399494681878e+02
1.308000000000000114e+02 1.226792381983353692e+02
1.311999999999999886e+02 1.225052195383947549e+02
1.316000000000000227e+02 1.223319780400199477e+02
1.320000000000000000e+02 1.221595078368067533e+02
1.324000000000000057e+02 1.219878031247041577e+02
1.328000000000000114e+02 1.218168581611602406e+02
1.331999999999999886e+02 1.216466672642824562e+02
1.336000000000000227e+02 1.214772248120115847e+02
1.340000000000000000e+02 1.213085252413097095e+02
1.344000000000000057e+02 1.211405630473617521e+02
1.348000000000000114e+02 1.209733327827899529e+02
1.351999999999999886e+02 1.208068290568815399e+02
1.356000000000000227e+02 1.206410465348289165e+02
1.360000000000000000e+02 1.204759799369824407e+02
1.364000000000000057e+02 1.203116240381154682e+02
1.368000000000000114e+02 1.201479736667010911e+02
1.371999999999999886e+02 1.199850237042010974e+02
1.376000000000000227e+02 1.198227690843659587e+02
1.380000000000000000e+02 1.196612047925464424e+02
1.384000000000000057e+02 1.195003258650162223e+02
1.388000000000000114e+02 1.193401273883053761e+02
1.392000000000000171e+02 1.191806044985444970e+02
1.395999999999999943e+02 1.190217523808193221e+02
1.400000000000000000e+02 1.188635662685356493e+02
1.404000000000000057e+02 1.187060414427943158e+02
1.408000000000000114e+02 1.185491732317760807e+02
1.412000000000000171e+02 1.183929570101361577e+02
1.415999999999999943e+02 1.182373881984083539e+02
1.420000000000000000e+02 1.180824622624183320e+02
1.424000000000000057e+02 1.179281747127065785e+02
1.428000000000000114e+02 1.177745211039596853e+02
1.432000000000000171e+02 1.176214970344509680e+02
1.435999999999999943e+02 1.174690981454895677e+02
1.440000000000000000e+02 1.173173201208779943e+02
1.444000000000000057e+02 1.171661586863783953e+02
1.448000000000000114e+02 1.170156096091865692e+02
1.452000000000000171e+02 1.168656686974141508e+02
1.455999999999999943e+02 1.167163317995790806e+02
1.460000000000000000e+02 1.165675948041033791e+02
1.464000000000000057e+02 1.164194536388188226e+02
1.468000000000000114e+02 1.162719042704798369e+02
1.472000000000000171e+02 1.161249427042842797e+02
1.475999999999999943e+02 1.159785649834008723e+02
1.480000000000000000e+02 1.158327671885039081e+02
1.484000000000000057e+02 1.156875454373153218e+02
1.488000000000000114e+02 1.155428958841529266e+02
1.492000000000000171e+02 1.153988147194859692e+02
1.495999999999999943e+02 1.152552981694969674e+02
1.500000000000000000e+02 1.151123424956501253e+02
