1.000000000000000000e+01 1.755748402375974138e+02
1.040000000000000036e+01 1.702481529191166487e+02
1.080000000000000071e+01 1.659486167167439703e+02
1.119999999999999929e+01 1.625796260907100077e+02
1.159999999999999964e+01 1.603965515941329727e+02
1.200000000000000000e+01 1.557281338250700458e+02
1.240000000000000036e+01 1.514223961033636670e+02
1.280000000000000071e+01 1.474033259471942188e+02
1.319999999999999929e+01 1.436866404127644046e+02
1.359999999999999964e+01 1.402340086218380293e+02
1.400000000000000000e+01 1.370139404873684441e+02
1.440000000000000036e+01 1.340002164628317303e+02
1.480000000000000071e+01 1.311707555925065378e+02
1.519999999999999929e+01 1.285067788696042044e+02
1.560000000000000142e+01 1.267387163159981611e+02
1.600000000000000000e+01 1.252013822714882849e+02
1.639999999999999858e+01 1.237476636500574330e+02
1.680000000000000071e+01 1.223699231283351878e+02
1.719999999999999929e+01 1.210614862038437280e+02
1.760000000000000142e+01 1.209124294613358472e+02
1.800000000000000000e+01 1.197575757600071711e+02
1.839999999999999858e+01 1.186555393088876400e+02
1.880000000000000071e+01 1.143543825861273433e+02
1.920000000000000284e+01 1.042465607553346842e+02
1.960000000000000142e+01 1.027830514332216154e+02
2.000000000000000000e+01 1.013824412488406637e+02
2.039999999999999858e+01 1.000402798912637365e+02
2.080000000000000071e+01 9.875254911170533489e+01
2.120000000000000284e+01 9.751560983717611464e+01
2.160000000000000142e+01 9.632615705128388583e+01
2.200000000000000000e+01 9.518118111778034063e+01
2.239999999999999858e+01 9.408077795255665876e+01
2.280000000000000071e+01 9.302171956004519870e+01
2.320000000000000284e+01 9.196643794827279805e+01
2.360000000000000142e+01 9.081249820352510937e+01
2.400000000000000000e+01 8.969463499093517100e+01
2.439999999999999858e+01 8.861097791231598819e+01
2.480000000000000071e+01 8.755979206292360573e+01
2.520000000000000284e+01 8.653946547507055698e+01
2.560000000000000142e+01 8.555050172733807301e+01
2.600000000000000000e+01 8.459277557802155911e+01
2.640000000000000213e+01 8.366107612399636650e+01
2.680000000000000071e+01 8.275423729734581002e+01
2.719999999999999929e+01 8.187116582337407067e+01
2.760000000000000142e+01 8.101083541622912776e+01
2.800000000000000000e+01 8.017228153533812929e+01
2.840000000000000213e+01 7.935459663925841767e+01
2.880000000000000071e+01 7.855692588172678370e+01
2.920000000000000284e+01 7.762056897185574655e+01
2.960000000000000142e+01 7.686915545393631533e+01
3.000000000000000000e+01 7.613524864723214591e+01
3.040000000000000213e+01 7.541817823248175046e+01
3.080000000000000071e+01 7.471730961772492208e+01
3.120000000000000284e+01 7.403204150523573901e+01
3.160000000000000142e+01 7.336180365939890180e+01
3.200000000000000000e+01 7.596632392407539669e+01
3.240000000000000568e+01 7.542010129696483034e+01
3.279999999999999716e+01 7.488483384721722302e+01
3.320000000000000284e+01 7.436015226316034443e+01
3.360000000000000142e+01 7.384570479199840065e+01
3.400000000000000000e+01 7.334115616385261660e+01
3.440000000000000568e+01 7.284618659623799886e+01
3.479999999999999716e+01 7.236049087190318119e+01
3.520000000000000284e+01 7.155281327341319297e+01
3.560000000000000142e+01 7.110348543421807221e+01
3.600000000000000000e+01 7.066066170629648013e+01
3.640000000000000568e+01 7.022204057448654169e+01
3.679999999999999716e+01 6.979108055992179516e+01
3.720000000000000284e+01 6.936755766452354521e+01
3.760000000000000142e+01 6.895125710384169793e+01
3.800000000000000000e+01 6.854197281897458538e+01
3.840000000000000568e+01 6.813950702003862148e+01
3.879999999999999716e+01 6.774366975878649555e+01
3.920000000000000284e+01 6.735427852818389738e+01
3.960000000000000142e+01 6.697115788694301841e+01
4.000000000000000000e+01 6.659413910718114948e+01
4.040000000000000568e+01 6.622305984352782104e+01
4.079999999999999716e+01 6.585992513836222884e+01
4.120000000000000284e+01 6.551520620399497830e+01
4.160000000000000142e+01 6.517601013986340774e+01
4.200000000000000000e+01 6.484218744562760151e+01
4.239999999999999858e+01 6.451359426567506716e+01
4.280000000000000426e+01 6.419009211762984535e+01
4.320000000000000284e+01 6.387154763665079571e+01
4.360000000000000142e+01 6.355783233444514480e+01
4.400000000000000000e+01 6.324882237200750978e+01
4.439999999999999858e+01 6.294439834517049803e+01
4.480000000000000426e+01 6.272822777574553754e+01
4.520000000000000284e+01 6.242931454724914886e+01
4.560000000000000142e+01 6.213200293777430261e+01
4.600000000000000000e+01 6.183898121583667518e+01
4.639999999999999858e+01 6.155014454814259039e+01
4.680000000000000426e+01 6.126539168526812773e+01
4.720000000000000284e+01 6.098462480522788809e+01
4.760000000000000142e+01 6.070774936531529420e+01
4.800000000000000000e+01 6.043467396170288453e+01
4.840000000000000568e+01 5.975677604798756448e+01
4.880000000000000426e+01 5.948244058539501111e+01
4.920000000000000284e+01 5.921188942597473215e+01
4.960000000000000142e+01 5.894503497614429222e+01
5.000000000000000000e+01 5.868179245821561096e+01
5.040000000000000568e+01 5.842207979533458229e+01
5.080000000000000426e+01 5.816581750210148982e+01
5.120000000000000284e+01 5.791292858054433879e+01
5.160000000000000142e+01 5.766333842113851915e+01
5.200000000000000000e+01 5.741697470858677121e+01
5.240000000000000568e+01 5.717376733209179918e+01
5.280000000000000426e+01 5.693364829987061171e+01
5.320000000000000284e+01 5.669655165767654381e+01
5.360000000000000142e+01 5.646241341110885514e+01
5.400000000000000000e+01 5.623114544085692046e+01
5.440000000000000568e+01 5.600271000324856630e+01
5.480000000000000426e+01 5.577705102668303994e+01
5.520000000000000284e+01 5.555411168288437551e+01
5.560000000000000142e+01 5.533334902306013703e+01
5.600000000000000000e+01 5.510798247685461604e+01
5.640000000000000568e+01 5.488512708411496988e+01
5.680000000000000426e+01 5.466473636290233884e+01
5.720000000000000284e+01 5.444676503764254250e+01
5.760000000000000142e+01 5.423116899877557984e+01
5.800000000000000000e+01 5.401790526405701343e+01
5.840000000000000568e+01 5.399192191754093528e+01
5.880000000000000426e+01 5.378847158357001490e+01
5.920000000000000284e+01 5.358714368604951517e+01
5.960000000000000142e+01 5.338790147527699048e+01
6.000000000000000000e+01 5.319070909202329744e+01
6.040000000000000568e+01 5.299553153976394526e+01
6.080000000000000426e+01 5.280233465796947456e+01
6.120000000000000284e+01 5.261108509640676800e+01
6.160000000000000142e+01 5.242175029040646450e+01
6.200000000000000000e+01 5.223429843705334008e+01
6.240000000000000568e+01 5.204869847225916857e+01
6.280000000000000426e+01 5.186492004867925232e+01
6.320000000000000284e+01 5.168293351443594474e+01
6.360000000000000142e+01 5.150270989261460386e+01
6.400000000000000000e+01 5.132422086149844631e+01
6.440000000000000568e+01 5.115907813084012901e+01
6.480000000000001137e+01 5.098349905551388161e+01
6.520000000000000284e+01 5.080958517917562745e+01
6.559999999999999432e+01 5.063731030270769651e+01
6.600000000000000000e+01 5.046664880326320457e+01
6.640000000000000568e+01 5.029757561796277798e+01
6.680000000000001137e+01 5.027778524281149686e+01
6.720000000000000284e+01 5.012388538598354160e+01
6.759999999999999432e+01 4.997136044074808581e+01
6.800000000000000000e+01 4.982018975810804307e+01
6.840000000000000568e+01 4.967035312633951349e+01
6.880000000000001137e+01 4.952183075901863418e+01
6.920000000000000284e+01 4.937460328345019178e+01
6.959999999999999432e+01 4.922865172948245771e+01
7.000000000000000000e+01 4.908395751869294088e+01
7.040000000000000568e+01 4.894050245393025023e+01
7.080000000000001137e+01 4.879826870919852411e+01
7.120000000000000284e+01 4.865723881987096888e+01
7.159999999999999432e+01 4.851722658897763552e+01
7.200000000000000000e+01 4.837788783821127225e+01
7.240000000000000568e+01 4.823970870039696024e+01
7.280000000000001137e+01 4.810267298281502235e+01
7.320000000000000284e+01 4.796676481116639934e+01
7.359999999999999432e+01 4.783196862148137996e+01
7.400000000000000000e+01 4.769826915228028241e+01
7.440000000000000568e+01 4.756565143697726938e+01
7.479999999999999716e+01 4.743410079651762601e+01
7.520000000000000284e+01 4.730381334299246987e+01
7.560000000000000853e+01 4.717464886905364096e+01
7.600000000000000000e+01 4.704650316649686914e+01
7.640000000000000568e+01 4.691936277104073838e+01
7.679999999999999716e+01 4.679321446872038592e+01
7.720000000000000284e+01 4.666804528987720602e+01
7.760000000000000853e+01 4.654241477226320711e+01
7.800000000000000000e+01 4.641738217231696950e+01
7.840000000000000568e+01 4.629334954268470170e+01
7.879999999999999716e+01 4.617030329961287549e+01
7.920000000000000284e+01 4.604823011869403615e+01
7.960000000000000853e+01 4.592711692852221717e+01
8.000000000000000000e+01 4.580695090453674112e+01
8.040000000000000568e+01 4.568771946304829612e+01
8.079999999999999716e+01 4.556941025544036705e+01
8.120000000000000284e+01 4.545201116254040841e+01
8.160000000000000853e+01 4.533551028915483272e+01
8.200000000000000000e+01 4.521989595876201662e+01
8.240000000000000568e+01 4.510515670835822277e+01
8.279999999999999716e+01 4.499128128345115840e+01
8.320000000000000284e+01 4.487825863319615394e+01
8.360000000000000853e+01 4.476607790567025802e+01
8.400000000000000000e+01 4.465472844327968005e+01
8.440000000000000568e+01 4.454419977829600441e+01
8.479999999999999716e+01 4.443448162851726124e+01
8.520000000000000284e+01 4.432556389304929212e+01
8.560000000000000853e+01 4.421743664820398578e+01
8.600000000000000000e+01 4.411009014351016333e+01
8.640000000000000568e+01 4.400351479783373065e+01
8.680000000000001137e+01 4.389770119560355965e+01
8.720000000000000284e+01 4.377982709167692121e+01
8.760000000000000853e+01 4.368523982783807469e+01
8.800000000000000000e+01 4.358424580139838156e+01
8.840000000000000568e+01 4.348395552263365005e+01
8.880000000000001137e+01 4.338436067927580098e+01
8.920000000000000284e+01 4.328545309682962738e+01
8.960000000000000853e+01 4.318722473564857012e+01
9.000000000000000000e+01 4.308966768808566172e+01
9.040000000000000568e+01 4.299277417571789783e+01
9.080000000000001137e+01 4.289653654664120808e+01
9.120000000000000284e+01 4.280094727283455569e+01
9.160000000000000853e+01 4.270599894759047999e+01
9.200000000000000000e+01 4.261168428301067479e+01
9.240000000000000568e+01 4.251799610756417280e+01
9.280000000000001137e+01 4.242492736370660111e+01
9.320000000000000284e+01 4.233247110555876702e+01
9.360000000000000853e+01 4.224062049664246388e+01
9.400000000000000000e+01 4.214936880767228189e+01
9.440000000000000568e+01 4.205870941440149124e+01
9.480000000000001137e+01 4.196863579552061907e+01
9.520000000000000284e+01 4.187914153060705047e+01
9.560000000000000853e+01 4.179022029812433914e+01
9.600000000000000000e+01 4.170186587346982066e+01
9.640000000000000568e+01 4.161407212706881609e+01
9.680000000000001137e+01 4.152683302251482900e+01
9.720000000000000284e+01 4.144014261475362559e+01
9.760000000000000853e+01 4.135399504831045192e+01
9.800000000000000000e+01 4.126757610186540859e+01
9.840000000000000568e+01 4.118156792629771701e+01
9.880000000000001137e+01 4.109607818353470776e+01
9.920000000000000284e+01 4.101110164081135423e+01
9.960000000000000853e+01 4.092648850640131286e+01
1.000000000000000000e+02 4.084234753343871205e+01
1.004000000000000057e+02 4.075870555465574085e+01
1.008000000000000114e+02 4.067555761649499857e+01
1.012000000000000028e+02 4.059289883436926516e+01
1.016000000000000085e+02 4.051072439142360793e+01
1.020000000000000000e+02 4.042902953732454563e+01
1.024000000000000057e+02 4.034780958707598586e+01
1.028000000000000114e+02 4.026705991986077748e+01
1.032000000000000028e+02 4.018677597790755840e+01
1.036000000000000085e+02 4.010689981625719724e+01
1.040000000000000000e+02 4.002701758422925593e+01
1.044000000000000057e+02 3.994759220444074543e+01
1.048000000000000114e+02 3.986861930577917690e+01
1.052000000000000028e+02 3.979009457575588726e+01
1.056000000000000085e+02 3.971201375949319612e+01
1.060000000000000000e+02 3.963437265873275805e+01
1.064000000000000057e+02 3.955716713086484049e+01
1.068000000000000114e+02 3.948039308797815039e+01
1.072000000000000028e+02 3.940404649592943542e+01
1.076000000000000085e+02 3.932812337343239051e+01
1.080000000000000000e+02 3.925261979116559985e+01
1.084000000000000057e+02 3.917753187089887490e+01
1.088000000000000114e+02 3.910285578463756906e+01
1.092000000000000028e+02 3.902858775378448541e+01
1.096000000000000085e+02 3.895472404831878777e+01
1.100000000000000000e+02 3.888126098599186520e+01
1.104000000000000057e+02 3.880819493153917676e+01
1.108000000000000114e+02 3.873552229590836760e+01
1.112000000000000028e+02 3.867654866492854637e+01
1.116000000000000085e+02 3.860650687883122600e+01
1.120000000000000000e+02 3.853683702113177389e+01
1.124000000000000057e+02 3.846753576464189450e+01
1.128000000000000114e+02 3.839859982408462713e+01
1.132000000000000028e+02 3.833094886761173825e+01
1.136000000000000085e+02 3.826303156159745811e+01
1.140000000000000000e+02 3.819546801988131079e+01
1.144000000000000057e+02 3.812825513737931260e+01
1.148000000000000114e+02 3.806138984737971498e+01
1.152000000000000028e+02 3.799486912093064461e+01
1.156000000000000085e+02 3.792868996623958822e+01
1.160000000000000000e+02 3.786284942808474341e+01
1.164000000000000057e+02 3.779734458723754642e+01
1.168000000000000114e+02 3.773217255989672481e+01
1.172000000000000028e+02 3.766733049713300119e+01
1.176000000000000085e+02 3.760281558434446936e+01
1.180000000000000000e+02 3.753862504072264272e+01
1.184000000000000057e+02 3.747475611872838641e+01
1.188000000000000114e+02 3.741120610357805987e+01
1.192000000000000028e+02 3.734797231273920914e+01
1.196000000000000085e+02 3.728505209543586574e+01
1.200000000000000000e+02 3.722244283216321747e+01
1.204000000000000057e+02 3.716014193421116119e+01
1.208000000000000114e+02 3.709814684319702138e+01
1.212000000000000028e+02 3.703645503060676702e+01
1.216000000000000085e+02 3.697506399734480453e+01
1.220000000000000000e+02 3.691397127329213390e+01
1.224000000000000057e+02 3.685317441687251261e+01
1.228000000000000114e+02 3.680644581863379727e+01
1.232000000000000028e+02 3.674675677141214436e+01
1.236000000000000085e+02 3.668735272286487259e+01
1.240000000000000000e+02 3.662823137924392114e+01
1.244000000000000057e+02 3.656921289519656426e+01
1.248000000000000114e+02 3.651016051133320417e+01
1.252000000000000028e+02 3.645139110786967507e+01
1.256000000000000085e+02 3.639290238208101869e+01
1.260000000000000000e+02 3.633469205769343802e+01
1.264000000000000057e+02 3.627675788449303695e+01
1.268000000000000114e+02 3.621909763794175063e+01
1.272000000000000028e+02 3.616159158311206312e+01
1.276000000000000085e+02 3.610435278663626946e+01
1.280000000000000000e+02 3.604738218698724239e+01
1.284000000000000057e+02 3.599067765081490933e+01
1.288000000000000114e+02 3.593423706872906109e+01
1.291999999999999886e+02 3.587805835495265683e+01
1.296000000000000227e+02 3.582213944698150954e+01
1.300000000000000000e+02 3.576647830524974125e+01
1.304000000000000057e+02 3.571107291280128493e+01
1.308000000000000114e+02 3.565592127496696406e+01
1.311999999999999886e+02 3.560102141904729223e+01
1.316000000000000227e+02 3.554637139400079349e+01
1.320000000000000000e+02 3.549196927013766611e+01
1.324000000000000057e+02 3.543781313881872563e+01
1.328000000000000114e+02 3.538390111215958456e+01
1.331999999999999886e+02 3.533023132273989830e+01
1.336000000000000227e+02 3.527680192331750675e+01
1.340000000000000000e+02 3.522361108654756379e+01
1.344000000000000057e+02 3.517065700470628542e+01
1.348000000000000114e+02 3.511793788941959349e+01
1.351999999999999886e+02 3.506545197139607950e+01
1.356000000000000227e+02 3.501319750016470067e+01
1.360000000000000000e+02 3.496117274381680318e+01
1.364000000000000057e+02 3.490937598875228076e+01
1.368000000000000114e+02 3.485782386535456823e+01
1.371999999999999886e+02 3.480719769986285428e+01
1.376000000000000227e+02 3.475679027034440338e+01
1.380000000000000000e+02 3.470659997731470980e+01
1.384000000000000057e+02 3.465662523776828152e+01
1.388000000000000114e+02 3.460686448496025491e+01
1.392000000000000171e+02 3.455731616819149110e+01
1.395999999999999943e+02 3.450797875259709713e+01
1.400000000000000000e+02 3.445885071893842166e+01
1.404000000000000057e+02 3.440993056339839029e+01
1.408000000000000114e+02 3.436121679738005952e+01
1.412000000000000171e+02 3.431270794730838958e+01
1.415999999999999943e+02 3.426432112526452300e+01
1.420000000000000000e+02 3.421609073242378685e+01
1.424000000000000057e+02 3.416928275229877698e+01
1.428000000000000114e+02 3.412163444240908206e+01
1.432000000000000171e+02 3.407418356040505358e+01
1.435999999999999943e+02 3.402692872204426067e+01
1.440000000000000000e+02 3.397986855676280271e+01
1.444000000000000057e+02 3.393300170750137568e+01
1.448000000000000114e+02 3.388632683053403838e+01
1.452000000000000171e+02 3.383984259529956518e+01
1.455999999999999943e+02 3.379354768423548450e+01
1.460000000000000000e+02 3.374744079261467533e+01
1.464000000000000057e+02 3.370152062838426588e+01
1.468000000000000114e+02 3.365578591200738856e+01
1.472000000000000171e+02 3.361023537630696012e+01
1.475999999999999943e+02 3.356486776631202673e+01
1.480000000000000000e+02 3.351968183910642551e+01
1.484000000000000057e+02 3.347467636367974109e+01
1.488000000000000114e+02 3.342985012078045770e+01
1.492000000000000171e+02 3.338520190277134247e+01
1.495999999999999943e+02 3.334038956925859765e+01
1.500000000000000000e+02 3.329569581303429970e+01
