1.000000000000000000e+01 3.344076625433153254e+02
1.040000000000000036e+01 4.000933460451211658e+02
1.080000000000000071e+01 4.383667399018000879e+02
1.119999999999999929e+01 4.699491372082373459e+02
1.159999999999999964e+01 4.811776174219959330e+02
1.200000000000000000e+01 5.063096071462049395e+02
1.240000000000000036e+01 5.243960501114419230e+02
1.280000000000000071e+01 5.413216223626239980e+02
1.319999999999999929e+01 5.464043134088730085e+02
1.359999999999999964e+01 5.542475970028691563e+02
1.400000000000000000e+01 5.747164976067296038e+02
1.440000000000000036e+01 5.792526137079371438e+02
1.480000000000000071e+01 5.689629945905772956e+02
1.519999999999999929e+01 5.593260329012789498e+02
1.560000000000000142e+01 5.502703822758993510e+02
1.600000000000000000e+01 5.417356429756450780e+02
1.639999999999999858e+01 5.336702244906520036e+02
1.680000000000000071e+01 5.260297093862080828e+02
1.719999999999999929e+01 5.187755825262643157e+02
1.760000000000000142e+01 5.118742312329612787e+02
1.800000000000000000e+01 5.052961494420081863e+02
1.839999999999999858e+01 4.990152975719688015e+02
1.880000000000000071e+01 4.930085827327113748e+02
1.920000000000000284e+01 4.872554329848807129e+02
1.960000000000000142e+01 4.817374458614783634e+02
2.000000000000000000e+01 4.764380960788276980e+02
2.039999999999999858e+01 4.713424908319955193e+02
2.080000000000000071e+01 4.664371636506410255e+02
2.120000000000000284e+01 4.617098997336415209e+02
2.160000000000000142e+01 4.571495871578071615e+02
2.200000000000000000e+01 4.527460894898281367e+02
2.239999999999999858e+01 4.484901362087965708e+02
2.280000000000000071e+01 4.443732280324686030e+02
2.320000000000000284e+01 4.403875547802035726e+02
2.360000000000000142e+01 4.365259238334061251e+02
2.400000000000000000e+01 4.327816975958218109e+02
2.439999999999999858e+01 4.291487386303645621e+02
2.480000000000000071e+01 4.256213613708472394e+02
2.520000000000000284e+01 4.221942894871626777e+02
2.560000000000000142e+01 4.188626181296788786e+02
2.600000000000000000e+01 4.156217803995265854e+02
2.640000000000000213e+01 4.124675174912394482e+02
2.680000000000000071e+01 4.093958520369285452e+02
2.719999999999999929e+01 4.064030642500592876e+02
2.760000000000000142e+01 4.034856705245002786e+02
2.800000000000000000e+01 4.006404041928581705e+02
2.840000000000000213e+01 3.978641981888669079e+02
2.880000000000000071e+01 3.951541693930536780e+02
2.920000000000000284e+01 3.925076044701518185e+02
2.960000000000000142e+01 3.899219470316307934e+02
3.000000000000000000e+01 3.873947859779881355e+02
3.040000000000000213e+01 3.849238448936686723e+02
3.080000000000000071e+01 3.825069723831465467e+02
3.120000000000000284e+01 3.801421332501951156e+02
3.160000000000000142e+01 3.778274004340377132e+02
3.200000000000000000e+01 3.755609476261785176e+02
3.240000000000000568e+01 3.733410425004855711e+02
3.279999999999999716e+01 3.711660404967421414e+02
3.320000000000000284e+01 3.690343791045536364e+02
3.360000000000000142e+01 3.669445726003291384e+02
3.400000000000000000e+01 3.648952071951694052e+02
3.440000000000000568e+01 3.628849365559905777e+02
3.479999999999999716e+01 3.609124776661624310e+02
3.520000000000000284e+01 3.589766069954320074e+02
3.560000000000000142e+01 3.570761569519848422e+02
3.600000000000000000e+01 3.552100125922250982e+02
3.640000000000000568e+01 3.533771085662779115e+02
3.679999999999999716e+01 3.515764262793681496e+02
3.720000000000000284e+01 3.498069912511422217e+02
3.760000000000000142e+01 3.480678706567115341e+02
3.800000000000000000e+01 3.463581710347139051e+02
3.840000000000000568e+01 3.446770361490565051e+02
3.879999999999999716e+01 3.430236449922263660e+02
3.920000000000000284e+01 3.413972099191420853e+02
3.960000000000000142e+01 3.397969749015145453e+02
4.000000000000000000e+01 3.382222138935607063e+02
4.040000000000000568e+01 3.366722293007165376e+02
4.079999999999999716e+01 3.351463505437128561e+02
4.120000000000000284e+01 3.336439327110261956e+02
4.160000000000000142e+01 3.321643552933068122e+02
4.200000000000000000e+01 3.307070209939137158e+02
4.239999999999999858e+01 3.292713546101725228e+02
4.280000000000000426e+01 3.278568019804058622e+02
4.320000000000000284e+01 3.264628289921865871e+02
4.360000000000000142e+01 3.250889206476223308e+02
4.400000000000000000e+01 3.237345801818112250e+02
4.439999999999999858e+01 3.223993282309093047e+02
4.480000000000000426e+01 3.210827020465188184e+02
4.520000000000000284e+01 3.197842547533659854e+02
4.560000000000000142e+01 3.185035546474537114e+02
4.600000000000000000e+01 3.172401845320945881e+02
4.639999999999999858e+01 3.159937410894144136e+02
4.680000000000000426e+01 3.147638342850948447e+02
4.720000000000000284e+01 3.135500868042848879e+02
4.760000000000000142e+01 3.123521335167578172e+02
4.800000000000000000e+01 3.111696209695291486e+02
4.840000000000000568e+01 3.100022069052721463e+02
4.880000000000000426e+01 3.088495598049879050e+02
4.920000000000000284e+01 3.077113584534888560e+02
4.960000000000000142e+01 3.065872915263553296e+02
5.000000000000000000e+01 3.054770571971162099e+02
5.040000000000000568e+01 3.043803627634833902e+02
5.080000000000000426e+01 3.032969242915542054e+02
5.120000000000000284e+01 3.022264662769616166e+02
5.160000000000000142e+01 3.011687213220215540e+02
5.200000000000000000e+01 3.001234298279871950e+02
5.240000000000000568e+01 2.990903397015761698e+02
5.280000000000000426e+01 2.980692060749914845e+02
5.320000000000000284e+01 2.970597910387036222e+02
5.360000000000000142e+01 2.960618633863086870e+02
5.400000000000000000e+01 2.950751983708187254e+02
5.440000000000000568e+01 2.940995774717808899e+02
5.480000000000000426e+01 2.931347881726572950e+02
5.520000000000000284e+01 2.921806237479330548e+02
5.560000000000000142e+01 2.912368830594504061e+02
5.600000000000000000e+01 2.903033703614984233e+02
5.640000000000000568e+01 2.893798951142136957e+02
5.680000000000000426e+01 2.884662718048741112e+02
5.720000000000000284e+01 2.875623197766917087e+02
5.760000000000000142e+01 2.866678630647340924e+02
5.800000000000000000e+01 2.857827302386235715e+02
5.840000000000000568e+01 2.849067542516838785e+02
5.880000000000000426e+01 2.840397722962234752e+02
5.920000000000000284e+01 2.831816256646594638e+02
5.960000000000000142e+01 2.823321596162052174e+02
6.000000000000000000e+01 2.814912232488584323e+02
6.040000000000000568e+01 2.806586693764409119e+02
6.080000000000000426e+01 2.798343544104539546e+02
6.120000000000000284e+01 2.790181382465290199e+02
6.160000000000000142e+01 2.782098841552601698e+02
6.200000000000000000e+01 2.774094586772204138e+02
6.240000000000000568e+01 2.766167315219720990e+02
6.280000000000000426e+01 2.758315754708925738e+02
6.320000000000000284e+01 2.750538662836436288e+02
6.360000000000000142e+01 2.742834826081256097e+02
6.400000000000000000e+01 2.735203058937606215e+02
6.440000000000000568e+01 2.727642203079613523e+02
6.480000000000001137e+01 2.720151126556465897e+02
6.520000000000000284e+01 2.712728723016721801e+02
6.559999999999999432e+01 2.705373910960529997e+02
6.600000000000000000e+01 2.698085633018573617e+02
6.640000000000000568e+01 2.690862855256609691e+02
6.680000000000001137e+01 2.683704566504536047e+02
6.720000000000000284e+01 2.676609777708953857e+02
6.759999999999999432e+01 2.669577521308266341e+02
6.800000000000000000e+01 2.662606850629381370e+02
6.840000000000000568e+01 2.655696839305136905e+02
6.880000000000001137e+01 2.648846580711603451e+02
6.920000000000000284e+01 2.642055187424479641e+02
6.959999999999999432e+01 2.635321790693790831e+02
7.000000000000000000e+01 2.628645539936185287e+02
7.040000000000000568e+01 2.622025602244120250e+02
7.080000000000001137e+01 2.615461161911276804e+02
7.120000000000000284e+01 2.608951419973568022e+02
7.159999999999999432e+01 2.602495593765143553e+02
7.200000000000000000e+01 2.596092916488792639e+02
7.240000000000000568e+01 2.589742636800225455e+02
7.280000000000001137e+01 2.583444018405668885e+02
7.320000000000000284e+01 2.577196339672292424e+02
7.359999999999999432e+01 2.570998893250987294e+02
7.400000000000000000e+01 2.564850985711009344e+02
7.440000000000000568e+01 2.558751937186080170e+02
7.479999999999999716e+01 2.552701081031488002e+02
7.520000000000000284e+01 2.546697763491808928e+02
7.560000000000000853e+01 2.540741343378851980e+02
7.600000000000000000e+01 2.534831191759446369e+02
7.640000000000000568e+01 2.528966691652736074e+02
7.679999999999999716e+01 2.523147237736621946e+02
7.720000000000000284e+01 2.517372236063029334e+02
7.760000000000000853e+01 2.511641103781696245e+02
7.800000000000000000e+01 2.505953268872167996e+02
7.840000000000000568e+01 2.500308169883719245e+02
7.879999999999999716e+01 2.494705255682924872e+02
7.920000000000000284e+01 2.489143985208605159e+02
7.960000000000000853e+01 2.483623827233909935e+02
8.000000000000000000e+01 2.478144260135272816e+02
8.040000000000000568e+01 2.472704771668016974e+02
8.079999999999999716e+01 2.467304858748385641e+02
8.120000000000000284e+01 2.461944027241764843e+02
8.160000000000000853e+01 2.456621791756915059e+02
8.200000000000000000e+01 2.451337675445986122e+02
8.240000000000000568e+01 2.446091209810136320e+02
8.279999999999999716e+01 2.440881934510573217e+02
8.320000000000000284e+01 2.435709397184822365e+02
8.360000000000000853e+01 2.430573153268072133e+02
8.400000000000000000e+01 2.425472765819413894e+02
8.440000000000000568e+01 2.420407805352820390e+02
8.479999999999999716e+01 2.415377849672726427e+02
8.520000000000000284e+01 2.410382483714035118e+02
8.560000000000000853e+01 2.405421299386438818e+02
8.600000000000000000e+01 2.400493895422891626e+02
8.640000000000000568e+01 2.395599877232121173e+02
8.680000000000001137e+01 2.390738856755043003e+02
8.720000000000000284e+01 2.385910452324959294e+02
8.760000000000000853e+01 2.381114288531417174e+02
8.800000000000000000e+01 2.376349996087624845e+02
8.840000000000000568e+01 2.371617211701308179e+02
8.880000000000001137e+01 2.366915577948900591e+02
8.920000000000000284e+01 2.362244743152967317e+02
8.960000000000000853e+01 2.357604361262773693e+02
9.000000000000000000e+01 2.352994091737881206e+02
9.040000000000000568e+01 2.348413599434705361e+02
9.080000000000001137e+01 2.343862554495927952e+02
9.120000000000000284e+01 2.339340632242688400e+02
9.160000000000000853e+01 2.334847513069465208e+02
9.200000000000000000e+01 2.330382882341576476e+02
9.240000000000000568e+01 2.325946430295213361e+02
9.280000000000001137e+01 2.321537851939938832e+02
9.320000000000000284e+01 2.317156846963574708e+02
9.360000000000000853e+01 2.312803119639414149e+02
9.400000000000000000e+01 2.308476378735687433e+02
9.440000000000000568e+01 2.304176337427215344e+02
9.480000000000001137e+01 2.299902713209194758e+02
9.520000000000000284e+01 2.295655227813046508e+02
9.560000000000000853e+01 2.291433607124273806e+02
9.600000000000000000e+01 2.287237581102272941e+02
9.640000000000000568e+01 2.283066883702036023e+02
9.680000000000001137e+01 2.278921252797704540e+02
9.720000000000000284e+01 2.274800430107909222e+02
9.760000000000000853e+01 2.270704161122855851e+02
9.800000000000000000e+01 2.266632195033104438e+02
9.840000000000000568e+01 2.262584284659994864e+02
9.880000000000001137e+01 2.258560186387677788e+02
9.920000000000000284e+01 2.254559660096706182e+02
9.960000000000000853e+01 2.250582469099137484e+02
1.000000000000000000e+02 2.246628380075118514e+02
1.004000000000000057e+02 2.242697163010902557e+02
1.008000000000000114e+02 2.238788591138264223e+02
1.012000000000000028e+02 2.234902440875279694e+02
1.016000000000000085e+02 2.231038491768422318e+02
1.020000000000000000e+02 2.227196526435956514e+02
1.024000000000000057e+02 2.223376330512582228e+02
1.028000000000000114e+02 2.219577692595301528e+02
1.032000000000000028e+02 2.215800404190478048e+02
1.036000000000000085e+02 2.212044259662055197e+02
1.040000000000000000e+02 2.208309056180902701e+02
1.044000000000000057e+02 2.204594593675262217e+02
1.048000000000000114e+02 2.200900674782273256e+02
1.052000000000000028e+02 2.197227104800530242e+02
1.056000000000000085e+02 2.193573691643670145e+02
1.060000000000000000e+02 2.189940245794943507e+02
1.064000000000000057e+02 2.186326580262760331e+02
1.068000000000000114e+02 2.182732510537167343e+02
1.072000000000000028e+02 2.179157854547260058e+02
1.076000000000000085e+02 2.175602432619475621e+02
1.080000000000000000e+02 2.172066067436770140e+02
1.084000000000000057e+02 2.168548583998640993e+02
1.088000000000000114e+02 2.165049809581987006e+02
1.092000000000000028e+02 2.161569573702772686e+02
1.096000000000000085e+02 2.158107708078488258e+02
1.100000000000000000e+02 2.154664046591377371e+02
1.104000000000000057e+02 2.151238425252421678e+02
1.108000000000000114e+02 2.147830682166056704e+02
1.112000000000000028e+02 2.144440657495605933e+02
1.116000000000000085e+02 2.141068193429412361e+02
1.120000000000000000e+02 2.137713134147657286e+02
1.124000000000000057e+02 2.134375325789840758e+02
1.128000000000000114e+02 2.131054616422916581e+02
1.132000000000000028e+02 2.127750856010059692e+02
1.136000000000000085e+02 2.124463896380055701e+02
1.140000000000000000e+02 2.121193591197295518e+02
1.144000000000000057e+02 2.117939795932359743e+02
1.148000000000000114e+02 2.114702367833187395e+02
1.152000000000000028e+02 2.111481165896798302e+02
1.156000000000000085e+02 2.108276050841576819e+02
1.160000000000000000e+02 2.105086885080089019e+02
1.164000000000000057e+02 2.101913532692424269e+02
1.168000000000000114e+02 2.098755859400058625e+02
1.172000000000000028e+02 2.095613732540210776e+02
1.176000000000000085e+02 2.092487021040695652e+02
1.180000000000000000e+02 2.089375595395257506e+02
1.184000000000000057e+02 2.086279327639366556e+02
1.188000000000000114e+02 2.083198091326482881e+02
1.192000000000000028e+02 2.080131761504759140e+02
1.196000000000000085e+02 2.077080214694188101e+02
1.200000000000000000e+02 2.074043328864175351e+02
1.204000000000000057e+02 2.071020983411533791e+02
1.208000000000000114e+02 2.068013059138883705e+02
1.212000000000000028e+02 2.065019438233456412e+02
1.216000000000000085e+02 2.062040004246288731e+02
1.220000000000000000e+02 2.059074642071801691e+02
1.224000000000000057e+02 2.056123237927753280e+02
1.228000000000000114e+02 2.053185679335557552e+02
1.232000000000000028e+02 2.050261855100962407e+02
1.236000000000000085e+02 2.047351655295080377e+02
1.240000000000000000e+02 2.044454971235762173e+02
1.244000000000000057e+02 2.041571695469303620e+02
1.248000000000000114e+02 2.038701721752485696e+02
1.252000000000000028e+02 2.035844945034934881e+02
1.256000000000000085e+02 2.033001261441797283e+02
1.260000000000000000e+02 2.030170568256722561e+02
1.264000000000000057e+02 2.027352763905151392e+02
1.268000000000000114e+02 2.024547747937894542e+02
1.272000000000000028e+02 2.021755421015005822e+02
1.276000000000000085e+02 2.018975684889935565e+02
1.280000000000000000e+02 2.016208442393962343e+02
1.284000000000000057e+02 2.013453597420897836e+02
1.288000000000000114e+02 2.010711054912053442e+02
1.291999999999999886e+02 2.007980720841476341e+02
1.296000000000000227e+02 2.005262502201428845e+02
1.300000000000000000e+02 2.002556306988128938e+02
1.304000000000000057e+02 1.999862044187729566e+02
1.308000000000000114e+02 1.997179623762539222e+02
1.311999999999999886e+02 1.994508956637479855e+02
1.316000000000000227e+02 1.991849954686769593e+02
1.320000000000000000e+02 1.989202530720840230e+02
1.324000000000000057e+02 1.986566598473466456e+02
1.328000000000000114e+02 1.983942072589117913e+02
1.331999999999999886e+02 1.981328868610521567e+02
1.336000000000000227e+02 1.978726902966433840e+02
1.340000000000000000e+02 1.976136092959613961e+02
1.344000000000000057e+02 1.973556356755000820e+02
1.348000000000000114e+02 1.970987613368085078e+02
1.351999999999999886e+02 1.968429782653469715e+02
1.356000000000000227e+02 1.965882785293625545e+02
1.360000000000000000e+02 1.963346542787827786e+02
1.364000000000000057e+02 1.960820977441272817e+02
1.368000000000000114e+02 1.958306012354376549e+02
1.371999999999999886e+02 1.955801571412244471e+02
1.376000000000000227e+02 1.953307579274311365e+02
1.380000000000000000e+02 1.950823961364153831e+02
1.384000000000000057e+02 1.948350643859458273e+02
1.388000000000000114e+02 1.945887553682164253e+02
1.392000000000000171e+02 1.943434618488748811e+02
1.395999999999999943e+02 1.940991766660681890e+02
1.400000000000000000e+02 1.938558927295022158e+02
1.404000000000000057e+02 1.936136030195170008e+02
1.408000000000000114e+02 1.933723005861763511e+02
1.412000000000000171e+02 1.931319785483717624e+02
1.415999999999999943e+02 1.928926300929410615e+02
1.420000000000000000e+02 1.926542484737997825e+02
1.424000000000000057e+02 1.924168270110872925e+02
1.428000000000000114e+02 1.921803590903255667e+02
1.432000000000000171e+02 1.919448381615912922e+02
1.435999999999999943e+02 1.917102577387008751e+02
1.440000000000000000e+02 1.914766113984078117e+02
1.444000000000000057e+02 1.912438927796127643e+02
1.448000000000000114e+02 1.910120955825856868e+02
1.452000000000000171e+02 1.907812135681998029e+02
1.455999999999999943e+02 1.905512405571773513e+02
1.460000000000000000e+02 1.903221704293467837e+02
1.464000000000000057e+02 1.900939971229115599e+02
1.468000000000000114e+02 1.898667146337297140e+02
1.472000000000000171e+02 1.896403170146043067e+02
1.475999999999999943e+02 1.894147983745850183e+02
1.480000000000000000e+02 1.891901528782794344e+02
1.484000000000000057e+02 1.889663747451757843e+02
1.488000000000000114e+02 1.887434582489747754e+02
1.492000000000000171e+02 1.885213977169319435e+02
1.495999999999999943e+02 1.883001875292096656e+02
1.500000000000000000e+02 1.880798221182388374e+02
