1.000000000000000000e+01 5.834733429411885481e+02
1.040000000000000036e+01 7.160775457617298798e+02
1.080000000000000071e+01 7.910448285708079084e+02
1.119999999999999929e+01 8.771836512309051841e+02
1.159999999999999964e+01 8.931166021709730103e+02
1.200000000000000000e+01 9.167776028670981532e+02
1.240000000000000036e+01 9.229980713447043854e+02
1.280000000000000071e+01 9.287471363071574615e+02
1.319999999999999929e+01 9.217141496586745006e+02
1.359999999999999964e+01 9.196213291020301313e+02
1.400000000000000000e+01 9.225972998398411846e+02
1.440000000000000036e+01 9.154851193949549497e+02
1.480000000000000071e+01 9.002872702126383047e+02
1.519999999999999929e+01 8.859798986220168899e+02
1.560000000000000142e+01 8.724734826865063724e+02
1.600000000000000000e+01 8.596911312222084689e+02
1.639999999999999858e+01 8.475663079245804283e+02
1.680000000000000071e+01 8.360410509871808244e+02
1.719999999999999929e+01 8.250645625909365890e+02
1.760000000000000142e+01 8.145920787544986297e+02
1.800000000000000000e+01 8.045839546138345213e+02
1.839999999999999858e+01 7.950049172711810570e+02
1.880000000000000071e+01 7.858234504293627651e+02
1.920000000000000284e+01 7.770112837096664862e+02
1.960000000000000142e+01 7.685429658860880409e+02
2.000000000000000000e+01 7.603955059525604838e+02
2.039999999999999858e+01 7.525480694452631951e+02
2.080000000000000071e+01 7.449817200950569713e+02
2.120000000000000284e+01 7.376791989134292180e+02
2.160000000000000142e+01 7.306247343808386177e+02
2.200000000000000000e+01 7.238038786252135424e+02
2.239999999999999858e+01 7.172033654350715324e+02
2.280000000000000071e+01 7.108109867083624067e+02
2.320000000000000284e+01 7.046154845407969560e+02
2.360000000000000142e+01 6.986064566406028007e+02
2.400000000000000000e+01 6.927742731464751387e+02
2.439999999999999858e+01 6.871100032418240744e+02
2.480000000000000071e+01 6.816053502165519831e+02
2.520000000000000284e+01 6.762525938393305296e+02
2.560000000000000142e+01 6.710445390778635328e+02
2.600000000000000000e+01 6.659744703491844575e+02
2.640000000000000213e+01 6.610361106022617150e+02
2.680000000000000071e+01 6.562235846356402362e+02
2.719999999999999929e+01 6.515313861370918858e+02
2.760000000000000142e+01 6.469543480031920808e+02
2.800000000000000000e+01 6.424876155566802254e+02
2.840000000000000213e+01 6.381266223303014158e+02
2.880000000000000071e+01 6.338670681290875564e+02
2.920000000000000284e+01 6.297048991199577586e+02
2.960000000000000142e+01 6.256362897291385252e+02
3.000000000000000000e+01 6.216576261550590061e+02
3.040000000000000213e+01 6.177654913277616515e+02
3.080000000000000071e+01 6.139566511660667629e+02
3.120000000000000284e+01 6.102280420012200466e+02
3.160000000000000142e+01 6.065767590509276488e+02
3.200000000000000000e+01 6.030000458409024304e+02
3.240000000000000568e+01 5.994952844825634202e+02
3.279999999999999716e+01 5.960599867256066773e+02
3.320000000000000284e+01 5.926917857129943741e+02
3.360000000000000142e+01 5.893884283736599627e+02
3.400000000000000000e+01 5.861477683950441815e+02
3.440000000000000568e+01 5.829677597235936446e+02
3.479999999999999716e+01 5.798464505466611172e+02
3.520000000000000284e+01 5.767819777139488906e+02
3.560000000000000142e+01 5.737725615608019325e+02
3.600000000000000000e+01 5.708165010993600390e+02
3.640000000000000568e+01 5.679121695468691087e+02
3.679999999999999716e+01 5.650580101633884169e+02
3.720000000000000284e+01 5.622525323737436338e+02
3.760000000000000142e+01 5.594943081509265994e+02
3.800000000000000000e+01 5.567819686402268644e+02
3.840000000000000568e+01 5.541142010052697060e+02
3.879999999999999716e+01 5.514897454788170990e+02
3.920000000000000284e+01 5.489073926027064090e+02
3.960000000000000142e+01 5.463659806426719570e+02
4.000000000000000000e+01 5.438643931650200329e+02
4.040000000000000568e+01 5.414015567632452530e+02
4.079999999999999716e+01 5.389764389236806892e+02
4.120000000000000284e+01 5.365880460201816504e+02
4.160000000000000142e+01 5.342354214286699516e+02
4.200000000000000000e+01 5.319176437531131114e+02
4.239999999999999858e+01 5.296338251551917438e+02
4.280000000000000426e+01 5.273831097805243644e+02
4.320000000000000284e+01 5.251646722748862430e+02
4.360000000000000142e+01 5.229777163843650669e+02
4.400000000000000000e+01 5.208214736338670718e+02
4.439999999999999858e+01 5.186952020788146456e+02
4.480000000000000426e+01 5.165981851252621482e+02
4.520000000000000284e+01 5.145297304140200367e+02
4.560000000000000142e+01 5.124891687646967284e+02
4.600000000000000000e+01 5.104758531758735671e+02
4.639999999999999858e+01 5.084891578778990606e+02
4.680000000000000426e+01 5.065284774350428734e+02
4.720000000000000284e+01 5.045932258939800477e+02
4.760000000000000142e+01 5.026828359757917042e+02
4.800000000000000000e+01 5.007967583088631045e+02
4.840000000000000568e+01 4.989344607002405496e+02
4.880000000000000426e+01 4.970954274431784370e+02
4.920000000000000284e+01 4.952791586587561596e+02
4.960000000000000142e+01 4.934851696695938017e+02
5.000000000000000000e+01 4.917129904038213226e+02
5.040000000000000568e+01 4.899621648275796133e+02
5.080000000000000426e+01 4.882322504044454945e+02
5.120000000000000284e+01 4.865228175802742498e+02
5.160000000000000142e+01 4.848334492920527055e+02
5.200000000000000000e+01 4.831637404994448275e+02
5.240000000000000568e+01 4.815132977377912198e+02
5.280000000000000426e+01 4.798817386914090548e+02
5.320000000000000284e+01 4.782686917861023517e+02
5.360000000000000142e+01 4.766737957998655020e+02
5.400000000000000000e+01 4.750966994908207539e+02
5.440000000000000568e+01 4.735370612414928360e+02
5.480000000000000426e+01 4.719945487185725597e+02
5.520000000000000284e+01 4.704688385473756966e+02
5.560000000000000142e+01 4.689596160002495822e+02
5.600000000000000000e+01 4.674665746982203132e+02
5.640000000000000568e+01 4.659894163252211001e+02
5.680000000000000426e+01 4.645278503542720046e+02
5.720000000000000284e+01 4.630815937850250066e+02
5.760000000000000142e+01 4.616503708921162570e+02
5.800000000000000000e+01 4.602339129838011900e+02
5.840000000000000568e+01 4.588319581703780159e+02
5.880000000000000426e+01 4.574442511419295556e+02
5.920000000000000284e+01 4.560705429549421979e+02
5.960000000000000142e+01 4.547105908273846353e+02
6.000000000000000000e+01 4.533641579418485321e+02
6.040000000000000568e+01 4.520310132563801062e+02
6.080000000000000426e+01 4.507109313226441145e+02
6.120000000000000284e+01 4.494036921110894127e+02
6.160000000000000142e+01 4.481090808427945831e+02
6.200000000000000000e+01 4.468268878276942928e+02
6.240000000000000568e+01 4.455569083088999491e+02
6.280000000000000426e+01 4.442989423128447015e+02
6.320000000000000284e+01 4.430527945049940968e+02
6.360000000000000142e+01 4.418182740508800634e+02
6.400000000000000000e+01 4.405951944822257360e+02
6.440000000000000568e+01 4.393833735679407937e+02
6.480000000000001137e+01 4.381826331897789260e+02
6.520000000000000284e+01 4.369927992224583022e+02
6.559999999999999432e+01 4.358137014180551319e+02
6.600000000000000000e+01 4.346451732944921673e+02
6.640000000000000568e+01 4.334870520279494599e+02
6.680000000000001137e+01 4.323391783490358193e+02
6.720000000000000284e+01 4.312013964425640324e+02
6.759999999999999432e+01 4.300735538507846627e+02
6.800000000000000000e+01 4.289555013799351286e+02
6.840000000000000568e+01 4.278470930099715588e+02
6.880000000000001137e+01 4.267481858073546164e+02
6.920000000000000284e+01 4.256586398407683873e+02
6.959999999999999432e+01 4.245783180996533019e+02
7.000000000000000000e+01 4.235070864154465653e+02
7.040000000000000568e+01 4.224448133854190814e+02
7.080000000000001137e+01 4.213913702990106458e+02
7.120000000000000284e+01 4.203466310665665446e+02
7.159999999999999432e+01 4.193104721503821111e+02
7.200000000000000000e+01 4.182827724979669028e+02
7.240000000000000568e+01 4.172634134774456811e+02
7.280000000000001137e+01 4.162522788150136535e+02
7.320000000000000284e+01 4.152492545343695269e+02
7.359999999999999432e+01 4.142542288980532135e+02
7.400000000000000000e+01 4.132670923506154850e+02
7.440000000000000568e+01 4.122877374635549472e+02
7.479999999999999716e+01 4.113160588819544614e+02
7.520000000000000284e+01 4.103519532727561909e+02
7.560000000000000853e+01 4.093953192746180321e+02
7.600000000000000000e+01 4.084460574492892420e+02
7.640000000000000568e+01 4.075040702344567194e+02
7.679999999999999716e+01 4.065692618980050383e+02
7.720000000000000284e+01 4.056415384936421447e+02
7.760000000000000853e+01 4.047208078178422852e+02
7.800000000000000000e+01 4.038069793680596717e+02
7.840000000000000568e+01 4.028999643021692236e+02
7.879999999999999716e+01 4.019996753990908473e+02
7.920000000000000284e+01 4.011060270205562119e+02
7.960000000000000853e+01 4.002189350739820384e+02
8.000000000000000000e+01 3.993383169764070431e+02
8.040000000000000568e+01 3.984640916194598503e+02
8.079999999999999716e+01 3.975961793353238249e+02
8.120000000000000284e+01 3.967345018636611940e+02
8.160000000000000853e+01 3.958789823194694009e+02
8.200000000000000000e+01 3.950295451618350739e+02
8.240000000000000568e+01 3.941861161635574717e+02
8.279999999999999716e+01 3.933486223816133247e+02
8.320000000000000284e+01 3.925169921284333441e+02
8.360000000000000853e+01 3.916911549439674900e+02
8.400000000000000000e+01 3.908710415685096677e+02
8.440000000000000568e+01 3.900565839162597968e+02
8.479999999999999716e+01 3.892477150495997762e+02
8.520000000000000284e+01 3.884443691540585633e+02
8.560000000000000853e+01 3.876464815139469238e+02
8.600000000000000000e+01 3.868539884886386062e+02
8.640000000000000568e+01 3.860668274894790102e+02
8.680000000000001137e+01 3.852849369573017384e+02
8.720000000000000284e+01 3.845082563405333076e+02
8.760000000000000853e+01 3.837367260738678851e+02
8.800000000000000000e+01 3.829702875574956806e+02
8.840000000000000568e+01 3.822088831368663477e+02
8.880000000000001137e+01 3.814524560829730717e+02
8.920000000000000284e+01 3.807009505731386980e+02
8.960000000000000853e+01 3.799543116722923628e+02
9.000000000000000000e+01 3.792124853147183217e+02
9.040000000000000568e+01 3.784754182862657217e+02
9.080000000000001137e+01 3.777430582070035712e+02
9.120000000000000284e+01 3.770153535143089130e+02
9.160000000000000853e+01 3.762922534463742750e+02
9.200000000000000000e+01 3.755737080261246206e+02
9.240000000000000568e+01 3.748596680455275987e+02
9.280000000000001137e+01 3.741500850502901585e+02
9.320000000000000284e+01 3.734449113249269203e+02
9.360000000000000853e+01 3.727440998781916051e+02
9.400000000000000000e+01 3.720476044288603248e+02
9.440000000000000568e+01 3.713553793918568431e+02
9.480000000000001137e+01 3.706673798647096874e+02
9.520000000000000284e+01 3.699835616143322454e+02
9.560000000000000853e+01 3.693038810641172063e+02
9.600000000000000000e+01 3.686282952813346014e+02
9.640000000000000568e+01 3.679567619648270238e+02
9.680000000000001137e+01 3.672892394329935541e+02
9.720000000000000284e+01 3.666256866120521636e+02
9.760000000000000853e+01 3.659660630245766129e+02
9.800000000000000000e+01 3.653103287782964799e+02
9.840000000000000568e+01 3.646584445551558815e+02
9.880000000000001137e+01 3.640103716006227614e+02
9.920000000000000284e+01 3.633660717132421496e+02
9.960000000000000853e+01 3.627255072344264022e+02
1.000000000000000000e+02 3.620886410384765668e+02
1.004000000000000057e+02 3.614554365228289043e+02
1.008000000000000114e+02 3.608258575985193488e+02
1.012000000000000028e+02 3.601998686808620391e+02
1.016000000000000085e+02 3.595774346803341359e+02
1.020000000000000000e+02 3.589585209936630008e+02
1.024000000000000057e+02 3.583430934951106792e+02
1.028000000000000114e+02 3.577311185279482402e+02
1.032000000000000028e+02 3.571225628961183247e+02
1.036000000000000085e+02 3.565173938560782290e+02
1.040000000000000000e+02 3.559155791088204523e+02
1.044000000000000057e+02 3.553170867920656519e+02
1.048000000000000114e+02 3.547218854726237396e+02
1.052000000000000028e+02 3.541299441389184608e+02
1.056000000000000085e+02 3.535412321936717035e+02
1.060000000000000000e+02 3.529557194467433305e+02
1.064000000000000057e+02 3.523733761081235798e+02
1.068000000000000114e+02 3.517941727810712109e+02
1.072000000000000028e+02 3.512180804553982512e+02
1.076000000000000085e+02 3.506450705008938939e+02
1.080000000000000000e+02 3.500751146608857312e+02
1.084000000000000057e+02 3.495081850459349084e+02
1.088000000000000114e+02 3.489442541276616794e+02
1.092000000000000028e+02 3.483832947326984595e+02
1.096000000000000085e+02 3.478252800367661166e+02
1.100000000000000000e+02 3.472701835588727590e+02
1.104000000000000057e+02 3.467179791556294504e+02
1.108000000000000114e+02 3.461686410156822831e+02
1.112000000000000028e+02 3.456221436542563197e+02
1.116000000000000085e+02 3.450784619078096966e+02
1.120000000000000000e+02 3.445375709287950485e+02
1.124000000000000057e+02 3.439994461805257515e+02
1.128000000000000114e+02 3.434640634321442576e+02
1.132000000000000028e+02 3.429313987536900186e+02
1.136000000000000085e+02 3.424014285112654079e+02
1.140000000000000000e+02 3.418741293622966282e+02
1.144000000000000057e+02 3.413494782508875005e+02
1.148000000000000114e+02 3.408274524032644877e+02
1.152000000000000028e+02 3.403080293233096540e+02
1.156000000000000085e+02 3.397911867881815056e+02
1.160000000000000000e+02 3.392769028440193324e+02
1.164000000000000057e+02 3.387651558017309412e+02
1.168000000000000114e+02 3.382559242328615596e+02
1.172000000000000028e+02 3.377491869655407299e+02
1.176000000000000085e+02 3.372449230805075899e+02
1.180000000000000000e+02 3.367431119072111869e+02
1.184000000000000057e+02 3.362437330199842336e+02
1.188000000000000114e+02 3.357467662342899075e+02
1.192000000000000028e+02 3.352521916030379430e+02
1.196000000000000085e+02 3.347599894129712084e+02
1.200000000000000000e+02 3.342701401811183928e+02
1.204000000000000057e+02 3.337826246513134265e+02
1.208000000000000114e+02 3.332974237907791917e+02
1.212000000000000028e+02 3.328145187867744426e+02
1.216000000000000085e+02 3.323338910433018327e+02
1.220000000000000000e+02 3.318555221778775604e+02
1.224000000000000057e+02 3.313793940183585960e+02
1.228000000000000114e+02 3.309054885998289137e+02
1.232000000000000028e+02 3.304337881615415995e+02
1.236000000000000085e+02 3.299642751439162112e+02
1.240000000000000000e+02 3.294969321855909357e+02
1.244000000000000057e+02 3.290317421205269852e+02
1.248000000000000114e+02 3.285686879751650054e+02
1.252000000000000028e+02 3.281077529656331535e+02
1.256000000000000085e+02 3.276489204950032104e+02
1.260000000000000000e+02 3.271921741505965997e+02
1.264000000000000057e+02 3.267374977013379294e+02
1.268000000000000114e+02 3.262848750951542343e+02
1.272000000000000028e+02 3.258342904564211722e+02
1.276000000000000085e+02 3.253857280834527614e+02
1.280000000000000000e+02 3.249391724460356841e+02
1.284000000000000057e+02 3.244946081830059939e+02
1.288000000000000114e+02 3.240520200998680025e+02
1.291999999999999886e+02 3.236113931664546044e+02
1.296000000000000227e+02 3.231727125146267099e+02
1.300000000000000000e+02 3.227359634360143446e+02
1.304000000000000057e+02 3.223011313797935600e+02
1.308000000000000114e+02 3.218682019505039307e+02
1.311999999999999886e+02 3.214371609059011803e+02
1.316000000000000227e+02 3.210079941548475517e+02
1.320000000000000000e+02 3.205806877552366245e+02
1.324000000000000057e+02 3.201552279119543982e+02
1.328000000000000114e+02 3.197316009748731744e+02
1.331999999999999886e+02 3.193097934368801702e+02
1.336000000000000227e+02 3.188897919319382481e+02
1.340000000000000000e+02 3.184715832331795013e+02
1.344000000000000057e+02 3.180551542510297622e+02
1.348000000000000114e+02 3.176404920313648290e+02
1.351999999999999886e+02 3.172275837536963081e+02
1.356000000000000227e+02 3.168164167293878677e+02
1.360000000000000000e+02 3.164069783999006518e+02
1.364000000000000057e+02 3.159992563350666046e+02
1.368000000000000114e+02 3.155932382313910125e+02
1.371999999999999886e+02 3.151889119103815347e+02
1.376000000000000227e+02 3.147862653169050873e+02
1.380000000000000000e+02 3.143852865175707620e+02
1.384000000000000057e+02 3.139859636991383809e+02
1.388000000000000114e+02 3.135882851669539946e+02
1.392000000000000171e+02 3.131922393434082323e+02
1.395999999999999943e+02 3.127978147664215953e+02
1.400000000000000000e+02 3.124050000879514073e+02
1.404000000000000057e+02 3.120137840725244587e+02
1.408000000000000114e+02 3.116241555957917058e+02
1.412000000000000171e+02 3.112361036431058210e+02
1.415999999999999943e+02 3.108496173081215943e+02
1.420000000000000000e+02 3.104646857914174234e+02
1.424000000000000057e+02 3.100812983991391434e+02
1.428000000000000114e+02 3.096994445416644339e+02
1.432000000000000171e+02 3.093191137322881445e+02
1.435999999999999943e+02 3.089402955859280269e+02
1.440000000000000000e+02 3.085629798178499641e+02
1.444000000000000057e+02 3.081871562424136073e+02
1.448000000000000114e+02 3.078128147718365426e+02
1.452000000000000171e+02 3.074399454149778990e+02
1.455999999999999943e+02 3.070685382761397477e+02
1.460000000000000000e+02 3.066985835538876586e+02
1.464000000000000057e+02 3.063300715398884790e+02
1.468000000000000114e+02 3.059629926177661901e+02
1.472000000000000171e+02 3.055973372619741895e+02
1.475999999999999943e+02 3.052330960366855948e+02
1.480000000000000000e+02 3.048702595946992346e+02
1.484000000000000057e+02 3.045088186763629210e+02
1.488000000000000114e+02 3.041487641085116707e+02
1.492000000000000171e+02 3.037900868034228097e+02
1.495999999999999943e+02 3.034327777577856864e+02
1.500000000000000000e+02 3.030768280516872437e+02
