1.000000000000000000e+01 5.592000535598148190e+02
1.040000000000000036e+01 6.878426089709666940e+02
1.080000000000000071e+01 8.051020294001829143e+02
1.119999999999999929e+01 8.566450118156350300e+02
1.159999999999999964e+01 8.703858938179967026e+02
1.200000000000000000e+01 8.784739588840056967e+02
1.240000000000000036e+01 8.820584057557233564e+02
1.280000000000000071e+01 8.821028599422830894e+02
1.319999999999999929e+01 8.710818288003072212e+02
1.359999999999999964e+01 8.619662985189938809e+02
1.400000000000000000e+01 8.566006730256397077e+02
1.440000000000000036e+01 8.507383456839752398e+02
1.480000000000000071e+01 8.366896335180981623e+02
1.519999999999999929e+01 8.234443232806577271e+02
1.560000000000000142e+01 8.109240595055387075e+02
1.600000000000000000e+01 7.990611929379437015e+02
1.639999999999999858e+01 7.877969117179912928e+02
1.680000000000000071e+01 7.770797674289857468e+02
1.719999999999999929e+01 7.668644985752007415e+02
1.760000000000000142e+01 7.571110814123640012e+02
1.800000000000000000e+01 7.477839568439188724e+02
1.839999999999999858e+01 7.388513952635823898e+02
1.880000000000000071e+01 7.302849706181393685e+02
1.920000000000000284e+01 7.220591217730445806e+02
1.960000000000000142e+01 7.141507842696139505e+02
2.000000000000000000e+01 7.065390792914229223e+02
2.039999999999999858e+01 6.992050494677666848e+02
2.080000000000000071e+01 6.921314332828544593e+02
2.120000000000000284e+01 6.853024715064049133e+02
2.160000000000000142e+01 6.787037403399872346e+02
2.200000000000000000e+01 6.723220069745358387e+02
2.239999999999999858e+01 6.661451040443855618e+02
2.280000000000000071e+01 6.601618200910015730e+02
2.320000000000000284e+01 6.543618036520007308e+02
2.360000000000000142e+01 6.487354789956712011e+02
2.400000000000000000e+01 6.432739718490142877e+02
2.439999999999999858e+01 6.379690437344136171e+02
2.480000000000000071e+01 6.328130337488048553e+02
2.520000000000000284e+01 6.277988067993165942e+02
2.560000000000000142e+01 6.229197074582991718e+02
2.600000000000000000e+01 6.181695187244465615e+02
2.640000000000000213e+01 6.135424250799794663e+02
2.680000000000000071e+01 6.090329793203960662e+02
2.719999999999999929e+01 6.046360727060845193e+02
2.760000000000000142e+01 6.003469080465356456e+02
2.800000000000000000e+01 5.961609753799616556e+02
2.840000000000000213e+01 5.920740299553806381e+02
2.880000000000000071e+01 5.880820722619855587e+02
2.920000000000000284e+01 5.841813298829023324e+02
2.960000000000000142e+01 5.803682409781638398e+02
3.000000000000000000e+01 5.766394392255771209e+02
3.040000000000000213e+01 5.729917400687362488e+02
3.080000000000000071e+01 5.694221281392538003e+02
3.120000000000000284e+01 5.659277457357227377e+02
3.160000000000000142e+01 5.625058822553610298e+02
3.200000000000000000e+01 5.591539644860023373e+02
3.240000000000000568e+01 5.558695476763250554e+02
3.279999999999999716e+01 5.526503073111739468e+02
3.320000000000000284e+01 5.494940315266901507e+02
3.360000000000000142e+01 5.463986141068799043e+02
3.400000000000000000e+01 5.433620480093392189e+02
3.440000000000000568e+01 5.403824193732366439e+02
3.479999999999999716e+01 5.374579019674068832e+02
3.520000000000000284e+01 5.345867520406238782e+02
3.560000000000000142e+01 5.317673035398663615e+02
3.600000000000000000e+01 5.289979636657109268e+02
3.640000000000000568e+01 5.262772087369532983e+02
3.679999999999999716e+01 5.236035803392032904e+02
3.720000000000000284e+01 5.209756817345552236e+02
3.760000000000000142e+01 5.183921745115582098e+02
3.800000000000000000e+01 5.158517754565928044e+02
3.840000000000000568e+01 5.133532536294758302e+02
3.879999999999999716e+01 5.108954276276274413e+02
3.920000000000000284e+01 5.084771630245218148e+02
3.960000000000000142e+01 5.060973699693788035e+02
4.000000000000000000e+01 5.037550009361675052e+02
4.040000000000000568e+01 5.014490486110117899e+02
4.079999999999999716e+01 4.991785439079945945e+02
4.120000000000000284e+01 4.969425541041919701e+02
4.160000000000000142e+01 4.947401810855131998e+02
4.200000000000000000e+01 4.925705596956104273e+02
4.239999999999999858e+01 4.904328561807367350e+02
4.280000000000000426e+01 4.883262667239975485e+02
4.320000000000000284e+01 4.862500160629543871e+02
4.360000000000000142e+01 4.842033561850059868e+02
4.400000000000000000e+01 4.821855650954005341e+02
4.439999999999999858e+01 4.801959456531253636e+02
4.480000000000000426e+01 4.782338244702723387e+02
4.520000000000000284e+01 4.762985508708110274e+02
4.560000000000000142e+01 4.743894959049940780e+02
4.600000000000000000e+01 4.725060514159009699e+02
4.639999999999999858e+01 4.706476291548726749e+02
4.680000000000000426e+01 4.688136599428257227e+02
4.720000000000000284e+01 4.670035928746445961e+02
4.760000000000000142e+01 4.652168945640485163e+02
4.800000000000000000e+01 4.634530484265106338e+02
4.840000000000000568e+01 4.617115539979707819e+02
4.880000000000000426e+01 4.599919262872407444e+02
4.920000000000000284e+01 4.582936951601388387e+02
4.960000000000000142e+01 4.566164047535248756e+02
5.000000000000000000e+01 4.549596129175269539e+02
5.040000000000000568e+01 4.533228906843611412e+02
5.080000000000000426e+01 4.517058217622534357e+02
5.120000000000000284e+01 4.501080020530656611e+02
5.160000000000000142e+01 4.485290391923182369e+02
5.200000000000000000e+01 4.469685521103864403e+02
5.240000000000000568e+01 4.454261706137194210e+02
5.280000000000000426e+01 4.439015349850092207e+02
5.320000000000000284e+01 4.423942956012976424e+02
5.360000000000000142e+01 4.409041125690731633e+02
5.400000000000000000e+01 4.394306553754686320e+02
5.440000000000000568e+01 4.379736025547219356e+02
5.480000000000000426e+01 4.365326413691128096e+02
5.520000000000000284e+01 4.351074675036355757e+02
5.560000000000000142e+01 4.336977847737121579e+02
5.600000000000000000e+01 4.323033048452863909e+02
5.640000000000000568e+01 4.309237469666857123e+02
5.680000000000000426e+01 4.295588377116629317e+02
5.720000000000000284e+01 4.282083107330722100e+02
5.760000000000000142e+01 4.268719065266580515e+02
5.800000000000000000e+01 4.255493722044694778e+02
5.840000000000000568e+01 4.242404612774371344e+02
5.880000000000000426e+01 4.229449334466752362e+02
5.920000000000000284e+01 4.216625544030968058e+02
5.960000000000000142e+01 4.203930956349522603e+02
6.000000000000000000e+01 4.191363342429198156e+02
6.040000000000000568e+01 4.178920527624015335e+02
6.080000000000000426e+01 4.166600389926909997e+02
6.120000000000000284e+01 4.154400858327014134e+02
6.160000000000000142e+01 4.142319911229557192e+02
6.200000000000000000e+01 4.130355574935583718e+02
6.240000000000000568e+01 4.118505922178808305e+02
6.280000000000000426e+01 4.106769070717081149e+02
6.320000000000000284e+01 4.095143181976059168e+02
6.360000000000000142e+01 4.083626459742798147e+02
6.400000000000000000e+01 4.072217148907103592e+02
6.440000000000000568e+01 4.060913534248578571e+02
6.480000000000001137e+01 4.049713939267408023e+02
6.520000000000000284e+01 4.038616725057033818e+02
6.559999999999999432e+01 4.027620289216924903e+02
6.600000000000000000e+01 4.016723064803789498e+02
6.640000000000000568e+01 4.005923519319600814e+02
6.680000000000001137e+01 3.995220153734932751e+02
6.720000000000000284e+01 3.984611501546131649e+02
6.759999999999999432e+01 3.974096127864963250e+02
6.800000000000000000e+01 3.963672628539393941e+02
6.840000000000000568e+01 3.953339629304267078e+02
6.880000000000001137e+01 3.943095784960661376e+02
6.920000000000000284e+01 3.932939778582806412e+02
6.959999999999999432e+01 3.922870320751432018e+02
7.000000000000000000e+01 3.912886148812553984e+02
7.040000000000000568e+01 3.902986026160665460e+02
7.080000000000001137e+01 3.893168741545397893e+02
7.120000000000000284e+01 3.883433108400754463e+02
7.159999999999999432e+01 3.873777964196028734e+02
7.200000000000000000e+01 3.864202169807596761e+02
7.240000000000000568e+01 3.854704608910790284e+02
7.280000000000001137e+01 3.845284187391080764e+02
7.320000000000000284e+01 3.835939832773859735e+02
7.359999999999999432e+01 3.826670493672131670e+02
7.400000000000000000e+01 3.817475139251424139e+02
7.440000000000000568e+01 3.808352758711326373e+02
7.479999999999999716e+01 3.799302360783004247e+02
7.520000000000000284e+01 3.790322973242129478e+02
7.560000000000000853e+01 3.781413642436681357e+02
7.600000000000000000e+01 3.772573432829038893e+02
7.640000000000000568e+01 3.763801426551912073e+02
7.679999999999999716e+01 3.755096722977561967e+02
7.720000000000000284e+01 3.746458438299878253e+02
7.760000000000000853e+01 3.737885705128849168e+02
7.800000000000000000e+01 3.729377672096986203e+02
7.840000000000000568e+01 3.720933503477292561e+02
7.879999999999999716e+01 3.712552378812375764e+02
7.920000000000000284e+01 3.704233492554305940e+02
7.960000000000000853e+01 3.695976053714888963e+02
8.000000000000000000e+01 3.687779285525954833e+02
8.040000000000000568e+01 3.679642425109343549e+02
8.079999999999999716e+01 3.671564723156277523e+02
8.120000000000000284e+01 3.663545443615766430e+02
8.160000000000000853e+01 3.655583863391782984e+02
8.200000000000000000e+01 3.647679272048892472e+02
8.240000000000000568e+01 3.639830971526064332e+02
8.279999999999999716e+01 3.632038275858410543e+02
8.320000000000000284e+01 3.624300510906561499e+02
8.360000000000000853e+01 3.616617014093469606e+02
8.400000000000000000e+01 3.608987134148366067e+02
8.440000000000000568e+01 3.601410230857657666e+02
8.479999999999999716e+01 3.593885674822549845e+02
8.520000000000000284e+01 3.586412847223155040e+02
8.560000000000000853e+01 3.578991139588910073e+02
8.600000000000000000e+01 3.571619953575083741e+02
8.640000000000000568e+01 3.564298700745188171e+02
8.680000000000001137e+01 3.557026802359123394e+02
8.720000000000000284e+01 3.549803689166851655e+02
8.760000000000000853e+01 3.542628801207454217e+02
8.800000000000000000e+01 3.535501587613388210e+02
8.840000000000000568e+01 3.528421506419796287e+02
8.880000000000001137e+01 3.521388024378712203e+02
8.920000000000000284e+01 3.514400616777999744e+02
8.960000000000000853e+01 3.507458767264913604e+02
9.000000000000000000e+01 3.500561967674104835e+02
9.040000000000000568e+01 3.493709717859973125e+02
9.080000000000001137e+01 3.486901525533207291e+02
9.120000000000000284e+01 3.480136906101416230e+02
9.160000000000000853e+01 3.473415382513704799e+02
9.200000000000000000e+01 3.466736485109102546e+02
9.240000000000000568e+01 3.460099751468712839e+02
9.280000000000001137e+01 3.453504726271486334e+02
9.320000000000000284e+01 3.446950961153510207e+02
9.360000000000000853e+01 3.440438014570711402e+02
9.400000000000000000e+01 3.433965451664877264e+02
9.440000000000000568e+01 3.427532844132895207e+02
9.480000000000001137e+01 3.421139770099132420e+02
9.520000000000000284e+01 3.414785813990838506e+02
9.560000000000000853e+01 3.408470566416530687e+02
9.600000000000000000e+01 3.402193624047226876e+02
9.640000000000000568e+01 3.395954589500486804e+02
9.680000000000001137e+01 3.389753071227165719e+02
9.720000000000000284e+01 3.383588683400807327e+02
9.760000000000000853e+01 3.377461045809603775e+02
9.800000000000000000e+01 3.371369783750853912e+02
9.840000000000000568e+01 3.365314527927847621e+02
9.880000000000001137e+01 3.359294914349122223e+02
9.920000000000000284e+01 3.353310584230003997e+02
9.960000000000000853e+01 3.347361183896397847e+02
1.000000000000000000e+02 3.341446364690746691e+02
1.004000000000000057e+02 3.335565782880116217e+02
1.008000000000000114e+02 3.329719099566333398e+02
1.012000000000000028e+02 3.323905980598143515e+02
1.016000000000000085e+02 3.318126096485308381e+02
1.020000000000000000e+02 3.312379122314617916e+02
1.024000000000000057e+02 3.306664737667753116e+02
1.028000000000000114e+02 3.300982626540950378e+02
1.032000000000000028e+02 3.295332477266425144e+02
1.036000000000000085e+02 3.289713982435512776e+02
1.040000000000000000e+02 3.284126838823469825e+02
1.044000000000000057e+02 3.278570747315907283e+02
1.048000000000000114e+02 3.273045412836808055e+02
1.052000000000000028e+02 3.267550544278080906e+02
1.056000000000000085e+02 3.262085854430628160e+02
1.060000000000000000e+02 3.256651059916874829e+02
1.064000000000000057e+02 3.251245881124729067e+02
1.068000000000000114e+02 3.245870042142934722e+02
1.072000000000000028e+02 3.240523270697785847e+02
1.076000000000000085e+02 3.235205298091166242e+02
1.080000000000000000e+02 3.229915859139878762e+02
1.084000000000000057e+02 3.224654692116237129e+02
1.088000000000000114e+02 3.219421538689887825e+02
1.092000000000000028e+02 3.214216143870834230e+02
1.096000000000000085e+02 3.209038255953622070e+02
1.100000000000000000e+02 3.203887626462677076e+02
1.104000000000000057e+02 3.198764010098752806e+02
1.108000000000000114e+02 3.193667164686463025e+02
1.112000000000000028e+02 3.188596851122883891e+02
1.116000000000000085e+02 3.183552833327178746e+02
1.120000000000000000e+02 3.178534878191248936e+02
1.124000000000000057e+02 3.173542755531361195e+02
1.128000000000000114e+02 3.168576238040744215e+02
1.132000000000000028e+02 3.163635101243123700e+02
1.136000000000000085e+02 3.158719123447180550e+02
1.140000000000000000e+02 3.153828085701899226e+02
1.144000000000000057e+02 3.148961771752801155e+02
1.148000000000000114e+02 3.144119967999033065e+02
1.152000000000000028e+02 3.139302463451280119e+02
1.156000000000000085e+02 3.134509049690518623e+02
1.160000000000000000e+02 3.129739520827545789e+02
1.164000000000000057e+02 3.124993673463297910e+02
1.168000000000000114e+02 3.120271306649938197e+02
1.172000000000000028e+02 3.115572221852675057e+02
1.176000000000000085e+02 3.110896222912321605e+02
1.180000000000000000e+02 3.106243116008562311e+02
1.184000000000000057e+02 3.101612709623909154e+02
1.188000000000000114e+02 3.097004814508350705e+02
1.192000000000000028e+02 3.092419243644653761e+02
1.196000000000000085e+02 3.087855812214326079e+02
1.200000000000000000e+02 3.083314337564203811e+02
1.204000000000000057e+02 3.078794639173671044e+02
1.208000000000000114e+02 3.074296538622481307e+02
1.212000000000000028e+02 3.069819859559176507e+02
1.216000000000000085e+02 3.065364427670083387e+02
1.220000000000000000e+02 3.060930070648886954e+02
1.224000000000000057e+02 3.056516618166752437e+02
1.228000000000000114e+02 3.052123901842997498e+02
1.232000000000000028e+02 3.047751755216293645e+02
1.236000000000000085e+02 3.043400013716391186e+02
1.240000000000000000e+02 3.039068514636355758e+02
1.244000000000000057e+02 3.034757097105302250e+02
1.248000000000000114e+02 3.030465602061614163e+02
1.252000000000000028e+02 3.026193872226650683e+02
1.256000000000000085e+02 3.021941752078913623e+02
1.260000000000000000e+02 3.017709087828676502e+02
1.264000000000000057e+02 3.013495727393059838e+02
1.268000000000000114e+02 3.009301520371550396e+02
1.272000000000000028e+02 3.005126318021948464e+02
1.276000000000000085e+02 3.000969973236731789e+02
1.280000000000000000e+02 2.996832340519840727e+02
1.284000000000000057e+02 2.992713275963862429e+02
1.288000000000000114e+02 2.988612637227609525e+02
1.291999999999999886e+02 2.984530283514091025e+02
1.296000000000000227e+02 2.980466075548857248e+02
1.300000000000000000e+02 2.976419875558724470e+02
1.304000000000000057e+02 2.972391547250853137e+02
1.308000000000000114e+02 2.968380955792196119e+02
1.311999999999999886e+02 2.964387967789284630e+02
1.316000000000000227e+02 2.960412451268365999e+02
1.320000000000000000e+02 2.956454275655869424e+02
1.324000000000000057e+02 2.952513311759211092e+02
1.328000000000000114e+02 2.948589431747910794e+02
1.331999999999999886e+02 2.944682509135030841e+02
1.336000000000000227e+02 2.940792418758928193e+02
1.340000000000000000e+02 2.936919036765300461e+02
1.344000000000000057e+02 2.933062240589538874e+02
1.348000000000000114e+02 2.929221908939369428e+02
1.351999999999999886e+02 2.925397921777781676e+02
1.356000000000000227e+02 2.921590160306233201e+02
1.360000000000000000e+02 2.917798506948140016e+02
1.364000000000000057e+02 2.914022845332625025e+02
1.368000000000000114e+02 2.910263060278537068e+02
1.371999999999999886e+02 2.906519037778733718e+02
1.376000000000000227e+02 2.902790664984606224e+02
1.380000000000000000e+02 2.899077830190869349e+02
1.384000000000000057e+02 2.895380422820579724e+02
1.388000000000000114e+02 2.891698333410416808e+02
1.392000000000000171e+02 2.888031453596170195e+02
1.395999999999999943e+02 2.884379676098487835e+02
1.400000000000000000e+02 2.880742894708827180e+02
1.404000000000000057e+02 2.877121004275645646e+02
1.408000000000000114e+02 2.873513900690802529e+02
1.412000000000000171e+02 2.869921480876170676e+02
1.415999999999999943e+02 2.866343642770472115e+02
1.420000000000000000e+02 2.862780285316301843e+02
1.424000000000000057e+02 2.859231308447373294e+02
1.428000000000000114e+02 2.855696613075945720e+02
1.432000000000000171e+02 2.852176101080462445e+02
1.435999999999999943e+02 2.848669675293365344e+02
1.440000000000000000e+02 2.845177239489108274e+02
1.444000000000000057e+02 2.841698698372352396e+02
1.448000000000000114e+02 2.838233957566342838e+02
1.452000000000000171e+02 2.834782923601459288e+02
1.455999999999999943e+02 2.831345503903947929e+02
1.460000000000000000e+02 2.827921606784821051e+02
1.464000000000000057e+02 2.824511141428924930e+02
1.468000000000000114e+02 2.821114017884178224e+02
1.472000000000000171e+02 2.817730147050961591e+02
1.475999999999999943e+02 2.814359440671685206e+02
1.480000000000000000e+02 2.811001811320488173e+02
1.484000000000000057e+02 2.807657172393122664e+02
1.488000000000000114e+02 2.804325438096957441e+02
1.492000000000000171e+02 2.801006523441154741e+02
1.495999999999999943e+02 2.797700344226979610e+02
1.500000000000000000e+02 2.794406817038259305e+02
