1.000000000000000000e+01 5.239051712601436748e+02
1.040000000000000036e+01 6.564781703998891089e+02
1.080000000000000071e+01 7.346245755171829614e+02
1.119999999999999929e+01 8.409828083321848453e+02
1.159999999999999964e+01 8.650898569973850272e+02
1.200000000000000000e+01 9.300267143659866633e+02
1.240000000000000036e+01 9.526001082756981759e+02
1.280000000000000071e+01 9.694554332245518253e+02
1.319999999999999929e+01 9.797521710388405154e+02
1.359999999999999964e+01 9.963771532461694278e+02
1.400000000000000000e+01 1.025239464123170364e+03
1.440000000000000036e+01 1.047860361251163113e+03
1.480000000000000071e+01 1.044076292941531847e+03
1.519999999999999929e+01 1.024856038807442701e+03
1.560000000000000142e+01 1.006840744978456314e+03
1.600000000000000000e+01 9.899018224629561473e+02
1.639999999999999858e+01 9.739298827406055352e+02
1.680000000000000071e+01 9.588310878435844415e+02
1.719999999999999929e+01 9.445243352471519529e+02
1.760000000000000142e+01 9.309390563799769325e+02
1.800000000000000000e+01 9.180134736350426010e+02
1.839999999999999858e+01 9.056932050309317219e+02
1.880000000000000071e+01 8.939301359645573939e+02
1.920000000000000284e+01 8.826814986173835678e+02
1.960000000000000142e+01 8.719091145561998246e+02
2.000000000000000000e+01 8.615787668572968414e+02
2.039999999999999858e+01 8.516596759617141288e+02
2.080000000000000071e+01 8.421240592976081416e+02
2.120000000000000284e+01 8.329467590682946820e+02
2.160000000000000142e+01 8.241049259053231708e+02
2.200000000000000000e+01 8.155777486085404462e+02
2.239999999999999858e+01 8.073462221408954065e+02
2.280000000000000071e+01 7.993929475596170278e+02
2.320000000000000284e+01 7.917019587527258864e+02
2.360000000000000142e+01 7.842585717880755283e+02
2.400000000000000000e+01 7.770492534287504895e+02
2.439999999999999858e+01 7.700615059667334208e+02
2.480000000000000071e+01 7.632837660088398479e+02
2.520000000000000284e+01 7.567053152397842268e+02
2.560000000000000142e+01 7.503162015058852603e+02
2.600000000000000000e+01 7.441071688240840558e+02
2.640000000000000213e+01 7.380695951360285108e+02
2.680000000000000071e+01 7.321954368049597406e+02
2.719999999999999929e+01 7.264771790010790937e+02
2.760000000000000142e+01 7.209077912445667380e+02
2.800000000000000000e+01 7.154806874789159110e+02
2.840000000000000213e+01 7.101896901343401396e+02
2.880000000000000071e+01 7.050289977145423563e+02
2.920000000000000284e+01 6.999931555024663794e+02
2.960000000000000142e+01 6.950770290336397466e+02
3.000000000000000000e+01 6.902757800309346976e+02
3.040000000000000213e+01 6.855848445332593428e+02
3.080000000000000071e+01 6.809999129839015950e+02
3.120000000000000284e+01 6.765169120728312464e+02
3.160000000000000142e+01 6.721319881519386854e+02
3.200000000000000000e+01 6.678414920635406133e+02
3.240000000000000568e+01 6.636419652410136223e+02
3.279999999999999716e+01 6.595301269565248958e+02
3.320000000000000284e+01 6.555028626048831484e+02
3.360000000000000142e+01 6.515572129248117790e+02
3.400000000000000000e+01 6.476903640696961020e+02
3.440000000000000568e+01 6.438996384492932066e+02
3.479999999999999716e+01 6.401824862721983891e+02
3.520000000000000284e+01 6.365364777261720519e+02
3.560000000000000142e+01 6.329592957398938324e+02
3.600000000000000000e+01 6.294487292754190548e+02
3.640000000000000568e+01 6.260026671056848500e+02
3.679999999999999716e+01 6.226190920359018719e+02
3.720000000000000284e+01 6.192960755316679524e+02
3.760000000000000142e+01 6.160317727202066180e+02
3.800000000000000000e+01 6.128244177343027559e+02
3.840000000000000568e+01 6.096723193713585260e+02
3.879999999999999716e+01 6.065738570425255602e+02
3.920000000000000284e+01 6.035274769891537971e+02
3.960000000000000142e+01 6.005316887458434394e+02
4.000000000000000000e+01 5.975850618312192637e+02
4.040000000000000568e+01 5.946862226492112313e+02
4.079999999999999716e+01 5.918338515851080501e+02
4.120000000000000284e+01 5.890266802820042358e+02
4.160000000000000142e+01 5.862634890844734628e+02
4.200000000000000000e+01 5.835431046374056905e+02
4.239999999999999858e+01 5.808643976289398552e+02
4.280000000000000426e+01 5.782262806673305704e+02
4.320000000000000284e+01 5.756277062824098039e+02
4.360000000000000142e+01 5.730676650430477821e+02
4.400000000000000000e+01 5.705451837826992687e+02
4.439999999999999858e+01 5.680593239257432288e+02
4.480000000000000426e+01 5.656091799078802751e+02
4.520000000000000284e+01 5.631938776843775258e+02
4.560000000000000142e+01 5.608125733204143444e+02
4.600000000000000000e+01 5.584644516582158076e+02
4.639999999999999858e+01 5.561487250560567190e+02
4.680000000000000426e+01 5.538646321945758473e+02
4.720000000000000284e+01 5.516114369461779461e+02
4.760000000000000142e+01 5.493884273035978367e+02
4.800000000000000000e+01 5.471949143639897102e+02
4.840000000000000568e+01 5.450302313651520763e+02
4.880000000000000426e+01 5.428937327707446912e+02
4.920000000000000284e+01 5.407847934015642295e+02
4.960000000000000142e+01 5.387028076101519218e+02
5.000000000000000000e+01 5.366471884961907790e+02
5.040000000000000568e+01 5.346173671603175990e+02
5.080000000000000426e+01 5.326127919941396840e+02
5.120000000000000284e+01 5.306329280043859171e+02
5.160000000000000142e+01 5.286772561692629324e+02
5.200000000000000000e+01 5.267452728252103498e+02
5.240000000000000568e+01 5.248364890823618225e+02
5.280000000000000426e+01 5.229504302671349478e+02
5.320000000000000284e+01 5.210866353904638117e+02
5.360000000000000142e+01 5.192446566402876442e+02
5.400000000000000000e+01 5.174240588969929604e+02
5.440000000000000568e+01 5.156244192705851219e+02
5.480000000000000426e+01 5.138453266584440371e+02
5.520000000000000284e+01 5.120863813225853391e+02
5.560000000000000142e+01 5.103471944854130129e+02
5.600000000000000000e+01 5.086273879430125930e+02
5.640000000000000568e+01 5.069265936950872060e+02
5.680000000000000426e+01 5.052444535906938086e+02
5.720000000000000284e+01 5.035806189889848383e+02
5.760000000000000142e+01 5.019347504342062507e+02
5.800000000000000000e+01 5.003065173442461173e+02
5.840000000000000568e+01 4.986955977120703665e+02
5.880000000000000426e+01 4.971016778194141352e+02
5.920000000000000284e+01 4.955244519621385280e+02
5.960000000000000142e+01 4.939636221866926462e+02
6.000000000000000000e+01 4.924188980371500861e+02
6.040000000000000568e+01 4.908899963123225234e+02
6.080000000000000426e+01 4.893766408324753456e+02
6.120000000000000284e+01 4.878785622151987695e+02
6.160000000000000142e+01 4.863954976600115856e+02
6.200000000000000000e+01 4.849271907412955329e+02
6.240000000000000568e+01 4.834733912091812158e+02
6.280000000000000426e+01 4.820338547980262547e+02
6.320000000000000284e+01 4.806083430421427352e+02
6.360000000000000142e+01 4.791966230984529034e+02
6.400000000000000000e+01 4.777984675757638797e+02
6.440000000000000568e+01 4.764136543703720577e+02
6.480000000000001137e+01 4.750419665077185414e+02
6.520000000000000284e+01 4.736831919898363026e+02
6.559999999999999432e+01 4.723371236483343978e+02
6.600000000000000000e+01 4.710035590026880072e+02
6.640000000000000568e+01 4.696823001236041364e+02
6.680000000000001137e+01 4.683731535012510676e+02
6.720000000000000284e+01 4.670759299181454480e+02
6.759999999999999432e+01 4.657904443265057353e+02
6.800000000000000000e+01 4.645165157298844747e+02
6.840000000000000568e+01 4.632539670689041600e+02
6.880000000000001137e+01 4.620026251109293298e+02
6.920000000000000284e+01 4.607623203435148298e+02
6.959999999999999432e+01 4.595328868714771033e+02
7.000000000000000000e+01 4.583141623174443566e+02
7.040000000000000568e+01 4.571059877257470134e+02
7.080000000000001137e+01 4.559082074695139113e+02
7.120000000000000284e+01 4.547206691608515143e+02
7.159999999999999432e+01 4.535432235639824512e+02
7.200000000000000000e+01 4.523757245112307146e+02
7.240000000000000568e+01 4.512180288217414841e+02
7.280000000000001137e+01 4.500699962228326285e+02
7.320000000000000284e+01 4.489314892738752860e+02
7.359999999999999432e+01 4.478023732926091043e+02
7.400000000000000000e+01 4.466825162837997709e+02
7.440000000000000568e+01 4.455717888701511242e+02
7.479999999999999716e+01 4.444700642253876595e+02
7.520000000000000284e+01 4.433772180094265423e+02
7.560000000000000853e+01 4.422931283055633003e+02
7.600000000000000000e+01 4.412176755595966711e+02
7.640000000000000568e+01 4.401507425208214386e+02
7.679999999999999716e+01 4.390922141848230922e+02
7.720000000000000284e+01 4.380419777380079154e+02
7.760000000000000853e+01 4.369999225038073405e+02
7.800000000000000000e+01 4.359659398904964291e+02
7.840000000000000568e+01 4.349399233405696918e+02
7.879999999999999716e+01 4.339217682816192792e+02
7.920000000000000284e+01 4.329113720786623389e+02
7.960000000000000853e+01 4.319086339878685976e+02
8.000000000000000000e+01 4.309134551116380862e+02
8.040000000000000568e+01 4.299257383549824567e+02
8.079999999999999716e+01 4.289453883831677672e+02
8.120000000000000284e+01 4.279723115805717839e+02
8.160000000000000853e+01 4.270064160107178282e+02
8.200000000000000000e+01 4.260476113774446958e+02
8.240000000000000568e+01 4.250958089871728021e+02
8.279999999999999716e+01 4.241509217122329005e+02
8.320000000000000284e+01 4.232128639552198592e+02
8.360000000000000853e+01 4.222815516143383547e+02
8.400000000000000000e+01 4.213569020497087649e+02
8.440000000000000568e+01 4.204388340505991550e+02
8.479999999999999716e+01 4.195272678035579474e+02
8.520000000000000284e+01 4.186221248614127717e+02
8.560000000000000853e+01 4.177233281131118474e+02
8.600000000000000000e+01 4.168308017543786264e+02
8.640000000000000568e+01 4.159444712591542839e+02
8.680000000000001137e+01 4.150642633518035609e+02
8.720000000000000284e+01 4.141901059800600819e+02
8.760000000000000853e+01 4.133219282886860242e+02
8.800000000000000000e+01 4.124596605938264133e+02
8.840000000000000568e+01 4.116032343580349107e+02
8.880000000000001137e+01 4.107525821659507415e+02
8.920000000000000284e+01 4.099076377006059602e+02
8.960000000000000853e+01 4.090683357203458854e+02
9.000000000000000000e+01 4.082346120363409909e+02
9.040000000000000568e+01 4.074064034906753591e+02
9.080000000000001137e+01 4.065836479349912906e+02
9.120000000000000284e+01 4.057662842096762574e+02
9.160000000000000853e+01 4.049542521235735535e+02
9.200000000000000000e+01 4.041474924342031727e+02
9.240000000000000568e+01 4.033459468284755189e+02
9.280000000000001137e+01 4.025495579038854430e+02
9.320000000000000284e+01 4.017582691501714862e+02
9.360000000000000853e+01 4.009720249314268585e+02
9.400000000000000000e+01 4.001907704686490206e+02
9.440000000000000568e+01 3.994144518227155913e+02
9.480000000000001137e+01 3.986430158777731663e+02
9.520000000000000284e+01 3.978764103250287576e+02
9.560000000000000853e+01 3.971145836469314645e+02
9.600000000000000000e+01 3.963574851017327774e+02
9.640000000000000568e+01 3.956050647084156253e+02
9.680000000000001137e+01 3.948572732319822194e+02
9.720000000000000284e+01 3.941140621690889247e+02
9.760000000000000853e+01 3.933753837340200334e+02
9.800000000000000000e+01 3.926411908449907173e+02
9.840000000000000568e+01 3.919114371107685315e+02
9.880000000000001137e+01 3.911860768176077841e+02
9.920000000000000284e+01 3.904650649164847778e+02
9.960000000000000853e+01 3.897483570106281832e+02
1.000000000000000000e+02 3.890359093433348221e+02
1.004000000000000057e+02 3.883276787860646664e+02
1.008000000000000114e+02 3.876236228268060131e+02
1.012000000000000028e+02 3.869236995587051524e+02
1.016000000000000085e+02 3.862278676689511485e+02
1.020000000000000000e+02 3.855360864279124371e+02
1.024000000000000057e+02 3.848483156785142683e+02
1.028000000000000114e+02 3.841645158258544939e+02
1.032000000000000028e+02 3.834846478270490593e+02
1.036000000000000085e+02 3.828086731813020833e+02
1.040000000000000000e+02 3.821365539201942738e+02
1.044000000000000057e+02 3.814682525981843924e+02
1.048000000000000114e+02 3.808037322833184817e+02
1.052000000000000028e+02 3.801429565481399209e+02
1.056000000000000085e+02 3.794858894607976936e+02
1.060000000000000000e+02 3.788324955763452522e+02
1.064000000000000057e+02 3.781827399282271358e+02
1.068000000000000114e+02 3.775365880199473168e+02
1.072000000000000028e+02 3.768940058169149552e+02
1.076000000000000085e+02 3.762549597384638673e+02
1.080000000000000000e+02 3.756194166500400797e+02
1.084000000000000057e+02 3.749873438555538314e+02
1.088000000000000114e+02 3.743587090898926135e+02
1.092000000000000028e+02 3.737334805115907557e+02
1.096000000000000085e+02 3.731116266956501590e+02
1.100000000000000000e+02 3.724931166265117781e+02
1.104000000000000057e+02 3.718779196911710869e+02
1.108000000000000114e+02 3.712660056724353694e+02
1.112000000000000028e+02 3.706573447423197649e+02
1.116000000000000085e+02 3.700519074555773500e+02
1.120000000000000000e+02 3.694496647433612111e+02
1.124000000000000057e+02 3.688505879070154378e+02
1.128000000000000114e+02 3.682546486119904898e+02
1.132000000000000028e+02 3.676618188818817998e+02
1.136000000000000085e+02 3.670720710925871799e+02
1.140000000000000000e+02 3.664853779665814386e+02
1.144000000000000057e+02 3.659017125673044575e+02
1.148000000000000114e+02 3.653210482936610219e+02
1.152000000000000028e+02 3.647433588746279156e+02
1.156000000000000085e+02 3.641686183639693013e+02
1.160000000000000000e+02 3.635968011350535107e+02
1.164000000000000057e+02 3.630278818757719819e+02
1.168000000000000114e+02 3.624618355835577859e+02
1.172000000000000028e+02 3.618986375604989689e+02
1.176000000000000085e+02 3.613382634085481868e+02
1.180000000000000000e+02 3.607806890248233458e+02
1.184000000000000057e+02 3.602258905969983971e+02
1.188000000000000114e+02 3.596738445987830914e+02
1.192000000000000028e+02 3.591245277854877713e+02
1.196000000000000085e+02 3.585779171896732578e+02
1.200000000000000000e+02 3.580339901168820802e+02
1.204000000000000057e+02 3.574927241414509353e+02
1.208000000000000114e+02 3.569540971024014198e+02
1.212000000000000028e+02 3.564180870994076713e+02
1.216000000000000085e+02 3.558846724888391577e+02
1.220000000000000000e+02 3.553538318798771343e+02
1.224000000000000057e+02 3.548255441307029514e+02
1.228000000000000114e+02 3.542997883447570757e+02
1.232000000000000028e+02 3.537765438670656408e+02
1.236000000000000085e+02 3.532557902806362335e+02
1.240000000000000000e+02 3.527375074029181405e+02
1.244000000000000057e+02 3.522216752823273396e+02
1.248000000000000114e+02 3.517082741948345870e+02
1.252000000000000028e+02 3.511972846406158624e+02
1.256000000000000085e+02 3.506886873407616463e+02
1.260000000000000000e+02 3.501824632340469066e+02
1.264000000000000057e+02 3.496785934737580419e+02
1.268000000000000114e+02 3.491770594245764983e+02
1.272000000000000028e+02 3.486778426595182623e+02
1.276000000000000085e+02 3.481809249569269014e+02
1.280000000000000000e+02 3.476862882975203206e+02
1.284000000000000057e+02 3.471939148614893611e+02
1.288000000000000114e+02 3.467037870256471024e+02
1.291999999999999886e+02 3.462158873606285283e+02
1.296000000000000227e+02 3.457301986281381119e+02
1.300000000000000000e+02 3.452467037782465127e+02
1.304000000000000057e+02 3.447653859467329767e+02
1.308000000000000114e+02 3.442862284524742336e+02
1.311999999999999886e+02 3.438092147948783577e+02
1.316000000000000227e+02 3.433343286513620569e+02
1.320000000000000000e+02 3.428615538748721292e+02
1.324000000000000057e+02 3.423908744914481304e+02
1.328000000000000114e+02 3.419222746978271630e+02
1.331999999999999886e+02 3.414557388590890241e+02
1.336000000000000227e+02 3.409912515063412002e+02
1.340000000000000000e+02 3.405287973344424586e+02
1.344000000000000057e+02 3.400683611997654907e+02
1.348000000000000114e+02 3.396099281179958780e+02
1.351999999999999886e+02 3.391534832619688018e+02
1.356000000000000227e+02 3.386990119595411102e+02
1.360000000000000000e+02 3.382464996914987978e+02
1.364000000000000057e+02 3.377959320894992743e+02
1.368000000000000114e+02 3.373472949340469995e+02
1.371999999999999886e+02 3.369005741525032249e+02
1.376000000000000227e+02 3.364557558171273968e+02
1.380000000000000000e+02 3.360128261431515853e+02
1.384000000000000057e+02 3.355717714868844155e+02
1.388000000000000114e+02 3.351325783438487633e+02
1.392000000000000171e+02 3.346952333469461678e+02
1.395999999999999943e+02 3.342597232646537577e+02
1.400000000000000000e+02 3.338260349992477813e+02
1.404000000000000057e+02 3.333941555850577743e+02
1.408000000000000114e+02 3.329640721867469892e+02
1.412000000000000171e+02 3.325357720976210771e+02
1.415999999999999943e+02 3.321092427379637115e+02
1.420000000000000000e+02 3.316844716533973383e+02
1.424000000000000057e+02 3.312614465132721762e+02
1.428000000000000114e+02 3.308401551090781254e+02
1.432000000000000171e+02 3.304205853528829948e+02
1.435999999999999943e+02 3.300027252757952851e+02
1.440000000000000000e+02 3.295865630264499941e+02
1.444000000000000057e+02 3.291720868695190347e+02
1.448000000000000114e+02 3.287592851842439359e+02
1.452000000000000171e+02 3.283481464629923607e+02
1.455999999999999943e+02 3.279386593098353160e+02
1.460000000000000000e+02 3.275308124391475531e+02
1.464000000000000057e+02 3.271245946742292858e+02
1.468000000000000114e+02 3.267199949459484287e+02
1.472000000000000171e+02 3.263170022914039237e+02
1.475999999999999943e+02 3.259156058526095308e+02
1.480000000000000000e+02 3.255157948751971162e+02
1.484000000000000057e+02 3.251175587071402902e+02
1.488000000000000114e+02 3.247208867974966324e+02
1.492000000000000171e+02 3.243257686951691312e+02
1.495999999999999943e+02 3.239321940476862665e+02
1.500000000000000000e+02 3.235401526000000558e+02
