1.000000000000000000e+01 4.199127116254364296e+02
1.040000000000000036e+01 5.004028920447629503e+02
1.080000000000000071e+01 5.531287439341439267e+02
1.119999999999999929e+01 6.567742753485118783e+02
1.159999999999999964e+01 6.877669560312780277e+02
1.200000000000000000e+01 7.622517509567971956e+02
1.240000000000000036e+01 7.946800793982228015e+02
1.280000000000000071e+01 8.225079124110576458e+02
1.319999999999999929e+01 8.480403910509502339e+02
1.359999999999999964e+01 8.746751365815102872e+02
1.400000000000000000e+01 9.264538534607726206e+02
1.440000000000000036e+01 9.750287145295861819e+02
1.480000000000000071e+01 9.552019532505219104e+02
1.519999999999999929e+01 9.367427170011723092e+02
1.560000000000000142e+01 9.194912758737227705e+02
1.600000000000000000e+01 9.033138217251889728e+02
1.639999999999999858e+01 8.880971543433886382e+02
1.680000000000000071e+01 8.737446680612951013e+02
1.719999999999999929e+01 8.601732728079243770e+02
1.760000000000000142e+01 8.473109989703525571e+02
1.800000000000000000e+01 8.350951108680396828e+02
1.839999999999999858e+01 8.234706040862721466e+02
1.880000000000000071e+01 8.123889963512172017e+02
1.920000000000000284e+01 8.018073455728499539e+02
1.960000000000000142e+01 7.916874456103951161e+02
2.000000000000000000e+01 7.819951624661499636e+02
2.039999999999999858e+01 7.726998824573245201e+02
2.080000000000000071e+01 7.637740504343043995e+02
2.120000000000000284e+01 7.551927809752330631e+02
2.160000000000000142e+01 7.469335291516621282e+02
2.200000000000000000e+01 7.389758102505377337e+02
2.239999999999999858e+01 7.313009599823922144e+02
2.280000000000000071e+01 7.238919283681042316e+02
2.320000000000000284e+01 7.167331017958367738e+02
2.360000000000000142e+01 7.098101487628056248e+02
2.400000000000000000e+01 7.031098856278508720e+02
2.439999999999999858e+01 6.966201593484818204e+02
2.480000000000000071e+01 6.903297446964156734e+02
2.520000000000000284e+01 6.842282538661465878e+02
2.560000000000000142e+01 6.783060567328316210e+02
2.600000000000000000e+01 6.725542102949976879e+02
2.640000000000000213e+01 6.669643960668447562e+02
2.680000000000000071e+01 6.615288643740933594e+02
2.719999999999999929e+01 6.562403846641036580e+02
2.760000000000000142e+01 6.510922010715187298e+02
2.800000000000000000e+01 6.460779925897649036e+02
2.840000000000000213e+01 6.411918372902956662e+02
2.880000000000000071e+01 6.364281801085767256e+02
2.920000000000000284e+01 6.317818037809933003e+02
2.960000000000000142e+01 6.272478025721625272e+02
3.000000000000000000e+01 6.228215584791977335e+02
3.040000000000000213e+01 6.184987196396494937e+02
3.080000000000000071e+01 6.142751807042666314e+02
3.120000000000000284e+01 6.101470649652731026e+02
3.160000000000000142e+01 6.061107080563162981e+02
3.200000000000000000e+01 6.021626430622313819e+02
3.240000000000000568e+01 5.982995868958049641e+02
3.279999999999999716e+01 5.945184278152462412e+02
3.320000000000000284e+01 5.908162139704628544e+02
3.360000000000000142e+01 5.871901428787822397e+02
3.400000000000000000e+01 5.836375517417236551e+02
3.440000000000000568e+01 5.801559085240406830e+02
3.479999999999999716e+01 5.767428037246893382e+02
3.520000000000000284e+01 5.733959427767980515e+02
3.560000000000000142e+01 5.701131390202633611e+02
3.600000000000000000e+01 5.668923071963720304e+02
3.640000000000000568e+01 5.637314574189654195e+02
3.679999999999999716e+01 5.606286895811980457e+02
3.720000000000000284e+01 5.575821881609641650e+02
3.760000000000000142e+01 5.545902173916538231e+02
3.800000000000000000e+01 5.516511167680856715e+02
3.840000000000000568e+01 5.487632968603149948e+02
3.879999999999999716e+01 5.459252354105624363e+02
3.920000000000000284e+01 5.431354736907827601e+02
3.960000000000000142e+01 5.403926131004440094e+02
4.000000000000000000e+01 5.376953119859144863e+02
4.040000000000000568e+01 5.350422826645083205e+02
4.079999999999999716e+01 5.324322886377260602e+02
4.120000000000000284e+01 5.298641419795621914e+02
4.160000000000000142e+01 5.273367008869619212e+02
4.200000000000000000e+01 5.248488673806014049e+02
4.239999999999999858e+01 5.223995851451541057e+02
4.280000000000000426e+01 5.199878374991009196e+02
4.320000000000000284e+01 5.176126454849526226e+02
4.360000000000000142e+01 5.152730660714946680e+02
4.400000000000000000e+01 5.129681904603293106e+02
4.439999999999999858e+01 5.106971424896057670e+02
4.480000000000000426e+01 5.084590771283800450e+02
4.520000000000000284e+01 5.062531790555583484e+02
4.560000000000000142e+01 5.040786613178348716e+02
4.600000000000000000e+01 5.019347640614643069e+02
4.639999999999999858e+01 4.998207533330903516e+02
4.680000000000000426e+01 4.977359199452105258e+02
4.720000000000000284e+01 4.956795784021793452e+02
4.760000000000000142e+01 4.936510658829510021e+02
4.800000000000000000e+01 4.916497412770364690e+02
4.840000000000000568e+01 4.896749842703998183e+02
4.880000000000000426e+01 4.877261944782518412e+02
4.920000000000000284e+01 4.858027906219097645e+02
4.960000000000000142e+01 4.839042097470885437e+02
5.000000000000000000e+01 4.820299064811720200e+02
5.040000000000000568e+01 4.801793523271738309e+02
5.080000000000000426e+01 4.783520349922584955e+02
5.120000000000000284e+01 4.765474577488302543e+02
5.160000000000000142e+01 4.747651388263302579e+02
5.200000000000000000e+01 4.730046108320071880e+02
5.240000000000000568e+01 4.712654201990346792e+02
5.280000000000000426e+01 4.695471266604571952e+02
5.320000000000000284e+01 4.678493027475401504e+02
5.360000000000000142e+01 4.661715333111935138e+02
5.400000000000000000e+01 4.645134150652170320e+02
5.440000000000000568e+01 4.628745561501984298e+02
5.480000000000000426e+01 4.612545757169623357e+02
5.520000000000000284e+01 4.596531035285404982e+02
5.560000000000000142e+01 4.580697795796905325e+02
5.600000000000000000e+01 4.565042537330560322e+02
5.640000000000000568e+01 4.549561853711073809e+02
5.680000000000000426e+01 4.534252430630593835e+02
5.720000000000000284e+01 4.519111042460050385e+02
5.760000000000000142e+01 4.504134549195533737e+02
5.800000000000000000e+01 4.489319893532940569e+02
5.840000000000000568e+01 4.474664098064582163e+02
5.880000000000000426e+01 4.460164262591728175e+02
5.920000000000000284e+01 4.445817561547464720e+02
5.960000000000000142e+01 4.431621241524520656e+02
6.000000000000000000e+01 4.417572618903020043e+02
6.040000000000000568e+01 4.403669077573417781e+02
6.080000000000000426e+01 4.389908066750101625e+02
6.120000000000000284e+01 4.376287098871418948e+02
6.160000000000000142e+01 4.362803747582098026e+02
6.200000000000000000e+01 4.349455645794250813e+02
6.240000000000000568e+01 4.336240483823359568e+02
6.280000000000000426e+01 4.323156007595826509e+02
6.320000000000000284e+01 4.310200016924836177e+02
6.360000000000000142e+01 4.297370363851484854e+02
6.400000000000000000e+01 4.284664951048249009e+02
6.440000000000000568e+01 4.272081730282032481e+02
6.480000000000001137e+01 4.259618700934176445e+02
6.520000000000000284e+01 4.247273908574952088e+02
6.559999999999999432e+01 4.235045443590140621e+02
6.600000000000000000e+01 4.222931439857497367e+02
6.640000000000000568e+01 4.210930073470939305e+02
6.680000000000001137e+01 4.199039561510427916e+02
6.720000000000000284e+01 4.187258160855627693e+02
6.759999999999999432e+01 4.175584167041495220e+02
6.800000000000000000e+01 4.164015913154061650e+02
6.840000000000000568e+01 4.152551768764727740e+02
6.880000000000001137e+01 4.141190138901504270e+02
6.920000000000000284e+01 4.129929463055677843e+02
6.959999999999999432e+01 4.118768214222466213e+02
7.000000000000000000e+01 4.107704897974292635e+02
7.040000000000000568e+01 4.096738051565372984e+02
7.080000000000001137e+01 4.085866243066352581e+02
7.120000000000000284e+01 4.075088070527839363e+02
7.159999999999999432e+01 4.064402161171645957e+02
7.200000000000000000e+01 4.053807170608705519e+02
7.240000000000000568e+01 4.043301782082586442e+02
7.280000000000001137e+01 4.032884705737647550e+02
7.320000000000000284e+01 4.022554677910863461e+02
7.359999999999999432e+01 4.012310460446429943e+02
7.400000000000000000e+01 4.002150840032277301e+02
7.440000000000000568e+01 3.992074627557684039e+02
7.479999999999999716e+01 3.982080657491168836e+02
7.520000000000000284e+01 3.972167787277930984e+02
7.560000000000000853e+01 3.962334896756104854e+02
7.600000000000000000e+01 3.952580887591133205e+02
7.640000000000000568e+01 3.942904682727604495e+02
7.679999999999999716e+01 3.933305225857908454e+02
7.720000000000000284e+01 3.923781480907102832e+02
7.760000000000000853e+01 3.914332431533417207e+02
7.800000000000000000e+01 3.904957080643821996e+02
7.840000000000000568e+01 3.895654449924127789e+02
7.879999999999999716e+01 3.886423579383115339e+02
7.920000000000000284e+01 3.877263526910174392e+02
7.960000000000000853e+01 3.868173367846013662e+02
8.000000000000000000e+01 3.859152194565951959e+02
8.040000000000000568e+01 3.850199116075376651e+02
8.079999999999999716e+01 3.841313257616951660e+02
8.120000000000000284e+01 3.832493760289153784e+02
8.160000000000000853e+01 3.823739780675770703e+02
8.200000000000000000e+01 3.815050490485978116e+02
8.240000000000000568e+01 3.806425076204644142e+02
8.279999999999999716e+01 3.797862738752520499e+02
8.320000000000000284e+01 3.789362693155975421e+02
8.360000000000000853e+01 3.780924168225978406e+02
8.400000000000000000e+01 3.772546406246003698e+02
8.440000000000000568e+01 3.764228662668579091e+02
8.479999999999999716e+01 3.755970205820183878e+02
8.520000000000000284e+01 3.747770316614244166e+02
8.560000000000000853e+01 3.739628288271934480e+02
8.600000000000000000e+01 3.731543426050561152e+02
8.640000000000000568e+01 3.723515046979272825e+02
8.680000000000001137e+01 3.715542479601863306e+02
8.720000000000000284e+01 3.707625063726451344e+02
8.760000000000000853e+01 3.699762150181804827e+02
8.800000000000000000e+01 3.691953100580114437e+02
8.840000000000000568e+01 3.684197287086018378e+02
8.880000000000001137e+01 3.676494092191665004e+02
8.920000000000000284e+01 3.668842908497643407e+02
8.960000000000000853e+01 3.661243138499597762e+02
9.000000000000000000e+01 3.653694194380346403e+02
9.040000000000000568e+01 3.646195497807345873e+02
9.080000000000001137e+01 3.638746479735328307e+02
9.120000000000000284e+01 3.631346580213964330e+02
9.160000000000000853e+01 3.623995248200395736e+02
9.200000000000000000e+01 3.616691941376493560e+02
9.240000000000000568e+01 3.609436125970700004e+02
9.280000000000001137e+01 3.602227276584326887e+02
9.320000000000000284e+01 3.595064876022155431e+02
9.360000000000000853e+01 3.587948415127247586e+02
9.400000000000000000e+01 3.580877392619809143e+02
9.440000000000000568e+01 3.573851314940009729e+02
9.480000000000001137e+01 3.566869696094647679e+02
9.520000000000000284e+01 3.559932057507515992e+02
9.560000000000000853e+01 3.553037927873418198e+02
9.600000000000000000e+01 3.546186843015670433e+02
9.640000000000000568e+01 3.539378345747039702e+02
9.680000000000001137e+01 3.532611985733989286e+02
9.720000000000000284e+01 3.525887319364151722e+02
9.760000000000000853e+01 3.519203909616938404e+02
9.800000000000000000e+01 3.512561325937195988e+02
9.840000000000000568e+01 3.505959144111818659e+02
9.880000000000001137e+01 3.499396946149249175e+02
9.920000000000000284e+01 3.492874320161777746e+02
9.960000000000000853e+01 3.486390860250562014e+02
1.000000000000000000e+02 3.479946166393299336e+02
1.004000000000000057e+02 3.473539844334473514e+02
1.008000000000000114e+02 3.467171505478113431e+02
1.012000000000000028e+02 3.460840766782990272e+02
1.016000000000000085e+02 3.454547250660182272e+02
1.020000000000000000e+02 3.448290584872961517e+02
1.024000000000000057e+02 3.442070402438918109e+02
1.028000000000000114e+02 3.435886341534286998e+02
1.032000000000000028e+02 3.429738045400389979e+02
1.036000000000000085e+02 3.423625162252168366e+02
1.040000000000000000e+02 3.417547345188729651e+02
1.044000000000000057e+02 3.411504252105860360e+02
1.048000000000000114e+02 3.405495545610461363e+02
1.052000000000000028e+02 3.399520892936848213e+02
1.056000000000000085e+02 3.393579965864872747e+02
1.060000000000000000e+02 3.387672440639807974e+02
1.064000000000000057e+02 3.381797997893978049e+02
1.068000000000000114e+02 3.375956322570053771e+02
1.072000000000000028e+02 3.370147103846000505e+02
1.076000000000000085e+02 3.364370035061618864e+02
1.080000000000000000e+02 3.358624813646647453e+02
1.084000000000000057e+02 3.352911141050382753e+02
1.088000000000000114e+02 3.347228722672783761e+02
1.092000000000000028e+02 3.341577267797021591e+02
1.096000000000000085e+02 3.335956489523433675e+02
1.100000000000000000e+02 3.330366104704856980e+02
1.104000000000000057e+02 3.324805833883302739e+02
1.108000000000000114e+02 3.319275401227931184e+02
1.112000000000000028e+02 3.313774534474314919e+02
1.116000000000000085e+02 3.308302964864932392e+02
1.120000000000000000e+02 3.302860427090887470e+02
1.124000000000000057e+02 3.297446659234809658e+02
1.128000000000000114e+02 3.292061402714913925e+02
1.132000000000000028e+02 3.286704402230182609e+02
1.136000000000000085e+02 3.281375405706656920e+02
1.140000000000000000e+02 3.276074164244806752e+02
1.144000000000000057e+02 3.270800432067937891e+02
1.148000000000000114e+02 3.265553966471642866e+02
1.152000000000000028e+02 3.260334527774235767e+02
1.156000000000000085e+02 3.255141879268181810e+02
1.160000000000000000e+02 3.249975787172469381e+02
1.164000000000000057e+02 3.244836020585920551e+02
1.168000000000000114e+02 3.239722351441414503e+02
1.172000000000000028e+02 3.234634554461001130e+02
1.176000000000000085e+02 3.229572407111880921e+02
1.180000000000000000e+02 3.224535689563240908e+02
1.184000000000000057e+02 3.219524184643912008e+02
1.188000000000000114e+02 3.214537677800853999e+02
1.192000000000000028e+02 3.209575957058415838e+02
1.196000000000000085e+02 3.204638812978384976e+02
1.200000000000000000e+02 3.199726038620786426e+02
1.204000000000000057e+02 3.194837429505429895e+02
1.208000000000000114e+02 3.189972783574177129e+02
1.212000000000000028e+02 3.185131901153915805e+02
1.216000000000000085e+02 3.180314584920232051e+02
1.220000000000000000e+02 3.175520639861754830e+02
1.224000000000000057e+02 3.170749873245165986e+02
1.228000000000000114e+02 3.166002094580858284e+02
1.232000000000000028e+02 3.161277115589223285e+02
1.236000000000000085e+02 3.156574750167564503e+02
1.240000000000000000e+02 3.151894814357612518e+02
1.244000000000000057e+02 3.147237126313637532e+02
1.248000000000000114e+02 3.142601506271137168e+02
1.252000000000000028e+02 3.137987776516098393e+02
1.256000000000000085e+02 3.133395761354807973e+02
1.260000000000000000e+02 3.128825287084214324e+02
1.264000000000000057e+02 3.124276181962819692e+02
1.268000000000000114e+02 3.119748276182085647e+02
1.272000000000000028e+02 3.115241401838360389e+02
1.276000000000000085e+02 3.110755392905300596e+02
1.280000000000000000e+02 3.106290085206774734e+02
1.284000000000000057e+02 3.101845316390259200e+02
1.288000000000000114e+02 3.097420925900689781e+02
1.291999999999999886e+02 3.093016754954781504e+02
1.296000000000000227e+02 3.088632646515788451e+02
1.300000000000000000e+02 3.084268445268716050e+02
1.304000000000000057e+02 3.079923997595947185e+02
1.308000000000000114e+02 3.075599151553311685e+02
1.311999999999999886e+02 3.071293756846546330e+02
1.316000000000000227e+02 3.067007664808181175e+02
1.320000000000000000e+02 3.062740728374802757e+02
1.324000000000000057e+02 3.058492802064727130e+02
1.328000000000000114e+02 3.054263741956031026e+02
1.331999999999999886e+02 3.050053405664975230e+02
1.336000000000000227e+02 3.045861652324783222e+02
1.340000000000000000e+02 3.041688342564781919e+02
1.344000000000000057e+02 3.037533338489890866e+02
1.348000000000000114e+02 3.033396503660459302e+02
1.351999999999999886e+02 3.029277703072436907e+02
1.356000000000000227e+02 3.025176803137878210e+02
1.360000000000000000e+02 3.021093671665769307e+02
1.364000000000000057e+02 3.017028177843172898e+02
1.368000000000000114e+02 3.012980192216685396e+02
1.371999999999999886e+02 3.008949586674198713e+02
1.376000000000000227e+02 3.004936234426961619e+02
1.380000000000000000e+02 3.000940009991936677e+02
1.384000000000000057e+02 2.996960789174439697e+02
1.388000000000000114e+02 2.992998449051073067e+02
1.392000000000000171e+02 2.989052867952919428e+02
1.395999999999999943e+02 2.985123925449024114e+02
1.400000000000000000e+02 2.981211502330131680e+02
1.404000000000000057e+02 2.977315480592689596e+02
1.408000000000000114e+02 2.973435743423108875e+02
1.412000000000000171e+02 2.969572175182273099e+02
1.415999999999999943e+02 2.965724661390297570e+02
1.420000000000000000e+02 2.961893088711524911e+02
1.424000000000000057e+02 2.958077344939769660e+02
1.428000000000000114e+02 2.954277318983780560e+02
1.432000000000000171e+02 2.950492900852947287e+02
1.435999999999999943e+02 2.946723981643220327e+02
1.440000000000000000e+02 2.942970453523255969e+02
1.444000000000000057e+02 2.939232209720778428e+02
1.448000000000000114e+02 2.935509144509149451e+02
1.452000000000000171e+02 2.931801153194156768e+02
1.455999999999999943e+02 2.928108132100992975e+02
1.460000000000000000e+02 2.924429978561445296e+02
1.464000000000000057e+02 2.920766590901281461e+02
1.468000000000000114e+02 2.917117868427824874e+02
1.472000000000000171e+02 2.913483711417723043e+02
1.475999999999999943e+02 2.909864021104905873e+02
1.480000000000000000e+02 2.906258699668714485e+02
1.484000000000000057e+02 2.902667650222230122e+02
1.488000000000000114e+02 2.899090776800761660e+02
1.492000000000000171e+02 2.895527984350513293e+02
1.495999999999999943e+02 2.891979178717428454e+02
1.500000000000000000e+02 2.888444266636190036e+02
