1.000000000000000000e+01 1.469226064456402128e+02
1.040000000000000036e+01 1.385925370137227048e+02
1.080000000000000071e+01 1.356408517134108251e+02
1.119999999999999929e+01 1.335021372787814187e+02
1.159999999999999964e+01 1.324495714873314967e+02
1.200000000000000000e+01 1.288258251855525316e+02
1.240000000000000036e+01 1.255315513299867263e+02
1.280000000000000071e+01 1.225159295981973173e+02
1.319999999999999929e+01 1.197391558736591577e+02
1.359999999999999964e+01 1.171693846185954442e+02
1.400000000000000000e+01 1.147966627666517923e+02
1.440000000000000036e+01 1.123111346293179480e+02
1.480000000000000071e+01 1.100258413231216110e+02
1.519999999999999929e+01 1.078815823448749995e+02
1.560000000000000142e+01 1.061128119784359001e+02
1.600000000000000000e+01 1.044900797631815550e+02
1.639999999999999858e+01 1.029576904050627348e+02
1.680000000000000071e+01 1.015073200436935963e+02
1.719999999999999929e+01 1.001316989109850368e+02
1.760000000000000142e+01 9.882444299444013325e+01
1.800000000000000000e+01 9.757991793308283945e+01
1.839999999999999858e+01 9.639312799038970070e+01
1.880000000000000071e+01 9.201179497166727117e+01
1.920000000000000284e+01 8.758499710161980545e+01
1.960000000000000142e+01 8.632587322832358723e+01
2.000000000000000000e+01 8.514044774348904809e+01
2.039999999999999858e+01 8.400364495897927952e+01
2.080000000000000071e+01 8.291215519108872911e+01
2.120000000000000284e+01 8.186298049495721330e+01
2.160000000000000142e+01 8.085339741976960681e+01
2.200000000000000000e+01 7.988092512517245325e+01
2.239999999999999858e+01 7.894329796044175396e+01
2.280000000000000071e+01 7.803844177897941847e+01
2.320000000000000284e+01 7.715356797910861530e+01
2.360000000000000142e+01 7.625347472473185917e+01
2.400000000000000000e+01 7.538166819102094962e+01
2.439999999999999858e+01 7.453064735169506605e+01
2.480000000000000071e+01 7.370560587507908679e+01
2.520000000000000284e+01 7.290522766876055982e+01
2.560000000000000142e+01 7.213029323097194379e+01
2.600000000000000000e+01 7.071094581562380199e+01
2.640000000000000213e+01 6.998566162225827725e+01
2.680000000000000071e+01 6.928014688633315643e+01
2.719999999999999929e+01 6.859351199508951424e+01
2.760000000000000142e+01 6.792492289530845540e+01
2.800000000000000000e+01 6.727359667780157793e+01
2.840000000000000213e+01 6.663879758591292557e+01
2.880000000000000071e+01 6.601983340048995785e+01
2.920000000000000284e+01 6.541605215985559596e+01
2.960000000000000142e+01 6.482683917852102695e+01
3.000000000000000000e+01 6.425161433285231283e+01
3.040000000000000213e+01 6.368982958576091846e+01
3.080000000000000071e+01 6.321106682515829789e+01
3.120000000000000284e+01 6.267992651397313608e+01
3.160000000000000142e+01 6.216067022829169986e+01
3.200000000000000000e+01 6.273961500378697309e+01
3.240000000000000568e+01 6.227465592611076062e+01
3.279999999999999716e+01 6.180981833938324144e+01
3.320000000000000284e+01 6.135475240365612137e+01
3.360000000000000142e+01 6.090911593735730634e+01
3.400000000000000000e+01 6.047258348722100862e+01
3.440000000000000568e+01 6.004484528299391854e+01
3.479999999999999716e+01 5.962560627133853330e+01
3.520000000000000284e+01 5.888362101164814533e+01
3.560000000000000142e+01 5.849923149292582991e+01
3.600000000000000000e+01 5.812207120551929762e+01
3.640000000000000568e+01 5.775191360746983804e+01
3.679999999999999716e+01 5.738854206455518892e+01
3.720000000000000284e+01 5.703174929632907464e+01
3.760000000000000142e+01 5.668133685973523228e+01
3.800000000000000000e+01 5.633613548782333424e+01
3.840000000000000568e+01 5.599695485764809888e+01
3.879999999999999716e+01 5.566362602494838541e+01
3.920000000000000284e+01 5.533598082863937861e+01
3.960000000000000142e+01 5.501385785409129880e+01
4.000000000000000000e+01 5.469710208687794051e+01
4.040000000000000568e+01 5.438556458810057137e+01
4.079999999999999716e+01 5.407982262845014532e+01
4.120000000000000284e+01 5.395367282743598025e+01
4.160000000000000142e+01 5.366600767218533719e+01
4.200000000000000000e+01 5.338292245620265675e+01
4.239999999999999858e+01 5.310429515711687998e+01
4.280000000000000426e+01 5.283000827800385224e+01
4.320000000000000284e+01 5.255994863353134861e+01
4.360000000000000142e+01 5.229400714833348474e+01
4.400000000000000000e+01 5.203207866679637306e+01
4.439999999999999858e+01 5.177406177349948280e+01
4.480000000000000426e+01 5.151985862361392776e+01
4.520000000000000284e+01 5.126334373282514889e+01
4.560000000000000142e+01 5.100787080808557761e+01
4.600000000000000000e+01 5.075614152369542609e+01
4.639999999999999858e+01 5.050806399431881033e+01
4.680000000000000426e+01 5.026354948061865002e+01
4.720000000000000284e+01 5.002251225173303339e+01
4.760000000000000142e+01 4.978486945503955496e+01
4.800000000000000000e+01 4.955054099275523072e+01
4.840000000000000568e+01 4.918327135550512708e+01
4.880000000000000426e+01 4.895247577018771068e+01
4.920000000000000284e+01 4.872484992902131751e+01
4.960000000000000142e+01 4.850032114868015753e+01
5.000000000000000000e+01 4.827918422307342894e+01
5.040000000000000568e+01 4.806113108078218232e+01
5.080000000000000426e+01 4.784595770501611156e+01
5.120000000000000284e+01 4.763360051728157885e+01
5.160000000000000142e+01 4.742399789477732952e+01
5.200000000000000000e+01 4.721709009362487564e+01
5.240000000000000568e+01 4.701281917575236946e+01
5.280000000000000426e+01 4.681112893922793461e+01
5.320000000000000284e+01 4.661196485185199379e+01
5.360000000000000142e+01 4.641527398782946534e+01
5.400000000000000000e+01 4.622100496735475161e+01
5.440000000000000568e+01 4.602888377005130138e+01
5.480000000000000426e+01 4.583904930087062723e+01
5.520000000000000284e+01 4.565149095754308917e+01
5.560000000000000142e+01 4.546600050146924588e+01
5.600000000000000000e+01 4.528029124389340154e+01
5.640000000000000568e+01 4.509670909625101842e+01
5.680000000000000426e+01 4.491521350042693683e+01
5.720000000000000284e+01 4.473576498016369385e+01
5.760000000000000142e+01 4.455832510401724988e+01
5.800000000000000000e+01 4.438285644985888467e+01
5.840000000000000568e+01 4.439431254695733031e+01
5.880000000000000426e+01 4.422795135296948388e+01
5.920000000000000284e+01 4.406336751612165870e+01
5.960000000000000142e+01 4.390052940485490041e+01
6.000000000000000000e+01 4.373557079801373959e+01
6.040000000000000568e+01 4.357555882785555923e+01
6.080000000000000426e+01 4.341721818480708350e+01
6.120000000000000284e+01 4.326051978356512251e+01
6.160000000000000142e+01 4.310543524631483336e+01
6.200000000000000000e+01 4.295193688065499771e+01
6.240000000000000568e+01 4.279999765836238623e+01
6.280000000000000426e+01 4.264959119495785700e+01
6.320000000000000284e+01 4.250069173003826251e+01
6.360000000000000142e+01 4.235327410834074868e+01
6.400000000000000000e+01 4.222573193054770968e+01
6.440000000000000568e+01 4.208320248934905550e+01
6.480000000000001137e+01 4.194205993703937452e+01
6.520000000000000284e+01 4.180228176956757125e+01
6.559999999999999432e+01 4.166384599338866934e+01
6.600000000000000000e+01 4.152673111060575195e+01
6.640000000000000568e+01 4.139091610463890447e+01
6.680000000000001137e+01 4.130562009795134770e+01
6.720000000000000284e+01 4.117636689486861457e+01
6.759999999999999432e+01 4.104830613123579042e+01
6.800000000000000000e+01 4.092141935759160987e+01
6.840000000000000568e+01 4.079568852491033937e+01
6.880000000000001137e+01 4.067109597342948035e+01
6.920000000000000284e+01 4.054762442185769800e+01
6.959999999999999432e+01 4.042525695694784105e+01
7.000000000000000000e+01 4.030397702342045108e+01
7.040000000000000568e+01 4.018381253830104072e+01
7.080000000000001137e+01 4.006479987925782638e+01
7.120000000000000284e+01 3.994682270528641510e+01
7.159999999999999432e+01 3.982969683595798216e+01
7.200000000000000000e+01 3.971308007541357910e+01
7.240000000000000568e+01 3.959746050559486719e+01
7.280000000000001137e+01 3.948282385030671549e+01
7.320000000000000284e+01 3.936915611990136910e+01
7.359999999999999432e+01 3.925614813996851638e+01
7.400000000000000000e+01 3.914335469447609483e+01
7.440000000000000568e+01 3.903150128350596049e+01
7.479999999999999716e+01 3.892057479779886364e+01
7.520000000000000284e+01 3.881056238438097949e+01
7.560000000000000853e+01 3.870145144012328586e+01
7.600000000000000000e+01 3.859322960549852155e+01
7.640000000000000568e+01 3.848588475852844226e+01
7.679999999999999716e+01 3.837940500891467366e+01
7.720000000000000284e+01 3.827377869234646823e+01
7.760000000000000853e+01 3.816851845462511506e+01
7.800000000000000000e+01 3.806397031861990143e+01
7.840000000000000568e+01 3.796026137340968631e+01
7.879999999999999716e+01 3.785738029348198097e+01
7.920000000000000284e+01 3.775531596747971719e+01
7.960000000000000853e+01 3.765405749301136495e+01
8.000000000000000000e+01 3.755359417161395186e+01
8.040000000000000568e+01 3.745391550386380430e+01
8.079999999999999716e+01 3.735501118462985204e+01
8.120000000000000284e+01 3.725687109846463585e+01
8.160000000000000853e+01 3.715948531512837860e+01
8.200000000000000000e+01 3.706284408524145135e+01
8.240000000000000568e+01 3.695597236718256084e+01
8.279999999999999716e+01 3.686106215730024616e+01
8.320000000000000284e+01 3.676686766712930421e+01
8.360000000000000853e+01 3.667337981348084952e+01
8.400000000000000000e+01 3.658058967479728096e+01
8.440000000000000568e+01 3.648848848746415996e+01
8.479999999999999716e+01 3.641637862059951658e+01
8.520000000000000284e+01 3.632662945708198521e+01
8.560000000000000853e+01 3.623753450257456876e+01
8.600000000000000000e+01 3.614908572372269902e+01
8.640000000000000568e+01 3.606127522556352005e+01
8.680000000000001137e+01 3.597409524846778339e+01
8.720000000000000284e+01 3.588753816516395290e+01
8.760000000000000853e+01 3.580332351134185842e+01
8.800000000000000000e+01 3.571965294643875666e+01
8.840000000000000568e+01 3.563656775679545063e+01
8.880000000000001137e+01 3.555406104416125146e+01
8.920000000000000284e+01 3.547212602423307715e+01
8.960000000000000853e+01 3.539075602424215816e+01
9.000000000000000000e+01 3.530994448060285151e+01
9.040000000000000568e+01 3.522968493662197886e+01
9.080000000000001137e+01 3.514997104026640784e+01
9.120000000000000284e+01 3.507079654198759044e+01
9.160000000000000853e+01 3.499215529260108326e+01
9.200000000000000000e+01 3.491404124121936547e+01
9.240000000000000568e+01 3.483644843323671836e+01
9.280000000000001137e+01 3.475937100836411275e+01
9.320000000000000284e+01 3.468280319871318795e+01
9.360000000000000853e+01 3.460673932692743904e+01
9.400000000000000000e+01 3.453111581668398600e+01
9.440000000000000568e+01 3.445578875623564841e+01
9.480000000000001137e+01 3.438095097056429950e+01
9.520000000000000284e+01 3.430659710597016954e+01
9.560000000000000853e+01 3.423272189093290763e+01
9.600000000000000000e+01 3.415925043687631302e+01
9.640000000000000568e+01 3.408612889889818831e+01
9.680000000000001137e+01 3.401347210153198830e+01
9.720000000000000284e+01 3.394127506958623997e+01
9.760000000000000853e+01 3.386953290259918958e+01
9.800000000000000000e+01 3.379797128883372181e+01
9.840000000000000568e+01 3.372681475044862509e+01
9.880000000000001137e+01 3.365609635562476853e+01
9.920000000000000284e+01 3.358581158251367071e+01
9.960000000000000853e+01 3.351595597471563082e+01
1.000000000000000000e+02 3.344652514006095601e+01
1.004000000000000057e+02 3.337751474941912733e+01
1.008000000000000114e+02 3.330892053553473886e+01
1.012000000000000028e+02 3.324073829188979801e+01
1.016000000000000085e+02 3.317296387159167637e+01
1.020000000000000000e+02 3.310559318628575909e+01
1.024000000000000057e+02 3.303862220509244452e+01
1.028000000000000114e+02 3.297204695356774096e+01
1.032000000000000028e+02 3.290586351268675713e+01
1.036000000000000085e+02 3.284001456872476155e+01
1.040000000000000000e+02 3.277408689483612392e+01
1.044000000000000057e+02 3.270854403018347512e+01
1.048000000000000114e+02 3.264338221301915155e+01
1.052000000000000028e+02 3.257859773314510221e+01
1.056000000000000085e+02 3.251418693100438162e+01
1.060000000000000000e+02 3.245014619679221823e+01
1.064000000000000057e+02 3.238647196958618935e+01
1.068000000000000114e+02 3.232316073649489852e+01
1.072000000000000028e+02 3.226020903182482868e+01
1.076000000000000085e+02 3.219791812119842689e+01
1.080000000000000000e+02 3.213613701462201533e+01
1.084000000000000057e+02 3.207470176637379211e+01
1.088000000000000114e+02 3.201308734001938916e+01
1.092000000000000028e+02 3.195270044760898998e+01
1.096000000000000085e+02 3.189264724965907760e+01
1.100000000000000000e+02 3.183292465536771232e+01
1.104000000000000057e+02 3.177352961406273479e+01
1.108000000000000114e+02 3.171445911453185929e+01
1.112000000000000028e+02 3.166014656084169232e+01
1.116000000000000085e+02 3.160233446511556110e+01
1.120000000000000000e+02 3.154483444343957643e+01
1.124000000000000057e+02 3.148764366415362659e+01
1.128000000000000114e+02 3.143075933168417890e+01
1.132000000000000028e+02 3.137417868595235859e+01
1.136000000000000085e+02 3.131789900179379771e+01
1.140000000000000000e+02 3.126191758839012991e+01
1.144000000000000057e+02 3.120623178871176862e+01
1.148000000000000114e+02 3.115083897897178034e+01
1.152000000000000028e+02 3.109573656809046227e+01
1.156000000000000085e+02 3.104092199717056388e+01
1.160000000000000000e+02 3.098639273898270474e+01
1.164000000000000057e+02 3.093214629746088917e+01
1.168000000000000114e+02 3.087818020720786905e+01
1.172000000000000028e+02 3.082449203301007756e+01
1.176000000000000085e+02 3.077107936936186405e+01
1.180000000000000000e+02 3.071793983999907596e+01
1.184000000000000057e+02 3.066507109744139115e+01
1.188000000000000114e+02 3.061247082254355689e+01
1.192000000000000028e+02 3.056013672405508075e+01
1.196000000000000085e+02 3.050806653818833070e+01
1.200000000000000000e+02 3.045625802819483141e+01
1.204000000000000057e+02 3.040470898394945465e+01
1.208000000000000114e+02 3.035336569544129759e+01
1.212000000000000028e+02 3.030203757494460248e+01
1.216000000000000085e+02 3.025088140450954199e+01
1.220000000000000000e+02 3.019997874783624070e+01
1.224000000000000057e+02 3.014932749428479042e+01
1.228000000000000114e+02 3.011270036189871036e+01
1.232000000000000028e+02 3.006306896761628167e+01
1.236000000000000085e+02 3.001367907984841921e+01
1.240000000000000000e+02 2.996452872229775366e+01
1.244000000000000057e+02 2.991555674885949045e+01
1.248000000000000114e+02 2.986671638926764416e+01
1.252000000000000028e+02 2.981811210010316771e+01
1.256000000000000085e+02 2.976974195707640902e+01
1.260000000000000000e+02 2.972160405795916915e+01
1.264000000000000057e+02 2.967369652225939802e+01
1.268000000000000114e+02 2.962601749090163494e+01
1.272000000000000028e+02 2.957856512591334308e+01
1.276000000000000085e+02 2.953133761011665825e+01
1.280000000000000000e+02 2.948433314682581141e+01
1.284000000000000057e+02 2.943754995954979847e+01
1.288000000000000114e+02 2.939098629170037569e+01
1.291999999999999886e+02 2.934464040630520998e+01
1.296000000000000227e+02 2.929851058572599953e+01
1.300000000000000000e+02 2.925259513138166767e+01
1.304000000000000057e+02 2.920689236347627826e+01
1.308000000000000114e+02 2.916140062073172601e+01
1.311999999999999886e+02 2.911611826012511983e+01
1.316000000000000227e+02 2.907104365663062140e+01
1.320000000000000000e+02 2.902617520296583464e+01
1.324000000000000057e+02 2.898151130934245856e+01
1.328000000000000114e+02 2.893705040322132049e+01
1.331999999999999886e+02 2.889279092907153412e+01
1.336000000000000227e+02 2.884873134813370399e+01
1.340000000000000000e+02 2.880487013818734354e+01
1.344000000000000057e+02 2.876120579332201288e+01
1.348000000000000114e+02 2.871773682371247105e+01
1.351999999999999886e+02 2.867622319261229435e+01
1.356000000000000227e+02 2.863340877585348565e+01
1.360000000000000000e+02 2.859462884907616242e+01
1.364000000000000057e+02 2.855242638273981015e+01
1.368000000000000114e+02 2.851041499617613795e+01
1.371999999999999886e+02 2.846882098972589148e+01
1.376000000000000227e+02 2.842740782271361866e+01
1.380000000000000000e+02 2.838617417020945766e+01
1.384000000000000057e+02 2.834511872092967621e+01
1.388000000000000114e+02 2.830424017705594864e+01
1.392000000000000171e+02 2.826353725405747497e+01
1.395999999999999943e+02 2.822300868051606315e+01
1.400000000000000000e+02 2.818265319795388280e+01
1.404000000000000057e+02 2.814246956066412508e+01
1.408000000000000114e+02 2.810245653554434497e+01
1.412000000000000171e+02 2.806261290193231517e+01
1.415999999999999943e+02 2.802285602227404127e+01
1.420000000000000000e+02 2.798322054559479710e+01
1.424000000000000057e+02 2.794375161292434129e+01
1.428000000000000114e+02 2.790444804546167745e+01
1.432000000000000171e+02 2.786530867613578266e+01
1.435999999999999943e+02 2.782633234945547329e+01
1.440000000000000000e+02 2.778751792136159793e+01
1.444000000000000057e+02 2.774886425908157150e+01
1.448000000000000114e+02 2.771037024098612989e+01
1.452000000000000171e+02 2.767203475644831556e+01
1.455999999999999943e+02 2.763385670570465891e+01
1.460000000000000000e+02 2.759583499971848397e+01
1.464000000000000057e+02 2.755796856004526774e+01
1.468000000000000114e+02 2.752025631870019140e+01
1.472000000000000171e+02 2.748269721802754262e+01
1.475999999999999943e+02 2.744529021057226004e+01
1.480000000000000000e+02 2.740803425895331458e+01
1.484000000000000057e+02 2.737092833573908024e+01
1.488000000000000114e+02 2.733397142332456298e+01
1.492000000000000171e+02 2.729709038626698714e+01
1.495999999999999943e+02 2.726021447096346861e+01
1.500000000000000000e+02 2.722346616688901122e+01
