1.000000000000000000e+01 1.063384610935316630e+02
1.040000000000000036e+01 1.075072381906829122e+02
1.080000000000000071e+01 1.153351258015111114e+02
1.119999999999999929e+01 1.180208099561855875e+02
1.159999999999999964e+01 1.166929852529609235e+02
1.200000000000000000e+01 1.131268419573182769e+02
1.240000000000000036e+01 1.099626043376979396e+02
1.280000000000000071e+01 1.071265227637149735e+02
1.319999999999999929e+01 1.002877859755561332e+02
1.359999999999999964e+01 9.747866378381945651e+01
1.400000000000000000e+01 9.491508941174748770e+01
1.440000000000000036e+01 9.256248039929209881e+01
1.480000000000000071e+01 9.039283319340890444e+01
1.519999999999999929e+01 8.840874307131410603e+01
1.560000000000000142e+01 8.663788214375003349e+01
1.600000000000000000e+01 8.498139691860963296e+01
1.639999999999999858e+01 8.342711681753296205e+01
1.680000000000000071e+01 8.199166994632815886e+01
1.719999999999999929e+01 8.064900400988918250e+01
1.760000000000000142e+01 7.937718111908876040e+01
1.800000000000000000e+01 7.817003188660557100e+01
1.839999999999999858e+01 7.702212540356546810e+01
1.880000000000000071e+01 7.268082806837577436e+01
1.920000000000000284e+01 7.149419280839990165e+01
1.960000000000000142e+01 7.036215070408444205e+01
2.000000000000000000e+01 6.928055934086773959e+01
2.039999999999999858e+01 6.710968619981767347e+01
2.080000000000000071e+01 6.613212533778666113e+01
2.120000000000000284e+01 6.519517439973836304e+01
2.160000000000000142e+01 6.381505270389750706e+01
2.200000000000000000e+01 6.296414485075418099e+01
2.239999999999999858e+01 6.214589363518267362e+01
2.280000000000000071e+01 6.135823533389932294e+01
2.320000000000000284e+01 6.059928585927142564e+01
2.360000000000000142e+01 5.986732100931837408e+01
2.400000000000000000e+01 5.916075932319557751e+01
2.439999999999999858e+01 5.847814714349646437e+01
2.480000000000000071e+01 5.781814555577183512e+01
2.520000000000000284e+01 5.717951893142540598e+01
2.560000000000000142e+01 5.655582859830143150e+01
2.600000000000000000e+01 5.594030436202822898e+01
2.640000000000000213e+01 5.534320951294346713e+01
2.680000000000000071e+01 5.475263181006462077e+01
2.719999999999999929e+01 5.417853097616915647e+01
2.760000000000000142e+01 5.362081261640850016e+01
2.800000000000000000e+01 5.307870703017618297e+01
2.840000000000000213e+01 5.255149443127773168e+01
2.880000000000000071e+01 5.203850084856988190e+01
2.920000000000000284e+01 5.153909443182259054e+01
2.960000000000000142e+01 5.105268211618422214e+01
3.000000000000000000e+01 5.057870660472458724e+01
3.040000000000000213e+01 5.011664363373760978e+01
3.080000000000000071e+01 4.966599948994299041e+01
3.120000000000000284e+01 4.922630875255745053e+01
3.160000000000000142e+01 4.879713223650496445e+01
3.200000000000000000e+01 4.837805511588410212e+01
3.240000000000000568e+01 4.796868520927804980e+01
3.279999999999999716e+01 4.756865141063400415e+01
3.320000000000000284e+01 4.757453010896763601e+01
3.360000000000000142e+01 4.721240792300223887e+01
3.400000000000000000e+01 4.685807377300145049e+01
3.440000000000000568e+01 4.651125025157881510e+01
3.479999999999999716e+01 4.617167366907204951e+01
3.520000000000000284e+01 4.550812897952177138e+01
3.560000000000000142e+01 4.520098762765368150e+01
3.600000000000000000e+01 4.489991165047788968e+01
3.640000000000000568e+01 4.460470217312067120e+01
3.679999999999999716e+01 4.431516937785598031e+01
3.720000000000000284e+01 4.403113197855078198e+01
3.760000000000000142e+01 4.375241673203484538e+01
3.800000000000000000e+01 4.347885798335741470e+01
3.840000000000000568e+01 4.321029724218001888e+01
3.879999999999999716e+01 4.294658278780897120e+01
3.920000000000000284e+01 4.268756930060052923e+01
3.960000000000000142e+01 4.243311751767652140e+01
4.000000000000000000e+01 4.218287114090151135e+01
4.040000000000000568e+01 4.193611996473783421e+01
4.079999999999999716e+01 4.169174855394908974e+01
4.120000000000000284e+01 4.145146215579467253e+01
4.160000000000000142e+01 4.121514721941477433e+01
4.200000000000000000e+01 4.098269458326456771e+01
4.239999999999999858e+01 4.075399925872282836e+01
4.280000000000000426e+01 4.052896022662793740e+01
4.320000000000000284e+01 4.030748024583668609e+01
4.360000000000000142e+01 4.008946567297331853e+01
4.400000000000000000e+01 3.987482629260276923e+01
4.439999999999999858e+01 3.966347515712115523e+01
4.480000000000000426e+01 3.945532843571243120e+01
4.520000000000000284e+01 3.924427422198236570e+01
4.560000000000000142e+01 3.903367938161841266e+01
4.600000000000000000e+01 3.882625834461332204e+01
4.639999999999999858e+01 3.862193159369797968e+01
4.680000000000000426e+01 3.842062238470315094e+01
4.720000000000000284e+01 3.822225662310700045e+01
4.760000000000000142e+01 3.799797315512380180e+01
4.800000000000000000e+01 3.780830342140899347e+01
4.840000000000000568e+01 3.762133744213640796e+01
4.880000000000000426e+01 3.743701108539852385e+01
4.920000000000000284e+01 3.725526233866842318e+01
4.960000000000000142e+01 3.707962626841823095e+01
5.000000000000000000e+01 3.690674789464905814e+01
5.040000000000000568e+01 3.673619878394126204e+01
5.080000000000000426e+01 3.656792661270846878e+01
5.120000000000000284e+01 3.640188069695782502e+01
5.160000000000000142e+01 3.623801192658551429e+01
5.200000000000000000e+01 3.607627270287063936e+01
5.240000000000000568e+01 3.591661687898455568e+01
5.280000000000000426e+01 3.575899970334487676e+01
5.320000000000000284e+01 3.560337776565450696e+01
5.360000000000000142e+01 3.544970894547611096e+01
5.400000000000000000e+01 3.529795236320234864e+01
5.440000000000000568e+01 3.514806833329060254e+01
5.480000000000000426e+01 3.500001831963948007e+01
5.520000000000000284e+01 3.485376489299179070e+01
5.560000000000000142e+01 3.470813285225221989e+01
5.600000000000000000e+01 3.456370469889030517e+01
5.640000000000000568e+01 3.442099291658824001e+01
5.680000000000000426e+01 3.427996351850632095e+01
5.720000000000000284e+01 3.414058345682802553e+01
5.760000000000000142e+01 3.400282058956254616e+01
5.800000000000000000e+01 3.386664364877393041e+01
5.840000000000000568e+01 3.391701218627477488e+01
5.880000000000000426e+01 3.378806322578457610e+01
5.920000000000000284e+01 3.366010529363899195e+01
5.960000000000000142e+01 3.353355643893772253e+01
6.000000000000000000e+01 3.340839076021207177e+01
6.040000000000000568e+01 3.328458302035760141e+01
6.080000000000000426e+01 3.316210862483019639e+01
6.120000000000000284e+01 3.304094360071199787e+01
6.160000000000000142e+01 3.292106457660646868e+01
6.200000000000000000e+01 3.280244876332404402e+01
6.240000000000000568e+01 3.268507393532158289e+01
6.280000000000000426e+01 3.256891841286140732e+01
6.320000000000000284e+01 3.245396104485678279e+01
6.360000000000000142e+01 3.234018119237312305e+01
6.400000000000000000e+01 3.222755871275516881e+01
6.440000000000000568e+01 3.211607394435247897e+01
6.480000000000001137e+01 3.201694411757371483e+01
6.520000000000000284e+01 3.191002846788884284e+01
6.559999999999999432e+01 3.180415972644157208e+01
6.600000000000000000e+01 3.169932075304835806e+01
6.640000000000000568e+01 3.159549479948275419e+01
6.680000000000001137e+01 3.149266549800000092e+01
6.720000000000000284e+01 3.139081685027028712e+01
6.759999999999999432e+01 3.128993321670339256e+01
6.800000000000000000e+01 3.118999930614860716e+01
6.840000000000000568e+01 3.109100016595429139e+01
6.880000000000001137e+01 3.099292117237238031e+01
6.920000000000000284e+01 3.089574802129372699e+01
6.959999999999999432e+01 3.082951623015022591e+01
7.000000000000000000e+01 3.073534312992748596e+01
7.040000000000000568e+01 3.064202028266875644e+01
7.080000000000001137e+01 3.054953483223732746e+01
7.120000000000000284e+01 3.045787419430143927e+01
7.159999999999999432e+01 3.036685696472839879e+01
7.200000000000000000e+01 3.027614367263505812e+01
7.240000000000000568e+01 3.018622507484289130e+01
7.280000000000001137e+01 3.009708952112881519e+01
7.320000000000000284e+01 3.000872560006334666e+01
7.359999999999999432e+01 2.992112213273853882e+01
7.400000000000000000e+01 2.983410718189029609e+01
7.440000000000000568e+01 2.974717313547674991e+01
7.479999999999999716e+01 2.966097878891697093e+01
7.520000000000000284e+01 2.957551360786909811e+01
7.560000000000000853e+01 2.949076726781454028e+01
7.600000000000000000e+01 2.940672964870050166e+01
7.640000000000000568e+01 2.932339082974898758e+01
7.679999999999999716e+01 2.924074108442641062e+01
7.720000000000000284e+01 2.915877087556764735e+01
7.760000000000000853e+01 2.907747085064931980e+01
7.800000000000000000e+01 2.899683183720659940e+01
7.840000000000000568e+01 2.891684483838859165e+01
7.879999999999999716e+01 2.883750102864735254e+01
7.920000000000000284e+01 2.875879174955572282e+01
7.960000000000000853e+01 2.868070850574957831e+01
8.000000000000000000e+01 2.860324296098998786e+01
8.040000000000000568e+01 2.852638693434127504e+01
8.079999999999999716e+01 2.844996842143332927e+01
8.120000000000000284e+01 2.837411789968930265e+01
8.160000000000000853e+01 2.829885388178564654e+01
8.200000000000000000e+01 2.822416877575522420e+01
8.240000000000000568e+01 2.815005512713806368e+01
8.279999999999999716e+01 2.807650561578718396e+01
8.320000000000000284e+01 2.800351305276466363e+01
8.360000000000000853e+01 2.793107037732520226e+01
8.400000000000000000e+01 2.785917065398407289e+01
8.440000000000000568e+01 2.778780706966681180e+01
8.479999999999999716e+01 2.773604468974166082e+01
8.520000000000000284e+01 2.766628708534570080e+01
8.560000000000000853e+01 2.759704009762572952e+01
8.600000000000000000e+01 2.752829746807910283e+01
8.640000000000000568e+01 2.746005304555909987e+01
8.680000000000001137e+01 2.739230078391267398e+01
8.720000000000000284e+01 2.732503473968156271e+01
8.760000000000000853e+01 2.725599929031735513e+01
8.800000000000000000e+01 2.719091402922918377e+01
8.840000000000000568e+01 2.712628643418783625e+01
8.880000000000001137e+01 2.706211110433599032e+01
8.920000000000000284e+01 2.699838272810790585e+01
8.960000000000000853e+01 2.693509608133420130e+01
9.000000000000000000e+01 2.687224602539570029e+01
9.040000000000000568e+01 2.680982750542477078e+01
9.080000000000001137e+01 2.674783554855286027e+01
9.120000000000000284e+01 2.668626526220264239e+01
9.160000000000000853e+01 2.662511183242362733e+01
9.200000000000000000e+01 2.656437052226978324e+01
9.240000000000000568e+01 2.650403667021801724e+01
9.280000000000001137e+01 2.644410568862621247e+01
9.320000000000000284e+01 2.638019765494981073e+01
9.360000000000000853e+01 2.632159741545079612e+01
9.400000000000000000e+01 2.626338286881190953e+01
9.440000000000000568e+01 2.620554975165048717e+01
9.480000000000001137e+01 2.614809386664366286e+01
9.520000000000000284e+01 2.609101108121376456e+01
9.560000000000000853e+01 2.603429714464821387e+01
9.600000000000000000e+01 2.597794668119583150e+01
9.640000000000000568e+01 2.592195668088845650e+01
9.680000000000001137e+01 2.586632327121497354e+01
9.720000000000000284e+01 2.581104263798304288e+01
9.760000000000000853e+01 2.575611102419102849e+01
9.800000000000000000e+01 2.570152472892658579e+01
9.840000000000000568e+01 2.564728010629112021e+01
9.880000000000001137e+01 2.559337356434937760e+01
9.920000000000000284e+01 2.553980156410351654e+01
9.960000000000000853e+01 2.548656061849096233e+01
1.000000000000000000e+02 2.543364729140542124e+01
1.004000000000000057e+02 2.538105819674039765e+01
1.008000000000000114e+02 2.532878999745460291e+01
1.012000000000000028e+02 2.527683940465868062e+01
1.016000000000000085e+02 2.522520317672267964e+01
1.020000000000000000e+02 2.517387811840369594e+01
1.024000000000000057e+02 2.512286107999316442e+01
1.028000000000000114e+02 2.507214895648328223e+01
1.032000000000000028e+02 2.502173868675202684e+01
1.036000000000000085e+02 2.497157380364143364e+01
1.040000000000000000e+02 2.492124191572969849e+01
1.044000000000000057e+02 2.487120738664936681e+01
1.048000000000000114e+02 2.482146726835393125e+01
1.052000000000000028e+02 2.477201865375904788e+01
1.056000000000000085e+02 2.472283626586949978e+01
1.060000000000000000e+02 2.467367487641705281e+01
1.064000000000000057e+02 2.462479867202415562e+01
1.068000000000000114e+02 2.457620487722029878e+01
1.072000000000000028e+02 2.452789075438647970e+01
1.076000000000000085e+02 2.447985360309239056e+01
1.080000000000000000e+02 2.443002521853536635e+01
1.084000000000000057e+02 2.438263306236789418e+01
1.088000000000000114e+02 2.433551005610996043e+01
1.092000000000000028e+02 2.428865363379951248e+01
1.096000000000000085e+02 2.424206126376846626e+01
1.100000000000000000e+02 2.419573044805397899e+01
1.104000000000000057e+02 2.414965872182201778e+01
1.108000000000000114e+02 2.410384365280300756e+01
1.112000000000000028e+02 2.405828284073913537e+01
1.116000000000000085e+02 2.401297391684318683e+01
1.120000000000000000e+02 2.396791454326845638e+01
1.124000000000000057e+02 2.392310241258956793e+01
1.128000000000000114e+02 2.387853524729402466e+01
1.132000000000000028e+02 2.383421079928393382e+01
1.136000000000000085e+02 2.379012684938803091e+01
1.140000000000000000e+02 2.374628120688351629e+01
1.144000000000000057e+02 2.370267170902747011e+01
1.148000000000000114e+02 2.365929622059783810e+01
1.152000000000000028e+02 2.361615263344341287e+01
1.156000000000000085e+02 2.357323886604294927e+01
1.160000000000000000e+02 2.353055286307299099e+01
1.164000000000000057e+02 2.348809259498415969e+01
1.168000000000000114e+02 2.344585605758599911e+01
1.172000000000000028e+02 2.340384127163980210e+01
1.176000000000000085e+02 2.336204628245947035e+01
1.180000000000000000e+02 2.332046915952020782e+01
1.184000000000000057e+02 2.327910799607478509e+01
1.188000000000000114e+02 2.323796090877721099e+01
1.192000000000000028e+02 2.319702603731374779e+01
1.196000000000000085e+02 2.315630154404093588e+01
1.200000000000000000e+02 2.312242620670065563e+01
1.204000000000000057e+02 2.308234033182072409e+01
1.208000000000000114e+02 2.304245789678316925e+01
1.212000000000000028e+02 2.300277716813575068e+01
1.216000000000000085e+02 2.296329643314006574e+01
1.220000000000000000e+02 2.292401399945347862e+01
1.224000000000000057e+02 2.288492819481696827e+01
1.228000000000000114e+02 2.285981217075578087e+01
1.232000000000000028e+02 2.282163797286161611e+01
1.236000000000000085e+02 2.278365179344000069e+01
1.240000000000000000e+02 2.274585207539777088e+01
1.244000000000000057e+02 2.270823727973906259e+01
1.248000000000000114e+02 2.267080588529491081e+01
1.252000000000000028e+02 2.263355638845770557e+01
1.256000000000000085e+02 2.259648730292054708e+01
1.260000000000000000e+02 2.255959715942126209e+01
1.264000000000000057e+02 2.252288450549108134e+01
1.268000000000000114e+02 2.248634790520783255e+01
1.272000000000000028e+02 2.244998593895357075e+01
1.276000000000000085e+02 2.241379720317650026e+01
1.280000000000000000e+02 2.237778031015722036e+01
1.284000000000000057e+02 2.234193388777904943e+01
1.288000000000000114e+02 2.230625657930245609e+01
1.291999999999999886e+02 2.227074704314347997e+01
1.296000000000000227e+02 2.223540395265597169e+01
1.300000000000000000e+02 2.220022599591779766e+01
1.304000000000000057e+02 2.216521187552066863e+01
1.308000000000000114e+02 2.213036030836362400e+01
1.311999999999999886e+02 2.209567002545019676e+01
1.316000000000000227e+02 2.206113977168901741e+01
1.320000000000000000e+02 2.202676830569785693e+01
1.324000000000000057e+02 2.199255439961109815e+01
1.328000000000000114e+02 2.195849683889044357e+01
1.331999999999999886e+02 2.192459442213892729e+01
1.336000000000000227e+02 2.188767767041911583e+01
1.340000000000000000e+02 2.185434069876369989e+01
1.344000000000000057e+02 2.182109101619449376e+01
1.348000000000000114e+02 2.178798813522019273e+01
1.351999999999999886e+02 2.175503338662498010e+01
1.356000000000000227e+02 2.172222565532422678e+01
1.360000000000000000e+02 2.168956383801903343e+01
1.364000000000000057e+02 2.165704684303600303e+01
1.368000000000000114e+02 2.162467359016968516e+01
1.371999999999999886e+02 2.159244301052759241e+01
1.376000000000000227e+02 2.156035404637782804e+01
1.380000000000000000e+02 2.152840565099917924e+01
1.384000000000000057e+02 2.149659678853367240e+01
1.388000000000000114e+02 2.146492643384157972e+01
1.392000000000000171e+02 2.143339357235872455e+01
1.395999999999999943e+02 2.140199719995617045e+01
1.400000000000000000e+02 2.137073632280213076e+01
1.404000000000000057e+02 2.133960995722616971e+01
1.408000000000000114e+02 2.130861712958550669e+01
1.412000000000000171e+02 2.127775687613357292e+01
1.415999999999999943e+02 2.124694681371995486e+01
1.420000000000000000e+02 2.121622184329300609e+01
1.424000000000000057e+02 2.118562735535612518e+01
1.428000000000000114e+02 2.115516241816315812e+01
1.432000000000000171e+02 2.112482610930921823e+01
1.435999999999999943e+02 2.109461751561023135e+01
1.440000000000000000e+02 2.106453573298436766e+01
1.444000000000000057e+02 2.103457986633536692e+01
1.448000000000000114e+02 2.100474902943764732e+01
1.452000000000000171e+02 2.097504234482319418e+01
1.455999999999999943e+02 2.094545894367031380e+01
1.460000000000000000e+02 2.091599796569397185e+01
1.464000000000000057e+02 2.088665855903793656e+01
1.468000000000000114e+02 2.085736876420303787e+01
1.472000000000000171e+02 2.082811437977725433e+01
1.475999999999999943e+02 2.079897998232345557e+01
1.480000000000000000e+02 2.076996474437155271e+01
1.484000000000000057e+02 2.074106784646363266e+01
1.488000000000000114e+02 2.071228847705415177e+01
1.492000000000000171e+02 2.068362583241167485e+01
1.495999999999999943e+02 2.065507911652205308e+01
1.500000000000000000e+02 2.062631028881055784e+01
