1.000000000000000000e+01 1.429067336078709047e+02
1.040000000000000036e+01 1.399145742163032651e+02
1.080000000000000071e+01 1.381890551550939961e+02
1.119999999999999929e+01 1.377369837913632296e+02
1.159999999999999964e+01 1.387161507061128987e+02
1.200000000000000000e+01 1.346187098286025901e+02
1.240000000000000036e+01 1.309254267097901732e+02
1.280000000000000071e+01 1.275694096528070389e+02
1.319999999999999929e+01 1.244992188748063882e+02
1.359999999999999964e+01 1.216743357261992458e+02
1.400000000000000000e+01 1.190622189755411853e+02
1.440000000000000036e+01 1.166363114328850088e+02
1.480000000000000071e+01 1.143746440789319649e+02
1.519999999999999929e+01 1.122588311348138461e+02
1.560000000000000142e+01 1.105221756974636236e+02
1.600000000000000000e+01 1.089343332103032225e+02
1.639999999999999858e+01 1.074391576822635699e+02
1.680000000000000071e+01 1.061949689284565039e+02
1.719999999999999929e+01 1.050182804037601443e+02
1.760000000000000142e+01 1.039030017391697527e+02
1.800000000000000000e+01 1.028437944400778292e+02
1.839999999999999858e+01 9.847141860482219045e+01
1.880000000000000071e+01 9.412390358377197686e+01
1.920000000000000284e+01 8.994698705362839064e+01
1.960000000000000142e+01 8.869055865592818577e+01
2.000000000000000000e+01 8.749105131705769622e+01
2.039999999999999858e+01 8.634422100400597344e+01
2.080000000000000071e+01 8.524625746935741688e+01
2.120000000000000284e+01 8.419372843096670067e+01
2.160000000000000142e+01 8.318353235239928267e+01
2.200000000000000000e+01 8.221285828953847385e+01
2.239999999999999858e+01 8.127915157833552939e+01
2.280000000000000071e+01 8.038008437890803748e+01
2.320000000000000284e+01 7.950264486274178921e+01
2.360000000000000142e+01 7.861143433349489840e+01
2.400000000000000000e+01 7.775021641832819341e+01
2.439999999999999858e+01 7.691731427943706478e+01
2.480000000000000071e+01 7.611118098931781617e+01
2.520000000000000284e+01 7.533118001195714442e+01
2.560000000000000142e+01 7.457912670447318249e+01
2.600000000000000000e+01 7.385263609433052068e+01
2.640000000000000213e+01 7.314670776433132460e+01
2.680000000000000071e+01 7.246037566787350670e+01
2.719999999999999929e+01 7.179273671752301311e+01
2.760000000000000142e+01 7.114294556934837033e+01
2.800000000000000000e+01 7.051020992882723704e+01
2.840000000000000213e+01 6.989378631747334225e+01
2.880000000000000071e+01 6.929297624741691664e+01
2.920000000000000284e+01 6.870712275805556146e+01
2.960000000000000142e+01 6.813560727477276657e+01
3.000000000000000000e+01 6.757784675475552660e+01
3.040000000000000213e+01 6.361847659438620894e+01
3.080000000000000071e+01 6.304710019061931803e+01
3.120000000000000284e+01 6.248897635410045837e+01
3.160000000000000142e+01 6.194359969672178323e+01
3.200000000000000000e+01 6.249724791328886653e+01
3.240000000000000568e+01 6.200780496908294737e+01
3.279999999999999716e+01 6.152890266541116659e+01
3.320000000000000284e+01 6.106016416940718727e+01
3.360000000000000142e+01 6.060123142037141264e+01
3.400000000000000000e+01 6.015176393601404925e+01
3.440000000000000568e+01 5.971143771066638806e+01
3.479999999999999716e+01 5.927994419716833363e+01
3.520000000000000284e+01 5.825943143020438697e+01
3.560000000000000142e+01 5.788196839917992520e+01
3.600000000000000000e+01 5.751156631206200132e+01
3.640000000000000568e+01 5.714800568764931654e+01
3.679999999999999716e+01 5.679107654035060193e+01
3.720000000000000284e+01 5.644057785608808331e+01
3.760000000000000142e+01 5.609631710323819931e+01
3.800000000000000000e+01 5.575810977586753836e+01
3.840000000000000568e+01 5.542577896676844063e+01
3.879999999999999716e+01 5.509915496801826151e+01
3.920000000000000284e+01 5.477807489698474086e+01
3.960000000000000142e+01 5.446238234587983840e+01
4.000000000000000000e+01 5.415192705312531274e+01
4.040000000000000568e+01 5.384656459493997716e+01
4.079999999999999716e+01 5.354687653443129136e+01
4.120000000000000284e+01 5.325626984092824756e+01
4.160000000000000142e+01 5.297036663144955071e+01
4.200000000000000000e+01 5.268903985387003530e+01
4.239999999999999858e+01 5.241216722294799979e+01
4.280000000000000426e+01 5.213963099279158087e+01
4.320000000000000284e+01 5.187131774245357008e+01
4.360000000000000142e+01 5.160711817376908783e+01
4.400000000000000000e+01 5.134692692061913988e+01
4.439999999999999858e+01 5.108633349173997829e+01
4.480000000000000426e+01 5.082632623074381684e+01
4.520000000000000284e+01 5.055840973484917811e+01
4.560000000000000142e+01 5.029179474898469948e+01
4.600000000000000000e+01 5.002917471281840278e+01
4.639999999999999858e+01 4.977044984815847783e+01
4.680000000000000426e+01 4.951552384710258536e+01
4.720000000000000284e+01 4.926430371808829278e+01
4.760000000000000142e+01 4.901669964021785830e+01
4.800000000000000000e+01 4.877262482533607368e+01
4.840000000000000568e+01 4.839581733793177420e+01
4.880000000000000426e+01 4.815568623013295735e+01
4.920000000000000284e+01 4.791892125862595009e+01
4.960000000000000142e+01 4.768544403235814144e+01
5.000000000000000000e+01 4.745517869665977884e+01
5.040000000000000568e+01 4.722805182870331464e+01
5.080000000000000426e+01 4.700399233817969957e+01
5.120000000000000284e+01 4.678293137288672909e+01
5.160000000000000142e+01 4.656480222894491305e+01
5.200000000000000000e+01 4.634954026537518246e+01
5.240000000000000568e+01 4.613708282279037576e+01
5.280000000000000426e+01 4.592736914596832065e+01
5.320000000000000284e+01 4.572034031008950450e+01
5.360000000000000142e+01 4.551593915043607552e+01
5.400000000000000000e+01 4.531411019536210461e+01
5.440000000000000568e+01 4.511479960235632092e+01
5.480000000000000426e+01 4.491795509703069200e+01
5.520000000000000284e+01 4.472352591487751283e+01
5.560000000000000142e+01 4.453130016531976310e+01
5.600000000000000000e+01 4.433898763117439756e+01
5.640000000000000568e+01 4.414893081387808138e+01
5.680000000000000426e+01 4.396108585887455433e+01
5.720000000000000284e+01 4.377541010238881825e+01
5.760000000000000142e+01 4.359186202997243953e+01
5.800000000000000000e+01 4.358733416514966308e+01
5.840000000000000568e+01 4.359792605365862528e+01
5.880000000000000426e+01 4.343072872081970104e+01
5.920000000000000284e+01 4.326533606062618276e+01
5.960000000000000142e+01 4.310171571142031155e+01
6.000000000000000000e+01 4.293983612178356424e+01
6.040000000000000568e+01 4.277966652453397955e+01
6.080000000000000426e+01 4.262117691173955336e+01
6.120000000000000284e+01 4.246433801070105574e+01
6.160000000000000142e+01 4.230912126086025182e+01
6.200000000000000000e+01 4.215549879159114255e+01
6.240000000000000568e+01 4.200344340083492511e+01
6.280000000000000426e+01 4.185292853454063788e+01
6.320000000000000284e+01 4.177051240726440540e+01
6.360000000000000142e+01 4.162881120507690724e+01
6.400000000000000000e+01 4.148850193111191942e+01
6.440000000000000568e+01 4.134956179789396913e+01
6.480000000000001137e+01 4.121196853895632728e+01
6.520000000000000284e+01 4.107570039357013059e+01
6.559999999999999432e+01 4.094073609201861075e+01
6.600000000000000000e+01 4.080705484139380701e+01
6.640000000000000568e+01 4.067463631189367845e+01
6.680000000000001137e+01 4.059270029515122502e+01
6.720000000000000284e+01 4.046677124763242261e+01
6.759999999999999432e+01 4.034199944084943468e+01
6.800000000000000000e+01 4.021836704506863924e+01
6.840000000000000568e+01 4.009585661556560865e+01
6.880000000000001137e+01 3.997445108194590091e+01
6.920000000000000284e+01 3.985413373782709812e+01
6.959999999999999432e+01 3.973488823086768917e+01
7.000000000000000000e+01 3.961669855312908339e+01
7.040000000000000568e+01 3.949954903175757437e+01
7.080000000000001137e+01 3.938342431997386939e+01
7.120000000000000284e+01 3.926830938835809803e+01
7.159999999999999432e+01 3.915355828476247524e+01
7.200000000000000000e+01 3.903914685205131718e+01
7.240000000000000568e+01 3.892571299302120735e+01
7.280000000000001137e+01 3.881324272712735279e+01
7.320000000000000284e+01 3.870172235391034121e+01
7.359999999999999432e+01 3.859113844578989472e+01
7.400000000000000000e+01 3.848147784108476799e+01
7.440000000000000568e+01 3.837272763725043490e+01
7.479999999999999716e+01 3.826487518432632839e+01
7.520000000000000284e+01 3.815790807858529377e+01
7.560000000000000853e+01 3.805181415637761688e+01
7.600000000000000000e+01 3.794658148816290577e+01
7.640000000000000568e+01 3.784219837272272713e+01
7.679999999999999716e+01 3.773865333154788715e+01
7.720000000000000284e+01 3.763593510339383386e+01
7.760000000000000853e+01 3.753355672864437054e+01
7.800000000000000000e+01 3.743186461649895591e+01
7.840000000000000568e+01 3.733098623433784979e+01
7.879999999999999716e+01 3.723091062713741195e+01
7.920000000000000284e+01 3.713162704642594747e+01
7.960000000000000853e+01 3.703312494529604493e+01
8.000000000000000000e+01 3.693539397356325793e+01
8.040000000000000568e+01 3.683842397306621308e+01
8.079999999999999716e+01 3.674220497310311373e+01
8.120000000000000284e+01 3.664672718600019152e+01
8.160000000000000853e+01 3.655198100280748008e+01
8.200000000000000000e+01 3.645795698911765470e+01
8.240000000000000568e+01 3.636346851614214160e+01
8.279999999999999716e+01 3.626915165887646708e+01
8.320000000000000284e+01 3.617554782356026521e+01
8.360000000000000853e+01 3.608264795134376612e+01
8.400000000000000000e+01 3.599044314463335326e+01
8.440000000000000568e+01 3.589892466341319022e+01
8.479999999999999716e+01 3.580808392166880338e+01
8.520000000000000284e+01 3.571791248390952234e+01
8.560000000000000853e+01 3.562840206178623959e+01
8.600000000000000000e+01 3.553954451080173982e+01
8.640000000000000568e+01 3.545133182711043673e+01
8.680000000000001137e+01 3.536375614440470372e+01
8.720000000000000284e+01 3.527680973088506278e+01
8.760000000000000853e+01 3.518820640529882837e+01
8.800000000000000000e+01 3.510537523259479542e+01
8.840000000000000568e+01 3.502312435878798169e+01
8.880000000000001137e+01 3.494144693949277780e+01
8.920000000000000284e+01 3.486033624346332260e+01
8.960000000000000853e+01 3.477978565019575541e+01
9.000000000000000000e+01 3.469978864759243464e+01
9.040000000000000568e+01 3.462033882968599130e+01
9.080000000000001137e+01 3.454142989442163980e+01
9.120000000000000284e+01 3.446305564149585621e+01
9.160000000000000853e+01 3.438520997024971848e+01
9.200000000000000000e+01 3.430788687761552325e+01
9.240000000000000568e+01 3.423108045611464689e+01
9.280000000000001137e+01 3.415478489190563494e+01
9.320000000000000284e+01 3.407899446288070067e+01
9.360000000000000853e+01 3.400370353680936830e+01
9.400000000000000000e+01 3.392890656952784667e+01
9.440000000000000568e+01 3.385459810317275497e+01
9.480000000000001137e+01 3.378077276445806376e+01
9.520000000000000284e+01 3.370742526299392949e+01
9.560000000000000853e+01 3.363455038964607979e+01
9.600000000000000000e+01 3.356214301493487540e+01
9.640000000000000568e+01 3.349019808747269877e+01
9.680000000000001137e+01 3.341871063243877416e+01
9.720000000000000284e+01 3.334767575009009732e+01
9.760000000000000853e+01 3.327708861430772913e+01
9.800000000000000000e+01 3.320667498661278216e+01
9.840000000000000568e+01 3.313665946135846241e+01
9.880000000000001137e+01 3.306707517787627637e+01
9.920000000000000284e+01 3.299791768444438844e+01
9.960000000000000853e+01 3.292918259378490831e+01
1.000000000000000000e+02 3.286086558186398321e+01
1.004000000000000057e+02 3.279296238671924613e+01
1.008000000000000114e+02 3.272546880731368901e+01
1.012000000000000028e+02 3.265838070241559876e+01
1.016000000000000085e+02 3.259169398950341190e+01
1.020000000000000000e+02 3.252540464369527484e+01
1.024000000000000057e+02 3.245950869670232919e+01
1.028000000000000114e+02 3.239400223580526017e+01
1.032000000000000028e+02 3.232888140285349721e+01
1.036000000000000085e+02 3.226378493375208478e+01
1.040000000000000000e+02 3.219838050393642703e+01
1.044000000000000057e+02 3.213335946938302357e+01
1.048000000000000114e+02 3.206871806883960119e+01
1.052000000000000028e+02 3.200445259276078502e+01
1.056000000000000085e+02 3.194055938239431924e+01
1.060000000000000000e+02 3.187703482888710482e+01
1.064000000000000057e+02 3.186236255489198399e+01
1.068000000000000114e+02 3.180117505075261164e+01
1.072000000000000028e+02 3.174033246178882095e+01
1.076000000000000085e+02 3.167983152702958449e+01
1.080000000000000000e+02 3.161966902872785212e+01
1.084000000000000057e+02 3.155984179162378922e+01
1.088000000000000114e+02 3.150034668222360779e+01
1.092000000000000028e+02 3.144118060809314485e+01
1.096000000000000085e+02 3.138234051716605677e+01
1.100000000000000000e+02 3.132382339706641972e+01
1.104000000000000057e+02 3.126562627444496556e+01
1.108000000000000114e+02 3.120774621432909868e+01
1.112000000000000028e+02 3.115461669596130889e+01
1.116000000000000085e+02 3.109798030559598203e+01
1.120000000000000000e+02 3.104164873242403644e+01
1.124000000000000057e+02 3.098561921688212095e+01
1.128000000000000114e+02 3.092988903450321203e+01
1.132000000000000028e+02 3.087445549534204048e+01
1.136000000000000085e+02 3.081931594341203962e+01
1.140000000000000000e+02 3.076446775613347739e+01
1.144000000000000057e+02 3.070990834379259482e+01
1.148000000000000114e+02 3.065563514901136699e+01
1.152000000000000028e+02 3.060164564622782990e+01
1.156000000000000085e+02 3.054793734118651827e+01
1.160000000000000000e+02 3.049450777043895044e+01
1.164000000000000057e+02 3.044135450085373407e+01
1.168000000000000114e+02 3.038847512913641324e+01
1.172000000000000028e+02 3.033586728135835742e+01
1.176000000000000085e+02 3.028352861249490502e+01
1.180000000000000000e+02 3.023145680597235341e+01
1.184000000000000057e+02 3.017964957322357122e+01
1.188000000000000114e+02 3.012810465325217635e+01
1.192000000000000028e+02 3.007681981220494549e+01
1.196000000000000085e+02 3.002579284295233109e+01
1.200000000000000000e+02 2.997502156467695400e+01
1.204000000000000057e+02 2.992450382246973462e+01
1.208000000000000114e+02 2.987423748693378300e+01
1.212000000000000028e+02 2.982422045379546205e+01
1.216000000000000085e+02 2.977445064352288284e+01
1.220000000000000000e+02 2.972492600095139181e+01
1.224000000000000057e+02 2.969022344764525556e+01
1.228000000000000114e+02 2.965547320272403553e+01
1.232000000000000028e+02 2.960770691623026707e+01
1.236000000000000085e+02 2.956017047049617119e+01
1.240000000000000000e+02 2.951286200165121443e+01
1.244000000000000057e+02 2.946572047454771948e+01
1.248000000000000114e+02 2.941869922843135754e+01
1.252000000000000028e+02 2.937190282797308072e+01
1.256000000000000085e+02 2.932532945557489512e+01
1.260000000000000000e+02 2.927897731432479844e+01
1.264000000000000057e+02 2.923284462769379033e+01
1.268000000000000114e+02 2.918692963923841788e+01
1.272000000000000028e+02 2.914123061230852585e+01
1.276000000000000085e+02 2.909574582976017965e+01
1.280000000000000000e+02 2.905047359367380011e+01
1.284000000000000057e+02 2.900541222507710160e+01
1.288000000000000114e+02 2.896056006367301450e+01
1.291999999999999886e+02 2.891591546757239684e+01
1.296000000000000227e+02 2.887147681303124003e+01
1.300000000000000000e+02 2.882724249419273121e+01
1.304000000000000057e+02 2.878315119895369634e+01
1.308000000000000114e+02 2.873891330634833707e+01
1.311999999999999886e+02 2.869487774852608908e+01
1.316000000000000227e+02 2.865104296241596771e+01
1.320000000000000000e+02 2.860740740194780685e+01
1.324000000000000057e+02 2.856396953781422710e+01
1.328000000000000114e+02 2.852072785723677484e+01
1.331999999999999886e+02 2.847768086373599061e+01
1.336000000000000227e+02 2.843482707690533928e+01
1.340000000000000000e+02 2.839216503218908016e+01
1.344000000000000057e+02 2.834969328066376448e+01
1.348000000000000114e+02 2.830741038882348093e+01
1.351999999999999886e+02 2.826531493836870723e+01
1.356000000000000227e+02 2.822340552599861496e+01
1.360000000000000000e+02 2.818168076320696258e+01
1.364000000000000057e+02 2.814013927608124277e+01
1.368000000000000114e+02 2.809878581374669437e+01
1.371999999999999886e+02 2.805784669887793825e+01
1.376000000000000227e+02 2.801708541291252885e+01
1.380000000000000000e+02 2.797650065281551690e+01
1.384000000000000057e+02 2.793609112898272784e+01
1.388000000000000114e+02 2.789585556506269626e+01
1.392000000000000171e+02 2.785579269778144607e+01
1.395999999999999943e+02 2.781590127677012703e+01
1.400000000000000000e+02 2.777618006439541176e+01
1.404000000000000057e+02 2.773662783559261769e+01
1.408000000000000114e+02 2.769724337770151124e+01
1.412000000000000171e+02 2.765802549030471980e+01
1.415999999999999943e+02 2.761877529078384086e+01
1.420000000000000000e+02 2.757964422639024349e+01
1.424000000000000057e+02 2.754067759276307470e+01
1.428000000000000114e+02 2.750187422524545156e+01
1.432000000000000171e+02 2.746323297078372505e+01
1.435999999999999943e+02 2.742475268777877062e+01
1.440000000000000000e+02 2.738643224593960923e+01
1.444000000000000057e+02 2.734827052613928799e+01
1.448000000000000114e+02 2.731026642027305940e+01
1.452000000000000171e+02 2.727241883111866727e+01
1.455999999999999943e+02 2.723472667219884968e+01
1.460000000000000000e+02 2.719718886764600541e+01
1.464000000000000057e+02 2.715980435206881793e+01
1.468000000000000114e+02 2.712257207042107510e+01
1.472000000000000171e+02 2.708549097787236448e+01
1.475999999999999943e+02 2.704856003968082589e+01
1.480000000000000000e+02 2.701177823106777609e+01
1.484000000000000057e+02 2.697514453709432303e+01
1.488000000000000114e+02 2.693865795253970674e+01
1.492000000000000171e+02 2.690231748178165816e+01
1.495999999999999943e+02 2.686600849060220852e+01
1.500000000000000000e+02 2.682982462809919255e+01
