1.000000000000000000e+01 1.021299119676738485e+02
1.040000000000000036e+01 1.039461425315273289e+02
1.080000000000000071e+01 1.081102959760398221e+02
1.119999999999999929e+01 1.216806437691955693e+02
1.159999999999999964e+01 1.331844321471778869e+02
1.200000000000000000e+01 1.435359470145357932e+02
1.240000000000000036e+01 1.552075495903384024e+02
1.280000000000000071e+01 1.689713567179956613e+02
1.319999999999999929e+01 1.839660868021137503e+02
1.359999999999999964e+01 2.033297608534611527e+02
1.400000000000000000e+01 2.380817787135790695e+02
1.440000000000000036e+01 2.556177078675629559e+02
1.480000000000000071e+01 2.501929116331512262e+02
1.519999999999999929e+01 2.451748959173296498e+02
1.560000000000000142e+01 2.405122250337431637e+02
1.600000000000000000e+01 2.361623816213699456e+02
1.639999999999999858e+01 2.320898395819880022e+02
1.680000000000000071e+01 2.282646283359501069e+02
1.719999999999999929e+01 2.246612457004326586e+02
1.760000000000000142e+01 2.212578227684601018e+02
1.800000000000000000e+01 2.180354739937207000e+02
1.839999999999999858e+01 2.149777854393067855e+02
1.880000000000000071e+01 2.120704075002536513e+02
1.920000000000000284e+01 2.093007276026032173e+02
1.960000000000000142e+01 2.066576048179971963e+02
2.000000000000000000e+01 2.041311529084289589e+02
2.039999999999999858e+01 2.017125616144633113e+02
2.080000000000000071e+01 1.993939484091065424e+02
2.120000000000000284e+01 1.971682347195958585e+02
2.160000000000000142e+01 1.950290419493327931e+02
2.200000000000000000e+01 1.929706036360245776e+02
2.239999999999999858e+01 1.909876908470097874e+02
2.280000000000000071e+01 1.890755485007898073e+02
2.320000000000000284e+01 1.872298407596244374e+02
2.360000000000000142e+01 1.854466039941623876e+02
2.400000000000000000e+01 1.837222061013221719e+02
2.439999999999999858e+01 1.820533111786996869e+02
2.480000000000000071e+01 1.804368487358859738e+02
2.520000000000000284e+01 1.788699867651960744e+02
2.560000000000000142e+01 1.773501081090172420e+02
2.600000000000000000e+01 1.758747896540798479e+02
2.640000000000000213e+01 1.744417839589008850e+02
2.680000000000000071e+01 1.730490029829188643e+02
2.719999999999999929e+01 1.716945036371344600e+02
2.760000000000000142e+01 1.703764749185151004e+02
2.800000000000000000e+01 1.690932264256969688e+02
2.840000000000000213e+01 1.678431780829513400e+02
2.880000000000000071e+01 1.666248509240410840e+02
2.920000000000000284e+01 1.654368588083281963e+02
2.960000000000000142e+01 1.642779009589908696e+02
3.000000000000000000e+01 1.631467552280277005e+02
3.040000000000000213e+01 1.620422720053167609e+02
3.080000000000000071e+01 1.609633686997270843e+02
3.120000000000000284e+01 1.599090247294562062e+02
3.160000000000000142e+01 1.588782769666336492e+02
3.200000000000000000e+01 1.578702155879936981e+02
3.240000000000000568e+01 1.568839802892566695e+02
3.279999999999999716e+01 1.559187568258962813e+02
3.320000000000000284e+01 1.549737738473450008e+02
3.360000000000000142e+01 1.540482999954842285e+02
3.400000000000000000e+01 1.531416412415737511e+02
3.440000000000000568e+01 1.522531384386612956e+02
3.479999999999999716e+01 1.513821650690392744e+02
3.520000000000000284e+01 1.505281251685278789e+02
3.560000000000000142e+01 1.496904514113107894e+02
3.600000000000000000e+01 1.488686033407597051e+02
3.640000000000000568e+01 1.480620657331963912e+02
3.679999999999999716e+01 1.472703470828727745e+02
3.720000000000000284e+01 1.464929781976327945e+02
3.760000000000000142e+01 1.457295108957670777e+02
3.800000000000000000e+01 1.449795167955011266e+02
3.840000000000000568e+01 1.442425861893881063e+02
3.879999999999999716e+01 1.435183269966126431e+02
3.920000000000000284e+01 1.428063637868741012e+02
3.960000000000000142e+01 1.421063368701050820e+02
4.000000000000000000e+01 1.414179014468093385e+02
4.040000000000000568e+01 1.407407268142762859e+02
4.079999999999999716e+01 1.400744956243549382e+02
4.120000000000000284e+01 1.394189031888504928e+02
4.160000000000000142e+01 1.387736568289538184e+02
4.200000000000000000e+01 1.381384752654212207e+02
4.239999999999999858e+01 1.375130880465044925e+02
4.280000000000000426e+01 1.368972350108833211e+02
4.320000000000000284e+01 1.362906657830815789e+02
4.360000000000000142e+01 1.356931392990567815e+02
4.400000000000000000e+01 1.351044233598407800e+02
4.439999999999999858e+01 1.345242942112801643e+02
4.480000000000000426e+01 1.339525361480809806e+02
4.520000000000000284e+01 1.333889411405044427e+02
4.560000000000000142e+01 1.328333084821881016e+02
4.600000000000000000e+01 1.322854444576862534e+02
4.639999999999999858e+01 1.317451620284294052e+02
4.680000000000000426e+01 1.312122805359022095e+02
4.720000000000000284e+01 1.306866254209282090e+02
4.760000000000000142e+01 1.301680279580319564e+02
4.800000000000000000e+01 1.296563250039260993e+02
4.840000000000000568e+01 1.291513587592378087e+02
4.880000000000000426e+01 1.286529765426545282e+02
4.920000000000000284e+01 1.281610305767263753e+02
4.960000000000000142e+01 1.276753777846168703e+02
5.000000000000000000e+01 1.271958795971423655e+02
5.040000000000000568e+01 1.267224017694869360e+02
5.080000000000000426e+01 1.262548142070210702e+02
5.120000000000000284e+01 1.257929907996913101e+02
5.160000000000000142e+01 1.253368092644837759e+02
5.200000000000000000e+01 1.248861509954981273e+02
5.240000000000000568e+01 1.244409009211981072e+02
5.280000000000000426e+01 1.240009473684342254e+02
5.320000000000000284e+01 1.235661819328595641e+02
5.360000000000000142e+01 1.231364993553848564e+02
5.400000000000000000e+01 1.227117974043402739e+02
5.440000000000000568e+01 1.222919767630340857e+02
5.480000000000000426e+01 1.218769409224157982e+02
5.520000000000000284e+01 1.214665960785715555e+02
5.560000000000000142e+01 1.210608510347941547e+02
5.600000000000000000e+01 1.206596171079880264e+02
5.640000000000000568e+01 1.202628080391820617e+02
5.680000000000000426e+01 1.198703399079379892e+02
5.720000000000000284e+01 1.194821310504543561e+02
5.760000000000000142e+01 1.190981019811775639e+02
5.800000000000000000e+01 1.187181753177432455e+02
5.840000000000000568e+01 1.183422757090806670e+02
5.880000000000000426e+01 1.179703297665232782e+02
5.920000000000000284e+01 1.176022659977765557e+02
5.960000000000000142e+01 1.172380147436040545e+02
6.000000000000000000e+01 1.168775081170989694e+02
6.040000000000000568e+01 1.165206799454171289e+02
6.080000000000000426e+01 1.161674657138532041e+02
6.120000000000000284e+01 1.158178025121494130e+02
6.160000000000000142e+01 1.154716289829310938e+02
6.200000000000000000e+01 1.151288852721700948e+02
6.240000000000000568e+01 1.147895129815816659e+02
6.280000000000000426e+01 1.144534551228655062e+02
6.320000000000000284e+01 1.141206560737075790e+02
6.360000000000000142e+01 1.137910615354611537e+02
6.400000000000000000e+01 1.134646184924330896e+02
6.440000000000000568e+01 1.131412751727023362e+02
6.480000000000001137e+01 1.128209810104028890e+02
6.520000000000000284e+01 1.125036866094070263e+02
6.559999999999999432e+01 1.121893437083463425e+02
6.600000000000000000e+01 1.118779051469138039e+02
6.640000000000000568e+01 1.115693248333903682e+02
6.680000000000001137e+01 1.112635577133439142e+02
6.720000000000000284e+01 1.109605597394507157e+02
6.759999999999999432e+01 1.106602878423916252e+02
6.800000000000000000e+01 1.103626999027780897e+02
6.840000000000000568e+01 1.100677547240644856e+02
6.880000000000001137e+01 1.097754120064063414e+02
6.920000000000000284e+01 1.094856323214252285e+02
6.959999999999999432e+01 1.091983770878430278e+02
7.000000000000000000e+01 1.089136085479503606e+02
7.040000000000000568e+01 1.086312897448756303e+02
7.080000000000001137e+01 1.083513845006220038e+02
7.120000000000000284e+01 1.080738573948422072e+02
7.159999999999999432e+01 1.077986737443213201e+02
7.200000000000000000e+01 1.075257995831403832e+02
7.240000000000000568e+01 1.072552016434934501e+02
7.280000000000001137e+01 1.069868473371327866e+02
7.320000000000000284e+01 1.067207047374183446e+02
7.359999999999999432e+01 1.064567425619478485e+02
7.400000000000000000e+01 1.061949301557451406e+02
7.440000000000000568e+01 1.059352374749863657e+02
7.479999999999999716e+01 1.056776350712427046e+02
7.520000000000000284e+01 1.054220940762208159e+02
7.560000000000000853e+01 1.051685861869825942e+02
7.600000000000000000e+01 1.049170836516257168e+02
7.640000000000000568e+01 1.046675592554089178e+02
7.679999999999999716e+01 1.044199863073048675e+02
7.720000000000000284e+01 1.041743386269655218e+02
7.760000000000000853e+01 1.039305905320850343e+02
7.800000000000000000e+01 1.036887168261456225e+02
7.840000000000000568e+01 1.034486927865326038e+02
7.879999999999999716e+01 1.032104941530061524e+02
7.920000000000000284e+01 1.029740971165160630e+02
7.960000000000000853e+01 1.027394783083484811e+02
8.000000000000000000e+01 1.025066147895921915e+02
8.040000000000000568e+01 1.022754840409137671e+02
8.079999999999999716e+01 1.020460639526306750e+02
8.120000000000000284e+01 1.018183328150721536e+02
8.160000000000000853e+01 1.015922693092181959e+02
8.200000000000000000e+01 1.013678524976065773e+02
8.240000000000000568e+01 1.011450618154994459e+02
8.279999999999999716e+01 1.009238770623005905e+02
8.320000000000000284e+01 1.007042783932146079e+02
8.360000000000000853e+01 1.004862463111403770e+02
8.400000000000000000e+01 1.002697616587908840e+02
8.440000000000000568e+01 1.000548056110315684e+02
8.479999999999999716e+01 9.984135966743096446e+01
8.520000000000000284e+01 9.962940564501539598e+01
8.560000000000000853e+01 9.941892567122235391e+01
8.600000000000000000e+01 9.920990217704510883e+01
8.640000000000000568e+01 9.900231789036330099e+01
8.680000000000001137e+01 9.879615582945265828e+01
8.720000000000000284e+01 9.859139929666903868e+01
8.760000000000000853e+01 9.838803187230035974e+01
8.800000000000000000e+01 9.818603740858210926e+01
8.840000000000000568e+01 9.798540002387039749e+01
8.880000000000001137e+01 9.778610409696813122e+01
8.920000000000000284e+01 9.758813426159957771e+01
8.960000000000000853e+01 9.739147540102837297e+01
9.000000000000000000e+01 9.719611264281505214e+01
9.040000000000000568e+01 9.700203135370939833e+01
9.080000000000001137e+01 9.680921713467370182e+01
9.120000000000000284e+01 9.661765581603296482e+01
9.160000000000000853e+01 9.642733345274828594e+01
9.200000000000000000e+01 9.623823631980941684e+01
9.240000000000000568e+01 9.605035090774346429e+01
9.280000000000001137e+01 9.586366391823558786e+01
9.320000000000000284e+01 9.567816225985914969e+01
9.360000000000000853e+01 9.549383304391139404e+01
9.400000000000000000e+01 9.531066358035207031e+01
9.440000000000000568e+01 9.512864137384173091e+01
9.480000000000001137e+01 9.494775411987684777e+01
9.520000000000000284e+01 9.476798970101897623e+01
9.560000000000000853e+01 9.458933618321532322e+01
9.600000000000000000e+01 9.441178181220799104e+01
9.640000000000000568e+01 9.423531501002936750e+01
9.680000000000001137e+01 9.405992437158137420e+01
9.720000000000000284e+01 9.388559866129597253e+01
9.760000000000000853e+01 9.371232680987471042e+01
9.800000000000000000e+01 9.354009791110547667e+01
9.840000000000000568e+01 9.336890121875345017e+01
9.880000000000001137e+01 9.319872614352520657e+01
9.920000000000000284e+01 9.302956225010305502e+01
9.960000000000000853e+01 9.286139925424843966e+01
1.000000000000000000e+02 9.269422701997177683e+01
1.004000000000000057e+02 9.252803555676769065e+01
1.008000000000000114e+02 9.236281501691303220e+01
1.012000000000000028e+02 9.219855569282685792e+01
1.016000000000000085e+02 9.203524801448989479e+01
1.020000000000000000e+02 9.187288254692251144e+01
1.024000000000000057e+02 9.171144998771916335e+01
1.028000000000000114e+02 9.155094116463828868e+01
1.032000000000000028e+02 9.139134703324566544e+01
1.036000000000000085e+02 9.123265867461029188e+01
1.040000000000000000e+02 9.107486729305102813e+01
1.044000000000000057e+02 9.091796421393297578e+01
1.048000000000000114e+02 9.076194088151203232e+01
1.052000000000000028e+02 9.060678885682676764e+01
1.056000000000000085e+02 9.045249981563564745e+01
1.060000000000000000e+02 9.029906554639958927e+01
1.064000000000000057e+02 9.014647794830732153e+01
1.068000000000000114e+02 8.999472902934380159e+01
1.072000000000000028e+02 8.984381090439940465e+01
1.076000000000000085e+02 8.969371579341986944e+01
1.080000000000000000e+02 8.954443601959516741e+01
1.084000000000000057e+02 8.939596400758679806e+01
1.088000000000000114e+02 8.924829228179237361e+01
1.092000000000000028e+02 8.910141346464671130e+01
1.096000000000000085e+02 8.895532027495812599e+01
1.100000000000000000e+02 8.881000552627973832e+01
1.104000000000000057e+02 8.866546212531414994e+01
1.108000000000000114e+02 8.852168307035134376e+01
1.112000000000000028e+02 8.837866144973853011e+01
1.116000000000000085e+02 8.823639044038142742e+01
1.120000000000000000e+02 8.809486330627612460e+01
1.124000000000000057e+02 8.795407339707077199e+01
1.128000000000000114e+02 8.781401414665634775e+01
1.132000000000000028e+02 8.767467907178594544e+01
1.136000000000000085e+02 8.753606177072181538e+01
1.140000000000000000e+02 8.739815592190934979e+01
1.144000000000000057e+02 8.726095528267771329e+01
1.148000000000000114e+02 8.712445368796622347e+01
1.152000000000000028e+02 8.698864504907587047e+01
1.156000000000000085e+02 8.685352335244544975e+01
1.160000000000000000e+02 8.671908265845212327e+01
1.164000000000000057e+02 8.658531710023481764e+01
1.168000000000000114e+02 8.645222088254112691e+01
1.172000000000000028e+02 8.631978828059639852e+01
1.176000000000000085e+02 8.618801363899473245e+01
1.180000000000000000e+02 8.605689137061139604e+01
1.184000000000000057e+02 8.592641595553618572e+01
1.188000000000000114e+02 8.579658194002715277e+01
1.192000000000000028e+02 8.566738393548438069e+01
1.196000000000000085e+02 8.553881661744320297e+01
1.200000000000000000e+02 8.541087472458659136e+01
1.204000000000000057e+02 8.528355305777606077e+01
1.208000000000000114e+02 8.515684647910100580e+01
1.212000000000000028e+02 8.503074991094572965e+01
1.216000000000000085e+02 8.490525833507381037e+01
1.220000000000000000e+02 8.478036679172979007e+01
1.224000000000000057e+02 8.465607037875736296e+01
1.228000000000000114e+02 8.453236425073379223e+01
1.232000000000000028e+02 8.440924361812049881e+01
1.236000000000000085e+02 8.428670374642905472e+01
1.240000000000000000e+02 8.416473995540250996e+01
1.244000000000000057e+02 8.404334761821169764e+01
1.248000000000000114e+02 8.392252216066606252e+01
1.252000000000000028e+02 8.380225906043881423e+01
1.256000000000000085e+02 8.368255384630620597e+01
1.260000000000000000e+02 8.356340209740012881e+01
1.264000000000000057e+02 8.344479944247459002e+01
1.268000000000000114e+02 8.332674155918493852e+01
1.272000000000000028e+02 8.320922417338009325e+01
1.276000000000000085e+02 8.309224305840729130e+01
1.280000000000000000e+02 8.297579403442910007e+01
1.284000000000000057e+02 8.285987296775259381e+01
1.288000000000000114e+02 8.274447577017016897e+01
1.291999999999999886e+02 8.262959839831199815e+01
1.296000000000000227e+02 8.251523685300983857e+01
1.300000000000000000e+02 8.240138717867169760e+01
1.304000000000000057e+02 8.228804546266769648e+01
1.308000000000000114e+02 8.217520783472615165e+01
1.311999999999999886e+02 8.206287046634042781e+01
1.316000000000000227e+02 8.195102957018571033e+01
1.320000000000000000e+02 8.183968139954589560e+01
1.324000000000000057e+02 8.172882224775031546e+01
1.328000000000000114e+02 8.161844844761981221e+01
1.331999999999999886e+02 8.150855637092257666e+01
1.336000000000000227e+02 8.139914242783873988e+01
1.340000000000000000e+02 8.129020306643448635e+01
1.344000000000000057e+02 8.118173477214452305e+01
1.348000000000000114e+02 8.107373406726348719e+01
1.351999999999999886e+02 8.096619751044590885e+01
1.356000000000000227e+02 8.085912169621420276e+01
1.360000000000000000e+02 8.075250325447510136e+01
1.364000000000000057e+02 8.064633885004406011e+01
1.368000000000000114e+02 8.054062518217716615e+01
1.371999999999999886e+02 8.043535898411127505e+01
1.376000000000000227e+02 8.033053702261126716e+01
1.380000000000000000e+02 8.022615609752489263e+01
1.384000000000000057e+02 8.012221304134476441e+01
1.388000000000000114e+02 8.001870471877758462e+01
1.392000000000000171e+02 7.991562802632023477e+01
1.395999999999999943e+02 7.981297989184272978e+01
1.400000000000000000e+02 7.971075727417797907e+01
1.404000000000000057e+02 7.960895716271789979e+01
1.408000000000000114e+02 7.950757657701629455e+01
1.412000000000000171e+02 7.940661256639788235e+01
1.415999999999999943e+02 7.930606220957344021e+01
1.420000000000000000e+02 7.920592261426133973e+01
1.424000000000000057e+02 7.910619091681476789e+01
1.428000000000000114e+02 7.900686428185503019e+01
1.432000000000000171e+02 7.890793990191052387e+01
1.435999999999999943e+02 7.880941499706136710e+01
1.440000000000000000e+02 7.871128681458961296e+01
1.444000000000000057e+02 7.861355262863477833e+01
1.448000000000000114e+02 7.851620973985501450e+01
1.452000000000000171e+02 7.841925547509323735e+01
1.455999999999999943e+02 7.832268718704851551e+01
1.460000000000000000e+02 7.822650225395250345e+01
1.464000000000000057e+02 7.813069807925091936e+01
1.468000000000000114e+02 7.803527209128978370e+01
1.472000000000000171e+02 7.794022174300647521e+01
1.475999999999999943e+02 7.784554451162554756e+01
1.480000000000000000e+02 7.775123789835917876e+01
1.484000000000000057e+02 7.765729942811192643e+01
1.488000000000000114e+02 7.756372664919027216e+01
1.492000000000000171e+02 7.747051713301632958e+01
1.495999999999999943e+02 7.737766847384577318e+01
1.500000000000000000e+02 7.728517828849035709e+01
