1.000000000000000000e+01 6.081064317460056827e+02
1.040000000000000036e+01 7.540614622473625559e+02
1.080000000000000071e+01 8.906682155342539318e+02
1.119999999999999929e+01 9.798868000362198245e+02
1.159999999999999964e+01 1.009937824811774362e+03
1.200000000000000000e+01 1.030273636408800485e+03
1.240000000000000036e+01 1.058512478134886805e+03
1.280000000000000071e+01 1.053634698998768272e+03
1.319999999999999929e+01 1.038087635620664059e+03
1.359999999999999964e+01 1.024791090824448020e+03
1.400000000000000000e+01 1.015547200917761074e+03
1.440000000000000036e+01 1.006074084164840087e+03
1.480000000000000071e+01 9.886523402166042160e+02
1.519999999999999929e+01 9.722465085645358158e+02
1.560000000000000142e+01 9.567566203402840301e+02
1.600000000000000000e+01 9.420963954960435558e+02
1.639999999999999858e+01 9.281908609281529152e+02
1.680000000000000071e+01 9.149744680748145811e+02
1.719999999999999929e+01 9.023895880994324443e+02
1.760000000000000142e+01 8.903852965299533935e+02
1.800000000000000000e+01 8.789163825717944292e+02
1.839999999999999858e+01 8.679425347696154631e+02
1.880000000000000071e+01 8.574276664925582736e+02
1.920000000000000284e+01 8.473393533063418772e+02
1.960000000000000142e+01 8.376483606332906220e+02
2.000000000000000000e+01 8.283282448362228934e+02
2.039999999999999858e+01 8.193550144396429005e+02
2.080000000000000071e+01 8.107068409328189773e+02
2.120000000000000284e+01 8.023638107042701222e+02
2.160000000000000142e+01 7.943077112938210576e+02
2.200000000000000000e+01 7.865218464313314826e+02
2.239999999999999858e+01 7.789908753445497496e+02
2.280000000000000071e+01 7.717006726246318067e+02
2.320000000000000284e+01 7.646382055833799996e+02
2.360000000000000142e+01 7.577914265563667868e+02
2.400000000000000000e+01 7.511491780276959389e+02
2.439999999999999858e+01 7.447011087957162090e+02
2.480000000000000071e+01 7.384375996805017621e+02
2.520000000000000284e+01 7.323496975056584688e+02
2.560000000000000142e+01 7.264290562787166436e+02
2.600000000000000000e+01 7.206678846536685796e+02
2.640000000000000213e+01 7.150588988921023201e+02
2.680000000000000071e+01 7.095952806507451669e+02
2.719999999999999929e+01 7.042706390168682447e+02
2.760000000000000142e+01 6.990789762920567227e+02
2.800000000000000000e+01 6.940146570918079760e+02
2.840000000000000213e+01 6.890723803853350091e+02
2.880000000000000071e+01 6.842471541484775344e+02
2.920000000000000284e+01 6.795342723441377757e+02
2.960000000000000142e+01 6.749292939802581941e+02
3.000000000000000000e+01 6.704280240260035271e+02
3.040000000000000213e+01 6.660264959932297870e+02
3.080000000000000071e+01 6.617209560131921080e+02
3.120000000000000284e+01 6.575078482582598554e+02
3.160000000000000142e+01 6.533838015756502955e+02
3.200000000000000000e+01 6.493456172152007184e+02
3.240000000000000568e+01 6.453902575463243920e+02
3.279999999999999716e+01 6.415148356707703670e+02
3.320000000000000284e+01 6.377166058478787818e+02
3.360000000000000142e+01 6.339929546578823647e+02
3.400000000000000000e+01 6.303413928365915808e+02
3.440000000000000568e+01 6.267595477216948439e+02
3.479999999999999716e+01 6.232451562569747239e+02
3.520000000000000284e+01 6.197960585061445045e+02
3.560000000000000142e+01 6.164101916327795152e+02
3.600000000000000000e+01 6.130855843070767150e+02
3.640000000000000568e+01 6.098203515039529066e+02
3.679999999999999716e+01 6.066126896603747127e+02
3.720000000000000284e+01 6.034608721628186458e+02
3.760000000000000142e+01 6.003632451384672777e+02
3.800000000000000000e+01 5.973182235261510868e+02
3.840000000000000568e+01 5.943242874052239131e+02
3.879999999999999716e+01 5.913799785624999004e+02
3.920000000000000284e+01 5.884838972791357037e+02
3.960000000000000142e+01 5.856346993209198217e+02
4.000000000000000000e+01 5.828310931168525713e+02
4.040000000000000568e+01 5.800718371121892005e+02
4.079999999999999716e+01 5.773557372832797228e+02
4.120000000000000284e+01 5.746816448025933823e+02
4.160000000000000142e+01 5.720484538432692716e+02
4.200000000000000000e+01 5.694550995134021605e+02
4.239999999999999858e+01 5.669005559110589729e+02
4.280000000000000426e+01 5.643838342917367754e+02
4.320000000000000284e+01 5.619039813406283201e+02
4.360000000000000142e+01 5.594600775426494010e+02
4.400000000000000000e+01 5.570512356437320705e+02
4.439999999999999858e+01 5.546765991973778682e+02
4.480000000000000426e+01 5.523353411909164379e+02
4.520000000000000284e+01 5.500266627463382747e+02
4.560000000000000142e+01 5.477497918909384680e+02
4.600000000000000000e+01 5.455039823933642538e+02
4.639999999999999858e+01 5.432885126609758117e+02
4.680000000000000426e+01 5.411026846947237345e+02
4.720000000000000284e+01 5.389458230980142162e+02
4.760000000000000142e+01 5.368172741362842544e+02
4.800000000000000000e+01 5.347164048442366493e+02
4.840000000000000568e+01 5.326426021778916038e+02
4.880000000000000426e+01 5.305952722088128439e+02
4.920000000000000284e+01 5.285738393580382990e+02
4.960000000000000142e+01 5.265777456674139785e+02
5.000000000000000000e+01 5.246064501061869123e+02
5.040000000000000568e+01 5.226594279108438741e+02
5.080000000000000426e+01 5.207361699563267621e+02
5.120000000000000284e+01 5.188361821568655614e+02
5.160000000000000142e+01 5.169589848947887276e+02
5.200000000000000000e+01 5.151041124757772423e+02
5.240000000000000568e+01 5.132711126091148799e+02
5.280000000000000426e+01 5.114595459115919311e+02
5.320000000000000284e+01 5.096689854337902261e+02
5.360000000000000142e+01 5.078990162075643298e+02
5.400000000000000000e+01 5.061492348136014812e+02
5.440000000000000568e+01 5.044192489680110043e+02
5.480000000000000426e+01 5.027086771269586052e+02
5.520000000000000284e+01 5.010171481084172456e+02
5.560000000000000142e+01 4.993443007301630701e+02
5.600000000000000000e+01 4.976897834631942601e+02
5.640000000000000568e+01 4.960532540998001423e+02
5.680000000000000426e+01 4.944343794355497721e+02
5.720000000000000284e+01 4.928328349645145749e+02
5.760000000000000142e+01 4.912483045870748697e+02
5.800000000000000000e+01 4.896804803296985256e+02
5.840000000000000568e+01 4.881290620761167247e+02
5.880000000000000426e+01 4.865937573093459605e+02
5.920000000000000284e+01 4.850742808640454200e+02
5.960000000000000142e+01 4.835703546887200446e+02
6.000000000000000000e+01 4.820817076173073019e+02
6.040000000000000568e+01 4.806080751497142955e+02
6.080000000000000426e+01 4.791491992408880378e+02
6.120000000000000284e+01 4.777048280980324080e+02
6.160000000000000142e+01 4.762747159855978225e+02
6.200000000000000000e+01 4.748586230376935191e+02
6.240000000000000568e+01 4.734563150775906024e+02
6.280000000000000426e+01 4.720675634439987221e+02
6.320000000000000284e+01 4.706921448238171024e+02
6.360000000000000142e+01 4.693298410910762755e+02
6.400000000000000000e+01 4.679804391517998852e+02
6.440000000000000568e+01 4.666437307945301995e+02
6.480000000000001137e+01 4.653195125462734723e+02
6.520000000000000284e+01 4.640075855336345398e+02
6.559999999999999432e+01 4.627077553489185675e+02
6.600000000000000000e+01 4.614198319209922374e+02
6.640000000000000568e+01 4.601436293907039499e+02
6.680000000000001137e+01 4.588789659906739189e+02
6.720000000000000284e+01 4.576256639292724913e+02
6.759999999999999432e+01 4.563835492786164423e+02
6.800000000000000000e+01 4.551524518664169250e+02
6.840000000000000568e+01 4.539322051715251973e+02
6.880000000000001137e+01 4.527226462230250377e+02
6.920000000000000284e+01 4.515236155027319569e+02
6.959999999999999432e+01 4.503349568509610776e+02
7.000000000000000000e+01 4.491565173754367493e+02
7.040000000000000568e+01 4.479881473632198094e+02
7.080000000000001137e+01 4.468297001955331211e+02
7.120000000000000284e+01 4.456810322653753929e+02
7.159999999999999432e+01 4.445420028978132905e+02
7.200000000000000000e+01 4.434124742728506590e+02
7.240000000000000568e+01 4.422923113507766857e+02
7.280000000000001137e+01 4.411813817998972809e+02
7.320000000000000284e+01 4.400795559265625343e+02
7.359999999999999432e+01 4.389867066074017430e+02
7.400000000000000000e+01 4.379027092236851786e+02
7.440000000000000568e+01 4.368274415977346052e+02
7.479999999999999716e+01 4.357607839313050704e+02
7.520000000000000284e+01 4.347026187458670279e+02
7.560000000000000853e+01 4.336528308247206951e+02
7.600000000000000000e+01 4.326113071568736359e+02
7.640000000000000568e+01 4.315779368826218843e+02
7.679999999999999716e+01 4.305526112407691244e+02
7.720000000000000284e+01 4.295352235174303814e+02
7.760000000000000853e+01 4.285256689963603094e+02
7.800000000000000000e+01 4.275238449107552583e+02
7.840000000000000568e+01 4.265296503964759722e+02
7.879999999999999716e+01 4.255429864466417484e+02
7.920000000000000284e+01 4.245637558675481387e+02
7.960000000000000853e+01 4.235918632358657305e+02
8.000000000000000000e+01 4.226272148570704985e+02
8.040000000000000568e+01 4.216697187250694014e+02
8.079999999999999716e+01 4.207192844829777414e+02
8.120000000000000284e+01 4.197758233850092324e+02
8.160000000000000853e+01 4.188392482594441049e+02
8.200000000000000000e+01 4.179094734726361935e+02
8.240000000000000568e+01 4.169864148940260975e+02
8.279999999999999716e+01 4.160699898621284092e+02
8.320000000000000284e+01 4.151601171514578255e+02
8.360000000000000853e+01 4.142567169403671983e+02
8.400000000000000000e+01 4.133597107797650096e+02
8.440000000000000568e+01 4.124690215626849863e+02
8.479999999999999716e+01 4.115845734946815355e+02
8.520000000000000284e+01 4.107062920650220121e+02
8.560000000000000853e+01 4.098341040186528517e+02
8.600000000000000000e+01 4.089679373289142177e+02
8.640000000000000568e+01 4.081077211709787775e+02
8.680000000000001137e+01 4.072533858959931194e+02
8.720000000000000284e+01 4.064048630058998697e+02
8.760000000000000853e+01 4.055620851289173743e+02
8.800000000000000000e+01 4.047249859956601767e+02
8.840000000000000568e+01 4.038935004158765878e+02
8.880000000000001137e+01 4.030675642557881133e+02
8.920000000000000284e+01 4.022471144160090262e+02
8.960000000000000853e+01 4.014320888100322122e+02
9.000000000000000000e+01 4.006224263432599173e+02
9.040000000000000568e+01 3.998180668925675718e+02
9.080000000000001137e+01 3.990189512863803998e+02
9.120000000000000284e+01 3.982250212852512732e+02
9.160000000000000853e+01 3.974362195629223038e+02
9.200000000000000000e+01 3.966524896878576669e+02
9.240000000000000568e+01 3.958737761052329347e+02
9.280000000000001137e+01 3.951000241193669922e+02
9.320000000000000284e+01 3.943311798765858498e+02
9.360000000000000853e+01 3.935671903485033454e+02
9.400000000000000000e+01 3.928080033157085609e+02
9.440000000000000568e+01 3.920535673518467661e+02
9.480000000000001137e+01 3.913038318080847375e+02
9.520000000000000284e+01 3.905587467979464122e+02
9.560000000000000853e+01 3.898182631825127373e+02
9.600000000000000000e+01 3.890823325559703108e+02
9.640000000000000568e+01 3.883509072315033563e+02
9.680000000000001137e+01 3.876239402275175507e+02
9.720000000000000284e+01 3.869013852541864367e+02
9.760000000000000853e+01 3.861831967003115551e+02
9.800000000000000000e+01 3.854693296204886792e+02
9.840000000000000568e+01 3.847597397225695772e+02
9.880000000000001137e+01 3.840543833554141884e+02
9.920000000000000284e+01 3.833532174969223547e+02
9.960000000000000853e+01 3.826561997423399362e+02
1.000000000000000000e+02 3.819632882928298159e+02
1.004000000000000057e+02 3.812744419443026800e+02
1.008000000000000114e+02 3.805896200764990454e+02
1.012000000000000028e+02 3.799087826423168508e+02
1.016000000000000085e+02 3.792318901573772791e+02
1.020000000000000000e+02 3.785589036898234099e+02
1.024000000000000057e+02 3.778897848503449950e+02
1.028000000000000114e+02 3.772244957824232756e+02
1.032000000000000028e+02 3.765629991527903258e+02
1.036000000000000085e+02 3.759052581420984325e+02
1.040000000000000000e+02 3.752512364357915544e+02
1.044000000000000057e+02 3.746008982151760733e+02
1.048000000000000114e+02 3.739542081486848701e+02
1.052000000000000028e+02 3.733111313833289273e+02
1.056000000000000085e+02 3.726716335363333314e+02
1.060000000000000000e+02 3.720356806869515935e+02
1.064000000000000057e+02 3.714032393684543649e+02
1.068000000000000114e+02 3.707742765602885697e+02
1.072000000000000028e+02 3.701487596804013265e+02
1.076000000000000085e+02 3.695266565777266123e+02
1.080000000000000000e+02 3.689079355248284173e+02
1.084000000000000057e+02 3.682925652106981147e+02
1.088000000000000114e+02 3.676805147337013295e+02
1.092000000000000028e+02 3.670717535946716339e+02
1.096000000000000085e+02 3.664662516901459526e+02
1.100000000000000000e+02 3.658639793057394627e+02
1.104000000000000057e+02 3.652649071096566331e+02
1.108000000000000114e+02 3.646690061463339134e+02
1.112000000000000028e+02 3.640762478302125373e+02
1.116000000000000085e+02 3.634866039396366091e+02
1.120000000000000000e+02 3.629000466108748810e+02
1.124000000000000057e+02 3.623165483322624709e+02
1.128000000000000114e+02 3.617360819384603587e+02
1.132000000000000028e+02 3.611586206048286840e+02
1.136000000000000085e+02 3.605841378419124226e+02
1.140000000000000000e+02 3.600126074900362596e+02
1.144000000000000057e+02 3.594440037140059303e+02
1.148000000000000114e+02 3.588783009979143230e+02
1.152000000000000028e+02 3.583154741400478542e+02
1.156000000000000085e+02 3.577554982478944225e+02
1.160000000000000000e+02 3.571983487332468030e+02
1.164000000000000057e+02 3.566440013074011972e+02
1.168000000000000114e+02 3.560924319764495181e+02
1.172000000000000028e+02 3.555436170366606916e+02
1.176000000000000085e+02 3.549975330699517713e+02
1.180000000000000000e+02 3.544541569394451130e+02
1.184000000000000057e+02 3.539134657851099632e+02
1.188000000000000114e+02 3.533754370194869239e+02
1.192000000000000028e+02 3.528400483234931926e+02
1.196000000000000085e+02 3.523072776423070991e+02
1.200000000000000000e+02 3.517771031813289255e+02
1.204000000000000057e+02 3.512495034022188065e+02
1.208000000000000114e+02 3.507244570190069339e+02
1.212000000000000028e+02 3.502019429942771467e+02
1.216000000000000085e+02 3.496819405354206651e+02
1.220000000000000000e+02 3.491644290909589472e+02
1.224000000000000057e+02 3.486493883469341313e+02
1.228000000000000114e+02 3.481367982233660996e+02
1.232000000000000028e+02 3.476266388707734336e+02
1.236000000000000085e+02 3.471188906667581477e+02
1.240000000000000000e+02 3.466135342126524392e+02
1.244000000000000057e+02 3.461105503302260331e+02
1.248000000000000114e+02 3.456099200584524738e+02
1.252000000000000028e+02 3.451116246503338516e+02
1.256000000000000085e+02 3.446156455697825436e+02
1.260000000000000000e+02 3.441219644885575804e+02
1.264000000000000057e+02 3.436305632832568904e+02
1.268000000000000114e+02 3.431414240323616696e+02
1.272000000000000028e+02 3.426545290133337289e+02
1.276000000000000085e+02 3.421698606997631487e+02
1.280000000000000000e+02 3.416874017585670913e+02
1.284000000000000057e+02 3.412071350472363065e+02
1.288000000000000114e+02 3.407290436111306349e+02
1.291999999999999886e+02 3.402531106808211803e+02
1.296000000000000227e+02 3.397793196694781841e+02
1.300000000000000000e+02 3.393076541703046587e+02
1.304000000000000057e+02 3.388380979540134490e+02
1.308000000000000114e+02 3.383706349663482911e+02
1.311999999999999886e+02 3.379052493256467073e+02
1.316000000000000227e+02 3.374419253204446818e+02
1.320000000000000000e+02 3.369806474071218645e+02
1.324000000000000057e+02 3.365214002075871917e+02
1.328000000000000114e+02 3.360641685070024778e+02
1.331999999999999886e+02 3.356089372515459672e+02
1.336000000000000227e+02 3.351556915462116422e+02
1.340000000000000000e+02 3.347044166526466711e+02
1.344000000000000057e+02 3.342550979870240440e+02
1.348000000000000114e+02 3.338077211179514165e+02
1.351999999999999886e+02 3.333622717644135491e+02
1.356000000000000227e+02 3.329187357937499883e+02
1.360000000000000000e+02 3.324770992196649786e+02
1.364000000000000057e+02 3.320373482002704009e+02
1.368000000000000114e+02 3.315994690361610537e+02
1.371999999999999886e+02 3.311634481685212563e+02
1.376000000000000227e+02 3.307292721772617483e+02
1.380000000000000000e+02 3.302969277791873424e+02
1.384000000000000057e+02 3.298664018261939646e+02
1.388000000000000114e+02 3.294376813034951965e+02
1.392000000000000171e+02 3.290107533278766709e+02
1.395999999999999943e+02 3.285856051459790592e+02
1.400000000000000000e+02 3.281622241326074345e+02
1.404000000000000057e+02 3.277405977890695112e+02
1.408000000000000114e+02 3.273207137415382704e+02
1.412000000000000171e+02 3.269025597394416991e+02
1.415999999999999943e+02 3.264861236538776552e+02
1.420000000000000000e+02 3.260713934760534016e+02
1.424000000000000057e+02 3.256583573157505498e+02
1.428000000000000114e+02 3.252470033998122290e+02
1.432000000000000171e+02 3.248373200706566877e+02
1.435999999999999943e+02 3.244292957848109040e+02
1.440000000000000000e+02 3.240229191114692071e+02
1.444000000000000057e+02 3.236181787310731011e+02
1.448000000000000114e+02 3.232150634339139401e+02
1.452000000000000171e+02 3.228135621187557263e+02
1.455999999999999943e+02 3.224136637914801895e+02
1.460000000000000000e+02 3.220153575637523318e+02
1.464000000000000057e+02 3.216186326517061502e+02
1.468000000000000114e+02 3.212234783746501989e+02
1.472000000000000171e+02 3.208298841537932731e+02
1.475999999999999943e+02 3.204378395109893063e+02
1.480000000000000000e+02 3.200473340675003442e+02
1.484000000000000057e+02 3.196583575427796973e+02
1.488000000000000114e+02 3.192708997532715784e+02
1.492000000000000171e+02 3.188849506112300105e+02
1.495999999999999943e+02 3.185005001235550708e+02
1.500000000000000000e+02 3.181175383906459047e+02
