1.000000000000000000e+01 3.105338149394776224e+02
1.040000000000000036e+01 4.139363741579860516e+02
1.080000000000000071e+01 4.551841943032652580e+02
1.119999999999999929e+01 4.956608999473691028e+02
1.159999999999999964e+01 5.169659228482838671e+02
1.200000000000000000e+01 5.482145598752406386e+02
1.240000000000000036e+01 5.865349555023722132e+02
1.280000000000000071e+01 5.910123727828949995e+02
1.319999999999999929e+01 5.841810753422589642e+02
1.359999999999999964e+01 5.790336269325792955e+02
1.400000000000000000e+01 5.774336255811889487e+02
1.440000000000000036e+01 5.751515355429760348e+02
1.480000000000000071e+01 5.645128722759709490e+02
1.519999999999999929e+01 5.545209780039051566e+02
1.560000000000000142e+01 5.451096141790976617e+02
1.600000000000000000e+01 5.362219892552916463e+02
1.639999999999999858e+01 5.278090459088787156e+02
1.680000000000000071e+01 5.198281222543951117e+02
1.719999999999999929e+01 5.122418921884542442e+02
1.760000000000000142e+01 5.050175172324306914e+02
1.800000000000000000e+01 4.981259608022767225e+02
1.839999999999999858e+01 4.915414287355075658e+02
1.880000000000000071e+01 4.852409090366594455e+02
1.920000000000000284e+01 4.792037903698450805e+02
1.960000000000000142e+01 4.734115436192529387e+02
2.000000000000000000e+01 4.678474543816423648e+02
2.039999999999999858e+01 4.624963969062238220e+02
2.080000000000000071e+01 4.573446420032008746e+02
2.120000000000000284e+01 4.523796929752514302e+02
2.160000000000000142e+01 4.475901448088235384e+02
2.200000000000000000e+01 4.429655627823386794e+02
2.239999999999999858e+01 4.384963773702489220e+02
2.280000000000000071e+01 4.341737928924040943e+02
2.320000000000000284e+01 4.299897078122713765e+02
2.360000000000000142e+01 4.259366449513530597e+02
2.400000000000000000e+01 4.220076901804345653e+02
2.439999999999999858e+01 4.181964383861140391e+02
2.480000000000000071e+01 4.144969457049698462e+02
2.520000000000000284e+01 4.109036871766504078e+02
2.560000000000000142e+01 4.074115190980729722e+02
2.600000000000000000e+01 4.040156454692408374e+02
2.640000000000000213e+01 4.007115880112288551e+02
2.680000000000000071e+01 3.974951593120434268e+02
2.719999999999999929e+01 3.943624387190562857e+02
2.760000000000000142e+01 3.913097506497036306e+02
2.800000000000000000e+01 3.883336450368933583e+02
2.840000000000000213e+01 3.854308796634841201e+02
2.880000000000000071e+01 3.825984041724419740e+02
2.920000000000000284e+01 3.798333455667827820e+02
2.960000000000000142e+01 3.771329950369383823e+02
3.000000000000000000e+01 3.744947959733829634e+02
3.040000000000000213e+01 3.719163330397292953e+02
3.080000000000000071e+01 3.693953221965113016e+02
3.120000000000000284e+01 3.669296015788387422e+02
3.160000000000000142e+01 3.645171231423747713e+02
3.200000000000000000e+01 3.621559450018723396e+02
3.240000000000000568e+01 3.598442243950435113e+02
3.279999999999999716e+01 3.575802112119868070e+02
3.320000000000000284e+01 3.553622420369292740e+02
3.360000000000000142e+01 3.531887346547679272e+02
3.400000000000000000e+01 3.510581829799306206e+02
3.440000000000000568e+01 3.489691523695145179e+02
3.479999999999999716e+01 3.469202752865792263e+02
3.520000000000000284e+01 3.449102472829343355e+02
3.560000000000000142e+01 3.429378232738318388e+02
3.600000000000000000e+01 3.410018140796988177e+02
3.640000000000000568e+01 3.391010832124669037e+02
3.679999999999999716e+01 3.372345438862148512e+02
3.720000000000000284e+01 3.354011562337621513e+02
3.760000000000000142e+01 3.335999247125745342e+02
3.800000000000000000e+01 3.318298956848772150e+02
3.840000000000000568e+01 3.300901551582531397e+02
3.879999999999999716e+01 3.283798266742398368e+02
3.920000000000000284e+01 3.266980693335501087e+02
3.960000000000000142e+01 3.250440759475433765e+02
4.000000000000000000e+01 3.234170713064752363e+02
4.040000000000000568e+01 3.218163105558675170e+02
4.079999999999999716e+01 3.202410776730750968e+02
4.120000000000000284e+01 3.186906840367910263e+02
4.160000000000000142e+01 3.171644670828350172e+02
4.200000000000000000e+01 3.156617890401134900e+02
4.239999999999999858e+01 3.141820357411373266e+02
4.280000000000000426e+01 3.127246155019348066e+02
4.320000000000000284e+01 3.112889580666019924e+02
4.360000000000000142e+01 3.098745136121131623e+02
4.400000000000000000e+01 3.084807518093477370e+02
4.439999999999999858e+01 3.071071609366049984e+02
4.480000000000000426e+01 3.057532470421589323e+02
4.520000000000000284e+01 3.044185331526664982e+02
4.560000000000000142e+01 3.031025585244797753e+02
4.600000000000000000e+01 3.018048779351283883e+02
4.639999999999999858e+01 3.005250610124409718e+02
4.680000000000000426e+01 2.992626915989553709e+02
4.720000000000000284e+01 2.980173671494353016e+02
4.760000000000000142e+01 2.967886981594676854e+02
4.800000000000000000e+01 2.955763076232557864e+02
4.840000000000000568e+01 2.943798305188531685e+02
4.880000000000000426e+01 2.931989133192088275e+02
4.920000000000000284e+01 2.920332135274984466e+02
4.960000000000000142e+01 2.908823992353262611e+02
5.000000000000000000e+01 2.897461487024720554e+02
5.040000000000000568e+01 2.886241499569493953e+02
5.080000000000000426e+01 2.875161004142195225e+02
5.120000000000000284e+01 2.864217065144821390e+02
5.160000000000000142e+01 2.853406833770337698e+02
5.200000000000000000e+01 2.842727544707503284e+02
5.240000000000000568e+01 2.832176512998066755e+02
5.280000000000000426e+01 2.821751131038066660e+02
5.320000000000000284e+01 2.811448865715454417e+02
5.360000000000000142e+01 2.801267255676741001e+02
5.400000000000000000e+01 2.791203908715845614e+02
5.440000000000000568e+01 2.781256499278696310e+02
5.480000000000000426e+01 2.771422766077559459e+02
5.520000000000000284e+01 2.761700509809417099e+02
5.560000000000000142e+01 2.752087590973040960e+02
5.600000000000000000e+01 2.742581927779763191e+02
5.640000000000000568e+01 2.733181494153184872e+02
5.680000000000000426e+01 2.723884317813382836e+02
5.720000000000000284e+01 2.714688478441407256e+02
5.760000000000000142e+01 2.705592105920109702e+02
5.800000000000000000e+01 2.696593378647567647e+02
5.840000000000000568e+01 2.687690521919576554e+02
5.880000000000000426e+01 2.678881806377880253e+02
5.920000000000000284e+01 2.670165546520994440e+02
5.960000000000000142e+01 2.661540099274649265e+02
6.000000000000000000e+01 2.653003862619049755e+02
6.040000000000000568e+01 2.644555274270276186e+02
6.080000000000000426e+01 2.636192810413332950e+02
6.120000000000000284e+01 2.627914984484444858e+02
6.160000000000000142e+01 2.619720346000361815e+02
6.200000000000000000e+01 2.611607479432518630e+02
6.240000000000000568e+01 2.603575003124042837e+02
6.280000000000000426e+01 2.595621568247678965e+02
6.320000000000000284e+01 2.587745857802809724e+02
6.360000000000000142e+01 2.579946585649854001e+02
6.400000000000000000e+01 2.572222495580387545e+02
6.440000000000000568e+01 2.564572360421444159e+02
6.480000000000001137e+01 2.556994981172510393e+02
6.520000000000000284e+01 2.549489186173802295e+02
6.559999999999999432e+01 2.542053830304502071e+02
6.600000000000000000e+01 2.534687794209671665e+02
6.640000000000000568e+01 2.527389983554640480e+02
6.680000000000001137e+01 2.520159328305715292e+02
6.720000000000000284e+01 2.512994782036114998e+02
6.759999999999999432e+01 2.505895321256095940e+02
6.800000000000000000e+01 2.498859944766263936e+02
6.840000000000000568e+01 2.491887673033136252e+02
6.880000000000001137e+01 2.484977547586041737e+02
6.920000000000000284e+01 2.478128630434516140e+02
6.959999999999999432e+01 2.471340003505349046e+02
7.000000000000000000e+01 2.464610768098523295e+02
7.040000000000000568e+01 2.457940044361284322e+02
7.080000000000001137e+01 2.451326970779635417e+02
7.120000000000000284e+01 2.444770703686577917e+02
7.159999999999999432e+01 2.438270416786439796e+02
7.200000000000000000e+01 2.431825300694680436e+02
7.240000000000000568e+01 2.425434562492575310e+02
7.280000000000001137e+01 2.419097425296210133e+02
7.320000000000000284e+01 2.412813127839248750e+02
7.359999999999999432e+01 2.406580924068948377e+02
7.400000000000000000e+01 2.400400082754931645e+02
7.440000000000000568e+01 2.394269887110242507e+02
7.479999999999999716e+01 2.388189634424224437e+02
7.520000000000000284e+01 2.382158635706789767e+02
7.560000000000000853e+01 2.376176215343666343e+02
7.600000000000000000e+01 2.370241710762215348e+02
7.640000000000000568e+01 2.364354472107444849e+02
7.679999999999999716e+01 2.358513861927849007e+02
7.720000000000000284e+01 2.352719254870721670e+02
7.760000000000000853e+01 2.346970037386606691e+02
7.800000000000000000e+01 2.341265607442563237e+02
7.840000000000000568e+01 2.335605374243940275e+02
7.879999999999999716e+01 2.329988757964351862e+02
7.920000000000000284e+01 2.324415189483574409e+02
7.960000000000000853e+01 2.318884110133100762e+02
8.000000000000000000e+01 2.313394971449064883e+02
8.040000000000000568e+01 2.307947234932311176e+02
8.079999999999999716e+01 2.302540371815343576e+02
8.120000000000000284e+01 2.297173862835935267e+02
8.160000000000000853e+01 2.291847198017169944e+02
8.200000000000000000e+01 2.286559876453695779e+02
8.240000000000000568e+01 2.281311406103990294e+02
8.279999999999999716e+01 2.276101303588436622e+02
8.320000000000000284e+01 2.270929093993014476e+02
8.360000000000000853e+01 2.265794310678426200e+02
8.400000000000000000e+01 2.260696495094481406e+02
8.440000000000000568e+01 2.255635196599558867e+02
8.479999999999999716e+01 2.250609972285002414e+02
8.520000000000000284e+01 2.245620386804268378e+02
8.560000000000000853e+01 2.240666012206687014e+02
8.600000000000000000e+01 2.235746427775692382e+02
8.640000000000000568e+01 2.230861219871366643e+02
8.680000000000001137e+01 2.226009981777175994e+02
8.720000000000000284e+01 2.221192313550759820e+02
8.760000000000000853e+01 2.216407821878646871e+02
8.800000000000000000e+01 2.211656119934780804e+02
8.840000000000000568e+01 2.206936827242727759e+02
8.880000000000001137e+01 2.202249569541470464e+02
8.920000000000000284e+01 2.197593978654653029e+02
8.960000000000000853e+01 2.192969692363200522e+02
9.000000000000000000e+01 2.188376354281185456e+02
9.040000000000000568e+01 2.183813613734860439e+02
9.080000000000001137e+01 2.179281125644752706e+02
9.120000000000000284e+01 2.174778550410736671e+02
9.160000000000000853e+01 2.170305553799981340e+02
9.200000000000000000e+01 2.165861806837709764e+02
9.240000000000000568e+01 2.161446985700666801e+02
9.280000000000001137e+01 2.157060771613224119e+02
9.320000000000000284e+01 2.152702850746050558e+02
9.360000000000000853e+01 2.148372914117264827e+02
9.400000000000000000e+01 2.144070657495999512e+02
9.440000000000000568e+01 2.139795781308312712e+02
9.480000000000001137e+01 2.135547990545378525e+02
9.520000000000000284e+01 2.131326994673881075e+02
9.560000000000000853e+01 2.127132507548568583e+02
9.600000000000000000e+01 2.122964247326886209e+02
9.640000000000000568e+01 2.118821936385640754e+02
9.680000000000001137e+01 2.114705301239642381e+02
9.720000000000000284e+01 2.110614072462258832e+02
9.760000000000000853e+01 2.106547984607831836e+02
9.800000000000000000e+01 2.102506776135913924e+02
9.840000000000000568e+01 2.098490189337256311e+02
9.880000000000001137e+01 2.094497970261521971e+02
9.920000000000000284e+01 2.090529868646656837e+02
9.960000000000000853e+01 2.086585637849889281e+02
1.000000000000000000e+02 2.082665034780302449e+02
1.004000000000000057e+02 2.078767819832946202e+02
1.008000000000000114e+02 2.074893756824436082e+02
1.012000000000000028e+02 2.071042612930018265e+02
1.016000000000000085e+02 2.067214158622034574e+02
1.020000000000000000e+02 2.063408167609776456e+02
1.024000000000000057e+02 2.059624416780677620e+02
1.028000000000000114e+02 2.055862686142808968e+02
1.032000000000000028e+02 2.052122758768648225e+02
1.036000000000000085e+02 2.048404420740087630e+02
1.040000000000000000e+02 2.044707461094648693e+02
1.044000000000000057e+02 2.041031671772868776e+02
1.048000000000000114e+02 2.037376847566838478e+02
1.052000000000000028e+02 2.033742786069845465e+02
1.056000000000000085e+02 2.030129287627113115e+02
1.060000000000000000e+02 2.026536155287596159e+02
1.064000000000000057e+02 2.022963194756804626e+02
1.068000000000000114e+02 2.019410214350638455e+02
1.072000000000000028e+02 2.015877024950203236e+02
1.076000000000000085e+02 2.012363439957575224e+02
1.080000000000000000e+02 2.008869275252509397e+02
1.084000000000000057e+02 2.005394349150045059e+02
1.088000000000000114e+02 2.001938482359009299e+02
1.092000000000000028e+02 1.998501497941373941e+02
1.096000000000000085e+02 1.995083221272467426e+02
1.100000000000000000e+02 1.991683480001997850e+02
1.104000000000000057e+02 1.988302104015886584e+02
1.108000000000000114e+02 1.984938925398884066e+02
1.112000000000000028e+02 1.981593778397944732e+02
1.116000000000000085e+02 1.978266499386355690e+02
1.120000000000000000e+02 1.974956926828583619e+02
1.124000000000000057e+02 1.971664901245841577e+02
1.128000000000000114e+02 1.968390265182340784e+02
1.132000000000000028e+02 1.965132863172226791e+02
1.136000000000000085e+02 1.961892541707168220e+02
1.140000000000000000e+02 1.958669149204601467e+02
1.144000000000000057e+02 1.955462535976593017e+02
1.148000000000000114e+02 1.952272554199328738e+02
1.152000000000000028e+02 1.949099057883194348e+02
1.156000000000000085e+02 1.945941902843451317e+02
1.160000000000000000e+02 1.942800946671480062e+02
1.164000000000000057e+02 1.939676048706585902e+02
1.168000000000000114e+02 1.936567070008350697e+02
1.172000000000000028e+02 1.933473873329523371e+02
1.176000000000000085e+02 1.930396323089426005e+02
1.180000000000000000e+02 1.927334285347877199e+02
1.184000000000000057e+02 1.924287627779609693e+02
1.188000000000000114e+02 1.921256219649180252e+02
1.192000000000000028e+02 1.918239931786351065e+02
1.196000000000000085e+02 1.915238636561940666e+02
1.200000000000000000e+02 1.912252207864129900e+02
1.204000000000000057e+02 1.909280521075214949e+02
1.208000000000000114e+02 1.906323453048790384e+02
1.212000000000000028e+02 1.903380882087365080e+02
1.216000000000000085e+02 1.900452687920391099e+02
1.220000000000000000e+02 1.897538751682698717e+02
1.224000000000000057e+02 1.894638955893334185e+02
1.228000000000000114e+02 1.891753184434782327e+02
1.232000000000000028e+02 1.888881322532575666e+02
1.236000000000000085e+02 1.886023256735270479e+02
1.240000000000000000e+02 1.883178874894792898e+02
1.244000000000000057e+02 1.880348066147141992e+02
1.248000000000000114e+02 1.877530720893437319e+02
1.252000000000000028e+02 1.874726730781314927e+02
1.256000000000000085e+02 1.871935988686652195e+02
1.260000000000000000e+02 1.869158388695625490e+02
1.264000000000000057e+02 1.866393826087083880e+02
1.268000000000000114e+02 1.863642197315240026e+02
1.272000000000000028e+02 1.860903399992667460e+02
1.276000000000000085e+02 1.858177332873597152e+02
1.280000000000000000e+02 1.855463895837510222e+02
1.284000000000000057e+02 1.852762989873019137e+02
1.288000000000000114e+02 1.850074517062029713e+02
1.291999999999999886e+02 1.847398380564183640e+02
1.296000000000000227e+02 1.844734484601564191e+02
1.300000000000000000e+02 1.842082734443677055e+02
1.304000000000000057e+02 1.839443036392682131e+02
1.308000000000000114e+02 1.836815297768886808e+02
1.311999999999999886e+02 1.834199426896483089e+02
1.316000000000000227e+02 1.831595333089532858e+02
1.320000000000000000e+02 1.829002926638190729e+02
1.324000000000000057e+02 1.826422118795162532e+02
1.328000000000000114e+02 1.823852821762391159e+02
1.331999999999999886e+02 1.821294948677970922e+02
1.336000000000000227e+02 1.818748413603280483e+02
1.340000000000000000e+02 1.816213131510332346e+02
1.344000000000000057e+02 1.813689018269335520e+02
1.348000000000000114e+02 1.811175990636463951e+02
1.351999999999999886e+02 1.808673966241829589e+02
1.356000000000000227e+02 1.806182863577657258e+02
1.360000000000000000e+02 1.803702601986651644e+02
1.364000000000000057e+02 1.801233101650558979e+02
1.368000000000000114e+02 1.798774283578914606e+02
1.371999999999999886e+02 1.796326069597977835e+02
1.376000000000000227e+02 1.793888382339846999e+02
1.380000000000000000e+02 1.791461145231748731e+02
1.384000000000000057e+02 1.789044282485505448e+02
1.388000000000000114e+02 1.786637719087172798e+02
1.392000000000000171e+02 1.784241380786843081e+02
1.395999999999999943e+02 1.781855194088612961e+02
1.400000000000000000e+02 1.779479086240713173e+02
1.404000000000000057e+02 1.777112985225796820e+02
1.408000000000000114e+02 1.774756819751382295e+02
1.412000000000000171e+02 1.772410519240445410e+02
1.415999999999999943e+02 1.770074013822167558e+02
1.420000000000000000e+02 1.767747234322822010e+02
1.424000000000000057e+02 1.765430112256811412e+02
1.428000000000000114e+02 1.763122579817841142e+02
1.432000000000000171e+02 1.760824569870235052e+02
1.435999999999999943e+02 1.758536015940382526e+02
1.440000000000000000e+02 1.756256852208323380e+02
1.444000000000000057e+02 1.753987013499461511e+02
1.448000000000000114e+02 1.751726435276406733e+02
1.452000000000000171e+02 1.749475053630944217e+02
1.455999999999999943e+02 1.747232805276125589e+02
1.460000000000000000e+02 1.744999627538485072e+02
1.464000000000000057e+02 1.742775458350369888e+02
1.468000000000000114e+02 1.740560236242393444e+02
1.472000000000000171e+02 1.738353900336000493e+02
1.475999999999999943e+02 1.736156390336144000e+02
1.480000000000000000e+02 1.733967646524077111e+02
1.484000000000000057e+02 1.731787609750250851e+02
1.488000000000000114e+02 1.729616221427319829e+02
1.492000000000000171e+02 1.727453423523253377e+02
1.495999999999999943e+02 1.725299158554549308e+02
1.500000000000000000e+02 1.723153369579549690e+02
