1.000000000000000000e+01 1.514642869658546829e+02
1.040000000000000036e+01 1.486154860869369827e+02
1.080000000000000071e+01 1.471973743728099748e+02
1.119999999999999929e+01 1.670707102587867894e+02
1.159999999999999964e+01 1.691339744042751079e+02
1.200000000000000000e+01 1.638813132796982188e+02
1.240000000000000036e+01 1.533498700065841263e+02
1.280000000000000071e+01 1.492341755318510366e+02
1.319999999999999929e+01 1.454428845377101993e+02
1.359999999999999964e+01 1.419334971740096876e+02
1.400000000000000000e+01 1.386978671996195374e+02
1.440000000000000036e+01 1.358208267177867583e+02
1.480000000000000071e+01 1.330512008237202792e+02
1.519999999999999929e+01 1.304634799169765529e+02
1.560000000000000142e+01 1.285352272755260401e+02
1.600000000000000000e+01 1.268152543251920861e+02
1.639999999999999858e+01 1.251990518071190337e+02
1.680000000000000071e+01 1.236761229620818767e+02
1.719999999999999929e+01 1.222374380621790237e+02
1.760000000000000142e+01 1.208751759454310246e+02
1.800000000000000000e+01 1.215007673474486580e+02
1.839999999999999858e+01 1.203022132536284232e+02
1.880000000000000071e+01 1.159112335544283354e+02
1.920000000000000284e+01 1.087050182613599247e+02
1.960000000000000142e+01 1.032157631638805526e+02
2.000000000000000000e+01 1.017852186551291140e+02
2.039999999999999858e+01 1.004143702272686767e+02
2.080000000000000071e+01 9.909905571093739240e+01
2.120000000000000284e+01 9.783551446620883496e+01
2.160000000000000142e+01 9.663823400042315370e+01
2.200000000000000000e+01 9.549297166251450619e+01
2.239999999999999858e+01 9.438831618972528759e+01
2.280000000000000071e+01 9.332186181909304423e+01
2.320000000000000284e+01 9.226962924885390294e+01
2.360000000000000142e+01 9.116268334669653939e+01
2.400000000000000000e+01 9.009025180611401140e+01
2.439999999999999858e+01 8.905053715187733587e+01
2.480000000000000071e+01 8.800526227058890072e+01
2.520000000000000284e+01 8.698636410608654046e+01
2.560000000000000142e+01 8.566479172965264866e+01
2.600000000000000000e+01 8.471316643549238279e+01
2.640000000000000213e+01 8.378813571573860486e+01
2.680000000000000071e+01 8.288846782381304479e+01
2.719999999999999929e+01 8.201301044847829758e+01
2.760000000000000142e+01 8.116068417619504771e+01
2.800000000000000000e+01 8.033047660517540578e+01
2.840000000000000213e+01 7.952143703512716399e+01
2.880000000000000071e+01 7.873267166680207652e+01
2.920000000000000284e+01 7.796333925407141408e+01
2.960000000000000142e+01 7.721264715859997807e+01
3.000000000000000000e+01 7.647257144593429246e+01
3.040000000000000213e+01 7.613049152474160053e+01
3.080000000000000071e+01 7.544743994894474781e+01
3.120000000000000284e+01 7.477987197703373567e+01
3.160000000000000142e+01 7.412720466346588921e+01
3.200000000000000000e+01 7.566239844189735209e+01
3.240000000000000568e+01 7.510160503363482576e+01
3.279999999999999716e+01 7.455245198794833072e+01
3.320000000000000284e+01 7.401453103846739623e+01
3.360000000000000142e+01 7.348745411068233579e+01
3.400000000000000000e+01 7.297085203661691821e+01
3.440000000000000568e+01 7.246437336916935124e+01
3.479999999999999716e+01 7.196768328704301609e+01
3.520000000000000284e+01 7.121526663398721269e+01
3.560000000000000142e+01 7.076797111560628650e+01
3.600000000000000000e+01 7.032872107694055330e+01
3.640000000000000568e+01 6.989254177155991954e+01
3.679999999999999716e+01 6.946317067526182143e+01
3.720000000000000284e+01 6.904113257845494900e+01
3.760000000000000142e+01 6.862621672174699938e+01
3.800000000000000000e+01 6.821822085965010274e+01
3.840000000000000568e+01 6.781695081839264105e+01
3.879999999999999716e+01 6.742222008170506342e+01
3.920000000000000284e+01 6.703384940250137447e+01
3.960000000000000142e+01 6.665166643855373252e+01
4.000000000000000000e+01 6.627550541041780718e+01
4.040000000000000568e+01 6.590408546315883598e+01
4.079999999999999716e+01 6.553759414665195493e+01
4.120000000000000284e+01 6.518528358022838631e+01
4.160000000000000142e+01 6.483850857281025526e+01
4.200000000000000000e+01 6.449712138243759796e+01
4.239999999999999858e+01 6.416097979093483161e+01
4.280000000000000426e+01 6.382994683973996075e+01
4.320000000000000284e+01 6.371959503650271017e+01
4.360000000000000142e+01 6.339590334332125110e+01
4.400000000000000000e+01 6.307710153368542905e+01
4.439999999999999858e+01 6.276306489483294371e+01
4.480000000000000426e+01 6.245367315312137890e+01
4.520000000000000284e+01 6.214277922262712650e+01
4.560000000000000142e+01 6.183371599695743726e+01
4.600000000000000000e+01 6.152916508860988642e+01
4.639999999999999858e+01 6.122901526734189304e+01
4.680000000000000426e+01 6.096327625009426043e+01
4.720000000000000284e+01 6.067473380971982522e+01
4.760000000000000142e+01 6.039022725973953243e+01
4.800000000000000000e+01 6.010966136011450800e+01
4.840000000000000568e+01 5.956058791211166437e+01
4.880000000000000426e+01 5.928189814371398825e+01
4.920000000000000284e+01 5.900704225282470361e+01
4.960000000000000142e+01 5.873593180635583622e+01
5.000000000000000000e+01 5.846848120681809746e+01
5.040000000000000568e+01 5.820537147683003809e+01
5.080000000000000426e+01 5.795033903031599465e+01
5.120000000000000284e+01 5.769861964999874004e+01
5.160000000000000142e+01 5.745014087670814718e+01
5.200000000000000000e+01 5.720483246346753248e+01
5.240000000000000568e+01 5.696262628926456273e+01
5.280000000000000426e+01 5.672345627689690417e+01
5.320000000000000284e+01 5.648674272616425185e+01
5.360000000000000142e+01 5.625252617937860578e+01
5.400000000000000000e+01 5.602116190184220557e+01
5.440000000000000568e+01 5.579259129711664400e+01
5.480000000000000426e+01 5.556675745107327202e+01
5.520000000000000284e+01 5.534360507018612907e+01
5.560000000000000142e+01 5.512275526191338315e+01
5.600000000000000000e+01 5.489967118354076092e+01
5.640000000000000568e+01 5.467908018031027950e+01
5.680000000000000426e+01 5.446093568175118804e+01
5.720000000000000284e+01 5.424519233877331459e+01
5.760000000000000142e+01 5.403180598239578103e+01
5.800000000000000000e+01 5.382073358418104903e+01
5.840000000000000568e+01 5.379692319440096071e+01
5.880000000000000426e+01 5.344484629902639483e+01
5.920000000000000284e+01 5.324536634341441754e+01
5.960000000000000142e+01 5.304795123320290884e+01
6.000000000000000000e+01 5.285256509774585254e+01
6.040000000000000568e+01 5.267511771026621403e+01
6.080000000000000426e+01 5.248459459998880305e+01
6.120000000000000284e+01 5.229599609316657904e+01
6.160000000000000142e+01 5.210928958204464578e+01
6.200000000000000000e+01 5.192444323525590733e+01
6.240000000000000568e+01 5.174142597398194710e+01
6.280000000000000426e+01 5.156020744901011454e+01
6.320000000000000284e+01 5.138075801864660264e+01
6.360000000000000142e+01 5.120304872744820557e+01
6.400000000000000000e+01 5.102705128573657589e+01
6.440000000000000568e+01 5.085273804986100288e+01
6.480000000000001137e+01 5.068008200317761691e+01
6.520000000000000284e+01 5.050905673771390525e+01
6.559999999999999432e+01 5.033963643648965558e+01
6.600000000000000000e+01 5.017179585646648121e+01
6.640000000000000568e+01 5.000551031209944597e+01
6.680000000000001137e+01 4.993923500257001535e+01
6.720000000000000284e+01 4.978244198883912475e+01
6.759999999999999432e+01 4.962636621959889993e+01
6.800000000000000000e+01 4.947166113044362135e+01
6.840000000000000568e+01 4.931834321361713336e+01
6.880000000000001137e+01 4.916639152278067826e+01
6.920000000000000284e+01 4.901578555628861267e+01
6.959999999999999432e+01 4.886650524502567094e+01
7.000000000000000000e+01 4.871853094065092193e+01
7.040000000000000568e+01 4.857184340423233238e+01
7.080000000000001137e+01 4.842642379525655372e+01
7.120000000000000284e+01 4.828225366099950122e+01
7.159999999999999432e+01 4.813914584200130520e+01
7.200000000000000000e+01 4.799675522228842794e+01
7.240000000000000568e+01 4.785556702108722504e+01
7.280000000000001137e+01 4.771556415541753182e+01
7.320000000000000284e+01 4.757672988335442454e+01
7.359999999999999432e+01 4.743904779525767879e+01
7.400000000000000000e+01 4.730250180527704629e+01
7.440000000000000568e+01 4.716707614312308294e+01
7.479999999999999716e+01 4.703275534609338138e+01
7.520000000000000284e+01 4.689952425134548264e+01
7.560000000000000853e+01 4.676736798840671128e+01
7.600000000000000000e+01 4.663119775810105239e+01
7.640000000000000568e+01 4.655655141587457990e+01
7.679999999999999716e+01 4.642887710059687123e+01
7.720000000000000284e+01 4.630220305047706120e+01
7.760000000000000853e+01 4.617556423095025053e+01
7.800000000000000000e+01 4.604966217712154730e+01
7.840000000000000568e+01 4.592476037654717658e+01
7.879999999999999716e+01 4.580084531199737796e+01
7.920000000000000284e+01 4.567790372318607695e+01
7.960000000000000853e+01 4.555592260050298847e+01
8.000000000000000000e+01 4.543488917893157009e+01
8.040000000000000568e+01 4.531479093214675657e+01
8.079999999999999716e+01 4.519561556678583258e+01
8.120000000000000284e+01 4.507735101688670198e+01
8.160000000000000853e+01 4.495998543848784124e+01
8.200000000000000000e+01 4.484350720438416005e+01
8.240000000000000568e+01 4.472790489903373157e+01
8.279999999999999716e+01 4.461316731361028332e+01
8.320000000000000284e+01 4.449928344119622636e+01
8.360000000000000853e+01 4.438624247211198792e+01
8.400000000000000000e+01 4.427386484193468164e+01
8.440000000000000568e+01 4.416217635207630821e+01
8.479999999999999716e+01 4.405130125012053810e+01
8.520000000000000284e+01 4.394122945294155613e+01
8.560000000000000853e+01 4.383202643838302492e+01
8.600000000000000000e+01 4.372390436282633175e+01
8.640000000000000568e+01 4.361655008668000022e+01
8.680000000000001137e+01 4.350995432220256731e+01
8.720000000000000284e+01 4.340410794010089290e+01
8.760000000000000853e+01 4.330470581259952212e+01
8.800000000000000000e+01 4.320243184003940939e+01
8.840000000000000568e+01 4.310086128886071322e+01
8.880000000000001137e+01 4.299998593167330085e+01
8.920000000000000284e+01 4.289979767648557640e+01
8.960000000000000853e+01 4.280028856384135594e+01
9.000000000000000000e+01 4.270145076403074569e+01
9.040000000000000568e+01 4.260327657437241555e+01
9.080000000000001137e+01 4.250575841656532816e+01
9.120000000000000284e+01 4.240888883410772792e+01
9.160000000000000853e+01 4.231266048978145022e+01
9.200000000000000000e+01 4.221706616319956851e+01
9.240000000000000568e+01 4.212209874841548896e+01
9.280000000000001137e+01 4.202867940250291667e+01
9.320000000000000284e+01 4.193547654996830687e+01
9.360000000000000853e+01 4.184287646084407442e+01
9.400000000000000000e+01 4.175087250363620939e+01
9.440000000000000568e+01 4.165945814958681126e+01
9.480000000000001137e+01 4.156862697062778977e+01
9.520000000000000284e+01 4.147837263738425406e+01
9.560000000000000853e+01 4.138868891722616894e+01
9.600000000000000000e+01 4.128757693539463958e+01
9.640000000000000568e+01 4.119893995652002872e+01
9.680000000000001137e+01 4.111085887817135642e+01
9.720000000000000284e+01 4.102332777542391540e+01
9.760000000000000853e+01 4.093634081215963505e+01
9.800000000000000000e+01 4.084935327022900253e+01
9.840000000000000568e+01 4.076281804093849104e+01
9.880000000000001137e+01 4.067680505042041972e+01
9.920000000000000284e+01 4.059130898862194670e+01
9.960000000000000853e+01 4.050632462132757894e+01
1.000000000000000000e+02 4.042184678876334658e+01
1.004000000000000057e+02 4.033787040423256087e+01
1.008000000000000114e+02 4.025439045278214678e+01
1.012000000000000028e+02 4.017140198989875444e+01
1.016000000000000085e+02 4.008890014023389625e+01
1.020000000000000000e+02 4.000675670885452462e+01
1.024000000000000057e+02 3.992499031074140703e+01
1.028000000000000114e+02 3.984369787106082583e+01
1.032000000000000028e+02 3.976287476108675634e+01
1.036000000000000085e+02 3.968246296644107218e+01
1.040000000000000000e+02 3.960204856852352862e+01
1.044000000000000057e+02 3.952209442349499824e+01
1.048000000000000114e+02 3.944259609521598975e+01
1.052000000000000028e+02 3.936354920756625830e+01
1.056000000000000085e+02 3.928494944339920636e+01
1.060000000000000000e+02 3.920679254351827581e+01
1.064000000000000057e+02 3.912897041177365054e+01
1.068000000000000114e+02 3.905153474454159834e+01
1.072000000000000028e+02 3.897452992797214222e+01
1.076000000000000085e+02 3.889795192154044656e+01
1.080000000000000000e+02 3.882179673794421149e+01
1.084000000000000057e+02 3.874606044220025325e+01
1.088000000000000114e+02 3.867073915075992119e+01
1.092000000000000028e+02 3.859582903064278980e+01
1.096000000000000085e+02 3.852132629858814994e+01
1.100000000000000000e+02 3.844722722022404326e+01
1.104000000000000057e+02 3.837352810925321478e+01
1.108000000000000114e+02 3.830022532665568491e+01
1.112000000000000028e+02 3.823618803285818046e+01
1.116000000000000085e+02 3.816490357381012188e+01
1.120000000000000000e+02 3.809272900429157005e+01
1.124000000000000057e+02 3.802267628016947754e+01
1.128000000000000114e+02 3.795299249699613142e+01
1.132000000000000028e+02 3.788367436518663567e+01
1.136000000000000085e+02 3.781471863648260978e+01
1.140000000000000000e+02 3.774612210328196227e+01
1.144000000000000057e+02 3.767788159798195835e+01
1.148000000000000114e+02 3.760999399233528351e+01
1.152000000000000028e+02 3.754245619681881863e+01
1.156000000000000085e+02 3.747526516001482833e+01
1.160000000000000000e+02 3.740841786800431379e+01
1.164000000000000057e+02 3.734191134377199717e+01
1.168000000000000114e+02 3.727574264662318626e+01
1.172000000000000028e+02 3.720990887161170235e+01
1.176000000000000085e+02 3.713275678466565921e+01
1.180000000000000000e+02 3.706833831399178081e+01
1.184000000000000057e+02 3.700424246939684991e+01
1.188000000000000114e+02 3.694046651760395861e+01
1.192000000000000028e+02 3.687700775796457009e+01
1.196000000000000085e+02 3.681386352195562495e+01
1.200000000000000000e+02 3.675103117268604791e+01
1.204000000000000057e+02 3.668850810441258403e+01
1.208000000000000114e+02 3.662629174206477956e+01
1.212000000000000028e+02 3.656437954077873087e+01
1.216000000000000085e+02 3.650274514901796863e+01
1.220000000000000000e+02 3.644117597956718413e+01
1.224000000000000057e+02 3.637990468996089533e+01
1.228000000000000114e+02 3.633270364550987352e+01
1.232000000000000028e+02 3.627254411424175373e+01
1.236000000000000085e+02 3.621267151942534213e+01
1.240000000000000000e+02 3.615308354333586749e+01
1.244000000000000057e+02 3.609365950957558766e+01
1.248000000000000114e+02 3.603430747465105810e+01
1.252000000000000028e+02 3.597523793026926597e+01
1.256000000000000085e+02 3.591644858817706876e+01
1.260000000000000000e+02 3.585793718629508930e+01
1.264000000000000057e+02 3.579970148833182009e+01
1.268000000000000114e+02 3.574173928340475470e+01
1.272000000000000028e+02 3.568404838566818427e+01
1.276000000000000085e+02 3.562662663394780083e+01
1.280000000000000000e+02 3.556947189138173826e+01
1.284000000000000057e+02 3.551258204506799387e+01
1.288000000000000114e+02 3.545584935662022019e+01
1.291999999999999886e+02 3.539895525426575063e+01
1.296000000000000227e+02 3.534232251275063419e+01
1.300000000000000000e+02 3.528594908843547984e+01
1.304000000000000057e+02 3.522983296023247135e+01
1.308000000000000114e+02 3.517397212928469230e+01
1.311999999999999886e+02 3.511836461865122772e+01
1.316000000000000227e+02 3.506300847299753798e+01
1.320000000000000000e+02 3.500790175829133943e+01
1.324000000000000057e+02 3.495722730587801408e+01
1.328000000000000114e+02 3.490294039293161177e+01
1.331999999999999886e+02 3.484889570712819307e+01
1.336000000000000227e+02 3.479509140971278214e+01
1.340000000000000000e+02 3.474152568163271582e+01
1.344000000000000057e+02 3.468819672326560521e+01
1.348000000000000114e+02 3.463510275415195139e+01
1.351999999999999886e+02 3.458224201273213083e+01
1.356000000000000227e+02 3.452961275608794267e+01
1.360000000000000000e+02 3.447721325968837647e+01
1.364000000000000057e+02 3.442504181713954381e+01
1.368000000000000114e+02 3.437310895722180248e+01
1.371999999999999886e+02 3.432186834505968420e+01
1.376000000000000227e+02 3.427084795269315265e+01
1.380000000000000000e+02 3.422004617274867400e+01
1.384000000000000057e+02 3.416946141438528173e+01
1.388000000000000114e+02 3.411909210307572948e+01
1.392000000000000171e+02 3.406893668039112555e+01
1.395999999999999943e+02 3.401899360378907033e+01
1.400000000000000000e+02 3.396926134640516892e+01
1.404000000000000057e+02 3.391973839684794001e+01
1.408000000000000114e+02 3.387042325899697914e+01
1.412000000000000171e+02 3.383353671866495205e+01
1.415999999999999943e+02 3.378510918050984912e+01
1.420000000000000000e+02 3.373683741978742034e+01
1.424000000000000057e+02 3.368876633925900421e+01
1.428000000000000114e+02 3.364089452421210780e+01
1.432000000000000171e+02 3.359319417282957687e+01
1.435999999999999943e+02 3.354563330935688015e+01
1.440000000000000000e+02 3.349826800685726624e+01
1.444000000000000057e+02 3.345109690175257811e+01
1.448000000000000114e+02 3.340411864386616969e+01
1.452000000000000171e+02 3.335733189625327100e+01
1.455999999999999943e+02 3.331073533503399631e+01
1.460000000000000000e+02 3.326432764922893881e+01
1.464000000000000057e+02 3.321810754059719528e+01
1.468000000000000114e+02 3.317207372347708372e+01
1.472000000000000171e+02 3.312622492462904233e+01
1.475999999999999943e+02 3.308055988308110784e+01
1.480000000000000000e+02 3.303507734997663192e+01
1.484000000000000057e+02 3.298977608842439935e+01
1.488000000000000114e+02 3.294465487335093457e+01
1.492000000000000171e+02 3.289971249135505360e+01
1.495999999999999943e+02 3.285472044441231532e+01
1.500000000000000000e+02 3.280986679378911219e+01
