1.000000000000000000e+01 1.843037264164892122e+02
1.040000000000000036e+01 1.791360154817860746e+02
1.080000000000000071e+01 1.755465451395352545e+02
1.119999999999999929e+01 1.734080411212318324e+02
1.159999999999999964e+01 1.732854108370360677e+02
1.200000000000000000e+01 1.678808958405532508e+02
1.240000000000000036e+01 1.630107873484454899e+02
1.280000000000000071e+01 1.585865743412891220e+02
1.319999999999999929e+01 1.545400986005929553e+02
1.359999999999999964e+01 1.508176456788988276e+02
1.400000000000000000e+01 1.473760783694585825e+02
1.440000000000000036e+01 1.441802050605276122e+02
1.480000000000000071e+01 1.413722814285055165e+02
1.519999999999999929e+01 1.388011781718867610e+02
1.560000000000000142e+01 1.368859394460297096e+02
1.600000000000000000e+01 1.351762076001541004e+02
1.639999999999999858e+01 1.335680902543030584e+02
1.680000000000000071e+01 1.320515525210431917e+02
1.719999999999999929e+01 1.306179130443856593e+02
1.760000000000000142e+01 1.292596151138472464e+02
1.800000000000000000e+01 1.279700439331822963e+02
1.839999999999999858e+01 1.267433793100908872e+02
1.880000000000000071e+01 1.190788162942454989e+02
1.920000000000000284e+01 1.117056282674397210e+02
1.960000000000000142e+01 1.101275682195884258e+02
2.000000000000000000e+01 1.086210404114827099e+02
2.039999999999999858e+01 1.071807199749781319e+02
2.080000000000000071e+01 1.058018245592745643e+02
2.120000000000000284e+01 1.044800448143282949e+02
2.160000000000000142e+01 1.032114855331266909e+02
2.200000000000000000e+01 1.019926155609929737e+02
2.239999999999999858e+01 1.008202249596532454e+02
2.280000000000000071e+01 9.969138820880583296e+01
2.320000000000000284e+01 9.858166162632710439e+01
2.360000000000000142e+01 9.742169408196903646e+01
2.400000000000000000e+01 9.630033968217676943e+01
2.439999999999999858e+01 9.521546465735903553e+01
2.480000000000000071e+01 9.416509901307372843e+01
2.520000000000000284e+01 9.314742054288382178e+01
2.560000000000000142e+01 8.843452421005454767e+01
2.600000000000000000e+01 8.744015711922756395e+01
2.640000000000000213e+01 8.647410146801027508e+01
2.680000000000000071e+01 8.553503047160737083e+01
2.719999999999999929e+01 8.462170365370505465e+01
2.760000000000000142e+01 8.373295969879315237e+01
2.800000000000000000e+01 8.286771001990398133e+01
2.840000000000000213e+01 8.202493295815827423e+01
2.880000000000000071e+01 8.120366854164184645e+01
2.920000000000000284e+01 8.040301374061120043e+01
2.960000000000000142e+01 7.962211816411529242e+01
3.000000000000000000e+01 7.886018015004648873e+01
3.040000000000000213e+01 7.811644320658302831e+01
3.080000000000000071e+01 7.739019276810742554e+01
3.120000000000000284e+01 7.668075323310905844e+01
3.160000000000000142e+01 7.598748525540959520e+01
3.200000000000000000e+01 7.748329597536269375e+01
3.240000000000000568e+01 7.688428671844719986e+01
3.279999999999999716e+01 7.629803734243760971e+01
3.320000000000000284e+01 7.572409441584765943e+01
3.360000000000000142e+01 7.516202706129797662e+01
3.400000000000000000e+01 7.461142551864320183e+01
3.440000000000000568e+01 7.407189981924670974e+01
3.479999999999999716e+01 7.354307856132628274e+01
3.520000000000000284e+01 7.236267935681870256e+01
3.560000000000000142e+01 7.189158507259061537e+01
3.600000000000000000e+01 7.142925253764298077e+01
3.640000000000000568e+01 7.097267038708930897e+01
3.679999999999999716e+01 7.051799601582025900e+01
3.720000000000000284e+01 7.007147331324102879e+01
3.760000000000000142e+01 6.963285900667419526e+01
3.800000000000000000e+01 6.920191997299491504e+01
3.840000000000000568e+01 6.877843269627186373e+01
3.879999999999999716e+01 6.836218276062135146e+01
3.920000000000000284e+01 6.795296437559264291e+01
3.960000000000000142e+01 6.755057993163653407e+01
4.000000000000000000e+01 6.715483958341908988e+01
4.040000000000000568e+01 6.676556085893393799e+01
4.079999999999999716e+01 6.638400917001797552e+01
4.120000000000000284e+01 6.601709685070152034e+01
4.160000000000000142e+01 6.565616282805953574e+01
4.200000000000000000e+01 6.530104416550042856e+01
4.239999999999999858e+01 6.495158410156366813e+01
4.280000000000000426e+01 6.460763175207087272e+01
4.320000000000000284e+01 6.426904182964473478e+01
4.360000000000000142e+01 6.393567437941180032e+01
4.400000000000000000e+01 6.360739452979756692e+01
4.439999999999999858e+01 6.328407225740600950e+01
4.480000000000000426e+01 6.296558216505281536e+01
4.520000000000000284e+01 6.263974117251787277e+01
4.560000000000000142e+01 6.231332228303038789e+01
4.600000000000000000e+01 6.199179223485080570e+01
4.639999999999999858e+01 6.167502854151254610e+01
4.680000000000000426e+01 6.136291299240807717e+01
4.720000000000000284e+01 6.105533146246328613e+01
4.760000000000000142e+01 6.075217373206999838e+01
4.800000000000000000e+01 6.045333331663003662e+01
4.840000000000000568e+01 5.988635120621692920e+01
4.880000000000000426e+01 5.959010823023599102e+01
4.920000000000000284e+01 5.929804458105946452e+01
4.960000000000000142e+01 5.901006219464991887e+01
5.000000000000000000e+01 5.872606619971666220e+01
5.040000000000000568e+01 5.844596478549726726e+01
5.080000000000000426e+01 5.816966907616060212e+01
5.120000000000000284e+01 5.789709301144345233e+01
5.160000000000000142e+01 5.762815323315860638e+01
5.200000000000000000e+01 5.739626854268102818e+01
5.240000000000000568e+01 5.714756620247466401e+01
5.280000000000000426e+01 5.690203460968763238e+01
5.320000000000000284e+01 5.665960608679255728e+01
5.360000000000000142e+01 5.642021496696597893e+01
5.400000000000000000e+01 5.618379751794888932e+01
5.440000000000000568e+01 5.595029186939954968e+01
5.480000000000000426e+01 5.571963794355074384e+01
5.520000000000000284e+01 5.549177738899566492e+01
5.560000000000000142e+01 5.526632835677997946e+01
5.600000000000000000e+01 5.503875114516154099e+01
5.640000000000000568e+01 5.481377033384967490e+01
5.680000000000000426e+01 5.459133667663002853e+01
5.720000000000000284e+01 5.437140223492556146e+01
5.760000000000000142e+01 5.415392033315679043e+01
5.800000000000000000e+01 5.393884551596278243e+01
5.840000000000000568e+01 5.409611345941107174e+01
5.880000000000000426e+01 5.389626795091145794e+01
5.920000000000000284e+01 5.369852543844974946e+01
5.960000000000000142e+01 5.350284911374127716e+01
6.000000000000000000e+01 5.330920306875086823e+01
6.040000000000000568e+01 5.311755226742925373e+01
6.080000000000000426e+01 5.292786251853191004e+01
6.120000000000000284e+01 5.274010044947117137e+01
6.160000000000000142e+01 5.255423348115566284e+01
6.200000000000000000e+01 5.237022980377282266e+01
6.240000000000000568e+01 5.218805835347311728e+01
6.280000000000000426e+01 5.200768878991615907e+01
6.320000000000000284e+01 5.182909147464112465e+01
6.360000000000000142e+01 5.165223745022618118e+01
6.400000000000000000e+01 5.147709842020243798e+01
6.440000000000000568e+01 5.130364672969081852e+01
6.480000000000001137e+01 5.113185534673061738e+01
6.520000000000000284e+01 5.096169784427097937e+01
6.559999999999999432e+01 5.079314838279748301e+01
6.600000000000000000e+01 5.062618169356733233e+01
6.640000000000000568e+01 5.046077306242813876e+01
6.680000000000001137e+01 5.039537765730052143e+01
6.720000000000000284e+01 5.023975354372855406e+01
6.759999999999999432e+01 5.008251471199729821e+01
6.800000000000000000e+01 4.992671265918536960e+01
6.840000000000000568e+01 4.977232536999949275e+01
6.880000000000001137e+01 4.961933130297660455e+01
6.920000000000000284e+01 4.946770937735281848e+01
6.959999999999999432e+01 4.931743896037709618e+01
7.000000000000000000e+01 4.916849985505169229e+01
7.040000000000000568e+01 4.902087228828264642e+01
7.080000000000001137e+01 4.887453689942384472e+01
7.120000000000000284e+01 4.872947472919958756e+01
7.159999999999999432e+01 4.858532904050621681e+01
7.200000000000000000e+01 4.844142682839072478e+01
7.240000000000000568e+01 4.829875541270725137e+01
7.280000000000001137e+01 4.815729717224004247e+01
7.320000000000000284e+01 4.801703483987984100e+01
7.359999999999999432e+01 4.787795149346422363e+01
7.400000000000000000e+01 4.774003054690717107e+01
7.440000000000000568e+01 4.760325574160761875e+01
7.479999999999999716e+01 4.746761113812608102e+01
7.520000000000000284e+01 4.733308110811995562e+01
7.560000000000000853e+01 4.719965032652764592e+01
7.600000000000000000e+01 4.706730376399281113e+01
7.640000000000000568e+01 4.693602667951962815e+01
7.679999999999999716e+01 4.680580461335116382e+01
7.720000000000000284e+01 4.667662338006248035e+01
7.760000000000000853e+01 4.654751724115284617e+01
7.800000000000000000e+01 4.641918704317190958e+01
7.840000000000000568e+01 4.629189560009200477e+01
7.879999999999999716e+01 4.616562873567517755e+01
7.920000000000000284e+01 4.604037254481920627e+01
7.960000000000000853e+01 4.591611338691802047e+01
8.000000000000000000e+01 4.579283787941948702e+01
8.040000000000000568e+01 4.567053289157393436e+01
8.079999999999999716e+01 4.554918553836659356e+01
8.120000000000000284e+01 4.542878317462768223e+01
8.160000000000000853e+01 4.530931338931414132e+01
8.200000000000000000e+01 4.519076399995685733e+01
8.240000000000000568e+01 4.507312304726809771e+01
8.279999999999999716e+01 4.495637878990337555e+01
8.320000000000000284e+01 4.484051969937290494e+01
8.360000000000000853e+01 4.472553445509733194e+01
8.400000000000000000e+01 4.461141193960311568e+01
8.440000000000000568e+01 4.449814123385283438e+01
8.479999999999999716e+01 4.438571161270608201e+01
8.520000000000000284e+01 4.427411254050642953e+01
8.560000000000000853e+01 4.416333366679070593e+01
8.600000000000000000e+01 4.405336482211620819e+01
8.640000000000000568e+01 4.394419601400231556e+01
8.680000000000001137e+01 4.383581742298281370e+01
8.720000000000000284e+01 4.372821939876508424e+01
8.760000000000000853e+01 4.362484652349324676e+01
8.800000000000000000e+01 4.368091541255552812e+01
8.840000000000000568e+01 4.358108606606784008e+01
8.880000000000001137e+01 4.348194716357632217e+01
8.920000000000000284e+01 4.338349062468809336e+01
8.960000000000000853e+01 4.328570850175219675e+01
9.000000000000000000e+01 4.318859297706313782e+01
9.040000000000000568e+01 4.309213636013624438e+01
9.080000000000001137e+01 4.299633108505246781e+01
9.120000000000000284e+01 4.290116970787069306e+01
9.160000000000000853e+01 4.280664490410542555e+01
9.200000000000000000e+01 4.271274946626806468e+01
9.240000000000000568e+01 4.261947630146960364e+01
9.280000000000001137e+01 4.252681842908329912e+01
9.320000000000000284e+01 4.243476897846526441e+01
9.360000000000000853e+01 4.234332118673145828e+01
9.400000000000000000e+01 4.225246839658930753e+01
9.440000000000000568e+01 4.216220405422252071e+01
9.480000000000001137e+01 4.207252170722743756e+01
9.520000000000000284e+01 4.198341500259949299e+01
9.560000000000000853e+01 4.189487768476835328e+01
9.600000000000000000e+01 4.180690359368038855e+01
9.640000000000000568e+01 4.171948666292692565e+01
9.680000000000001137e+01 4.163262091791746400e+01
9.720000000000000284e+01 4.154630047409595761e+01
9.760000000000000853e+01 4.146051953519943112e+01
9.800000000000000000e+01 4.137473342242849128e+01
9.840000000000000568e+01 4.128939506594315390e+01
9.880000000000001137e+01 4.120457443024088207e+01
9.920000000000000284e+01 4.112026624315379308e+01
9.960000000000000853e+01 4.103646530787894164e+01
1.000000000000000000e+02 4.095316650159031724e+01
1.004000000000000057e+02 4.087036477408225466e+01
1.008000000000000114e+02 4.078805514644307806e+01
1.012000000000000028e+02 4.070623270975860208e+01
1.016000000000000085e+02 4.062489262384444544e+01
1.020000000000000000e+02 4.054403011600633988e+01
1.024000000000000057e+02 4.046364047982797985e+01
1.028000000000000114e+02 4.038371907398534688e+01
1.032000000000000028e+02 4.030426132108717496e+01
1.036000000000000085e+02 4.022515580829083603e+01
1.040000000000000000e+02 4.014557925129511773e+01
1.044000000000000057e+02 4.006646185341501365e+01
1.048000000000000114e+02 3.998779917254313432e+01
1.052000000000000028e+02 3.990958682685037928e+01
1.056000000000000085e+02 3.983182049373296252e+01
1.060000000000000000e+02 3.975449590878186257e+01
1.064000000000000057e+02 3.967760886477417159e+01
1.068000000000000114e+02 3.960115521068590283e+01
1.072000000000000028e+02 3.952513085072567378e+01
1.076000000000000085e+02 3.944953174338859014e+01
1.080000000000000000e+02 3.937435390053004625e+01
1.084000000000000057e+02 3.929959338645885225e+01
1.088000000000000114e+02 3.922519437001737685e+01
1.092000000000000028e+02 3.915117238848662140e+01
1.096000000000000085e+02 3.907755578887038439e+01
1.100000000000000000e+02 3.900434085276221197e+01
1.104000000000000057e+02 3.893152390955125952e+01
1.108000000000000114e+02 3.885910133563216107e+01
1.112000000000000028e+02 3.879594230658129561e+01
1.116000000000000085e+02 3.872553418323963825e+01
1.120000000000000000e+02 3.865550250404126587e+01
1.124000000000000057e+02 3.858584388210117311e+01
1.128000000000000114e+02 3.851655497337645784e+01
1.132000000000000028e+02 3.844763247596795708e+01
1.136000000000000085e+02 3.837907312943563909e+01
1.140000000000000000e+02 3.831087371412777998e+01
1.144000000000000057e+02 3.824303105052328533e+01
1.148000000000000114e+02 3.817554199858706454e+01
1.152000000000000028e+02 3.810840345713803856e+01
1.156000000000000085e+02 3.804161236322951822e+01
1.160000000000000000e+02 3.797516569154178967e+01
1.164000000000000057e+02 3.790906045378623901e+01
1.168000000000000114e+02 3.784329369812137145e+01
1.172000000000000028e+02 3.777786250857983674e+01
1.176000000000000085e+02 3.771276400450648936e+01
1.180000000000000000e+02 3.764799534000746917e+01
1.184000000000000057e+02 3.758355370340945001e+01
1.188000000000000114e+02 3.751943631672946111e+01
1.192000000000000028e+02 3.745564043515459218e+01
1.196000000000000085e+02 3.739216334653164608e+01
1.200000000000000000e+02 3.732900237086627726e+01
1.204000000000000057e+02 3.726615485983162301e+01
1.208000000000000114e+02 3.720361819628613631e+01
1.212000000000000028e+02 3.714138979380029326e+01
1.216000000000000085e+02 3.707946709619218240e+01
1.220000000000000000e+02 3.701784757707169149e+01
1.224000000000000057e+02 3.695652873939299354e+01
1.228000000000000114e+02 3.692305772302931643e+01
1.232000000000000028e+02 3.686337944550684398e+01
1.236000000000000085e+02 3.680398710746693780e+01
1.240000000000000000e+02 3.674487840060405119e+01
1.244000000000000057e+02 3.668593265776223689e+01
1.248000000000000114e+02 3.662705794451670727e+01
1.252000000000000028e+02 3.656846476147416070e+01
1.256000000000000085e+02 3.651015082911624887e+01
1.260000000000000000e+02 3.645211389393743673e+01
1.264000000000000057e+02 3.639435172806295071e+01
1.268000000000000114e+02 3.633686212887359801e+01
1.272000000000000028e+02 3.627964291863729329e+01
1.276000000000000085e+02 3.622269194414710114e+01
1.280000000000000000e+02 3.616600707636576573e+01
1.284000000000000057e+02 3.610958621007649327e+01
1.288000000000000114e+02 3.605342726353987359e+01
1.291999999999999886e+02 3.599752817815688388e+01
1.296000000000000227e+02 3.594188691813771896e+01
1.300000000000000000e+02 3.588650147017646219e+01
1.304000000000000057e+02 3.583136984313141937e+01
1.308000000000000114e+02 3.577649006771097362e+01
1.311999999999999886e+02 3.572186019616486163e+01
1.316000000000000227e+02 3.566747830198081459e+01
1.320000000000000000e+02 3.561334247958641441e+01
1.324000000000000057e+02 3.555945084405596646e+01
1.328000000000000114e+02 3.550580153082249524e+01
1.331999999999999886e+02 3.545239269539462157e+01
1.336000000000000227e+02 3.538821496522057686e+01
1.340000000000000000e+02 3.533570537797489663e+01
1.344000000000000057e+02 3.528342845816839457e+01
1.348000000000000114e+02 3.523138245832854665e+01
1.351999999999999886e+02 3.517956564950496556e+01
1.356000000000000227e+02 3.512797632101649015e+01
1.360000000000000000e+02 3.507661278020238171e+01
1.364000000000000057e+02 3.502547335217765578e+01
1.368000000000000114e+02 3.497456859687540032e+01
1.371999999999999886e+02 3.492435221022189751e+01
1.376000000000000227e+02 3.487435219471292669e+01
1.380000000000000000e+02 3.482456697308986548e+01
1.384000000000000057e+02 3.477499498429060054e+01
1.388000000000000114e+02 3.472563468323550495e+01
1.392000000000000171e+02 3.467648454061680496e+01
1.395999999999999943e+02 3.462754304269135019e+01
1.400000000000000000e+02 3.457880869107670918e+01
1.404000000000000057e+02 3.453028000255054053e+01
1.408000000000000114e+02 3.448195550885316862e+01
1.412000000000000171e+02 3.443383375649325728e+01
1.415999999999999943e+02 3.438575044821529758e+01
1.420000000000000000e+02 3.433777585007133126e+01
1.424000000000000057e+02 3.429000120239885518e+01
1.428000000000000114e+02 3.424242509627586628e+01
1.432000000000000171e+02 3.419504613676580362e+01
1.435999999999999943e+02 3.414786294273881850e+01
1.440000000000000000e+02 3.410087414669592221e+01
1.444000000000000057e+02 3.405407839459577701e+01
1.448000000000000114e+02 3.400747434568418726e+01
1.452000000000000171e+02 3.396106067232629755e+01
1.455999999999999943e+02 3.391483605984126370e+01
1.460000000000000000e+02 3.386879920633961660e+01
1.464000000000000057e+02 3.382294882256289270e+01
1.468000000000000114e+02 3.377728363172600012e+01
1.472000000000000171e+02 3.373180236936179455e+01
1.475999999999999943e+02 3.368650378316803540e+01
1.480000000000000000e+02 3.364138663285671527e+01
1.484000000000000057e+02 3.359644969000567727e+01
1.488000000000000114e+02 3.355169173791243509e+01
1.492000000000000171e+02 3.350711157145016017e+01
1.495999999999999943e+02 3.346248070077358960e+01
1.500000000000000000e+02 3.341798719523453087e+01
