1.000000000000000000e+01 1.648656257996730687e+02
1.040000000000000036e+01 1.658331686405578580e+02
1.080000000000000071e+01 1.721733966865539287e+02
1.119999999999999929e+01 1.799810608507953305e+02
1.159999999999999964e+01 1.840082784320056817e+02
1.200000000000000000e+01 1.780305468908438797e+02
1.240000000000000036e+01 1.663811906780399568e+02
1.280000000000000071e+01 1.613224862277739078e+02
1.319999999999999929e+01 1.567247010779308596e+02
1.359999999999999964e+01 1.525174914428339150e+02
1.400000000000000000e+01 1.486453481431184400e+02
1.440000000000000036e+01 1.448797153486192428e+02
1.480000000000000071e+01 1.413379496309141530e+02
1.519999999999999929e+01 1.381326375641047548e+02
1.560000000000000142e+01 1.356341835650244434e+02
1.600000000000000000e+01 1.333857848860464230e+02
1.639999999999999858e+01 1.312781951068841977e+02
1.680000000000000071e+01 1.292968888722513157e+02
1.719999999999999929e+01 1.274293860720986800e+02
1.760000000000000142e+01 1.256648912730353942e+02
1.800000000000000000e+01 1.259122544961014256e+02
1.839999999999999858e+01 1.243572316288672539e+02
1.880000000000000071e+01 1.196295709094704023e+02
1.920000000000000284e+01 1.112121145072129593e+02
1.960000000000000142e+01 1.094887042312986978e+02
2.000000000000000000e+01 1.078440224200816431e+02
2.039999999999999858e+01 1.062721575203990767e+02
2.080000000000000071e+01 1.047678075387917431e+02
2.120000000000000284e+01 1.033262007902680750e+02
2.160000000000000142e+01 1.019609246835135252e+02
2.200000000000000000e+01 1.006569324537543224e+02
2.239999999999999858e+01 9.940209221042707100e+01
2.280000000000000071e+01 9.819335037481214101e+01
2.320000000000000284e+01 9.700562740825678532e+01
2.360000000000000142e+01 9.575651957299767503e+01
2.400000000000000000e+01 9.454893802566579097e+01
2.439999999999999858e+01 9.338059970353819494e+01
2.480000000000000071e+01 9.224939600313180676e+01
2.520000000000000284e+01 9.115337580701751108e+01
2.560000000000000142e+01 8.975811996918884006e+01
2.600000000000000000e+01 8.873602711713623137e+01
2.640000000000000213e+01 8.774354061430716456e+01
2.680000000000000071e+01 8.677924171018726440e+01
2.719999999999999929e+01 8.584180633035667540e+01
2.760000000000000142e+01 8.492999701349361885e+01
2.800000000000000000e+01 8.404265567987549446e+01
2.840000000000000213e+01 8.317869713110822261e+01
2.880000000000000071e+01 8.233710319460678306e+01
2.920000000000000284e+01 8.164088478520145031e+01
2.960000000000000142e+01 8.085042487910891396e+01
3.000000000000000000e+01 8.007210442729561350e+01
3.040000000000000213e+01 7.930933410896351177e+01
3.080000000000000071e+01 7.856479209312838918e+01
3.120000000000000284e+01 7.783775911818682403e+01
3.160000000000000142e+01 7.712755543238091605e+01
3.200000000000000000e+01 7.860705073374384710e+01
3.240000000000000568e+01 7.799231160771624616e+01
3.279999999999999716e+01 7.739088564004477178e+01
3.320000000000000284e+01 7.680228938455624643e+01
3.360000000000000142e+01 7.622606401675895427e+01
3.400000000000000000e+01 7.566177372575060645e+01
3.440000000000000568e+01 7.510900423376237711e+01
3.479999999999999716e+01 7.456736143145819540e+01
3.520000000000000284e+01 7.376976909971423879e+01
3.560000000000000142e+01 7.327794847015452717e+01
3.600000000000000000e+01 7.279536345997641433e+01
3.640000000000000568e+01 7.232172404365942953e+01
3.679999999999999716e+01 7.185675295718618827e+01
3.720000000000000284e+01 7.140018497767967176e+01
3.760000000000000142e+01 7.095176625250716995e+01
3.800000000000000000e+01 7.051125367386104870e+01
3.840000000000000568e+01 7.007841429519710630e+01
3.879999999999999716e+01 6.965302478623941340e+01
3.920000000000000284e+01 6.923487092355809125e+01
3.960000000000000142e+01 6.882374711399214107e+01
4.000000000000000000e+01 6.841945594842921707e+01
4.040000000000000568e+01 6.802068646756791281e+01
4.079999999999999716e+01 6.762759755225692970e+01
4.120000000000000284e+01 6.724941400005863557e+01
4.160000000000000142e+01 6.687746457363212471e+01
4.200000000000000000e+01 6.651157668535466883e+01
4.239999999999999858e+01 6.609536961663226862e+01
4.280000000000000426e+01 6.574954532796263607e+01
4.320000000000000284e+01 6.540911604961630132e+01
4.360000000000000142e+01 6.507394019414280706e+01
4.400000000000000000e+01 6.474388135494433527e+01
4.439999999999999858e+01 6.441880806448374130e+01
4.480000000000000426e+01 6.409859356616151160e+01
4.520000000000000284e+01 6.377708454916941605e+01
4.560000000000000142e+01 6.345760792739007172e+01
4.600000000000000000e+01 6.314283956661789432e+01
4.639999999999999858e+01 6.283266271151026672e+01
4.680000000000000426e+01 6.255708179629471033e+01
4.720000000000000284e+01 6.225887741134629039e+01
4.760000000000000142e+01 6.196488398548727616e+01
4.800000000000000000e+01 6.167500153855024081e+01
4.840000000000000568e+01 6.111677730538238507e+01
4.880000000000000426e+01 6.082909811324201854e+01
4.920000000000000284e+01 6.054540991743263589e+01
4.960000000000000142e+01 6.026163183691699032e+01
5.000000000000000000e+01 5.998136326968449339e+01
5.040000000000000568e+01 5.970490977827202528e+01
5.080000000000000426e+01 5.943218459077737492e+01
5.120000000000000284e+01 5.916310367748090471e+01
5.160000000000000142e+01 5.889758564051945910e+01
5.200000000000000000e+01 5.863555160893213269e+01
5.240000000000000568e+01 5.837692513877206579e+01
5.280000000000000426e+01 5.812163211799726525e+01
5.320000000000000284e+01 5.786908508946034857e+01
5.360000000000000142e+01 5.761931709988908779e+01
5.400000000000000000e+01 5.737267617126372699e+01
5.440000000000000568e+01 5.712909670781601790e+01
5.480000000000000426e+01 5.688851502859901643e+01
5.520000000000000284e+01 5.665086929626127699e+01
5.560000000000000142e+01 5.641577428837273089e+01
5.600000000000000000e+01 5.617868703764933258e+01
5.640000000000000568e+01 5.594432896187551307e+01
5.680000000000000426e+01 5.571264775241841960e+01
5.720000000000000284e+01 5.548359250387292718e+01
5.760000000000000142e+01 5.525711366568996397e+01
5.800000000000000000e+01 5.503316299583964621e+01
5.840000000000000568e+01 5.505898980244823093e+01
5.880000000000000426e+01 5.484901637438984778e+01
5.920000000000000284e+01 5.464127731902105722e+01
5.960000000000000142e+01 5.443573304426897153e+01
6.000000000000000000e+01 5.423234493868363870e+01
6.040000000000000568e+01 5.404702001894791863e+01
6.080000000000000426e+01 5.384874139756379918e+01
6.120000000000000284e+01 5.365250678544188645e+01
6.160000000000000142e+01 5.345828111544015115e+01
6.200000000000000000e+01 5.326603016154174952e+01
6.240000000000000568e+01 5.307572051293951176e+01
6.280000000000000426e+01 5.288731954909474098e+01
6.320000000000000284e+01 5.270079541572737014e+01
6.360000000000000142e+01 5.251611700169654284e+01
6.400000000000000000e+01 5.233325391673246685e+01
6.440000000000000568e+01 5.215217646998273437e+01
6.480000000000001137e+01 5.197285564933792301e+01
6.520000000000000284e+01 5.179526310150306756e+01
6.559999999999999432e+01 5.161937111278322732e+01
6.600000000000000000e+01 5.144515259055317813e+01
6.640000000000000568e+01 5.127258104538228167e+01
6.680000000000001137e+01 5.120010991689157009e+01
6.720000000000000284e+01 5.103821203638672444e+01
6.759999999999999432e+01 5.087766817928138607e+01
6.800000000000000000e+01 5.071855120280235951e+01
6.840000000000000568e+01 5.056087658481089875e+01
6.880000000000001137e+01 5.040462238813346829e+01
6.920000000000000284e+01 5.024976714420877499e+01
6.959999999999999432e+01 5.009628984019617803e+01
7.000000000000000000e+01 4.994416990651762234e+01
7.040000000000000568e+01 4.979338720481570135e+01
7.080000000000001137e+01 4.964392201631170565e+01
7.120000000000000284e+01 4.949575503054779801e+01
7.159999999999999432e+01 4.934869825025625545e+01
7.200000000000000000e+01 4.920240574099734232e+01
7.240000000000000568e+01 4.905736192230939707e+01
7.280000000000001137e+01 4.891354892975876112e+01
7.320000000000000284e+01 4.877094925767683264e+01
7.359999999999999432e+01 4.862954574988313539e+01
7.400000000000000000e+01 4.848932159070164261e+01
7.440000000000000568e+01 4.835026029625944233e+01
7.479999999999999716e+01 4.821234570605700753e+01
7.520000000000000284e+01 4.807556197480047899e+01
7.560000000000000853e+01 4.793989356448579997e+01
7.600000000000000000e+01 4.780025103383120921e+01
7.640000000000000568e+01 4.766716694432248858e+01
7.679999999999999716e+01 4.753515114037826805e+01
7.720000000000000284e+01 4.741677485249273616e+01
7.760000000000000853e+01 4.728647361511809777e+01
7.800000000000000000e+01 4.715695481449982651e+01
7.840000000000000568e+01 4.702848118831137469e+01
7.879999999999999716e+01 4.690103848541323828e+01
7.920000000000000284e+01 4.677461272716160323e+01
7.960000000000000853e+01 4.664919020073259048e+01
8.000000000000000000e+01 4.652475745264523255e+01
8.040000000000000568e+01 4.640130128247646724e+01
8.079999999999999716e+01 4.627880873676121354e+01
8.120000000000000284e+01 4.615726710307121294e+01
8.160000000000000853e+01 4.603666390426664634e+01
8.200000000000000000e+01 4.591698689291426660e+01
8.240000000000000568e+01 4.579822404586667517e+01
8.279999999999999716e+01 4.568036355899714351e+01
8.320000000000000284e+01 4.556339384208472154e+01
8.360000000000000853e+01 4.544730351384468747e+01
8.400000000000000000e+01 4.533191244880782733e+01
8.440000000000000568e+01 4.521724590022111556e+01
8.479999999999999716e+01 4.510342757741274511e+01
8.520000000000000284e+01 4.499044686962935913e+01
8.560000000000000853e+01 4.487829335247493390e+01
8.600000000000000000e+01 4.476695678371299891e+01
8.640000000000000568e+01 4.465642709918391517e+01
8.680000000000001137e+01 4.454669440883357368e+01
8.720000000000000284e+01 4.443774899284971980e+01
8.760000000000000853e+01 4.433524982638296308e+01
8.800000000000000000e+01 4.422984973808421216e+01
8.840000000000000568e+01 4.412518927840621075e+01
8.880000000000001137e+01 4.402125968499338882e+01
8.920000000000000284e+01 4.391805234094250210e+01
8.960000000000000853e+01 4.381555877170963953e+01
9.000000000000000000e+01 4.371377064209731600e+01
9.040000000000000568e+01 4.361267975331907110e+01
9.080000000000001137e+01 4.351227804013922196e+01
9.120000000000000284e+01 4.341255756808570254e+01
9.160000000000000853e+01 4.331351053073344559e+01
9.200000000000000000e+01 4.321512924705665171e+01
9.240000000000000568e+01 4.311740615884738759e+01
9.280000000000001137e+01 4.302126201070822020e+01
9.320000000000000284e+01 4.292536472748477649e+01
9.360000000000000853e+01 4.283010018300129218e+01
9.400000000000000000e+01 4.273546132520657892e+01
9.440000000000000568e+01 4.264144121228318340e+01
9.480000000000001137e+01 4.254803301043848052e+01
9.520000000000000284e+01 4.245522999174956880e+01
9.560000000000000853e+01 4.236302553206053290e+01
9.600000000000000000e+01 4.227141310893052406e+01
9.640000000000000568e+01 4.218038629963108122e+01
9.680000000000001137e+01 4.208993877919176185e+01
9.720000000000000284e+01 4.200006431849192978e+01
9.760000000000000853e+01 4.191075678239823077e+01
9.800000000000000000e+01 4.182147115881680577e+01
9.840000000000000568e+01 4.173266005007380386e+01
9.880000000000001137e+01 4.164439309818110502e+01
9.920000000000000284e+01 4.155320446305118764e+01
9.960000000000000853e+01 4.146635480601894130e+01
1.000000000000000000e+02 4.138003046782553440e+01
1.004000000000000057e+02 4.129422611832971768e+01
1.008000000000000114e+02 4.120893650324902069e+01
1.012000000000000028e+02 4.112415644276939730e+01
1.016000000000000085e+02 4.103988083018615640e+01
1.020000000000000000e+02 4.095598124352744662e+01
1.024000000000000057e+02 4.087247607372013647e+01
1.028000000000000114e+02 4.078946202579754043e+01
1.032000000000000028e+02 4.070693425465401560e+01
1.036000000000000085e+02 4.062483453308530557e+01
1.040000000000000000e+02 4.054274873314615490e+01
1.044000000000000057e+02 4.046113950506273227e+01
1.048000000000000114e+02 4.038000221010219803e+01
1.052000000000000028e+02 4.029933227282496944e+01
1.056000000000000085e+02 4.021912517997343173e+01
1.060000000000000000e+02 4.013937647938413988e+01
1.064000000000000057e+02 4.006008177892353928e+01
1.068000000000000114e+02 3.998123674544628159e+01
1.072000000000000028e+02 3.990283710377568127e+01
1.076000000000000085e+02 3.982487863570567299e+01
1.080000000000000000e+02 3.974735717902382248e+01
1.084000000000000057e+02 3.967026862655484365e+01
1.088000000000000114e+02 3.959360892522404640e+01
1.092000000000000028e+02 3.951737407514038836e+01
1.096000000000000085e+02 3.944156012869834882e+01
1.100000000000000000e+02 3.936616318969856820e+01
1.104000000000000057e+02 3.929117941248639312e+01
1.108000000000000114e+02 3.921655570561730997e+01
1.112000000000000028e+02 3.915106289752489488e+01
1.116000000000000085e+02 3.907833714446970674e+01
1.120000000000000000e+02 3.900473533065821385e+01
1.124000000000000057e+02 3.893326925584214848e+01
1.128000000000000114e+02 3.886218585053750729e+01
1.132000000000000028e+02 3.879148166610207227e+01
1.136000000000000085e+02 3.872115329757326663e+01
1.140000000000000000e+02 3.865119738295523177e+01
1.144000000000000057e+02 3.858161060252004404e+01
1.148000000000000114e+02 3.851238967812286518e+01
1.152000000000000028e+02 3.844353137253072106e+01
1.156000000000000085e+02 3.837503248876443962e+01
1.160000000000000000e+02 3.830688986945372676e+01
1.164000000000000057e+02 3.823910039620456303e+01
1.168000000000000114e+02 3.817166098897937587e+01
1.172000000000000028e+02 3.810456860548894298e+01
1.176000000000000085e+02 3.803782024059621136e+01
1.180000000000000000e+02 3.797141292573171967e+01
1.184000000000000057e+02 3.790534372832009069e+01
1.188000000000000114e+02 3.783960975121777892e+01
1.192000000000000028e+02 3.777420813216129147e+01
1.196000000000000085e+02 3.770913604322613821e+01
1.200000000000000000e+02 3.764439069029598528e+01
1.204000000000000057e+02 3.757996931254176332e+01
1.208000000000000114e+02 3.751586918191077302e+01
1.212000000000000028e+02 3.745208760262522674e+01
1.216000000000000085e+02 3.738859807417649961e+01
1.220000000000000000e+02 3.732518786296093793e+01
1.224000000000000057e+02 3.726208948120118691e+01
1.228000000000000114e+02 3.721307515122943244e+01
1.232000000000000028e+02 3.715111599999725200e+01
1.236000000000000085e+02 3.708945731156875070e+01
1.240000000000000000e+02 3.703238241219384719e+01
1.244000000000000057e+02 3.697140876594488645e+01
1.248000000000000114e+02 3.691051876519942709e+01
1.252000000000000028e+02 3.684992278436041602e+01
1.256000000000000085e+02 3.678961841940253663e+01
1.260000000000000000e+02 3.672960329398141965e+01
1.264000000000000057e+02 3.666987505902353206e+01
1.268000000000000114e+02 3.661043139232358357e+01
1.272000000000000028e+02 3.655126999814906696e+01
1.276000000000000085e+02 3.649238860685197494e+01
1.280000000000000000e+02 3.643378497448746600e+01
1.284000000000000057e+02 3.637545688243927344e+01
1.288000000000000114e+02 3.631740213705187159e+01
1.291999999999999886e+02 3.625961856926905114e+01
1.296000000000000227e+02 3.620210403427896040e+01
1.300000000000000000e+02 3.614485641116534964e+01
1.304000000000000057e+02 3.608787360256498289e+01
1.308000000000000114e+02 3.603115353433099699e+01
1.311999999999999886e+02 3.597469415520214397e+01
1.316000000000000227e+02 3.591849343647781723e+01
1.320000000000000000e+02 3.586254937169869095e+01
1.324000000000000057e+02 3.581104470727289169e+01
1.328000000000000114e+02 3.575593467654039159e+01
1.331999999999999886e+02 3.570107388415264182e+01
1.336000000000000227e+02 3.564646042253804836e+01
1.340000000000000000e+02 3.559209240469480307e+01
1.344000000000000057e+02 3.553796796390533785e+01
1.348000000000000114e+02 3.548408525345565323e+01
1.351999999999999886e+02 3.543044244635932927e+01
1.356000000000000227e+02 3.537703773508624039e+01
1.360000000000000000e+02 3.532386933129576079e+01
1.364000000000000057e+02 3.527093546557447468e+01
1.368000000000000114e+02 3.521823697653931617e+01
1.371999999999999886e+02 3.516620360842205884e+01
1.376000000000000227e+02 3.511439706681516526e+01
1.380000000000000000e+02 3.506281568150203753e+01
1.384000000000000057e+02 3.501145779956489434e+01
1.388000000000000114e+02 3.496032178515436328e+01
1.392000000000000171e+02 3.490940601926284614e+01
1.395999999999999943e+02 3.485870889950142271e+01
1.400000000000000000e+02 3.480822883988057015e+01
1.404000000000000057e+02 3.475796427059422911e+01
1.408000000000000114e+02 3.470791363780746508e+01
1.412000000000000171e+02 3.465807540344745519e+01
1.415999999999999943e+02 3.460836661582717255e+01
1.420000000000000000e+02 3.455882161307298617e+01
1.424000000000000057e+02 3.450948522850707434e+01
1.428000000000000114e+02 3.446035597877007461e+01
1.432000000000000171e+02 3.441140599406006828e+01
1.435999999999999943e+02 3.436260323159292085e+01
1.440000000000000000e+02 3.431400369814930684e+01
1.444000000000000057e+02 3.426560596456291563e+01
1.448000000000000114e+02 3.421740861580693860e+01
1.452000000000000171e+02 3.416941025081407446e+01
1.455999999999999943e+02 3.412160948229942647e+01
1.460000000000000000e+02 3.407400493658611396e+01
1.464000000000000057e+02 3.402659525343342040e+01
1.468000000000000114e+02 3.397937908586793299e+01
1.472000000000000171e+02 3.393235510001692745e+01
1.475999999999999943e+02 3.388552197494446006e+01
1.480000000000000000e+02 3.383887840248998913e+01
1.484000000000000057e+02 3.379242308710938403e+01
1.488000000000000114e+02 3.374615474571839258e+01
1.492000000000000171e+02 3.370007210753843196e+01
1.495999999999999943e+02 3.365394661779247087e+01
1.500000000000000000e+02 3.360796628161062927e+01
