1.000000000000000000e+01 8.505821148249614794e+01
1.040000000000000036e+01 8.794618024756172758e+01
1.080000000000000071e+01 9.185627162539752533e+01
1.119999999999999929e+01 9.979311460382237442e+01
1.159999999999999964e+01 1.056892528743775728e+02
1.200000000000000000e+01 1.019513960427916288e+02
1.240000000000000036e+01 9.865202052381206954e+01
1.280000000000000071e+01 9.570596370880790005e+01
1.319999999999999929e+01 9.305050951044898966e+01
1.359999999999999964e+01 9.063810897339328676e+01
1.400000000000000000e+01 8.843184447877267473e+01
1.440000000000000036e+01 8.640247852431517117e+01
1.480000000000000071e+01 8.452646359538655929e+01
1.519999999999999929e+01 8.278455916356929833e+01
1.560000000000000142e+01 8.116084561701573818e+01
1.600000000000000000e+01 7.964200544757267153e+01
1.639999999999999858e+01 7.836526327127842251e+01
1.680000000000000071e+01 7.722804336261970093e+01
1.719999999999999929e+01 7.615405526572604344e+01
1.760000000000000142e+01 7.513740821597471609e+01
1.800000000000000000e+01 7.417297078935457932e+01
1.839999999999999858e+01 7.325624712949941397e+01
1.880000000000000071e+01 6.913544756898463106e+01
1.920000000000000284e+01 6.815938824838035259e+01
1.960000000000000142e+01 6.722869187380966594e+01
2.000000000000000000e+01 6.633984407690552132e+01
2.039999999999999858e+01 6.553649587190800219e+01
2.080000000000000071e+01 6.481475323966483870e+01
2.120000000000000284e+01 6.412318318019556784e+01
2.160000000000000142e+01 6.345967006622346673e+01
2.200000000000000000e+01 6.282230265890237320e+01
2.239999999999999858e+01 6.220934921328672829e+01
2.280000000000000071e+01 6.161923621383001404e+01
2.320000000000000284e+01 6.105053012749574748e+01
2.360000000000000142e+01 6.050192167874453730e+01
2.400000000000000000e+01 5.997221224268430717e+01
2.439999999999999858e+01 5.946030202573734158e+01
2.480000000000000071e+01 5.896517976156052754e+01
2.520000000000000284e+01 5.848591369688659825e+01
2.560000000000000142e+01 5.802364743419324356e+01
2.600000000000000000e+01 5.757885851897405161e+01
2.640000000000000213e+01 5.714690429923776094e+01
2.680000000000000071e+01 5.672715489349832296e+01
2.719999999999999929e+01 5.273480225834013879e+01
2.760000000000000142e+01 5.229393934838448388e+01
2.800000000000000000e+01 5.186504776599478816e+01
2.840000000000000213e+01 5.144758131602596052e+01
2.880000000000000071e+01 5.104102846332898480e+01
2.920000000000000284e+01 5.064490953350654934e+01
2.960000000000000142e+01 5.025877418684187603e+01
3.000000000000000000e+01 4.988219913427498398e+01
3.040000000000000213e+01 4.951478606834091067e+01
3.080000000000000071e+01 4.915615978543944209e+01
3.120000000000000284e+01 4.880596647876598126e+01
3.160000000000000142e+01 4.846387218377984141e+01
3.200000000000000000e+01 4.812956136028095955e+01
3.240000000000000568e+01 4.780273559706283493e+01
3.279999999999999716e+01 4.748311242675407584e+01
3.320000000000000284e+01 4.717042423988917932e+01
3.360000000000000142e+01 4.686441728849300148e+01
3.400000000000000000e+01 4.656485077054893651e+01
3.440000000000000568e+01 4.627149598767083205e+01
3.479999999999999716e+01 4.598413556913087064e+01
3.520000000000000284e+01 4.537159854586690244e+01
3.560000000000000142e+01 4.511429833446756277e+01
3.600000000000000000e+01 4.486193696569478817e+01
3.640000000000000568e+01 4.461435369803542983e+01
3.679999999999999716e+01 4.437139509601691145e+01
3.720000000000000284e+01 4.413291460620899898e+01
3.760000000000000142e+01 4.389877216305825414e+01
3.800000000000000000e+01 4.366883382209438480e+01
3.840000000000000568e+01 4.343416758100289599e+01
3.879999999999999716e+01 4.320286179155674233e+01
3.920000000000000284e+01 4.297557364157749760e+01
3.960000000000000142e+01 4.275218502064119264e+01
4.000000000000000000e+01 4.253258267106659218e+01
4.040000000000000568e+01 4.231665793321475633e+01
4.079999999999999716e+01 4.210430650699872501e+01
4.120000000000000284e+01 4.189542822839442238e+01
4.160000000000000142e+01 3.857230595862448297e+01
4.200000000000000000e+01 3.836001222936219790e+01
4.239999999999999858e+01 3.815107780560319384e+01
4.280000000000000426e+01 3.794541388730804954e+01
4.320000000000000284e+01 3.774293495731680537e+01
4.360000000000000142e+01 3.754355862581583381e+01
4.400000000000000000e+01 3.734720548376945004e+01
4.439999999999999858e+01 3.715379896470921750e+01
4.480000000000000426e+01 3.696326521432032308e+01
4.520000000000000284e+01 3.676950191752156627e+01
4.560000000000000142e+01 3.657588516446580940e+01
4.600000000000000000e+01 3.638513826006932561e+01
4.639999999999999858e+01 3.619719022878554426e+01
4.680000000000000426e+01 3.601197255040245437e+01
4.720000000000000284e+01 3.582941905117932890e+01
4.760000000000000142e+01 3.564946580085499050e+01
4.800000000000000000e+01 3.547205101515563541e+01
4.840000000000000568e+01 3.529711496345726118e+01
4.880000000000000426e+01 3.512459988128205879e+01
4.920000000000000284e+01 3.495444988733171243e+01
4.960000000000000142e+01 3.478661090478084361e+01
5.000000000000000000e+01 3.462103058657356058e+01
5.040000000000000568e+01 3.445765824448388059e+01
5.080000000000000426e+01 3.429644478171677946e+01
5.120000000000000284e+01 3.413734262884248949e+01
5.160000000000000142e+01 3.398030568286988284e+01
5.200000000000000000e+01 3.382528924927827063e+01
5.240000000000000568e+01 3.367224998683866488e+01
5.280000000000000426e+01 3.352114585506662081e+01
5.320000000000000284e+01 3.337193606415908675e+01
5.360000000000000142e+01 3.327067859995191412e+01
5.400000000000000000e+01 3.313813588264037691e+01
5.440000000000000568e+01 3.300715191392062309e+01
5.480000000000000426e+01 3.287769592407133956e+01
5.520000000000000284e+01 3.274973799523800722e+01
5.560000000000000142e+01 3.262324903112739349e+01
5.600000000000000000e+01 3.249820072801739457e+01
5.640000000000000568e+01 3.237456554701508082e+01
5.680000000000000426e+01 3.225231668749938763e+01
5.720000000000000284e+01 3.213142806168904286e+01
5.760000000000000142e+01 3.201187427027925025e+01
5.800000000000000000e+01 3.189363057909453048e+01
5.840000000000000568e+01 3.196166287281724649e+01
5.880000000000000426e+01 3.185124114314595900e+01
5.920000000000000284e+01 3.174197176168690149e+01
5.960000000000000142e+01 3.163383451987596828e+01
6.000000000000000000e+01 3.152680970565056384e+01
6.040000000000000568e+01 3.142087808779335134e+01
6.080000000000000426e+01 3.131602090087783097e+01
6.120000000000000284e+01 3.121221983078849505e+01
6.160000000000000142e+01 3.110945700078968201e+01
6.200000000000000000e+01 3.100771495811863332e+01
6.240000000000000568e+01 3.090679900507727496e+01
6.280000000000000426e+01 3.080079216760402261e+01
6.320000000000000284e+01 3.069583880817994270e+01
6.360000000000000142e+01 3.059192144146476267e+01
6.400000000000000000e+01 3.048902298761132812e+01
6.440000000000000568e+01 3.038712676022150561e+01
6.480000000000001137e+01 3.028621645473729984e+01
6.520000000000000284e+01 3.018627613724886771e+01
6.559999999999999432e+01 3.008729023370158728e+01
6.600000000000000000e+01 2.998924351948566880e+01
6.640000000000000568e+01 2.989212110939224232e+01
6.680000000000001137e+01 2.979590844792071280e+01
6.720000000000000284e+01 2.970059129992297997e+01
6.759999999999999432e+01 2.960615574157080943e+01
6.800000000000000000e+01 2.951258815163315319e+01
6.840000000000000568e+01 2.941987520305077197e+01
6.880000000000001137e+01 2.932800385479659866e+01
6.920000000000000284e+01 2.923502870865005931e+01
6.959999999999999432e+01 2.914062634417133069e+01
7.000000000000000000e+01 2.904708807264348280e+01
7.040000000000000568e+01 2.895440070774227337e+01
7.080000000000001137e+01 2.886255134435966951e+01
7.120000000000000284e+01 2.877152735091959102e+01
7.159999999999999432e+01 2.868114727770709749e+01
7.200000000000000000e+01 2.859107160985676543e+01
7.240000000000000568e+01 2.850179106174809363e+01
7.280000000000001137e+01 2.841329394219938109e+01
7.320000000000000284e+01 2.832556880025109791e+01
7.359999999999999432e+01 2.823860441884142602e+01
7.400000000000000000e+01 2.815238980868442553e+01
7.440000000000000568e+01 2.806691420234326984e+01
7.479999999999999716e+01 2.798216704849112091e+01
7.520000000000000284e+01 2.789813800635283059e+01
7.560000000000000853e+01 2.781481694032049745e+01
7.600000000000000000e+01 2.773219391473679352e+01
7.640000000000000568e+01 2.765025918883965517e+01
7.679999999999999716e+01 2.756900321186260783e+01
7.720000000000000284e+01 2.748841661828502936e+01
7.760000000000000853e+01 2.740849022322699469e+01
7.800000000000000000e+01 2.732921501798343655e+01
7.840000000000000568e+01 2.725058216569277647e+01
7.879999999999999716e+01 2.717258299713519776e+01
7.920000000000000284e+01 2.709520900665597765e+01
7.960000000000000853e+01 2.701845184820953705e+01
8.000000000000000000e+01 2.694230333151998735e+01
8.040000000000000568e+01 2.686675541835413838e+01
8.079999999999999716e+01 2.679180021890309149e+01
8.120000000000000284e+01 2.671742998826866966e+01
8.160000000000000853e+01 2.664363712305115328e+01
8.200000000000000000e+01 2.657041415803485052e+01
8.240000000000000568e+01 2.649775376296820539e+01
8.279999999999999716e+01 2.642564873943532078e+01
8.320000000000000284e+01 2.635409201781570232e+01
8.360000000000000853e+01 2.628307665432947715e+01
8.400000000000000000e+01 2.621259582816516343e+01
8.440000000000000568e+01 2.614264283868721606e+01
8.479999999999999716e+01 2.607321110272082620e+01
8.520000000000000284e+01 2.600429415191154447e+01
8.560000000000000853e+01 2.593588563015703841e+01
8.600000000000000000e+01 2.586797929110893790e+01
8.640000000000000568e+01 2.580056899574228169e+01
8.680000000000001137e+01 2.573364870999069964e+01
8.720000000000000284e+01 2.566721250244492936e+01
8.760000000000000853e+01 2.559900476256566293e+01
8.800000000000000000e+01 2.553474509572824758e+01
8.840000000000000568e+01 2.547094099162580605e+01
8.880000000000001137e+01 2.540758706127676447e+01
8.920000000000000284e+01 2.534467800494281420e+01
8.960000000000000853e+01 2.528220861023195454e+01
9.000000000000000000e+01 2.536149852511807268e+01
9.040000000000000568e+01 2.530234408062187512e+01
9.080000000000001137e+01 2.524358870944341504e+01
9.120000000000000284e+01 2.518522790058489846e+01
9.160000000000000853e+01 2.512725721457046291e+01
9.200000000000000000e+01 2.506967228198857356e+01
9.240000000000000568e+01 2.501246880207056478e+01
9.280000000000001137e+01 2.495564254130446002e+01
9.320000000000000284e+01 2.489918933208297247e+01
9.360000000000000853e+01 2.507192772973851191e+01
9.400000000000000000e+01 2.502052585055291445e+01
9.440000000000000568e+01 2.496944626880261353e+01
9.480000000000001137e+01 2.491868556233507803e+01
9.520000000000000284e+01 2.486824036023095985e+01
9.560000000000000853e+01 2.481810734181441447e+01
9.600000000000000000e+01 2.476828323568690848e+01
9.640000000000000568e+01 2.471876481878366505e+01
9.680000000000001137e+01 2.466954891545238127e+01
9.720000000000000284e+01 2.462063239655332936e+01
9.760000000000000853e+01 2.457201217858040110e+01
9.800000000000000000e+01 2.452368522280256968e+01
9.840000000000000568e+01 2.447564853442499100e+01
9.880000000000001137e+01 2.442789916176950271e+01
9.920000000000000284e+01 2.438043419547371826e+01
9.960000000000000853e+01 2.433325076770843509e+01
1.000000000000000000e+02 2.428634605141267144e+01
1.004000000000000057e+02 2.423971725954601908e+01
1.008000000000000114e+02 2.419336164435779679e+01
1.012000000000000028e+02 2.414727649667247178e+01
1.016000000000000085e+02 2.410145914519108601e+01
1.020000000000000000e+02 2.405590695580809424e+01
1.024000000000000057e+02 2.401061733094331885e+01
1.028000000000000114e+02 2.396558770888863776e+01
1.032000000000000028e+02 2.392081556316890811e+01
1.036000000000000085e+02 2.387624495279199266e+01
1.040000000000000000e+02 2.383146400418852906e+01
1.044000000000000057e+02 2.378693759069380320e+01
1.048000000000000114e+02 2.374266326597426513e+01
1.052000000000000028e+02 2.369863861682475203e+01
1.056000000000000085e+02 2.365486126259007449e+01
1.060000000000000000e+02 2.361132885459889863e+01
1.064000000000000057e+02 2.356803907560966849e+01
1.068000000000000114e+02 2.352498963926833397e+01
1.072000000000000028e+02 2.348217828957745112e+01
1.076000000000000085e+02 2.343960280037654087e+01
1.080000000000000000e+02 2.339726097483319833e+01
1.084000000000000057e+02 2.335515064494500592e+01
1.088000000000000114e+02 2.331326967105161785e+01
1.092000000000000028e+02 2.327161594135705158e+01
1.096000000000000085e+02 2.323018737146184520e+01
1.100000000000000000e+02 2.318898190390473957e+01
1.104000000000000057e+02 2.314799750771381781e+01
1.108000000000000114e+02 2.310714248298585005e+01
1.112000000000000028e+02 2.306641555571085078e+01
1.116000000000000085e+02 2.302590531266145746e+01
1.120000000000000000e+02 2.298560980560339218e+01
1.124000000000000057e+02 2.294552711098020481e+01
1.128000000000000114e+02 2.290565532951022476e+01
1.132000000000000028e+02 2.286599258579164484e+01
1.136000000000000085e+02 2.282653702791542827e+01
1.140000000000000000e+02 2.278728682708590370e+01
1.144000000000000057e+02 2.274824017724884229e+01
1.148000000000000114e+02 2.270939529472687468e+01
1.152000000000000028e+02 2.267075041786207024e+01
1.156000000000000085e+02 2.263230380666543340e+01
1.160000000000000000e+02 2.259405374247335629e+01
1.164000000000000057e+02 2.255599852761056923e+01
1.168000000000000114e+02 2.251813648505977383e+01
1.172000000000000028e+02 2.248046595813752901e+01
1.176000000000000085e+02 2.244298531017636833e+01
1.180000000000000000e+02 2.240569292421306358e+01
1.184000000000000057e+02 2.236858720268275746e+01
1.188000000000000114e+02 2.233166656711896536e+01
1.192000000000000028e+02 2.229492945785916902e+01
1.196000000000000085e+02 2.225837433375607688e+01
1.200000000000000000e+02 2.222199967189420633e+01
1.204000000000000057e+02 2.218580396731185189e+01
1.208000000000000114e+02 2.214978573272815510e+01
1.212000000000000028e+02 2.211394349827537553e+01
1.216000000000000085e+02 2.207827581123596872e+01
1.220000000000000000e+02 2.204278123578465198e+01
1.224000000000000057e+02 2.200745835273516349e+01
1.228000000000000114e+02 2.198608056329864269e+01
1.232000000000000028e+02 2.195162015942194955e+01
1.236000000000000085e+02 2.191732357649114604e+01
1.240000000000000000e+02 2.188318949727275609e+01
1.244000000000000057e+02 2.184845503373737330e+01
1.248000000000000114e+02 2.181374418704918483e+01
1.252000000000000028e+02 2.177919812461006188e+01
1.256000000000000085e+02 2.174481552769941572e+01
1.260000000000000000e+02 2.171059509244437891e+01
1.264000000000000057e+02 2.167653552960452146e+01
1.268000000000000114e+02 2.164263556436032232e+01
1.272000000000000028e+02 2.160889393610547415e+01
1.276000000000000085e+02 2.157530939824275507e+01
1.280000000000000000e+02 2.154188071798350990e+01
1.284000000000000057e+02 2.150860667615071264e+01
1.288000000000000114e+02 2.147548606698533646e+01
1.291999999999999886e+02 2.144251769795619111e+01
1.296000000000000227e+02 2.140970038957300048e+01
1.300000000000000000e+02 2.137703297520275925e+01
1.304000000000000057e+02 2.134451430088918755e+01
1.308000000000000114e+02 2.131214322517534754e+01
1.311999999999999886e+02 2.127991861892922998e+01
1.316000000000000227e+02 2.124783936517239624e+01
1.320000000000000000e+02 2.121590435891145177e+01
1.324000000000000057e+02 2.118411250697243275e+01
1.328000000000000114e+02 2.115246272783796400e+01
1.331999999999999886e+02 2.112095395148715582e+01
1.336000000000000227e+02 2.108958511923822954e+01
1.340000000000000000e+02 2.105835518359372571e+01
1.344000000000000057e+02 2.102726310808830945e+01
1.348000000000000114e+02 2.099630786713913722e+01
1.351999999999999886e+02 2.096548844589867144e+01
1.356000000000000227e+02 2.093480384010993944e+01
1.360000000000000000e+02 2.090425305596418326e+01
1.364000000000000057e+02 2.087383510996084723e+01
1.368000000000000114e+02 2.084354902876984994e+01
1.371999999999999886e+02 2.081339384909611567e+01
1.376000000000000227e+02 2.078336861754631570e+01
1.380000000000000000e+02 2.075347239049777315e+01
1.384000000000000057e+02 2.072370423396942840e+01
1.388000000000000114e+02 2.069406322349503569e+01
1.392000000000000171e+02 2.066454844399822832e+01
1.395999999999999943e+02 2.063515898966971207e+01
1.400000000000000000e+02 2.060589396384634142e+01
1.404000000000000057e+02 2.057675247889219250e+01
1.408000000000000114e+02 2.054773365608148339e+01
1.412000000000000171e+02 2.051883662548335607e+01
1.415999999999999943e+02 2.048997909667784256e+01
1.420000000000000000e+02 2.046119606227425436e+01
1.424000000000000057e+02 2.043253300338284362e+01
1.428000000000000114e+02 2.040398907782540405e+01
1.432000000000000171e+02 2.037556345174100159e+01
1.435999999999999943e+02 2.034725529948022427e+01
1.440000000000000000e+02 2.031906380350097763e+01
1.444000000000000057e+02 2.029098815426599600e+01
1.448000000000000114e+02 2.026302755014184243e+01
1.452000000000000171e+02 2.023518119729955700e+01
1.455999999999999943e+02 2.020744830961676541e+01
1.460000000000000000e+02 2.017982810858129739e+01
1.464000000000000057e+02 2.015231982319632209e+01
1.468000000000000114e+02 2.012492268988689403e+01
1.472000000000000171e+02 2.009763595240789869e+01
1.475999999999999943e+02 2.007045886175345117e+01
1.480000000000000000e+02 2.004339067606762370e+01
1.484000000000000057e+02 2.001643066055653009e+01
1.488000000000000114e+02 1.998957808740171416e+01
1.492000000000000171e+02 1.996283223567488463e+01
1.495999999999999943e+02 1.993619239125386500e+01
1.500000000000000000e+02 1.990965784673984018e+01
