1.000000000000000000e+01 2.175395216309300963e+02
1.040000000000000036e+01 2.111042489658633201e+02
1.080000000000000071e+01 2.057859163128601665e+02
1.119999999999999929e+01 2.004990586334972988e+02
1.159999999999999964e+01 1.968072039667635238e+02
1.200000000000000000e+01 1.907681903190419064e+02
1.240000000000000036e+01 1.852514547206232294e+02
1.280000000000000071e+01 1.805082047960669627e+02
1.319999999999999929e+01 1.762040728261941922e+02
1.359999999999999964e+01 1.722131883859129289e+02
1.400000000000000000e+01 1.684974897553039455e+02
1.440000000000000036e+01 1.650253362600973901e+02
1.480000000000000071e+01 1.617701316776596911e+02
1.519999999999999929e+01 1.587093034730990553e+02
1.560000000000000142e+01 1.566298721678319907e+02
1.600000000000000000e+01 1.514391635840139259e+02
1.639999999999999858e+01 1.495693562869889206e+02
1.680000000000000071e+01 1.477961529039214099e+02
1.719999999999999929e+01 1.461112091714495591e+02
1.760000000000000142e+01 1.445071728810981995e+02
1.800000000000000000e+01 1.429775349807563032e+02
1.839999999999999858e+01 1.415165075161678772e+02
1.880000000000000071e+01 1.368710930158796373e+02
1.920000000000000284e+01 1.264327815662171304e+02
1.960000000000000142e+01 1.245991239781738216e+02
2.000000000000000000e+01 1.228300805971955612e+02
2.039999999999999858e+01 1.211320582237860890e+02
2.080000000000000071e+01 1.183960950092227193e+02
2.120000000000000284e+01 1.168386787550286527e+02
2.160000000000000142e+01 1.153396378992195679e+02
2.200000000000000000e+01 1.138953541046019495e+02
2.239999999999999858e+01 1.125025182611367853e+02
2.280000000000000071e+01 1.111580970488403466e+02
2.320000000000000284e+01 1.098266476016737556e+02
2.360000000000000142e+01 1.084052494319278424e+02
2.400000000000000000e+01 1.070281870748068371e+02
2.439999999999999858e+01 1.056931721612971131e+02
2.480000000000000071e+01 1.043980810572328437e+02
2.520000000000000284e+01 1.031409397086056146e+02
2.560000000000000142e+01 1.019219139310953608e+02
2.600000000000000000e+01 1.007364598154644568e+02
2.640000000000000213e+01 9.956698223812054493e+01
2.680000000000000071e+01 9.946975818813896808e+01
2.719999999999999929e+01 9.840805126921952706e+01
2.760000000000000142e+01 9.737379008619416254e+01
2.800000000000000000e+01 9.636580374643932601e+01
2.840000000000000213e+01 9.538299094939557676e+01
2.880000000000000071e+01 9.442431470471666444e+01
2.920000000000000284e+01 9.348879753600871823e+01
2.960000000000000142e+01 9.257551711794599214e+01
3.000000000000000000e+01 9.168360230095467500e+01
3.040000000000000213e+01 9.081222948318182375e+01
3.080000000000000071e+01 8.996061929424510595e+01
3.120000000000000284e+01 8.912803355940280881e+01
3.160000000000000142e+01 8.831377251638421910e+01
3.200000000000000000e+01 9.077744132824354040e+01
3.240000000000000568e+01 9.009342269515215662e+01
3.279999999999999716e+01 8.942330434730746447e+01
3.320000000000000284e+01 8.876661220219962445e+01
3.360000000000000142e+01 8.835823818900348670e+01
3.400000000000000000e+01 8.774097002478640661e+01
3.440000000000000568e+01 8.713652811821918931e+01
3.479999999999999716e+01 8.654611295573069185e+01
3.520000000000000284e+01 8.563585216548574408e+01
3.560000000000000142e+01 8.508600519219528735e+01
3.600000000000000000e+01 8.454612627647827594e+01
3.640000000000000568e+01 8.401591275281988658e+01
3.679999999999999716e+01 8.349507483164394728e+01
3.720000000000000284e+01 8.298333489705045452e+01
3.760000000000000142e+01 8.248042685110686989e+01
3.800000000000000000e+01 8.198609550107154575e+01
3.840000000000000568e+01 8.150009598625237572e+01
3.879999999999999716e+01 8.102219324149152158e+01
3.920000000000000284e+01 8.055216149452925833e+01
3.960000000000000142e+01 8.008978379473667530e+01
4.000000000000000000e+01 7.963485157091758992e+01
4.040000000000000568e+01 7.918716421607568634e+01
4.079999999999999716e+01 7.874869001343485309e+01
4.120000000000000284e+01 7.832839433072872737e+01
4.160000000000000142e+01 7.773784561717360475e+01
4.200000000000000000e+01 7.733017371545065544e+01
4.239999999999999858e+01 7.692896678294478363e+01
4.280000000000000426e+01 7.653405216877111172e+01
4.320000000000000284e+01 7.614526363308083035e+01
4.360000000000000142e+01 7.576244104442012883e+01
4.400000000000000000e+01 7.538543009434424391e+01
4.439999999999999858e+01 7.501408202813711057e+01
4.480000000000000426e+01 7.464825339057480846e+01
4.520000000000000284e+01 7.428177473596385028e+01
4.560000000000000142e+01 7.391795738344968925e+01
4.600000000000000000e+01 7.355946212180595012e+01
4.639999999999999858e+01 7.320615761504534191e+01
4.680000000000000426e+01 7.285791704428876869e+01
4.720000000000000284e+01 7.251461790988660994e+01
4.760000000000000142e+01 7.217614184402555111e+01
4.800000000000000000e+01 7.184237443317192628e+01
4.840000000000000568e+01 7.110467090140777202e+01
4.880000000000000426e+01 7.077127905162258514e+01
4.920000000000000284e+01 7.043712092552965487e+01
4.960000000000000142e+01 7.010747581841259546e+01
5.000000000000000000e+01 6.978224149940234611e+01
5.040000000000000568e+01 6.945964128199223353e+01
5.080000000000000426e+01 6.914659424219055950e+01
5.120000000000000284e+01 6.883760322408512877e+01
5.160000000000000142e+01 6.853257994223294247e+01
5.200000000000000000e+01 6.823143878819682584e+01
5.240000000000000568e+01 6.793409672704233060e+01
5.280000000000000426e+01 6.764047319868231511e+01
5.320000000000000284e+01 6.735049002380405625e+01
5.360000000000000142e+01 6.706407131412824185e+01
5.400000000000000000e+01 6.678114338676743955e+01
5.440000000000000568e+01 6.650163468246354626e+01
5.480000000000000426e+01 6.622547568749894253e+01
5.520000000000000284e+01 6.595259885908764375e+01
5.560000000000000142e+01 6.568245081307969713e+01
5.600000000000000000e+01 6.540824081358280750e+01
5.640000000000000568e+01 6.513707399577762658e+01
5.680000000000000426e+01 6.486889422534002847e+01
5.720000000000000284e+01 6.460364681834830947e+01
5.760000000000000142e+01 6.434127849301762581e+01
5.800000000000000000e+01 6.408173732339943740e+01
5.840000000000000568e+01 6.409082311997072168e+01
5.880000000000000426e+01 6.385035379653740506e+01
5.920000000000000284e+01 6.361237151339854279e+01
5.960000000000000142e+01 6.337556508494102303e+01
6.000000000000000000e+01 6.314089609938559988e+01
6.040000000000000568e+01 6.290861353372827836e+01
6.080000000000000426e+01 6.267867703873282892e+01
6.120000000000000284e+01 6.245104722029078914e+01
6.160000000000000142e+01 6.222568561031678769e+01
6.200000000000000000e+01 6.200255463872829154e+01
6.240000000000000568e+01 6.178161760646232636e+01
6.280000000000000426e+01 6.156283865948388723e+01
6.320000000000000284e+01 6.134618276374250456e+01
6.360000000000000142e+01 6.113161568103691934e+01
6.400000000000000000e+01 6.091910394574806986e+01
6.440000000000000568e+01 6.070861484240433725e+01
6.480000000000001137e+01 6.050011638404320991e+01
6.520000000000000284e+01 6.029357729133624844e+01
6.559999999999999432e+01 6.008896697244570362e+01
6.600000000000000000e+01 5.988625550358212024e+01
6.640000000000000568e+01 5.968541361023447678e+01
6.680000000000001137e+01 5.963413166370161633e+01
6.720000000000000284e+01 5.944901333206929905e+01
6.759999999999999432e+01 5.926553905090306529e+01
6.800000000000000000e+01 5.908225452195877381e+01
6.840000000000000568e+01 5.890052644119711545e+01
6.880000000000001137e+01 5.872041356818824909e+01
6.920000000000000284e+01 5.854189171122206403e+01
6.959999999999999432e+01 5.836493718845670031e+01
7.000000000000000000e+01 5.818952681407019156e+01
7.040000000000000568e+01 5.804427675232124528e+01
7.080000000000001137e+01 5.787318045708261138e+01
7.120000000000000284e+01 5.770354602405096500e+01
7.159999999999999432e+01 5.753518331484769988e+01
7.200000000000000000e+01 5.736774429377906159e+01
7.240000000000000568e+01 5.720171131802813136e+01
7.280000000000001137e+01 5.703706449877453366e+01
7.320000000000000284e+01 5.687378434302843289e+01
7.359999999999999432e+01 5.671185174347675684e+01
7.400000000000000000e+01 5.655124796864781445e+01
7.440000000000000568e+01 5.639195465338293900e+01
7.479999999999999716e+01 5.623395378960301372e+01
7.520000000000000284e+01 5.607722771736008838e+01
7.560000000000000853e+01 5.592175911616281070e+01
7.600000000000000000e+01 5.576753099656654200e+01
7.640000000000000568e+01 5.561452669201797505e+01
7.679999999999999716e+01 5.546272985094557129e+01
7.720000000000000284e+01 5.531212442908697113e+01
7.760000000000000853e+01 5.516126695098240873e+01
7.800000000000000000e+01 5.501121371968987717e+01
7.840000000000000568e+01 5.487472983490562228e+01
7.879999999999999716e+01 5.472824945032698452e+01
7.920000000000000284e+01 5.458292741623257882e+01
7.960000000000000853e+01 5.443874816578974674e+01
8.000000000000000000e+01 5.429569642578698563e+01
8.040000000000000568e+01 5.415375720954628491e+01
8.079999999999999716e+01 5.401291581004313969e+01
8.120000000000000284e+01 5.387315779322706533e+01
8.160000000000000853e+01 5.373429054369731261e+01
8.200000000000000000e+01 5.359642986004906362e+01
8.240000000000000568e+01 5.345961216173505903e+01
8.279999999999999716e+01 5.332382403335552823e+01
8.320000000000000284e+01 5.318905230192189038e+01
8.360000000000000853e+01 5.305528403124705505e+01
8.400000000000000000e+01 5.292250651649316495e+01
8.440000000000000568e+01 5.279070727887190628e+01
8.479999999999999716e+01 5.265987406049225683e+01
8.520000000000000284e+01 5.252999481935082571e+01
8.560000000000000853e+01 5.240105772446029420e+01
8.600000000000000000e+01 5.227305115111120415e+01
8.640000000000000568e+01 5.214596367626318596e+01
8.680000000000001137e+01 5.201978407406120652e+01
8.720000000000000284e+01 5.189450131147289369e+01
8.760000000000000853e+01 5.177978520363761561e+01
8.800000000000000000e+01 5.165880150609834942e+01
8.840000000000000568e+01 5.153865908743202340e+01
8.880000000000001137e+01 5.141903406584554403e+01
8.920000000000000284e+01 5.129985757941389579e+01
8.960000000000000853e+01 5.118148984905727161e+01
9.000000000000000000e+01 5.106392158150011085e+01
9.040000000000000568e+01 5.094714363333459062e+01
9.080000000000001137e+01 5.083114700792147289e+01
9.120000000000000284e+01 5.071592285236909703e+01
9.160000000000000853e+01 5.060146245458782488e+01
9.200000000000000000e+01 5.048775724041812651e+01
9.240000000000000568e+01 5.037479877082981261e+01
9.280000000000001137e+01 5.026257873919060160e+01
9.320000000000000284e+01 5.015108896860176202e+01
9.360000000000000853e+01 5.004032140929913197e+01
9.400000000000000000e+01 4.992715510674598534e+01
9.440000000000000568e+01 4.981835400689869431e+01
9.480000000000001137e+01 4.971024748402530236e+01
9.520000000000000284e+01 4.960282802293484394e+01
9.560000000000000853e+01 4.949608822266168318e+01
9.600000000000000000e+01 4.939002079423766389e+01
9.640000000000000568e+01 4.928461855851712414e+01
9.680000000000001137e+01 4.917987444405350317e+01
9.720000000000000284e+01 4.907578148502568638e+01
9.760000000000000853e+01 4.897233281921315751e+01
9.800000000000000000e+01 4.886871323232453790e+01
9.840000000000000568e+01 4.876560389580046717e+01
9.880000000000001137e+01 4.866311150542636454e+01
9.920000000000000284e+01 4.856122987536062396e+01
9.960000000000000853e+01 4.845995290669998923e+01
1.000000000000000000e+02 4.835927458590509787e+01
1.004000000000000057e+02 4.826721431498972947e+01
1.008000000000000114e+02 4.816899281074567796e+01
1.012000000000000028e+02 4.807134474574360183e+01
1.016000000000000085e+02 4.797426450228865491e+01
1.020000000000000000e+02 4.787774653992116214e+01
1.024000000000000057e+02 4.778178539404724035e+01
1.028000000000000114e+02 4.768637567459914806e+01
1.032000000000000028e+02 4.759151206472466811e+01
1.036000000000000085e+02 4.749713587037980034e+01
1.040000000000000000e+02 4.740283250162521256e+01
1.044000000000000057e+02 4.730906415147842381e+01
1.048000000000000114e+02 4.721582572872382144e+01
1.052000000000000028e+02 4.712311221010638462e+01
1.056000000000000085e+02 4.703091863916230864e+01
1.060000000000000000e+02 4.693924012507432764e+01
1.064000000000000057e+02 4.684807184155093296e+01
1.068000000000000114e+02 4.675718825759204123e+01
1.072000000000000028e+02 4.666675470341913012e+01
1.076000000000000085e+02 4.657681939741590327e+01
1.080000000000000000e+02 4.648737773575712851e+01
1.084000000000000057e+02 4.639842517426875190e+01
1.088000000000000114e+02 4.630995722743207921e+01
1.092000000000000028e+02 4.622196946740810830e+01
1.096000000000000085e+02 4.613445752308180658e+01
1.100000000000000000e+02 4.604741707912590698e+01
1.104000000000000057e+02 4.596084387508345515e+01
1.108000000000000114e+02 4.587473370446902265e+01
1.112000000000000028e+02 4.580239154331367502e+01
1.116000000000000085e+02 4.571904962956406138e+01
1.120000000000000000e+02 4.563614745184435151e+01
1.124000000000000057e+02 4.555332779456746550e+01
1.128000000000000114e+02 4.547093479186816012e+01
1.132000000000000028e+02 4.538897467805742991e+01
1.136000000000000085e+02 4.530744360684666105e+01
1.140000000000000000e+02 4.522633778008020045e+01
1.144000000000000057e+02 4.514565344695821381e+01
1.148000000000000114e+02 4.506538690327522545e+01
1.152000000000000028e+02 4.498553449067351551e+01
1.156000000000000085e+02 4.490609259591114011e+01
1.160000000000000000e+02 4.482705765014434718e+01
1.164000000000000057e+02 4.474842612822376964e+01
1.168000000000000114e+02 4.467019454800461631e+01
1.172000000000000028e+02 4.459235946966983022e+01
1.176000000000000085e+02 4.451491749506644879e+01
1.180000000000000000e+02 4.443786526705480355e+01
1.184000000000000057e+02 4.436119946886996956e+01
1.188000000000000114e+02 4.428491682349545755e+01
1.192000000000000028e+02 4.420901409304889285e+01
1.196000000000000085e+02 4.413348807817913411e+01
1.200000000000000000e+02 4.405833561747495963e+01
1.204000000000000057e+02 4.398355358688468186e+01
1.208000000000000114e+02 4.391545425666961933e+01
1.212000000000000028e+02 4.384168359345120081e+01
1.216000000000000085e+02 4.376827243964045522e+01
1.220000000000000000e+02 4.369521783216831778e+01
1.224000000000000057e+02 4.362251684235792482e+01
1.228000000000000114e+02 4.356394137941667566e+01
1.232000000000000028e+02 4.349246226051344877e+01
1.236000000000000085e+02 4.342132446322484185e+01
1.240000000000000000e+02 4.335052522922489970e+01
1.244000000000000057e+02 4.327988425400290851e+01
1.248000000000000114e+02 4.320926432434999498e+01
1.252000000000000028e+02 4.313984976754177580e+01
1.256000000000000085e+02 4.307041849968390324e+01
1.260000000000000000e+02 4.300131626030465526e+01
1.264000000000000057e+02 4.293254039747532147e+01
1.268000000000000114e+02 4.286408828943085325e+01
1.272000000000000028e+02 4.279595734412835384e+01
1.276000000000000085e+02 4.272814499881348382e+01
1.280000000000000000e+02 4.266064871959466132e+01
1.284000000000000057e+02 4.259346600102469438e+01
1.288000000000000114e+02 4.252659436568993101e+01
1.291999999999999886e+02 4.246003136380647192e+01
1.296000000000000227e+02 4.239377457282366635e+01
1.300000000000000000e+02 4.232782159703441494e+01
1.304000000000000057e+02 4.226217006719230795e+01
1.308000000000000114e+02 4.219681764013544267e+01
1.311999999999999886e+02 4.213176199841674929e+01
1.316000000000000227e+02 4.206700084994064071e+01
1.320000000000000000e+02 4.200253192760611398e+01
1.324000000000000057e+02 4.193835298895567831e+01
1.328000000000000114e+02 4.187446181583057125e+01
1.331999999999999886e+02 4.181085621403178720e+01
1.336000000000000227e+02 4.174753401298671207e+01
1.340000000000000000e+02 4.168449306542169097e+01
1.344000000000000057e+02 4.162173124703983973e+01
1.348000000000000114e+02 4.155924645620454072e+01
1.351999999999999886e+02 4.149700604188815589e+01
1.356000000000000227e+02 4.143500978134282775e+01
1.360000000000000000e+02 4.137328463368147879e+01
1.364000000000000057e+02 4.131182858317289686e+01
1.368000000000000114e+02 4.125065796117932848e+01
1.371999999999999886e+02 4.119045379798759399e+01
1.376000000000000227e+02 4.113050857874111443e+01
1.380000000000000000e+02 4.107082041402019712e+01
1.384000000000000057e+02 4.101126050799366141e+01
1.388000000000000114e+02 4.095181122268475349e+01
1.392000000000000171e+02 4.089261381118603822e+01
1.395999999999999943e+02 4.083366646521801613e+01
1.400000000000000000e+02 4.077496739478761612e+01
1.404000000000000057e+02 4.071651482795014232e+01
1.408000000000000114e+02 4.065830701057512186e+01
1.412000000000000171e+02 4.060034220611564848e+01
1.415999999999999943e+02 4.054253726621095666e+01
1.420000000000000000e+02 4.048492633409303210e+01
1.424000000000000057e+02 4.042755404994840518e+01
1.428000000000000114e+02 4.037041873902043676e+01
1.432000000000000171e+02 4.031351874310862371e+01
1.435999999999999943e+02 4.025685242035778799e+01
1.440000000000000000e+02 4.020041814505080424e+01
1.444000000000000057e+02 4.014421430740428320e+01
1.448000000000000114e+02 4.008823931336767998e+01
1.452000000000000171e+02 4.003249158442518052e+01
1.455999999999999943e+02 3.997696955740089209e+01
1.460000000000000000e+02 3.992167168426699675e+01
1.464000000000000057e+02 3.986659643195451963e+01
1.468000000000000114e+02 3.981174228216752198e+01
1.472000000000000171e+02 3.975710773119961772e+01
1.475999999999999943e+02 3.970269128975352402e+01
1.480000000000000000e+02 3.964849148276330482e+01
1.484000000000000057e+02 3.959450684921924335e+01
1.488000000000000114e+02 3.954073594199537922e+01
1.492000000000000171e+02 3.948717732767963184e+01
1.495999999999999943e+02 3.943348864217797711e+01
1.500000000000000000e+02 3.937995235663240834e+01
