1.000000000000000000e+01 1.835898458908167186e+02
1.040000000000000036e+01 1.782620463439992591e+02
1.080000000000000071e+01 1.739766934417806965e+02
1.119999999999999929e+01 1.693955364128328824e+02
1.159999999999999964e+01 1.665757429430341006e+02
1.200000000000000000e+01 1.613534313980903221e+02
1.240000000000000036e+01 1.566037077487582962e+02
1.280000000000000071e+01 1.522554084326492898e+02
1.319999999999999929e+01 1.482522810330726770e+02
1.359999999999999964e+01 1.445490041049032470e+02
1.400000000000000000e+01 1.410585395045224288e+02
1.440000000000000036e+01 1.379494540051283877e+02
1.480000000000000071e+01 1.350394568706120992e+02
1.519999999999999929e+01 1.323330318593102675e+02
1.560000000000000142e+01 1.303566109691401778e+02
1.600000000000000000e+01 1.285776671104056561e+02
1.639999999999999858e+01 1.268659568843204397e+02
1.680000000000000071e+01 1.252271788862153983e+02
1.719999999999999929e+01 1.236706559199634796e+02
1.760000000000000142e+01 1.221894932689283735e+02
1.800000000000000000e+01 1.207775930541330212e+02
1.839999999999999858e+01 1.194295378636744260e+02
1.880000000000000071e+01 1.148926650198150838e+02
1.920000000000000284e+01 1.075441676987503712e+02
1.960000000000000142e+01 1.059842437168817355e+02
2.000000000000000000e+01 1.047393305071726672e+02
2.039999999999999858e+01 1.022055098338501011e+02
2.080000000000000071e+01 1.008768285023008247e+02
2.120000000000000284e+01 9.959998000880779045e+01
2.160000000000000142e+01 9.837162105177175420e+01
2.200000000000000000e+01 9.718870561575003819e+01
2.239999999999999858e+01 9.604845152876450243e+01
2.280000000000000071e+01 9.494831154454851685e+01
2.320000000000000284e+01 9.386201925377861244e+01
2.360000000000000142e+01 9.271739603787625583e+01
2.400000000000000000e+01 9.160918721456343405e+01
2.439999999999999858e+01 9.053547426007443732e+01
2.480000000000000071e+01 8.949447938535574565e+01
2.520000000000000284e+01 8.848455236570615057e+01
2.560000000000000142e+01 8.749886261517534081e+01
2.600000000000000000e+01 8.653026922289548395e+01
2.640000000000000213e+01 8.558868457981074584e+01
2.680000000000000071e+01 8.467286837631911567e+01
2.719999999999999929e+01 8.378165934051158104e+01
2.760000000000000142e+01 8.297461960349747301e+01
2.800000000000000000e+01 8.213458431801649340e+01
2.840000000000000213e+01 8.131596825905316450e+01
2.880000000000000071e+01 8.051787201008284001e+01
2.920000000000000284e+01 7.973944860791452527e+01
2.960000000000000142e+01 7.897989964580787614e+01
3.000000000000000000e+01 7.823847172668327232e+01
3.040000000000000213e+01 7.751445322968183405e+01
3.080000000000000071e+01 7.680717135772960091e+01
3.120000000000000284e+01 7.611598943756551705e+01
3.160000000000000142e+01 7.544030444699973259e+01
3.200000000000000000e+01 7.695277367543181413e+01
3.240000000000000568e+01 7.636919079390702336e+01
3.279999999999999716e+01 7.579777048045266952e+01
3.320000000000000284e+01 7.548626147648836593e+01
3.360000000000000142e+01 7.495312650667018772e+01
3.400000000000000000e+01 7.443048705198273751e+01
3.440000000000000568e+01 7.391799791980560030e+01
3.479999999999999716e+01 7.341532982402353014e+01
3.520000000000000284e+01 7.259120423472460004e+01
3.560000000000000142e+01 7.212593115065638472e+01
3.600000000000000000e+01 7.166911312821814306e+01
3.640000000000000568e+01 7.122049370672230850e+01
3.679999999999999716e+01 7.077982730897250008e+01
3.720000000000000284e+01 7.031494380253398901e+01
3.760000000000000142e+01 6.989476899332268545e+01
3.800000000000000000e+01 6.948173754029365057e+01
3.840000000000000568e+01 6.907564680273370072e+01
3.879999999999999716e+01 6.867630218612183057e+01
3.920000000000000284e+01 6.828351673242221409e+01
3.960000000000000142e+01 6.789711073575305988e+01
4.000000000000000000e+01 6.751691138158535921e+01
4.040000000000000568e+01 6.714199139582721898e+01
4.079999999999999716e+01 6.677263160863330427e+01
4.120000000000000284e+01 6.641758017306820250e+01
4.160000000000000142e+01 6.606818784613639650e+01
4.200000000000000000e+01 6.572430298180434249e+01
4.239999999999999858e+01 6.538443840539969187e+01
4.280000000000000426e+01 6.504825884417948600e+01
4.320000000000000284e+01 6.471724457774381278e+01
4.360000000000000142e+01 6.439126215570061618e+01
4.400000000000000000e+01 6.407018293587361768e+01
4.439999999999999858e+01 6.375388286336100663e+01
4.480000000000000426e+01 6.344224226188739379e+01
4.520000000000000284e+01 6.312911458686152599e+01
4.560000000000000142e+01 6.281783322130296199e+01
4.600000000000000000e+01 6.251108021900351730e+01
4.639999999999999858e+01 6.220874474640877594e+01
4.680000000000000426e+01 6.191071975878919886e+01
4.720000000000000284e+01 6.161690183481890415e+01
4.760000000000000142e+01 6.132719101991089161e+01
4.800000000000000000e+01 6.104149067776575066e+01
4.840000000000000568e+01 6.048735125073646657e+01
4.880000000000000426e+01 6.025761015136649235e+01
4.920000000000000284e+01 5.997852779142789359e+01
4.960000000000000142e+01 5.970683256548881701e+01
5.000000000000000000e+01 5.943914127517491153e+01
5.040000000000000568e+01 5.917499813369876449e+01
5.080000000000000426e+01 5.891432429561027107e+01
5.120000000000000284e+01 5.865704335461084185e+01
5.160000000000000142e+01 5.840308124737667583e+01
5.200000000000000000e+01 5.815236616197496033e+01
5.240000000000000568e+01 5.790482845061609396e+01
5.280000000000000426e+01 5.766040054650135716e+01
5.320000000000000284e+01 5.741901688454109376e+01
5.360000000000000142e+01 5.718061382573178975e+01
5.400000000000000000e+01 5.694512958499495880e+01
5.440000000000000568e+01 5.671250416229131730e+01
5.480000000000000426e+01 5.648305724538224126e+01
5.520000000000000284e+01 5.625681569593143649e+01
5.560000000000000142e+01 5.603292018728556911e+01
5.600000000000000000e+01 5.580683311232554900e+01
5.640000000000000568e+01 5.558328106690132131e+01
5.680000000000000426e+01 5.536221674591898534e+01
5.720000000000000284e+01 5.514359408018739828e+01
5.760000000000000142e+01 5.492736819489732625e+01
5.800000000000000000e+01 5.471349536980403627e+01
5.840000000000000568e+01 5.468692297714125772e+01
5.880000000000000426e+01 5.448177612625611488e+01
5.920000000000000284e+01 5.427835168704233126e+01
5.960000000000000142e+01 5.407705630304921840e+01
6.000000000000000000e+01 5.387785291133985055e+01
6.040000000000000568e+01 5.368070535083438699e+01
6.080000000000000426e+01 5.348557833412924367e+01
6.120000000000000284e+01 5.329243742039052734e+01
6.160000000000000142e+01 5.308531417173684730e+01
6.200000000000000000e+01 5.289567803710275484e+01
6.240000000000000568e+01 5.270793602852803872e+01
6.280000000000000426e+01 5.252205667437010561e+01
6.320000000000000284e+01 5.233800923385037152e+01
6.360000000000000142e+01 5.215576367525813595e+01
6.400000000000000000e+01 5.197529065494720868e+01
6.440000000000000568e+01 5.179656149709199298e+01
6.480000000000001137e+01 5.161954817417024799e+01
6.520000000000000284e+01 5.144422328814173540e+01
6.559999999999999432e+01 5.127056005229385249e+01
6.600000000000000000e+01 5.109853227372596507e+01
6.640000000000000568e+01 5.092811433644629915e+01
6.680000000000001137e+01 5.085776052816022741e+01
6.720000000000000284e+01 5.069853413683952681e+01
6.759999999999999432e+01 5.054074976057996338e+01
6.800000000000000000e+01 5.038438548412059959e+01
6.840000000000000568e+01 5.022941986014238580e+01
6.880000000000001137e+01 5.007573332217431528e+01
6.920000000000000284e+01 4.992334254808407934e+01
6.959999999999999432e+01 4.980234132403528235e+01
7.000000000000000000e+01 4.965384090512605297e+01
7.040000000000000568e+01 4.950662689338628297e+01
7.080000000000001137e+01 4.936068058567803263e+01
7.120000000000000284e+01 4.921598366090518084e+01
7.159999999999999432e+01 4.907234908571631138e+01
7.200000000000000000e+01 4.892943186494473906e+01
7.240000000000000568e+01 4.878771733353105589e+01
7.280000000000001137e+01 4.864718851931668553e+01
7.320000000000000284e+01 4.850782878649722107e+01
7.359999999999999432e+01 4.836962182703562974e+01
7.400000000000000000e+01 4.823255165234334640e+01
7.440000000000000568e+01 4.809660258521994081e+01
7.479999999999999716e+01 4.796175925204100565e+01
7.520000000000000284e+01 4.782800657518611587e+01
7.560000000000000853e+01 4.769532976569744420e+01
7.600000000000000000e+01 4.756371431616133094e+01
7.640000000000000568e+01 4.744098839714709470e+01
7.679999999999999716e+01 4.731125253322068147e+01
7.720000000000000284e+01 4.718253999004048183e+01
7.760000000000000853e+01 4.705388541329746488e+01
7.800000000000000000e+01 4.692599002390500118e+01
7.840000000000000568e+01 4.679911700066662661e+01
7.879999999999999716e+01 4.667325252292804549e+01
7.920000000000000284e+01 4.654838303219850815e+01
7.960000000000000853e+01 4.642449522577693699e+01
8.000000000000000000e+01 4.630157605056636072e+01
8.040000000000000568e+01 4.617961269707045346e+01
8.079999999999999716e+01 4.605842861853798809e+01
8.120000000000000284e+01 4.593814983413428621e+01
8.160000000000000853e+01 4.581879048040460134e+01
8.200000000000000000e+01 4.570033866943798273e+01
8.240000000000000568e+01 4.558278272913439366e+01
8.279999999999999716e+01 4.546611119818052771e+01
8.320000000000000284e+01 4.535031282116779039e+01
8.360000000000000853e+01 4.523537654384795559e+01
8.400000000000000000e+01 4.512129150852173609e+01
8.440000000000000568e+01 4.500814173614355695e+01
8.479999999999999716e+01 4.489594280773612667e+01
8.520000000000000284e+01 4.478455978855343034e+01
8.560000000000000853e+01 4.467398263975934469e+01
8.600000000000000000e+01 4.456420149605331460e+01
8.640000000000000568e+01 4.445520666182108016e+01
8.680000000000001137e+01 4.434698860738926385e+01
8.720000000000000284e+01 4.423953796538054917e+01
8.760000000000000853e+01 4.413854937371350928e+01
8.800000000000000000e+01 4.403470650213403559e+01
8.840000000000000568e+01 4.393158439013006955e+01
8.880000000000001137e+01 4.382917458693741253e+01
8.920000000000000284e+01 4.372746878070388021e+01
8.960000000000000853e+01 4.362645879556311712e+01
9.000000000000000000e+01 4.352613658878350122e+01
9.040000000000000568e+01 4.342649424798960212e+01
9.080000000000001137e+01 4.332752398845427422e+01
9.120000000000000284e+01 4.322921815045917526e+01
9.160000000000000853e+01 4.313156919672165657e+01
9.200000000000000000e+01 4.303456970988608532e+01
9.240000000000000568e+01 4.293821239007768753e+01
9.280000000000001137e+01 4.283405245532341610e+01
9.320000000000000284e+01 4.273466619752140616e+01
9.360000000000000853e+01 4.264081551407707593e+01
9.400000000000000000e+01 4.254757580279419216e+01
9.440000000000000568e+01 4.245494033803284140e+01
9.480000000000001137e+01 4.236290249807171904e+01
9.520000000000000284e+01 4.227145576304869223e+01
9.560000000000000853e+01 4.218059371295095872e+01
9.600000000000000000e+01 4.209031002565367174e+01
9.640000000000000568e+01 4.200059847500520505e+01
9.680000000000001137e+01 4.191145292895827623e+01
9.720000000000000284e+01 4.182286734774518777e+01
9.760000000000000853e+01 4.173483578209612688e+01
9.800000000000000000e+01 4.164681340237030582e+01
9.840000000000000568e+01 4.155925299001319217e+01
9.880000000000001137e+01 4.147222436289693093e+01
9.920000000000000284e+01 4.138572210428053921e+01
9.960000000000000853e+01 4.129974087480401579e+01
1.000000000000000000e+02 4.121427541106506709e+01
1.004000000000000057e+02 4.112932052422772244e+01
1.008000000000000114e+02 4.104487109866221317e+01
1.012000000000000028e+02 4.096092209061515632e+01
1.016000000000000085e+02 4.087732644228309198e+01
1.020000000000000000e+02 4.079416838612421969e+01
1.024000000000000057e+02 4.071149745121218899e+01
1.028000000000000114e+02 4.062930885165931727e+01
1.032000000000000028e+02 4.054759786750607020e+01
1.036000000000000085e+02 4.046630639442707889e+01
1.040000000000000000e+02 4.038502042513862023e+01
1.044000000000000057e+02 4.030420272835975481e+01
1.048000000000000114e+02 4.022384878172931622e+01
1.052000000000000028e+02 4.014395412410440400e+01
1.056000000000000085e+02 4.006449194435194272e+01
1.060000000000000000e+02 3.998521549965771271e+01
1.064000000000000057e+02 3.990638748136798597e+01
1.068000000000000114e+02 3.982800363769024443e+01
1.072000000000000028e+02 3.975005977332850193e+01
1.076000000000000085e+02 3.967255174851727872e+01
1.080000000000000000e+02 3.959547547807590462e+01
1.084000000000000057e+02 3.951882693048241890e+01
1.088000000000000114e+02 3.944260212696676149e+01
1.092000000000000028e+02 3.936679714062265845e+01
1.096000000000000085e+02 3.929140809553777558e+01
1.100000000000000000e+02 3.921643116594178480e+01
1.104000000000000057e+02 3.914186257537176772e+01
1.108000000000000114e+02 3.907057796177687692e+01
1.112000000000000028e+02 3.900591361377067301e+01
1.116000000000000085e+02 3.893400933575283318e+01
1.120000000000000000e+02 3.886249057142523355e+01
1.124000000000000057e+02 3.879135384051954816e+01
1.128000000000000114e+02 3.872059570693393482e+01
1.132000000000000028e+02 3.865021277801054111e+01
1.136000000000000085e+02 3.858020170382750536e+01
1.140000000000000000e+02 3.851055917650508320e+01
1.144000000000000057e+02 3.844128192952550904e+01
1.148000000000000114e+02 3.837236673706638612e+01
1.152000000000000028e+02 3.830381041334720038e+01
1.156000000000000085e+02 3.823560981198868092e+01
1.160000000000000000e+02 3.816776182538475126e+01
1.164000000000000057e+02 3.810026338408652435e+01
1.168000000000000114e+02 3.803311145619868228e+01
1.172000000000000028e+02 3.796630304678708967e+01
1.176000000000000085e+02 3.789983519729814532e+01
1.180000000000000000e+02 3.783370498498921108e+01
1.184000000000000057e+02 3.776790952236990506e+01
1.188000000000000114e+02 3.770244595665416654e+01
1.192000000000000028e+02 3.763731146922263804e+01
1.196000000000000085e+02 3.757250327509529342e+01
1.200000000000000000e+02 3.751469792297677230e+01
1.204000000000000057e+02 3.745077179976867399e+01
1.208000000000000114e+02 3.738716006180676743e+01
1.212000000000000028e+02 3.732386191488928517e+01
1.216000000000000085e+02 3.726087475552527195e+01
1.220000000000000000e+02 3.719819601060015657e+01
1.224000000000000057e+02 3.713582313691885872e+01
1.228000000000000114e+02 3.708752842476439326e+01
1.232000000000000028e+02 3.702628306804049174e+01
1.236000000000000085e+02 3.696533241678191928e+01
1.240000000000000000e+02 3.690467408090717782e+01
1.244000000000000057e+02 3.684418731252627310e+01
1.248000000000000114e+02 3.678378009750531419e+01
1.252000000000000028e+02 3.672366285775034100e+01
1.256000000000000085e+02 3.666383323603461974e+01
1.260000000000000000e+02 3.660428890212060082e+01
1.264000000000000057e+02 3.654502755236225653e+01
1.268000000000000114e+02 3.648604690931465200e+01
1.272000000000000028e+02 3.642734472135049373e+01
1.276000000000000085e+02 3.636891876228345666e+01
1.280000000000000000e+02 3.631076683099833247e+01
1.284000000000000057e+02 3.625288675108764380e+01
1.288000000000000114e+02 3.619527637049471736e+01
1.291999999999999886e+02 3.613793356116307365e+01
1.296000000000000227e+02 3.608085621869188486e+01
1.300000000000000000e+02 3.602404226199764281e+01
1.304000000000000057e+02 3.596549720775679759e+01
1.308000000000000114e+02 3.590942769472420792e+01
1.311999999999999886e+02 3.585361461000486827e+01
1.316000000000000227e+02 3.579805596828253300e+01
1.320000000000000000e+02 3.574274980589859751e+01
1.324000000000000057e+02 3.568769418054782250e+01
1.328000000000000114e+02 3.563288717097952940e+01
1.331999999999999886e+02 3.557832687670375549e+01
1.336000000000000227e+02 3.552401141770238979e+01
1.340000000000000000e+02 3.546993893414534682e+01
1.344000000000000057e+02 3.541604475743896785e+01
1.348000000000000114e+02 3.536238771713949802e+01
1.351999999999999886e+02 3.530896846834419023e+01
1.356000000000000227e+02 3.525578522744729071e+01
1.360000000000000000e+02 3.520283622969662929e+01
1.364000000000000057e+02 3.515011972893688608e+01
1.368000000000000114e+02 3.509764621464022838e+01
1.371999999999999886e+02 3.504586931306978670e+01
1.376000000000000227e+02 3.499431695784466001e+01
1.380000000000000000e+02 3.494298750360475481e+01
1.384000000000000057e+02 3.489187932195081032e+01
1.388000000000000114e+02 3.484099080121949044e+01
1.392000000000000171e+02 3.479032034626225567e+01
1.395999999999999943e+02 3.473986637822755341e+01
1.400000000000000000e+02 3.468962733434678825e+01
1.404000000000000057e+02 3.463951859803125899e+01
1.408000000000000114e+02 3.458956502565866487e+01
1.412000000000000171e+02 3.453982247750901990e+01
1.415999999999999943e+02 3.449020801799296976e+01
1.420000000000000000e+02 3.444075600111180080e+01
1.424000000000000057e+02 3.439151127584346312e+01
1.428000000000000114e+02 3.434247237426884425e+01
1.432000000000000171e+02 3.429363784309457230e+01
1.435999999999999943e+02 3.424500624346551092e+01
1.440000000000000000e+02 3.419657615078031654e+01
1.444000000000000057e+02 3.414834615450971711e+01
1.448000000000000114e+02 3.410031485801776086e+01
1.452000000000000171e+02 3.405248087838568694e+01
1.455999999999999943e+02 3.400484284623868803e+01
1.460000000000000000e+02 3.395739940557520242e+01
1.464000000000000057e+02 3.391014921359886358e+01
1.468000000000000114e+02 3.386309094055310709e+01
1.472000000000000171e+02 3.381622326955822899e+01
1.475999999999999943e+02 3.376954489645092394e+01
1.480000000000000000e+02 3.372305452962629602e+01
1.484000000000000057e+02 3.367675088988224275e+01
1.488000000000000114e+02 3.363063271026625500e+01
1.492000000000000171e+02 3.358469873592444088e+01
1.495999999999999943e+02 3.353872042780049867e+01
1.500000000000000000e+02 3.349254855436213063e+01
