1.000000000000000000e+01 2.188752876965261862e+02
1.040000000000000036e+01 2.128272638898488935e+02
1.080000000000000071e+01 2.078666967982048277e+02
1.119999999999999929e+01 2.026601699156894938e+02
1.159999999999999964e+01 1.994729643903691567e+02
1.200000000000000000e+01 1.932885338152592851e+02
1.240000000000000036e+01 1.876517672177677696e+02
1.280000000000000071e+01 1.824820155880375410e+02
1.319999999999999929e+01 1.777151596488658924e+02
1.359999999999999964e+01 1.732992885435911887e+02
1.400000000000000000e+01 1.691917440599796976e+02
1.440000000000000036e+01 1.653570283736555666e+02
1.480000000000000071e+01 1.617652817921167809e+02
1.519999999999999929e+01 1.584167222202543712e+02
1.560000000000000142e+01 1.560829230750169074e+02
1.600000000000000000e+01 1.540110344759573593e+02
1.639999999999999858e+01 1.520511597616314248e+02
1.680000000000000071e+01 1.502165564406750775e+02
1.719999999999999929e+01 1.485238872156159857e+02
1.760000000000000142e+01 1.469102639857280224e+02
1.800000000000000000e+01 1.453694513164096520e+02
1.839999999999999858e+01 1.438958965176701099e+02
1.880000000000000071e+01 1.392368049484693984e+02
1.920000000000000284e+01 1.287838419913857706e+02
1.960000000000000142e+01 1.269872565024428752e+02
2.000000000000000000e+01 1.252649617002567624e+02
2.039999999999999858e+01 1.224758610296610470e+02
2.080000000000000071e+01 1.209012864083645269e+02
2.120000000000000284e+01 1.193873663549682647e+02
2.160000000000000142e+01 1.179302390022890279e+02
2.200000000000000000e+01 1.165263813982914627e+02
2.239999999999999858e+01 1.151725718691166378e+02
2.280000000000000071e+01 1.138658574120543818e+02
2.320000000000000284e+01 1.115099318160612256e+02
2.360000000000000142e+01 1.101365485764276002e+02
2.400000000000000000e+01 1.088063122508546314e+02
2.439999999999999858e+01 1.075169807370074011e+02
2.480000000000000071e+01 1.062664743199116515e+02
2.520000000000000284e+01 1.050528606497451136e+02
2.560000000000000142e+01 1.038690451564077080e+02
2.600000000000000000e+01 1.027076395947449328e+02
2.640000000000000213e+01 1.015783243288200026e+02
2.680000000000000071e+01 1.004796411183957474e+02
2.719999999999999929e+01 9.941022376227731172e+01
2.760000000000000142e+01 9.836879069702330014e+01
2.800000000000000000e+01 9.735413831541777085e+01
2.840000000000000213e+01 9.636513492293799743e+01
2.880000000000000071e+01 9.540071526103891131e+01
2.920000000000000284e+01 9.445987553512892987e+01
2.960000000000000142e+01 9.353718453688598800e+01
3.000000000000000000e+01 9.262389429868440516e+01
3.040000000000000213e+01 9.173208698352875956e+01
3.080000000000000071e+01 9.086093442565396572e+01
3.120000000000000284e+01 9.000965275254426956e+01
3.160000000000000142e+01 8.917749936689565970e+01
3.200000000000000000e+01 9.162403924535500721e+01
3.240000000000000568e+01 9.092361735485732765e+01
3.279999999999999716e+01 9.023778596688327980e+01
3.320000000000000284e+01 8.981420998008297829e+01
3.360000000000000142e+01 8.917127234136636105e+01
3.400000000000000000e+01 8.854101856613121413e+01
3.440000000000000568e+01 8.792303107457250633e+01
3.479999999999999716e+01 8.731691155543980187e+01
3.520000000000000284e+01 8.639131561527396741e+01
3.560000000000000142e+01 8.582649036492543360e+01
3.600000000000000000e+01 8.527197827589937162e+01
3.640000000000000568e+01 8.472746544514727418e+01
3.679999999999999716e+01 8.419265134634584058e+01
3.720000000000000284e+01 8.366724809901478466e+01
3.760000000000000142e+01 8.315097978618196350e+01
3.800000000000000000e+01 8.264358181681113535e+01
3.840000000000000568e+01 8.214480032954745070e+01
3.879999999999999716e+01 8.189352858677239055e+01
3.920000000000000284e+01 8.142173955958271847e+01
3.960000000000000142e+01 8.095760699672447913e+01
4.000000000000000000e+01 8.050092395422896629e+01
4.040000000000000568e+01 8.005073030771811204e+01
4.079999999999999716e+01 7.960799569321245883e+01
4.120000000000000284e+01 7.918497835924827655e+01
4.160000000000000142e+01 7.876875039068553974e+01
4.200000000000000000e+01 7.835912857429187284e+01
4.239999999999999858e+01 7.795593658176419183e+01
4.280000000000000426e+01 7.755900464026606755e+01
4.320000000000000284e+01 7.716816922203156537e+01
4.360000000000000142e+01 7.678327275174413558e+01
4.400000000000000000e+01 7.640416333050107767e+01
4.439999999999999858e+01 7.603069447526377189e+01
4.480000000000000426e+01 7.566272487277748837e+01
4.520000000000000284e+01 7.529408709723408322e+01
4.560000000000000142e+01 7.492809437271154138e+01
4.600000000000000000e+01 7.456740928463604234e+01
4.639999999999999858e+01 7.421190219164091673e+01
4.680000000000000426e+01 7.386144787328822758e+01
4.720000000000000284e+01 7.351592533767527016e+01
4.760000000000000142e+01 7.317521763918504973e+01
4.800000000000000000e+01 7.283884289102140031e+01
4.840000000000000568e+01 7.209737322364017587e+01
4.880000000000000426e+01 7.176034769657300671e+01
4.920000000000000284e+01 7.142796802054984084e+01
4.960000000000000142e+01 7.110372214802389124e+01
5.000000000000000000e+01 7.078420946832403615e+01
5.040000000000000568e+01 7.046895734169187620e+01
5.080000000000000426e+01 7.015787060634960426e+01
5.120000000000000284e+01 6.985085705473538553e+01
5.160000000000000142e+01 6.954782731679173935e+01
5.200000000000000000e+01 6.924869474883173837e+01
5.240000000000000568e+01 6.895337532767098310e+01
5.280000000000000426e+01 6.866178754973292087e+01
5.320000000000000284e+01 6.837385233485493075e+01
5.360000000000000142e+01 6.808949293453753171e+01
5.400000000000000000e+01 6.780863484439788635e+01
5.440000000000000568e+01 6.753120572060085181e+01
5.480000000000000426e+01 6.725713530005675977e+01
5.520000000000000284e+01 6.698635532418678906e+01
5.560000000000000142e+01 6.671831172508430541e+01
5.600000000000000000e+01 6.644621311367117755e+01
5.640000000000000568e+01 6.617716400112165331e+01
5.680000000000000426e+01 6.591110765696247142e+01
5.720000000000000284e+01 6.564798882772348065e+01
5.760000000000000142e+01 6.538775368747769789e+01
5.800000000000000000e+01 6.513034979040487826e+01
5.840000000000000568e+01 6.506071600139088673e+01
5.880000000000000426e+01 6.481296913363860313e+01
5.920000000000000284e+01 6.454682618354837587e+01
5.960000000000000142e+01 6.430740001672428718e+01
6.000000000000000000e+01 6.407045213798619443e+01
6.040000000000000568e+01 6.383593997246956064e+01
6.080000000000000426e+01 6.360382196737955951e+01
6.120000000000000284e+01 6.337405756046737793e+01
6.160000000000000142e+01 6.314660714969367916e+01
6.200000000000000000e+01 6.292143206402644751e+01
6.240000000000000568e+01 6.269849453532305006e+01
6.280000000000000426e+01 6.247775767124932145e+01
6.320000000000000284e+01 6.225918542919007592e+01
6.360000000000000142e+01 6.204274259110890455e+01
6.400000000000000000e+01 6.182839473931569785e+01
6.440000000000000568e+01 6.161610823310401486e+01
6.480000000000001137e+01 6.140585018622088143e+01
6.520000000000000284e+01 6.119758844513423668e+01
6.559999999999999432e+01 6.099129156806479557e+01
6.600000000000000000e+01 6.078692880475040283e+01
6.640000000000000568e+01 6.058447007691300712e+01
6.680000000000001137e+01 6.053160497405549023e+01
6.720000000000000284e+01 6.034493640373181478e+01
6.759999999999999432e+01 6.015994406155925844e+01
6.800000000000000000e+01 5.997660270104104541e+01
6.840000000000000568e+01 5.979488761038295053e+01
6.880000000000001137e+01 5.961477459788698496e+01
6.920000000000000284e+01 5.943623997783332413e+01
6.959999999999999432e+01 5.928931006768112866e+01
7.000000000000000000e+01 5.911509317552358311e+01
7.040000000000000568e+01 5.894178774250705288e+01
7.080000000000001137e+01 5.876888228963366601e+01
7.120000000000000284e+01 5.859745195601939827e+01
7.159999999999999432e+01 5.842730656478787665e+01
7.200000000000000000e+01 5.825809803882722804e+01
7.240000000000000568e+01 5.809030869115210294e+01
7.280000000000001137e+01 5.792391858618542955e+01
7.320000000000000284e+01 5.775890818174659813e+01
7.359999999999999432e+01 5.759525831904457505e+01
7.400000000000000000e+01 5.743295021298240499e+01
7.440000000000000568e+01 5.727196544276203127e+01
7.479999999999999716e+01 5.711228594277761061e+01
7.520000000000000284e+01 5.695389399378802864e+01
7.560000000000000853e+01 5.679677221435726153e+01
7.600000000000000000e+01 5.664090355255411424e+01
7.640000000000000568e+01 5.648627127790111047e+01
7.679999999999999716e+01 5.633285897356431349e+01
7.720000000000000284e+01 5.618065052877531684e+01
7.760000000000000853e+01 5.602820240041481270e+01
7.800000000000000000e+01 5.587657082281345566e+01
7.840000000000000568e+01 5.572615488384142424e+01
7.879999999999999716e+01 5.557693809091227877e+01
7.920000000000000284e+01 5.542890426538043869e+01
7.960000000000000853e+01 5.528203753488796224e+01
8.000000000000000000e+01 5.513632232593791116e+01
8.040000000000000568e+01 5.499174335668638491e+01
8.079999999999999716e+01 5.484812165491853619e+01
8.120000000000000284e+01 5.470558086008550447e+01
8.160000000000000853e+01 5.456413277366681314e+01
8.200000000000000000e+01 5.442376321626505842e+01
8.240000000000000568e+01 5.428445826683498154e+01
8.279999999999999716e+01 5.414620425665108172e+01
8.320000000000000284e+01 5.400898776344627095e+01
8.360000000000000853e+01 5.387279560571625581e+01
8.400000000000000000e+01 5.377048908947297434e+01
8.440000000000000568e+01 5.363789658742020805e+01
8.479999999999999716e+01 5.350627224182856168e+01
8.520000000000000284e+01 5.337560406790590406e+01
8.560000000000000853e+01 5.324588028947633234e+01
8.600000000000000000e+01 5.311708933432094426e+01
8.640000000000000568e+01 5.298921982964541399e+01
8.680000000000001137e+01 5.286226059767004415e+01
8.720000000000000284e+01 5.273620065133835766e+01
8.760000000000000853e+01 5.262070984973511401e+01
8.800000000000000000e+01 5.249895399038476995e+01
8.840000000000000568e+01 5.237804198194625371e+01
8.880000000000001137e+01 5.225796393574052701e+01
8.920000000000000284e+01 5.213871012556059981e+01
8.960000000000000853e+01 5.202027098425285345e+01
9.000000000000000000e+01 5.190263710038594525e+01
9.040000000000000568e+01 5.178579921500434580e+01
9.080000000000001137e+01 5.166974821846419985e+01
9.120000000000000284e+01 5.155447514734910897e+01
9.160000000000000853e+01 5.143997118146312175e+01
9.200000000000000000e+01 5.132622764089916245e+01
9.240000000000000568e+01 5.121323598318017645e+01
9.280000000000001137e+01 5.110098780047124478e+01
9.320000000000000284e+01 5.098509940958032871e+01
9.360000000000000853e+01 5.087485195448137176e+01
9.400000000000000000e+01 5.076531968877051781e+01
9.440000000000000568e+01 5.065649476005030039e+01
9.480000000000001137e+01 5.054836943695210749e+01
9.520000000000000284e+01 5.044093610674505612e+01
9.560000000000000853e+01 5.033418727300226436e+01
9.600000000000000000e+01 5.022811555332305034e+01
9.640000000000000568e+01 5.012271367710920345e+01
9.680000000000001137e+01 5.001797448339435448e+01
9.720000000000000284e+01 4.991389091872420636e+01
9.760000000000000853e+01 4.981018134504779482e+01
9.800000000000000000e+01 4.970623796686115270e+01
9.840000000000000568e+01 4.960281251888480369e+01
9.880000000000001137e+01 4.950001156765767973e+01
9.920000000000000284e+01 4.939782880065317983e+01
9.960000000000000853e+01 4.929625799478561987e+01
1.000000000000000000e+02 4.919529301477833627e+01
1.004000000000000057e+02 4.909492781156822616e+01
1.008000000000000114e+02 4.899515642074584321e+01
1.012000000000000028e+02 4.889597296102999024e+01
1.016000000000000085e+02 4.879737163277600587e+01
1.020000000000000000e+02 4.869934671651672886e+01
1.024000000000000057e+02 4.860189257153544418e+01
1.028000000000000114e+02 4.850500363446988672e+01
1.032000000000000028e+02 4.840867441794662795e+01
1.036000000000000085e+02 4.831284606011993787e+01
1.040000000000000000e+02 4.821710380591560607e+01
1.044000000000000057e+02 4.812190968583182382e+01
1.048000000000000114e+02 4.802725844869891603e+01
1.052000000000000028e+02 4.793314491382398757e+01
1.056000000000000085e+02 4.783954155963147059e+01
1.060000000000000000e+02 4.774620094182439800e+01
1.064000000000000057e+02 4.765338505908091804e+01
1.068000000000000114e+02 4.756108897561308879e+01
1.072000000000000028e+02 4.746930782066282006e+01
1.076000000000000085e+02 4.737803678739927449e+01
1.080000000000000000e+02 4.728727113183937547e+01
1.084000000000000057e+02 4.719700617179029933e+01
1.088000000000000114e+02 4.710723728581405112e+01
1.092000000000000028e+02 4.701795991221303694e+01
1.096000000000000085e+02 4.692916954803645524e+01
1.100000000000000000e+02 4.684086174810688874e+01
1.104000000000000057e+02 4.675303212406662112e+01
1.108000000000000114e+02 4.666567634344323778e+01
1.112000000000000028e+02 4.659209925815987674e+01
1.116000000000000085e+02 4.650753298390022650e+01
1.120000000000000000e+02 4.642341688883720252e+01
1.124000000000000057e+02 4.633974693949561185e+01
1.128000000000000114e+02 4.625651915322035279e+01
1.132000000000000028e+02 4.618444026980345996e+01
1.136000000000000085e+02 4.610233732439272103e+01
1.140000000000000000e+02 4.602066301617485067e+01
1.144000000000000057e+02 4.593941357745406862e+01
1.148000000000000114e+02 4.585858528711370496e+01
1.152000000000000028e+02 4.577817446987332772e+01
1.156000000000000085e+02 4.569817749556043651e+01
1.160000000000000000e+02 4.561859077839623922e+01
1.164000000000000057e+02 4.553941077629528422e+01
1.168000000000000114e+02 4.546063399017877771e+01
1.172000000000000028e+02 4.538225696330096071e+01
1.176000000000000085e+02 4.530427628058840384e+01
1.180000000000000000e+02 4.522668856799209891e+01
1.184000000000000057e+02 4.514949049185172214e+01
1.188000000000000114e+02 4.507267875827203341e+01
1.192000000000000028e+02 4.499625011251112028e+01
1.196000000000000085e+02 4.492020133838003204e+01
1.200000000000000000e+02 4.485120855821675434e+01
1.204000000000000057e+02 4.477620906723124961e+01
1.208000000000000114e+02 4.470157821101153672e+01
1.212000000000000028e+02 4.462731293903239305e+01
1.216000000000000085e+02 4.455341023626233721e+01
1.220000000000000000e+02 4.447986712263103470e+01
1.224000000000000057e+02 4.440668065250631003e+01
1.228000000000000114e+02 4.434762271818789259e+01
1.232000000000000028e+02 4.427566411998616758e+01
1.236000000000000085e+02 4.420404981866991534e+01
1.240000000000000000e+02 4.413277703915746031e+01
1.244000000000000057e+02 4.406166546023585795e+01
1.248000000000000114e+02 4.399057785204875870e+01
1.252000000000000028e+02 4.391983062966026097e+01
1.256000000000000085e+02 4.384942103043159278e+01
1.260000000000000000e+02 4.377934632333730036e+01
1.264000000000000057e+02 4.370960380849960103e+01
1.268000000000000114e+02 4.364019081673124134e+01
1.272000000000000028e+02 4.357110470908646960e+01
1.276000000000000085e+02 4.350234287641996644e+01
1.280000000000000000e+02 4.343390273895379039e+01
1.284000000000000057e+02 4.336578174585179823e+01
1.288000000000000114e+02 4.329796946001490454e+01
1.291999999999999886e+02 4.323045872103141107e+01
1.296000000000000227e+02 4.316325958641927230e+01
1.300000000000000000e+02 4.309636961920831055e+01
1.304000000000000057e+02 4.302978640930467691e+01
1.308000000000000114e+02 4.296350757310926838e+01
1.311999999999999886e+02 4.289753075314280295e+01
1.316000000000000227e+02 4.283185361767727528e+01
1.320000000000000000e+02 4.276647386037392096e+01
1.324000000000000057e+02 4.270138919992713511e+01
1.328000000000000114e+02 4.263659737971471486e+01
1.331999999999999886e+02 4.257209616745403480e+01
1.336000000000000227e+02 4.250788335486384995e+01
1.340000000000000000e+02 4.244395675733220230e+01
1.344000000000000057e+02 4.238025138491710919e+01
1.348000000000000114e+02 4.231682574921336482e+01
1.351999999999999886e+02 4.225368019069750147e+01
1.356000000000000227e+02 4.219081261443862729e+01
1.360000000000000000e+02 4.212822094761045122e+01
1.364000000000000057e+02 4.206590313919078028e+01
1.368000000000000114e+02 4.200387548559051965e+01
1.371999999999999886e+02 4.194281898248067364e+01
1.376000000000000227e+02 4.188202608072020894e+01
1.380000000000000000e+02 4.182149485693234681e+01
1.384000000000000057e+02 4.176122340749231654e+01
1.388000000000000114e+02 4.170120984826652233e+01
1.392000000000000171e+02 4.164145231435590944e+01
1.395999999999999943e+02 4.158194895984341599e+01
1.400000000000000000e+02 4.152269795754548198e+01
1.404000000000000057e+02 4.146369749876760125e+01
1.408000000000000114e+02 4.140494579306373879e+01
1.412000000000000171e+02 4.134644106799943586e+01
1.415999999999999943e+02 4.128810013974815973e+01
1.420000000000000000e+02 4.122995711649193140e+01
1.424000000000000057e+02 4.117205660377705811e+01
1.428000000000000114e+02 4.111439689261069930e+01
1.432000000000000171e+02 4.105697629095423196e+01
1.435999999999999943e+02 4.099979312350694727e+01
1.440000000000000000e+02 4.094284573149309381e+01
1.444000000000000057e+02 4.088613247245211824e+01
1.448000000000000114e+02 4.082965172003235921e+01
1.452000000000000171e+02 4.077340186378771847e+01
1.455999999999999943e+02 4.071738130897753649e+01
1.460000000000000000e+02 4.066158847636963714e+01
1.464000000000000057e+02 4.060504428432985691e+01
1.468000000000000114e+02 4.054977045121739820e+01
1.472000000000000171e+02 4.049471953338621688e+01
1.475999999999999943e+02 4.043989001137725836e+01
1.480000000000000000e+02 4.038528038031981282e+01
1.484000000000000057e+02 4.033088914975125050e+01
1.488000000000000114e+02 4.027671484343947839e+01
1.492000000000000171e+02 4.022275599920804723e+01
1.495999999999999943e+02 4.016867022453547520e+01
1.500000000000000000e+02 4.011440271028568105e+01
