1.000000000000000000e+01 1.139937749746390523e+02
1.040000000000000036e+01 1.111972519157804271e+02
1.080000000000000071e+01 1.091915916358967422e+02
1.119999999999999929e+01 1.069387537273665032e+02
1.159999999999999964e+01 1.060404050220766692e+02
1.200000000000000000e+01 1.025854799435375213e+02
1.240000000000000036e+01 9.946906603230297605e+01
1.280000000000000071e+01 9.696375144467791074e+01
1.319999999999999929e+01 9.475317453027348336e+01
1.359999999999999964e+01 9.272673806198270086e+01
1.400000000000000000e+01 9.085944873863961391e+01
1.440000000000000036e+01 8.913092371627203647e+01
1.480000000000000071e+01 8.752432736075358832e+01
1.519999999999999929e+01 8.602559961931254406e+01
1.560000000000000142e+01 8.468268702857808705e+01
1.600000000000000000e+01 8.006076245890936605e+01
1.639999999999999858e+01 7.873281251189249019e+01
1.680000000000000071e+01 7.747675519089716545e+01
1.719999999999999929e+01 7.628620538616550562e+01
1.760000000000000142e+01 7.515555599461137604e+01
1.800000000000000000e+01 7.407985830080642131e+01
1.839999999999999858e+01 7.305472443835171248e+01
1.880000000000000071e+01 6.882841742435059018e+01
1.920000000000000284e+01 6.774976524056521043e+01
1.960000000000000142e+01 6.666682755452330866e+01
2.000000000000000000e+01 6.561822643663589361e+01
2.039999999999999858e+01 6.461236416268170046e+01
2.080000000000000071e+01 6.254209412817701974e+01
2.120000000000000284e+01 6.162556406987570767e+01
2.160000000000000142e+01 6.074411832293525038e+01
2.200000000000000000e+01 5.989552934264265360e+01
2.239999999999999858e+01 5.907776582239358731e+01
2.280000000000000071e+01 5.828897073291273045e+01
2.320000000000000284e+01 5.752744232319565043e+01
2.360000000000000142e+01 5.679161761833987043e+01
2.400000000000000000e+01 5.608005803224739338e+01
2.439999999999999858e+01 5.539143677955644307e+01
2.480000000000000071e+01 5.472452782467740207e+01
2.520000000000000284e+01 5.407819614920832407e+01
2.560000000000000142e+01 5.345339290868699322e+01
2.600000000000000000e+01 5.284631016638878265e+01
2.640000000000000213e+01 5.224004354238070391e+01
2.680000000000000071e+01 5.269151476811499890e+01
2.719999999999999929e+01 5.216460581243791239e+01
2.760000000000000142e+01 5.165181586725762486e+01
2.800000000000000000e+01 5.115251565911752607e+01
2.840000000000000213e+01 5.066611492756923951e+01
2.880000000000000071e+01 5.019205934625425414e+01
2.920000000000000284e+01 4.972982773743041207e+01
2.960000000000000142e+01 4.927892954731992603e+01
3.000000000000000000e+01 4.883890255378284451e+01
3.040000000000000213e+01 4.840931078136613053e+01
3.080000000000000071e+01 4.798974260182848184e+01
3.120000000000000284e+01 4.757980900087598997e+01
3.160000000000000142e+01 4.717914199412352616e+01
3.200000000000000000e+01 4.678739317727438873e+01
3.240000000000000568e+01 4.640423239723112658e+01
3.279999999999999716e+01 4.602934653235019624e+01
3.320000000000000284e+01 4.566243837136262584e+01
3.360000000000000142e+01 4.553856900082113413e+01
3.400000000000000000e+01 4.520068734480695127e+01
3.440000000000000568e+01 4.487066848525040541e+01
3.479999999999999716e+01 4.454986089105499047e+01
3.520000000000000284e+01 4.390453385351509041e+01
3.560000000000000142e+01 4.361508259408621768e+01
3.600000000000000000e+01 4.333119154480854718e+01
3.640000000000000568e+01 4.305268294424969611e+01
3.679999999999999716e+01 4.277938689804715011e+01
3.720000000000000284e+01 4.251114093711299091e+01
3.760000000000000142e+01 4.224778960576506392e+01
3.800000000000000000e+01 4.198918407741921754e+01
3.840000000000000568e+01 4.173518179569057907e+01
3.879999999999999716e+01 4.148564613894345143e+01
3.920000000000000284e+01 4.124044610650133791e+01
3.960000000000000142e+01 4.099945602488478613e+01
4.000000000000000000e+01 4.076255527258425104e+01
4.040000000000000568e+01 4.052962802200269010e+01
4.079999999999999716e+01 4.030056299731695901e+01
4.120000000000000284e+01 4.007378272885444659e+01
4.160000000000000142e+01 3.967367950391861342e+01
4.200000000000000000e+01 3.945346686591954466e+01
4.239999999999999858e+01 3.923681281766745599e+01
4.280000000000000426e+01 3.902362180307126494e+01
4.320000000000000284e+01 3.881380181828545517e+01
4.360000000000000142e+01 3.860726424397512346e+01
4.400000000000000000e+01 3.840392368715038884e+01
4.439999999999999858e+01 3.820369783193173419e+01
4.480000000000000426e+01 3.800650729865673583e+01
4.520000000000000284e+01 3.780624446099631086e+01
4.560000000000000142e+01 3.760628030248019371e+01
4.600000000000000000e+01 3.740933321701670167e+01
4.639999999999999858e+01 3.721532750509510379e+01
4.680000000000000426e+01 3.702419010142962463e+01
4.720000000000000284e+01 3.683585045833769556e+01
4.760000000000000142e+01 3.665024043536463694e+01
4.800000000000000000e+01 3.646729419476318412e+01
4.840000000000000568e+01 3.628694810246433633e+01
4.880000000000000426e+01 3.610902496597078937e+01
4.920000000000000284e+01 3.592818620144505815e+01
4.960000000000000142e+01 3.574976124356170004e+01
5.000000000000000000e+01 3.557369635384677053e+01
5.040000000000000568e+01 3.539826183688451522e+01
5.080000000000000426e+01 3.523042212122449257e+01
5.120000000000000284e+01 3.506472412982337516e+01
5.160000000000000142e+01 3.490112223220595666e+01
5.200000000000000000e+01 3.473957215772909990e+01
5.240000000000000568e+01 3.458003094358257812e+01
5.280000000000000426e+01 3.442245688521250457e+01
5.320000000000000284e+01 3.426680948903462820e+01
5.360000000000000142e+01 3.411304942731288037e+01
5.400000000000000000e+01 3.396113849508670057e+01
5.440000000000000568e+01 3.381103956903726981e+01
5.480000000000000426e+01 3.366271656819027669e+01
5.520000000000000284e+01 3.351613441635846868e+01
5.560000000000000142e+01 3.337125900623331631e+01
5.600000000000000000e+01 3.322805716504063867e+01
5.640000000000000568e+01 3.308649662167995587e+01
5.680000000000000426e+01 3.294654597527196671e+01
5.720000000000000284e+01 3.280817466504335300e+01
5.760000000000000142e+01 3.267135294148168612e+01
5.800000000000000000e+01 3.253605183869754569e+01
5.840000000000000568e+01 3.266809404991433041e+01
5.880000000000000426e+01 3.254931841846138951e+01
5.920000000000000284e+01 3.243178891491886162e+01
5.960000000000000142e+01 3.231421519679340548e+01
6.000000000000000000e+01 3.219757921002041456e+01
6.040000000000000568e+01 3.208214980981620101e+01
6.080000000000000426e+01 3.196790606732920992e+01
6.120000000000000284e+01 3.185482756248114811e+01
6.160000000000000142e+01 3.174289436807854514e+01
6.200000000000000000e+01 3.163208703452944803e+01
6.240000000000000568e+01 3.152238657513792219e+01
6.280000000000000426e+01 3.141377445195079332e+01
6.320000000000000284e+01 3.130623256213208094e+01
6.360000000000000142e+01 3.119974322484202389e+01
6.400000000000000000e+01 3.109428916859866732e+01
6.440000000000000568e+01 3.098985351910107866e+01
6.480000000000001137e+01 3.088641978749436134e+01
6.520000000000000284e+01 3.078397185905753020e+01
6.559999999999999432e+01 3.068249398229636427e+01
6.600000000000000000e+01 3.058197075842414847e+01
6.640000000000000568e+01 3.048238713121396160e+01
6.680000000000001137e+01 3.038372837720713449e+01
6.720000000000000284e+01 3.028598009626314536e+01
6.759999999999999432e+01 3.018912820243688344e+01
6.800000000000000000e+01 3.009172914870012860e+01
6.840000000000000568e+01 2.999516015029833937e+01
6.880000000000001137e+01 2.989949028430632083e+01
6.920000000000000284e+01 2.980470546650220243e+01
6.959999999999999432e+01 2.971079192078729392e+01
7.000000000000000000e+01 2.961773617057327712e+01
7.040000000000000568e+01 2.955416382349814342e+01
7.080000000000001137e+01 2.946407781528100145e+01
7.120000000000000284e+01 2.937479531489140072e+01
7.159999999999999432e+01 2.928613515624546437e+01
7.200000000000000000e+01 2.919775810322230214e+01
7.240000000000000568e+01 2.911015514417609751e+01
7.280000000000001137e+01 2.902331485724283056e+01
7.320000000000000284e+01 2.893722605623282362e+01
7.359999999999999432e+01 2.885187778441176221e+01
7.400000000000000000e+01 2.876725930848112966e+01
7.440000000000000568e+01 2.868336011275029307e+01
7.479999999999999716e+01 2.860016989349319516e+01
7.520000000000000284e+01 2.851767855348285252e+01
7.560000000000000853e+01 2.843587619669683164e+01
7.600000000000000000e+01 2.835475312318788355e+01
7.640000000000000568e+01 2.827429982411305787e+01
7.679999999999999716e+01 2.819450697691616270e+01
7.720000000000000284e+01 2.811536544065761944e+01
7.760000000000000853e+01 2.803686625148654343e+01
7.800000000000000000e+01 2.795900061825001615e+01
7.840000000000000568e+01 2.789412605075114726e+01
7.879999999999999716e+01 2.781868426991539422e+01
7.920000000000000284e+01 2.774383814112103863e+01
7.960000000000000853e+01 2.766957975597990682e+01
8.000000000000000000e+01 2.759590135280458156e+01
8.040000000000000568e+01 2.752279531312871796e+01
8.079999999999999716e+01 2.745025415832770221e+01
8.120000000000000284e+01 2.737827054633605428e+01
8.160000000000000853e+01 2.730665881885386170e+01
8.200000000000000000e+01 2.723554160562091653e+01
8.240000000000000568e+01 2.716496202782521863e+01
8.279999999999999716e+01 2.709491324841084037e+01
8.320000000000000284e+01 2.702538855186882927e+01
8.360000000000000853e+01 2.695638134147313281e+01
8.400000000000000000e+01 2.688788513659278223e+01
8.440000000000000568e+01 2.681989357007795149e+01
8.479999999999999716e+01 2.675240038571764956e+01
8.520000000000000284e+01 2.668539943576649875e+01
8.560000000000000853e+01 2.661888467853855644e+01
8.600000000000000000e+01 2.655285017606598075e+01
8.640000000000000568e+01 2.648729009182054739e+01
8.680000000000001137e+01 2.642219868849593922e+01
8.720000000000000284e+01 2.635757032584899662e+01
8.760000000000000853e+01 2.629114967905066891e+01
8.800000000000000000e+01 2.622865663386554047e+01
8.840000000000000568e+01 2.616659895518373702e+01
8.880000000000001137e+01 2.610465758076568932e+01
8.920000000000000284e+01 2.604276836367528603e+01
8.960000000000000853e+01 2.598129617629020061e+01
9.000000000000000000e+01 2.592023629861384038e+01
9.040000000000000568e+01 2.585958408553366894e+01
9.080000000000001137e+01 2.579933496529334036e+01
9.120000000000000284e+01 2.573948443800286867e+01
9.160000000000000853e+01 2.568002807418586642e+01
9.200000000000000000e+01 2.562096151336251637e+01
9.240000000000000568e+01 2.556228046266752330e+01
9.280000000000001137e+01 2.550398069550180224e+01
9.320000000000000284e+01 2.544605805021709699e+01
9.360000000000000853e+01 2.538850842883240588e+01
9.400000000000000000e+01 2.532821483898484161e+01
9.440000000000000568e+01 2.527194490930722282e+01
9.480000000000001137e+01 2.521603185644698897e+01
9.520000000000000284e+01 2.516047187564850418e+01
9.560000000000000853e+01 2.510526121902427832e+01
9.600000000000000000e+01 2.505039619446169397e+01
9.640000000000000568e+01 2.499587316455553676e+01
9.680000000000001137e+01 2.494168854556544801e+01
9.720000000000000284e+01 2.488783880639760326e+01
9.760000000000000853e+01 2.483432046761009815e+01
9.800000000000000000e+01 2.478113010044124209e+01
9.840000000000000568e+01 2.472826432586017376e+01
9.880000000000001137e+01 2.467571981363929012e+01
9.920000000000000284e+01 2.462349328144772187e+01
9.960000000000000853e+01 2.457158149396543934e+01
1.000000000000000000e+02 2.451998126201737804e+01
1.004000000000000057e+02 2.447671448728295829e+01
1.008000000000000114e+02 2.442700519892133215e+01
1.012000000000000028e+02 2.437759050218007673e+01
1.016000000000000085e+02 2.432846745363473673e+01
1.020000000000000000e+02 2.427963315119615473e+01
1.024000000000000057e+02 2.423108473336272084e+01
1.028000000000000114e+02 2.418281937848917806e+01
1.032000000000000028e+02 2.413483430407149299e+01
1.036000000000000085e+02 2.408707331692263054e+01
1.040000000000000000e+02 2.403912429503963821e+01
1.044000000000000057e+02 2.399145186701468901e+01
1.048000000000000114e+02 2.394405334539217023e+01
1.052000000000000028e+02 2.389692607939826985e+01
1.056000000000000085e+02 2.385006745429629404e+01
1.060000000000000000e+02 2.380347489075581890e+01
1.064000000000000057e+02 2.375714584423538867e+01
1.068000000000000114e+02 2.371085703687973734e+01
1.072000000000000028e+02 2.366477602235714173e+01
1.076000000000000085e+02 2.361895321415551763e+01
1.080000000000000000e+02 2.357338617608404263e+01
1.084000000000000057e+02 2.352807250423369823e+01
1.088000000000000114e+02 2.348300982642656720e+01
1.092000000000000028e+02 2.343819580167662764e+01
1.096000000000000085e+02 2.339362811966173439e+01
1.100000000000000000e+02 2.334930450020655002e+01
1.104000000000000057e+02 2.330522269277612679e+01
1.108000000000000114e+02 2.326138047597986613e+01
1.112000000000000028e+02 2.321777565708566016e+01
1.116000000000000085e+02 2.317440607154391685e+01
1.120000000000000000e+02 2.313126958252124865e+01
1.124000000000000057e+02 2.308801078344415103e+01
1.128000000000000114e+02 2.304497558317678951e+01
1.132000000000000028e+02 2.300217198153194431e+01
1.136000000000000085e+02 2.295959787172701283e+01
1.140000000000000000e+02 2.291725117389785993e+01
1.144000000000000057e+02 2.287512983465721561e+01
1.148000000000000114e+02 2.283323182666206463e+01
1.152000000000000028e+02 2.279155514818945960e+01
1.156000000000000085e+02 2.275009782272087477e+01
1.160000000000000000e+02 2.270885789853474535e+01
1.164000000000000057e+02 2.266783344830695768e+01
1.168000000000000114e+02 2.262702256871934736e+01
1.172000000000000028e+02 2.258642338007563310e+01
1.176000000000000085e+02 2.254603402592503869e+01
1.180000000000000000e+02 2.250585267269303813e+01
1.184000000000000057e+02 2.246587750931946204e+01
1.188000000000000114e+02 2.242610674690330086e+01
1.192000000000000028e+02 2.238653861835462067e+01
1.196000000000000085e+02 2.234717137805295906e+01
1.200000000000000000e+02 2.230800330151226518e+01
1.204000000000000057e+02 2.226903268505224887e+01
1.208000000000000114e+02 2.223657314299925503e+01
1.212000000000000028e+02 2.219827215047920888e+01
1.216000000000000085e+02 2.216016186156852896e+01
1.220000000000000000e+02 2.212224066977949022e+01
1.224000000000000057e+02 2.208450698765337705e+01
1.228000000000000114e+02 2.206073405047781222e+01
1.232000000000000028e+02 2.202389398658523234e+01
1.236000000000000085e+02 2.198723307001629834e+01
1.240000000000000000e+02 2.195074982442301348e+01
1.244000000000000057e+02 2.191444279058020683e+01
1.248000000000000114e+02 2.187831052613010741e+01
1.252000000000000028e+02 2.184321934029632928e+01
1.256000000000000085e+02 2.180794881420541032e+01
1.260000000000000000e+02 2.177284584104579324e+01
1.264000000000000057e+02 2.173790907500026748e+01
1.268000000000000114e+02 2.170313718544365145e+01
1.272000000000000028e+02 2.166852885672242479e+01
1.276000000000000085e+02 2.163408278793830419e+01
1.280000000000000000e+02 2.159979769273553885e+01
1.284000000000000057e+02 2.156567229909204997e+01
1.288000000000000114e+02 2.153170534911416922e+01
1.291999999999999886e+02 2.149789559883496537e+01
1.296000000000000227e+02 2.146424181801606323e+01
1.300000000000000000e+02 2.143074278995301185e+01
1.304000000000000057e+02 2.139739731128382871e+01
1.308000000000000114e+02 2.136420419180103991e+01
1.311999999999999886e+02 2.133116225426680757e+01
1.316000000000000227e+02 2.129827033423130089e+01
1.320000000000000000e+02 2.126552727985414037e+01
1.324000000000000057e+02 2.123293195172892922e+01
1.328000000000000114e+02 2.120048322271065544e+01
1.331999999999999886e+02 2.116817997774615989e+01
1.336000000000000227e+02 2.113602111370732928e+01
1.340000000000000000e+02 2.110400553922720235e+01
1.344000000000000057e+02 2.107213217453873710e+01
1.348000000000000114e+02 2.104039995131635976e+01
1.351999999999999886e+02 2.100877724018770820e+01
1.356000000000000227e+02 2.097726483018661270e+01
1.360000000000000000e+02 2.094589068115865871e+01
1.364000000000000057e+02 2.091465376733686554e+01
1.368000000000000114e+02 2.088355307365604929e+01
1.371999999999999886e+02 2.085258759560924702e+01
1.376000000000000227e+02 2.082175633910652834e+01
1.380000000000000000e+02 2.079105832033613055e+01
1.384000000000000057e+02 2.076036563868451523e+01
1.388000000000000114e+02 2.072966154027583485e+01
1.392000000000000171e+02 2.069908816049185418e+01
1.395999999999999943e+02 2.066864456023962759e+01
1.400000000000000000e+02 2.063832980990382282e+01
1.404000000000000057e+02 2.060814298922362298e+01
1.408000000000000114e+02 2.057808318717150797e+01
1.412000000000000171e+02 2.054814950183393307e+01
1.415999999999999943e+02 2.051825961112333374e+01
1.420000000000000000e+02 2.048844847629248989e+01
1.424000000000000057e+02 2.045876154740238917e+01
1.428000000000000114e+02 2.042919795152893414e+01
1.432000000000000171e+02 2.039975682436496385e+01
1.435999999999999943e+02 2.037043731011071301e+01
1.440000000000000000e+02 2.034123856136605468e+01
1.444000000000000057e+02 2.031215973902432026e+01
1.448000000000000114e+02 2.028320001216782842e+01
1.452000000000000171e+02 2.025435855796500206e+01
1.455999999999999943e+02 2.022563456156903783e+01
1.460000000000000000e+02 2.019702721601818851e+01
1.464000000000000057e+02 2.016853572213750567e+01
1.468000000000000114e+02 2.014015928844213832e+01
1.472000000000000171e+02 2.011189713104204202e+01
1.475999999999999943e+02 2.008374847354816595e+01
1.480000000000000000e+02 2.005571254698006811e+01
1.484000000000000057e+02 2.002778858967487352e+01
1.488000000000000114e+02 1.999997584719768895e+01
1.492000000000000171e+02 1.997227357225324695e+01
1.495999999999999943e+02 1.994468102459892833e+01
1.500000000000000000e+02 1.991719747095912041e+01
