1.000000000000000000e+01 4.875457493131989963e+02
1.040000000000000036e+01 6.062293603911662103e+02
1.080000000000000071e+01 6.699759933874163380e+02
1.119999999999999929e+01 7.153039823967006896e+02
1.159999999999999964e+01 7.192491595407270779e+02
1.200000000000000000e+01 7.375534986869280374e+02
1.240000000000000036e+01 7.516320966441347764e+02
1.280000000000000071e+01 7.617012670094064788e+02
1.319999999999999929e+01 7.602450613682649418e+02
1.359999999999999964e+01 7.642022385213654161e+02
1.400000000000000000e+01 7.745732963224508012e+02
1.440000000000000036e+01 7.924331253619558311e+02
1.480000000000000071e+01 7.787214529135574139e+02
1.519999999999999929e+01 7.658576113056966506e+02
1.560000000000000142e+01 7.537508936504434587e+02
1.600000000000000000e+01 7.423242986029758868e+02
1.639999999999999858e+01 7.315118767027577178e+02
1.680000000000000071e+01 7.212566978332603185e+02
1.719999999999999929e+01 7.115092708351839974e+02
1.760000000000000142e+01 7.022262982340337203e+02
1.800000000000000000e+01 6.933696833208848602e+02
1.839999999999999858e+01 6.849057299809627466e+02
1.880000000000000071e+01 6.768044916318784772e+02
1.920000000000000284e+01 6.690392368484993995e+02
1.960000000000000142e+01 6.615860072607528082e+02
2.000000000000000000e+01 6.544232491173125936e+02
2.039999999999999858e+01 6.475315041759317864e+02
2.080000000000000071e+01 6.408931487575102892e+02
2.120000000000000284e+01 6.344921721922664801e+02
2.160000000000000142e+01 6.283139877058109732e+02
2.200000000000000000e+01 6.223452701908244080e+02
2.239999999999999858e+01 6.165738163938601701e+02
2.280000000000000071e+01 6.109884238942005368e+02
2.320000000000000284e+01 6.055787859194597331e+02
2.360000000000000142e+01 6.003353995727271695e+02
2.400000000000000000e+01 5.952494854697383744e+02
2.439999999999999858e+01 5.903129171253965524e+02
2.480000000000000071e+01 5.855181587048341498e+02
2.520000000000000284e+01 5.808582099787417974e+02
2.560000000000000142e+01 5.763265575064441464e+02
2.600000000000000000e+01 5.719171312213655938e+02
2.640000000000000213e+01 5.676242657184565132e+02
2.680000000000000071e+01 5.634426656468857573e+02
2.719999999999999929e+01 5.593673746978276995e+02
2.760000000000000142e+01 5.553937477496122028e+02
2.800000000000000000e+01 5.515174257934239677e+02
2.840000000000000213e+01 5.477343133141371254e+02
2.880000000000000071e+01 5.440405578444149342e+02
2.920000000000000284e+01 5.404325314471992669e+02
2.960000000000000142e+01 5.369068139132698434e+02
3.000000000000000000e+01 5.334601774875446836e+02
3.040000000000000213e+01 5.300895729609425189e+02
3.080000000000000071e+01 5.267921169845583336e+02
3.120000000000000284e+01 5.235650804800958440e+02
3.160000000000000142e+01 5.204058780353738030e+02
3.200000000000000000e+01 5.173120581866340899e+02
3.240000000000000568e+01 5.142812945005931624e+02
3.279999999999999716e+01 5.113113773789677339e+02
3.320000000000000284e+01 5.084002065167503019e+02
3.360000000000000142e+01 5.055457839529951798e+02
3.400000000000000000e+01 5.027462076594456448e+02
3.440000000000000568e+01 4.999996656181081107e+02
3.479999999999999716e+01 4.973044303439718306e+02
3.520000000000000284e+01 4.946588538135673616e+02
3.560000000000000142e+01 4.920613627640314007e+02
3.600000000000000000e+01 4.895104543308721645e+02
3.640000000000000568e+01 4.870046919957571845e+02
3.679999999999999716e+01 4.845427018184279291e+02
3.720000000000000284e+01 4.821231689293236968e+02
3.760000000000000142e+01 4.797448342617129811e+02
3.800000000000000000e+01 4.774064915041020640e+02
3.840000000000000568e+01 4.751069842554635443e+02
3.879999999999999716e+01 4.728452033674154222e+02
3.920000000000000284e+01 4.706200844588994414e+02
3.960000000000000142e+01 4.684306055901954551e+02
4.000000000000000000e+01 4.662757850842545508e+02
4.040000000000000568e+01 4.641546794843767998e+02
4.079999999999999716e+01 4.620663816381958213e+02
4.120000000000000284e+01 4.600100188987803449e+02
4.160000000000000142e+01 4.579847514344292563e+02
4.200000000000000000e+01 4.559897706394342549e+02
4.239999999999999858e+01 4.540242976387099247e+02
4.280000000000000426e+01 4.520875818797687771e+02
4.320000000000000284e+01 4.501788998060358153e+02
4.360000000000000142e+01 4.482975536059717001e+02
4.400000000000000000e+01 4.464428700329056028e+02
4.439999999999999858e+01 4.446141992908736711e+02
4.480000000000000426e+01 4.428109139821139024e+02
4.520000000000000284e+01 4.410324081122045641e+02
4.560000000000000142e+01 4.392780961491248490e+02
4.600000000000000000e+01 4.375474121327986836e+02
4.639999999999999858e+01 4.358398088319315775e+02
4.680000000000000426e+01 4.341547569451823279e+02
4.720000000000000284e+01 4.324917443439238696e+02
4.760000000000000142e+01 4.308502753540420827e+02
4.800000000000000000e+01 4.292298700744057669e+02
4.840000000000000568e+01 4.276300637297952676e+02
4.880000000000000426e+01 4.260504060562449240e+02
4.920000000000000284e+01 4.244904607168803636e+02
4.960000000000000142e+01 4.229498047464707042e+02
5.000000000000000000e+01 4.214280280230343578e+02
5.040000000000000568e+01 4.199247327649406429e+02
5.080000000000000426e+01 4.184395330520625862e+02
5.120000000000000284e+01 4.169720543696229811e+02
5.160000000000000142e+01 4.155219331734655270e+02
5.200000000000000000e+01 4.140888164755680236e+02
5.240000000000000568e+01 4.126723614486824090e+02
5.280000000000000426e+01 4.112722350490654435e+02
5.320000000000000284e+01 4.098881136563213090e+02
5.360000000000000142e+01 4.085196827294426498e+02
5.400000000000000000e+01 4.071666364781906395e+02
5.440000000000000568e+01 4.058286775490078071e+02
5.480000000000000426e+01 4.045055167247052168e+02
5.520000000000000284e+01 4.031968726372133460e+02
5.560000000000000142e+01 4.019024714927243735e+02
5.600000000000000000e+01 4.006220468085971333e+02
5.640000000000000568e+01 3.993553391614311181e+02
5.680000000000000426e+01 3.981020959457490562e+02
5.720000000000000284e+01 3.968620711427628862e+02
5.760000000000000142e+01 3.956350250987245545e+02
5.800000000000000000e+01 3.944207243123942135e+02
5.840000000000000568e+01 3.932189412311833507e+02
5.880000000000000426e+01 3.920294540555544813e+02
5.920000000000000284e+01 3.908520465512835358e+02
5.960000000000000142e+01 3.896865078692121074e+02
6.000000000000000000e+01 3.885326323721360495e+02
6.040000000000000568e+01 3.873902194684994811e+02
6.080000000000000426e+01 3.862590734525747393e+02
6.120000000000000284e+01 3.851390033508344573e+02
6.160000000000000142e+01 3.840298227742285349e+02
6.200000000000000000e+01 3.829313497761004896e+02
6.240000000000000568e+01 3.818434067154889817e+02
6.280000000000000426e+01 3.807658201255729864e+02
6.320000000000000284e+01 3.796984205870323876e+02
6.360000000000000142e+01 3.786410426061075896e+02
6.400000000000000000e+01 3.775935244971522593e+02
6.440000000000000568e+01 3.765557082694834321e+02
6.480000000000001137e+01 3.755274395183438401e+02
6.520000000000000284e+01 3.745085673198003633e+02
6.559999999999999432e+01 3.734989441294090966e+02
6.600000000000000000e+01 3.724984256844907122e+02
6.640000000000000568e+01 3.715068709098615045e+02
6.680000000000001137e+01 3.705241418268776101e+02
6.720000000000000284e+01 3.695501034656531374e+02
6.759999999999999432e+01 3.685846237803245913e+02
6.800000000000000000e+01 3.676275735672327869e+02
6.840000000000000568e+01 3.666788263859071435e+02
6.880000000000001137e+01 3.657382584827368532e+02
6.920000000000000284e+01 3.648057487172220021e+02
6.959999999999999432e+01 3.638811784907013589e+02
7.000000000000000000e+01 3.629644316774587764e+02
7.040000000000000568e+01 3.620553945581148696e+02
7.080000000000001137e+01 3.611539557552126212e+02
7.120000000000000284e+01 3.602600061709151760e+02
7.159999999999999432e+01 3.593734389267295910e+02
7.200000000000000000e+01 3.584941493051823045e+02
7.240000000000000568e+01 3.576220346933701535e+02
7.280000000000001137e+01 3.567569945283158859e+02
7.320000000000000284e+01 3.558989302440594429e+02
7.359999999999999432e+01 3.550477452204219162e+02
7.400000000000000000e+01 3.542033447333765821e+02
7.440000000000000568e+01 3.533656359069713062e+02
7.479999999999999716e+01 3.525345276667407575e+02
7.520000000000000284e+01 3.517099306945575563e+02
7.560000000000000853e+01 3.508917573848685834e+02
7.600000000000000000e+01 3.500799218022644936e+02
7.640000000000000568e+01 3.492743396403381553e+02
7.679999999999999716e+01 3.484749281817819906e+02
7.720000000000000284e+01 3.476816062596823258e+02
7.760000000000000853e+01 3.468942942199680033e+02
7.800000000000000000e+01 3.461129138849726701e+02
7.840000000000000568e+01 3.453373885180705543e+02
7.879999999999999716e+01 3.445676427893502023e+02
7.920000000000000284e+01 3.438036027422883762e+02
7.960000000000000853e+01 3.430451957613912555e+02
8.000000000000000000e+01 3.422923505407691778e+02
8.040000000000000568e+01 3.415449970536116666e+02
8.079999999999999716e+01 3.408030665225354596e+02
8.120000000000000284e+01 3.400664913907728533e+02
8.160000000000000853e+01 3.393352052941736474e+02
8.200000000000000000e+01 3.386091430339947692e+02
8.240000000000000568e+01 3.378882405504472786e+02
8.279999999999999716e+01 3.371724348969822245e+02
8.320000000000000284e+01 3.364616642152838040e+02
8.360000000000000853e+01 3.357558677109532823e+02
8.400000000000000000e+01 3.350549856298565032e+02
8.440000000000000568e+01 3.343589592351156057e+02
8.479999999999999716e+01 3.336677307847246539e+02
8.520000000000000284e+01 3.329812435097675234e+02
8.560000000000000853e+01 3.322994415932204220e+02
8.600000000000000000e+01 3.316222701493197746e+02
8.640000000000000568e+01 3.309496752034775682e+02
8.680000000000001137e+01 3.302816036727272149e+02
8.720000000000000284e+01 3.296180033466841905e+02
8.760000000000000853e+01 3.289588228690029723e+02
8.800000000000000000e+01 3.283040117193181118e+02
8.840000000000000568e+01 3.276535201956522769e+02
8.880000000000001137e+01 3.270072993972777340e+02
8.920000000000000284e+01 3.263653012080176268e+02
8.960000000000000853e+01 3.257274782799735249e+02
9.000000000000000000e+01 3.250937840176657687e+02
9.040000000000000568e+01 3.244641725625762660e+02
9.080000000000001137e+01 3.238385987780782784e+02
9.120000000000000284e+01 3.232170182347453533e+02
9.160000000000000853e+01 3.225993871960255888e+02
9.200000000000000000e+01 3.219856626042717380e+02
9.240000000000000568e+01 3.213758020671161830e+02
9.280000000000001137e+01 3.207697638441807158e+02
9.320000000000000284e+01 3.201675068341120891e+02
9.360000000000000853e+01 3.195689905619327078e+02
9.400000000000000000e+01 3.189741751666986147e+02
9.440000000000000568e+01 3.183830213894548251e+02
9.480000000000001137e+01 3.177954905614807899e+02
9.520000000000000284e+01 3.172115445928161535e+02
9.560000000000000853e+01 3.166311459610610655e+02
9.600000000000000000e+01 3.160542577004403597e+02
9.640000000000000568e+01 3.154808433911271663e+02
9.680000000000001137e+01 3.149108671488172604e+02
9.720000000000000284e+01 3.143442936145465296e+02
9.760000000000000853e+01 3.137810879447463890e+02
9.800000000000000000e+01 3.132212158015299792e+02
9.840000000000000568e+01 3.126646433432017034e+02
9.880000000000001137e+01 3.121113372149860652e+02
9.920000000000000284e+01 3.115612645399681355e+02
9.960000000000000853e+01 3.110143929102407583e+02
1.000000000000000000e+02 3.104706903782526410e+02
1.004000000000000057e+02 3.099301254483519301e+02
1.008000000000000114e+02 3.093926670685203817e+02
1.012000000000000028e+02 3.088582846222926150e+02
1.016000000000000085e+02 3.083269479208555026e+02
1.020000000000000000e+02 3.077986271953236042e+02
1.024000000000000057e+02 3.072732930891855290e+02
1.028000000000000114e+02 3.067509166509159400e+02
1.032000000000000028e+02 3.062314693267510961e+02
1.036000000000000085e+02 3.057149229536216239e+02
1.040000000000000000e+02 3.052012497522386525e+02
1.044000000000000057e+02 3.046904223203308106e+02
1.048000000000000114e+02 3.041824136260270848e+02
1.052000000000000028e+02 3.036771970013811028e+02
1.056000000000000085e+02 3.031747461360355373e+02
1.060000000000000000e+02 3.026750350710204316e+02
1.064000000000000057e+02 3.021780381926843688e+02
1.068000000000000114e+02 3.016837302267530276e+02
1.072000000000000028e+02 3.011920862325141570e+02
1.076000000000000085e+02 3.007030815971235711e+02
1.080000000000000000e+02 3.002166920300312540e+02
1.084000000000000057e+02 2.997328935575227433e+02
1.088000000000000114e+02 2.992516625173743705e+02
1.092000000000000028e+02 2.987729755536188350e+02
1.096000000000000085e+02 2.982968096114184391e+02
1.100000000000000000e+02 2.978231419320437112e+02
1.104000000000000057e+02 2.973519500479546878e+02
1.108000000000000114e+02 2.968832117779817850e+02
1.112000000000000028e+02 2.964169052226056920e+02
1.116000000000000085e+02 2.959530087593308281e+02
1.120000000000000000e+02 2.954915010381535581e+02
1.124000000000000057e+02 2.950323609771201632e+02
1.128000000000000114e+02 2.945755677579744543e+02
1.132000000000000028e+02 2.941211008218912752e+02
1.136000000000000085e+02 2.936689398652949876e+02
1.140000000000000000e+02 2.932190648357603209e+02
1.144000000000000057e+02 2.927714559279943387e+02
1.148000000000000114e+02 2.923260935798967921e+02
1.152000000000000028e+02 2.918829584686973817e+02
1.156000000000000085e+02 2.914420315071689629e+02
1.160000000000000000e+02 2.910032938399130558e+02
1.164000000000000057e+02 2.905667268397181147e+02
1.168000000000000114e+02 2.901323121039876014e+02
1.172000000000000028e+02 2.897000314512360433e+02
1.176000000000000085e+02 2.892698669176533599e+02
1.180000000000000000e+02 2.888418007537334802e+02
1.184000000000000057e+02 2.884158154209670784e+02
1.188000000000000114e+02 2.879918935885978613e+02
1.192000000000000028e+02 2.875700181304385978e+02
1.196000000000000085e+02 2.871501721217481418e+02
1.200000000000000000e+02 2.867323388361658658e+02
1.204000000000000057e+02 2.863165017427044177e+02
1.208000000000000114e+02 2.859026445027975569e+02
1.212000000000000028e+02 2.854907509674023913e+02
1.216000000000000085e+02 2.850808051741564100e+02
1.220000000000000000e+02 2.846727913445852778e+02
1.224000000000000057e+02 2.842666938813631532e+02
1.228000000000000114e+02 2.838624973656216639e+02
1.232000000000000028e+02 2.834601865543095300e+02
1.236000000000000085e+02 2.830597463775984579e+02
1.240000000000000000e+02 2.826611619363369527e+02
1.244000000000000057e+02 2.822644184995499472e+02
1.248000000000000114e+02 2.818695015019827679e+02
1.252000000000000028e+02 2.814763965416898941e+02
1.256000000000000085e+02 2.810850893776657813e+02
1.260000000000000000e+02 2.806955659275188282e+02
1.264000000000000057e+02 2.803078122651855324e+02
1.268000000000000114e+02 2.799218146186860281e+02
1.272000000000000028e+02 2.795375593679183339e+02
1.276000000000000085e+02 2.791550330424918229e+02
1.280000000000000000e+02 2.787742223195981524e+02
1.284000000000000057e+02 2.783951140219198805e+02
1.288000000000000114e+02 2.780176951155748384e+02
1.291999999999999886e+02 2.776419527080965963e+02
1.296000000000000227e+02 2.772678740464489806e+02
1.300000000000000000e+02 2.768954465150764008e+02
1.304000000000000057e+02 2.765246576339854414e+02
1.308000000000000114e+02 2.761554950568610707e+02
1.311999999999999886e+02 2.757879465692140002e+02
1.316000000000000227e+02 2.754220000865598763e+02
1.320000000000000000e+02 2.750576436526289967e+02
1.324000000000000057e+02 2.746948654376068930e+02
1.328000000000000114e+02 2.743336537364036190e+02
1.331999999999999886e+02 2.739739969669527682e+02
1.336000000000000227e+02 2.736158836685388565e+02
1.340000000000000000e+02 2.732593025001522165e+02
1.344000000000000057e+02 2.729042422388714044e+02
1.348000000000000114e+02 2.725506917782728920e+02
1.351999999999999886e+02 2.721986401268661666e+02
1.356000000000000227e+02 2.718480764065552080e+02
1.360000000000000000e+02 2.714989898511250317e+02
1.364000000000000057e+02 2.711513698047531307e+02
1.368000000000000114e+02 2.708052057205447909e+02
1.371999999999999886e+02 2.704604871590930202e+02
1.376000000000000227e+02 2.701172037870606459e+02
1.380000000000000000e+02 2.697753453757868556e+02
1.384000000000000057e+02 2.694349017999143712e+02
1.388000000000000114e+02 2.690958630360408392e+02
1.392000000000000171e+02 2.687582191613896043e+02
1.395999999999999943e+02 2.684219603525036746e+02
1.400000000000000000e+02 2.680870768839587299e+02
1.404000000000000057e+02 2.677535591270980717e+02
1.408000000000000114e+02 2.674213975487867856e+02
1.412000000000000171e+02 2.670905827101856289e+02
1.415999999999999943e+02 2.667611052655445292e+02
1.420000000000000000e+02 2.664329559610144429e+02
1.424000000000000057e+02 2.661061256334787117e+02
1.428000000000000114e+02 2.657806052094016422e+02
1.432000000000000171e+02 2.654563857036956733e+02
1.435999999999999943e+02 2.651334582186059379e+02
1.440000000000000000e+02 2.648118139426118773e+02
1.444000000000000057e+02 2.644914441493461368e+02
1.448000000000000114e+02 2.641723401965299445e+02
1.452000000000000171e+02 2.638544935249244077e+02
1.455999999999999943e+02 2.635378956572988045e+02
1.460000000000000000e+02 2.632225381974133711e+02
1.464000000000000057e+02 2.629084128290186300e+02
1.468000000000000114e+02 2.625955113148694409e+02
1.472000000000000171e+02 2.622838254957534900e+02
1.475999999999999943e+02 2.619733472895356385e+02
1.480000000000000000e+02 2.616640686902150605e+02
1.484000000000000057e+02 2.613559817669981271e+02
1.488000000000000114e+02 2.610490786633838525e+02
1.492000000000000171e+02 2.607433515962634942e+02
1.495999999999999943e+02 2.604387928550337392e+02
1.500000000000000000e+02 2.601353948007229064e+02
