1.000000000000000000e+01 1.537458048039879941e+02
1.040000000000000036e+01 1.564560123578410185e+02
1.080000000000000071e+01 1.616875020139273431e+02
1.119999999999999929e+01 1.733045832896254410e+02
1.159999999999999964e+01 1.805575851989328271e+02
1.200000000000000000e+01 1.742790278817762157e+02
1.240000000000000036e+01 1.628947556777173418e+02
1.280000000000000071e+01 1.582287182934358327e+02
1.319999999999999929e+01 1.541091324950953947e+02
1.359999999999999964e+01 1.503259692844336257e+02
1.400000000000000000e+01 1.468331321352100076e+02
1.440000000000000036e+01 1.434093461292213760e+02
1.480000000000000071e+01 1.401470480498297206e+02
1.519999999999999929e+01 1.371128501002032749e+02
1.560000000000000142e+01 1.347779198445789746e+02
1.600000000000000000e+01 1.326858168318531739e+02
1.639999999999999858e+01 1.307276752269444842e+02
1.680000000000000071e+01 1.288893514427356877e+02
1.719999999999999929e+01 1.271587380188700962e+02
1.760000000000000142e+01 1.255253970772953238e+02
1.800000000000000000e+01 1.258985195808785846e+02
1.839999999999999858e+01 1.244641775566318387e+02
1.880000000000000071e+01 1.198524202081868992e+02
1.920000000000000284e+01 1.124389829965679866e+02
1.960000000000000142e+01 1.108228219211588907e+02
2.000000000000000000e+01 1.092801485289732852e+02
2.039999999999999858e+01 1.078054698191181444e+02
2.080000000000000071e+01 1.023132511873022281e+02
2.120000000000000284e+01 1.009435141839361592e+02
2.160000000000000142e+01 9.964620133449727746e+01
2.200000000000000000e+01 9.840657683558096380e+01
2.239999999999999858e+01 9.721278743817651957e+01
2.280000000000000071e+01 9.606203004730863881e+01
2.320000000000000284e+01 9.492996714860333896e+01
2.360000000000000142e+01 9.374733979080177448e+01
2.400000000000000000e+01 9.260308218991563933e+01
2.439999999999999858e+01 9.149513024597308686e+01
2.480000000000000071e+01 9.042157458224303923e+01
2.520000000000000284e+01 8.938064574422134001e+01
2.560000000000000142e+01 8.803809069124804410e+01
2.600000000000000000e+01 8.706645975783646918e+01
2.640000000000000213e+01 8.612233585434466931e+01
2.680000000000000071e+01 8.520442832566243396e+01
2.719999999999999929e+01 8.431153101187017285e+01
2.760000000000000142e+01 8.344251517503388982e+01
2.800000000000000000e+01 8.259632314428563404e+01
2.840000000000000213e+01 8.177196259375216414e+01
2.880000000000000071e+01 8.096043293039625155e+01
2.920000000000000284e+01 8.015100767864157660e+01
2.960000000000000142e+01 7.936170846046425709e+01
3.000000000000000000e+01 7.858443332140848270e+01
3.040000000000000213e+01 7.782260219943191260e+01
3.080000000000000071e+01 7.707890175326367910e+01
3.120000000000000284e+01 7.635262046707865125e+01
3.160000000000000142e+01 7.564308567339003275e+01
3.200000000000000000e+01 7.712317355700673716e+01
3.240000000000000568e+01 7.650895664966120080e+01
3.279999999999999716e+01 7.590798799377444084e+01
3.320000000000000284e+01 7.531978915569284538e+01
3.360000000000000142e+01 7.474390591998907496e+01
3.400000000000000000e+01 7.417990671786444068e+01
3.440000000000000568e+01 7.362738117946747707e+01
3.479999999999999716e+01 7.308593879867100895e+01
3.520000000000000284e+01 7.229001175191359607e+01
3.560000000000000142e+01 7.180039789248132820e+01
3.600000000000000000e+01 7.131997434175441697e+01
3.640000000000000568e+01 7.084845294316848197e+01
3.679999999999999716e+01 7.038555819270929703e+01
3.720000000000000284e+01 6.993102652656092744e+01
3.760000000000000142e+01 6.948460565752102980e+01
3.800000000000000000e+01 6.904605395626329312e+01
3.840000000000000568e+01 6.861513987389041347e+01
3.879999999999999716e+01 6.819164140254137862e+01
3.920000000000000284e+01 6.777534557110909930e+01
3.960000000000000142e+01 6.736604797338429762e+01
4.000000000000000000e+01 6.696355232617672470e+01
4.040000000000000568e+01 6.656654873832420094e+01
4.079999999999999716e+01 6.617519710478278228e+01
4.120000000000000284e+01 6.579872319104391920e+01
4.160000000000000142e+01 6.542845667854311387e+01
4.200000000000000000e+01 6.506422585452867224e+01
4.239999999999999858e+01 6.496713081237334109e+01
4.280000000000000426e+01 6.463683027026443995e+01
4.320000000000000284e+01 6.431154879212012077e+01
4.360000000000000142e+01 6.399115771203950942e+01
4.400000000000000000e+01 6.367553297222212905e+01
4.439999999999999858e+01 6.336455491220054626e+01
4.480000000000000426e+01 6.305810806975895844e+01
4.520000000000000284e+01 6.275004994299143846e+01
4.560000000000000142e+01 6.244371779470276351e+01
4.600000000000000000e+01 6.214179740354992987e+01
4.639999999999999858e+01 6.184418151344630132e+01
4.680000000000000426e+01 6.158088363382629637e+01
4.720000000000000284e+01 6.129469315807123309e+01
4.760000000000000142e+01 6.101245285736452217e+01
4.800000000000000000e+01 6.073407079500685768e+01
4.840000000000000568e+01 6.018710192930740988e+01
4.880000000000000426e+01 5.991044050653810871e+01
4.920000000000000284e+01 5.963753961123296676e+01
4.960000000000000142e+01 5.936831357195345760e+01
5.000000000000000000e+01 5.910267943416482694e+01
5.040000000000000568e+01 5.884055685040784311e+01
5.080000000000000426e+01 5.858186797584840377e+01
5.120000000000000284e+01 5.832653736889621143e+01
5.160000000000000142e+01 5.807449189660439970e+01
5.200000000000000000e+01 5.782566064458068666e+01
5.240000000000000568e+01 5.757997483115796200e+01
5.280000000000000426e+01 5.733736772558818018e+01
5.320000000000000284e+01 5.709725898153562440e+01
5.360000000000000142e+01 5.685968850284603349e+01
5.400000000000000000e+01 5.662501092424463423e+01
5.440000000000000568e+01 5.639316702679030868e+01
5.480000000000000426e+01 5.616409928207922064e+01
5.520000000000000284e+01 5.593775179066219039e+01
5.560000000000000142e+01 5.571374506252431758e+01
5.600000000000000000e+01 5.548230759092450626e+01
5.640000000000000568e+01 5.525260534545563473e+01
5.680000000000000426e+01 5.502549822698323823e+01
5.720000000000000284e+01 5.480093742774182886e+01
5.760000000000000142e+01 5.457887542504046507e+01
5.800000000000000000e+01 5.435926593776562044e+01
5.840000000000000568e+01 5.432705386079136645e+01
5.880000000000000426e+01 5.411748873461014853e+01
5.920000000000000284e+01 5.391015700044950165e+01
5.960000000000000142e+01 5.370501902313610998e+01
6.000000000000000000e+01 5.350203615139199087e+01
6.040000000000000568e+01 5.331711545478584924e+01
6.080000000000000426e+01 5.311923983325078780e+01
6.120000000000000284e+01 5.292340705560098968e+01
6.160000000000000142e+01 5.272958202608683820e+01
6.200000000000000000e+01 5.253773049247754301e+01
6.240000000000000568e+01 5.234781902000060683e+01
6.280000000000000426e+01 5.215981496626483249e+01
6.320000000000000284e+01 5.197368645712260360e+01
6.360000000000000142e+01 5.178940236343036929e+01
6.400000000000000000e+01 5.160693227866776311e+01
6.440000000000000568e+01 5.142624649737770426e+01
6.480000000000001137e+01 5.124731599439226670e+01
6.520000000000000284e+01 5.107011240481030256e+01
6.559999999999999432e+01 5.089460800469466051e+01
6.600000000000000000e+01 5.072077569245885797e+01
6.640000000000000568e+01 5.054858897091369840e+01
6.680000000000001137e+01 5.047650127305073653e+01
6.720000000000000284e+01 5.031557505764997984e+01
6.759999999999999432e+01 5.015610931290795804e+01
6.800000000000000000e+01 4.999805775459154233e+01
6.840000000000000568e+01 4.984143610731767637e+01
6.880000000000001137e+01 4.968622267547405613e+01
6.920000000000000284e+01 4.953239622593463309e+01
6.959999999999999432e+01 4.937993597535734835e+01
7.000000000000000000e+01 4.922882157790868263e+01
7.040000000000000568e+01 4.907903311339770624e+01
7.080000000000001137e+01 4.893055107580381247e+01
7.120000000000000284e+01 4.878335636218245241e+01
7.159999999999999432e+01 4.863726117769219570e+01
7.200000000000000000e+01 4.849191978538481607e+01
7.240000000000000568e+01 4.834781679750223304e+01
7.280000000000001137e+01 4.820493453766818703e+01
7.320000000000000284e+01 4.806325568376201574e+01
7.359999999999999432e+01 4.792276325877391940e+01
7.400000000000000000e+01 4.778344062194867092e+01
7.440000000000000568e+01 4.764527146020752468e+01
7.479999999999999716e+01 4.750823977983736768e+01
7.520000000000000284e+01 4.758585626850146610e+01
7.560000000000000853e+01 4.745345778599786968e+01
7.600000000000000000e+01 4.731704902179642147e+01
7.640000000000000568e+01 4.718716314180699811e+01
7.679999999999999716e+01 4.705831055468224378e+01
7.720000000000000284e+01 4.693047744955141809e+01
7.760000000000000853e+01 4.680269845454227351e+01
7.800000000000000000e+01 4.667567477510350926e+01
7.840000000000000568e+01 4.654966957656802151e+01
7.879999999999999716e+01 4.642466902670544471e+01
7.920000000000000284e+01 4.630065955724870008e+01
7.960000000000000853e+01 4.617762785742986154e+01
8.000000000000000000e+01 4.605556086770859281e+01
8.040000000000000568e+01 4.593444577368669002e+01
8.079999999999999716e+01 4.581427000020190832e+01
8.120000000000000284e+01 4.569502120559508995e+01
8.160000000000000853e+01 4.557668727614464643e+01
8.200000000000000000e+01 4.545925632066234101e+01
8.240000000000000568e+01 4.534271666524520583e+01
8.279999999999999716e+01 4.522705684817822913e+01
8.320000000000000284e+01 4.511226561498245502e+01
8.360000000000000853e+01 4.499833191360397677e+01
8.400000000000000000e+01 4.488507594229679398e+01
8.440000000000000568e+01 4.477252327006946331e+01
8.479999999999999716e+01 4.466079791689455192e+01
8.520000000000000284e+01 4.454988957670403238e+01
8.560000000000000853e+01 4.443978812400512624e+01
8.600000000000000000e+01 4.433048360981648273e+01
8.640000000000000568e+01 4.422196625771596246e+01
8.680000000000001137e+01 4.411422645999604697e+01
8.720000000000000284e+01 4.400725477392369811e+01
8.760000000000000853e+01 4.390674576464850531e+01
8.800000000000000000e+01 4.380338303164495528e+01
8.840000000000000568e+01 4.370074154654326293e+01
8.880000000000001137e+01 4.359881279305238877e+01
8.920000000000000284e+01 4.349758839604547234e+01
8.960000000000000853e+01 4.339706011855766832e+01
9.000000000000000000e+01 4.329721985886165925e+01
9.040000000000000568e+01 4.319805964761867756e+01
9.080000000000001137e+01 4.309957164510247196e+01
9.120000000000000284e+01 4.300174813849430677e+01
9.160000000000000853e+01 4.290458153924660678e+01
9.200000000000000000e+01 4.280806438051340024e+01
9.240000000000000568e+01 4.271218931464541413e+01
9.280000000000001137e+01 4.261787726165920276e+01
9.320000000000000284e+01 4.252379641354184514e+01
9.360000000000000853e+01 4.243033281223925712e+01
9.400000000000000000e+01 4.233747960250185827e+01
9.440000000000000568e+01 4.224525236772738168e+01
9.480000000000001137e+01 4.215366244842107335e+01
9.520000000000000284e+01 4.206265964379545608e+01
9.560000000000000853e+01 4.197223759163955492e+01
9.600000000000000000e+01 4.188239002652251486e+01
9.640000000000000568e+01 4.179311077790499240e+01
9.680000000000001137e+01 4.170439376829547484e+01
9.720000000000000284e+01 4.161623301145026232e+01
9.760000000000000853e+01 4.152862261061567040e+01
9.800000000000000000e+01 4.144101778768244060e+01
9.840000000000000568e+01 4.135387137466574359e+01
9.880000000000001137e+01 4.126725323906754994e+01
9.920000000000000284e+01 4.118115801285827615e+01
9.960000000000000853e+01 4.109558040449187644e+01
1.000000000000000000e+02 4.101051519750279084e+01
1.004000000000000057e+02 4.092595724913437039e+01
1.008000000000000114e+02 4.084190148899803319e+01
1.012000000000000028e+02 4.075834291776215679e+01
1.016000000000000085e+02 4.067527660587018090e+01
1.020000000000000000e+02 4.059257430478407258e+01
1.024000000000000057e+02 4.051025457647568828e+01
1.028000000000000114e+02 4.042841429369156003e+01
1.032000000000000028e+02 4.034704877586815996e+01
1.036000000000000085e+02 4.026609995736528447e+01
1.040000000000000000e+02 4.018515386888925889e+01
1.044000000000000057e+02 4.010467331646950129e+01
1.048000000000000114e+02 4.002465381439029812e+01
1.052000000000000028e+02 3.994509093750394868e+01
1.056000000000000085e+02 3.986598032017855076e+01
1.060000000000000000e+02 3.978731765526798370e+01
1.064000000000000057e+02 3.970909869310368379e+01
1.068000000000000114e+02 3.963131924050785670e+01
1.072000000000000028e+02 3.955397515982726020e+01
1.076000000000000085e+02 3.947706236798717327e+01
1.080000000000000000e+02 3.940057683556522505e+01
1.084000000000000057e+02 3.932451458588427329e+01
1.088000000000000114e+02 3.924887169412419041e+01
1.092000000000000028e+02 3.917364428645184660e+01
1.096000000000000085e+02 3.909882853916894874e+01
1.100000000000000000e+02 3.902442067787738011e+01
1.104000000000000057e+02 3.895041697666137992e+01
1.108000000000000114e+02 3.887681375728648447e+01
1.112000000000000028e+02 3.881248014136514257e+01
1.116000000000000085e+02 3.874090343642908607e+01
1.120000000000000000e+02 3.866844065923346818e+01
1.124000000000000057e+02 3.859810372800944123e+01
1.128000000000000114e+02 3.852813970105889041e+01
1.132000000000000028e+02 3.845854525192817164e+01
1.136000000000000085e+02 3.838931709586815089e+01
1.140000000000000000e+02 3.832045198916026862e+01
1.144000000000000057e+02 3.825194672845591981e+01
1.148000000000000114e+02 3.818379815012887946e+01
1.152000000000000028e+02 3.811600312964041137e+01
1.156000000000000085e+02 3.804855858091680432e+01
1.160000000000000000e+02 3.798146145573910815e+01
1.164000000000000057e+02 3.791470874314455131e+01
1.168000000000000114e+02 3.784829746883979595e+01
1.172000000000000028e+02 3.778222469462526334e+01
1.176000000000000085e+02 3.771648751783062892e+01
1.180000000000000000e+02 3.762954656438232348e+01
1.184000000000000057e+02 3.756497698327133605e+01
1.188000000000000114e+02 3.750073178302743315e+01
1.192000000000000028e+02 3.743680821719470941e+01
1.196000000000000085e+02 3.737320357202720800e+01
1.200000000000000000e+02 3.730991516598633950e+01
1.204000000000000057e+02 3.724694034924783637e+01
1.208000000000000114e+02 3.718427650321795852e+01
1.212000000000000028e+02 3.712192104005870874e+01
1.216000000000000085e+02 3.705984756580026129e+01
1.220000000000000000e+02 3.699784345132645313e+01
1.224000000000000057e+02 3.693614131279528578e+01
1.228000000000000114e+02 3.688851347465744368e+01
1.232000000000000028e+02 3.682793116458903881e+01
1.236000000000000085e+02 3.676763976600823014e+01
1.240000000000000000e+02 3.670763692183295746e+01
1.244000000000000057e+02 3.664780191679408006e+01
1.248000000000000114e+02 3.658804276900544039e+01
1.252000000000000028e+02 3.652856993225277193e+01
1.256000000000000085e+02 3.646938108082616736e+01
1.260000000000000000e+02 3.641047391564702451e+01
1.264000000000000057e+02 3.635184616387542889e+01
1.268000000000000114e+02 3.629349557852456343e+01
1.272000000000000028e+02 3.623541993808201767e+01
1.276000000000000085e+02 3.617761704613792517e+01
1.280000000000000000e+02 3.612008473101967354e+01
1.284000000000000057e+02 3.606282084543315847e+01
1.288000000000000114e+02 3.600582326611034034e+01
1.291999999999999886e+02 3.594908989346304651e+01
1.296000000000000227e+02 3.589261865124288420e+01
1.300000000000000000e+02 3.583640748620701544e+01
1.304000000000000057e+02 3.578045436778996446e+01
1.308000000000000114e+02 3.572475728778094606e+01
1.311999999999999886e+02 3.566931426000689953e+01
1.316000000000000227e+02 3.561412332002101522e+01
1.320000000000000000e+02 3.555918252479661845e+01
1.324000000000000057e+02 3.550867469680081712e+01
1.328000000000000114e+02 3.545455510444355696e+01
1.331999999999999886e+02 3.540067842674925913e+01
1.336000000000000227e+02 3.534704281642195411e+01
1.340000000000000000e+02 3.529364644597693967e+01
1.344000000000000057e+02 3.524048750746700165e+01
1.348000000000000114e+02 3.518756421221343800e+01
1.351999999999999886e+02 3.513487479054136031e+01
1.356000000000000227e+02 3.508241749151964228e+01
1.360000000000000000e+02 3.503019058270513852e+01
1.364000000000000057e+02 3.497819234989106718e+01
1.368000000000000114e+02 3.492643331414262775e+01
1.371999999999999886e+02 3.487536713296543667e+01
1.376000000000000227e+02 3.482452177087534295e+01
1.380000000000000000e+02 3.477389561306806343e+01
1.384000000000000057e+02 3.472348706136383356e+01
1.388000000000000114e+02 3.467329453398721029e+01
1.392000000000000171e+02 3.462331646535033514e+01
1.395999999999999943e+02 3.457355130583975011e+01
1.400000000000000000e+02 3.452399752160660995e+01
1.404000000000000057e+02 3.447465359436031918e+01
1.408000000000000114e+02 3.442551802116541637e+01
1.412000000000000171e+02 3.437652239261400666e+01
1.415999999999999943e+02 3.432741425200331520e+01
1.420000000000000000e+02 3.427846643972614515e+01
1.424000000000000057e+02 3.422972381941776376e+01
1.428000000000000114e+02 3.418118493768027832e+01
1.432000000000000171e+02 3.413282195444555356e+01
1.435999999999999943e+02 3.408460285613645624e+01
1.440000000000000000e+02 3.403658367841599386e+01
1.444000000000000057e+02 3.398876302072225286e+01
1.448000000000000114e+02 3.394113949630555993e+01
1.452000000000000171e+02 3.389371173205309162e+01
1.455999999999999943e+02 3.384647836831636170e+01
1.460000000000000000e+02 3.379943805874125218e+01
1.464000000000000057e+02 3.375258947010069477e+01
1.468000000000000114e+02 3.370593128212999545e+01
1.472000000000000171e+02 3.365946218736454654e+01
1.475999999999999943e+02 3.361318089098015349e+01
1.480000000000000000e+02 3.356708611063568526e+01
1.484000000000000057e+02 3.352117657631819725e+01
1.488000000000000114e+02 3.347545103019034940e+01
1.492000000000000171e+02 3.342990822644016191e+01
1.495999999999999943e+02 3.338431963498069166e+01
1.500000000000000000e+02 3.333887328535946892e+01
