1.000000000000000000e+01 1.047492255672221972e+02
1.040000000000000036e+01 1.040174713362015666e+02
1.080000000000000071e+01 1.042365762853222861e+02
1.119999999999999929e+01 1.067415310441514151e+02
1.159999999999999964e+01 1.097241267494116812e+02
1.200000000000000000e+01 1.064499426823472419e+02
1.240000000000000036e+01 1.035298954564064786e+02
1.280000000000000071e+01 1.009008064095171449e+02
1.319999999999999929e+01 9.851497767629631142e+01
1.359999999999999964e+01 9.633544485845109762e+01
1.400000000000000000e+01 9.433294836402858152e+01
1.440000000000000036e+01 9.248391732794993914e+01
1.480000000000000071e+01 9.076908021327426468e+01
1.519999999999999929e+01 8.917247928143093816e+01
1.560000000000000142e+01 8.772712573366837319e+01
1.600000000000000000e+01 8.649622649417899822e+01
1.639999999999999858e+01 7.982543527764708813e+01
1.680000000000000071e+01 7.865051120279520092e+01
1.719999999999999929e+01 7.754088582028606425e+01
1.760000000000000142e+01 7.649057356971331956e+01
1.800000000000000000e+01 7.549434097240219899e+01
1.839999999999999858e+01 7.454758771705151332e+01
1.880000000000000071e+01 7.039842045834569717e+01
1.920000000000000284e+01 6.939555446862563315e+01
1.960000000000000142e+01 6.843951564723749925e+01
2.000000000000000000e+01 6.752669760008608080e+01
2.039999999999999858e+01 6.665387550388726368e+01
2.080000000000000071e+01 6.581815524542651019e+01
2.120000000000000284e+01 6.501693067505415513e+01
2.160000000000000142e+01 6.424784747675877838e+01
2.200000000000000000e+01 6.348801127036427516e+01
2.239999999999999858e+01 6.274502907302087351e+01
2.280000000000000071e+01 6.202979594056066048e+01
2.320000000000000284e+01 6.134060550685455837e+01
2.360000000000000142e+01 6.067589564716804063e+01
2.400000000000000000e+01 6.003423308630582511e+01
2.439999999999999858e+01 5.941429997830336873e+01
2.480000000000000071e+01 5.881488216450117079e+01
2.520000000000000284e+01 5.823485886625057617e+01
2.560000000000000142e+01 5.767519736293782273e+01
2.600000000000000000e+01 5.713621052882103868e+01
2.640000000000000213e+01 5.661310174373562631e+01
2.680000000000000071e+01 5.610509700285527401e+01
2.719999999999999929e+01 5.561147436096959495e+01
2.760000000000000142e+01 5.513155949836833258e+01
2.800000000000000000e+01 5.466472174147826735e+01
2.840000000000000213e+01 5.421037048393566238e+01
2.880000000000000071e+01 5.041757363130895442e+01
2.920000000000000284e+01 4.994682315389432858e+01
2.960000000000000142e+01 4.948805233724978336e+01
3.000000000000000000e+01 4.904076009805609004e+01
3.040000000000000213e+01 4.860447431910030502e+01
3.080000000000000071e+01 4.817874972415886248e+01
3.120000000000000284e+01 4.802685292155839392e+01
3.160000000000000142e+01 4.764943054137228273e+01
3.200000000000000000e+01 4.728041928602171140e+01
3.240000000000000568e+01 4.691950937791870757e+01
3.279999999999999716e+01 4.656640684442430711e+01
3.320000000000000284e+01 4.622083249321119069e+01
3.360000000000000142e+01 4.588252096782524347e+01
3.400000000000000000e+01 4.555121987611879320e+01
3.440000000000000568e+01 4.522668898499236434e+01
3.479999999999999716e+01 4.490869947555454189e+01
3.520000000000000284e+01 4.426606904314709823e+01
3.560000000000000142e+01 4.397919990293633674e+01
3.600000000000000000e+01 4.369778303625102467e+01
3.640000000000000568e+01 4.342164681866938736e+01
3.679999999999999716e+01 4.315062711005447227e+01
3.720000000000000284e+01 4.288456683984770734e+01
3.760000000000000142e+01 4.262331562010635366e+01
3.800000000000000000e+01 4.236672938411827261e+01
3.840000000000000568e+01 4.211467004862031160e+01
3.879999999999999716e+01 4.186700519782058905e+01
3.920000000000000284e+01 4.162360778758051083e+01
3.960000000000000142e+01 4.138435586825477230e+01
4.000000000000000000e+01 4.114913232481418248e+01
4.040000000000000568e+01 4.091393836017179808e+01
4.079999999999999716e+01 4.067910608724722010e+01
4.120000000000000284e+01 4.044817123859304075e+01
4.160000000000000142e+01 4.022102649990766565e+01
4.200000000000000000e+01 3.999756866327190608e+01
4.239999999999999858e+01 3.977235028861492339e+01
4.280000000000000426e+01 3.955045349451663128e+01
4.320000000000000284e+01 3.933204164193559649e+01
4.360000000000000142e+01 3.911702400345051700e+01
4.400000000000000000e+01 3.890531313730762975e+01
4.439999999999999858e+01 3.869682473559299751e+01
4.480000000000000426e+01 3.849147748090977217e+01
4.520000000000000284e+01 3.828316186121545428e+01
4.560000000000000142e+01 3.807524702420678153e+01
4.600000000000000000e+01 3.787044957582669014e+01
4.639999999999999858e+01 3.766869207457158097e+01
4.680000000000000426e+01 3.746989975734916811e+01
4.720000000000000284e+01 3.727400042117130852e+01
4.760000000000000142e+01 3.708092431118642196e+01
4.800000000000000000e+01 3.689060401465354744e+01
4.840000000000000568e+01 3.670297436048783624e+01
4.880000000000000426e+01 3.651797232403438187e+01
4.920000000000000284e+01 3.633553693675116136e+01
4.960000000000000142e+01 3.615560920050415206e+01
5.000000000000000000e+01 3.597813200619843599e+01
5.040000000000000568e+01 3.580305005648789063e+01
5.080000000000000426e+01 3.563030979232364359e+01
5.120000000000000284e+01 3.545985932311743483e+01
5.160000000000000142e+01 3.529164836031151253e+01
5.200000000000000000e+01 3.512562815415948592e+01
5.240000000000000568e+01 3.496175143353661952e+01
5.280000000000000426e+01 3.479997234860873334e+01
5.320000000000000284e+01 3.482067774274244698e+01
5.360000000000000142e+01 3.466582708674147995e+01
5.400000000000000000e+01 3.451290158082591830e+01
5.440000000000000568e+01 3.436186145604248310e+01
5.480000000000000426e+01 3.421266808962060679e+01
5.520000000000000284e+01 3.406528396270732628e+01
5.560000000000000142e+01 3.391967261999609917e+01
5.600000000000000000e+01 3.377579863114966940e+01
5.640000000000000568e+01 3.363362755392375902e+01
5.680000000000000426e+01 3.349312589890294589e+01
5.720000000000000284e+01 3.335426109576651754e+01
5.760000000000000142e+01 3.321700146100587148e+01
5.800000000000000000e+01 3.308131616702027600e+01
5.840000000000000568e+01 3.313216518863185911e+01
5.880000000000000426e+01 3.300481278435493238e+01
5.920000000000000284e+01 3.287885976270760580e+01
5.960000000000000142e+01 3.275428051584520972e+01
6.000000000000000000e+01 3.263105009022120839e+01
6.040000000000000568e+01 3.250914416518300953e+01
6.080000000000000426e+01 3.245469740821251747e+01
6.120000000000000284e+01 3.234210836103466136e+01
6.160000000000000142e+01 3.223068566811234348e+01
6.200000000000000000e+01 3.212040910928575954e+01
6.240000000000000568e+01 3.201125895433899871e+01
6.280000000000000426e+01 3.190321594779134529e+01
6.320000000000000284e+01 3.179626129426315728e+01
6.360000000000000142e+01 3.169037664439087010e+01
6.400000000000000000e+01 3.158554408126664725e+01
6.440000000000000568e+01 3.148174610737999046e+01
6.480000000000001137e+01 3.137896563203917921e+01
6.520000000000000284e+01 3.127718595925187373e+01
6.559999999999999432e+01 3.117639077604531650e+01
6.600000000000000000e+01 3.107656834180075833e+01
6.640000000000000568e+01 3.097784304035249292e+01
6.680000000000001137e+01 3.088004696773011304e+01
6.720000000000000284e+01 3.078316550708032295e+01
6.759999999999999432e+01 3.068718436268635941e+01
6.800000000000000000e+01 3.059208955093495774e+01
6.840000000000000568e+01 3.049786739159252846e+01
6.880000000000001137e+01 3.040450449937772248e+01
6.920000000000000284e+01 3.031198777581892756e+01
6.959999999999999432e+01 3.022030440138510343e+01
7.000000000000000000e+01 3.012944182787922287e+01
7.040000000000000568e+01 3.003938777108412950e+01
7.080000000000001137e+01 2.995013020365078660e+01
7.120000000000000284e+01 2.986165734821966922e+01
7.159999999999999432e+01 2.977378858652406279e+01
7.200000000000000000e+01 2.968618521312258096e+01
7.240000000000000568e+01 2.959933873050990272e+01
7.280000000000001137e+01 2.951323821499860856e+01
7.320000000000000284e+01 2.942787296316428325e+01
7.359999999999999432e+01 2.934323248615768875e+01
7.400000000000000000e+01 2.925930650419560664e+01
7.440000000000000568e+01 2.917608494122377039e+01
7.479999999999999716e+01 2.909355791974553540e+01
7.520000000000000284e+01 2.901171575581028605e+01
7.560000000000000853e+01 2.893054895415569661e+01
7.600000000000000000e+01 2.885004820349836763e+01
7.640000000000000568e+01 2.877020437196747338e+01
7.679999999999999716e+01 2.869100850267628289e+01
7.720000000000000284e+01 2.861245180942674082e+01
7.760000000000000853e+01 2.853452567254234395e+01
7.800000000000000000e+01 2.845722163482476930e+01
7.840000000000000568e+01 2.838053139763001909e+01
7.879999999999999716e+01 2.830444681705994725e+01
7.920000000000000284e+01 2.822889453869354526e+01
7.960000000000000853e+01 2.815194439534354842e+01
8.000000000000000000e+01 2.807559924377989802e+01
8.040000000000000568e+01 2.799985114909837591e+01
8.079999999999999716e+01 2.792469232185328565e+01
8.120000000000000284e+01 2.785011511464081835e+01
8.160000000000000853e+01 2.777611201878016800e+01
8.200000000000000000e+01 2.767938619327340533e+01
8.240000000000000568e+01 2.760724230018292502e+01
8.279999999999999716e+01 2.753564628548479476e+01
8.320000000000000284e+01 2.746459119235935020e+01
8.360000000000000853e+01 2.739407018760443435e+01
8.400000000000000000e+01 2.732407655881824127e+01
8.440000000000000568e+01 2.725460371166035856e+01
8.479999999999999716e+01 2.718564516718854307e+01
8.520000000000000284e+01 2.711719455926860434e+01
8.560000000000000853e+01 2.704924563205506161e+01
8.600000000000000000e+01 2.698179223754038603e+01
8.640000000000000568e+01 2.691482833317062529e+01
8.680000000000001137e+01 2.684834797952513341e+01
8.720000000000000284e+01 2.678234533805857609e+01
8.760000000000000853e+01 2.671456488935579188e+01
8.800000000000000000e+01 2.665072632821817677e+01
8.840000000000000568e+01 2.658733723210550437e+01
8.880000000000001137e+01 2.652439229818282485e+01
8.920000000000000284e+01 2.646188631127586177e+01
8.960000000000000853e+01 2.639981414201062648e+01
9.000000000000000000e+01 2.633817074500107580e+01
9.040000000000000568e+01 2.627695115708349149e+01
9.080000000000001137e+01 2.621615049559613198e+01
9.120000000000000284e+01 2.615576395670271381e+01
9.160000000000000853e+01 2.609578681375851872e+01
9.200000000000000000e+01 2.603621441571777595e+01
9.240000000000000568e+01 2.597704218558111222e+01
9.280000000000001137e+01 2.591826561888183278e+01
9.320000000000000284e+01 2.585988028221004953e+01
9.360000000000000853e+01 2.580188181177330620e+01
9.400000000000000000e+01 2.574426591199282655e+01
9.440000000000000568e+01 2.568702835413423458e+01
9.480000000000001137e+01 2.563016497497184076e+01
9.520000000000000284e+01 2.557367167548547826e+01
9.560000000000000853e+01 2.551754441958885877e+01
9.600000000000000000e+01 2.546177923288875178e+01
9.640000000000000568e+01 2.540637220147395681e+01
9.680000000000001137e+01 2.535131947073326586e+01
9.720000000000000284e+01 2.529661724420157753e+01
9.760000000000000853e+01 2.524179521601819332e+01
9.800000000000000000e+01 2.518730529057637568e+01
9.840000000000000568e+01 2.513315886453037251e+01
9.880000000000001137e+01 2.507935231280131205e+01
9.920000000000000284e+01 2.502588206391776282e+01
9.960000000000000853e+01 2.497274459899771770e+01
1.000000000000000000e+02 2.491993645075413610e+01
1.004000000000000057e+02 2.486745420252337624e+01
1.008000000000000114e+02 2.481529448731607701e+01
1.012000000000000028e+02 2.476345398688954802e+01
1.016000000000000085e+02 2.471192943084142968e+01
1.020000000000000000e+02 2.466071759572387023e+01
1.024000000000000057e+02 2.460981530417769747e+01
1.028000000000000114e+02 2.455921942408604153e+01
1.032000000000000028e+02 2.456737592338098608e+01
1.036000000000000085e+02 2.451919485848854663e+01
1.040000000000000000e+02 2.447083243666217811e+01
1.044000000000000057e+02 2.442275318957206309e+01
1.048000000000000114e+02 2.437495433454549953e+01
1.052000000000000028e+02 2.432743312726105600e+01
1.056000000000000085e+02 2.428018686106939583e+01
1.060000000000000000e+02 2.423321286632878468e+01
1.064000000000000057e+02 2.418650850975486577e+01
1.068000000000000114e+02 2.414007119378445765e+01
1.072000000000000028e+02 2.409389835595282392e+01
1.076000000000000085e+02 2.404798746828427269e+01
1.080000000000000000e+02 2.400233603669564886e+01
1.084000000000000057e+02 2.395694160041238874e+01
1.088000000000000114e+02 2.391180173139689202e+01
1.092000000000000028e+02 2.386691403378884502e+01
1.096000000000000085e+02 2.382227614335719323e+01
1.100000000000000000e+02 2.377788572696358926e+01
1.104000000000000057e+02 2.373374048203681497e+01
1.108000000000000114e+02 2.368983813605821354e+01
1.112000000000000028e+02 2.364617644605749547e+01
1.116000000000000085e+02 2.360275319811907124e+01
1.120000000000000000e+02 2.355956620689829606e+01
1.124000000000000057e+02 2.351661331514760889e+01
1.128000000000000114e+02 2.347389239325226740e+01
1.132000000000000028e+02 2.343140133877540876e+01
1.136000000000000085e+02 2.338913807601229777e+01
1.140000000000000000e+02 2.334710055555346742e+01
1.144000000000000057e+02 2.330528675385656001e+01
1.148000000000000114e+02 2.326369467282673398e+01
1.152000000000000028e+02 2.322232233940531287e+01
1.156000000000000085e+02 2.318116780516656661e+01
1.160000000000000000e+02 2.315080031393163651e+01
1.164000000000000057e+02 2.311062298931867076e+01
1.168000000000000114e+02 2.307065375665584384e+01
1.172000000000000028e+02 2.303089080493258933e+01
1.176000000000000085e+02 2.299133234525922376e+01
1.180000000000000000e+02 2.295197661051965810e+01
1.184000000000000057e+02 2.291282185503067836e+01
1.188000000000000114e+02 2.287386635420776670e+01
1.192000000000000028e+02 2.283510840423727828e+01
1.196000000000000085e+02 2.279654632175486029e+01
1.200000000000000000e+02 2.275817844352991415e+01
1.204000000000000057e+02 2.272000312615600137e+01
1.208000000000000114e+02 2.268201874574711141e+01
1.212000000000000028e+02 2.264422369763953213e+01
1.216000000000000085e+02 2.260661639609933005e+01
1.220000000000000000e+02 2.256919527403526970e+01
1.224000000000000057e+02 2.253195878271699115e+01
1.228000000000000114e+02 2.250868019550537014e+01
1.232000000000000028e+02 2.247233167816376209e+01
1.236000000000000085e+02 2.243615954153390035e+01
1.240000000000000000e+02 2.240016234545126395e+01
1.244000000000000057e+02 2.236433866626839873e+01
1.248000000000000114e+02 2.232868709661129003e+01
1.252000000000000028e+02 2.229320624514005544e+01
1.256000000000000085e+02 2.225789473631400028e+01
1.260000000000000000e+02 2.222275121016079069e+01
1.264000000000000057e+02 2.218777432204984734e+01
1.268000000000000114e+02 2.215278433269096681e+01
1.272000000000000028e+02 2.211767438649081541e+01
1.276000000000000085e+02 2.208273027538108124e+01
1.280000000000000000e+02 2.204795068286274073e+01
1.284000000000000057e+02 2.201333430711176220e+01
1.288000000000000114e+02 2.197887986076867861e+01
1.291999999999999886e+02 2.194458607073197598e+01
1.296000000000000227e+02 2.191045167795494564e+01
1.300000000000000000e+02 2.187647543724619936e+01
1.304000000000000057e+02 2.184265611707355959e+01
1.308000000000000114e+02 2.180899249937134599e+01
1.311999999999999886e+02 2.177548337935103717e+01
1.316000000000000227e+02 2.174212756531508361e+01
1.320000000000000000e+02 2.170892387847404947e+01
1.324000000000000057e+02 2.167587115276672094e+01
1.328000000000000114e+02 2.164296823468336939e+01
1.331999999999999886e+02 2.161021398309200947e+01
1.336000000000000227e+02 2.157760726906754201e+01
1.340000000000000000e+02 2.154514697572382786e+01
1.344000000000000057e+02 2.151272574204207899e+01
1.348000000000000114e+02 2.148039958620120515e+01
1.351999999999999886e+02 2.144821757340403678e+01
1.356000000000000227e+02 2.141617862381256643e+01
1.360000000000000000e+02 2.138428166894941640e+01
1.364000000000000057e+02 2.135252565154413773e+01
1.368000000000000114e+02 2.132090952538199957e+01
1.371999999999999886e+02 2.128943225515526905e+01
1.376000000000000227e+02 2.125809281631694603e+01
1.380000000000000000e+02 2.122689019493691376e+01
1.384000000000000057e+02 2.119582338756035966e+01
1.388000000000000114e+02 2.116489140106864753e+01
1.392000000000000171e+02 2.113409325254225735e+01
1.395999999999999943e+02 2.110342796912614105e+01
1.400000000000000000e+02 2.107289458789705350e+01
1.404000000000000057e+02 2.104249215573319631e+01
1.408000000000000114e+02 2.101221972918584058e+01
1.412000000000000171e+02 2.098207637435304918e+01
1.415999999999999943e+02 2.095197973758473964e+01
1.420000000000000000e+02 2.092196474899034797e+01
1.424000000000000057e+02 2.089207682790002707e+01
1.428000000000000114e+02 2.086231507106488436e+01
1.432000000000000171e+02 2.083267858425258012e+01
1.435999999999999943e+02 2.080316648213155162e+01
1.440000000000000000e+02 2.077377788815704562e+01
1.444000000000000057e+02 2.074451193445894503e+01
1.448000000000000114e+02 2.071536776173132921e+01
1.452000000000000171e+02 2.068634451912376093e+01
1.455999999999999943e+02 2.065744136413425025e+01
1.460000000000000000e+02 2.062865746250387744e+01
1.464000000000000057e+02 2.059999198811305376e+01
1.468000000000000114e+02 2.057144412287934543e+01
1.472000000000000171e+02 2.054301305665689981e+01
1.475999999999999943e+02 2.051469798713738868e+01
1.480000000000000000e+02 2.048649811975244006e+01
1.484000000000000057e+02 2.045841266757760479e+01
1.488000000000000114e+02 2.043044085123776554e+01
1.492000000000000171e+02 2.040258189881390649e+01
1.495999999999999943e+02 2.037483504575139648e+01
1.500000000000000000e+02 2.034719953476957954e+01
