1.000000000000000000e+01 8.084123946766032986e+01
1.040000000000000036e+01 8.599651558861127398e+01
1.080000000000000071e+01 9.228960050781120117e+01
1.119999999999999929e+01 1.051364486311934314e+02
1.159999999999999964e+01 1.229866157994130447e+02
1.200000000000000000e+01 1.180784401649773372e+02
1.240000000000000036e+01 1.080170379383344965e+02
1.280000000000000071e+01 1.044487316353672668e+02
1.319999999999999929e+01 1.012513352951641536e+02
1.359999999999999964e+01 9.836208280191267761e+01
1.400000000000000000e+01 9.573260679757970593e+01
1.440000000000000036e+01 9.314089125993805851e+01
1.480000000000000071e+01 9.090083249412214172e+01
1.519999999999999929e+01 8.888491417588915056e+01
1.560000000000000142e+01 8.702230174837018239e+01
1.600000000000000000e+01 8.529424637333146109e+01
1.639999999999999858e+01 8.368508918953702391e+01
1.680000000000000071e+01 8.218162993572674679e+01
1.719999999999999929e+01 8.077264774895492394e+01
1.760000000000000142e+01 7.944853228687890123e+01
1.800000000000000000e+01 8.011924184987977071e+01
1.839999999999999858e+01 7.897156454696363426e+01
1.880000000000000071e+01 7.463620752846702544e+01
1.920000000000000284e+01 7.346031584190794206e+01
1.960000000000000142e+01 7.234306029375892422e+01
2.000000000000000000e+01 7.127965892679506510e+01
2.039999999999999858e+01 7.026586212791575292e+01
2.080000000000000071e+01 6.929787836735656015e+01
2.120000000000000284e+01 6.837231227874943329e+01
2.160000000000000142e+01 6.750400840312667583e+01
2.200000000000000000e+01 6.667907088465111087e+01
2.239999999999999858e+01 6.588642379400764071e+01
2.280000000000000071e+01 6.512398440922126497e+01
2.320000000000000284e+01 6.438985461678689148e+01
2.360000000000000142e+01 6.368230027381726899e+01
2.400000000000000000e+01 5.896661350485973685e+01
2.439999999999999858e+01 5.827829446638205724e+01
2.480000000000000071e+01 5.761284388308052229e+01
2.520000000000000284e+01 5.696900700651838889e+01
2.560000000000000142e+01 5.601301372069828233e+01
2.600000000000000000e+01 5.541786845116063631e+01
2.640000000000000213e+01 5.484058080333365837e+01
2.680000000000000071e+01 5.428026201022260011e+01
2.719999999999999929e+01 5.373608468726811793e+01
2.760000000000000142e+01 5.320727744059227859e+01
2.800000000000000000e+01 5.269312004715656883e+01
2.840000000000000213e+01 5.219293913605420698e+01
2.880000000000000071e+01 5.170610431013200525e+01
2.920000000000000284e+01 5.123202465553736573e+01
2.960000000000000142e+01 5.077014559389017734e+01
3.000000000000000000e+01 5.031266969637439956e+01
3.040000000000000213e+01 4.986330525383439038e+01
3.080000000000000071e+01 4.942501210307446513e+01
3.120000000000000284e+01 4.899733779956414281e+01
3.160000000000000142e+01 4.857985556000190996e+01
3.200000000000000000e+01 4.817216241022571666e+01
3.240000000000000568e+01 4.777387749469404810e+01
3.279999999999999716e+01 4.738464053107301055e+01
3.320000000000000284e+01 4.700411039537705449e+01
3.360000000000000142e+01 4.662360608270154216e+01
3.400000000000000000e+01 4.624131799435452450e+01
3.440000000000000568e+01 4.586734259387532120e+01
3.479999999999999716e+01 4.550138083820622370e+01
3.520000000000000284e+01 4.487795284818128039e+01
3.560000000000000142e+01 4.455794031516910536e+01
3.600000000000000000e+01 4.424430144546528254e+01
3.640000000000000568e+01 4.393682580311048724e+01
3.679999999999999716e+01 4.363531259514472538e+01
3.720000000000000284e+01 4.333957010900472540e+01
3.760000000000000142e+01 4.304941518963426716e+01
3.800000000000000000e+01 4.276467275302780990e+01
3.840000000000000568e+01 4.248517533323848738e+01
3.879999999999999716e+01 4.221076266015639078e+01
3.920000000000000284e+01 4.194128126561193426e+01
3.960000000000000142e+01 4.167658411558047504e+01
4.000000000000000000e+01 4.141653026646400093e+01
4.040000000000000568e+01 4.115986322750268300e+01
4.079999999999999716e+01 4.090535356482504881e+01
4.120000000000000284e+01 4.065519568099759340e+01
4.160000000000000142e+01 4.040926594976130559e+01
4.200000000000000000e+01 4.016744562929796558e+01
4.239999999999999858e+01 3.992962061604318080e+01
4.280000000000000426e+01 3.969568121354033963e+01
4.320000000000000284e+01 3.946552191525842090e+01
4.360000000000000142e+01 3.923904120038511678e+01
4.400000000000000000e+01 3.901614134168674752e+01
4.439999999999999858e+01 3.879672822459910719e+01
4.480000000000000426e+01 3.858071117677973660e+01
4.520000000000000284e+01 3.836197175762562495e+01
4.560000000000000142e+01 3.814387058900706506e+01
4.600000000000000000e+01 3.792911613166374707e+01
4.639999999999999858e+01 3.771762315882958205e+01
4.680000000000000426e+01 3.753942661126001923e+01
4.720000000000000284e+01 3.733733660591364867e+01
4.760000000000000142e+01 3.713821615826891076e+01
4.800000000000000000e+01 3.694199297293717166e+01
4.840000000000000568e+01 3.693693986166963583e+01
4.880000000000000426e+01 3.676374321443683613e+01
4.920000000000000284e+01 3.659288563081422296e+01
4.960000000000000142e+01 3.642431442349667492e+01
5.000000000000000000e+01 3.625797856144166076e+01
5.040000000000000568e+01 3.609382860323743358e+01
5.080000000000000426e+01 3.593181663372983081e+01
5.120000000000000284e+01 3.577189620372026013e+01
5.160000000000000142e+01 3.561402227256032660e+01
5.200000000000000000e+01 3.545815115347927815e+01
5.240000000000000568e+01 3.530424046149177286e+01
5.280000000000000426e+01 3.515224906374243119e+01
5.320000000000000284e+01 3.500162144574054679e+01
5.360000000000000142e+01 3.485242160150212243e+01
5.400000000000000000e+01 3.470502754412227375e+01
5.440000000000000568e+01 3.455940275011225538e+01
5.480000000000000426e+01 3.441551172755280419e+01
5.520000000000000284e+01 3.427331997879378633e+01
5.560000000000000142e+01 3.413279396479384786e+01
5.600000000000000000e+01 3.399390107101528713e+01
5.640000000000000568e+01 3.385660957479458943e+01
5.680000000000000426e+01 3.372088861411336325e+01
5.720000000000000284e+01 3.358670815769933427e+01
5.760000000000000142e+01 3.345403897639046420e+01
5.800000000000000000e+01 3.332285261569978729e+01
5.840000000000000568e+01 3.337811134563143867e+01
5.880000000000000426e+01 3.325508164509310660e+01
5.920000000000000284e+01 3.313336647120011946e+01
5.960000000000000142e+01 3.301294229576075878e+01
6.000000000000000000e+01 3.289378617865483534e+01
6.040000000000000568e+01 3.279182042771294903e+01
6.080000000000000426e+01 3.267604307829454058e+01
6.120000000000000284e+01 3.256146640731336817e+01
6.160000000000000142e+01 3.244806956777706830e+01
6.200000000000000000e+01 3.233583221855033685e+01
6.240000000000000568e+01 3.222473450862764111e+01
6.280000000000000426e+01 3.211475706200108959e+01
6.320000000000000284e+01 3.200588096309697050e+01
6.360000000000000142e+01 3.189486273499809244e+01
6.400000000000000000e+01 3.178332910148477453e+01
6.440000000000000568e+01 3.167292010549216741e+01
6.480000000000001137e+01 3.156361679693218036e+01
6.520000000000000284e+01 3.145540067172600374e+01
6.559999999999999432e+01 3.134825365835874322e+01
6.600000000000000000e+01 3.124215810492732004e+01
6.640000000000000568e+01 3.113709676666031001e+01
6.680000000000001137e+01 3.103305279388955995e+01
6.720000000000000284e+01 3.093000972045422969e+01
6.759999999999999432e+01 3.082793664672826139e+01
6.800000000000000000e+01 3.072679425169127043e+01
6.840000000000000568e+01 3.062660508524426461e+01
6.880000000000001137e+01 3.052735413989027791e+01
6.920000000000000284e+01 3.042902673810190706e+01
6.959999999999999432e+01 3.033160852303017663e+01
7.000000000000000000e+01 3.023508544953186572e+01
7.040000000000000568e+01 3.013944377550219400e+01
7.080000000000001137e+01 3.004467005350088016e+01
7.120000000000000284e+01 2.995075112265968897e+01
7.159999999999999432e+01 2.985750501661834022e+01
7.200000000000000000e+01 2.976459171613386445e+01
7.240000000000000568e+01 2.967250144311063664e+01
7.280000000000001137e+01 2.958122202544188895e+01
7.320000000000000284e+01 2.949074154245334256e+01
7.359999999999999432e+01 2.940104831825098586e+01
7.400000000000000000e+01 2.931213091528293191e+01
7.440000000000000568e+01 2.922397812810749684e+01
7.479999999999999716e+01 2.913657897735945568e+01
7.520000000000000284e+01 2.904992270390720677e+01
7.560000000000000853e+01 2.896399876319373590e+01
7.600000000000000000e+01 2.887372261685958108e+01
7.640000000000000568e+01 2.878963164091506854e+01
7.679999999999999716e+01 2.870624040797097365e+01
7.720000000000000284e+01 2.862353919032191385e+01
7.760000000000000853e+01 2.854151844928001225e+01
7.800000000000000000e+01 2.846016883046759460e+01
7.840000000000000568e+01 2.837948115925267700e+01
7.879999999999999716e+01 2.829944643632213186e+01
7.920000000000000284e+01 2.822005583338748025e+01
7.960000000000000853e+01 2.814130068901896919e+01
8.000000000000000000e+01 2.806317250460296719e+01
8.040000000000000568e+01 2.798566294041882330e+01
8.079999999999999716e+01 2.790876381183076660e+01
8.120000000000000284e+01 2.783246708559087423e+01
8.160000000000000853e+01 2.775676487624952671e+01
8.200000000000000000e+01 2.768164944266938576e+01
8.240000000000000568e+01 2.760711318463951613e+01
8.279999999999999716e+01 2.753314863958633651e+01
8.320000000000000284e+01 2.745974847937797492e+01
8.360000000000000853e+01 2.738690550721902639e+01
8.400000000000000000e+01 2.731444370634113383e+01
8.440000000000000568e+01 2.742062469803985891e+01
8.479999999999999716e+01 2.735135994053582920e+01
8.520000000000000284e+01 2.728260301589406112e+01
8.560000000000000853e+01 2.721434766760406632e+01
8.600000000000000000e+01 2.714658774724986046e+01
8.640000000000000568e+01 2.707931721210979603e+01
8.680000000000001137e+01 2.701253012282149868e+01
8.720000000000000284e+01 2.694622064110975401e+01
8.760000000000000853e+01 2.687813324802819892e+01
8.800000000000000000e+01 2.681398763903229110e+01
8.840000000000000568e+01 2.675029139241025433e+01
8.880000000000001137e+01 2.668703920631790183e+01
8.920000000000000284e+01 2.662422586672342817e+01
8.960000000000000853e+01 2.656184624553684159e+01
9.000000000000000000e+01 2.649989529878794414e+01
9.040000000000000568e+01 2.643836806485158064e+01
9.080000000000001137e+01 2.637725966271862887e+01
9.120000000000000284e+01 2.631656529031124236e+01
9.160000000000000853e+01 2.625628022284123730e+01
9.200000000000000000e+01 2.619639981121008532e+01
9.240000000000000568e+01 2.613691948044938584e+01
9.280000000000001137e+01 2.607876291070982688e+01
9.320000000000000284e+01 2.602060091566541189e+01
9.360000000000000853e+01 2.596282221219689390e+01
9.400000000000000000e+01 2.590542254646223341e+01
9.440000000000000568e+01 2.584839773090775594e+01
9.480000000000001137e+01 2.579174364293925947e+01
9.520000000000000284e+01 2.573545622362569674e+01
9.560000000000000853e+01 2.567953147643440559e+01
9.600000000000000000e+01 2.562396546599712366e+01
9.640000000000000568e+01 2.556875431690568234e+01
9.680000000000001137e+01 2.551389421253688994e+01
9.720000000000000284e+01 2.545938139390529287e+01
9.760000000000000853e+01 2.540521215854347048e+01
9.800000000000000000e+01 2.535138285940887215e+01
9.840000000000000568e+01 2.529788990381641867e+01
9.880000000000001137e+01 2.524472975239627814e+01
9.920000000000000284e+01 2.519189891807606330e+01
9.960000000000000853e+01 2.513939396508672530e+01
1.000000000000000000e+02 2.508721150799154032e+01
1.004000000000000057e+02 2.503534821073759531e+01
1.008000000000000114e+02 2.498380078572908047e+01
1.012000000000000028e+02 2.493256599292174513e+01
1.016000000000000085e+02 2.488164063893825073e+01
1.020000000000000000e+02 2.483089818915571811e+01
1.024000000000000057e+02 2.478035889632570488e+01
1.028000000000000114e+02 2.473012130222637950e+01
1.032000000000000028e+02 2.468018237385192393e+01
1.036000000000000085e+02 2.463048567187868088e+01
1.040000000000000000e+02 2.458061883243933110e+01
1.044000000000000057e+02 2.453104624644321419e+01
1.048000000000000114e+02 2.448176499284520702e+01
1.052000000000000028e+02 2.443271706205516836e+01
1.056000000000000085e+02 2.438394866326360955e+01
1.060000000000000000e+02 2.433546197555275370e+01
1.064000000000000057e+02 2.428725426687588396e+01
1.068000000000000114e+02 2.423932284231113243e+01
1.072000000000000028e+02 2.419166504341383117e+01
1.076000000000000085e+02 2.414427824758244867e+01
1.080000000000000000e+02 2.409715986743812621e+01
1.084000000000000057e+02 2.405030735021723842e+01
1.088000000000000114e+02 2.400371817717673650e+01
1.092000000000000028e+02 2.395738986301194018e+01
1.096000000000000085e+02 2.391131995528652254e+01
1.100000000000000000e+02 2.386550603387431835e+01
1.104000000000000057e+02 2.381994571041265374e+01
1.108000000000000114e+02 2.377463662776704467e+01
1.112000000000000028e+02 2.372957645950683059e+01
1.116000000000000085e+02 2.368476290939156570e+01
1.120000000000000000e+02 2.363892523766279297e+01
1.124000000000000057e+02 2.359507657188824581e+01
1.128000000000000114e+02 2.355146515358845249e+01
1.132000000000000028e+02 2.350808882859009330e+01
1.136000000000000085e+02 2.346494547013427479e+01
1.140000000000000000e+02 2.342203297842839049e+01
1.144000000000000057e+02 2.337934928020693448e+01
1.148000000000000114e+02 2.333689232830107940e+01
1.152000000000000028e+02 2.329466010121671005e+01
1.156000000000000085e+02 2.325265060272081996e+01
1.160000000000000000e+02 2.321086186143609353e+01
1.164000000000000057e+02 2.316929193044322943e+01
1.168000000000000114e+02 2.312793888689130739e+01
1.172000000000000028e+02 2.308680083161550556e+01
1.176000000000000085e+02 2.304587588876226079e+01
1.180000000000000000e+02 2.300516220542181856e+01
1.184000000000000057e+02 2.296465795126761122e+01
1.188000000000000114e+02 2.292436131820278433e+01
1.192000000000000028e+02 2.288427052001328832e+01
1.196000000000000085e+02 2.284438379202767067e+01
1.200000000000000000e+02 2.280469939078332686e+01
1.204000000000000057e+02 2.276521559369902548e+01
1.208000000000000114e+02 2.272593069875358296e+01
1.212000000000000028e+02 2.268684302417064913e+01
1.216000000000000085e+02 2.264792707159552876e+01
1.220000000000000000e+02 2.260897109791025983e+01
1.224000000000000057e+02 2.257020859433086102e+01
1.228000000000000114e+02 2.254541275086310037e+01
1.232000000000000028e+02 2.250755565098194211e+01
1.236000000000000085e+02 2.246988352429088920e+01
1.240000000000000000e+02 2.243239485041997483e+01
1.244000000000000057e+02 2.239508812653267000e+01
1.248000000000000114e+02 2.235796186706597410e+01
1.252000000000000028e+02 2.232101460347521282e+01
1.256000000000000085e+02 2.228424488398338710e+01
1.260000000000000000e+02 2.224765127333510506e+01
1.264000000000000057e+02 2.221123235255488026e+01
1.268000000000000114e+02 2.217498671870973226e+01
1.272000000000000028e+02 2.213891298467603974e+01
1.276000000000000085e+02 2.210300977891055751e+01
1.280000000000000000e+02 2.206727574522537338e+01
1.284000000000000057e+02 2.203170954256698266e+01
1.288000000000000114e+02 2.199630984479913565e+01
1.291999999999999886e+02 2.196107534048952559e+01
1.296000000000000227e+02 2.192600473270018213e+01
1.300000000000000000e+02 2.187802435000485701e+01
1.304000000000000057e+02 2.184372564941640249e+01
1.308000000000000114e+02 2.180958460375142494e+01
1.311999999999999886e+02 2.177559999063943152e+01
1.316000000000000227e+02 2.174177060102965342e+01
1.320000000000000000e+02 2.170809523900422278e+01
1.324000000000000057e+02 2.167875745253464714e+01
1.328000000000000114e+02 2.164571326767411108e+01
1.331999999999999886e+02 2.161281807306286851e+01
1.336000000000000227e+02 2.158007073651726060e+01
1.340000000000000000e+02 2.154747013794403898e+01
1.344000000000000057e+02 2.151501516917413070e+01
1.348000000000000114e+02 2.148270473379928092e+01
1.351999999999999886e+02 2.145053774701136007e+01
1.356000000000000227e+02 2.141851313544441382e+01
1.360000000000000000e+02 2.138662983701925668e+01
1.364000000000000057e+02 2.135488680079077639e+01
1.368000000000000114e+02 2.132328298679761147e+01
1.371999999999999886e+02 2.129181736591443297e+01
1.376000000000000227e+02 2.126048891970660293e+01
1.380000000000000000e+02 2.122929664028719543e+01
1.384000000000000057e+02 2.119823953017638729e+01
1.388000000000000114e+02 2.116731660216316868e+01
1.392000000000000171e+02 2.113652687916917117e+01
1.395999999999999943e+02 2.110586939411491869e+01
1.400000000000000000e+02 2.107534318978799703e+01
1.404000000000000057e+02 2.104494731871354674e+01
1.408000000000000114e+02 2.101468084302668160e+01
1.412000000000000171e+02 2.098454283434708145e+01
1.415999999999999943e+02 2.095445094448482948e+01
1.420000000000000000e+02 2.092444010894891449e+01
1.424000000000000057e+02 2.089455575240914342e+01
1.428000000000000114e+02 2.086479697689723878e+01
1.432000000000000171e+02 2.083513649212286367e+01
1.435999999999999943e+02 2.080554282900980922e+01
1.440000000000000000e+02 2.077607256231775779e+01
1.444000000000000057e+02 2.074672482520398020e+01
1.448000000000000114e+02 2.071749875938216690e+01
1.452000000000000171e+02 2.068839351501373613e+01
1.455999999999999943e+02 2.065940825060080499e+01
1.460000000000000000e+02 2.063054213288084782e+01
1.464000000000000057e+02 2.060179433672290727e+01
1.468000000000000114e+02 2.057316404502554619e+01
1.472000000000000171e+02 2.054465044861620981e+01
1.475999999999999943e+02 2.051625274615222949e+01
1.480000000000000000e+02 2.048797014402327576e+01
1.484000000000000057e+02 2.045980185625537828e+01
1.488000000000000114e+02 2.043174710441629216e+01
1.492000000000000171e+02 2.040380511752238846e+01
1.495999999999999943e+02 2.037597513194692311e+01
1.500000000000000000e+02 2.034825639132963460e+01
