1.000000000000000000e+01 1.342953481995650975e+02
1.040000000000000036e+01 1.307892893335364306e+02
1.080000000000000071e+01 1.281070225954856596e+02
1.119999999999999929e+01 1.261897564658937370e+02
1.159999999999999964e+01 1.253211037148936953e+02
1.200000000000000000e+01 1.218514659049636748e+02
1.240000000000000036e+01 1.186873353495494428e+02
1.280000000000000071e+01 1.157823762565038521e+02
1.319999999999999929e+01 1.131772196937322121e+02
1.359999999999999964e+01 1.108092261632543654e+02
1.400000000000000000e+01 1.086057127288553517e+02
1.440000000000000036e+01 1.065474804389732810e+02
1.480000000000000071e+01 1.046184681682076132e+02
1.519999999999999929e+01 1.028050959376779190e+02
1.560000000000000142e+01 1.013909975445619551e+02
1.600000000000000000e+01 1.002236052033117062e+02
1.639999999999999858e+01 9.911979351322133880e+01
1.680000000000000071e+01 9.807372012134675288e+01
1.719999999999999929e+01 9.708028604024853792e+01
1.760000000000000142e+01 9.613501566581552993e+01
1.800000000000000000e+01 9.523396012023067669e+01
1.839999999999999858e+01 9.437361864589514937e+01
1.880000000000000071e+01 9.030304435370743477e+01
1.920000000000000284e+01 8.638637158558319129e+01
1.960000000000000142e+01 8.537501274759303271e+01
2.000000000000000000e+01 8.440674069345925545e+01
2.039999999999999858e+01 8.347849540799816737e+01
2.080000000000000071e+01 8.258751701717349647e+01
2.120000000000000284e+01 8.173130849261784192e+01
2.160000000000000142e+01 8.090760393492172398e+01
2.200000000000000000e+01 8.011434146489690988e+01
2.239999999999999858e+01 7.934963994377118013e+01
2.280000000000000071e+01 7.861177889282276965e+01
2.320000000000000284e+01 7.788829568417531846e+01
2.360000000000000142e+01 7.714428952324487909e+01
2.400000000000000000e+01 7.642397654649386141e+01
2.439999999999999858e+01 7.572609213662268246e+01
2.480000000000000071e+01 7.504946572386508308e+01
2.520000000000000284e+01 7.439301186152115974e+01
2.560000000000000142e+01 7.375772608124842122e+01
2.600000000000000000e+01 7.314394343465741599e+01
2.640000000000000213e+01 7.254688426353359887e+01
2.680000000000000071e+01 7.196578704645523317e+01
2.719999999999999929e+01 7.139993847603736299e+01
2.760000000000000142e+01 7.084866956954653006e+01
2.800000000000000000e+01 7.031135215913259628e+01
2.840000000000000213e+01 6.978739571835724576e+01
2.880000000000000071e+01 6.592586833107839084e+01
2.920000000000000284e+01 6.538725377470825606e+01
2.960000000000000142e+01 6.486148231455176472e+01
3.000000000000000000e+01 6.434804631107306250e+01
3.040000000000000213e+01 6.384646600865875143e+01
3.080000000000000071e+01 6.335628758273584538e+01
3.120000000000000284e+01 5.943687851349490359e+01
3.160000000000000142e+01 5.895843629689079535e+01
3.200000000000000000e+01 5.957698924406318497e+01
3.240000000000000568e+01 5.915051116126010555e+01
3.279999999999999716e+01 5.873271847798109491e+01
3.320000000000000284e+01 5.832331414950148485e+01
3.360000000000000142e+01 5.792201540435844720e+01
3.400000000000000000e+01 5.752855286324737705e+01
3.440000000000000568e+01 5.714266972413774681e+01
3.479999999999999716e+01 5.676412100776182967e+01
3.520000000000000284e+01 5.606170864796138176e+01
3.560000000000000142e+01 5.571581948762742797e+01
3.600000000000000000e+01 5.537612951544232232e+01
3.640000000000000568e+01 5.504245248445231198e+01
3.679999999999999716e+01 5.471460999269164915e+01
3.720000000000000284e+01 5.439243105918641419e+01
3.760000000000000142e+01 5.407575172784006412e+01
3.800000000000000000e+01 5.376441469704660392e+01
3.840000000000000568e+01 5.345826897306915981e+01
3.879999999999999716e+01 5.315716954539254857e+01
3.920000000000000284e+01 5.286097708241298676e+01
3.960000000000000142e+01 5.256955764596850855e+01
4.000000000000000000e+01 5.228278242333892933e+01
4.040000000000000568e+01 5.200052747545919374e+01
4.079999999999999716e+01 5.172339393893296489e+01
4.120000000000000284e+01 5.145480749486262084e+01
4.160000000000000142e+01 5.119040815664398991e+01
4.200000000000000000e+01 5.093008599652271329e+01
4.239999999999999858e+01 5.066838697376184797e+01
4.280000000000000426e+01 5.041038680248753678e+01
4.320000000000000284e+01 5.015624246125408092e+01
4.360000000000000142e+01 4.990585701441183630e+01
4.400000000000000000e+01 4.965913693653795491e+01
4.439999999999999858e+01 4.941599195894627883e+01
4.480000000000000426e+01 4.917633492458278965e+01
4.520000000000000284e+01 4.893405060098253756e+01
4.560000000000000142e+01 4.869250253269466100e+01
4.600000000000000000e+01 4.845440183776569398e+01
4.639999999999999858e+01 4.821966569997433538e+01
4.680000000000000426e+01 4.798821409258002291e+01
4.720000000000000284e+01 4.775996965788093007e+01
4.760000000000000142e+01 4.753485759309572956e+01
4.800000000000000000e+01 4.731280554217912027e+01
4.840000000000000568e+01 4.695756544376241948e+01
4.880000000000000426e+01 4.673569822054285083e+01
4.920000000000000284e+01 4.651105472782391104e+01
4.960000000000000142e+01 4.628942666744112699e+01
5.000000000000000000e+01 4.607074651955615252e+01
5.040000000000000568e+01 4.585494887236567507e+01
5.080000000000000426e+01 4.564197033803143455e+01
5.120000000000000284e+01 4.543174947267861086e+01
5.160000000000000142e+01 4.522422670023142643e+01
5.200000000000000000e+01 4.501934423986994460e+01
5.240000000000000568e+01 4.481704603690641875e+01
5.280000000000000426e+01 4.461727769689159118e+01
5.320000000000000284e+01 4.441998642277436460e+01
5.360000000000000142e+01 4.422512095494830930e+01
5.400000000000000000e+01 4.403263151402989450e+01
5.440000000000000568e+01 4.384246974622186599e+01
5.480000000000000426e+01 4.365458867112516828e+01
5.520000000000000284e+01 4.346894263187029139e+01
5.560000000000000142e+01 4.328532466711880744e+01
5.600000000000000000e+01 4.310144931807974444e+01
5.640000000000000568e+01 4.291966368091260620e+01
5.680000000000000426e+01 4.273992833893799315e+01
5.720000000000000284e+01 4.256220491590121213e+01
5.760000000000000142e+01 4.238645604069142081e+01
5.800000000000000000e+01 4.221264531352037608e+01
5.840000000000000568e+01 4.222572724959972135e+01
5.880000000000000426e+01 4.206096075764951081e+01
5.920000000000000284e+01 4.189794140352432805e+01
5.960000000000000142e+01 4.173663844123437627e+01
6.000000000000000000e+01 4.157702188106537022e+01
6.040000000000000568e+01 4.141906246570263761e+01
6.080000000000000426e+01 4.132888888070650779e+01
6.120000000000000284e+01 4.118089720122441832e+01
6.160000000000000142e+01 4.103439028371836628e+01
6.200000000000000000e+01 4.088934334598884845e+01
6.240000000000000568e+01 4.074573218390290208e+01
6.280000000000000426e+01 4.060353315409149388e+01
6.320000000000000284e+01 4.046272315727829749e+01
6.360000000000000142e+01 4.032327962221299344e+01
6.400000000000000000e+01 4.018518049018280180e+01
6.440000000000000568e+01 4.004840420007830915e+01
6.480000000000001137e+01 3.991292967398962332e+01
6.520000000000000284e+01 3.977873630331111343e+01
6.559999999999999432e+01 3.964580393533321967e+01
6.600000000000000000e+01 3.951411286030158010e+01
6.640000000000000568e+01 3.938364379892395561e+01
6.680000000000001137e+01 3.930361756185899935e+01
6.720000000000000284e+01 3.917955959422623380e+01
6.759999999999999432e+01 3.905662112688570886e+01
6.800000000000000000e+01 3.893478526116914651e+01
6.840000000000000568e+01 3.881403545611673422e+01
6.880000000000001137e+01 3.869435551874015289e+01
6.920000000000000284e+01 3.857572959460932083e+01
6.959999999999999432e+01 3.845814215874992925e+01
7.000000000000000000e+01 3.834157800683991724e+01
7.040000000000000568e+01 3.822602224669306281e+01
7.080000000000001137e+01 3.811146029001881175e+01
7.120000000000000284e+01 3.799787784444775696e+01
7.159999999999999432e+01 3.788509182157038424e+01
7.200000000000000000e+01 3.777276108963539514e+01
7.240000000000000568e+01 3.766137476765568692e+01
7.280000000000001137e+01 3.755091959031356907e+01
7.320000000000000284e+01 3.744138255345684740e+01
7.359999999999999432e+01 3.733275090748821867e+01
7.400000000000000000e+01 3.722501215095905991e+01
7.440000000000000568e+01 3.711815402436009492e+01
7.479999999999999716e+01 3.701216450410159808e+01
7.520000000000000284e+01 3.690703179667661260e+01
7.560000000000000853e+01 3.680274433300026260e+01
7.600000000000000000e+01 3.669929076291944625e+01
7.640000000000000568e+01 3.659665994988606030e+01
7.679999999999999716e+01 3.649484096578888881e+01
7.720000000000000284e+01 3.639382308593782511e+01
7.760000000000000853e+01 3.629311987384154747e+01
7.800000000000000000e+01 3.649820550844845712e+01
7.840000000000000568e+01 3.640369797256083473e+01
7.879999999999999716e+01 3.630992158518223789e+01
7.920000000000000284e+01 3.621680138067491583e+01
7.960000000000000853e+01 3.612240569346224106e+01
8.000000000000000000e+01 3.602873582934559238e+01
8.040000000000000568e+01 3.593578235594933545e+01
8.079999999999999716e+01 3.584353601328779604e+01
8.120000000000000284e+01 3.575198770971666562e+01
8.160000000000000853e+01 3.566112851800031081e+01
8.200000000000000000e+01 3.557094967149098608e+01
8.240000000000000568e+01 3.548144256041631905e+01
8.279999999999999716e+01 3.539259872827138054e+01
8.320000000000000284e+01 3.530440986831185057e+01
8.360000000000000853e+01 3.521686782014504757e+01
8.400000000000000000e+01 3.512996456641553777e+01
8.440000000000000568e+01 3.504369222958216312e+01
8.479999999999999716e+01 3.495804306878367385e+01
8.520000000000000284e+01 3.487300947678999563e+01
8.560000000000000853e+01 3.478858397703644556e+01
8.600000000000000000e+01 3.470475922073805464e+01
8.640000000000000568e+01 3.462152798408178711e+01
8.680000000000001137e+01 3.453888316549382864e+01
8.720000000000000284e+01 3.445681778297979747e+01
8.760000000000000853e+01 3.437705200503540937e+01
8.800000000000000000e+01 3.429778811173077457e+01
8.840000000000000568e+01 3.421906799815628375e+01
8.880000000000001137e+01 3.414088536320910094e+01
8.920000000000000284e+01 3.406323400840591376e+01
8.960000000000000853e+01 3.398610783573549554e+01
9.000000000000000000e+01 3.390950084556617128e+01
9.040000000000000568e+01 3.383340713460634674e+01
9.080000000000001137e+01 3.375782089391658047e+01
9.120000000000000284e+01 3.368273640697172056e+01
9.160000000000000853e+01 3.360814804777150755e+01
9.200000000000000000e+01 3.353405027899832191e+01
9.240000000000000568e+01 3.346043765022064065e+01
9.280000000000001137e+01 3.338730479614084601e+01
9.320000000000000284e+01 3.331464643488614996e+01
9.360000000000000853e+01 3.324245736634135540e+01
9.400000000000000000e+01 3.317073247052222484e+01
9.440000000000000568e+01 3.309946670598833407e+01
9.480000000000001137e+01 3.302865510829426654e+01
9.520000000000000284e+01 3.295829278847804744e+01
9.560000000000000853e+01 3.288837493158577274e+01
9.600000000000000000e+01 3.281889679523136749e+01
9.640000000000000568e+01 3.274985370819062780e+01
9.680000000000001137e+01 3.268124106902835280e+01
9.720000000000000284e+01 3.261305434475789156e+01
9.760000000000000853e+01 3.254528906953202494e+01
9.800000000000000000e+01 3.247767135879981026e+01
9.840000000000000568e+01 3.241042615463592824e+01
9.880000000000001137e+01 3.234358693802057871e+01
9.920000000000000284e+01 3.227714959293822972e+01
9.960000000000000853e+01 3.221111006200187177e+01
1.000000000000000000e+02 3.214546434537692932e+01
1.004000000000000057e+02 3.208020849972932353e+01
1.008000000000000114e+02 3.201533863719708961e+01
1.012000000000000028e+02 3.195085092438488772e+01
1.016000000000000085e+02 3.188674158138078596e+01
1.020000000000000000e+02 3.182300688079487827e+01
1.024000000000000057e+02 3.175964314681885980e+01
1.028000000000000114e+02 3.169664675430639278e+01
1.032000000000000028e+02 3.169246327871367441e+01
1.036000000000000085e+02 3.163200210728741268e+01
1.040000000000000000e+02 3.157141906160685352e+01
1.044000000000000057e+02 3.151117820128028413e+01
1.048000000000000114e+02 3.145127627664223269e+01
1.052000000000000028e+02 3.139171008138075436e+01
1.056000000000000085e+02 3.133247645179229934e+01
1.060000000000000000e+02 3.127357226605230878e+01
1.064000000000000057e+02 3.121499444350099850e+01
1.068000000000000114e+02 3.115631650533451591e+01
1.072000000000000028e+02 3.109749005291719115e+01
1.076000000000000085e+02 3.103898691411234267e+01
1.080000000000000000e+02 3.098080410819421715e+01
1.084000000000000057e+02 3.092293869299331277e+01
1.088000000000000114e+02 3.086538776425448916e+01
1.092000000000000028e+02 3.080814845500810151e+01
1.096000000000000085e+02 3.075121793495391742e+01
1.100000000000000000e+02 3.069459340985748241e+01
1.104000000000000057e+02 3.063827212095861796e+01
1.108000000000000114e+02 3.058225134439186021e+01
1.112000000000000028e+02 3.053096476709361795e+01
1.116000000000000085e+02 3.047615517966627863e+01
1.120000000000000000e+02 3.042163447236848128e+01
1.124000000000000057e+02 3.036740008348839126e+01
1.128000000000000114e+02 3.031344948325699207e+01
1.132000000000000028e+02 3.025978017333477510e+01
1.136000000000000085e+02 3.020638968630841248e+01
1.140000000000000000e+02 3.015327558519743434e+01
1.144000000000000057e+02 3.010043546297042028e+01
1.148000000000000114e+02 3.004786694207069075e+01
1.152000000000000028e+02 2.999556767395110413e+01
1.156000000000000085e+02 2.994353533861795214e+01
1.160000000000000000e+02 2.989176764418350984e+01
1.164000000000000057e+02 2.984026232642722576e+01
1.168000000000000114e+02 2.978901714836533188e+01
1.172000000000000028e+02 2.973802989982858946e+01
1.176000000000000085e+02 2.968729839704802842e+01
1.180000000000000000e+02 2.963682048224860921e+01
1.184000000000000057e+02 2.958659402325044852e+01
1.188000000000000114e+02 2.953661691307759085e+01
1.192000000000000028e+02 2.948688706957402417e+01
1.196000000000000085e+02 2.943740243502697140e+01
1.200000000000000000e+02 2.938816097579706010e+01
1.204000000000000057e+02 2.933916068195539850e+01
1.208000000000000114e+02 2.929039956692736268e+01
1.212000000000000028e+02 2.924187566714289588e+01
1.216000000000000085e+02 2.919358704169319552e+01
1.220000000000000000e+02 2.914553177199377387e+01
1.224000000000000057e+02 2.909770796145348726e+01
1.228000000000000114e+02 2.906388853915665038e+01
1.232000000000000028e+02 2.901704533012673082e+01
1.236000000000000085e+02 2.897042430795556101e+01
1.240000000000000000e+02 2.892402369867267709e+01
1.244000000000000057e+02 2.887778255569540065e+01
1.248000000000000114e+02 2.883165430552326214e+01
1.252000000000000028e+02 2.878574359879338473e+01
1.256000000000000085e+02 2.874004870260919375e+01
1.260000000000000000e+02 2.869456790351777542e+01
1.264000000000000057e+02 2.864929950722899576e+01
1.268000000000000114e+02 2.860406342009174097e+01
1.272000000000000028e+02 2.855875246040606186e+01
1.276000000000000085e+02 2.851365207400105461e+01
1.280000000000000000e+02 2.846876060947756315e+01
1.284000000000000057e+02 2.842407643367455705e+01
1.288000000000000114e+02 2.837959793140976572e+01
1.291999999999999886e+02 2.833532350522488485e+01
1.296000000000000227e+02 2.829125157513509237e+01
1.300000000000000000e+02 2.824738057838295191e+01
1.304000000000000057e+02 2.820370896919654413e+01
1.308000000000000114e+02 2.816023521855173328e+01
1.311999999999999886e+02 2.811695781393847327e+01
1.316000000000000227e+02 2.807387525913113535e+01
1.320000000000000000e+02 2.803098607396276520e+01
1.324000000000000057e+02 2.798828879410304538e+01
1.328000000000000114e+02 2.794578197084012317e+01
1.331999999999999886e+02 2.790346417086608000e+01
1.336000000000000227e+02 2.786133397606594997e+01
1.340000000000000000e+02 2.781938998331035151e+01
1.344000000000000057e+02 2.777763080425148701e+01
1.348000000000000114e+02 2.773605506512260632e+01
1.351999999999999886e+02 2.769466140654076014e+01
1.356000000000000227e+02 2.765344848331280048e+01
1.360000000000000000e+02 2.761241496424464614e+01
1.364000000000000057e+02 2.757155953195355380e+01
1.368000000000000114e+02 2.753088699132503336e+01
1.371999999999999886e+02 2.749062372003709598e+01
1.376000000000000227e+02 2.745053325378618680e+01
1.380000000000000000e+02 2.741061434306393352e+01
1.384000000000000057e+02 2.737086575107230857e+01
1.388000000000000114e+02 2.733128625355725561e+01
1.392000000000000171e+02 2.729187463864497332e+01
1.395999999999999943e+02 2.725262970668077145e+01
1.400000000000000000e+02 2.721355027007049543e+01
1.404000000000000057e+02 2.717463515312453382e+01
1.408000000000000114e+02 2.713588319190419540e+01
1.412000000000000171e+02 2.709729323407056967e+01
1.415999999999999943e+02 2.705878270956507947e+01
1.420000000000000000e+02 2.702038633409299351e+01
1.424000000000000057e+02 2.698214931456080379e+01
1.428000000000000114e+02 2.694407053725300827e+01
1.432000000000000171e+02 2.690614889940459875e+01
1.435999999999999943e+02 2.686838330906242689e+01
1.440000000000000000e+02 2.683077268494885814e+01
1.444000000000000057e+02 2.682972526469011143e+01
1.448000000000000114e+02 2.679330576500644767e+01
1.452000000000000171e+02 2.675703339511772683e+01
1.455999999999999943e+02 2.672090715054527266e+01
1.460000000000000000e+02 2.668492603647624506e+01
1.464000000000000057e+02 2.664908906764377505e+01
1.468000000000000114e+02 2.661339526820894008e+01
1.472000000000000171e+02 2.657784367164450146e+01
1.475999999999999943e+02 2.654243332062037908e+01
1.480000000000000000e+02 2.650716326689084212e+01
1.484000000000000057e+02 2.647203257118346897e+01
1.488000000000000114e+02 2.643704030308964903e+01
1.492000000000000171e+02 2.640218554095681469e+01
1.495999999999999943e+02 2.636735372370606001e+01
1.500000000000000000e+02 2.633263857275512265e+01
