1.000000000000000000e+01 2.039941991818243991e+02
1.040000000000000036e+01 2.017450214338378203e+02
1.080000000000000071e+01 2.019437024854910305e+02
1.119999999999999929e+01 2.062856233800908115e+02
1.159999999999999964e+01 2.074530736069655177e+02
1.200000000000000000e+01 2.013845596760419880e+02
1.240000000000000036e+01 1.901041311664802720e+02
1.280000000000000071e+01 1.773580671806296323e+02
1.319999999999999929e+01 1.730891113750162162e+02
1.359999999999999964e+01 1.691198641212046709e+02
1.400000000000000000e+01 1.654147181252772327e+02
1.440000000000000036e+01 1.617600459909953940e+02
1.480000000000000071e+01 1.582539381703353456e+02
1.519999999999999929e+01 1.549672334352181338e+02
1.560000000000000142e+01 1.526231331564686684e+02
1.600000000000000000e+01 1.503650468308865129e+02
1.639999999999999858e+01 1.481773253695600658e+02
1.680000000000000071e+01 1.461161549882181703e+02
1.719999999999999929e+01 1.441694066609236131e+02
1.760000000000000142e+01 1.423265438806507177e+02
1.800000000000000000e+01 1.424966073374700386e+02
1.839999999999999858e+01 1.408654851861566328e+02
1.880000000000000071e+01 1.360630220049057471e+02
1.920000000000000284e+01 1.254793371850341828e+02
1.960000000000000142e+01 1.235633399339305925e+02
2.000000000000000000e+01 1.245533598005728777e+02
2.039999999999999858e+01 1.227906713749700884e+02
2.080000000000000071e+01 1.211017443990323557e+02
2.120000000000000284e+01 1.194815148607509911e+02
2.160000000000000142e+01 1.179432912690589319e+02
2.200000000000000000e+01 1.164717615752393840e+02
2.239999999999999858e+01 1.150545420382849500e+02
2.280000000000000071e+01 1.136883404040824956e+02
2.320000000000000284e+01 1.123374819881680509e+02
2.360000000000000142e+01 1.108988382696606152e+02
2.400000000000000000e+01 1.095065066775222391e+02
2.439999999999999858e+01 1.081937313583223386e+02
2.480000000000000071e+01 1.069474112056608703e+02
2.520000000000000284e+01 1.057371877818986263e+02
2.560000000000000142e+01 1.042287134366451937e+02
2.600000000000000000e+01 1.030944455461012836e+02
2.640000000000000213e+01 1.019908759656584181e+02
2.680000000000000071e+01 1.009166250740294686e+02
2.719999999999999929e+01 9.987039996579392209e+01
2.760000000000000142e+01 9.885098746700154493e+01
2.800000000000000000e+01 9.785724783447983555e+01
2.840000000000000213e+01 9.688810906031413595e+01
2.880000000000000071e+01 9.594256171329155336e+01
2.920000000000000284e+01 9.501965425789930464e+01
2.960000000000000142e+01 9.411848879899174847e+01
3.000000000000000000e+01 9.323094088914682231e+01
3.040000000000000213e+01 9.135270253681660790e+01
3.080000000000000071e+01 9.050340662500987321e+01
3.120000000000000284e+01 8.967334606978995737e+01
3.160000000000000142e+01 8.886180201753751362e+01
3.200000000000000000e+01 9.132836213693052230e+01
3.240000000000000568e+01 9.064739308255559536e+01
3.279999999999999716e+01 8.998046785518680224e+01
3.320000000000000284e+01 8.932709884014094825e+01
3.360000000000000142e+01 8.868682228074274576e+01
3.400000000000000000e+01 8.805919677500131115e+01
3.440000000000000568e+01 8.744380188780478136e+01
3.479999999999999716e+01 8.684023686819307386e+01
3.520000000000000284e+01 8.598292351420512603e+01
3.560000000000000142e+01 8.543264920743374091e+01
3.600000000000000000e+01 8.489228053953745246e+01
3.640000000000000568e+01 8.435484362097449207e+01
3.679999999999999716e+01 8.381602572747699753e+01
3.720000000000000284e+01 8.328677846365235382e+01
3.760000000000000142e+01 8.276681798082013586e+01
3.800000000000000000e+01 8.225587222036736534e+01
3.840000000000000568e+01 8.175368028554001398e+01
3.879999999999999716e+01 8.125999185395352242e+01
3.920000000000000284e+01 8.077456662772392804e+01
3.960000000000000142e+01 8.029717381839013512e+01
4.000000000000000000e+01 7.982759166404204620e+01
4.040000000000000568e+01 7.936448565943626932e+01
4.079999999999999716e+01 7.890871235191231392e+01
4.120000000000000284e+01 7.847301508231655021e+01
4.160000000000000142e+01 7.804445199461433447e+01
4.200000000000000000e+01 7.762282661825149432e+01
4.239999999999999858e+01 7.720795001072501407e+01
4.280000000000000426e+01 7.679964039047213475e+01
4.320000000000000284e+01 7.655127839664572775e+01
4.360000000000000142e+01 7.617244728707071033e+01
4.400000000000000000e+01 7.579926799120693204e+01
4.439999999999999858e+01 7.543159741011251640e+01
4.480000000000000426e+01 7.506929751872664269e+01
4.520000000000000284e+01 7.470620408615243946e+01
4.560000000000000142e+01 7.434563344068925517e+01
4.600000000000000000e+01 7.399025118385371513e+01
4.639999999999999858e+01 7.363993060475799268e+01
4.680000000000000426e+01 7.332466644730654082e+01
4.720000000000000284e+01 7.298722999739024431e+01
4.760000000000000142e+01 7.265444654721034112e+01
4.800000000000000000e+01 7.232620728167637481e+01
4.840000000000000568e+01 7.159387280542934207e+01
4.880000000000000426e+01 7.126581176960813480e+01
4.920000000000000284e+01 7.094223023280078166e+01
4.960000000000000142e+01 7.062302530346718754e+01
5.000000000000000000e+01 7.030809738139977583e+01
5.040000000000000568e+01 6.999419184092302260e+01
5.080000000000000426e+01 6.968331390022453320e+01
5.120000000000000284e+01 6.937651332592041342e+01
5.160000000000000142e+01 6.907370033415011790e+01
5.200000000000000000e+01 6.877478789187151165e+01
5.240000000000000568e+01 6.847969160953260825e+01
5.280000000000000426e+01 6.818832963881141040e+01
5.320000000000000284e+01 6.790010698664056576e+01
5.360000000000000142e+01 6.761504936243758834e+01
5.400000000000000000e+01 6.733349764114275615e+01
5.440000000000000568e+01 6.705537926184256037e+01
5.480000000000000426e+01 6.678062375592708122e+01
5.520000000000000284e+01 6.650916267020278383e+01
5.560000000000000142e+01 6.624044175244092969e+01
5.600000000000000000e+01 6.596766943895852364e+01
5.640000000000000568e+01 6.569795007550131061e+01
5.680000000000000426e+01 6.543122677483572147e+01
5.720000000000000284e+01 6.516744413492166643e+01
5.760000000000000142e+01 6.490654818900304690e+01
5.800000000000000000e+01 6.464848635774848162e+01
5.840000000000000568e+01 6.468115646476381642e+01
5.880000000000000426e+01 6.443504169211959720e+01
5.920000000000000284e+01 6.419151296784707483e+01
5.960000000000000142e+01 6.395052512301055003e+01
6.000000000000000000e+01 6.371203409043387467e+01
6.040000000000000568e+01 6.349194163853702122e+01
6.080000000000000426e+01 6.325922547784007577e+01
6.120000000000000284e+01 6.302887829654800100e+01
6.160000000000000142e+01 6.280086002427415792e+01
6.200000000000000000e+01 6.257513153737220080e+01
6.240000000000000568e+01 6.235165463020952359e+01
6.280000000000000426e+01 6.213039198750477965e+01
6.320000000000000284e+01 6.191130715768279202e+01
6.360000000000000142e+01 6.169436452720317021e+01
6.400000000000000000e+01 6.147952929581983028e+01
6.440000000000000568e+01 6.126676745273267244e+01
6.480000000000001137e+01 6.105604575359253516e+01
6.520000000000000284e+01 6.084733169832369981e+01
6.559999999999999432e+01 6.064059350973001017e+01
6.600000000000000000e+01 6.043580011285129672e+01
6.640000000000000568e+01 6.023323554969952198e+01
6.680000000000001137e+01 6.018110529722649460e+01
6.720000000000000284e+01 5.999515672150691614e+01
6.759999999999999432e+01 5.981085496037392346e+01
6.800000000000000000e+01 5.962815142257645107e+01
6.840000000000000568e+01 5.944705956546836489e+01
6.880000000000001137e+01 5.926755546505228267e+01
6.920000000000000284e+01 5.908961569784153767e+01
6.959999999999999432e+01 5.891321732732728123e+01
7.000000000000000000e+01 5.873833789089421487e+01
7.040000000000000568e+01 5.856495538716730209e+01
7.080000000000001137e+01 5.839304826377275504e+01
7.120000000000000284e+01 5.822259540549715240e+01
7.159999999999999432e+01 5.805340703858724538e+01
7.200000000000000000e+01 5.788513547983165353e+01
7.240000000000000568e+01 5.771826342716773439e+01
7.280000000000001137e+01 5.755277132120087913e+01
7.320000000000000284e+01 5.738863998742315431e+01
7.359999999999999432e+01 5.722585062643000953e+01
7.400000000000000000e+01 5.706438480444172257e+01
7.440000000000000568e+01 5.690422444411875347e+01
7.479999999999999716e+01 5.674535181565946118e+01
7.520000000000000284e+01 5.658774952817086046e+01
7.560000000000000853e+01 5.637567129951823119e+01
7.600000000000000000e+01 5.621653627177185797e+01
7.640000000000000568e+01 5.606408547680897669e+01
7.679999999999999716e+01 5.591282741725145655e+01
7.720000000000000284e+01 5.576274640752887990e+01
7.760000000000000853e+01 5.561239932139058340e+01
7.800000000000000000e+01 5.546284280190064919e+01
7.840000000000000568e+01 5.531447633771649208e+01
7.879999999999999716e+01 5.516728382927661301e+01
7.920000000000000284e+01 5.502124948337720411e+01
7.960000000000000853e+01 5.487635780569343069e+01
8.000000000000000000e+01 5.473259359352250186e+01
8.040000000000000568e+01 5.458994192874114759e+01
8.079999999999999716e+01 5.444838817097009098e+01
8.120000000000000284e+01 5.430791795093800545e+01
8.160000000000000853e+01 5.416851716403866135e+01
8.200000000000000000e+01 5.403017196407405720e+01
8.240000000000000568e+01 5.389286875717766634e+01
8.279999999999999716e+01 5.375659419591162447e+01
8.320000000000000284e+01 5.362133517353174739e+01
8.360000000000000853e+01 5.348707881841516354e+01
8.400000000000000000e+01 5.335364354120272168e+01
8.440000000000000568e+01 5.322105315452555629e+01
8.479999999999999716e+01 5.308923027691501062e+01
8.520000000000000284e+01 5.295728254458873607e+01
8.560000000000000853e+01 5.282629463060806074e+01
8.600000000000000000e+01 5.269625468224346321e+01
8.640000000000000568e+01 5.256715105247677400e+01
8.680000000000001137e+01 5.243897229542379534e+01
8.720000000000000284e+01 5.231170716188078984e+01
8.760000000000000853e+01 5.219502525458526065e+01
8.800000000000000000e+01 5.207209212036207191e+01
8.840000000000000568e+01 5.195001642267045128e+01
8.880000000000001137e+01 5.182878803298831372e+01
8.920000000000000284e+01 5.170839699048342908e+01
8.960000000000000853e+01 5.158883349845994104e+01
9.000000000000000000e+01 5.147008792089661711e+01
9.040000000000000568e+01 5.135215077907361092e+01
9.080000000000001137e+01 5.123501274828525709e+01
9.120000000000000284e+01 5.111866465463649689e+01
9.160000000000000853e+01 5.100309747192004295e+01
9.200000000000000000e+01 5.088830231857224362e+01
9.240000000000000568e+01 5.077427045470511757e+01
9.280000000000001137e+01 5.066192143012318638e+01
9.320000000000000284e+01 5.054992208818920574e+01
9.360000000000000853e+01 5.043865714337898964e+01
9.400000000000000000e+01 5.032811843370915739e+01
9.440000000000000568e+01 5.021829792448971830e+01
9.480000000000001137e+01 5.010918770578093273e+01
9.520000000000000284e+01 5.002664195509068890e+01
9.560000000000000853e+01 4.991997832704794291e+01
9.600000000000000000e+01 4.981399034116519431e+01
9.640000000000000568e+01 4.970867072744896120e+01
9.680000000000001137e+01 4.960401232594063003e+01
9.720000000000000284e+01 4.950000808457863855e+01
9.760000000000000853e+01 4.939665105711111437e+01
9.800000000000000000e+01 4.929312594736412478e+01
9.840000000000000568e+01 4.919011384698588074e+01
9.880000000000001137e+01 4.908772137400267610e+01
9.920000000000000284e+01 4.898594226679192332e+01
9.960000000000000853e+01 4.888477035259404602e+01
1.000000000000000000e+02 4.878419954588608221e+01
1.004000000000000057e+02 4.868422384679177384e+01
1.008000000000000114e+02 4.858483733952725458e+01
1.012000000000000028e+02 4.848603419088115629e+01
1.016000000000000085e+02 4.838780864872852305e+01
1.020000000000000000e+02 4.829003165307460677e+01
1.024000000000000057e+02 4.819272096535090810e+01
1.028000000000000114e+02 4.809597266848885511e+01
1.032000000000000028e+02 4.799978130264814524e+01
1.036000000000000085e+02 4.790408803326719323e+01
1.040000000000000000e+02 4.780847813230734289e+01
1.044000000000000057e+02 4.771341365705423954e+01
1.048000000000000114e+02 4.761888938287822981e+01
1.052000000000000028e+02 4.752490015537969015e+01
1.056000000000000085e+02 4.743136505479846221e+01
1.060000000000000000e+02 4.733832516612426389e+01
1.064000000000000057e+02 4.724580586840042429e+01
1.068000000000000114e+02 4.715380227269108104e+01
1.072000000000000028e+02 4.706230955446602593e+01
1.076000000000000085e+02 4.697132295250745671e+01
1.080000000000000000e+02 4.688083776783960133e+01
1.084000000000000057e+02 4.679084936268029082e+01
1.088000000000000114e+02 4.670135315941436716e+01
1.092000000000000028e+02 4.661234463958808050e+01
1.096000000000000085e+02 4.652381934292403542e+01
1.100000000000000000e+02 4.643577286635633072e+01
1.104000000000000057e+02 4.634820086308518938e+01
1.108000000000000114e+02 4.626109904165082298e+01
1.112000000000000028e+02 4.618777229445176147e+01
1.116000000000000085e+02 4.610345277711782330e+01
1.120000000000000000e+02 4.601831142823279919e+01
1.124000000000000057e+02 4.593535961037865434e+01
1.128000000000000114e+02 4.585284383305625511e+01
1.132000000000000028e+02 4.577076022774787845e+01
1.136000000000000085e+02 4.568910497426932693e+01
1.140000000000000000e+02 4.560787429999019338e+01
1.144000000000000057e+02 4.552706447906931686e+01
1.148000000000000114e+02 4.544667183170550828e+01
1.152000000000000028e+02 4.536669272340283499e+01
1.156000000000000085e+02 4.528712356425035779e+01
1.160000000000000000e+02 4.520796080821594387e+01
1.164000000000000057e+02 4.512920095245360130e+01
1.168000000000000114e+02 4.505369486219803576e+01
1.172000000000000028e+02 4.497580903276517006e+01
1.176000000000000085e+02 4.489831620136363455e+01
1.180000000000000000e+02 4.482121302221737125e+01
1.184000000000000057e+02 4.474449618963274844e+01
1.188000000000000114e+02 4.466816243737896031e+01
1.192000000000000028e+02 4.459220853808010787e+01
1.196000000000000085e+02 4.451663130261878365e+01
1.200000000000000000e+02 4.444142757955084022e+01
1.204000000000000057e+02 4.436659425453115091e+01
1.208000000000000114e+02 4.429212824975011387e+01
1.212000000000000028e+02 4.421802652338062956e+01
1.216000000000000085e+02 4.414426223261366999e+01
1.220000000000000000e+02 4.407062230456834584e+01
1.224000000000000057e+02 4.399733891663827023e+01
1.228000000000000114e+02 4.393818395943723232e+01
1.232000000000000028e+02 4.386612823166093733e+01
1.236000000000000085e+02 4.379441669253270675e+01
1.240000000000000000e+02 4.372304656549275848e+01
1.244000000000000057e+02 4.365183752791543270e+01
1.248000000000000114e+02 4.358065234859530079e+01
1.252000000000000028e+02 4.350980744130917088e+01
1.256000000000000085e+02 4.343930004219108554e+01
1.260000000000000000e+02 4.336912741904681923e+01
1.264000000000000057e+02 4.329928687088657568e+01
1.268000000000000114e+02 4.322977572746626862e+01
1.272000000000000028e+02 4.316059134883695236e+01
1.276000000000000085e+02 4.309173112490221058e+01
1.280000000000000000e+02 4.302319156581157245e+01
1.284000000000000057e+02 4.295496358702381201e+01
1.288000000000000114e+02 4.288705153294426253e+01
1.291999999999999886e+02 4.281945291673769560e+01
1.296000000000000227e+02 4.275216527920905918e+01
1.300000000000000000e+02 4.268518618840772660e+01
1.304000000000000057e+02 4.261851323923859525e+01
1.308000000000000114e+02 4.255214405307994241e+01
1.311999999999999886e+02 4.248607627740796033e+01
1.316000000000000227e+02 4.242030758542774294e+01
1.320000000000000000e+02 4.235483567571078112e+01
1.324000000000000057e+02 4.229384301621281850e+01
1.328000000000000114e+02 4.222928452466903337e+01
1.331999999999999886e+02 4.216501453321112791e+01
1.336000000000000227e+02 4.210103085138026557e+01
1.340000000000000000e+02 4.203733131220688080e+01
1.344000000000000057e+02 4.197391377188585437e+01
1.348000000000000114e+02 4.191077610945752241e+01
1.351999999999999886e+02 4.184791622649368037e+01
1.356000000000000227e+02 4.178533204678917201e+01
1.360000000000000000e+02 4.172302151605850895e+01
1.364000000000000057e+02 4.166098260163740008e+01
1.368000000000000114e+02 4.159923161811381931e+01
1.371999999999999886e+02 4.153844957915701031e+01
1.376000000000000227e+02 4.147792895344732500e+01
1.380000000000000000e+02 4.141766783525453377e+01
1.384000000000000057e+02 4.135766433842750445e+01
1.388000000000000114e+02 4.129791659613525923e+01
1.392000000000000171e+02 4.123842276061229484e+01
1.395999999999999943e+02 4.117918100290789596e+01
1.400000000000000000e+02 4.112018951263954136e+01
1.404000000000000057e+02 4.105691679441412134e+01
1.408000000000000114e+02 4.099862611440604354e+01
1.412000000000000171e+02 4.094057953051144239e+01
1.415999999999999943e+02 4.088269388083067213e+01
1.420000000000000000e+02 4.082500329526463645e+01
1.424000000000000057e+02 4.076755240087283738e+01
1.428000000000000114e+02 4.071033950997215101e+01
1.432000000000000171e+02 4.065333655047122363e+01
1.435999999999999943e+02 4.059651127900333023e+01
1.440000000000000000e+02 4.053991950364796537e+01
1.444000000000000057e+02 4.048355959843826213e+01
1.448000000000000114e+02 4.042742995337130196e+01
1.452000000000000171e+02 4.037152897420617848e+01
1.455999999999999943e+02 4.031585508226532966e+01
1.460000000000000000e+02 4.026040671423893258e+01
1.464000000000000057e+02 4.020518232199207631e+01
1.468000000000000114e+02 4.015018037237521042e+01
1.472000000000000171e+02 4.009539934703729358e+01
1.475999999999999943e+02 4.004083774224177716e+01
1.480000000000000000e+02 3.998649406868543110e+01
1.484000000000000057e+02 3.993236685131996921e+01
1.488000000000000114e+02 3.987845462917623252e+01
1.492000000000000171e+02 3.982475595519113654e+01
1.495999999999999943e+02 3.977092845180867897e+01
1.500000000000000000e+02 3.971725457689483818e+01
