1.000000000000000000e+01 1.600425170073852144e+02
1.040000000000000036e+01 1.582694985017937199e+02
1.080000000000000071e+01 1.580418284326596563e+02
1.119999999999999929e+01 1.599997352213509885e+02
1.159999999999999964e+01 1.670362931155910928e+02
1.200000000000000000e+01 1.641251974358946200e+02
1.240000000000000036e+01 1.594969658735346343e+02
1.280000000000000071e+01 1.552476014829375117e+02
1.319999999999999929e+01 1.491051358737745716e+02
1.359999999999999964e+01 1.450836061752970920e+02
1.400000000000000000e+01 1.413793653421169267e+02
1.440000000000000036e+01 1.379500798234493004e+02
1.480000000000000071e+01 1.347613371617762823e+02
1.519999999999999929e+01 1.317847595876644391e+02
1.560000000000000142e+01 1.294992667682184049e+02
1.600000000000000000e+01 1.274896145354483110e+02
1.639999999999999858e+01 1.255976190099829068e+02
1.680000000000000071e+01 1.238116569419146060e+02
1.719999999999999929e+01 1.221217000384320102e+02
1.760000000000000142e+01 1.216149791832568496e+02
1.800000000000000000e+01 1.201238841797512578e+02
1.839999999999999858e+01 1.187049344865957465e+02
1.880000000000000071e+01 1.141043775879107613e+02
1.920000000000000284e+01 1.066984866676299504e+02
1.960000000000000142e+01 1.050866787482283655e+02
2.000000000000000000e+01 1.035455623862647201e+02
2.039999999999999858e+01 1.009500998583577172e+02
2.080000000000000071e+01 9.963663937615943667e+01
2.120000000000000284e+01 9.837495656350625950e+01
2.160000000000000142e+01 9.716164573036085983e+01
2.200000000000000000e+01 9.599361129940355397e+01
2.239999999999999858e+01 9.487087549337215364e+01
2.280000000000000071e+01 9.379014684976758076e+01
2.320000000000000284e+01 9.272468789930337607e+01
2.360000000000000142e+01 9.160546777627959614e+01
2.400000000000000000e+01 9.052162930129458118e+01
2.439999999999999858e+01 8.947129953493174526e+01
2.480000000000000071e+01 8.844546539565277499e+01
2.520000000000000284e+01 8.740233484099265127e+01
2.560000000000000142e+01 8.639265611778961329e+01
2.600000000000000000e+01 8.541612971977032487e+01
2.640000000000000213e+01 8.446738705804229141e+01
2.680000000000000071e+01 8.354511912457640221e+01
2.719999999999999929e+01 8.264810284980494259e+01
2.760000000000000142e+01 8.177519389717679132e+01
2.800000000000000000e+01 8.092532018982078057e+01
2.840000000000000213e+01 8.009747608226314242e+01
2.880000000000000071e+01 7.929071710196308231e+01
2.920000000000000284e+01 7.834626096561784436e+01
2.960000000000000142e+01 7.758766211122811285e+01
3.000000000000000000e+01 7.684741497392396070e+01
3.040000000000000213e+01 7.612478598169748523e+01
3.080000000000000071e+01 7.541908239453674412e+01
3.120000000000000284e+01 7.548669794552530732e+01
3.160000000000000142e+01 7.482701140081721292e+01
3.200000000000000000e+01 7.635542353429346463e+01
3.240000000000000568e+01 7.578807565660279977e+01
3.279999999999999716e+01 7.523258546362762900e+01
3.320000000000000284e+01 7.468853535699426516e+01
3.360000000000000142e+01 7.415552841843360454e+01
3.400000000000000000e+01 7.363318709381258031e+01
3.440000000000000568e+01 7.312115197911063547e+01
3.479999999999999716e+01 7.261908069906559149e+01
3.520000000000000284e+01 7.179568265991854048e+01
3.560000000000000142e+01 7.133125673427250035e+01
3.600000000000000000e+01 7.087392647661903311e+01
3.640000000000000568e+01 7.042136139827988472e+01
3.679999999999999716e+01 6.997699274296496696e+01
3.720000000000000284e+01 6.954196996677190157e+01
3.760000000000000142e+01 6.911893726998881959e+01
3.800000000000000000e+01 6.870312112324194231e+01
3.840000000000000568e+01 6.829431487790738231e+01
3.879999999999999716e+01 6.789232021645774751e+01
3.920000000000000284e+01 6.749694671966875603e+01
3.960000000000000142e+01 6.710801146127865024e+01
4.000000000000000000e+01 6.672533862804928617e+01
4.040000000000000568e+01 6.634875916335377610e+01
4.079999999999999716e+01 6.597955131005393525e+01
4.120000000000000284e+01 6.562463967924540498e+01
4.160000000000000142e+01 6.527537494967143061e+01
4.200000000000000000e+01 6.493160543786733285e+01
4.239999999999999858e+01 6.459318516222195683e+01
4.280000000000000426e+01 6.425997356890765388e+01
4.320000000000000284e+01 6.393183527379205344e+01
4.360000000000000142e+01 6.360863981923911581e+01
4.400000000000000000e+01 6.329026144479271920e+01
4.439999999999999858e+01 6.271752920942077481e+01
4.480000000000000426e+01 6.250250975937277076e+01
4.520000000000000284e+01 6.220469310744272917e+01
4.560000000000000142e+01 6.190842601443761595e+01
4.600000000000000000e+01 6.161639911862004482e+01
4.639999999999999858e+01 6.132850984906645664e+01
4.680000000000000426e+01 6.104465911663093891e+01
4.720000000000000284e+01 6.076475116251161523e+01
4.760000000000000142e+01 6.048869341481857020e+01
4.800000000000000000e+01 6.021639635264773460e+01
4.840000000000000568e+01 5.967541727830692366e+01
4.880000000000000426e+01 5.940465271270347358e+01
4.920000000000000284e+01 5.913755794799028820e+01
4.960000000000000142e+01 5.887404945559369907e+01
5.000000000000000000e+01 5.861404636127107892e+01
5.040000000000000568e+01 5.835747033738513068e+01
5.080000000000000426e+01 5.810424550048007575e+01
5.120000000000000284e+01 5.785429831385344102e+01
5.160000000000000142e+01 5.760042041314962802e+01
5.200000000000000000e+01 5.734785155726848416e+01
5.240000000000000568e+01 5.709850760719722018e+01
5.280000000000000426e+01 5.685231908694491665e+01
5.320000000000000284e+01 5.660921860716850773e+01
5.360000000000000142e+01 5.636914078527738070e+01
5.400000000000000000e+01 5.613199615859553404e+01
5.440000000000000568e+01 5.589774568294297552e+01
5.480000000000000426e+01 5.566633202720912976e+01
5.520000000000000284e+01 5.543769714284733396e+01
5.560000000000000142e+01 5.521145947869727877e+01
5.600000000000000000e+01 5.498307962576016905e+01
5.640000000000000568e+01 5.475728245146059692e+01
5.680000000000000426e+01 5.453401899230044592e+01
5.720000000000000284e+01 5.431324158745454866e+01
5.760000000000000142e+01 5.409490383417074355e+01
5.800000000000000000e+01 5.387896054503507770e+01
5.840000000000000568e+01 5.385035768311992399e+01
5.880000000000000426e+01 5.364434583232915799e+01
5.920000000000000284e+01 5.344051245320660115e+01
5.960000000000000142e+01 5.323881890646958936e+01
6.000000000000000000e+01 5.303922751395377588e+01
6.040000000000000568e+01 5.284170152785972618e+01
6.080000000000000426e+01 5.284923085757373684e+01
6.120000000000000284e+01 5.266089266294545723e+01
6.160000000000000142e+01 5.247444766576471409e+01
6.200000000000000000e+01 5.228986406523081598e+01
6.240000000000000568e+01 5.210711080795039862e+01
6.280000000000000426e+01 5.192615756537500715e+01
6.320000000000000284e+01 5.174697471206984289e+01
6.360000000000000142e+01 5.156953330477757902e+01
6.400000000000000000e+01 5.139380506224274825e+01
6.440000000000000568e+01 5.123140174109332889e+01
6.480000000000001137e+01 5.105854074912195983e+01
6.520000000000000284e+01 5.088732368859422195e+01
6.559999999999999432e+01 5.071772442435836581e+01
6.600000000000000000e+01 5.054971740257160207e+01
6.640000000000000568e+01 5.038327763409422744e+01
6.680000000000001137e+01 5.031686002156703097e+01
6.720000000000000284e+01 5.016152845626150736e+01
6.759999999999999432e+01 5.000759812821058858e+01
6.800000000000000000e+01 4.985504770299361610e+01
6.840000000000000568e+01 4.970385630329315063e+01
6.880000000000001137e+01 4.955400349627456791e+01
6.920000000000000284e+01 4.940546928139158211e+01
6.959999999999999432e+01 4.925823407860069381e+01
7.000000000000000000e+01 4.911285259077906318e+01
7.040000000000000568e+01 4.896902408175764521e+01
7.080000000000001137e+01 4.882643050923863370e+01
7.120000000000000284e+01 4.868505411151181761e+01
7.159999999999999432e+01 4.854470840223026329e+01
7.200000000000000000e+01 4.840504892117782276e+01
7.240000000000000568e+01 4.826656152650900822e+01
7.280000000000001137e+01 4.812922975785049573e+01
7.320000000000000284e+01 4.799303748005298331e+01
7.359999999999999432e+01 4.785796887489405549e+01
7.400000000000000000e+01 4.772400843304031071e+01
7.440000000000000568e+01 4.759114094625947899e+01
7.479999999999999716e+01 4.745935149987302992e+01
7.520000000000000284e+01 4.732883597619221661e+01
7.560000000000000853e+01 4.719945394376096459e+01
7.600000000000000000e+01 4.707110097577257335e+01
7.640000000000000568e+01 4.694376339468813342e+01
7.679999999999999716e+01 4.681742777847514958e+01
7.720000000000000284e+01 4.669208095444734852e+01
7.760000000000000853e+01 4.656675817257838901e+01
7.800000000000000000e+01 4.644216124432504955e+01
7.840000000000000568e+01 4.631855392567339891e+01
7.879999999999999716e+01 4.619592296015699162e+01
7.920000000000000284e+01 4.607425534083260743e+01
7.960000000000000853e+01 4.593174095801143864e+01
8.000000000000000000e+01 4.581126373086529213e+01
8.040000000000000568e+01 4.569172077966963030e+01
8.079999999999999716e+01 4.557309984069140540e+01
8.120000000000000284e+01 4.545538887679507667e+01
8.160000000000000853e+01 4.533857607206117990e+01
8.200000000000000000e+01 4.522264982656053434e+01
8.240000000000000568e+01 4.510759875127893537e+01
8.279999999999999716e+01 4.499341166318718876e+01
8.320000000000000284e+01 4.488007758045155526e+01
8.360000000000000853e+01 4.476758571777988749e+01
8.400000000000000000e+01 4.465592548189902544e+01
8.440000000000000568e+01 4.454508646715898124e+01
8.479999999999999716e+01 4.443505845125984877e+01
8.520000000000000284e+01 4.432583139109726034e+01
8.560000000000000853e+01 4.421739541872267409e+01
8.600000000000000000e+01 4.410974083741457719e+01
8.640000000000000568e+01 4.400285811785727930e+01
8.680000000000001137e+01 4.389673789442352358e+01
8.720000000000000284e+01 4.377855797009530647e+01
8.760000000000000853e+01 4.367968891996817149e+01
8.800000000000000000e+01 4.357795349352499414e+01
8.840000000000000568e+01 4.347692683674741687e+01
8.880000000000001137e+01 4.337660060455488775e+01
8.920000000000000284e+01 4.327696658995863288e+01
8.960000000000000853e+01 4.317791176959761401e+01
9.000000000000000000e+01 4.307949600525791567e+01
9.040000000000000568e+01 4.298174512952152071e+01
9.080000000000001137e+01 4.288465150424042349e+01
9.120000000000000284e+01 4.278820761457289734e+01
9.160000000000000853e+01 4.269240606643108293e+01
9.200000000000000000e+01 4.259723958399305843e+01
9.240000000000000568e+01 4.250270100727694000e+01
9.280000000000001137e+01 4.240878328977581191e+01
9.320000000000000284e+01 4.231547949615119819e+01
9.360000000000000853e+01 4.222278279998368333e+01
9.400000000000000000e+01 4.213068648157879892e+01
9.440000000000000568e+01 4.203918392582676944e+01
9.480000000000001137e+01 4.194826862011440483e+01
9.520000000000000284e+01 4.185793415228779679e+01
9.560000000000000853e+01 4.176817420866418473e+01
9.600000000000000000e+01 4.167898257209178325e+01
9.640000000000000568e+01 4.159035312005602947e+01
9.680000000000001137e+01 4.150227982283118422e+01
9.720000000000000284e+01 4.141475674167570276e+01
9.760000000000000853e+01 4.132777802707039427e+01
9.800000000000000000e+01 4.124079894786891032e+01
9.840000000000000568e+01 4.115427238277413124e+01
9.880000000000001137e+01 4.106826824569726853e+01
9.920000000000000284e+01 4.098278121473649804e+01
9.960000000000000853e+01 4.089766141112860964e+01
1.000000000000000000e+02 4.081301750301808795e+01
1.004000000000000057e+02 4.072887624014349228e+01
1.008000000000000114e+02 4.065030372443114004e+01
1.012000000000000028e+02 4.056742823054408831e+01
1.016000000000000085e+02 4.048503963570740183e+01
1.020000000000000000e+02 4.040313311539647856e+01
1.024000000000000057e+02 4.032170391228137873e+01
1.028000000000000114e+02 4.024074733502055068e+01
1.032000000000000028e+02 4.016025875708117354e+01
1.036000000000000085e+02 4.008018016646031612e+01
1.040000000000000000e+02 4.000009764710744520e+01
1.044000000000000057e+02 3.992047405790047065e+01
1.048000000000000114e+02 3.984130496557714451e+01
1.052000000000000028e+02 3.976258599704814856e+01
1.056000000000000085e+02 3.968431283834475920e+01
1.060000000000000000e+02 3.960648123358910055e+01
1.064000000000000057e+02 3.952908698398627507e+01
1.068000000000000114e+02 3.945212594683797391e+01
1.072000000000000028e+02 3.937559403457692042e+01
1.076000000000000085e+02 3.929948721382162802e+01
1.080000000000000000e+02 3.922380150445101776e+01
1.084000000000000057e+02 3.914853297869834137e+01
1.088000000000000114e+02 3.907367776026406858e+01
1.092000000000000028e+02 3.899923202344707107e+01
1.096000000000000085e+02 3.892519199229373328e+01
1.100000000000000000e+02 3.885155393976471316e+01
1.104000000000000057e+02 3.877831418691863519e+01
1.108000000000000114e+02 3.870546910211253078e+01
1.112000000000000028e+02 3.864188785316917318e+01
1.116000000000000085e+02 3.857105779345108942e+01
1.120000000000000000e+02 3.850060445418067445e+01
1.124000000000000057e+02 3.843054268857147804e+01
1.128000000000000114e+02 3.836086892235709200e+01
1.132000000000000028e+02 3.829248733504287117e+01
1.136000000000000085e+02 3.822384650736823630e+01
1.140000000000000000e+02 3.815556646885278269e+01
1.144000000000000057e+02 3.808764403138377475e+01
1.148000000000000114e+02 3.802007604648714789e+01
1.152000000000000028e+02 3.795285940469135966e+01
1.156000000000000085e+02 3.788599103490344078e+01
1.160000000000000000e+02 3.781946790379767265e+01
1.164000000000000057e+02 3.775328701521571872e+01
1.168000000000000114e+02 3.768744540957893463e+01
1.172000000000000028e+02 3.762194016331175561e+01
1.176000000000000085e+02 3.755676838827622532e+01
1.180000000000000000e+02 3.749192723121765169e+01
1.184000000000000057e+02 3.742741387322061541e+01
1.188000000000000114e+02 3.736322552917559392e+01
1.192000000000000028e+02 3.729935944725556141e+01
1.196000000000000085e+02 3.723581290840267854e+01
1.200000000000000000e+02 3.717258322582460295e+01
1.204000000000000057e+02 3.710966774450028538e+01
1.208000000000000114e+02 3.704706384069510250e+01
1.212000000000000028e+02 3.698476892148500639e+01
1.216000000000000085e+02 3.692278042428956297e+01
1.220000000000000000e+02 3.686109581641369459e+01
1.224000000000000057e+02 3.679971259459782118e+01
1.228000000000000114e+02 3.675240308858344207e+01
1.232000000000000028e+02 3.669213853126203873e+01
1.236000000000000085e+02 3.663216431119275285e+01
1.240000000000000000e+02 3.657247807636120740e+01
1.244000000000000057e+02 3.649170955636134295e+01
1.248000000000000114e+02 3.643282827680536684e+01
1.252000000000000028e+02 3.637422941620239669e+01
1.256000000000000085e+02 3.631591068482784834e+01
1.260000000000000000e+02 3.625786981912661133e+01
1.264000000000000057e+02 3.620010458132765052e+01
1.268000000000000114e+02 3.614261275906571313e+01
1.272000000000000028e+02 3.608527462932148921e+01
1.276000000000000085e+02 3.602820327037650827e+01
1.280000000000000000e+02 3.597139963209912139e+01
1.284000000000000057e+02 3.591486159228631436e+01
1.288000000000000114e+02 3.585858705245154709e+01
1.291999999999999886e+02 3.580257393748319572e+01
1.296000000000000227e+02 3.574682019530904142e+01
1.300000000000000000e+02 3.569132379656660703e+01
1.304000000000000057e+02 3.563608273427929873e+01
1.308000000000000114e+02 3.558109502353815401e+01
1.311999999999999886e+02 3.552635870118914596e+01
1.316000000000000227e+02 3.547187182552583806e+01
1.320000000000000000e+02 3.541763247598749587e+01
1.324000000000000057e+02 3.536363875286217251e+01
1.328000000000000114e+02 3.530988877699504513e+01
1.331999999999999886e+02 3.525638068950174642e+01
1.336000000000000227e+02 3.520311265148644964e+01
1.340000000000000000e+02 3.515008284376488490e+01
1.344000000000000057e+02 3.509728946659191706e+01
1.348000000000000114e+02 3.504473073939390559e+01
1.351999999999999886e+02 3.499240490050531349e+01
1.356000000000000227e+02 3.494031020690998446e+01
1.360000000000000000e+02 3.488844493398661939e+01
1.364000000000000057e+02 3.483640535699458241e+01
1.368000000000000114e+02 3.478437314859131391e+01
1.371999999999999886e+02 3.473303384977887021e+01
1.376000000000000227e+02 3.468191542417997653e+01
1.380000000000000000e+02 3.463101625614824997e+01
1.384000000000000057e+02 3.458033474671147900e+01
1.388000000000000114e+02 3.452986931335006204e+01
1.392000000000000171e+02 3.447961838977893478e+01
1.395999999999999943e+02 3.442958042573312127e+01
1.400000000000000000e+02 3.437975388675663879e+01
1.404000000000000057e+02 3.433013725399496963e+01
1.408000000000000114e+02 3.428072902399067345e+01
1.412000000000000171e+02 3.423152770848237481e+01
1.415999999999999943e+02 3.418245040503629184e+01
1.420000000000000000e+02 3.413353150048148876e+01
1.424000000000000057e+02 3.408603696415055850e+01
1.428000000000000114e+02 3.403770403954580104e+01
1.432000000000000171e+02 3.398957047046184243e+01
1.435999999999999943e+02 3.394163485895866472e+01
1.440000000000000000e+02 3.389389582093065201e+01
1.444000000000000057e+02 3.384635198593031902e+01
1.448000000000000114e+02 3.379900199699463315e+01
1.452000000000000171e+02 3.375184451047411471e+01
1.455999999999999943e+02 3.370487819586459466e+01
1.460000000000000000e+02 3.365810173564151597e+01
1.464000000000000057e+02 3.361151382509676466e+01
1.468000000000000114e+02 3.356511317217815105e+01
1.472000000000000171e+02 3.351889849733117899e+01
1.475999999999999943e+02 3.347286853334326651e+01
1.480000000000000000e+02 3.342702202519043908e+01
1.484000000000000057e+02 3.338135772988622563e+01
1.488000000000000114e+02 3.333587441633292769e+01
1.492000000000000171e+02 3.329057086517504160e+01
1.495999999999999943e+02 3.324521857250269363e+01
1.500000000000000000e+02 3.322681121936386006e+01
