1.000000000000000000e+01 9.927471801598431966e+01
1.040000000000000036e+01 1.011311584378598099e+02
1.080000000000000071e+01 1.037315194085953323e+02
1.119999999999999929e+01 1.109777190931422837e+02
1.159999999999999964e+01 1.195438489496698651e+02
1.200000000000000000e+01 1.317234156680625574e+02
1.240000000000000036e+01 1.435755549524465096e+02
1.280000000000000071e+01 1.543449120838230328e+02
1.319999999999999929e+01 1.679733778127752544e+02
1.359999999999999964e+01 1.843988583330569213e+02
1.400000000000000000e+01 2.050753614855910314e+02
1.440000000000000036e+01 2.391743042094516341e+02
1.480000000000000071e+01 2.510422136690492607e+02
1.519999999999999929e+01 2.457841526148993125e+02
1.560000000000000142e+01 2.409156270107370119e+02
1.600000000000000000e+01 2.363879826746811830e+02
1.639999999999999858e+01 2.321608963672130983e+02
1.680000000000000071e+01 2.282005984036586597e+02
1.719999999999999929e+01 2.244785426574748612e+02
1.760000000000000142e+01 2.209703956704626933e+02
1.800000000000000000e+01 2.176552574821754149e+02
1.839999999999999858e+01 2.145150534464950454e+02
1.880000000000000071e+01 2.115340540626934853e+02
1.920000000000000284e+01 2.086984919164196981e+02
1.960000000000000142e+01 2.059962531746698460e+02
2.000000000000000000e+01 2.034166269489410581e+02
2.039999999999999858e+01 2.009501000299866860e+02
2.080000000000000071e+01 1.985881875282253759e+02
2.120000000000000284e+01 1.963232921740103052e+02
2.160000000000000142e+01 1.941485866773417683e+02
2.200000000000000000e+01 1.920579147791821129e+02
2.239999999999999858e+01 1.900457075591355931e+02
2.280000000000000071e+01 1.881069122764932899e+02
2.320000000000000284e+01 1.862369315703281245e+02
2.360000000000000142e+01 1.844315712704769226e+02
2.400000000000000000e+01 1.826869954047627402e+02
2.439999999999999858e+01 1.809996872507148851e+02
2.480000000000000071e+01 1.793664154886898814e+02
2.520000000000000284e+01 1.777842046799477771e+02
2.560000000000000142e+01 1.762503094271490909e+02
2.600000000000000000e+01 1.747621916829626230e+02
2.640000000000000213e+01 1.733175007604109510e+02
2.680000000000000071e+01 1.719140556704057303e+02
2.719999999999999929e+01 1.705498294708756930e+02
2.760000000000000142e+01 1.692229353605019071e+02
2.800000000000000000e+01 1.679316142903394393e+02
2.840000000000000213e+01 1.666742239000961661e+02
2.880000000000000071e+01 1.654492286138116697e+02
2.920000000000000284e+01 1.642551907531325810e+02
2.960000000000000142e+01 1.630907625461159967e+02
3.000000000000000000e+01 1.619546789261628703e+02
3.040000000000000213e+01 1.608457510298074737e+02
3.080000000000000071e+01 1.597628603141000667e+02
3.120000000000000284e+01 1.587049532245624448e+02
3.160000000000000142e+01 1.576710363534594421e+02
3.200000000000000000e+01 1.566601720356474630e+02
3.240000000000000568e+01 1.556714743357311761e+02
3.279999999999999716e+01 1.547041053858384885e+02
3.320000000000000284e+01 1.537572720381528768e+02
3.360000000000000142e+01 1.528302228005280199e+02
3.400000000000000000e+01 1.519222450271466869e+02
3.440000000000000568e+01 1.510326623393589216e+02
3.479999999999999716e+01 1.501608322546014165e+02
3.520000000000000284e+01 1.493061440037239436e+02
3.560000000000000142e+01 1.484680165191738865e+02
3.600000000000000000e+01 1.476458965783581050e+02
3.640000000000000568e+01 1.468392570881458710e+02
3.679999999999999716e+01 1.460475954979282847e+02
3.720000000000000284e+01 1.452704323299327882e+02
3.760000000000000142e+01 1.445073098166271848e+02
3.800000000000000000e+01 1.437577906360558586e+02
3.840000000000000568e+01 1.430214567368471990e+02
3.879999999999999716e+01 1.422979082454274646e+02
3.920000000000000284e+01 1.415867624486884324e+02
3.960000000000000142e+01 1.408876528459912834e+02
4.000000000000000000e+01 1.402002282649555696e+02
4.040000000000000568e+01 1.395241520359928131e+02
4.079999999999999716e+01 1.388591012209987809e+02
4.120000000000000284e+01 1.382047658920293998e+02
4.160000000000000142e+01 1.375608484561542184e+02
4.200000000000000000e+01 1.369270630230119821e+02
4.239999999999999858e+01 1.363031348118942674e+02
4.280000000000000426e+01 1.356887995954522808e+02
4.320000000000000284e+01 1.350838031773672583e+02
4.360000000000000142e+01 1.344879009015454017e+02
4.400000000000000000e+01 1.339008571906007887e+02
4.439999999999999858e+01 1.333224451115693796e+02
4.480000000000000426e+01 1.327524459669647854e+02
4.520000000000000284e+01 1.321906489094357084e+02
4.560000000000000142e+01 1.316368505784223828e+02
4.600000000000000000e+01 1.310908547573341707e+02
4.639999999999999858e+01 1.305524720498840736e+02
4.680000000000000426e+01 1.300215195743203367e+02
4.720000000000000284e+01 1.294978206743907663e+02
4.760000000000000142e+01 1.289812046459602470e+02
4.800000000000000000e+01 1.284715064782853631e+02
4.840000000000000568e+01 1.279685666090194900e+02
4.880000000000000426e+01 1.274722306920903634e+02
4.920000000000000284e+01 1.269823493776544865e+02
4.960000000000000142e+01 1.264987781033872807e+02
5.000000000000000000e+01 1.260213768964217991e+02
5.040000000000000568e+01 1.255500101852958039e+02
5.080000000000000426e+01 1.250845466213112189e+02
5.120000000000000284e+01 1.246248589087512499e+02
5.160000000000000142e+01 1.241708236434372878e+02
5.200000000000000000e+01 1.237223211591433767e+02
5.240000000000000568e+01 1.232792353814167825e+02
5.280000000000000426e+01 1.228414536883846324e+02
5.320000000000000284e+01 1.224088667781525146e+02
5.360000000000000142e+01 1.219813685424271767e+02
5.400000000000000000e+01 1.215588559460190936e+02
5.440000000000000568e+01 1.211412289119022461e+02
5.480000000000000426e+01 1.207283902115289180e+02
5.520000000000000284e+01 1.203202453601164592e+02
5.560000000000000142e+01 1.199167025166397309e+02
5.600000000000000000e+01 1.195176723882807437e+02
5.640000000000000568e+01 1.191230681391003543e+02
5.680000000000000426e+01 1.187328053027122223e+02
5.720000000000000284e+01 1.183468016987527847e+02
5.760000000000000142e+01 1.179649773529515642e+02
5.800000000000000000e+01 1.175872544206197290e+02
5.840000000000000568e+01 1.172135571133837999e+02
5.880000000000000426e+01 1.168438116290024169e+02
5.920000000000000284e+01 1.164779460841130856e+02
5.960000000000000142e+01 1.161158904497645636e+02
6.000000000000000000e+01 1.157575764895986197e+02
6.040000000000000568e+01 1.154029377005529682e+02
6.080000000000000426e+01 1.150519092559636363e+02
6.120000000000000284e+01 1.147044279509527911e+02
6.160000000000000142e+01 1.143604321499928460e+02
6.200000000000000000e+01 1.140198617365452947e+02
6.240000000000000568e+01 1.136826580646769997e+02
6.280000000000000426e+01 1.133487639125621911e+02
6.320000000000000284e+01 1.130181234377837995e+02
6.360000000000000142e+01 1.126906821343512490e+02
6.400000000000000000e+01 1.123663867913580532e+02
6.440000000000000568e+01 1.120451854532038851e+02
6.480000000000001137e+01 1.117270273813125243e+02
6.520000000000000284e+01 1.114118630172785345e+02
6.559999999999999432e+01 1.110996439473798318e+02
6.600000000000000000e+01 1.107903228683965153e+02
6.640000000000000568e+01 1.104838535546792571e+02
6.680000000000001137e+01 1.101801908264128826e+02
6.720000000000000284e+01 1.098792905190245222e+02
6.759999999999999432e+01 1.095811094536867358e+02
6.800000000000000000e+01 1.092856054088705520e+02
6.840000000000000568e+01 1.089927370929029848e+02
6.880000000000001137e+01 1.087024641174880486e+02
6.920000000000000284e+01 1.084147469721508799e+02
6.959999999999999432e+01 1.081295469995670828e+02
7.000000000000000000e+01 1.078468263717410309e+02
7.040000000000000568e+01 1.075665480669988909e+02
7.080000000000001137e+01 1.072886758477627325e+02
7.120000000000000284e+01 1.070131742390753402e+02
7.159999999999999432e+01 1.067400085078451184e+02
7.200000000000000000e+01 1.064691446427826804e+02
7.240000000000000568e+01 1.062005493350020657e+02
7.280000000000001137e+01 1.059341899592605216e+02
7.320000000000000284e+01 1.056700345558116680e+02
7.359999999999999432e+01 1.054080518128490667e+02
7.400000000000000000e+01 1.051482110495165898e+02
7.440000000000000568e+01 1.048904821994649410e+02
7.479999999999999716e+01 1.046348357949327124e+02
7.520000000000000284e+01 1.043812429513325810e+02
7.560000000000000853e+01 1.041296753523240000e+02
7.600000000000000000e+01 1.038801052353535965e+02
7.640000000000000568e+01 1.036325053776464813e+02
7.679999999999999716e+01 1.033868490826317270e+02
7.720000000000000284e+01 1.031431101667856751e+02
7.760000000000000853e+01 1.029012629468787594e+02
7.800000000000000000e+01 1.026612822276103998e+02
7.840000000000000568e+01 1.024231432896182810e+02
7.879999999999999716e+01 1.021868218778487574e+02
7.920000000000000284e+01 1.019522941902754383e+02
7.960000000000000853e+01 1.017195368669535185e+02
8.000000000000000000e+01 1.014885269793982019e+02
8.040000000000000568e+01 1.012592420202758063e+02
8.079999999999999716e+01 1.010316598933965366e+02
8.120000000000000284e+01 1.008057589039988500e+02
8.160000000000000853e+01 1.005815177493150117e+02
8.200000000000000000e+01 1.003589155094082912e+02
8.240000000000000568e+01 1.001379316382726898e+02
8.279999999999999716e+01 9.991854595518626070e+01
8.320000000000000284e+01 9.970073863630935307e+01
8.360000000000000853e+01 9.948449020651963792e+01
8.400000000000000000e+01 9.926978153147632611e+01
8.440000000000000568e+01 9.905659380990522322e+01
8.479999999999999716e+01 9.884490856609832576e+01
8.520000000000000284e+01 9.863470764262009993e+01
8.560000000000000853e+01 9.842597319321406246e+01
8.600000000000000000e+01 9.821868767590322591e+01
8.640000000000000568e+01 9.801283384627794248e+01
8.680000000000001137e+01 9.780839475096523472e+01
8.720000000000000284e+01 9.760535372127381493e+01
8.760000000000000853e+01 9.740369436700902384e+01
8.800000000000000000e+01 9.720340057045284254e+01
8.840000000000000568e+01 9.700445648050293812e+01
8.880000000000001137e+01 9.680684650696650806e+01
8.920000000000000284e+01 9.661055531500392135e+01
8.960000000000000853e+01 9.641556781971686974e+01
9.000000000000000000e+01 9.622186918087794538e+01
9.040000000000000568e+01 9.602944479779550591e+01
9.080000000000001137e+01 9.583828030431141087e+01
9.120000000000000284e+01 9.564836156392641442e+01
9.160000000000000853e+01 9.545967466504978916e+01
9.200000000000000000e+01 9.527220591636947233e+01
9.240000000000000568e+01 9.508594184233913893e+01
9.280000000000001137e+01 9.490086917877832207e+01
9.320000000000000284e+01 9.471697486858273862e+01
9.360000000000000853e+01 9.453424605754142362e+01
9.400000000000000000e+01 9.435267009025710649e+01
9.440000000000000568e+01 9.417223450616749858e+01
9.480000000000001137e+01 9.399292703566405294e+01
9.520000000000000284e+01 9.381473559630536840e+01
9.560000000000000853e+01 9.363764828912292160e+01
9.600000000000000000e+01 9.346165339501601466e+01
9.640000000000000568e+01 9.328673937123352289e+01
9.680000000000001137e+01 9.311289484794022542e+01
9.720000000000000284e+01 9.294010862486487667e+01
9.760000000000000853e+01 9.276836966802801498e+01
9.800000000000000000e+01 9.259766710654724875e+01
9.840000000000000568e+01 9.242799022951780330e+01
9.880000000000001137e+01 9.225932848296601207e+01
9.920000000000000284e+01 9.209167146687421734e+01
9.960000000000000853e+01 9.192500893227463621e+01
1.000000000000000000e+02 9.175933077841051499e+01
1.004000000000000057e+02 9.159462704996280991e+01
1.008000000000000114e+02 9.143088793434031913e+01
1.012000000000000028e+02 9.126810375903191641e+01
1.016000000000000085e+02 9.110626498901878279e+01
1.020000000000000000e+02 9.094536222424554239e+01
1.024000000000000057e+02 9.078538619714805691e+01
1.028000000000000114e+02 9.062632777023722497e+01
1.032000000000000028e+02 9.046817793373629968e+01
1.036000000000000085e+02 9.031092780327116998e+01
1.040000000000000000e+02 9.015456861761182950e+01
1.044000000000000057e+02 8.999909173646352656e+01
1.048000000000000114e+02 8.984448863830670007e+01
1.052000000000000028e+02 8.969075091828418067e+01
1.056000000000000085e+02 8.953787028613436405e+01
1.060000000000000000e+02 8.938583856416943263e+01
1.064000000000000057e+02 8.923464768529719038e+01
1.068000000000000114e+02 8.908428969108570072e+01
1.072000000000000028e+02 8.893475672986917857e+01
1.076000000000000085e+02 8.878604105489466747e+01
1.080000000000000000e+02 8.863813502250793874e+01
1.084000000000000057e+02 8.849103109037798731e+01
1.088000000000000114e+02 8.834472181575897309e+01
1.092000000000000028e+02 8.819919985378874117e+01
1.096000000000000085e+02 8.805445795582298274e+01
1.100000000000000000e+02 8.791048896780412747e+01
1.104000000000000057e+02 8.776728582866425654e+01
1.108000000000000114e+02 8.762484156876092811e+01
1.112000000000000028e+02 8.748314930834536085e+01
1.116000000000000085e+02 8.734220225606216559e+01
1.120000000000000000e+02 8.720199370747955925e+01
1.124000000000000057e+02 8.706251704364984789e+01
1.128000000000000114e+02 8.692376572969881465e+01
1.132000000000000028e+02 8.678573331344395569e+01
1.136000000000000085e+02 8.664841342404039892e+01
1.140000000000000000e+02 8.651179977065399385e+01
1.144000000000000057e+02 8.637588614116108943e+01
1.148000000000000114e+02 8.624066640087409041e+01
1.152000000000000028e+02 8.610613449129243691e+01
1.156000000000000085e+02 8.597228442887805500e+01
1.160000000000000000e+02 8.583911030385542063e+01
1.164000000000000057e+02 8.570660627903453133e+01
1.168000000000000114e+02 8.557476658865751062e+01
1.172000000000000028e+02 8.544358553726732453e+01
1.176000000000000085e+02 8.531305749859859588e+01
1.180000000000000000e+02 8.518317691448987716e+01
1.184000000000000057e+02 8.505393829381694104e+01
1.188000000000000114e+02 8.492533621144636413e+01
1.192000000000000028e+02 8.479736530720947485e+01
1.196000000000000085e+02 8.467002028489551435e+01
1.200000000000000000e+02 8.454329591126419530e+01
1.204000000000000057e+02 8.441718701507684841e+01
1.208000000000000114e+02 8.429168848614585841e+01
1.212000000000000028e+02 8.416679527440199138e+01
1.216000000000000085e+02 8.404250238897915892e+01
1.220000000000000000e+02 8.391880489731633475e+01
1.224000000000000057e+02 8.379569792427614061e+01
1.228000000000000114e+02 8.367317665127976056e+01
1.232000000000000028e+02 8.355123631545791341e+01
1.236000000000000085e+02 8.342987220881732924e+01
1.240000000000000000e+02 8.330907967742263054e+01
1.244000000000000057e+02 8.318885412059317730e+01
1.248000000000000114e+02 8.306919099011443564e+01
1.252000000000000028e+02 8.295008578946382727e+01
1.256000000000000085e+02 8.283153407305044880e+01
1.260000000000000000e+02 8.271353144546856129e+01
1.264000000000000057e+02 8.259607356076449491e+01
1.268000000000000114e+02 8.247915612171678390e+01
1.272000000000000028e+02 8.236277487912896333e+01
1.276000000000000085e+02 8.224692563113509891e+01
1.280000000000000000e+02 8.213160422251760906e+01
1.284000000000000057e+02 8.201680654403708104e+01
1.288000000000000114e+02 8.190252853177403836e+01
1.291999999999999886e+02 8.178876616648199160e+01
1.296000000000000227e+02 8.167551547295227010e+01
1.300000000000000000e+02 8.156277251938939798e+01
1.304000000000000057e+02 8.145053341679775372e+01
1.308000000000000114e+02 8.133879431837866036e+01
1.311999999999999886e+02 8.122755141893796349e+01
1.316000000000000227e+02 8.111680095430369875e+01
1.320000000000000000e+02 8.100653920075393444e+01
1.324000000000000057e+02 8.089676247445430590e+01
1.328000000000000114e+02 8.078746713090504272e+01
1.331999999999999886e+02 8.067864956439765933e+01
1.336000000000000227e+02 8.057030620748054162e+01
1.340000000000000000e+02 8.046243353043387003e+01
1.344000000000000057e+02 8.035502804075309768e+01
1.348000000000000114e+02 8.024808628264128174e+01
1.351999999999999886e+02 8.014160483650987032e+01
1.356000000000000227e+02 8.003558031848785959e+01
1.360000000000000000e+02 7.993000937993892308e+01
1.364000000000000057e+02 7.982488870698685446e+01
1.368000000000000114e+02 7.972021502004849935e+01
1.371999999999999886e+02 7.961598507337475894e+01
1.376000000000000227e+02 7.951219565459877003e+01
1.380000000000000000e+02 7.940884358429181589e+01
1.384000000000000057e+02 7.930592571552612924e+01
1.388000000000000114e+02 7.920343893344519870e+01
1.392000000000000171e+02 7.910138015484074003e+01
1.395999999999999943e+02 7.899974632773663075e+01
1.400000000000000000e+02 7.889853443097956642e+01
1.404000000000000057e+02 7.879774147383633931e+01
1.408000000000000114e+02 7.869736449559735547e+01
1.412000000000000171e+02 7.859740056518680262e+01
1.415999999999999943e+02 7.849784678077878652e+01
1.420000000000000000e+02 7.839870026941963488e+01
1.424000000000000057e+02 7.829995818665631191e+01
1.428000000000000114e+02 7.820161771617043200e+01
1.432000000000000171e+02 7.810367606941825613e+01
1.435999999999999943e+02 7.800613048527637261e+01
1.440000000000000000e+02 7.790897822969267850e+01
1.444000000000000057e+02 7.781221659534298851e+01
1.448000000000000114e+02 7.771584290129301564e+01
1.452000000000000171e+02 7.761985449266549608e+01
1.455999999999999943e+02 7.752424874031251534e+01
1.460000000000000000e+02 7.742902304049283657e+01
1.464000000000000057e+02 7.733417481455427378e+01
1.468000000000000114e+02 7.723970150862095352e+01
1.472000000000000171e+02 7.714560059328513830e+01
1.475999999999999943e+02 7.705186956330400960e+01
1.480000000000000000e+02 7.695850593730108358e+01
1.484000000000000057e+02 7.686550725747176216e+01
1.488000000000000114e+02 7.677287108929382953e+01
1.492000000000000171e+02 7.668059502124208393e+01
1.495999999999999943e+02 7.658867666450711909e+01
1.500000000000000000e+02 7.649711365271856778e+01
