1.000000000000000000e+01 1.192305531362703732e+02
1.040000000000000036e+01 1.231536778820450451e+02
1.080000000000000071e+01 1.294893918123132437e+02
1.119999999999999929e+01 1.421178122701523421e+02
1.159999999999999964e+01 1.503019828631595374e+02
1.200000000000000000e+01 1.448847884203805449e+02
1.240000000000000036e+01 1.343006234706579676e+02
1.280000000000000071e+01 1.303805658370295077e+02
1.319999999999999929e+01 1.269588317952599681e+02
1.359999999999999964e+01 1.238304846407574189e+02
1.400000000000000000e+01 1.209537839873569567e+02
1.440000000000000036e+01 1.181112075274476609e+02
1.480000000000000071e+01 1.153984455743745059e+02
1.519999999999999929e+01 1.128849478257789656e+02
1.560000000000000142e+01 1.107955237989462489e+02
1.600000000000000000e+01 1.088930133181022768e+02
1.639999999999999858e+01 1.071154910070414559e+02
1.680000000000000071e+01 1.054495494056891260e+02
1.719999999999999929e+01 1.038837341066158046e+02
1.760000000000000142e+01 1.024081889350459562e+02
1.800000000000000000e+01 1.029326249673507050e+02
1.839999999999999858e+01 1.016435809275985065e+02
1.880000000000000071e+01 9.717152618323571289e+01
1.920000000000000284e+01 9.287797549460223934e+01
1.960000000000000142e+01 9.151205403494358848e+01
2.000000000000000000e+01 9.020952807597535639e+01
2.039999999999999858e+01 8.896556941162856447e+01
2.080000000000000071e+01 8.369524893367839979e+01
2.120000000000000284e+01 8.253914067619149364e+01
2.160000000000000142e+01 8.144769287691508453e+01
2.200000000000000000e+01 8.040663332991786660e+01
2.239999999999999858e+01 7.940453472065144069e+01
2.280000000000000071e+01 7.843898605103025545e+01
2.320000000000000284e+01 7.749689684501474574e+01
2.360000000000000142e+01 7.654279398894006192e+01
2.400000000000000000e+01 7.562037065837733962e+01
2.439999999999999858e+01 7.472788328123368728e+01
2.480000000000000071e+01 7.386372168029977558e+01
2.520000000000000284e+01 7.302639607960415447e+01
2.560000000000000142e+01 7.188191521843711485e+01
2.600000000000000000e+01 7.110307477219303962e+01
2.640000000000000213e+01 7.034668786872644830e+01
2.680000000000000071e+01 6.961168013544008204e+01
2.719999999999999929e+01 6.889704883542228231e+01
2.760000000000000142e+01 6.820185676932617014e+01
2.800000000000000000e+01 6.752522680608214500e+01
2.840000000000000213e+01 6.686633696659093573e+01
2.880000000000000071e+01 6.621634755755260926e+01
2.920000000000000284e+01 6.556468418056823566e+01
2.960000000000000142e+01 6.492951239221878268e+01
3.000000000000000000e+01 6.430286654724876882e+01
3.040000000000000213e+01 6.368829579246764894e+01
3.080000000000000071e+01 6.308860936736632397e+01
3.120000000000000284e+01 6.250321214298033823e+01
3.160000000000000142e+01 6.193154204449307798e+01
3.200000000000000000e+01 6.245982406763543793e+01
3.240000000000000568e+01 6.194589312641977585e+01
3.279999999999999716e+01 6.144333531268738824e+01
3.320000000000000284e+01 6.095173114989664498e+01
3.360000000000000142e+01 6.047068275009224436e+01
3.400000000000000000e+01 5.999981239448841563e+01
3.440000000000000568e+01 5.953876122716151542e+01
3.479999999999999716e+01 5.908718805130170892e+01
3.520000000000000284e+01 5.837957227045117747e+01
3.560000000000000142e+01 5.797675699682789485e+01
3.600000000000000000e+01 5.758166274897750725e+01
3.640000000000000568e+01 5.719404300505040339e+01
3.679999999999999716e+01 5.681366222612304995e+01
3.720000000000000284e+01 5.644029523066858900e+01
3.760000000000000142e+01 5.607372661225210919e+01
3.800000000000000000e+01 5.571375019694951902e+01
3.840000000000000568e+01 5.536016853731474185e+01
3.879999999999999716e+01 5.501279244000883750e+01
3.920000000000000284e+01 5.467144052446629132e+01
3.960000000000000142e+01 5.433593881020750160e+01
4.000000000000000000e+01 5.400612033061683803e+01
4.040000000000000568e+01 5.368070345434377089e+01
4.079999999999999716e+01 5.335915489000662149e+01
4.120000000000000284e+01 5.304718612557861945e+01
4.160000000000000142e+01 5.274040152019134808e+01
4.200000000000000000e+01 5.243865711130724350e+01
4.239999999999999858e+01 5.240307963996747276e+01
4.280000000000000426e+01 5.213335362616150803e+01
4.320000000000000284e+01 5.186772832681171508e+01
4.360000000000000142e+01 5.160609891338918942e+01
4.400000000000000000e+01 5.134836429991073459e+01
4.439999999999999858e+01 5.109442697218683804e+01
4.480000000000000426e+01 5.084419282652126526e+01
4.520000000000000284e+01 5.059153996746218951e+01
4.560000000000000142e+01 5.033982554594122405e+01
4.600000000000000000e+01 5.009175454232627089e+01
4.639999999999999858e+01 4.984723824602203024e+01
4.680000000000000426e+01 4.963630808432539965e+01
4.720000000000000284e+01 4.940177076794157784e+01
4.760000000000000142e+01 4.917048581050498512e+01
4.800000000000000000e+01 4.894237746724435567e+01
4.840000000000000568e+01 4.858119441041781528e+01
4.880000000000000426e+01 4.835635588536706564e+01
4.920000000000000284e+01 4.813456144729371999e+01
4.960000000000000142e+01 4.791574212769595675e+01
5.000000000000000000e+01 4.769983113617440296e+01
5.040000000000000568e+01 4.748676377259317860e+01
5.080000000000000426e+01 4.727647734353863029e+01
5.120000000000000284e+01 4.706891108282871983e+01
5.160000000000000142e+01 4.686400607584302236e+01
5.200000000000000000e+01 4.666170518745758500e+01
5.240000000000000568e+01 4.646195299338360485e+01
5.280000000000000426e+01 4.626469571472078002e+01
5.320000000000000284e+01 4.606936556704620500e+01
5.360000000000000142e+01 4.587601464105644311e+01
5.400000000000000000e+01 4.568500939745538858e+01
5.440000000000000568e+01 4.549630209595120078e+01
5.480000000000000426e+01 4.530984635239063607e+01
5.520000000000000284e+01 4.512559708952674953e+01
5.560000000000000142e+01 4.494334790962773951e+01
5.600000000000000000e+01 4.475557982683927349e+01
5.640000000000000568e+01 4.456907967515857649e+01
5.680000000000000426e+01 4.438471560027199558e+01
5.720000000000000284e+01 4.420244683546541609e+01
5.760000000000000142e+01 4.402223370214057496e+01
5.800000000000000000e+01 4.384403757253872413e+01
5.840000000000000568e+01 4.385281081013095417e+01
5.880000000000000426e+01 4.368381024499873888e+01
5.920000000000000284e+01 4.351662943448187093e+01
5.960000000000000142e+01 4.335123569136342070e+01
6.000000000000000000e+01 4.318759714928720683e+01
6.040000000000000568e+01 4.304162750463805764e+01
6.080000000000000426e+01 4.288231613081102012e+01
6.120000000000000284e+01 4.272466712129417488e+01
6.160000000000000142e+01 4.256865156063358313e+01
6.200000000000000000e+01 4.241424123676036118e+01
6.240000000000000568e+01 4.226140861902284485e+01
6.280000000000000426e+01 4.211012683705560278e+01
6.320000000000000284e+01 4.196036966044769656e+01
6.360000000000000142e+01 4.181211147917474591e+01
6.400000000000000000e+01 4.166532728476067149e+01
6.440000000000000568e+01 4.151999265213733281e+01
6.480000000000001137e+01 4.137608372217142971e+01
6.520000000000000284e+01 4.123357718482964174e+01
6.559999999999999432e+01 4.109245026295488401e+01
6.600000000000000000e+01 4.095268069662705557e+01
6.640000000000000568e+01 4.081424672808386589e+01
6.680000000000001137e+01 4.072636675872995227e+01
6.720000000000000284e+01 4.059456389126883380e+01
6.759999999999999432e+01 4.046397227339245006e+01
6.800000000000000000e+01 4.033454920283936929e+01
6.840000000000000568e+01 4.020631391335617622e+01
6.880000000000001137e+01 4.007924814754465359e+01
6.920000000000000284e+01 3.995333404144112421e+01
6.959999999999999432e+01 3.982855411361757092e+01
7.000000000000000000e+01 3.970489125465135061e+01
7.040000000000000568e+01 3.958232871694860933e+01
7.080000000000001137e+01 3.946085010490764233e+01
7.120000000000000284e+01 3.934043936540848563e+01
7.159999999999999432e+01 3.922091169437415914e+01
7.200000000000000000e+01 3.910192428804687381e+01
7.240000000000000568e+01 3.898396463572510839e+01
7.280000000000001137e+01 3.886701788335091123e+01
7.320000000000000284e+01 3.875106947773658561e+01
7.359999999999999432e+01 3.863610515873143925e+01
7.400000000000000000e+01 3.852211095163753640e+01
7.440000000000000568e+01 3.840907315986507342e+01
7.479999999999999716e+01 3.829697835781820459e+01
7.520000000000000284e+01 3.839933977375242335e+01
7.560000000000000853e+01 3.829149670297306329e+01
7.600000000000000000e+01 3.817945628441128036e+01
7.640000000000000568e+01 3.807375406987749500e+01
7.679999999999999716e+01 3.796890281103043208e+01
7.720000000000000284e+01 3.786489099810659553e+01
7.760000000000000853e+01 3.776123142976973668e+01
7.800000000000000000e+01 3.765827028006462740e+01
7.840000000000000568e+01 3.755613478755815038e+01
7.879999999999999716e+01 3.745481377453958771e+01
7.920000000000000284e+01 3.735429627577001810e+01
7.960000000000000853e+01 3.725457153329637805e+01
8.000000000000000000e+01 3.715562899141980324e+01
8.040000000000000568e+01 3.705745829181267936e+01
8.079999999999999716e+01 3.696004926877944285e+01
8.120000000000000284e+01 3.686339194465604407e+01
8.160000000000000853e+01 3.676747652534321986e+01
8.200000000000000000e+01 3.667229339596923410e+01
8.240000000000000568e+01 3.657783311667730430e+01
8.279999999999999716e+01 3.648408641853393419e+01
8.320000000000000284e+01 3.639104419955359759e+01
8.360000000000000853e+01 3.629869752083629919e+01
8.400000000000000000e+01 3.620686865537189192e+01
8.440000000000000568e+01 3.611558520938199734e+01
8.479999999999999716e+01 3.602497320339936948e+01
8.520000000000000284e+01 3.593502429610887106e+01
8.560000000000000853e+01 3.584573029178505266e+01
8.600000000000000000e+01 3.575708313702730123e+01
8.640000000000000568e+01 3.566907491758440329e+01
8.680000000000001137e+01 3.558169785526526141e+01
8.720000000000000284e+01 3.549494430493343344e+01
8.760000000000000853e+01 3.541053378508234317e+01
8.800000000000000000e+01 3.532666793859428367e+01
8.840000000000000568e+01 3.524338803587049540e+01
8.880000000000001137e+01 3.516068716331137267e+01
8.920000000000000284e+01 3.507855852183179479e+01
8.960000000000000853e+01 3.499699542442501610e+01
9.000000000000000000e+01 3.491599129378991506e+01
9.040000000000000568e+01 3.483553966001927904e+01
9.080000000000001137e+01 3.475563415834768932e+01
9.120000000000000284e+01 3.467626852695678963e+01
9.160000000000000853e+01 3.459743660483659511e+01
9.200000000000000000e+01 3.451913232970090917e+01
9.240000000000000568e+01 3.444134973595523519e+01
9.280000000000001137e+01 3.436501110362655709e+01
9.320000000000000284e+01 3.428878596311965765e+01
9.360000000000000853e+01 3.421306167364082995e+01
9.400000000000000000e+01 3.413783267647339414e+01
9.440000000000000568e+01 3.406311583124853115e+01
9.480000000000001137e+01 3.398892373484461160e+01
9.520000000000000284e+01 3.391520742321888093e+01
9.560000000000000853e+01 3.384196175185304156e+01
9.600000000000000000e+01 3.376918165426799590e+01
9.640000000000000568e+01 3.369686214050445727e+01
9.680000000000001137e+01 3.362499829563960674e+01
9.720000000000000284e+01 3.355358527833875115e+01
9.760000000000000853e+01 3.348261831944101630e+01
9.800000000000000000e+01 3.341182323601365312e+01
9.840000000000000568e+01 3.334142467658125497e+01
9.880000000000001137e+01 3.327145583330803902e+01
9.920000000000000284e+01 3.320191230600129728e+01
9.960000000000000853e+01 3.313278975764265510e+01
1.000000000000000000e+02 3.306408391322125340e+01
1.004000000000000057e+02 3.299579055859324228e+01
1.008000000000000114e+02 3.292790553936692532e+01
1.012000000000000028e+02 3.286042475981282962e+01
1.016000000000000085e+02 3.279334418179817590e+01
1.020000000000000000e+02 3.272653643624202147e+01
1.024000000000000057e+02 3.266002095281396578e+01
1.028000000000000114e+02 3.259389546040162600e+01
1.032000000000000028e+02 3.252815612322450534e+01
1.036000000000000085e+02 3.246274570926164671e+01
1.040000000000000000e+02 3.239725107186512076e+01
1.044000000000000057e+02 3.233213582892278737e+01
1.048000000000000114e+02 3.226739629597254577e+01
1.052000000000000028e+02 3.220302883869404553e+01
1.056000000000000085e+02 3.213902987203130124e+01
1.060000000000000000e+02 3.207539585933405846e+01
1.064000000000000057e+02 3.201212331151734958e+01
1.068000000000000114e+02 3.194920878623902638e+01
1.072000000000000028e+02 3.188664888709457301e+01
1.076000000000000085e+02 3.182444026282884408e+01
1.080000000000000000e+02 3.176257960656443302e+01
1.084000000000000057e+02 3.170106365504601342e+01
1.088000000000000114e+02 3.163988918790054328e+01
1.092000000000000028e+02 3.157905302691269966e+01
1.096000000000000085e+02 3.151855203531530236e+01
1.100000000000000000e+02 3.145838311709432844e+01
1.104000000000000057e+02 3.139854321630816969e+01
1.108000000000000114e+02 3.133902931642078826e+01
1.112000000000000028e+02 3.128427481612369476e+01
1.116000000000000085e+02 3.122602222211668277e+01
1.120000000000000000e+02 3.116681467600275823e+01
1.124000000000000057e+02 3.110966469775567589e+01
1.128000000000000114e+02 3.105281994000023715e+01
1.132000000000000028e+02 3.099627766330364054e+01
1.136000000000000085e+02 3.094003516275208554e+01
1.140000000000000000e+02 3.088408976739092182e+01
1.144000000000000057e+02 3.082843883967576204e+01
1.148000000000000114e+02 3.077307977493456548e+01
1.152000000000000028e+02 3.071801000084022704e+01
1.156000000000000085e+02 3.066322697689354726e+01
1.160000000000000000e+02 3.060872819391633470e+01
1.164000000000000057e+02 3.055451117355427471e+01
1.168000000000000114e+02 3.050057346778960365e+01
1.172000000000000028e+02 3.044691265846303807e+01
1.176000000000000085e+02 3.039352635680500114e+01
1.180000000000000000e+02 3.031887569607580701e+01
1.184000000000000057e+02 3.026653632808931960e+01
1.188000000000000114e+02 3.021446175701493075e+01
1.192000000000000028e+02 3.016264972666092348e+01
1.196000000000000085e+02 3.011109800785824930e+01
1.200000000000000000e+02 3.005980439804338644e+01
1.204000000000000057e+02 3.000876672084921992e+01
1.208000000000000114e+02 2.995798282570357429e+01
1.212000000000000028e+02 2.990745058743519280e+01
1.216000000000000085e+02 2.985714406946560118e+01
1.220000000000000000e+02 2.980685109487241036e+01
1.224000000000000057e+02 2.975680472688634737e+01
1.228000000000000114e+02 2.972077773198471462e+01
1.232000000000000028e+02 2.967174177489838627e+01
1.236000000000000085e+02 2.962294267120009295e+01
1.240000000000000000e+02 2.957437849113376060e+01
1.244000000000000057e+02 2.952598813452543425e+01
1.248000000000000114e+02 2.947772487643933914e+01
1.252000000000000028e+02 2.942969321819569117e+01
1.256000000000000085e+02 2.938189127966265701e+01
1.260000000000000000e+02 2.933431720219767058e+01
1.264000000000000057e+02 2.928696914833128773e+01
1.268000000000000114e+02 2.923984530145662575e+01
1.272000000000000028e+02 2.919294386552440557e+01
1.276000000000000085e+02 2.914626306474340112e+01
1.280000000000000000e+02 2.909980114328627820e+01
1.284000000000000057e+02 2.905355636500060967e+01
1.288000000000000114e+02 2.900752701312501713e+01
1.291999999999999886e+02 2.896171139001029715e+01
1.296000000000000227e+02 2.891610781684544307e+01
1.300000000000000000e+02 2.887071463338852340e+01
1.304000000000000057e+02 2.882553019770216096e+01
1.308000000000000114e+02 2.878055288589368388e+01
1.311999999999999886e+02 2.873578109185980622e+01
1.316000000000000227e+02 2.869121322703557553e+01
1.320000000000000000e+02 2.864684772014787129e+01
1.324000000000000057e+02 2.860686776134730991e+01
1.328000000000000114e+02 2.856322898271539756e+01
1.331999999999999886e+02 2.851978642299167532e+01
1.336000000000000227e+02 2.847653859069495752e+01
1.340000000000000000e+02 2.843348401030945283e+01
1.344000000000000057e+02 2.839062122206455285e+01
1.348000000000000114e+02 2.834794878171853938e+01
1.351999999999999886e+02 2.830546526034575194e+01
1.356000000000000227e+02 2.826316924412744669e+01
1.360000000000000000e+02 2.822105933414605516e+01
1.364000000000000057e+02 2.817913414618291412e+01
1.368000000000000114e+02 2.813739841916076756e+01
1.371999999999999886e+02 2.809607846565396372e+01
1.376000000000000227e+02 2.805493775710060333e+01
1.380000000000000000e+02 2.801397498056570967e+01
1.384000000000000057e+02 2.797318883664314981e+01
1.388000000000000114e+02 2.793257803927619420e+01
1.392000000000000171e+02 2.789214131558103915e+01
1.395999999999999943e+02 2.785187740567314307e+01
1.400000000000000000e+02 2.781178506249629834e+01
1.404000000000000057e+02 2.777186305165458435e+01
1.408000000000000114e+02 2.773211015124693191e+01
1.412000000000000171e+02 2.769245823022397701e+01
1.415999999999999943e+02 2.765265510705344099e+01
1.420000000000000000e+02 2.761297389490798437e+01
1.424000000000000057e+02 2.757345972738109907e+01
1.428000000000000114e+02 2.753411141835244180e+01
1.432000000000000171e+02 2.749490139238508490e+01
1.435999999999999943e+02 2.745579789792039094e+01
1.440000000000000000e+02 2.741685723006044029e+01
1.444000000000000057e+02 2.737807824513560817e+01
1.448000000000000114e+02 2.733945981077390286e+01
1.452000000000000171e+02 2.730100080575730104e+01
1.455999999999999943e+02 2.726270011988038178e+01
1.460000000000000000e+02 2.722455665381114898e+01
1.464000000000000057e+02 2.718656931895388595e+01
1.468000000000000114e+02 2.714873703731432997e+01
1.472000000000000171e+02 2.711105874136670479e+01
1.475999999999999943e+02 2.707353337392293824e+01
1.480000000000000000e+02 2.703615988800379100e+01
1.484000000000000057e+02 2.699893724671197859e+01
1.488000000000000114e+02 2.696186442310722597e+01
1.492000000000000171e+02 2.692494040008320866e+01
1.495999999999999943e+02 2.688805052217016112e+01
1.500000000000000000e+02 2.685128841744314343e+01
