1.000000000000000000e+01 3.228095941493712644e+02
1.040000000000000036e+01 3.465169837847664667e+02
1.080000000000000071e+01 4.053214304249477209e+02
1.119999999999999929e+01 4.112138458737803148e+02
1.159999999999999964e+01 4.205771563333545373e+02
1.200000000000000000e+01 4.112052703338379729e+02
1.240000000000000036e+01 4.025116407361931579e+02
1.280000000000000071e+01 3.944148946393905817e+02
1.319999999999999929e+01 3.868470162716631648e+02
1.359999999999999964e+01 3.797506094020920955e+02
1.400000000000000000e+01 3.730768238387913129e+02
1.440000000000000036e+01 3.667837618875167891e+02
1.480000000000000071e+01 3.608352375847371718e+02
1.519999999999999929e+01 3.551997991694263419e+02
1.560000000000000142e+01 3.498499506798647758e+02
1.600000000000000000e+01 3.447615260534677191e+02
1.639999999999999858e+01 3.399131813497480152e+02
1.680000000000000071e+01 3.352859794183070221e+02
1.719999999999999929e+01 3.308630476072559645e+02
1.760000000000000142e+01 3.266292936894571994e+02
1.800000000000000000e+01 3.225711685708188270e+02
1.839999999999999858e+01 3.186764668761379653e+02
1.880000000000000071e+01 3.149341584193139738e+02
1.920000000000000284e+01 3.113342450217918440e+02
1.960000000000000142e+01 3.078676382637493134e+02
2.000000000000000000e+01 3.045260546216557600e+02
2.039999999999999858e+01 3.013019251251473634e+02
2.080000000000000071e+01 2.981883172010128646e+02
2.120000000000000284e+01 2.951788667961087640e+02
2.160000000000000142e+01 2.922677192093657368e+02
2.200000000000000000e+01 2.894494773346877992e+02
2.239999999999999858e+01 2.867191562358907504e+02
2.280000000000000071e+01 2.840721431529326537e+02
2.320000000000000284e+01 2.815041621840467769e+02
2.360000000000000142e+01 2.790112430076271721e+02
2.400000000000000000e+01 2.765896931059736517e+02
2.439999999999999858e+01 2.742360730343496016e+02
2.480000000000000071e+01 2.719471743464262659e+02
2.520000000000000284e+01 2.697199998436456099e+02
2.560000000000000142e+01 2.675517458633321439e+02
2.600000000000000000e+01 2.654397863601872132e+02
2.640000000000000213e+01 2.633816585693881507e+02
2.680000000000000071e+01 2.613750500679706192e+02
2.719999999999999929e+01 2.594177870753594561e+02
2.760000000000000142e+01 2.575078238545317504e+02
2.800000000000000000e+01 2.556432330929271188e+02
2.840000000000000213e+01 2.538221971573456983e+02
2.880000000000000071e+01 2.520430001300800598e+02
2.920000000000000284e+01 2.503040205447439916e+02
2.960000000000000142e+01 2.486037247499647833e+02
3.000000000000000000e+01 2.469406608375082044e+02
3.040000000000000213e+01 2.453134530787177141e+02
3.080000000000000071e+01 2.437207968195102694e+02
3.120000000000000284e+01 2.421614537897280286e+02
3.160000000000000142e+01 2.406342477875074906e+02
3.200000000000000000e+01 2.391380607035879109e+02
3.240000000000000568e+01 2.376718288542284654e+02
3.279999999999999716e+01 2.362345395946970257e+02
3.320000000000000284e+01 2.348252281882047612e+02
3.360000000000000142e+01 2.334429749077284555e+02
3.400000000000000000e+01 2.320869023504378674e+02
3.440000000000000568e+01 2.307561729464646589e+02
3.479999999999999716e+01 2.294499866455404913e+02
3.520000000000000284e+01 2.281675787666279120e+02
3.560000000000000142e+01 2.269082179970893094e+02
3.600000000000000000e+01 2.256712045292103426e+02
3.640000000000000568e+01 2.244558683230252427e+02
3.679999999999999716e+01 2.232615674854134227e+02
3.720000000000000284e+01 2.220876867563427766e+02
3.760000000000000142e+01 2.209336360939574888e+02
3.800000000000000000e+01 2.197988493509422199e+02
3.840000000000000568e+01 2.186827830352574438e+02
3.879999999999999716e+01 2.175849151489397855e+02
3.920000000000000284e+01 2.165047440991979215e+02
3.960000000000000142e+01 2.154417876765257915e+02
4.000000000000000000e+01 2.143955820949925055e+02
4.040000000000000568e+01 2.133656810902711811e+02
4.079999999999999716e+01 2.123516550713305833e+02
4.120000000000000284e+01 2.113530903220416519e+02
4.160000000000000142e+01 2.103695882492537521e+02
4.200000000000000000e+01 2.094007646741633266e+02
4.239999999999999858e+01 2.084462491640512667e+02
4.280000000000000426e+01 2.075056844016880291e+02
4.320000000000000284e+01 2.065787255899131196e+02
4.360000000000000142e+01 2.056650398890861879e+02
4.400000000000000000e+01 2.047643058852777074e+02
4.439999999999999858e+01 2.038762130872270291e+02
4.480000000000000426e+01 2.030004614502394134e+02
4.520000000000000284e+01 2.021367609253287014e+02
4.560000000000000142e+01 2.012848310320315761e+02
4.600000000000000000e+01 2.004444004534336727e+02
4.639999999999999858e+01 1.996152066520517963e+02
4.680000000000000426e+01 1.987969955053081890e+02
4.720000000000000284e+01 1.979895209594243966e+02
4.760000000000000142e+01 1.971925447006389618e+02
4.800000000000000000e+01 1.964058358427322730e+02
4.840000000000000568e+01 1.956291706299053601e+02
4.880000000000000426e+01 1.948623321541278415e+02
4.920000000000000284e+01 1.941051100861252507e+02
4.960000000000000142e+01 1.933573004192330131e+02
5.000000000000000000e+01 1.926187052253930574e+02
5.040000000000000568e+01 1.918891324226159441e+02
5.080000000000000426e+01 1.911683955532760990e+02
5.120000000000000284e+01 1.904563135726451719e+02
5.160000000000000142e+01 1.897527106471088132e+02
5.200000000000000000e+01 1.890574159615446206e+02
5.240000000000000568e+01 1.883702635353723167e+02
5.280000000000000426e+01 1.876910920468168058e+02
5.320000000000000284e+01 1.870197446649530661e+02
5.360000000000000142e+01 1.863560688891271298e+02
5.400000000000000000e+01 1.856999163953718721e+02
5.440000000000000568e+01 1.850511428894600954e+02
5.480000000000000426e+01 1.844096079662563739e+02
5.520000000000000284e+01 1.837751749750505041e+02
5.560000000000000142e+01 1.831477108905729665e+02
5.600000000000000000e+01 1.825270861894107668e+02
5.640000000000000568e+01 1.819131747315567509e+02
5.680000000000000426e+01 1.813058536468421380e+02
5.720000000000000284e+01 1.807050032260153216e+02
5.760000000000000142e+01 1.801105068162423777e+02
5.800000000000000000e+01 1.795222507208192155e+02
5.840000000000000568e+01 1.789401241028943446e+02
5.880000000000000426e+01 1.783640188930148724e+02
5.920000000000000284e+01 1.777938297003149160e+02
5.960000000000000142e+01 1.772294537271801858e+02
6.000000000000000000e+01 1.766707906872257468e+02
6.040000000000000568e+01 1.761177427264379958e+02
6.080000000000000426e+01 1.755702143473350247e+02
6.120000000000000284e+01 1.750281123360110200e+02
6.160000000000000142e+01 1.744913456919343844e+02
6.200000000000000000e+01 1.739598255603777375e+02
6.240000000000000568e+01 1.734334651673634653e+02
6.280000000000000426e+01 1.729121797570145418e+02
6.320000000000000284e+01 1.723958865312058037e+02
6.360000000000000142e+01 1.718845045914164302e+02
6.400000000000000000e+01 1.713779548826885843e+02
6.440000000000000568e+01 1.708761601396028311e+02
6.480000000000001137e+01 1.703790448341847537e+02
6.520000000000000284e+01 1.698865351256610836e+02
6.559999999999999432e+01 1.693985588119884937e+02
6.600000000000000000e+01 1.689150452830809570e+02
6.640000000000000568e+01 1.684359254756660107e+02
6.680000000000001137e+01 1.679611318297023956e+02
6.720000000000000284e+01 1.674905982462960878e+02
6.759999999999999432e+01 1.670242600470539287e+02
6.800000000000000000e+01 1.665620539348164186e+02
6.840000000000000568e+01 1.661039179557155308e+02
6.880000000000001137e+01 1.656497914625037140e+02
6.920000000000000284e+01 1.651996150791049445e+02
6.959999999999999432e+01 1.647533306663389681e+02
7.000000000000000000e+01 1.643108812887736576e+02
7.040000000000000568e+01 1.638722111826614309e+02
7.080000000000001137e+01 1.634372657249177223e+02
7.120000000000000284e+01 1.630059914031019446e+02
7.159999999999999432e+01 1.625783357863627714e+02
7.200000000000000000e+01 1.621542474973109336e+02
7.240000000000000568e+01 1.617336761847847129e+02
7.280000000000001137e+01 1.613165724974751640e+02
7.320000000000000284e+01 1.609028880583781529e+02
7.359999999999999432e+01 1.604925754400437654e+02
7.400000000000000000e+01 1.600855881405929608e+02
7.440000000000000568e+01 1.596818805604736440e+02
7.479999999999999716e+01 1.592814079799294689e+02
7.520000000000000284e+01 1.588841265371551117e+02
7.560000000000000853e+01 1.584899932071141961e+02
7.600000000000000000e+01 1.580989657809952291e+02
7.640000000000000568e+01 1.577110028462836908e+02
7.679999999999999716e+01 1.573260637674276836e+02
7.720000000000000284e+01 1.569441086670771881e+02
7.760000000000000853e+01 1.565650984078761496e+02
7.800000000000000000e+01 1.561889945747885236e+02
7.840000000000000568e+01 1.558157594579396914e+02
7.879999999999999716e+01 1.554453560359556832e+02
7.920000000000000284e+01 1.550777479597828687e+02
7.960000000000000853e+01 1.547128995369721736e+02
8.000000000000000000e+01 1.543507757164118743e+02
8.040000000000000568e+01 1.539913420734934846e+02
8.079999999999999716e+01 1.536345647956974290e+02
8.120000000000000284e+01 1.532804106685828742e+02
8.160000000000000853e+01 1.529288470621697797e+02
8.200000000000000000e+01 1.525798419176994969e+02
8.240000000000000568e+01 1.522333637347612125e+02
8.279999999999999716e+01 1.518893815587734082e+02
8.320000000000000284e+01 1.515478649688075450e+02
8.360000000000000853e+01 1.512087840657439983e+02
8.400000000000000000e+01 1.508721094607485043e+02
8.440000000000000568e+01 1.505378122640600225e+02
8.479999999999999716e+01 1.502058640740788178e+02
8.520000000000000284e+01 1.498762369667468590e+02
8.560000000000000853e+01 1.495489034852095074e+02
8.600000000000000000e+01 1.492238366297510197e+02
8.640000000000000568e+01 1.489010098479951978e+02
8.680000000000001137e+01 1.485803970253617763e+02
8.720000000000000284e+01 1.482619724757725805e+02
8.760000000000000853e+01 1.479457109325976774e+02
8.800000000000000000e+01 1.476315875398361186e+02
8.840000000000000568e+01 1.473195778435225520e+02
8.880000000000001137e+01 1.470096577833538163e+02
8.920000000000000284e+01 1.467018036845287838e+02
8.960000000000000853e+01 1.463959922497942614e+02
9.000000000000000000e+01 1.460922005516920876e+02
9.040000000000000568e+01 1.457904060250002658e+02
9.080000000000001137e+01 1.454905864593631577e+02
9.120000000000000284e+01 1.451927199921044576e+02
9.160000000000000853e+01 1.448967851012186543e+02
9.200000000000000000e+01 1.446027605985344167e+02
9.240000000000000568e+01 1.443106256230461497e+02
9.280000000000001137e+01 1.440203596344080950e+02
9.320000000000000284e+01 1.437319424065863700e+02
9.360000000000000853e+01 1.434453540216647980e+02
9.400000000000000000e+01 1.431605748637998659e+02
9.440000000000000568e+01 1.428775856133203206e+02
9.480000000000001137e+01 1.425963672409681635e+02
9.520000000000000284e+01 1.423169010022758414e+02
9.560000000000000853e+01 1.420391684320768491e+02
9.600000000000000000e+01 1.417631513391455655e+02
9.640000000000000568e+01 1.414888318009628279e+02
9.680000000000001137e+01 1.412161921586037181e+02
9.720000000000000284e+01 1.409452150117439828e+02
9.760000000000000853e+01 1.406758832137824697e+02
9.800000000000000000e+01 1.404081798670756882e+02
9.840000000000000568e+01 1.401420883182818216e+02
9.880000000000001137e+01 1.398775921538111788e+02
9.920000000000000284e+01 1.396146751953804426e+02
9.960000000000000853e+01 1.393533214956669894e+02
1.000000000000000000e+02 1.390935153340620616e+02
1.004000000000000057e+02 1.388352412125189801e+02
1.008000000000000114e+02 1.385784838514942123e+02
1.012000000000000028e+02 1.383232281859793034e+02
1.016000000000000085e+02 1.380694593616204315e+02
1.020000000000000000e+02 1.378171627309239682e+02
1.024000000000000057e+02 1.375663238495456824e+02
1.028000000000000114e+02 1.373169284726611181e+02
1.032000000000000028e+02 1.370689625514153249e+02
1.036000000000000085e+02 1.368224122294496965e+02
1.040000000000000000e+02 1.365772638395043543e+02
1.044000000000000057e+02 1.363335039000933762e+02
1.048000000000000114e+02 1.360911191122519313e+02
1.052000000000000028e+02 1.358500963563527080e+02
1.056000000000000085e+02 1.356104226889904112e+02
1.060000000000000000e+02 1.353720853399323119e+02
1.064000000000000057e+02 1.351350717091333422e+02
1.068000000000000114e+02 1.348993693638141735e+02
1.072000000000000028e+02 1.346649660356003437e+02
1.076000000000000085e+02 1.344318496177216389e+02
1.080000000000000000e+02 1.342000081622693699e+02
1.084000000000000057e+02 1.339694298775107200e+02
1.088000000000000114e+02 1.337401031252587700e+02
1.092000000000000028e+02 1.335120164182962981e+02
1.096000000000000085e+02 1.332851584178528697e+02
1.100000000000000000e+02 1.330595179311329161e+02
1.104000000000000057e+02 1.328350839088948021e+02
1.108000000000000114e+02 1.326118454430783231e+02
1.112000000000000028e+02 1.323897917644805489e+02
1.116000000000000085e+02 1.321689122404785053e+02
1.120000000000000000e+02 1.319491963727970756e+02
1.124000000000000057e+02 1.317306337953219497e+02
1.128000000000000114e+02 1.315132142719558601e+02
1.132000000000000028e+02 1.312969276945174215e+02
1.136000000000000085e+02 1.310817640806814666e+02
1.140000000000000000e+02 1.308677135719599960e+02
1.144000000000000057e+02 1.306547664317225212e+02
1.148000000000000114e+02 1.304429130432552881e+02
1.152000000000000028e+02 1.302321439078584149e+02
1.156000000000000085e+02 1.300224496429796091e+02
1.160000000000000000e+02 1.298138209803841505e+02
1.164000000000000057e+02 1.296062487643601457e+02
1.168000000000000114e+02 1.293997239499583429e+02
1.172000000000000028e+02 1.291942376012652858e+02
1.176000000000000085e+02 1.289897808897097775e+02
1.180000000000000000e+02 1.287863450924011204e+02
1.184000000000000057e+02 1.285839215904991875e+02
1.188000000000000114e+02 1.283825018676150194e+02
1.192000000000000028e+02 1.281820775082414343e+02
1.196000000000000085e+02 1.279826401962131257e+02
1.200000000000000000e+02 1.277841817131956361e+02
1.204000000000000057e+02 1.275866939372021136e+02
1.208000000000000114e+02 1.273901688411379780e+02
1.212000000000000028e+02 1.271945984913719485e+02
1.216000000000000085e+02 1.269999750463339865e+02
1.220000000000000000e+02 1.268062907551383773e+02
1.224000000000000057e+02 1.266135379562324204e+02
1.228000000000000114e+02 1.264217090760696465e+02
1.232000000000000028e+02 1.262307966278069244e+02
1.236000000000000085e+02 1.260407932100253703e+02
1.240000000000000000e+02 1.258516915054743066e+02
1.244000000000000057e+02 1.256634842798377463e+02
1.248000000000000114e+02 1.254761643805229880e+02
1.252000000000000028e+02 1.252897247354709691e+02
1.256000000000000085e+02 1.251041583519875360e+02
1.260000000000000000e+02 1.249194583155957616e+02
1.264000000000000057e+02 1.247356177889083995e+02
1.268000000000000114e+02 1.245526300105201756e+02
1.272000000000000028e+02 1.243704882939196068e+02
1.276000000000000085e+02 1.241891860264199465e+02
1.280000000000000000e+02 1.240087166681087467e+02
1.284000000000000057e+02 1.238290737508155530e+02
1.288000000000000114e+02 1.236502508770977329e+02
1.291999999999999886e+02 1.234722417192437263e+02
1.296000000000000227e+02 1.232950400182934345e+02
1.300000000000000000e+02 1.231186395830756339e+02
1.304000000000000057e+02 1.229430342892615329e+02
1.308000000000000114e+02 1.227682180784348702e+02
1.311999999999999886e+02 1.225941849571775890e+02
1.316000000000000227e+02 1.224209289961709999e+02
1.320000000000000000e+02 1.222484443293124201e+02
1.324000000000000057e+02 1.220767251528463930e+02
1.328000000000000114e+02 1.219057657245106725e+02
1.331999999999999886e+02 1.217355603626965035e+02
1.336000000000000227e+02 1.215661034456228435e+02
1.340000000000000000e+02 1.213973894105244540e+02
1.344000000000000057e+02 1.212294127528533920e+02
1.348000000000000114e+02 1.210621680254937473e+02
1.351999999999999886e+02 1.208956498379893389e+02
1.356000000000000227e+02 1.207298528557839603e+02
1.360000000000000000e+02 1.205647717994744994e+02
1.364000000000000057e+02 1.204004014440756976e+02
1.368000000000000114e+02 1.202367366182973711e+02
1.371999999999999886e+02 1.200737722038332009e+02
1.376000000000000227e+02 1.199115031346608475e+02
1.380000000000000000e+02 1.197499243963537907e+02
1.384000000000000057e+02 1.195890310254039548e+02
1.388000000000000114e+02 1.194288181085551628e+02
1.392000000000000171e+02 1.192692807821475185e+02
1.395999999999999943e+02 1.191104142314720775e+02
1.400000000000000000e+02 1.189522136901357641e+02
1.404000000000000057e+02 1.187946744394365055e+02
1.408000000000000114e+02 1.186377918077481723e+02
1.412000000000000171e+02 1.184815611699150963e+02
1.415999999999999943e+02 1.183259779466564794e+02
1.420000000000000000e+02 1.181710376039796131e+02
1.424000000000000057e+02 1.180167356526027902e+02
1.428000000000000114e+02 1.178630676473869698e+02
1.432000000000000171e+02 1.177100291867761257e+02
1.435999999999999943e+02 1.175576159122466748e+02
1.440000000000000000e+02 1.174058235077650068e+02
1.444000000000000057e+02 1.172546476992536100e+02
1.448000000000000114e+02 1.171040842540654978e+02
1.452000000000000171e+02 1.169541289804663364e+02
1.455999999999999943e+02 1.168047777271247583e+02
1.460000000000000000e+02 1.166560263826104773e+02
1.464000000000000057e+02 1.165078708748998508e+02
1.468000000000000114e+02 1.163603071708890013e+02
1.472000000000000171e+02 1.162133312759144417e+02
1.475999999999999943e+02 1.160669392332806211e+02
1.480000000000000000e+02 1.159211271237949177e+02
1.484000000000000057e+02 1.157758910653093380e+02
1.488000000000000114e+02 1.156312272122692519e+02
1.492000000000000171e+02 1.154871317552686492e+02
1.495999999999999943e+02 1.153436009206122037e+02
1.500000000000000000e+02 1.152006309698837754e+02
