1.000000000000000000e+01 9.179832186050597898e+01
1.040000000000000036e+01 9.335519613379686632e+01
1.080000000000000071e+01 9.759083448152588858e+01
1.119999999999999929e+01 1.034546320620013660e+02
1.159999999999999964e+01 1.150327750170908132e+02
1.200000000000000000e+01 1.136429351687376652e+02
1.240000000000000036e+01 1.097452848704393489e+02
1.280000000000000071e+01 1.063062614105219978e+02
1.319999999999999929e+01 1.032391237141691391e+02
1.359999999999999964e+01 1.006737029548975642e+02
1.400000000000000000e+01 9.847427089770900466e+01
1.440000000000000036e+01 9.646727725228879535e+01
1.480000000000000071e+01 9.462556523139161868e+01
1.519999999999999929e+01 9.292714773951873042e+01
1.560000000000000142e+01 9.135398741431481540e+01
1.600000000000000000e+01 8.989111578313206508e+01
1.639999999999999858e+01 8.852598422933084521e+01
1.680000000000000071e+01 8.724797718606593833e+01
1.719999999999999929e+01 8.604804122787442111e+01
1.760000000000000142e+01 8.491839848671072843e+01
1.800000000000000000e+01 8.385232242709527384e+01
1.839999999999999858e+01 8.284396041525691601e+01
1.880000000000000071e+01 7.539253231884069351e+01
1.920000000000000284e+01 7.419817704937162262e+01
1.960000000000000142e+01 7.306439338480971912e+01
2.000000000000000000e+01 7.198618557913638938e+01
2.039999999999999858e+01 7.095911807103357205e+01
2.080000000000000071e+01 6.997923699521737717e+01
2.120000000000000284e+01 6.904300476866859526e+01
2.160000000000000142e+01 6.814724524589371413e+01
2.200000000000000000e+01 6.728909747716313916e+01
2.239999999999999858e+01 6.196627531287342805e+01
2.280000000000000071e+01 6.114477408229849686e+01
2.320000000000000284e+01 6.035453572585313964e+01
2.360000000000000142e+01 5.959360651837917544e+01
2.400000000000000000e+01 5.886020051824943522e+01
2.439999999999999858e+01 5.815268140809309472e+01
2.480000000000000071e+01 5.746954668904749042e+01
2.520000000000000284e+01 5.680941387537427545e+01
2.560000000000000142e+01 5.617501590478602225e+01
2.600000000000000000e+01 5.556772160851488707e+01
2.640000000000000213e+01 5.497863035414155775e+01
2.680000000000000071e+01 5.440684058262973366e+01
2.719999999999999929e+01 5.385151257159861871e+01
2.760000000000000142e+01 5.331186305172151663e+01
2.800000000000000000e+01 5.278716038813635691e+01
2.840000000000000213e+01 5.227672025778191767e+01
2.880000000000000071e+01 5.177990176318135696e+01
2.920000000000000284e+01 5.129610393130772650e+01
2.960000000000000142e+01 5.082476255304426616e+01
3.000000000000000000e+01 5.036534732460086161e+01
3.040000000000000213e+01 4.991735925723777001e+01
3.080000000000000071e+01 4.948032832591598407e+01
3.120000000000000284e+01 4.905381133115822934e+01
3.160000000000000142e+01 4.862208535967831580e+01
3.200000000000000000e+01 4.819416918267387473e+01
3.240000000000000568e+01 4.777624147539427213e+01
3.279999999999999716e+01 4.736791842552435838e+01
3.320000000000000284e+01 4.696883664947941384e+01
3.360000000000000142e+01 4.657865181029893620e+01
3.400000000000000000e+01 4.619703734847661281e+01
3.440000000000000568e+01 4.582368331495151637e+01
3.479999999999999716e+01 4.545829529665631696e+01
3.520000000000000284e+01 4.443866500552815069e+01
3.560000000000000142e+01 4.412574665425427867e+01
3.600000000000000000e+01 4.381906579081210396e+01
3.640000000000000568e+01 4.351841687542741255e+01
3.679999999999999716e+01 4.322360376179847918e+01
3.720000000000000284e+01 4.293443915057324745e+01
3.760000000000000142e+01 4.265074408130662675e+01
3.800000000000000000e+01 4.237234745972632766e+01
3.840000000000000568e+01 4.209908561743630173e+01
3.879999999999999716e+01 4.183080190145209087e+01
3.920000000000000284e+01 4.156734629120237656e+01
3.960000000000000142e+01 4.130857504084541176e+01
4.000000000000000000e+01 4.105435034494106361e+01
4.040000000000000568e+01 4.080454002569327798e+01
4.079999999999999716e+01 4.055901724013322962e+01
4.120000000000000284e+01 4.031766020575436471e+01
4.160000000000000142e+01 4.008035194323767314e+01
4.200000000000000000e+01 3.984698003502040820e+01
4.239999999999999858e+01 3.961743639856541677e+01
4.280000000000000426e+01 3.939161707328265294e+01
4.320000000000000284e+01 3.916942202013974139e+01
4.360000000000000142e+01 3.895075493307652437e+01
4.400000000000000000e+01 3.873552306140866364e+01
4.439999999999999858e+01 3.852363704247039777e+01
4.480000000000000426e+01 3.831501074380413741e+01
4.520000000000000284e+01 3.809749901468543243e+01
4.560000000000000142e+01 3.787791151020373803e+01
4.600000000000000000e+01 3.766175039745390052e+01
4.639999999999999858e+01 3.775927291377504957e+01
4.680000000000000426e+01 3.756573716898991222e+01
4.720000000000000284e+01 3.737503761356152410e+01
4.760000000000000142e+01 3.718710509322080782e+01
4.800000000000000000e+01 3.700187280452936989e+01
4.840000000000000568e+01 3.681927619274419783e+01
4.880000000000000426e+01 3.663925285506826413e+01
4.920000000000000284e+01 3.646174244895393457e+01
4.960000000000000142e+01 3.628668660514963307e+01
5.000000000000000000e+01 3.611402884520190071e+01
5.040000000000000568e+01 3.594371450314497451e+01
5.080000000000000426e+01 3.577569065112855640e+01
5.120000000000000284e+01 3.560990602875133959e+01
5.160000000000000142e+01 3.544631097588366231e+01
5.200000000000000000e+01 3.528485736877679813e+01
5.240000000000000568e+01 3.512549855927075271e+01
5.280000000000000426e+01 3.496818931692352095e+01
5.320000000000000284e+01 3.481288577389756256e+01
5.360000000000000142e+01 3.465954537244885358e+01
5.400000000000000000e+01 3.450812681487450106e+01
5.440000000000000568e+01 3.435859001578366190e+01
5.480000000000000426e+01 3.421089605656514721e+01
5.520000000000000284e+01 3.406500714193297341e+01
5.560000000000000142e+01 3.392088655843868139e+01
5.600000000000000000e+01 3.377849863484555470e+01
5.640000000000000568e+01 3.363780870426685254e+01
5.680000000000000426e+01 3.349878306797584315e+01
5.720000000000000284e+01 3.336138896080072413e+01
5.760000000000000142e+01 3.322559451802304409e+01
5.800000000000000000e+01 3.309136874370297221e+01
5.840000000000000568e+01 3.332866143257862745e+01
5.880000000000000426e+01 3.320803016027358012e+01
5.920000000000000284e+01 3.308870484244416588e+01
5.960000000000000142e+01 3.297066182748478980e+01
6.000000000000000000e+01 3.285387806225232055e+01
6.040000000000000568e+01 3.273833107267484621e+01
6.080000000000000426e+01 3.262399894512470411e+01
6.120000000000000284e+01 3.250707606305986985e+01
6.160000000000000142e+01 3.239119814452607216e+01
6.200000000000000000e+01 3.227653436029443412e+01
6.240000000000000568e+01 3.216306347243731523e+01
6.280000000000000426e+01 3.205076476188273205e+01
6.320000000000000284e+01 3.193961801218299712e+01
6.360000000000000142e+01 3.182960349390118182e+01
6.400000000000000000e+01 3.172070194958743627e+01
6.440000000000000568e+01 3.161289457931918179e+01
6.480000000000001137e+01 3.150616302678027125e+01
6.520000000000000284e+01 3.140048936585537120e+01
6.559999999999999432e+01 3.129585608771727578e+01
6.600000000000000000e+01 3.119224608838574042e+01
6.640000000000000568e+01 3.108964265673768423e+01
6.680000000000001137e+01 3.098802946294939176e+01
6.720000000000000284e+01 3.088739054735242462e+01
6.759999999999999432e+01 3.078771030968592726e+01
6.800000000000000000e+01 3.068897349872864311e+01
6.840000000000000568e+01 3.059116520229489566e+01
6.880000000000001137e+01 3.049427083757942114e+01
6.920000000000000284e+01 3.039827614183698401e+01
6.959999999999999432e+01 3.030316716338276706e+01
7.000000000000000000e+01 3.020893025290088474e+01
7.040000000000000568e+01 3.011555205504836152e+01
7.080000000000001137e+01 3.002301950034294009e+01
7.120000000000000284e+01 2.993131979732326897e+01
7.159999999999999432e+01 2.984010225648658121e+01
7.200000000000000000e+01 2.974869980330507957e+01
7.240000000000000568e+01 2.965810557382580726e+01
7.280000000000001137e+01 2.956830765164610852e+01
7.320000000000000284e+01 2.947929436585485519e+01
7.359999999999999432e+01 2.939105428455320279e+01
7.400000000000000000e+01 2.930357620858325518e+01
7.440000000000000568e+01 2.921684916545716604e+01
7.479999999999999716e+01 2.913086240347883660e+01
7.520000000000000284e+01 2.904560538605125330e+01
7.560000000000000853e+01 2.896106778616237065e+01
7.600000000000000000e+01 2.887723948104309812e+01
7.640000000000000568e+01 2.879411054699099637e+01
7.679999999999999716e+01 2.871167125435371759e+01
7.720000000000000284e+01 2.862991206266619315e+01
7.760000000000000853e+01 2.854882361593629270e+01
7.800000000000000000e+01 2.846839673807345505e+01
7.840000000000000568e+01 2.838862242845517514e+01
7.879999999999999716e+01 2.830949185762655418e+01
7.920000000000000284e+01 2.823099636312811711e+01
7.960000000000000853e+01 2.815312744544753087e+01
8.000000000000000000e+01 2.807587676409065836e+01
8.040000000000000568e+01 2.799923613376808618e+01
8.079999999999999716e+01 2.792319752069295191e+01
8.120000000000000284e+01 2.798394542914632765e+01
8.160000000000000853e+01 2.791117773347925635e+01
8.200000000000000000e+01 2.783896752324407942e+01
8.240000000000000568e+01 2.776730764230493520e+01
8.279999999999999716e+01 2.769619106326360125e+01
8.320000000000000284e+01 2.762561088448529034e+01
8.360000000000000853e+01 2.755556032720827631e+01
8.400000000000000000e+01 2.748603273273456438e+01
8.440000000000000568e+01 2.741702155969873900e+01
8.479999999999999716e+01 2.734852038141280062e+01
8.520000000000000284e+01 2.728052288328409603e+01
8.560000000000000853e+01 2.721302286030418571e+01
8.600000000000000000e+01 2.714601421460638875e+01
8.640000000000000568e+01 2.707949095308966037e+01
8.680000000000001137e+01 2.701344718510669196e+01
8.720000000000000284e+01 2.694787712021436477e+01
8.760000000000000853e+01 2.687827550689000944e+01
8.800000000000000000e+01 2.681608742485053298e+01
8.840000000000000568e+01 2.675433362402974069e+01
8.880000000000001137e+01 2.669300900070719962e+01
8.920000000000000284e+01 2.663210853540303447e+01
8.960000000000000853e+01 2.657162729108911492e+01
9.000000000000000000e+01 2.651156041144667341e+01
9.040000000000000568e+01 2.645190311916891091e+01
9.080000000000001137e+01 2.639265071430718379e+01
9.120000000000000284e+01 2.633379857265951074e+01
9.160000000000000853e+01 2.627534214420001391e+01
9.200000000000000000e+01 2.621727695154827131e+01
9.240000000000000568e+01 2.615959858847718067e+01
9.280000000000001137e+01 2.610230271845816929e+01
9.320000000000000284e+01 2.604538507324292596e+01
9.360000000000000853e+01 2.598884145148026192e+01
9.400000000000000000e+01 2.593266771736722021e+01
9.440000000000000568e+01 2.587685979933344882e+01
9.480000000000001137e+01 2.582141368875777943e+01
9.520000000000000284e+01 2.576632543871617997e+01
9.560000000000000853e+01 2.571159116276006529e+01
9.600000000000000000e+01 2.565720703372429057e+01
9.640000000000000568e+01 2.560316928256361280e+01
9.680000000000001137e+01 2.554947419721734292e+01
9.720000000000000284e+01 2.549611812150084944e+01
9.760000000000000853e+01 2.544309745402351908e+01
9.800000000000000000e+01 2.539040864713231116e+01
9.840000000000000568e+01 2.533804820588013484e+01
9.880000000000001137e+01 2.528601268701847715e+01
9.920000000000000284e+01 2.523429869801356773e+01
9.960000000000000853e+01 2.518290289608533428e+01
1.000000000000000000e+02 2.513182198726864414e+01
1.004000000000000057e+02 2.508105272549626363e+01
1.008000000000000114e+02 2.503059191170270381e+01
1.012000000000000028e+02 2.498043639294869678e+01
1.016000000000000085e+02 2.493051844950613827e+01
1.020000000000000000e+02 2.488080051818468519e+01
1.024000000000000057e+02 2.483137867755231554e+01
1.028000000000000114e+02 2.478224996633248622e+01
1.032000000000000028e+02 2.473341146479543795e+01
1.036000000000000085e+02 2.468475339575925886e+01
1.040000000000000000e+02 2.463545408895988231e+01
1.044000000000000057e+02 2.458644534049491170e+01
1.048000000000000114e+02 2.453772428014647033e+01
1.052000000000000028e+02 2.448928807743574509e+01
1.056000000000000085e+02 2.444113394091644764e+01
1.060000000000000000e+02 2.439325911748355935e+01
1.064000000000000057e+02 2.434566089169697989e+01
1.068000000000000114e+02 2.429833658511982719e+01
1.072000000000000028e+02 2.425128355567079197e+01
1.076000000000000085e+02 2.420449919699038333e+01
1.080000000000000000e+02 2.415798093782063916e+01
1.084000000000000057e+02 2.411172624139797449e+01
1.088000000000000114e+02 2.406573260485881605e+01
1.092000000000000028e+02 2.401999755865774944e+01
1.096000000000000085e+02 2.397451866599784864e+01
1.100000000000000000e+02 2.392929352227288220e+01
1.104000000000000057e+02 2.388431975452105860e+01
1.108000000000000114e+02 2.383959502089017235e+01
1.112000000000000028e+02 2.379511701011369951e+01
1.116000000000000085e+02 2.375088344099767568e+01
1.120000000000000000e+02 2.370689206191807585e+01
1.124000000000000057e+02 2.366314065032848291e+01
1.128000000000000114e+02 2.361962701227765393e+01
1.132000000000000028e+02 2.357634898193694539e+01
1.136000000000000085e+02 2.353330442113723464e+01
1.140000000000000000e+02 2.349049121891511049e+01
1.144000000000000057e+02 2.344790729106821203e+01
1.148000000000000114e+02 2.340555057971935327e+01
1.152000000000000028e+02 2.336341905288940524e+01
1.156000000000000085e+02 2.332151070407847726e+01
1.160000000000000000e+02 2.327982355185562113e+01
1.164000000000000057e+02 2.323835563945623406e+01
1.168000000000000114e+02 2.319710503438773941e+01
1.172000000000000028e+02 2.315606982804265712e+01
1.176000000000000085e+02 2.311524813531929823e+01
1.180000000000000000e+02 2.307463809424991297e+01
1.184000000000000057e+02 2.303423786563581643e+01
1.188000000000000114e+02 2.299404563268973689e+01
1.192000000000000028e+02 2.295405960068482898e+01
1.196000000000000085e+02 2.291427799661055786e+01
1.200000000000000000e+02 2.287469906883503157e+01
1.204000000000000057e+02 2.283532108677378858e+01
1.208000000000000114e+02 2.279614234056478494e+01
1.212000000000000028e+02 2.275716114074960927e+01
1.216000000000000085e+02 2.271837581796053485e+01
1.220000000000000000e+02 2.267978472261360423e+01
1.224000000000000057e+02 2.264138622460726680e+01
1.228000000000000114e+02 2.263072832104076326e+01
1.232000000000000028e+02 2.259375677708853303e+01
1.236000000000000085e+02 2.255696563160158519e+01
1.240000000000000000e+02 2.252035340518092710e+01
1.244000000000000057e+02 2.248391863546381941e+01
1.248000000000000114e+02 2.244765987687148368e+01
1.252000000000000028e+02 2.241157570036126856e+01
1.256000000000000085e+02 2.237566469318335294e+01
1.260000000000000000e+02 2.233992545864177970e+01
1.264000000000000057e+02 2.229723333868233581e+01
1.268000000000000114e+02 2.226231793435727013e+01
1.272000000000000028e+02 2.222756747721579984e+01
1.276000000000000085e+02 2.219298065460209557e+01
1.280000000000000000e+02 2.215855616854904397e+01
1.284000000000000057e+02 2.212429273556667653e+01
1.288000000000000114e+02 2.209018908643422563e+01
1.291999999999999886e+02 2.205624396599582226e+01
1.296000000000000227e+02 2.202245613295981741e+01
1.300000000000000000e+02 2.198882435970156735e+01
1.304000000000000057e+02 2.195534743206970774e+01
1.308000000000000114e+02 2.192202414919567133e+01
1.311999999999999886e+02 2.188885332330664824e+01
1.316000000000000227e+02 2.185583377954162998e+01
1.320000000000000000e+02 2.182296435577067228e+01
1.324000000000000057e+02 2.179024390241728071e+01
1.328000000000000114e+02 2.175767128228375569e+01
1.331999999999999886e+02 2.172524537037955739e+01
1.336000000000000227e+02 2.169296505375258732e+01
1.340000000000000000e+02 2.166082923132325888e+01
1.344000000000000057e+02 2.162883681372143130e+01
1.348000000000000114e+02 2.159698672312606504e+01
1.351999999999999886e+02 2.156527789310751331e+01
1.356000000000000227e+02 2.153370926847252775e+01
1.360000000000000000e+02 2.150227980511179027e+01
1.364000000000000057e+02 2.147098846984994225e+01
1.368000000000000114e+02 2.143983424029819318e+01
1.371999999999999886e+02 2.140881610470925978e+01
1.376000000000000227e+02 2.137793306183476005e+01
1.380000000000000000e+02 2.134718412078488825e+01
1.384000000000000057e+02 2.131656830089041677e+01
1.388000000000000114e+02 2.128608463156696473e+01
1.392000000000000171e+02 2.125573215218137690e+01
1.395999999999999943e+02 2.122550991192043313e+01
1.400000000000000000e+02 2.119541696966147626e+01
1.404000000000000057e+02 2.116545239384527477e+01
1.408000000000000114e+02 2.113561526235088905e+01
1.412000000000000171e+02 2.110590466237247398e+01
1.415999999999999943e+02 2.107615683195684397e+01
1.420000000000000000e+02 2.104644256714415462e+01
1.424000000000000057e+02 2.101685363301359999e+01
1.428000000000000114e+02 2.098738914020535162e+01
1.432000000000000171e+02 2.095804820823120096e+01
1.435999999999999943e+02 2.092882996536070550e+01
1.440000000000000000e+02 2.089973354850897636e+01
1.444000000000000057e+02 2.087075810312632740e+01
1.448000000000000114e+02 2.084190278308955513e+01
1.452000000000000171e+02 2.081316675059501620e+01
1.455999999999999943e+02 2.078454917605325392e+01
1.460000000000000000e+02 2.075604923798536205e+01
1.464000000000000057e+02 2.072766612292082300e+01
1.468000000000000114e+02 2.069939902529706188e+01
1.472000000000000171e+02 2.067124714736041824e+01
1.475999999999999943e+02 2.064320969906869863e+01
1.480000000000000000e+02 2.061528589799519651e+01
1.484000000000000057e+02 2.058747496923419007e+01
1.488000000000000114e+02 2.055977614530783981e+01
1.492000000000000171e+02 2.053218866607451432e+01
1.495999999999999943e+02 2.050471177863851935e+01
1.500000000000000000e+02 2.047734473726113791e+01
