1.000000000000000000e+01 6.868336863682213789e+01
1.040000000000000036e+01 6.696099234758024465e+01
1.080000000000000071e+01 6.540095336785013558e+01
1.119999999999999929e+01 6.197368644375282543e+01
1.159999999999999964e+01 6.009606167232621488e+01
1.200000000000000000e+01 5.838300971187232591e+01
1.240000000000000036e+01 5.681082635504800749e+01
1.280000000000000071e+01 5.536046030474838631e+01
1.319999999999999929e+01 5.401637816074826048e+01
1.359999999999999964e+01 5.276575526448619513e+01
1.400000000000000000e+01 5.159788612516911144e+01
1.440000000000000036e+01 5.050374657171406056e+01
1.480000000000000071e+01 4.947566307166648869e+01
1.519999999999999929e+01 4.857714356743255024e+01
1.560000000000000142e+01 4.774630414277088164e+01
1.600000000000000000e+01 4.695527156928912405e+01
1.639999999999999858e+01 4.620089181073476681e+01
1.680000000000000071e+01 4.548035714728071355e+01
1.719999999999999929e+01 4.479115786001153765e+01
1.760000000000000142e+01 4.413104204586497303e+01
1.800000000000000000e+01 4.349798196940390937e+01
1.839999999999999858e+01 4.289014571256708308e+01
1.880000000000000071e+01 4.230587315031225160e+01
1.920000000000000284e+01 4.174365548279272531e+01
1.960000000000000142e+01 4.128696133505317789e+01
2.000000000000000000e+01 4.085957494137768009e+01
2.039999999999999858e+01 3.936482882495386093e+01
2.080000000000000071e+01 3.898657035304449181e+01
2.120000000000000284e+01 3.862134384579439939e+01
2.160000000000000142e+01 3.826838833698002418e+01
2.200000000000000000e+01 3.792700482306974408e+01
2.239999999999999858e+01 3.759654983103646941e+01
2.280000000000000071e+01 3.727642979372113530e+01
2.320000000000000284e+01 3.696609611435935960e+01
2.360000000000000142e+01 3.666504082164448164e+01
2.400000000000000000e+01 3.637279273277614777e+01
2.439999999999999858e+01 3.608891405509189099e+01
2.480000000000000071e+01 3.581299736768513498e+01
2.520000000000000284e+01 3.554466293333830151e+01
2.560000000000000142e+01 3.526623467726570027e+01
2.600000000000000000e+01 3.498959595925869337e+01
2.640000000000000213e+01 3.472045887295899291e+01
2.680000000000000071e+01 3.445847954087977882e+01
2.719999999999999929e+01 3.420333598088667060e+01
2.760000000000000142e+01 3.395472633611936430e+01
2.800000000000000000e+01 3.371236727739342598e+01
2.840000000000000213e+01 3.347599255850433053e+01
2.880000000000000071e+01 3.324535170738273848e+01
2.920000000000000284e+01 3.302020883821266750e+01
2.960000000000000142e+01 3.280034157148011786e+01
3.000000000000000000e+01 3.258554005051770730e+01
3.040000000000000213e+01 3.237560604448938051e+01
3.080000000000000071e+01 3.217035212895233087e+01
3.120000000000000284e+01 3.196960093616798559e+01
3.160000000000000142e+01 3.177318446823344544e+01
3.200000000000000000e+01 3.158094346688895371e+01
3.240000000000000568e+01 3.139272683454148449e+01
3.279999999999999716e+01 3.147472260212615680e+01
3.320000000000000284e+01 3.130914311719153886e+01
3.360000000000000142e+01 3.114671894266820118e+01
3.400000000000000000e+01 3.098734724898262627e+01
3.440000000000000568e+01 3.083092988659519307e+01
3.479999999999999716e+01 3.067737311457999283e+01
3.520000000000000284e+01 3.052658734823819486e+01
3.560000000000000142e+01 3.037848692418508278e+01
3.600000000000000000e+01 3.023298988149694111e+01
3.640000000000000568e+01 3.009001775763474384e+01
3.679999999999999716e+01 2.994949539797799432e+01
3.720000000000000284e+01 2.981135077790772314e+01
3.760000000000000142e+01 2.967551483647150690e+01
3.800000000000000000e+01 2.954192132074910404e+01
3.840000000000000568e+01 2.941050664011299176e+01
3.879999999999999716e+01 2.928120972964831736e+01
3.920000000000000284e+01 2.915397192205844590e+01
3.960000000000000142e+01 2.902873682743928896e+01
4.000000000000000000e+01 2.890545022035666989e+01
4.040000000000000568e+01 2.558964913479966441e+01
4.079999999999999716e+01 2.545769394820016629e+01
4.120000000000000284e+01 2.532774874753283001e+01
4.160000000000000142e+01 2.519976211944960909e+01
4.200000000000000000e+01 2.507368449526068943e+01
4.239999999999999858e+01 2.494946806588185240e+01
4.280000000000000426e+01 2.482706670156581197e+01
4.320000000000000284e+01 2.470643587610030778e+01
4.360000000000000142e+01 2.458753259518025303e+01
4.400000000000000000e+01 2.447031532868288295e+01
4.439999999999999858e+01 2.435474394659547315e+01
4.480000000000000426e+01 2.424077965836331572e+01
4.520000000000000284e+01 2.412838495544294659e+01
4.560000000000000142e+01 2.401752355686086560e+01
4.600000000000000000e+01 2.390816035759259961e+01
4.639999999999999858e+01 2.380026137958974175e+01
4.680000000000000426e+01 2.369379372529506611e+01
4.720000000000000284e+01 2.358872553349654311e+01
4.760000000000000142e+01 2.348502593738183819e+01
4.800000000000000000e+01 2.338266502466365182e+01
4.840000000000000568e+01 2.328161379965579414e+01
4.880000000000000426e+01 2.318184414718722763e+01
4.920000000000000284e+01 2.308332879824921235e+01
4.960000000000000142e+01 2.298308201036689979e+01
5.000000000000000000e+01 2.289043296554910967e+01
5.040000000000000568e+01 2.279889716685421774e+01
5.080000000000000426e+01 2.270845215949483631e+01
5.120000000000000284e+01 2.261907612321217442e+01
5.160000000000000142e+01 2.253074784925711427e+01
5.200000000000000000e+01 2.244344671838933536e+01
5.240000000000000568e+01 2.235715267984144106e+01
5.280000000000000426e+01 2.227184623119832096e+01
5.320000000000000284e+01 2.218750839914473971e+01
5.360000000000000142e+01 2.210412072103700609e+01
5.400000000000000000e+01 2.202166522725729436e+01
5.440000000000000568e+01 2.194012442431120391e+01
5.480000000000000426e+01 2.185948127863199986e+01
5.520000000000000284e+01 2.177971920105645154e+01
5.560000000000000142e+01 2.170082203193955195e+01
5.600000000000000000e+01 2.162277402687716688e+01
5.640000000000000568e+01 2.154555984300732518e+01
5.680000000000000426e+01 2.146916452586251722e+01
5.720000000000000284e+01 2.139357349674692443e+01
5.760000000000000142e+01 2.131877254061377513e+01
5.800000000000000000e+01 2.124474779441964856e+01
5.840000000000000568e+01 2.117148573593343741e+01
5.880000000000000426e+01 2.109795653104669455e+01
5.920000000000000284e+01 2.102472911353635965e+01
5.960000000000000142e+01 2.095224927726079400e+01
6.000000000000000000e+01 2.088050422176429777e+01
6.040000000000000568e+01 2.080948145353905332e+01
6.080000000000000426e+01 2.073916877657948987e+01
6.120000000000000284e+01 2.066329906893030710e+01
6.160000000000000142e+01 2.058793279889711059e+01
6.200000000000000000e+01 2.051332761518976611e+01
6.240000000000000568e+01 2.043947073867236597e+01
6.280000000000000426e+01 2.036634968954889047e+01
6.320000000000000284e+01 2.029395227839085791e+01
6.360000000000000142e+01 2.022226659749192379e+01
6.400000000000000000e+01 2.015128101253539938e+01
6.440000000000000568e+01 2.008098415456143471e+01
6.480000000000001137e+01 2.001136491222112568e+01
6.520000000000000284e+01 1.994241242430556582e+01
6.559999999999999432e+01 1.987411607253832102e+01
6.600000000000000000e+01 1.980646547462045248e+01
6.640000000000000568e+01 1.973945047751765003e+01
6.680000000000001137e+01 1.967306115097962049e+01
6.720000000000000284e+01 1.960728778128218863e+01
6.759999999999999432e+01 1.954212086518323588e+01
6.800000000000000000e+01 1.947755110408380119e+01
6.840000000000000568e+01 1.941356939838619411e+01
6.880000000000001137e+01 1.935016684204121873e+01
6.920000000000000284e+01 1.928733471727729665e+01
6.959999999999999432e+01 1.925347305135315068e+01
7.000000000000000000e+01 1.919290427587917236e+01
7.040000000000000568e+01 1.913286760894567706e+01
7.080000000000001137e+01 1.907335526477800869e+01
7.120000000000000284e+01 1.901435961676000375e+01
7.159999999999999432e+01 1.895587319326502751e+01
7.200000000000000000e+01 1.889788867362006641e+01
7.240000000000000568e+01 1.884039888419767550e+01
7.280000000000001137e+01 1.878339679463112333e+01
7.320000000000000284e+01 1.872687551414809093e+01
7.359999999999999432e+01 1.867082828801863670e+01
7.400000000000000000e+01 1.861524849411318172e+01
7.440000000000000568e+01 1.856012963956651873e+01
7.479999999999999716e+01 1.850546535754399713e+01
7.520000000000000284e+01 1.845124940410619985e+01
7.560000000000000853e+01 1.839747565516860206e+01
7.600000000000000000e+01 1.834413810355280106e+01
7.640000000000000568e+01 1.829123085612608435e+01
7.679999999999999716e+01 1.823874813102621317e+01
7.720000000000000284e+01 1.818668425496844065e+01
7.760000000000000853e+01 1.813503366063187272e+01
7.800000000000000000e+01 1.808379088412247881e+01
7.840000000000000568e+01 1.803295056251005235e+01
7.879999999999999716e+01 1.798250743143658070e+01
7.920000000000000284e+01 1.793245632279361956e+01
7.960000000000000853e+01 1.788279216246632686e+01
8.000000000000000000e+01 1.783350996814189315e+01
8.040000000000000568e+01 1.778460484718015522e+01
8.079999999999999716e+01 1.773594835894044763e+01
8.120000000000000284e+01 1.768760912432647814e+01
8.160000000000000853e+01 1.763963323381140924e+01
8.200000000000000000e+01 1.759201614078963871e+01
8.240000000000000568e+01 1.754475337817427416e+01
8.279999999999999716e+01 1.749784055661412552e+01
8.320000000000000284e+01 1.745127336275928087e+01
8.360000000000000853e+01 1.740504755757389788e+01
8.400000000000000000e+01 1.735915897469455871e+01
8.440000000000000568e+01 1.731360351883284920e+01
8.479999999999999716e+01 1.726837716422062385e+01
8.520000000000000284e+01 1.722347595309684820e+01
8.560000000000000853e+01 1.717889599423435243e+01
8.600000000000000000e+01 1.713463346150564703e+01
8.640000000000000568e+01 1.709068459248628002e+01
8.680000000000001137e+01 1.704704568709475510e+01
8.720000000000000284e+01 1.700371310626780286e+01
8.760000000000000853e+01 1.696068327066992154e+01
8.800000000000000000e+01 1.691795265943622439e+01
8.840000000000000568e+01 1.687551780894744979e+01
8.880000000000001137e+01 1.683337531163630985e+01
8.920000000000000284e+01 1.679152181482410455e+01
8.960000000000000853e+01 1.674995401958678087e+01
9.000000000000000000e+01 1.670866867964953428e+01
9.040000000000000568e+01 1.666766260030908597e+01
9.080000000000001137e+01 1.662693263738289318e+01
9.120000000000000284e+01 1.658647569618435469e+01
9.160000000000000853e+01 1.677739634227281940e+01
9.200000000000000000e+01 1.674203512448914566e+01
9.240000000000000568e+01 1.670689644272577468e+01
9.280000000000001137e+01 1.667197793139763817e+01
9.320000000000000284e+01 1.663222257809032811e+01
9.360000000000000853e+01 1.659827175498704221e+01
9.400000000000000000e+01 1.656453038413848944e+01
9.440000000000000568e+01 1.653099628089982787e+01
9.480000000000001137e+01 1.649766729272060672e+01
9.520000000000000284e+01 1.646454129853679405e+01
9.560000000000000853e+01 1.643161620817693702e+01
9.600000000000000000e+01 1.639888996178202518e+01
9.640000000000000568e+01 1.636636052923863360e+01
9.680000000000001137e+01 1.633402590962513301e+01
9.720000000000000284e+01 1.630188413067044451e+01
9.760000000000000853e+01 1.626993324822510800e+01
9.800000000000000000e+01 1.623817134574428422e+01
9.840000000000000568e+01 1.620659653378240961e+01
9.880000000000001137e+01 1.617520694949917370e+01
9.920000000000000284e+01 1.614400075617648511e+01
9.960000000000000853e+01 1.611297614274621282e+01
1.000000000000000000e+02 1.608213132332835826e+01
1.004000000000000057e+02 1.605146453677939178e+01
1.008000000000000114e+02 1.602097404625052235e+01
1.012000000000000028e+02 1.599065813875562192e+01
1.016000000000000085e+02 1.596051512474852174e+01
1.020000000000000000e+02 1.593054333770950493e+01
1.024000000000000057e+02 1.590074113374072695e+01
1.028000000000000114e+02 1.587110689117030304e+01
1.032000000000000028e+02 1.584163901016492559e+01
1.036000000000000085e+02 1.581233591235068303e+01
1.040000000000000000e+02 1.578319604044200375e+01
1.044000000000000057e+02 1.575421785787839113e+01
1.048000000000000114e+02 1.572539984846883598e+01
1.052000000000000028e+02 1.569674051604374299e+01
1.056000000000000085e+02 1.566823838411404068e+01
1.060000000000000000e+02 1.563964903397245720e+01
1.064000000000000057e+02 1.561116794101295824e+01
1.068000000000000114e+02 1.558284193573306098e+01
1.072000000000000028e+02 1.555466959143603489e+01
1.076000000000000085e+02 1.552664949990438892e+01
1.080000000000000000e+02 1.549878027109133072e+01
1.084000000000000057e+02 1.547106053281854621e+01
1.088000000000000114e+02 1.544348893048013771e+01
1.092000000000000028e+02 1.541606412675252002e+01
1.096000000000000085e+02 1.538878480131023174e+01
1.100000000000000000e+02 1.536164965054742204e+01
1.104000000000000057e+02 1.533465738730497918e+01
1.108000000000000114e+02 1.530780674060300939e+01
1.112000000000000028e+02 1.528109645537874073e+01
1.116000000000000085e+02 1.525452529222956422e+01
1.120000000000000000e+02 1.522809202716117838e+01
1.124000000000000057e+02 1.520179545134066501e+01
1.128000000000000114e+02 1.517563437085440725e+01
1.132000000000000028e+02 1.514960760647079141e+01
1.136000000000000085e+02 1.512371399340743494e+01
1.140000000000000000e+02 1.509795238110303117e+01
1.144000000000000057e+02 1.507232163299348571e+01
1.148000000000000114e+02 1.504682062629248662e+01
1.152000000000000028e+02 1.502144825177620113e+01
1.156000000000000085e+02 1.499620341357211117e+01
1.160000000000000000e+02 1.497108502895189730e+01
1.164000000000000057e+02 1.494609202812818260e+01
1.168000000000000114e+02 1.492122335405522193e+01
1.172000000000000028e+02 1.489647796223326992e+01
1.176000000000000085e+02 1.487185482051664920e+01
1.180000000000000000e+02 1.484735290892541570e+01
1.184000000000000057e+02 1.482297121946051988e+01
1.188000000000000114e+02 1.479870875592245483e+01
1.192000000000000028e+02 1.477456453373316414e+01
1.196000000000000085e+02 1.475053757976136382e+01
1.200000000000000000e+02 1.473341465770875658e+01
1.204000000000000057e+02 1.470991773830228233e+01
1.208000000000000114e+02 1.468653340313847799e+01
1.212000000000000028e+02 1.466326074073921149e+01
1.216000000000000085e+02 1.464009885001808087e+01
1.220000000000000000e+02 1.461695699429174944e+01
1.224000000000000057e+02 1.459305006017641304e+01
1.228000000000000114e+02 1.456925799326979920e+01
1.232000000000000028e+02 1.454557986549153092e+01
1.236000000000000085e+02 1.452201475929256702e+01
1.240000000000000000e+02 1.449856176750149217e+01
1.244000000000000057e+02 1.447521999317351238e+01
1.248000000000000114e+02 1.445198854944215583e+01
1.252000000000000028e+02 1.442886655937361340e+01
1.256000000000000085e+02 1.440585315582359627e+01
1.260000000000000000e+02 1.438294748129679235e+01
1.264000000000000057e+02 1.436014868780869946e+01
1.268000000000000114e+02 1.433745593674995966e+01
1.272000000000000028e+02 1.431486839875299921e+01
1.276000000000000085e+02 1.429238525356099565e+01
1.280000000000000000e+02 1.427000568989915763e+01
1.284000000000000057e+02 1.424772890534813641e+01
1.288000000000000114e+02 1.422555410621971816e+01
1.291999999999999886e+02 1.420348050743459112e+01
1.296000000000000227e+02 1.418150733240218564e+01
1.300000000000000000e+02 1.415963381290262646e+01
1.304000000000000057e+02 1.413785918897062466e+01
1.308000000000000114e+02 1.411618270878138048e+01
1.311999999999999886e+02 1.409460362853840820e+01
1.316000000000000227e+02 1.407312121236319769e+01
1.320000000000000000e+02 1.405173473218681934e+01
1.324000000000000057e+02 1.403044346764325567e+01
1.328000000000000114e+02 1.400924670596457311e+01
1.331999999999999886e+02 1.398814374187779563e+01
1.336000000000000227e+02 1.396713387750350499e+01
1.340000000000000000e+02 1.394621642225612135e+01
1.344000000000000057e+02 1.392535200800696416e+01
1.348000000000000114e+02 1.390455460485548400e+01
1.351999999999999886e+02 1.388384784499372060e+01
1.356000000000000227e+02 1.386323106439186859e+01
1.360000000000000000e+02 1.384270360585272996e+01
1.364000000000000057e+02 1.382226481892130110e+01
1.368000000000000114e+02 1.380191405979576125e+01
1.371999999999999886e+02 1.378165069123991060e+01
1.376000000000000227e+02 1.376147408249704540e+01
1.380000000000000000e+02 1.374138360920516888e+01
1.384000000000000057e+02 1.372137865331357531e+01
1.388000000000000114e+02 1.370145860300079832e+01
1.392000000000000171e+02 1.368162285259379374e+01
1.395999999999999943e+02 1.366187080248844765e+01
1.400000000000000000e+02 1.364220185907135630e+01
1.404000000000000057e+02 1.362261543464277480e+01
1.408000000000000114e+02 1.360311094734084847e+01
1.412000000000000171e+02 1.358368782106698092e+01
1.415999999999999943e+02 1.356434548541238172e+01
1.420000000000000000e+02 1.354508337558576159e+01
1.424000000000000057e+02 1.352590093234215018e+01
1.428000000000000114e+02 1.350679760191281176e+01
1.432000000000000171e+02 1.348777283593625143e+01
1.435999999999999943e+02 1.346882609139025533e+01
1.440000000000000000e+02 1.344995683052502145e+01
1.444000000000000057e+02 1.343116452079726031e+01
1.448000000000000114e+02 1.341244863480535443e+01
1.452000000000000171e+02 1.339380865022545919e+01
1.455999999999999943e+02 1.337524404974861092e+01
1.460000000000000000e+02 1.335675432101873916e+01
1.464000000000000057e+02 1.333833895657168611e+01
1.468000000000000114e+02 1.331999745377505562e+01
1.472000000000000171e+02 1.330172931476906939e+01
1.475999999999999943e+02 1.328353404640818880e+01
1.480000000000000000e+02 1.326541116020371547e+01
1.484000000000000057e+02 1.324736017226716811e+01
1.488000000000000114e+02 1.322938060325458487e+01
1.492000000000000171e+02 1.321147197831152198e+01
1.495999999999999943e+02 1.319363382701901166e+01
1.500000000000000000e+02 1.317549749731104214e+01
