1.000000000000000000e+01 1.317623115630571817e+02
1.040000000000000036e+01 1.304755425007367649e+02
1.080000000000000071e+01 1.312098595086416424e+02
1.119999999999999929e+01 1.383689523690383396e+02
1.159999999999999964e+01 1.346411351161702328e+02
1.200000000000000000e+01 1.305782381801667213e+02
1.240000000000000036e+01 1.268760780708012987e+02
1.280000000000000071e+01 1.238083955974838943e+02
1.319999999999999929e+01 1.210588511683136517e+02
1.359999999999999964e+01 1.183360104408868665e+02
1.400000000000000000e+01 1.157943222904176963e+02
1.440000000000000036e+01 1.134441882968950495e+02
1.480000000000000071e+01 1.112612980297628553e+02
1.519999999999999929e+01 1.092256062460933492e+02
1.560000000000000142e+01 1.075692368340584011e+02
1.600000000000000000e+01 1.026652379183363166e+02
1.639999999999999858e+01 1.010785510960295710e+02
1.680000000000000071e+01 1.009291148274386387e+02
1.719999999999999929e+01 9.949768799916756734e+01
1.760000000000000142e+01 9.814279605671048046e+01
1.800000000000000000e+01 9.685762165634680798e+01
1.839999999999999858e+01 9.563618388113931701e+01
1.880000000000000071e+01 9.122537890415473782e+01
1.920000000000000284e+01 8.698745515535246398e+01
1.960000000000000142e+01 8.561962171776164610e+01
2.000000000000000000e+01 8.430036759257197332e+01
2.039999999999999858e+01 8.305613781531847906e+01
2.080000000000000071e+01 8.186626053904089417e+01
2.120000000000000284e+01 8.072253512675391107e+01
2.160000000000000142e+01 7.962200217091768195e+01
2.200000000000000000e+01 7.856196447339905831e+01
2.239999999999999858e+01 7.753995761082151716e+01
2.280000000000000071e+01 7.655372447700263194e+01
2.320000000000000284e+01 7.559030776093112536e+01
2.360000000000000142e+01 7.461434978605359447e+01
2.400000000000000000e+01 7.366964395499871898e+01
2.439999999999999858e+01 7.247663930989099867e+01
2.480000000000000071e+01 7.159631075484540474e+01
2.520000000000000284e+01 7.074251979062619000e+01
2.560000000000000142e+01 6.991594257367231080e+01
2.600000000000000000e+01 6.911661710422366411e+01
2.640000000000000213e+01 6.833948700519766817e+01
2.680000000000000071e+01 6.862425370220482534e+01
2.719999999999999929e+01 6.793462449145113169e+01
2.760000000000000142e+01 6.726294537159471076e+01
2.800000000000000000e+01 6.660843852505634288e+01
2.840000000000000213e+01 6.597004116597238976e+01
2.880000000000000071e+01 6.533895064524777752e+01
2.920000000000000284e+01 6.472335333145881009e+01
2.960000000000000142e+01 6.412261414637875134e+01
3.000000000000000000e+01 6.353613446590517810e+01
3.040000000000000213e+01 6.296334943834970943e+01
3.080000000000000071e+01 6.240372554240458669e+01
3.120000000000000284e+01 6.185675835966829084e+01
3.160000000000000142e+01 6.132197053962168809e+01
3.200000000000000000e+01 6.188566629354653514e+01
3.240000000000000568e+01 6.140575467507582630e+01
3.279999999999999716e+01 6.093589123265398655e+01
3.320000000000000284e+01 6.047572162055224254e+01
3.360000000000000142e+01 6.002490908109627554e+01
3.400000000000000000e+01 5.965053549562763635e+01
3.440000000000000568e+01 5.922643187719407365e+01
3.479999999999999716e+01 5.881318433366572407e+01
3.520000000000000284e+01 5.807701343156195151e+01
3.560000000000000142e+01 5.769826770943244298e+01
3.600000000000000000e+01 5.732658686297300932e+01
3.640000000000000568e+01 5.696175023524472891e+01
3.679999999999999716e+01 5.660354677855053041e+01
3.720000000000000284e+01 5.625177452047856264e+01
3.760000000000000142e+01 5.590624006586961059e+01
3.800000000000000000e+01 5.556675813188083879e+01
3.840000000000000568e+01 5.523315111357412377e+01
3.879999999999999716e+01 5.490524867768394301e+01
3.920000000000000284e+01 5.458122974734837385e+01
3.960000000000000142e+01 5.426241914619799900e+01
4.000000000000000000e+01 5.394889341707475694e+01
4.040000000000000568e+01 5.364050558554176007e+01
4.079999999999999716e+01 5.333783482658587616e+01
4.120000000000000284e+01 5.304428587242576043e+01
4.160000000000000142e+01 5.257915208397445639e+01
4.200000000000000000e+01 5.229492125890837428e+01
4.239999999999999858e+01 5.201523437152239637e+01
4.280000000000000426e+01 5.173996961674856720e+01
4.320000000000000284e+01 5.146900972294704246e+01
4.360000000000000142e+01 5.120224173740254514e+01
4.400000000000000000e+01 5.093955682408450514e+01
4.439999999999999858e+01 5.068085007285152699e+01
4.480000000000000426e+01 5.042602031934303142e+01
4.520000000000000284e+01 5.019637298357531563e+01
4.560000000000000142e+01 4.994129036549807665e+01
4.600000000000000000e+01 4.969000440128413487e+01
4.639999999999999858e+01 4.944242035104599609e+01
4.680000000000000426e+01 4.919844676274786366e+01
4.720000000000000284e+01 4.895799532691145117e+01
4.760000000000000142e+01 4.872098073909168647e+01
4.800000000000000000e+01 4.848732056963630299e+01
4.840000000000000568e+01 4.812075709083113395e+01
4.880000000000000426e+01 4.789058774309795297e+01
4.920000000000000284e+01 4.765822716685078575e+01
4.960000000000000142e+01 4.742898773754568253e+01
5.000000000000000000e+01 4.720279924284539419e+01
5.040000000000000568e+01 4.697959367514160078e+01
5.080000000000000426e+01 4.675930514300699770e+01
5.120000000000000284e+01 4.654186978696739629e+01
5.160000000000000142e+01 4.632723979966903727e+01
5.200000000000000000e+01 4.611535019712115968e+01
5.240000000000000568e+01 4.590611957538703081e+01
5.280000000000000426e+01 4.569949198203384810e+01
5.320000000000000284e+01 4.549541310897420487e+01
5.360000000000000142e+01 4.529383023063790148e+01
5.400000000000000000e+01 4.509469214496836997e+01
5.440000000000000568e+01 4.489794911709195446e+01
5.480000000000000426e+01 4.470355282551817311e+01
5.520000000000000284e+01 4.451145631073704578e+01
5.560000000000000142e+01 4.432145134576016687e+01
5.600000000000000000e+01 4.413125124174533909e+01
5.640000000000000568e+01 4.394320189907345053e+01
5.680000000000000426e+01 4.375726273829440771e+01
5.720000000000000284e+01 4.357339425218420814e+01
5.760000000000000142e+01 4.339155796931260056e+01
5.800000000000000000e+01 4.321171641912256689e+01
5.840000000000000568e+01 4.329968352346638483e+01
5.880000000000000426e+01 4.313367120430705626e+01
5.920000000000000284e+01 4.297344997326647587e+01
5.960000000000000142e+01 4.281489877671465649e+01
6.000000000000000000e+01 4.265798847181914510e+01
6.040000000000000568e+01 4.250269062952318677e+01
6.080000000000000426e+01 4.234897751202587557e+01
6.120000000000000284e+01 4.219682205113099371e+01
6.160000000000000142e+01 4.204619782742547329e+01
6.200000000000000000e+01 4.189707905024948076e+01
6.240000000000000568e+01 4.174944053842295943e+01
6.280000000000000426e+01 4.160325770169460924e+01
6.320000000000000284e+01 4.145850652288143579e+01
6.360000000000000142e+01 4.131516354066854291e+01
6.400000000000000000e+01 4.117320583304024240e+01
6.440000000000000568e+01 4.103261100131523875e+01
6.480000000000001137e+01 4.089335715475969835e+01
6.520000000000000284e+01 4.075542289575370347e+01
6.559999999999999432e+01 4.061878730548736627e+01
6.600000000000000000e+01 4.048321738402472647e+01
6.640000000000000568e+01 4.034885897498783436e+01
6.680000000000001137e+01 4.026498157427784719e+01
6.720000000000000284e+01 4.013710991180983001e+01
6.759999999999999432e+01 4.001039452252167905e+01
6.800000000000000000e+01 3.988338805866441561e+01
6.840000000000000568e+01 3.975746402696066895e+01
6.880000000000001137e+01 3.963268786165272672e+01
6.920000000000000284e+01 3.950904191313936309e+01
6.959999999999999432e+01 3.938650891253849551e+01
7.000000000000000000e+01 3.926507196114472720e+01
7.040000000000000568e+01 3.914471452024240250e+01
7.080000000000001137e+01 3.902542040126033385e+01
7.120000000000000284e+01 3.890717375625447971e+01
7.159999999999999432e+01 3.878978998446361715e+01
7.200000000000000000e+01 3.867292648358171903e+01
7.240000000000000568e+01 3.855707094249229527e+01
7.280000000000001137e+01 3.844220870485445118e+01
7.320000000000000284e+01 3.832832541332938092e+01
7.359999999999999432e+01 3.821540700174823257e+01
7.400000000000000000e+01 3.810275839661305497e+01
7.440000000000000568e+01 3.799225157816716347e+01
7.479999999999999716e+01 3.788266446311384072e+01
7.520000000000000284e+01 3.777398413947845768e+01
7.560000000000000853e+01 3.766619794975753166e+01
7.600000000000000000e+01 3.755929348447650540e+01
7.640000000000000568e+01 3.745325857594616537e+01
7.679999999999999716e+01 3.734808129221085693e+01
7.720000000000000284e+01 3.724374993118112798e+01
7.760000000000000853e+01 3.713977710459040793e+01
7.800000000000000000e+01 3.703650880479028729e+01
7.840000000000000568e+01 3.694643803585071851e+01
7.879999999999999716e+01 3.684600402404819164e+01
7.920000000000000284e+01 3.674636659472783862e+01
7.960000000000000853e+01 3.664751506100898837e+01
8.000000000000000000e+01 3.654943893684425404e+01
8.040000000000000568e+01 3.645212793218981062e+01
8.079999999999999716e+01 3.635557194831649497e+01
8.120000000000000284e+01 3.625976107325724485e+01
8.160000000000000853e+01 3.616468557738624412e+01
8.200000000000000000e+01 3.607015517979435515e+01
8.240000000000000568e+01 3.597625525726655127e+01
8.279999999999999716e+01 3.588306451803575214e+01
8.320000000000000284e+01 3.579057389525451072e+01
8.360000000000000853e+01 3.569877448459114078e+01
8.400000000000000000e+01 3.560765754049937470e+01
8.440000000000000568e+01 3.551721447259205178e+01
8.479999999999999716e+01 3.542743684211554722e+01
8.520000000000000284e+01 3.533831635852148167e+01
8.560000000000000853e+01 3.524984487613270545e+01
8.600000000000000000e+01 3.516201439090039571e+01
8.640000000000000568e+01 3.507481703724940303e+01
8.680000000000001137e+01 3.498824508500908337e+01
8.720000000000000284e+01 3.490229093642668090e+01
8.760000000000000853e+01 3.481867415676107669e+01
8.800000000000000000e+01 3.473559643505816297e+01
8.840000000000000568e+01 3.465309908729884114e+01
8.880000000000001137e+01 3.457086129002481556e+01
8.920000000000000284e+01 3.448881718935764695e+01
8.960000000000000853e+01 3.440732996503110286e+01
9.000000000000000000e+01 3.432639323437864221e+01
9.040000000000000568e+01 3.424600071739936880e+01
9.080000000000001137e+01 3.416587757887911891e+01
9.120000000000000284e+01 3.408708032307738023e+01
9.160000000000000853e+01 3.400880494091589412e+01
9.200000000000000000e+01 3.393104559530408437e+01
9.240000000000000568e+01 3.385379654079082457e+01
9.280000000000001137e+01 3.377705212171572668e+01
9.320000000000000284e+01 3.370080677040582628e+01
9.360000000000000853e+01 3.362505500541649894e+01
9.400000000000000000e+01 3.354979142981524376e+01
9.440000000000000568e+01 3.347501072950720413e+01
9.480000000000001137e+01 3.340070767160112553e+01
9.520000000000000284e+01 3.332687710281464177e+01
9.560000000000000853e+01 3.325351394791780990e+01
9.600000000000000000e+01 3.318061320821377080e+01
9.640000000000000568e+01 3.310816996005539892e+01
9.680000000000001137e+01 3.303617935339727296e+01
9.720000000000000284e+01 3.296463661038140458e+01
9.760000000000000853e+01 3.289353702395644774e+01
9.800000000000000000e+01 3.282260647196429204e+01
9.840000000000000568e+01 3.275206966240097017e+01
9.880000000000001137e+01 3.268195984562965606e+01
9.920000000000000284e+01 3.261227267841403687e+01
9.960000000000000853e+01 3.254294388205299526e+01
1.000000000000000000e+02 3.247384309111259881e+01
1.004000000000000057e+02 3.241317956930780753e+01
1.008000000000000114e+02 3.234617575431340697e+01
1.012000000000000028e+02 3.227956801670192988e+01
1.016000000000000085e+02 3.221335241429087404e+01
1.020000000000000000e+02 3.214752506002680121e+01
1.024000000000000057e+02 3.208208212099135892e+01
1.028000000000000114e+02 3.201701981742923664e+01
1.032000000000000028e+02 3.195233442179750227e+01
1.036000000000000085e+02 3.188796880871080219e+01
1.040000000000000000e+02 3.182350993658314664e+01
1.044000000000000057e+02 3.175942152681823671e+01
1.048000000000000114e+02 3.169569999695085016e+01
1.052000000000000028e+02 3.163234181316504845e+01
1.056000000000000085e+02 3.156934348944287905e+01
1.060000000000000000e+02 3.150670158673121790e+01
1.064000000000000057e+02 3.144441271212630085e+01
1.068000000000000114e+02 3.138247351807581964e+01
1.072000000000000028e+02 3.132088070159769444e+01
1.076000000000000085e+02 3.125963100351538770e+01
1.080000000000000000e+02 3.119872120770936874e+01
1.084000000000000057e+02 3.113814814038405387e+01
1.088000000000000114e+02 3.107790866935025065e+01
1.092000000000000028e+02 3.101799970332228540e+01
1.096000000000000085e+02 3.095983989119678625e+01
1.100000000000000000e+02 3.090097627882430942e+01
1.104000000000000057e+02 3.084243174919910402e+01
1.108000000000000114e+02 3.078420339300994613e+01
1.112000000000000028e+02 3.073072471465643218e+01
1.116000000000000085e+02 3.067373832505573716e+01
1.120000000000000000e+02 3.061705593757704591e+01
1.124000000000000057e+02 3.056032151557613119e+01
1.128000000000000114e+02 3.050388035768833106e+01
1.132000000000000028e+02 3.044773984851205384e+01
1.136000000000000085e+02 3.039189727805780095e+01
1.140000000000000000e+02 3.033634997070093675e+01
1.144000000000000057e+02 3.028109528462080391e+01
1.148000000000000114e+02 3.022613061125104750e+01
1.152000000000000028e+02 3.017145337474091349e+01
1.156000000000000085e+02 3.011706103142708457e+01
1.160000000000000000e+02 3.006295106931609951e+01
1.164000000000000057e+02 3.000912100757668810e+01
1.168000000000000114e+02 2.995556839604237354e+01
1.172000000000000028e+02 2.990229081472344319e+01
1.176000000000000085e+02 2.984928587332858996e+01
1.180000000000000000e+02 2.979655121079584035e+01
1.184000000000000057e+02 2.974408449483237149e+01
1.188000000000000114e+02 2.969188342146334492e+01
1.192000000000000028e+02 2.963989669037625774e+01
1.196000000000000085e+02 2.958805089644504349e+01
1.200000000000000000e+02 2.953646475851488518e+01
1.204000000000000057e+02 2.948513607511341661e+01
1.208000000000000114e+02 2.943406267103450347e+01
1.212000000000000028e+02 2.938324239693476869e+01
1.216000000000000085e+02 2.933267312893767098e+01
1.220000000000000000e+02 2.928235276824504041e+01
1.224000000000000057e+02 2.923227924075582607e+01
1.228000000000000114e+02 2.919622530069891297e+01
1.232000000000000028e+02 2.914716260084821897e+01
1.236000000000000085e+02 2.909833694510533064e+01
1.240000000000000000e+02 2.904974639232217015e+01
1.244000000000000057e+02 2.900132983120595753e+01
1.248000000000000114e+02 2.895304052596937083e+01
1.252000000000000028e+02 2.890585086296272976e+01
1.256000000000000085e+02 2.885853961393016931e+01
1.260000000000000000e+02 2.881145336422316205e+01
1.264000000000000057e+02 2.876459029806594714e+01
1.268000000000000114e+02 2.871794862031856255e+01
1.272000000000000028e+02 2.867152655617521617e+01
1.276000000000000085e+02 2.862532235086813515e+01
1.280000000000000000e+02 2.857933426937655597e+01
1.284000000000000057e+02 2.853356059614100459e+01
1.288000000000000114e+02 2.848799963478252550e+01
1.291999999999999886e+02 2.844264970782683832e+01
1.296000000000000227e+02 2.839750915643343276e+01
1.300000000000000000e+02 2.835416271617438966e+01
1.304000000000000057e+02 2.830970195548154322e+01
1.308000000000000114e+02 2.826544440855777296e+01
1.311999999999999886e+02 2.822138849976200703e+01
1.316000000000000227e+02 2.817753267066374434e+01
1.320000000000000000e+02 2.813387537980113606e+01
1.324000000000000057e+02 2.809041510244340145e+01
1.328000000000000114e+02 2.804715033035712679e+01
1.331999999999999886e+02 2.800407957157665706e+01
1.336000000000000227e+02 2.796120135017834585e+01
1.340000000000000000e+02 2.791851420605862089e+01
1.344000000000000057e+02 2.787601669471579413e+01
1.348000000000000114e+02 2.783370738703558445e+01
1.351999999999999886e+02 2.779158486908016457e+01
1.356000000000000227e+02 2.774964774188081051e+01
1.360000000000000000e+02 2.770789462123396163e+01
1.364000000000000057e+02 2.766632413750068054e+01
1.368000000000000114e+02 2.762494104405085338e+01
1.371999999999999886e+02 2.758397166777511700e+01
1.376000000000000227e+02 2.754317949429859169e+01
1.380000000000000000e+02 2.750256322474575299e+01
1.384000000000000057e+02 2.746199464780371002e+01
1.388000000000000114e+02 2.742145670406733871e+01
1.392000000000000171e+02 2.738109121933180745e+01
1.395999999999999943e+02 2.734089695222795058e+01
1.400000000000000000e+02 2.730087267395596484e+01
1.404000000000000057e+02 2.726101008107029955e+01
1.408000000000000114e+02 2.722122277551792635e+01
1.412000000000000171e+02 2.718160238303688914e+01
1.415999999999999943e+02 2.714206628955935230e+01
1.420000000000000000e+02 2.710264916730945828e+01
1.424000000000000057e+02 2.706339618023275406e+01
1.428000000000000114e+02 2.702430617216510100e+01
1.432000000000000171e+02 2.698537799839751372e+01
1.435999999999999943e+02 2.694661052553003344e+01
1.440000000000000000e+02 2.690800263132787862e+01
1.444000000000000057e+02 2.686955320457985863e+01
1.448000000000000114e+02 2.683126114495897951e+01
1.452000000000000171e+02 2.679312536288514934e+01
1.455999999999999943e+02 2.675514477939006852e+01
1.460000000000000000e+02 2.671731832598420198e+01
1.464000000000000057e+02 2.667964494452565560e+01
1.468000000000000114e+02 2.664212358709127315e+01
1.472000000000000171e+02 2.660475321584952013e+01
1.475999999999999943e+02 2.656753280293534658e+01
1.480000000000000000e+02 2.653046133032701093e+01
1.484000000000000057e+02 2.649353778972466600e+01
1.488000000000000114e+02 2.645676118243085995e+01
1.492000000000000171e+02 2.642013051923277800e+01
1.495999999999999943e+02 2.638353117221009114e+01
1.500000000000000000e+02 2.634705679664835287e+01
