1.000000000000000000e+01 4.863073134734143537e+02
1.040000000000000036e+01 6.213817974743535615e+02
1.080000000000000071e+01 7.027921599161779795e+02
1.119999999999999929e+01 7.810000012806183349e+02
1.159999999999999964e+01 7.958636949367603393e+02
1.200000000000000000e+01 8.211931341909273669e+02
1.240000000000000036e+01 8.540465718727800777e+02
1.280000000000000071e+01 8.534520002209501399e+02
1.319999999999999929e+01 8.418962267399465418e+02
1.359999999999999964e+01 8.323320972359856569e+02
1.400000000000000000e+01 8.265896684012501510e+02
1.440000000000000036e+01 8.204108483545478521e+02
1.480000000000000071e+01 8.060966606799881902e+02
1.519999999999999929e+01 7.926292996477361612e+02
1.560000000000000142e+01 7.799241531247507737e+02
1.600000000000000000e+01 7.679083755498359096e+02
1.639999999999999858e+01 7.565188086787090924e+02
1.680000000000000071e+01 7.457003450101726685e+02
1.719999999999999929e+01 7.354046242721866520e+02
1.760000000000000142e+01 7.255889841301393517e+02
1.800000000000000000e+01 7.162156074471480451e+02
1.839999999999999858e+01 7.072508232685810299e+02
1.880000000000000071e+01 6.986645292923378747e+02
1.920000000000000284e+01 6.904297112596858597e+02
1.960000000000000142e+01 6.825220403399937368e+02
2.000000000000000000e+01 6.749195337789751648e+02
2.039999999999999858e+01 6.676022672392841741e+02
2.080000000000000071e+01 6.605521296661022461e+02
2.120000000000000284e+01 6.537526133572682738e+02
2.160000000000000142e+01 6.471886333493737311e+02
2.200000000000000000e+01 6.408463713506439490e+02
2.239999999999999858e+01 6.347131403333619346e+02
2.280000000000000071e+01 6.287772665984855394e+02
2.320000000000000284e+01 6.230279866843286527e+02
2.360000000000000142e+01 6.174553569408222984e+02
2.400000000000000000e+01 6.120501739546091358e+02
2.439999999999999858e+01 6.068039043061039592e+02
2.480000000000000071e+01 6.017086223816410211e+02
2.520000000000000284e+01 5.967569551627242390e+02
2.560000000000000142e+01 5.919420330786560953e+02
2.600000000000000000e+01 5.872574461451099523e+02
2.640000000000000213e+01 5.826972047247520550e+02
2.680000000000000071e+01 5.782557043410236020e+02
2.719999999999999929e+01 5.739276940559855120e+02
2.760000000000000142e+01 5.697082479903989451e+02
2.800000000000000000e+01 5.655927396211275209e+02
2.840000000000000213e+01 5.615768185392713576e+02
2.880000000000000071e+01 5.576563893935961005e+02
2.920000000000000284e+01 5.538275927789893558e+02
2.960000000000000142e+01 5.500867878598105563e+02
3.000000000000000000e+01 5.464305365439093976e+02
3.040000000000000213e+01 5.428555890454074415e+02
3.080000000000000071e+01 5.393588706936384369e+02
3.120000000000000284e+01 5.359374698623544191e+02
3.160000000000000142e+01 5.325886269078325768e+02
3.200000000000000000e+01 5.293097240171532576e+02
3.240000000000000568e+01 5.260982758789609761e+02
3.279999999999999716e+01 5.229519210986669577e+02
3.320000000000000284e+01 5.198684142885117581e+02
3.360000000000000142e+01 5.168456187703420710e+02
3.400000000000000000e+01 5.138814998354897625e+02
3.440000000000000568e+01 5.109741185119166857e+02
3.479999999999999716e+01 5.081216257938800709e+02
3.520000000000000284e+01 5.053222572938897201e+02
3.560000000000000142e+01 5.025743282807263768e+02
3.600000000000000000e+01 4.998762290708470459e+02
3.640000000000000568e+01 4.972264207436655283e+02
3.679999999999999716e+01 4.946234311540149520e+02
3.720000000000000284e+01 4.920658512176161707e+02
3.760000000000000142e+01 4.895523314476287169e+02
3.800000000000000000e+01 4.870815787223696702e+02
3.840000000000000568e+01 4.846523532661003628e+02
3.879999999999999716e+01 4.822634658263984306e+02
3.920000000000000284e+01 4.799137750330921222e+02
3.960000000000000142e+01 4.776021849250526543e+02
4.000000000000000000e+01 4.753276426323182022e+02
4.040000000000000568e+01 4.730891362020990982e+02
4.079999999999999716e+01 4.708856925581766859e+02
4.120000000000000284e+01 4.687163755840861654e+02
4.160000000000000142e+01 4.665802843212650259e+02
4.200000000000000000e+01 4.644765512740698341e+02
4.239999999999999858e+01 4.624043408142158569e+02
4.280000000000000426e+01 4.603628476777888636e+02
4.320000000000000284e+01 4.583512955485219322e+02
4.360000000000000142e+01 4.563689357215166638e+02
4.400000000000000000e+01 4.544150458420443783e+02
4.439999999999999858e+01 4.524889287144703189e+02
4.480000000000000426e+01 4.505899111767161571e+02
4.520000000000000284e+01 4.487173430360275006e+02
4.560000000000000142e+01 4.468705960621164195e+02
4.600000000000000000e+01 4.450490630340465259e+02
4.639999999999999858e+01 4.432521568374873482e+02
4.680000000000000426e+01 4.414793096092084852e+02
4.720000000000000284e+01 4.397299719259070230e+02
4.760000000000000142e+01 4.380036120346665030e+02
4.800000000000000000e+01 4.362997151225374637e+02
4.840000000000000568e+01 4.346177826228951062e+02
4.880000000000000426e+01 4.329573315564035738e+02
4.920000000000000284e+01 4.313178939045496918e+02
4.960000000000000142e+01 4.296990160138556121e+02
5.000000000000000000e+01 4.281002580290050332e+02
5.040000000000000568e+01 4.265211933532274884e+02
5.080000000000000426e+01 4.249614081344029728e+02
5.120000000000000284e+01 4.234205007754426333e+02
5.160000000000000142e+01 4.218980814675951478e+02
5.200000000000000000e+01 4.203937717454192011e+02
5.240000000000000568e+01 4.189072040622335180e+02
5.280000000000000426e+01 4.174380213849398729e+02
5.320000000000000284e+01 4.159858768071758846e+02
5.360000000000000142e+01 4.145504331798225621e+02
5.400000000000000000e+01 4.131313627579507397e+02
5.440000000000000568e+01 4.117283468633443135e+02
5.480000000000000426e+01 4.103410755617915697e+02
5.520000000000000284e+01 4.089692473543847200e+02
5.560000000000000142e+01 4.076125688821099970e+02
5.600000000000000000e+01 4.062707546430565344e+02
5.640000000000000568e+01 4.049435267216077818e+02
5.680000000000000426e+01 4.036306145290183167e+02
5.720000000000000284e+01 4.023317545548123917e+02
5.760000000000000142e+01 4.010466901284723917e+02
5.800000000000000000e+01 3.997751711909148185e+02
5.840000000000000568e+01 3.985169540752831949e+02
5.880000000000000426e+01 3.972718012966061565e+02
5.920000000000000284e+01 3.960394813499021893e+02
5.960000000000000142e+01 3.948197685163298729e+02
6.000000000000000000e+01 3.936124426770052196e+02
6.040000000000000568e+01 3.924172891341312379e+02
6.080000000000000426e+01 3.912340984390981475e+02
6.120000000000000284e+01 3.900626662272371732e+02
6.160000000000000142e+01 3.889027930589232369e+02
6.200000000000000000e+01 3.877542842667380683e+02
6.240000000000000568e+01 3.866169498084235556e+02
6.280000000000000426e+01 3.854906041253653939e+02
6.320000000000000284e+01 3.843750660063619193e+02
6.360000000000000142e+01 3.832701584564462678e+02
6.400000000000000000e+01 3.821757085705402801e+02
6.440000000000000568e+01 3.810915474117309145e+02
6.480000000000001137e+01 3.800175098939691907e+02
6.520000000000000284e+01 3.789534346690032862e+02
6.559999999999999432e+01 3.778991640173642850e+02
6.600000000000000000e+01 3.768545437432345580e+02
6.640000000000000568e+01 3.758194230730351819e+02
6.680000000000001137e+01 3.747936545575776108e+02
6.720000000000000284e+01 3.737770939776310115e+02
6.759999999999999432e+01 3.727696002527664518e+02
6.800000000000000000e+01 3.717710353533419152e+02
6.840000000000000568e+01 3.707812642155021194e+02
6.880000000000001137e+01 3.698001546590701878e+02
6.920000000000000284e+01 3.688275773082164619e+02
6.959999999999999432e+01 3.678634055147919639e+02
7.000000000000000000e+01 3.669075152842226544e+02
7.040000000000000568e+01 3.659597852038630776e+02
7.080000000000001137e+01 3.650200963737119082e+02
7.120000000000000284e+01 3.640883323394002105e+02
7.159999999999999432e+01 3.631643790273615195e+02
7.200000000000000000e+01 3.622481246821020591e+02
7.240000000000000568e+01 3.613394598054902644e+02
7.280000000000001137e+01 3.604382770979884754e+02
7.320000000000000284e+01 3.595444714017540946e+02
7.359999999999999432e+01 3.586579396455399547e+02
7.400000000000000000e+01 3.577785807913260214e+02
7.440000000000000568e+01 3.569062957826204183e+02
7.479999999999999716e+01 3.560409874943649129e+02
7.520000000000000284e+01 3.551825606843888750e+02
7.560000000000000853e+01 3.543309219463546924e+02
7.600000000000000000e+01 3.534859796641386538e+02
7.640000000000000568e+01 3.526476439675990378e+02
7.679999999999999716e+01 3.518158266896782607e+02
7.720000000000000284e+01 3.509904413247934372e+02
7.760000000000000853e+01 3.501714029884699357e+02
7.800000000000000000e+01 3.493586283781728525e+02
7.840000000000000568e+01 3.485520357352959309e+02
7.879999999999999716e+01 3.477515448082658622e+02
7.920000000000000284e+01 3.469570768167243386e+02
7.960000000000000853e+01 3.461685544167519311e+02
8.000000000000000000e+01 3.453859016670949131e+02
8.040000000000000568e+01 3.446090439963639369e+02
8.079999999999999716e+01 3.438379081711702838e+02
8.120000000000000284e+01 3.430724222651671198e+02
8.160000000000000853e+01 3.423125156289678443e+02
8.200000000000000000e+01 3.415581188609098717e+02
8.240000000000000568e+01 3.408091637786365027e+02
8.279999999999999716e+01 3.400655833914711366e+02
8.320000000000000284e+01 3.393273118735554590e+02
8.360000000000000853e+01 3.385942845377289814e+02
8.400000000000000000e+01 3.378664378101240686e+02
8.440000000000000568e+01 3.371437092054536606e+02
8.479999999999999716e+01 3.364260373029708830e+02
8.520000000000000284e+01 3.357133617230763889e+02
8.560000000000000853e+01 3.350056231045551840e+02
8.600000000000000000e+01 3.343027630824216203e+02
8.640000000000000568e+01 3.336047242663536849e+02
8.680000000000001137e+01 3.329114502196982812e+02
8.720000000000000284e+01 3.322228854390297101e+02
8.760000000000000853e+01 3.315389753342432755e+02
8.800000000000000000e+01 3.308596662091688358e+02
8.840000000000000568e+01 3.301849052426873072e+02
8.880000000000001137e+01 3.295146404703349390e+02
8.920000000000000284e+01 3.288488207663802996e+02
8.960000000000000853e+01 3.281873958263607847e+02
9.000000000000000000e+01 3.275303161500622764e+02
9.040000000000000568e+01 3.268775330249318927e+02
9.080000000000001137e+01 3.262289985099077398e+02
9.120000000000000284e+01 3.255846654196557211e+02
9.160000000000000853e+01 3.249444873091990758e+02
9.200000000000000000e+01 3.243084184589318966e+02
9.240000000000000568e+01 3.236764138600024125e+02
9.280000000000001137e+01 3.230484292000566029e+02
9.320000000000000284e+01 3.224244208493323640e+02
9.360000000000000853e+01 3.218043458470924065e+02
9.400000000000000000e+01 3.211881618883878104e+02
9.440000000000000568e+01 3.205758273111410972e+02
9.480000000000001137e+01 3.199673010835412583e+02
9.520000000000000284e+01 3.193625427917402249e+02
9.560000000000000853e+01 3.187615126278446951e+02
9.600000000000000000e+01 3.181641713781913836e+02
9.640000000000000568e+01 3.175704804119010873e+02
9.680000000000001137e+01 3.169804016697026441e+02
9.720000000000000284e+01 3.163938976530182572e+02
9.760000000000000853e+01 3.158109314133041039e+02
9.800000000000000000e+01 3.152314665416393495e+02
9.840000000000000568e+01 3.146554671585551546e+02
9.880000000000001137e+01 3.140828979040994682e+02
9.920000000000000284e+01 3.135137239281291386e+02
9.960000000000000853e+01 3.129479108808241108e+02
1.000000000000000000e+02 3.123854249034176860e+02
1.004000000000000057e+02 3.118262326191368174e+02
1.008000000000000114e+02 3.112703011243469291e+02
1.012000000000000028e+02 3.107175979798960839e+02
1.016000000000000085e+02 3.101680912026521924e+02
1.020000000000000000e+02 3.096217492572294532e+02
1.024000000000000057e+02 3.090785410478987387e+02
1.028000000000000114e+02 3.085384359106759575e+02
1.032000000000000028e+02 3.080014036055850397e+02
1.036000000000000085e+02 3.074674143090912253e+02
1.040000000000000000e+02 3.069364386066983457e+02
1.044000000000000057e+02 3.064084474857080522e+02
1.048000000000000114e+02 3.058834123281357620e+02
1.052000000000000028e+02 3.053613049037790574e+02
1.056000000000000085e+02 3.048420973634354709e+02
1.060000000000000000e+02 3.043257622322650491e+02
1.064000000000000057e+02 3.038122724032948554e+02
1.068000000000000114e+02 3.033016011310610907e+02
1.072000000000000028e+02 3.027937220253854775e+02
1.076000000000000085e+02 3.022886090452836925e+02
1.080000000000000000e+02 3.017862364930003309e+02
1.084000000000000057e+02 3.012865790081695536e+02
1.088000000000000114e+02 3.007896115620968658e+02
1.092000000000000028e+02 3.002953094521598700e+02
1.096000000000000085e+02 2.998036482963242406e+02
1.100000000000000000e+02 2.993146040277725888e+02
1.104000000000000057e+02 2.988281528896442296e+02
1.108000000000000114e+02 2.983442714298814735e+02
1.112000000000000028e+02 2.978629364961813053e+02
1.116000000000000085e+02 2.973841252310492678e+02
1.120000000000000000e+02 2.969078150669530487e+02
1.124000000000000057e+02 2.964339837215738953e+02
1.128000000000000114e+02 2.959626091931533551e+02
1.132000000000000028e+02 2.954936697559322170e+02
1.136000000000000085e+02 2.950271439556809128e+02
1.140000000000000000e+02 2.945630106053182544e+02
1.144000000000000057e+02 2.941012487806166860e+02
1.148000000000000114e+02 2.936418378159924032e+02
1.152000000000000028e+02 2.931847573003768161e+02
1.156000000000000085e+02 2.927299870731707188e+02
1.160000000000000000e+02 2.922775072202751971e+02
1.164000000000000057e+02 2.918272980702005839e+02
1.168000000000000114e+02 2.913793401902505025e+02
1.172000000000000028e+02 2.909336143827790693e+02
1.176000000000000085e+02 2.904901016815201729e+02
1.180000000000000000e+02 2.900487833479869551e+02
1.184000000000000057e+02 2.896096408679395608e+02
1.188000000000000114e+02 2.891726559479203615e+02
1.192000000000000028e+02 2.887378105118542635e+02
1.196000000000000085e+02 2.883050866977138185e+02
1.200000000000000000e+02 2.878744668542457248e+02
1.204000000000000057e+02 2.874459335377603111e+02
1.208000000000000114e+02 2.870194695089792276e+02
1.212000000000000028e+02 2.865950577299428232e+02
1.216000000000000085e+02 2.861726813609745932e+02
1.220000000000000000e+02 2.857523237577011059e+02
1.224000000000000057e+02 2.853339684681276367e+02
1.228000000000000114e+02 2.849175992297668927e+02
1.232000000000000028e+02 2.845031999668201479e+02
1.236000000000000085e+02 2.840907547874097645e+02
1.240000000000000000e+02 2.836802479808623048e+02
1.244000000000000057e+02 2.832716640150404714e+02
1.248000000000000114e+02 2.828649875337229673e+02
1.252000000000000028e+02 2.824602033540319326e+02
1.256000000000000085e+02 2.820572964639059705e+02
1.260000000000000000e+02 2.816562520196184778e+02
1.264000000000000057e+02 2.812570553433401983e+02
1.268000000000000114e+02 2.808596919207449218e+02
1.272000000000000028e+02 2.804641473986573601e+02
1.276000000000000085e+02 2.800704075827426323e+02
1.280000000000000000e+02 2.796784584352363368e+02
1.284000000000000057e+02 2.792882860727141292e+02
1.288000000000000114e+02 2.788998767639004086e+02
1.291999999999999886e+02 2.785132169275150886e+02
1.296000000000000227e+02 2.781282931301573171e+02
1.300000000000000000e+02 2.777450920842264850e+02
1.304000000000000057e+02 2.773636006458783640e+02
1.308000000000000114e+02 2.769838058130166019e+02
1.311999999999999886e+02 2.766056947233184928e+02
1.316000000000000227e+02 2.762292546522946282e+02
1.320000000000000000e+02 2.758544730113810601e+02
1.324000000000000057e+02 2.754813373460646062e+02
1.328000000000000114e+02 2.751098353340387348e+02
1.331999999999999886e+02 2.747399547833915676e+02
1.336000000000000227e+02 2.743716836308237816e+02
1.340000000000000000e+02 2.740050099398961265e+02
1.344000000000000057e+02 2.736399218993066143e+02
1.348000000000000114e+02 2.732764078211962442e+02
1.351999999999999886e+02 2.729144561394825814e+02
1.356000000000000227e+02 2.725540554082214157e+02
1.360000000000000000e+02 2.721951942999947960e+02
1.364000000000000057e+02 2.718378616043256670e+02
1.368000000000000114e+02 2.714820462261191096e+02
1.371999999999999886e+02 2.711277371841281933e+02
1.376000000000000227e+02 2.707749236094452954e+02
1.380000000000000000e+02 2.704235947440178052e+02
1.384000000000000057e+02 2.700737399391874192e+02
1.388000000000000114e+02 2.697253486542542191e+02
1.392000000000000171e+02 2.693784104550622942e+02
1.395999999999999943e+02 2.690329150126092941e+02
1.400000000000000000e+02 2.686888521016769005e+02
1.404000000000000057e+02 2.683462115994850024e+02
1.408000000000000114e+02 2.680049834843654821e+02
1.412000000000000171e+02 2.676651578344577729e+02
1.415999999999999943e+02 2.673267248264254476e+02
1.420000000000000000e+02 2.669896747341918513e+02
1.424000000000000057e+02 2.666539979276969348e+02
1.428000000000000114e+02 2.663196848716725640e+02
1.432000000000000171e+02 2.659867261244375527e+02
1.435999999999999943e+02 2.656551123367110563e+02
1.440000000000000000e+02 2.653248342504444963e+02
1.444000000000000057e+02 2.649958826976718456e+02
1.448000000000000114e+02 2.646682485993774776e+02
1.452000000000000171e+02 2.643419229643812400e+02
1.455999999999999943e+02 2.640168968882408080e+02
1.460000000000000000e+02 2.636931615521709773e+02
1.464000000000000057e+02 2.633707082219793847e+02
1.468000000000000114e+02 2.630495282470180882e+02
1.472000000000000171e+02 2.627296130591515748e+02
1.475999999999999943e+02 2.624109541717402863e+02
1.480000000000000000e+02 2.620935431786387539e+02
1.484000000000000057e+02 2.617773717532102751e+02
1.488000000000000114e+02 2.614624316473546628e+02
1.492000000000000171e+02 2.611487146905518557e+02
1.495999999999999943e+02 2.608362127889192834e+02
1.500000000000000000e+02 2.605249179242832724e+02
