1.000000000000000000e+01 1.096249501763347354e+02
1.040000000000000036e+01 1.082848737301704887e+02
1.080000000000000071e+01 1.080771598240724387e+02
1.119999999999999929e+01 1.089604482280093691e+02
1.159999999999999964e+01 1.115629577482470154e+02
1.200000000000000000e+01 1.086350051044923930e+02
1.240000000000000036e+01 1.060302794471353565e+02
1.280000000000000071e+01 1.000944549900967786e+02
1.319999999999999929e+01 9.769131976435922127e+01
1.359999999999999964e+01 9.549554431271049282e+01
1.400000000000000000e+01 9.347785722648731621e+01
1.440000000000000036e+01 9.161464898948780444e+01
1.480000000000000071e+01 8.988659624360877842e+01
1.519999999999999929e+01 8.827768395958375436e+01
1.560000000000000142e+01 8.677449348520860894e+01
1.600000000000000000e+01 8.536567337605731609e+01
1.639999999999999858e+01 8.404153898863759764e+01
1.680000000000000071e+01 8.279376472388371155e+01
1.719999999999999929e+01 8.161514418682949668e+01
1.760000000000000142e+01 8.049940095609160551e+01
1.800000000000000000e+01 7.944103762303164729e+01
1.839999999999999858e+01 7.845362667291199443e+01
1.880000000000000071e+01 7.102601619402844335e+01
1.920000000000000284e+01 6.984960489051104560e+01
1.960000000000000142e+01 6.872868948384918042e+01
2.000000000000000000e+01 6.765895481611767082e+01
2.039999999999999858e+01 6.663654822196352256e+01
2.080000000000000071e+01 6.565801696791882591e+01
2.120000000000000284e+01 6.472025582527470533e+01
2.160000000000000142e+01 6.382046287826344155e+01
2.200000000000000000e+01 6.295610207048547124e+01
2.239999999999999858e+01 6.212487129978170231e+01
2.280000000000000071e+01 6.132467510910919373e+01
2.320000000000000284e+01 6.055360120581058681e+01
2.360000000000000142e+01 5.980990018668924080e+01
2.400000000000000000e+01 5.909196796089339188e+01
2.439999999999999858e+01 5.839833045376985865e+01
2.480000000000000071e+01 5.772763024781559693e+01
2.520000000000000284e+01 5.707861487561868330e+01
2.560000000000000142e+01 5.596379678436893101e+01
2.600000000000000000e+01 5.537732967595185585e+01
2.640000000000000213e+01 5.480788308412132182e+01
2.680000000000000071e+01 5.425464229645952230e+01
2.719999999999999929e+01 5.371684658078363128e+01
2.760000000000000142e+01 5.319378464369660264e+01
2.800000000000000000e+01 5.268479055010430301e+01
2.840000000000000213e+01 5.218924004912835812e+01
2.880000000000000071e+01 5.170654725920038430e+01
2.920000000000000284e+01 5.123616167136886901e+01
2.960000000000000142e+01 5.077756543517281784e+01
3.000000000000000000e+01 5.033027089598483172e+01
3.040000000000000213e+01 4.989381835662582176e+01
3.080000000000000071e+01 4.946777403940559026e+01
3.120000000000000284e+01 4.905172822763331908e+01
3.160000000000000142e+01 4.864529356813990546e+01
3.200000000000000000e+01 4.824810351851817813e+01
3.240000000000000568e+01 4.785981092466744968e+01
3.279999999999999716e+01 4.748008671586621432e+01
3.320000000000000284e+01 4.710119118070112876e+01
3.360000000000000142e+01 4.672868463187932520e+01
3.400000000000000000e+01 4.636411385970633603e+01
3.440000000000000568e+01 4.600720050140713369e+01
3.479999999999999716e+01 4.565767972501715377e+01
3.520000000000000284e+01 4.465337097237387098e+01
3.560000000000000142e+01 4.435525447502507745e+01
3.600000000000000000e+01 4.406288021653674747e+01
3.640000000000000568e+01 4.377606562606193563e+01
3.679999999999999716e+01 4.349463616613842021e+01
3.720000000000000284e+01 4.321842488368427126e+01
3.760000000000000142e+01 4.294727199129676620e+01
3.800000000000000000e+01 4.268102447646563746e+01
3.840000000000000568e+01 4.241953573652763509e+01
3.879999999999999716e+01 4.216266523738195815e+01
3.920000000000000284e+01 4.191027819415933209e+01
3.960000000000000142e+01 4.166224527219547724e+01
4.000000000000000000e+01 4.141844230679986083e+01
4.040000000000000568e+01 4.117875004043930431e+01
4.079999999999999716e+01 4.094305387607158053e+01
4.120000000000000284e+01 4.071124364546884067e+01
4.160000000000000142e+01 4.048321339146604458e+01
4.200000000000000000e+01 4.025886116315562191e+01
4.239999999999999858e+01 4.003808882312849704e+01
4.280000000000000426e+01 3.997174381230836815e+01
4.320000000000000284e+01 3.976349364353413307e+01
4.360000000000000142e+01 3.955844146061127020e+01
4.400000000000000000e+01 3.935650577438597963e+01
4.439999999999999858e+01 3.915760797845430830e+01
4.480000000000000426e+01 3.896167221928359226e+01
4.520000000000000284e+01 3.875656317384341776e+01
4.560000000000000142e+01 3.854909989810309412e+01
4.600000000000000000e+01 3.834479355607867745e+01
4.639999999999999858e+01 3.814356453328630181e+01
4.680000000000000426e+01 3.794533600655974226e+01
4.720000000000000284e+01 3.775003381922827828e+01
4.760000000000000142e+01 3.755758636305987608e+01
4.800000000000000000e+01 3.736792446653997501e+01
4.840000000000000568e+01 3.718098128908732747e+01
4.880000000000000426e+01 3.699669222083728926e+01
4.920000000000000284e+01 3.681499478764894207e+01
4.960000000000000142e+01 3.663582856101692187e+01
5.000000000000000000e+01 3.645913507259115249e+01
5.040000000000000568e+01 3.628485773302807615e+01
5.080000000000000426e+01 3.611294175491607206e+01
5.120000000000000284e+01 3.594333407953525494e+01
5.160000000000000142e+01 3.577598330722803865e+01
5.200000000000000000e+01 3.561083963117140172e+01
5.240000000000000568e+01 3.544785477435653576e+01
5.280000000000000426e+01 3.528666677497315618e+01
5.320000000000000284e+01 3.512717088012618660e+01
5.360000000000000142e+01 3.496970130974224844e+01
5.400000000000000000e+01 3.481421536225158775e+01
5.440000000000000568e+01 3.466067158963050332e+01
5.480000000000000426e+01 3.450902975037489284e+01
5.520000000000000284e+01 3.435925076461565908e+01
5.560000000000000142e+01 3.421129667126157159e+01
5.600000000000000000e+01 3.406513058706208597e+01
5.640000000000000568e+01 3.392071666748905301e+01
5.680000000000000426e+01 3.377802006934263090e+01
5.720000000000000284e+01 3.363700691499207096e+01
5.760000000000000142e+01 3.349764425816739788e+01
5.800000000000000000e+01 3.335990005122319246e+01
5.840000000000000568e+01 3.359372306601982672e+01
5.880000000000000426e+01 3.346966988315331548e+01
5.920000000000000284e+01 3.334696945016522562e+01
5.960000000000000142e+01 3.322559717334711138e+01
6.000000000000000000e+01 3.310552908260004301e+01
6.040000000000000568e+01 3.298674181121261739e+01
6.080000000000000426e+01 3.286921257643561489e+01
6.120000000000000284e+01 3.275291916081674515e+01
6.160000000000000142e+01 3.263783989426021037e+01
6.200000000000000000e+01 3.252395363677825202e+01
6.240000000000000568e+01 3.241123976190328904e+01
6.280000000000000426e+01 3.229967814073086174e+01
6.320000000000000284e+01 3.218924912656514437e+01
6.360000000000000142e+01 3.207993354014048748e+01
6.400000000000000000e+01 3.197171265539341434e+01
6.440000000000000568e+01 3.184200534731827759e+01
6.480000000000001137e+01 3.173819130846842285e+01
6.520000000000000284e+01 3.163539064613862450e+01
6.559999999999999432e+01 3.153358682162126314e+01
6.600000000000000000e+01 3.143276367313466579e+01
6.640000000000000568e+01 3.133290540482806108e+01
6.680000000000001137e+01 3.123399657617662939e+01
6.720000000000000284e+01 3.113602209175015645e+01
6.759999999999999432e+01 3.103896719134005622e+01
6.800000000000000000e+01 3.094281744042983107e+01
6.840000000000000568e+01 3.084755872099503193e+01
6.880000000000001137e+01 3.075317722261920039e+01
6.920000000000000284e+01 3.065965943391320536e+01
6.959999999999999432e+01 3.056699213422560035e+01
7.000000000000000000e+01 3.047516238563257218e+01
7.040000000000000568e+01 3.038415752519627233e+01
7.080000000000001137e+01 3.029396515748096874e+01
7.120000000000000284e+01 3.020457314731702780e+01
7.159999999999999432e+01 3.011563144431863037e+01
7.200000000000000000e+01 3.002647359645776248e+01
7.240000000000000568e+01 2.993809334620016926e+01
7.280000000000001137e+01 2.985047936799629298e+01
7.320000000000000284e+01 2.976362056671838019e+01
7.359999999999999432e+01 2.967750607165827503e+01
7.400000000000000000e+01 2.959212523071522938e+01
7.440000000000000568e+01 2.950746760476690866e+01
7.479999999999999716e+01 2.942352296221659103e+01
7.520000000000000284e+01 2.934028127371023942e+01
7.560000000000000853e+01 2.925773270701711226e+01
7.600000000000000000e+01 2.917586762206801154e+01
7.640000000000000568e+01 2.909393937428616539e+01
7.679999999999999716e+01 2.901226995168851985e+01
7.720000000000000284e+01 2.893126984034937621e+01
7.760000000000000853e+01 2.885092989008341391e+01
7.800000000000000000e+01 2.877124112542846035e+01
7.840000000000000568e+01 2.869219474137340242e+01
7.879999999999999716e+01 2.861378209921318927e+01
7.920000000000000284e+01 2.853599472252644631e+01
7.960000000000000853e+01 2.845882429327140173e+01
8.000000000000000000e+01 2.838226264799606469e+01
8.040000000000000568e+01 2.830630177415871174e+01
8.079999999999999716e+01 2.823093380655494400e+01
8.120000000000000284e+01 2.815615102384757762e+01
8.160000000000000853e+01 2.808194584519607417e+01
8.200000000000000000e+01 2.800831082698193697e+01
8.240000000000000568e+01 2.793523865962701436e+01
8.279999999999999716e+01 2.786272216450156947e+01
8.320000000000000284e+01 2.779075429091909655e+01
8.360000000000000853e+01 2.771932811321509504e+01
8.400000000000000000e+01 2.764843682790698765e+01
8.440000000000000568e+01 2.757807375093246094e+01
8.479999999999999716e+01 2.750823231496392651e+01
8.520000000000000284e+01 2.743890606679638466e+01
8.560000000000000853e+01 2.737008866480636016e+01
8.600000000000000000e+01 2.730177387647984233e+01
8.640000000000000568e+01 2.723395557600674977e+01
8.680000000000001137e+01 2.716662774193999041e+01
8.720000000000000284e+01 2.709978445491704235e+01
8.760000000000000853e+01 2.702892033634759628e+01
8.800000000000000000e+01 2.696548034070520217e+01
8.840000000000000568e+01 2.690248509447553715e+01
8.880000000000001137e+01 2.683992937225853836e+01
8.920000000000000284e+01 2.677780803463570436e+01
8.960000000000000853e+01 2.671611602635444171e+01
9.000000000000000000e+01 2.665484837455905875e+01
9.040000000000000568e+01 2.661393068374531623e+01
9.080000000000001137e+01 2.655475804948645191e+01
9.120000000000000284e+01 2.649598218811635775e+01
9.160000000000000853e+01 2.643759863221496431e+01
9.200000000000000000e+01 2.637960298487086419e+01
9.240000000000000568e+01 2.632199091825226844e+01
9.280000000000001137e+01 2.626475817221328057e+01
9.320000000000000284e+01 2.620790055293452525e+01
9.360000000000000853e+01 2.615141393159702687e+01
9.400000000000000000e+01 2.609529424308843204e+01
9.440000000000000568e+01 2.603953748474065577e+01
9.480000000000001137e+01 2.598413971509801002e+01
9.520000000000000284e+01 2.592909705271502219e+01
9.560000000000000853e+01 2.587440567498296673e+01
9.600000000000000000e+01 2.582006181698450575e+01
9.640000000000000568e+01 2.576606177037536582e+01
9.680000000000001137e+01 2.571240188229261037e+01
9.720000000000000284e+01 2.565907855428854845e+01
9.760000000000000853e+01 2.560608824128954808e+01
9.800000000000000000e+01 2.555342745057932063e+01
9.840000000000000568e+01 2.550109274080566735e+01
9.880000000000001137e+01 2.544908072101031493e+01
9.920000000000000284e+01 2.539738804968104091e+01
9.960000000000000853e+01 2.534601143382558774e+01
1.000000000000000000e+02 2.529494762806668007e+01
1.004000000000000057e+02 2.524419343375772229e+01
1.008000000000000114e+02 2.519374569811844822e+01
1.012000000000000028e+02 2.514360131339008220e+01
1.016000000000000085e+02 2.509375721600952858e+01
1.020000000000000000e+02 2.504421038580199621e+01
1.024000000000000057e+02 2.499495784519164943e+01
1.028000000000000114e+02 2.494599665842972769e+01
1.032000000000000028e+02 2.489732393083978224e+01
1.036000000000000085e+02 2.484882990982976025e+01
1.040000000000000000e+02 2.479969294927250445e+01
1.044000000000000057e+02 2.475053857793808021e+01
1.048000000000000114e+02 2.470163694589686543e+01
1.052000000000000028e+02 2.465302174011708303e+01
1.056000000000000085e+02 2.460469014958871625e+01
1.060000000000000000e+02 2.455663940195425710e+01
1.064000000000000057e+02 2.450886676282642895e+01
1.068000000000000114e+02 2.446136953512065304e+01
1.072000000000000028e+02 2.441414505840170790e+01
1.076000000000000085e+02 2.436719070824443989e+01
1.080000000000000000e+02 2.432050389560804504e+01
1.084000000000000057e+02 2.427408206622352793e+01
1.088000000000000114e+02 2.422792269999422032e+01
1.092000000000000028e+02 2.418202331040877695e+01
1.096000000000000085e+02 2.413638144396653473e+01
1.100000000000000000e+02 2.409099467961485175e+01
1.104000000000000057e+02 2.404586062819807779e+01
1.108000000000000114e+02 2.400097693191805348e+01
1.112000000000000028e+02 2.395634126380559437e+01
1.116000000000000085e+02 2.391195132720293870e+01
1.120000000000000000e+02 2.386780485525673967e+01
1.124000000000000057e+02 2.382389961042143511e+01
1.128000000000000114e+02 2.378023338397265718e+01
1.132000000000000028e+02 2.373680399553050790e+01
1.136000000000000085e+02 2.369360929259251947e+01
1.140000000000000000e+02 2.365064715007585860e+01
1.144000000000000057e+02 2.360791546986884271e+01
1.148000000000000114e+02 2.356541218039131280e+01
1.152000000000000028e+02 2.352313523616375335e+01
1.156000000000000085e+02 2.348108261738497760e+01
1.160000000000000000e+02 2.343925232951814763e+01
1.164000000000000057e+02 2.339764240288484132e+01
1.168000000000000114e+02 2.335625089226724427e+01
1.172000000000000028e+02 2.331507587651794111e+01
1.176000000000000085e+02 2.327411545817735927e+01
1.180000000000000000e+02 2.323336776309866991e+01
1.184000000000000057e+02 2.319283094007986890e+01
1.188000000000000114e+02 2.315250316050297030e+01
1.192000000000000028e+02 2.311238261798012061e+01
1.196000000000000085e+02 2.307246752800645240e+01
1.200000000000000000e+02 2.303275612761958158e+01
1.204000000000000057e+02 2.300315218719308774e+01
1.208000000000000114e+02 2.296413260315327420e+01
1.212000000000000028e+02 2.292530932711644809e+01
1.216000000000000085e+02 2.288668070294649226e+01
1.220000000000000000e+02 2.284824509410282189e+01
1.224000000000000057e+02 2.281000088334241838e+01
1.228000000000000114e+02 2.279949608044135800e+01
1.232000000000000028e+02 2.276267646307292125e+01
1.236000000000000085e+02 2.272603608241139383e+01
1.240000000000000000e+02 2.268957347120908707e+01
1.244000000000000057e+02 2.265328717908545642e+01
1.248000000000000114e+02 2.261717577227774711e+01
1.252000000000000028e+02 2.258123783339612345e+01
1.256000000000000085e+02 2.254547196118312158e+01
1.260000000000000000e+02 2.250987677027751843e+01
1.264000000000000057e+02 2.247445089098238213e+01
1.268000000000000114e+02 2.243919296903725069e+01
1.272000000000000028e+02 2.240410166539434655e+01
1.276000000000000085e+02 2.236917565599878799e+01
1.280000000000000000e+02 2.233441363157264448e+01
1.284000000000000057e+02 2.229981429740283261e+01
1.288000000000000114e+02 2.226537637313266060e+01
1.291999999999999886e+02 2.223109859255711029e+01
1.296000000000000227e+02 2.219697970342156879e+01
1.300000000000000000e+02 2.216301846722419100e+01
1.304000000000000057e+02 2.212921365902155557e+01
1.308000000000000114e+02 2.209556406723777400e+01
1.311999999999999886e+02 2.206206849347679722e+01
1.316000000000000227e+02 2.202872575233801555e+01
1.320000000000000000e+02 2.199553467123496375e+01
1.324000000000000057e+02 2.196249409021712751e+01
1.328000000000000114e+02 2.192960286179478402e+01
1.331999999999999886e+02 2.189685985076678421e+01
1.336000000000000227e+02 2.186426393405129431e+01
1.340000000000000000e+02 2.183181400051929799e+01
1.344000000000000057e+02 2.179950895083100448e+01
1.348000000000000114e+02 2.176734769727488583e+01
1.351999999999999886e+02 2.173532916360944611e+01
1.356000000000000227e+02 2.170345228490764811e+01
1.360000000000000000e+02 2.167171600740386594e+01
1.364000000000000057e+02 2.164010183810373533e+01
1.368000000000000114e+02 2.160860154063820460e+01
1.371999999999999886e+02 2.157723894713981139e+01
1.376000000000000227e+02 2.154601304571357545e+01
1.380000000000000000e+02 2.151492283490800617e+01
1.384000000000000057e+02 2.148396732357637262e+01
1.388000000000000114e+02 2.145314553074036823e+01
1.392000000000000171e+02 2.142245648545585013e+01
1.395999999999999943e+02 2.139189922668087718e+01
1.400000000000000000e+02 2.136147280314570196e+01
1.404000000000000057e+02 2.133117627322502585e+01
1.408000000000000114e+02 2.130100870481216546e+01
1.412000000000000171e+02 2.127096917519526897e+01
1.415999999999999943e+02 2.124089391259422399e+01
1.420000000000000000e+02 2.121085370330069608e+01
1.424000000000000057e+02 2.118094030272319728e+01
1.428000000000000114e+02 2.115115281190839980e+01
1.432000000000000171e+02 2.112149034085115673e+01
1.435999999999999943e+02 2.109195200838000162e+01
1.440000000000000000e+02 2.106253694204432847e+01
1.444000000000000057e+02 2.103324427800340857e+01
1.448000000000000114e+02 2.100407316091708765e+01
1.452000000000000171e+02 2.097502274383816712e+01
1.455999999999999943e+02 2.094609218810654383e+01
1.460000000000000000e+02 2.091728066324481716e+01
1.464000000000000057e+02 2.088858734685565111e+01
1.468000000000000114e+02 2.086001142452066404e+01
1.472000000000000171e+02 2.083155208970077865e+01
1.475999999999999943e+02 2.080320854363824878e+01
1.480000000000000000e+02 2.077497999526003269e+01
1.484000000000000057e+02 2.074686566108272245e+01
1.488000000000000114e+02 2.071886476511883046e+01
1.492000000000000171e+02 2.069097653878459653e+01
1.495999999999999943e+02 2.066320022080906682e+01
1.500000000000000000e+02 2.063553505714460456e+01
