1.000000000000000000e+01 3.315335769765421219e+02
1.040000000000000036e+01 3.983959827522563728e+02
1.080000000000000071e+01 4.417058038225379732e+02
1.119999999999999929e+01 4.991041051317354231e+02
1.159999999999999964e+01 5.310696251229494464e+02
1.200000000000000000e+01 5.830500485211352952e+02
1.240000000000000036e+01 6.044392818006894004e+02
1.280000000000000071e+01 6.242653499115140221e+02
1.319999999999999929e+01 6.404607506856705186e+02
1.359999999999999964e+01 6.791110919942957480e+02
1.400000000000000000e+01 7.049288886980353936e+02
1.440000000000000036e+01 7.265081450403565668e+02
1.480000000000000071e+01 7.122262463900696048e+02
1.519999999999999929e+01 6.989103559970267270e+02
1.560000000000000142e+01 6.864495053823854960e+02
1.600000000000000000e+01 6.747504507132423441e+02
1.639999999999999858e+01 6.637340955391650823e+02
1.680000000000000071e+01 6.533327756997814504e+02
1.719999999999999929e+01 6.434881673322670395e+02
1.760000000000000142e+01 6.341496531992025893e+02
1.800000000000000000e+01 6.252730314733164505e+02
1.839999999999999858e+01 6.168194840435900232e+02
1.880000000000000071e+01 6.087547440162843486e+02
1.920000000000000284e+01 6.010484178880219588e+02
1.960000000000000142e+01 5.936734290948475063e+02
2.000000000000000000e+01 5.866055577349569603e+02
2.039999999999999858e+01 5.798230571770037614e+02
2.080000000000000071e+01 5.733063326412009246e+02
2.120000000000000284e+01 5.670376701143768514e+02
2.160000000000000142e+01 5.610010064358613135e+02
2.200000000000000000e+01 5.551817332815608097e+02
2.239999999999999858e+01 5.495665292303360729e+02
2.280000000000000071e+01 5.441432152288650741e+02
2.320000000000000284e+01 5.389006296579186710e+02
2.360000000000000142e+01 5.338285199027249064e+02
2.400000000000000000e+01 5.289174478861301623e+02
2.439999999999999858e+01 5.241587074680144269e+02
2.480000000000000071e+01 5.195442519723413852e+02
2.520000000000000284e+01 5.150666303929739342e+02
2.560000000000000142e+01 5.107189310652163385e+02
2.600000000000000000e+01 5.064947317830299198e+02
2.640000000000000213e+01 5.023880555005403039e+02
2.680000000000000071e+01 4.983933308875577950e+02
2.719999999999999929e+01 4.945053571176234186e+02
2.760000000000000142e+01 4.907192723577715014e+02
2.800000000000000000e+01 4.870305255050718642e+02
2.840000000000000213e+01 4.834348507787616995e+02
2.880000000000000071e+01 4.799282448305258413e+02
2.920000000000000284e+01 4.765069460809656903e+02
2.960000000000000142e+01 4.731674160289176143e+02
3.000000000000000000e+01 4.699063223131811924e+02
3.040000000000000213e+01 4.667205233343297550e+02
3.080000000000000071e+01 4.636070542683747817e+02
3.120000000000000284e+01 4.605631143247667296e+02
3.160000000000000142e+01 4.575860551190725687e+02
3.200000000000000000e+01 4.546733700461033436e+02
3.240000000000000568e+01 4.518226845526352236e+02
3.279999999999999716e+01 4.490317472204881710e+02
3.320000000000000284e+01 4.462984215808415911e+02
3.360000000000000142e+01 4.436206785894977429e+02
3.400000000000000000e+01 4.409965897005238276e+02
3.440000000000000568e+01 4.384243204824822442e+02
3.479999999999999716e+01 4.359021247274015423e+02
3.520000000000000284e+01 4.334283390078812772e+02
3.560000000000000142e+01 4.310013776423423337e+02
3.600000000000000000e+01 4.286197280325175143e+02
3.640000000000000568e+01 4.262819463408884531e+02
3.679999999999999716e+01 4.239866534789863408e+02
3.720000000000000284e+01 4.217325313803144127e+02
3.760000000000000142e+01 4.195183195341941200e+02
3.800000000000000000e+01 4.173428117590874535e+02
3.840000000000000568e+01 4.152048531959724755e+02
3.879999999999999716e+01 4.131033375041513978e+02
3.920000000000000284e+01 4.110372042434821651e+02
3.960000000000000142e+01 4.090054364284833355e+02
4.000000000000000000e+01 4.070070582410530733e+02
4.040000000000000568e+01 4.050411328897218937e+02
4.079999999999999716e+01 4.031067606044093168e+02
4.120000000000000284e+01 4.012030767566084819e+02
4.160000000000000142e+01 3.993292500957772404e+02
4.200000000000000000e+01 3.974844810934969246e+02
4.239999999999999858e+01 3.956680003876566616e+02
4.280000000000000426e+01 3.938790673195628074e+02
4.320000000000000284e+01 3.921169685574490131e+02
4.360000000000000142e+01 3.903810168003874423e+02
4.400000000000000000e+01 3.886705495570800508e+02
4.439999999999999858e+01 3.869849279944443197e+02
4.480000000000000426e+01 3.853235358513009032e+02
4.520000000000000284e+01 3.836857784128367257e+02
4.560000000000000142e+01 3.820710815418428865e+02
4.600000000000000000e+01 3.804788907630314156e+02
4.639999999999999858e+01 3.789086703970102121e+02
4.680000000000000426e+01 3.773599027407475432e+02
4.720000000000000284e+01 3.758320872915912219e+02
4.760000000000000142e+01 3.743247400121167630e+02
4.800000000000000000e+01 3.728373926332810129e+02
4.840000000000000568e+01 3.713695919935278766e+02
4.880000000000000426e+01 3.699208994116671647e+02
4.920000000000000284e+01 3.684908900914932133e+02
4.960000000000000142e+01 3.670791525562534616e+02
5.000000000000000000e+01 3.656852881112058071e+02
5.040000000000000568e+01 3.643089103326220197e+02
5.080000000000000426e+01 3.629496445817055132e+02
5.120000000000000284e+01 3.616071275419930657e+02
5.160000000000000142e+01 3.602810067789058621e+02
5.200000000000000000e+01 3.589709403201998725e+02
5.240000000000000568e+01 3.576765962561490824e+02
5.280000000000000426e+01 3.563976523583673952e+02
5.320000000000000284e+01 3.551337957162476187e+02
5.360000000000000142e+01 3.538847223900572203e+02
5.400000000000000000e+01 3.526501370797927848e+02
5.440000000000000568e+01 3.514297528089502975e+02
5.480000000000000426e+01 3.502232906224190288e+02
5.520000000000000284e+01 3.490304792977570401e+02
5.560000000000000142e+01 3.478510550691486856e+02
5.600000000000000000e+01 3.466847613633900096e+02
5.640000000000000568e+01 3.455313485472822777e+02
5.680000000000000426e+01 3.443905736858545197e+02
5.720000000000000284e+01 3.432622003108674562e+02
5.760000000000000142e+01 3.421459981990835217e+02
5.800000000000000000e+01 3.410417431598181679e+02
5.840000000000000568e+01 3.399492168313138336e+02
5.880000000000000426e+01 3.388682064855054819e+02
5.920000000000000284e+01 3.377985048407698514e+02
5.960000000000000142e+01 3.367399098822734231e+02
6.000000000000000000e+01 3.356922246895560988e+02
6.040000000000000568e+01 3.346552572710072013e+02
6.080000000000000426e+01 3.336288204049083106e+02
6.120000000000000284e+01 3.326127314867363793e+02
6.160000000000000142e+01 3.316068123824367149e+02
6.200000000000000000e+01 3.306108892873901368e+02
6.240000000000000568e+01 3.296247925908140246e+02
6.280000000000000426e+01 3.286483567453504406e+02
6.320000000000000284e+01 3.276814201416075889e+02
6.360000000000000142e+01 3.267238249874324083e+02
6.400000000000000000e+01 3.257754171917042640e+02
6.440000000000000568e+01 3.248360462524493073e+02
6.480000000000001137e+01 3.239055651490878631e+02
6.520000000000000284e+01 3.229838302386330042e+02
6.559999999999999432e+01 3.220707011556695534e+02
6.600000000000000000e+01 3.211660407159529314e+02
6.640000000000000568e+01 3.202697148234709630e+02
6.680000000000001137e+01 3.193815923808242587e+02
6.720000000000000284e+01 3.185015452027827223e+02
6.759999999999999432e+01 3.176294479328882971e+02
6.800000000000000000e+01 3.167651779629755424e+02
6.840000000000000568e+01 3.159086153554897010e+02
6.880000000000001137e+01 3.150596427684879473e+02
6.920000000000000284e+01 3.142181453832153011e+02
6.959999999999999432e+01 3.133840108341488531e+02
7.000000000000000000e+01 3.125571291414129291e+02
7.040000000000000568e+01 3.117373926454702087e+02
7.080000000000001137e+01 3.109246959439966531e+02
7.120000000000000284e+01 3.101189358308567989e+02
7.159999999999999432e+01 3.093200112370941497e+02
7.200000000000000000e+01 3.085278231738608383e+02
7.240000000000000568e+01 3.077422746772090818e+02
7.280000000000001137e+01 3.069632707546741130e+02
7.320000000000000284e+01 3.061907183335795253e+02
7.359999999999999432e+01 3.054245262109998862e+02
7.400000000000000000e+01 3.046646050053167869e+02
7.440000000000000568e+01 3.039108671093104022e+02
7.479999999999999716e+01 3.031632266447273309e+02
7.520000000000000284e+01 3.024215994182702616e+02
7.560000000000000853e+01 3.016859028789579042e+02
7.600000000000000000e+01 3.009560560768041455e+02
7.640000000000000568e+01 3.002319796227674260e+02
7.679999999999999716e+01 2.995135956499264580e+02
7.720000000000000284e+01 2.988008277758350459e+02
7.760000000000000853e+01 2.980936010660166744e+02
7.800000000000000000e+01 2.973918419985562309e+02
7.840000000000000568e+01 2.966954784297501533e+02
7.879999999999999716e+01 2.960044395607785646e+02
7.920000000000000284e+01 2.953186559053623341e+02
7.960000000000000853e+01 2.946380592583719817e+02
8.000000000000000000e+01 2.939625826653540912e+02
8.040000000000000568e+01 2.932921603929440835e+02
8.079999999999999716e+01 2.926267279001354495e+02
8.120000000000000284e+01 2.919662218103754867e+02
8.160000000000000853e+01 2.913105798844596848e+02
8.200000000000000000e+01 2.906597409941974774e+02
8.240000000000000568e+01 2.900136450968240069e+02
8.279999999999999716e+01 2.893722332101331176e+02
8.320000000000000284e+01 2.887354473883058290e+02
8.360000000000000853e+01 2.881032306984142224e+02
8.400000000000000000e+01 2.874755271975759001e+02
8.440000000000000568e+01 2.868522819107384407e+02
8.479999999999999716e+01 2.862334408090747502e+02
8.520000000000000284e+01 2.856189507889670267e+02
8.560000000000000853e+01 2.850087596515627411e+02
8.600000000000000000e+01 2.844028160828826230e+02
8.640000000000000568e+01 2.838010696344634312e+02
8.680000000000001137e+01 2.832034707045198161e+02
8.720000000000000284e+01 2.826099705196062928e+02
8.760000000000000853e+01 2.820205211167662469e+02
8.800000000000000000e+01 2.814350753261508089e+02
8.840000000000000568e+01 2.808535867540943514e+02
8.880000000000001137e+01 2.802760097666315460e+02
8.920000000000000284e+01 2.797022994734419399e+02
8.960000000000000853e+01 2.791324117122115354e+02
9.000000000000000000e+01 2.785663030333942629e+02
9.040000000000000568e+01 2.780039306853660719e+02
9.080000000000001137e+01 2.774452525999553245e+02
9.120000000000000284e+01 2.768902273783420469e+02
9.160000000000000853e+01 2.763388142773112577e+02
9.200000000000000000e+01 2.757909731958537236e+02
9.240000000000000568e+01 2.752466646620999313e+02
9.280000000000001137e+01 2.747058498205807950e+02
9.320000000000000284e+01 2.741684904198031063e+02
9.360000000000000853e+01 2.736345488001315971e+02
9.400000000000000000e+01 2.731039878819689761e+02
9.440000000000000568e+01 2.725767711542240477e+02
9.480000000000001137e+01 2.720528626630610916e+02
9.520000000000000284e+01 2.715322270009212957e+02
9.560000000000000853e+01 2.710148292958090224e+02
9.600000000000000000e+01 2.705006352008350632e+02
9.640000000000000568e+01 2.699896108840097213e+02
9.680000000000001137e+01 2.694817230182791832e+02
9.720000000000000284e+01 2.689769387717969948e+02
9.760000000000000853e+01 2.684752257984257540e+02
9.800000000000000000e+01 2.679765522284611734e+02
9.840000000000000568e+01 2.674808866595730592e+02
9.880000000000001137e+01 2.669881981479576325e+02
9.920000000000000284e+01 2.664984561996938623e+02
9.960000000000000853e+01 2.660116307623002854e+02
1.000000000000000000e+02 2.655276922164846951e+02
1.004000000000000057e+02 2.650466113680835178e+02
1.008000000000000114e+02 2.645683594401841106e+02
1.012000000000000028e+02 2.640929080654262293e+02
1.016000000000000085e+02 2.636202292784765859e+02
1.020000000000000000e+02 2.631502955086737074e+02
1.024000000000000057e+02 2.626830795728363910e+02
1.028000000000000114e+02 2.622185546682335371e+02
1.032000000000000028e+02 2.617566943657095635e+02
1.036000000000000085e+02 2.612974726029616477e+02
1.040000000000000000e+02 2.608408636779658991e+02
1.044000000000000057e+02 2.603868422425467202e+02
1.048000000000000114e+02 2.599353832960874797e+02
1.052000000000000028e+02 2.594864621793776109e+02
1.056000000000000085e+02 2.590400545685931206e+02
1.060000000000000000e+02 2.585961364694068152e+02
1.064000000000000057e+02 2.581546842112258560e+02
1.068000000000000114e+02 2.577156744415516414e+02
1.072000000000000028e+02 2.572790841204607091e+02
1.076000000000000085e+02 2.568448905152029056e+02
1.080000000000000000e+02 2.564130711949131864e+02
1.084000000000000057e+02 2.559836040254356249e+02
1.088000000000000114e+02 2.555564671642553947e+02
1.092000000000000028e+02 2.551316390555373914e+02
1.096000000000000085e+02 2.547090984252675412e+02
1.100000000000000000e+02 2.542888242764953191e+02
1.104000000000000057e+02 2.538707958846745782e+02
1.108000000000000114e+02 2.534549927931000752e+02
1.112000000000000028e+02 2.530413948084379285e+02
1.116000000000000085e+02 2.526299819963468281e+02
1.120000000000000000e+02 2.522207346771890570e+02
1.124000000000000057e+02 2.518136334218281149e+02
1.128000000000000114e+02 2.514086590475110938e+02
1.132000000000000028e+02 2.510057926138342168e+02
1.136000000000000085e+02 2.506050154187891508e+02
1.140000000000000000e+02 2.502063089948882748e+02
1.144000000000000057e+02 2.498096551053668009e+02
1.148000000000000114e+02 2.494150357404610361e+02
1.152000000000000028e+02 2.490224331137588365e+02
1.156000000000000085e+02 2.486318296586233885e+02
1.160000000000000000e+02 2.482432080246857140e+02
1.164000000000000057e+02 2.478565510744066955e+02
1.168000000000000114e+02 2.474718418797056358e+02
1.172000000000000028e+02 2.470890637186540744e+02
1.176000000000000085e+02 2.467082000722339501e+02
1.180000000000000000e+02 2.463292346211578092e+02
1.184000000000000057e+02 2.459521512427498919e+02
1.188000000000000114e+02 2.455769340078876439e+02
1.192000000000000028e+02 2.452035671780003554e+02
1.196000000000000085e+02 2.448320352021257804e+02
1.200000000000000000e+02 2.444623227140218376e+02
1.204000000000000057e+02 2.440944145293330223e+02
1.208000000000000114e+02 2.437282956428099396e+02
1.212000000000000028e+02 2.433639512255810473e+02
1.216000000000000085e+02 2.430013666224748476e+02
1.220000000000000000e+02 2.426405273493924994e+02
1.224000000000000057e+02 2.422814190907287184e+02
1.228000000000000114e+02 2.419240276968401986e+02
1.232000000000000028e+02 2.415683391815609298e+02
1.236000000000000085e+02 2.412143397197627337e+02
1.240000000000000000e+02 2.408620156449608203e+02
1.244000000000000057e+02 2.405113534469623175e+02
1.248000000000000114e+02 2.401623397695580593e+02
1.252000000000000028e+02 2.398149614082559538e+02
1.256000000000000085e+02 2.394692053080551091e+02
1.260000000000000000e+02 2.391250585612597206e+02
1.264000000000000057e+02 2.387825084053329476e+02
1.268000000000000114e+02 2.384415422207879374e+02
1.272000000000000028e+02 2.381021475291173601e+02
1.276000000000000085e+02 2.377643119907590972e+02
1.280000000000000000e+02 2.374280234030980523e+02
1.284000000000000057e+02 2.370932696985032067e+02
1.288000000000000114e+02 2.367600389423987224e+02
1.291999999999999886e+02 2.364283193313697780e+02
1.296000000000000227e+02 2.360980991913000366e+02
1.300000000000000000e+02 2.357693669755429937e+02
1.304000000000000057e+02 2.354421112631235644e+02
1.308000000000000114e+02 2.351163207569719873e+02
1.311999999999999886e+02 2.347919842821873999e+02
1.316000000000000227e+02 2.344690907843312857e+02
1.320000000000000000e+02 2.341476293277503942e+02
1.324000000000000057e+02 2.338275890939281965e+02
1.328000000000000114e+02 2.335089593798638816e+02
1.331999999999999886e+02 2.331917295964796608e+02
1.336000000000000227e+02 2.328758892670541627e+02
1.340000000000000000e+02 2.325614280256829147e+02
1.344000000000000057e+02 2.322483356157639491e+02
1.348000000000000114e+02 2.319366018885094149e+02
1.351999999999999886e+02 2.316262168014816893e+02
1.356000000000000227e+02 2.313171704171535907e+02
1.360000000000000000e+02 2.310094529014932903e+02
1.364000000000000057e+02 2.307030545225714491e+02
1.368000000000000114e+02 2.303979656491923151e+02
1.371999999999999886e+02 2.300941767495468753e+02
1.376000000000000227e+02 2.297916783898880340e+02
1.380000000000000000e+02 2.294904612332275633e+02
1.384000000000000057e+02 2.291905160380538007e+02
1.388000000000000114e+02 2.288918336570713166e+02
1.392000000000000171e+02 2.285944050359594826e+02
1.395999999999999943e+02 2.282982212121523276e+02
1.400000000000000000e+02 2.280032733136368677e+02
1.404000000000000057e+02 2.277095525577718718e+02
1.408000000000000114e+02 2.274170502501247597e+02
1.412000000000000171e+02 2.271257577833270034e+02
1.415999999999999943e+02 2.268356666359484848e+02
1.420000000000000000e+02 2.265467683713884526e+02
1.424000000000000057e+02 2.262590546367852653e+02
1.428000000000000114e+02 2.259725171619423918e+02
1.432000000000000171e+02 2.256871477582719194e+02
1.435999999999999943e+02 2.254029383177540353e+02
1.440000000000000000e+02 2.251198808119131058e+02
1.444000000000000057e+02 2.248379672908097007e+02
1.448000000000000114e+02 2.245571898820481920e+02
1.452000000000000171e+02 2.242775407897996445e+02
1.455999999999999943e+02 2.239990122938399111e+02
1.460000000000000000e+02 2.237215967486023942e+02
1.464000000000000057e+02 2.234452865822454442e+02
1.468000000000000114e+02 2.231700742957341674e+02
1.472000000000000171e+02 2.228959524619358490e+02
1.475999999999999943e+02 2.226229137247296421e+02
1.480000000000000000e+02 2.223509507981290199e+02
1.484000000000000057e+02 2.220800564654187781e+02
1.488000000000000114e+02 2.218102235783035212e+02
1.492000000000000171e+02 2.215414450560701312e+02
1.495999999999999943e+02 2.212737138847621168e+02
1.500000000000000000e+02 2.210070231163668382e+02
