1.000000000000000000e+01 3.222609606072158499e+02
1.040000000000000036e+01 3.662057277146657839e+02
1.080000000000000071e+01 4.066917252571690256e+02
1.119999999999999929e+01 5.007980768232463333e+02
1.159999999999999964e+01 5.432692459519007571e+02
1.200000000000000000e+01 5.885316846621371951e+02
1.240000000000000036e+01 6.254782553038395463e+02
1.280000000000000071e+01 6.405275502951019462e+02
1.319999999999999929e+01 6.374633199358615911e+02
1.359999999999999964e+01 6.391449213823851778e+02
1.400000000000000000e+01 6.457156755609564698e+02
1.440000000000000036e+01 6.420321181164829341e+02
1.480000000000000071e+01 6.301090301705663705e+02
1.519999999999999929e+01 6.189337506568547269e+02
1.560000000000000142e+01 6.084269323100706970e+02
1.600000000000000000e+01 5.985209323200348308e+02
1.639999999999999858e+01 5.891576255597369709e+02
1.680000000000000071e+01 5.802867077374870632e+02
1.719999999999999929e+01 5.718643615280328731e+02
1.760000000000000142e+01 5.638521958122183833e+02
1.800000000000000000e+01 5.562163932581539711e+02
1.839999999999999858e+01 5.489270188193356717e+02
1.880000000000000071e+01 5.419574539231597328e+02
1.920000000000000284e+01 5.352839298426617916e+02
1.960000000000000142e+01 5.288851400689700313e+02
2.000000000000000000e+01 5.227419161510458707e+02
2.039999999999999858e+01 5.168369549285851008e+02
2.080000000000000071e+01 5.111545876868385108e+02
2.120000000000000284e+01 5.056805837409245328e+02
2.160000000000000142e+01 5.004019824759596418e+02
2.200000000000000000e+01 4.953069490453507342e+02
2.239999999999999858e+01 4.903846498477604428e+02
2.280000000000000071e+01 4.856251446256260351e+02
2.320000000000000284e+01 4.810192926005631762e+02
2.360000000000000142e+01 4.765586705176891655e+02
2.400000000000000000e+01 4.722355008375913030e+02
2.439999999999999858e+01 4.680425886108471332e+02
2.480000000000000071e+01 4.639732658105938299e+02
2.520000000000000284e+01 4.600213420951172338e+02
2.560000000000000142e+01 4.561810611337000978e+02
2.600000000000000000e+01 4.524470617619697919e+02
2.640000000000000213e+01 4.488143433431855556e+02
2.680000000000000071e+01 4.452782348036008671e+02
2.719999999999999929e+01 4.418343668866567668e+02
2.760000000000000142e+01 4.384786472350410804e+02
2.800000000000000000e+01 4.352072379637697281e+02
2.840000000000000213e+01 4.320165354331895173e+02
2.880000000000000071e+01 4.289031519695896009e+02
2.920000000000000284e+01 4.258638993141146898e+02
2.960000000000000142e+01 4.228957736088411821e+02
3.000000000000000000e+01 4.199959417529971120e+02
3.040000000000000213e+01 4.171617289830159052e+02
3.080000000000000071e+01 4.143906075479459332e+02
3.120000000000000284e+01 4.116801863671373667e+02
3.160000000000000142e+01 4.090282015704535752e+02
3.200000000000000000e+01 4.064325078328274685e+02
3.240000000000000568e+01 4.038910704250417893e+02
3.279999999999999716e+01 4.014019579113937084e+02
3.320000000000000284e+01 3.989633354325704317e+02
3.360000000000000142e+01 3.965734585187856283e+02
3.400000000000000000e+01 3.942306673841187035e+02
3.440000000000000568e+01 3.919333816581929568e+02
3.479999999999999716e+01 3.896800955158938677e+02
3.520000000000000284e+01 3.874693731698720285e+02
3.560000000000000142e+01 3.852998446941421662e+02
3.600000000000000000e+01 3.831702021502582625e+02
3.640000000000000568e+01 3.810791959903521615e+02
3.679999999999999716e+01 3.790256317138271243e+02
3.720000000000000284e+01 3.770083667567179759e+02
3.760000000000000142e+01 3.750263075947225389e+02
3.800000000000000000e+01 3.730784070426796006e+02
3.840000000000000568e+01 3.711636617348607388e+02
3.879999999999999716e+01 3.692811097718657720e+02
3.920000000000000284e+01 3.674298285211904158e+02
3.960000000000000142e+01 3.656089325596851722e+02
4.000000000000000000e+01 3.638175717471577855e+02
4.040000000000000568e+01 3.620549294213020630e+02
4.079999999999999716e+01 3.603202207049824324e+02
4.120000000000000284e+01 3.586126909176578010e+02
4.160000000000000142e+01 3.569316140834208682e+02
4.200000000000000000e+01 3.552762915287494252e+02
4.239999999999999858e+01 3.536460505636321159e+02
4.280000000000000426e+01 3.520402432402448767e+02
4.320000000000000284e+01 3.504582451838185762e+02
4.360000000000000142e+01 3.488994544907653221e+02
4.400000000000000000e+01 3.473632906895150541e+02
4.439999999999999858e+01 3.458491937598683990e+02
4.480000000000000426e+01 3.443566232069914008e+02
4.520000000000000284e+01 3.428850571864741141e+02
4.560000000000000142e+01 3.414339916771421031e+02
4.600000000000000000e+01 3.400029396985553944e+02
4.639999999999999858e+01 3.385914305703584546e+02
4.680000000000000426e+01 3.371990092108468389e+02
4.720000000000000284e+01 3.358252354723100552e+02
4.760000000000000142e+01 3.344696835108815094e+02
4.800000000000000000e+01 3.331319411887896536e+02
4.840000000000000568e+01 3.318116095070495817e+02
4.880000000000000426e+01 3.305083020667723304e+02
4.920000000000000284e+01 3.292216445573924375e+02
4.960000000000000142e+01 3.279512742702323749e+02
5.000000000000000000e+01 3.266968396359269491e+02
5.040000000000000568e+01 3.254579997843316050e+02
5.080000000000000426e+01 3.242344241256269584e+02
5.120000000000000284e+01 3.230257919514194782e+02
5.160000000000000142e+01 3.218317920547151516e+02
5.200000000000000000e+01 3.206521223677132184e+02
5.240000000000000568e+01 3.194864896164383481e+02
5.280000000000000426e+01 3.183346089912897696e+02
5.320000000000000284e+01 3.171962038326415723e+02
5.360000000000000142e+01 3.160710053306871714e+02
5.400000000000000000e+01 3.149587522387672607e+02
5.440000000000000568e+01 3.138591905994670697e+02
5.480000000000000426e+01 3.127720734828153581e+02
5.520000000000000284e+01 3.116971607359525365e+02
5.560000000000000142e+01 3.106342187436795825e+02
5.600000000000000000e+01 3.095830201993277342e+02
5.640000000000000568e+01 3.085433438854274755e+02
5.680000000000000426e+01 3.075149744636813125e+02
5.720000000000000284e+01 3.064977022737767811e+02
5.760000000000000142e+01 3.054913231406003433e+02
5.800000000000000000e+01 3.044956381894402284e+02
5.840000000000000568e+01 3.035104536687869086e+02
5.880000000000000426e+01 3.025355807803642278e+02
5.920000000000000284e+01 3.015708355160420524e+02
5.960000000000000142e+01 3.006160385013049563e+02
6.000000000000000000e+01 2.996710148449629401e+02
6.040000000000000568e+01 2.987355939948138257e+02
6.080000000000000426e+01 2.978096095989777723e+02
6.120000000000000284e+01 2.968928993726419208e+02
6.160000000000000142e+01 2.959853049699665917e+02
6.200000000000000000e+01 2.950866718609166242e+02
6.240000000000000568e+01 2.941968492127958825e+02
6.280000000000000426e+01 2.933156897762717108e+02
6.320000000000000284e+01 2.924430497756906675e+02
6.360000000000000142e+01 2.915787888034926709e+02
6.400000000000000000e+01 2.907227697185458055e+02
6.440000000000000568e+01 2.898748585482273938e+02
6.480000000000001137e+01 2.890349243940916040e+02
6.520000000000000284e+01 2.882028393409648288e+02
6.559999999999999432e+01 2.873784783693263307e+02
6.600000000000000000e+01 2.865617192708308494e+02
6.640000000000000568e+01 2.857524425668419212e+02
6.680000000000001137e+01 2.849505314298490930e+02
6.720000000000000284e+01 2.841558716076481801e+02
6.759999999999999432e+01 2.833683513501705420e+02
6.800000000000000000e+01 2.825878613388526333e+02
6.840000000000000568e+01 2.818142946184402717e+02
6.880000000000001137e+01 2.810475465311304220e+02
6.920000000000000284e+01 2.802875146529549966e+02
6.959999999999999432e+01 2.795340987323168065e+02
7.000000000000000000e+01 2.787872006305917125e+02
7.040000000000000568e+01 2.780467242647158628e+02
7.080000000000001137e+01 2.773125755516781510e+02
7.120000000000000284e+01 2.765846623548451362e+02
7.159999999999999432e+01 2.758628944320456640e+02
7.200000000000000000e+01 2.751471833853477733e+02
7.240000000000000568e+01 2.744374426124629736e+02
7.280000000000001137e+01 2.737335872597149091e+02
7.320000000000000284e+01 2.730355341765143180e+02
7.359999999999999432e+01 2.723432018712814511e+02
7.400000000000000000e+01 2.716565104687638268e+02
7.440000000000000568e+01 2.709753816686953201e+02
7.479999999999999716e+01 2.702997387057484957e+02
7.520000000000000284e+01 2.696295063107305623e+02
7.560000000000000853e+01 2.689646106729796884e+02
7.600000000000000000e+01 2.683049794039152403e+02
7.640000000000000568e+01 2.676505415017028326e+02
7.679999999999999716e+01 2.670012273169918444e+02
7.720000000000000284e+01 2.663569685196879959e+02
7.760000000000000853e+01 2.657176980667240969e+02
7.800000000000000000e+01 2.650833501707928122e+02
7.840000000000000568e+01 2.644538602700090451e+02
7.879999999999999716e+01 2.638291649984673768e+02
7.920000000000000284e+01 2.632092021576647767e+02
7.960000000000000853e+01 2.625939106887587968e+02
8.000000000000000000e+01 2.619832306456310107e+02
8.040000000000000568e+01 2.613771031687289224e+02
8.079999999999999716e+01 2.607754704596604824e+02
8.120000000000000284e+01 2.601782757565143243e+02
8.160000000000000853e+01 2.595854633098821864e+02
8.200000000000000000e+01 2.589969783595593071e+02
8.240000000000000568e+01 2.584127671119009051e+02
8.279999999999999716e+01 2.578327767178124077e+02
8.320000000000000284e+01 2.572569552513518829e+02
8.360000000000000853e+01 2.566852516889267122e+02
8.400000000000000000e+01 2.561176158890623924e+02
8.440000000000000568e+01 2.555539985727260444e+02
8.479999999999999716e+01 2.549943513041878873e+02
8.520000000000000284e+01 2.544386264724008129e+02
8.560000000000000853e+01 2.538867772728836485e+02
8.600000000000000000e+01 2.533387576900909721e+02
8.640000000000000568e+01 2.527945224802539883e+02
8.680000000000001137e+01 2.522540271546783686e+02
8.720000000000000284e+01 2.517172279634841061e+02
8.760000000000000853e+01 2.511840818797732311e+02
8.800000000000000000e+01 2.506545465842131648e+02
8.840000000000000568e+01 2.501285804500216727e+02
8.880000000000001137e+01 2.496061425283421897e+02
8.920000000000000284e+01 2.490871925339961024e+02
8.960000000000000853e+01 2.485716908316020977e+02
9.000000000000000000e+01 2.480595984220504135e+02
9.040000000000000568e+01 2.475508769293211344e+02
9.080000000000001137e+01 2.470454885876372089e+02
9.120000000000000284e+01 2.465433962289413614e+02
9.160000000000000853e+01 2.460445632706866945e+02
9.200000000000000000e+01 2.455489537039335914e+02
9.240000000000000568e+01 2.450565320817418069e+02
9.280000000000001137e+01 2.445672635078502424e+02
9.320000000000000284e+01 2.440811136256356235e+02
9.360000000000000853e+01 2.435980486073424345e+02
9.400000000000000000e+01 2.431180351435752414e+02
9.440000000000000568e+01 2.426410404330467827e+02
9.480000000000001137e+01 2.421670321725740678e+02
9.520000000000000284e+01 2.416959785473159172e+02
9.560000000000000853e+01 2.412278482212437893e+02
9.600000000000000000e+01 2.407626103278407754e+02
9.640000000000000568e+01 2.403002344610214607e+02
9.680000000000001137e+01 2.398406906662668518e+02
9.720000000000000284e+01 2.393839494319677215e+02
9.760000000000000853e+01 2.389299816809717072e+02
9.800000000000000000e+01 2.384787587623271463e+02
9.840000000000000568e+01 2.380302524432193536e+02
9.880000000000001137e+01 2.375844349010934025e+02
9.920000000000000284e+01 2.371412787159587765e+02
9.960000000000000853e+01 2.367007568628702074e+02
1.000000000000000000e+02 2.362628427045807769e+02
1.004000000000000057e+02 2.358275099843622229e+02
1.008000000000000114e+02 2.353947328189876771e+02
1.012000000000000028e+02 2.349644856918731080e+02
1.016000000000000085e+02 2.345367434463726681e+02
1.020000000000000000e+02 2.341114812792243924e+02
1.024000000000000057e+02 2.336886747341413582e+02
1.028000000000000114e+02 2.332682996955461476e+02
1.032000000000000028e+02 2.328503323824425308e+02
1.036000000000000085e+02 2.324347493424231175e+02
1.040000000000000000e+02 2.320215274458076919e+02
1.044000000000000057e+02 2.316106438799100147e+02
1.048000000000000114e+02 2.312020761434290819e+02
1.052000000000000028e+02 2.307958020409615187e+02
1.056000000000000085e+02 2.303917996776330028e+02
1.060000000000000000e+02 2.299900474538445394e+02
1.064000000000000057e+02 2.295905240601314290e+02
1.068000000000000114e+02 2.291932084721314027e+02
1.072000000000000028e+02 2.287980799456605041e+02
1.076000000000000085e+02 2.284051180118915454e+02
1.080000000000000000e+02 2.280143024726357908e+02
1.084000000000000057e+02 2.276256133957224961e+02
1.088000000000000114e+02 2.272390311104753380e+02
1.092000000000000028e+02 2.268545362032833168e+02
1.096000000000000085e+02 2.264721095132628932e+02
1.100000000000000000e+02 2.260917321280102783e+02
1.104000000000000057e+02 2.257133853794408083e+02
1.108000000000000114e+02 2.253370508397138110e+02
1.112000000000000028e+02 2.249627103172405498e+02
1.116000000000000085e+02 2.245903458527731118e+02
1.120000000000000000e+02 2.242199397155734459e+02
1.124000000000000057e+02 2.238514743996587129e+02
1.128000000000000114e+02 2.234849326201226916e+02
1.132000000000000028e+02 2.231202973095309119e+02
1.136000000000000085e+02 2.227575516143875802e+02
1.140000000000000000e+02 2.223966788916728774e+02
1.144000000000000057e+02 2.220376627054488097e+02
1.148000000000000114e+02 2.216804868235321635e+02
1.152000000000000028e+02 2.213251352142329438e+02
1.156000000000000085e+02 2.209715920431563632e+02
1.160000000000000000e+02 2.206198416700681264e+02
1.164000000000000057e+02 2.202698686458192583e+02
1.168000000000000114e+02 2.199216577093324929e+02
1.172000000000000028e+02 2.195751937846450801e+02
1.176000000000000085e+02 2.192304619780095436e+02
1.180000000000000000e+02 2.188874475750497481e+02
1.184000000000000057e+02 2.185461360379712801e+02
1.188000000000000114e+02 2.182065130028249769e+02
1.192000000000000028e+02 2.178685642768226671e+02
1.196000000000000085e+02 2.175322758357029613e+02
1.200000000000000000e+02 2.171976338211474058e+02
1.204000000000000057e+02 2.168646245382448683e+02
1.208000000000000114e+02 2.165332344530032742e+02
1.212000000000000028e+02 2.162034501899079260e+02
1.216000000000000085e+02 2.158752585295248991e+02
1.220000000000000000e+02 2.155486464061492029e+02
1.224000000000000057e+02 2.152236009054961983e+02
1.228000000000000114e+02 2.149001092624350804e+02
1.232000000000000028e+02 2.145781588587647377e+02
1.236000000000000085e+02 2.142577372210292879e+02
1.240000000000000000e+02 2.139388320183740007e+02
1.244000000000000057e+02 2.136214310604401589e+02
1.248000000000000114e+02 2.133055222952971803e+02
1.252000000000000028e+02 2.129910938074135061e+02
1.256000000000000085e+02 2.126781338156619370e+02
1.260000000000000000e+02 2.123666306713625431e+02
1.264000000000000057e+02 2.120565728563594803e+02
1.268000000000000114e+02 2.117479489811320263e+02
1.272000000000000028e+02 2.114407477829394395e+02
1.276000000000000085e+02 2.111349581239985014e+02
1.280000000000000000e+02 2.108305689896927788e+02
1.284000000000000057e+02 2.105275694868139738e+02
1.288000000000000114e+02 2.102259488418333433e+02
1.291999999999999886e+02 2.099256963992038436e+02
1.296000000000000227e+02 2.096268016196912072e+02
1.300000000000000000e+02 2.093292540787346070e+02
1.304000000000000057e+02 2.090330434648347477e+02
1.308000000000000114e+02 2.087381595779706913e+02
1.311999999999999886e+02 2.084445923280431430e+02
1.316000000000000227e+02 2.081523317333443401e+02
1.320000000000000000e+02 2.078613679190546577e+02
1.324000000000000057e+02 2.075716911157641675e+02
1.328000000000000114e+02 2.072832916580193228e+02
1.331999999999999886e+02 2.069961599828943690e+02
1.336000000000000227e+02 2.067102866285868004e+02
1.340000000000000000e+02 2.064256622330360642e+02
1.344000000000000057e+02 2.061422775325659700e+02
1.348000000000000114e+02 2.058601233605490108e+02
1.351999999999999886e+02 2.055791906460934229e+02
1.356000000000000227e+02 2.052994704127517593e+02
1.360000000000000000e+02 2.050209537772511226e+02
1.364000000000000057e+02 2.047436319482437170e+02
1.368000000000000114e+02 2.044674962250783210e+02
1.371999999999999886e+02 2.041925379965920229e+02
1.376000000000000227e+02 2.039187487399213978e+02
1.380000000000000000e+02 2.036461200193330114e+02
1.384000000000000057e+02 2.033746434850728804e+02
1.388000000000000114e+02 2.031043108722349189e+02
1.392000000000000171e+02 2.028351139996471488e+02
1.395999999999999943e+02 2.025670447687762135e+02
1.400000000000000000e+02 2.023000951626488018e+02
1.404000000000000057e+02 2.020342572447914904e+02
1.408000000000000114e+02 2.017695231581860185e+02
1.412000000000000171e+02 2.015058851242424112e+02
1.415999999999999943e+02 2.012433354417875933e+02
1.420000000000000000e+02 2.009818664860703166e+02
1.424000000000000057e+02 2.007214707077815206e+02
1.428000000000000114e+02 2.004621406320905521e+02
1.432000000000000171e+02 2.002038688576958236e+02
1.435999999999999943e+02 1.999466480558907335e+02
1.440000000000000000e+02 1.996904709696440250e+02
1.444000000000000057e+02 1.994353304126941850e+02
1.448000000000000114e+02 1.991812192686584808e+02
1.452000000000000171e+02 1.989281304901549845e+02
1.455999999999999943e+02 1.986760570979384681e+02
1.460000000000000000e+02 1.984249921800496850e+02
1.464000000000000057e+02 1.981749288909773554e+02
1.468000000000000114e+02 1.979258604508332553e+02
1.472000000000000171e+02 1.976777801445395539e+02
1.475999999999999943e+02 1.974306813210287146e+02
1.480000000000000000e+02 1.971845573924552184e+02
1.484000000000000057e+02 1.969394018334196517e+02
1.488000000000000114e+02 1.966952081802038776e+02
1.492000000000000171e+02 1.964519700300182308e+02
1.495999999999999943e+02 1.962096810402594258e+02
1.500000000000000000e+02 1.959683349277800630e+02
