1.000000000000000000e+01 2.002600430962393716e+02
1.040000000000000036e+01 1.944913517849547020e+02
1.080000000000000071e+01 1.897494814147392788e+02
1.119999999999999929e+01 1.859459862657444091e+02
1.159999999999999964e+01 1.833694341202801752e+02
1.200000000000000000e+01 1.784159898629487486e+02
1.240000000000000036e+01 1.738763470305819396e+02
1.280000000000000071e+01 1.696913146576783902e+02
1.319999999999999929e+01 1.658137903207152419e+02
1.359999999999999964e+01 1.622055467215971589e+02
1.400000000000000000e+01 1.588350643479787720e+02
1.440000000000000036e+01 1.556760117114909008e+02
1.480000000000000071e+01 1.527061462214596190e+02
1.519999999999999929e+01 1.499064990254236989e+02
1.560000000000000142e+01 1.480072961833788838e+02
1.600000000000000000e+01 1.463431431808357388e+02
1.639999999999999858e+01 1.447669688441557696e+02
1.680000000000000071e+01 1.434381292359478550e+02
1.719999999999999929e+01 1.421739760268596058e+02
1.760000000000000142e+01 1.409691004776251759e+02
1.800000000000000000e+01 1.398187208936531647e+02
1.839999999999999858e+01 1.387185905240569355e+02
1.880000000000000071e+01 1.344170919688483252e+02
1.920000000000000284e+01 1.243069552768047004e+02
1.960000000000000142e+01 1.228393950803403101e+02
2.000000000000000000e+01 1.214332031612658369e+02
2.039999999999999858e+01 1.200841074247173736e+02
2.080000000000000071e+01 1.187882449640744369e+02
2.120000000000000284e+01 1.175421125428688356e+02
2.160000000000000142e+01 1.163425242818317429e+02
2.200000000000000000e+01 1.151865753313547742e+02
2.239999999999999858e+01 1.140716105442469370e+02
2.280000000000000071e+01 1.129951973479188183e+02
2.320000000000000284e+01 1.119224459118852906e+02
2.360000000000000142e+01 1.107509458897322929e+02
2.400000000000000000e+01 1.096154532947400639e+02
2.439999999999999858e+01 1.085141163003678315e+02
2.480000000000000071e+01 1.074452161732590127e+02
2.520000000000000284e+01 1.064071550375876711e+02
2.560000000000000142e+01 1.054004487584473821e+02
2.600000000000000000e+01 1.044249828102965836e+02
2.640000000000000213e+01 1.034755556377553773e+02
2.680000000000000071e+01 1.025510093261667208e+02
2.719999999999999929e+01 1.016502577097706563e+02
2.760000000000000142e+01 1.007722806972502099e+02
2.800000000000000000e+01 9.991611914081313728e+01
2.840000000000000213e+01 9.908087018790507727e+01
2.880000000000000071e+01 9.826568306243891016e+01
2.920000000000000284e+01 9.746975522909744427e+01
2.960000000000000142e+01 9.669232890000171210e+01
3.000000000000000000e+01 9.593268784797494675e+01
3.040000000000000213e+01 9.177534000001662662e+01
3.080000000000000071e+01 8.775002681854289222e+01
3.120000000000000284e+01 8.698061988426212565e+01
3.160000000000000142e+01 8.622791051569265619e+01
3.200000000000000000e+01 8.875157045196776551e+01
3.240000000000000568e+01 8.812604522853062861e+01
3.279999999999999716e+01 8.751298193581538953e+01
3.320000000000000284e+01 8.691196261961952985e+01
3.360000000000000142e+01 8.632258908403721875e+01
3.400000000000000000e+01 8.574448168843343865e+01
3.440000000000000568e+01 8.517727823374887919e+01
3.479999999999999716e+01 8.462063293033318701e+01
3.520000000000000284e+01 8.374325123002739701e+01
3.560000000000000142e+01 8.322542758163410781e+01
3.600000000000000000e+01 8.271674944353968328e+01
3.640000000000000568e+01 8.221694569320588641e+01
3.679999999999999716e+01 8.172575651256244100e+01
3.720000000000000284e+01 8.124293278154631537e+01
3.760000000000000142e+01 8.076823551130573264e+01
3.800000000000000000e+01 8.030143531401644452e+01
3.840000000000000568e+01 7.984231190653004262e+01
3.879999999999999716e+01 7.939065364531369084e+01
3.920000000000000284e+01 7.894625709036100147e+01
3.960000000000000142e+01 7.850892659595082534e+01
4.000000000000000000e+01 7.807847392630820593e+01
4.040000000000000568e+01 7.765471789438488770e+01
4.079999999999999716e+01 7.723964533834174517e+01
4.120000000000000284e+01 7.684370987645425544e+01
4.160000000000000142e+01 7.645400159842358789e+01
4.200000000000000000e+01 7.607035455389886636e+01
4.239999999999999858e+01 7.569260897364297591e+01
4.280000000000000426e+01 7.532061097586637288e+01
4.320000000000000284e+01 7.495421228944681502e+01
4.360000000000000142e+01 7.459326999289923776e+01
4.400000000000000000e+01 7.423764626804724287e+01
4.439999999999999858e+01 7.388289929030290182e+01
4.480000000000000426e+01 7.353265731242892400e+01
4.520000000000000284e+01 7.318138680029755960e+01
4.560000000000000142e+01 7.283241153196014750e+01
4.600000000000000000e+01 7.248840424361991097e+01
4.639999999999999858e+01 7.214924506052952324e+01
4.680000000000000426e+01 7.181481816268018292e+01
4.720000000000000284e+01 7.148501160937414056e+01
4.760000000000000142e+01 7.115971717300439536e+01
4.800000000000000000e+01 7.083883018147588473e+01
4.840000000000000568e+01 7.011371522040215609e+01
4.880000000000000426e+01 6.979274476774460823e+01
4.920000000000000284e+01 6.947612856218160005e+01
4.960000000000000142e+01 6.916130323791838919e+01
5.000000000000000000e+01 6.884840052833155255e+01
5.040000000000000568e+01 6.853962406683953645e+01
5.080000000000000426e+01 6.823488243119709296e+01
5.120000000000000284e+01 6.793408702286831158e+01
5.160000000000000142e+01 6.763715195583100126e+01
5.200000000000000000e+01 6.734399395068415117e+01
5.240000000000000568e+01 6.705453223376186145e+01
5.280000000000000426e+01 6.676868844097643318e+01
5.320000000000000284e+01 6.648638652613153965e+01
5.360000000000000142e+01 6.620755267346115147e+01
5.400000000000000000e+01 6.593211521416711207e+01
5.440000000000000568e+01 6.566000454674023956e+01
5.480000000000000426e+01 6.539115306086468138e+01
5.520000000000000284e+01 6.512549506471641791e+01
5.560000000000000142e+01 6.486247897449347022e+01
5.600000000000000000e+01 6.459531580578607191e+01
5.640000000000000568e+01 6.433111239806686399e+01
5.680000000000000426e+01 6.406981427571841436e+01
5.720000000000000284e+01 6.381136836947907653e+01
5.760000000000000142e+01 6.355572296965310386e+01
5.800000000000000000e+01 6.330282768122555126e+01
5.840000000000000568e+01 6.323762335690052794e+01
5.880000000000000426e+01 6.299535556537622938e+01
5.920000000000000284e+01 6.275560684512446841e+01
5.960000000000000142e+01 6.251833372593512905e+01
6.000000000000000000e+01 6.228349378791236290e+01
6.040000000000000568e+01 6.205104562881278696e+01
6.080000000000000426e+01 6.182094883262537621e+01
6.120000000000000284e+01 6.159316393933724498e+01
6.160000000000000142e+01 6.136765241583284336e+01
6.200000000000000000e+01 6.114437662787582894e+01
6.240000000000000568e+01 6.092329981312663278e+01
6.280000000000000426e+01 6.070438605515008135e+01
6.320000000000000284e+01 6.055418439875899850e+01
6.360000000000000142e+01 6.034530204783629870e+01
6.400000000000000000e+01 6.013840720596226674e+01
6.440000000000000568e+01 5.993346846397859196e+01
6.480000000000001137e+01 5.973045510699444094e+01
6.520000000000000284e+01 5.952933709464966938e+01
6.559999999999999432e+01 5.933008504206382838e+01
6.600000000000000000e+01 5.913267020144283492e+01
6.640000000000000568e+01 5.893706444431659008e+01
6.680000000000001137e+01 5.889095925903828999e+01
6.720000000000000284e+01 5.871095940269165681e+01
6.759999999999999432e+01 5.853254637267795601e+01
6.800000000000000000e+01 5.835569667805368965e+01
6.840000000000000568e+01 5.818038731780528394e+01
6.880000000000001137e+01 5.800659576764633840e+01
6.920000000000000284e+01 5.783429996725092792e+01
6.959999999999999432e+01 5.766347830790599005e+01
7.000000000000000000e+01 5.749410962056668239e+01
7.040000000000000568e+01 5.732617316429899290e+01
7.080000000000001137e+01 5.715964861509469586e+01
7.120000000000000284e+01 5.699451605504475538e+01
7.159999999999999432e+01 5.683058687761501204e+01
7.200000000000000000e+01 5.666751453766728019e+01
7.240000000000000568e+01 5.650578284297076692e+01
7.280000000000001137e+01 5.634537331659242199e+01
7.320000000000000284e+01 5.618626783995453877e+01
7.359999999999999432e+01 5.602844864385993873e+01
7.400000000000000000e+01 5.587189829979239875e+01
7.440000000000000568e+01 5.571659971148297075e+01
7.479999999999999716e+01 5.556253610673165610e+01
7.520000000000000284e+01 5.540969102947630631e+01
7.560000000000000853e+01 5.525804833209895861e+01
7.600000000000000000e+01 5.510759216796210325e+01
7.640000000000000568e+01 5.495830698416587268e+01
7.679999999999999716e+01 5.481017751451913966e+01
7.720000000000000284e+01 5.466318877271653776e+01
7.760000000000000853e+01 5.451589831465216918e+01
7.800000000000000000e+01 5.436936344892643547e+01
7.840000000000000568e+01 5.422398431361840210e+01
7.879999999999999716e+01 5.407974544295008457e+01
7.920000000000000284e+01 5.412913520776767484e+01
7.960000000000000853e+01 5.399000592176884794e+01
8.000000000000000000e+01 5.385194887921748119e+01
8.040000000000000568e+01 5.371495000887266258e+01
8.079999999999999716e+01 5.357899549954488094e+01
8.120000000000000284e+01 5.344407179392797502e+01
8.160000000000000853e+01 5.331016558260913030e+01
8.200000000000000000e+01 5.317726379825055005e+01
8.240000000000000568e+01 5.304417624507574658e+01
8.279999999999999716e+01 5.291153549549066071e+01
8.320000000000000284e+01 5.277987951604335137e+01
8.360000000000000853e+01 5.264919586963287657e+01
8.400000000000000000e+01 5.251947234043825574e+01
8.440000000000000568e+01 5.239069692886339880e+01
8.479999999999999716e+01 5.226285784662246670e+01
8.520000000000000284e+01 5.213594351196115895e+01
8.560000000000000853e+01 5.200994254500955805e+01
8.600000000000000000e+01 5.188484376326207581e+01
8.640000000000000568e+01 5.176063617718073573e+01
8.680000000000001137e+01 5.163730898591758489e+01
8.720000000000000284e+01 5.151485157315246255e+01
8.760000000000000853e+01 5.140293416263702397e+01
8.800000000000000000e+01 5.128472291061623167e+01
8.840000000000000568e+01 5.116732707864307628e+01
8.880000000000001137e+01 5.105073712522329998e+01
8.920000000000000284e+01 5.093494366573976606e+01
8.960000000000000853e+01 5.081993746914535137e+01
9.000000000000000000e+01 5.070570945474081981e+01
9.040000000000000568e+01 5.059225068903478473e+01
9.080000000000001137e+01 5.047955238268340850e+01
9.120000000000000284e+01 5.036760588750764356e+01
9.160000000000000853e+01 5.025640269358528656e+01
9.200000000000000000e+01 5.014593442641621124e+01
9.240000000000000568e+01 5.003619284415797352e+01
9.280000000000001137e+01 4.992716983493032501e+01
9.320000000000000284e+01 4.981885741418619062e+01
9.360000000000000853e+01 4.971124772214744070e+01
9.400000000000000000e+01 4.960433302130343947e+01
9.440000000000000568e+01 4.949810569397055104e+01
9.480000000000001137e+01 4.939255823991111072e+01
9.520000000000000284e+01 4.928768327400971572e+01
9.560000000000000853e+01 4.918347352400563466e+01
9.600000000000000000e+01 4.907992182827950245e+01
9.640000000000000568e+01 4.897702113369279431e+01
9.680000000000001137e+01 4.887476449347877860e+01
9.720000000000000284e+01 4.877314506518322901e+01
9.760000000000000853e+01 4.867215610865368802e+01
9.800000000000000000e+01 4.857098253038209634e+01
9.840000000000000568e+01 4.847030562132178488e+01
9.880000000000001137e+01 4.837023219551399222e+01
9.920000000000000284e+01 4.827075618413000058e+01
9.960000000000000853e+01 4.817187160405012492e+01
1.000000000000000000e+02 4.807357255630281401e+01
1.004000000000000057e+02 4.797585322453863910e+01
1.008000000000000114e+02 4.787870787353814706e+01
1.012000000000000028e+02 4.778213084775270403e+01
1.016000000000000085e+02 4.768611656987756220e+01
1.020000000000000000e+02 4.759065953945618332e+01
1.024000000000000057e+02 4.749575433151508008e+01
1.028000000000000114e+02 4.740139559522837231e+01
1.032000000000000028e+02 4.730757805261131921e+01
1.036000000000000085e+02 4.721424304811707628e+01
1.040000000000000000e+02 4.712097602993722489e+01
1.044000000000000057e+02 4.702823922885789187e+01
1.048000000000000114e+02 4.693602759107373856e+01
1.052000000000000028e+02 4.684433613038554967e+01
1.056000000000000085e+02 4.675315992703471579e+01
1.060000000000000000e+02 4.666249412656233631e+01
1.064000000000000057e+02 4.662082112117377619e+01
1.068000000000000114e+02 4.653277218568609186e+01
1.072000000000000028e+02 4.644520626458051993e+01
1.076000000000000085e+02 4.635811891050693134e+01
1.080000000000000000e+02 4.627150573357457120e+01
1.084000000000000057e+02 4.618536240039546925e+01
1.088000000000000114e+02 4.609932937551901944e+01
1.092000000000000028e+02 4.601360852212705055e+01
1.096000000000000085e+02 4.592834738045518606e+01
1.100000000000000000e+02 4.584354181645033322e+01
1.104000000000000057e+02 4.575918774820605250e+01
1.108000000000000114e+02 4.567528114511532777e+01
1.112000000000000028e+02 4.560512715646584780e+01
1.116000000000000085e+02 4.552395819088840057e+01
1.120000000000000000e+02 4.544321390516677894e+01
1.124000000000000057e+02 4.536289055018024641e+01
1.128000000000000114e+02 4.528298442344949848e+01
1.132000000000000028e+02 4.520349186838716093e+01
1.136000000000000085e+02 4.512440927356262677e+01
1.140000000000000000e+02 4.504573307198180743e+01
1.144000000000000057e+02 4.496745974038060467e+01
1.148000000000000114e+02 4.488958579853238007e+01
1.152000000000000028e+02 4.481210780856872589e+01
1.156000000000000085e+02 4.473502237431356576e+01
1.160000000000000000e+02 4.465832614062989592e+01
1.164000000000000057e+02 4.458201579277917403e+01
1.168000000000000114e+02 4.450608805579304317e+01
1.172000000000000028e+02 4.443053969385690749e+01
1.176000000000000085e+02 4.435536750970527464e+01
1.180000000000000000e+02 4.428056834402860886e+01
1.184000000000000057e+02 4.420613907489127570e+01
1.188000000000000114e+02 4.413207661716052144e+01
1.192000000000000028e+02 4.405837792194613201e+01
1.196000000000000085e+02 4.398503997605045157e+01
1.200000000000000000e+02 4.391205980142886744e+01
1.204000000000000057e+02 4.383943445465997257e+01
1.208000000000000114e+02 4.376716102642589590e+01
1.212000000000000028e+02 4.369523664100185556e+01
1.216000000000000085e+02 4.362365845575529022e+01
1.220000000000000000e+02 4.355242366065409954e+01
1.224000000000000057e+02 4.348152947778379485e+01
1.228000000000000114e+02 4.342474796488038180e+01
1.232000000000000028e+02 4.335505008544767946e+01
1.236000000000000085e+02 4.328568096124266873e+01
1.240000000000000000e+02 4.321663797600363921e+01
1.244000000000000057e+02 4.314774096520552149e+01
1.248000000000000114e+02 4.307885285358322847e+01
1.252000000000000028e+02 4.301029020873029651e+01
1.256000000000000085e+02 4.294205041850962346e+01
1.260000000000000000e+02 4.287413090040305264e+01
1.264000000000000057e+02 4.280652910107852449e+01
1.268000000000000114e+02 4.273924249596500147e+01
1.272000000000000028e+02 4.267226858883493179e+01
1.276000000000000085e+02 4.260560491139403183e+01
1.280000000000000000e+02 4.253924902287852206e+01
1.284000000000000057e+02 4.247319850965922683e+01
1.288000000000000114e+02 4.240745098485280096e+01
1.291999999999999886e+02 4.234200408793962822e+01
1.296000000000000227e+02 4.227685548438844876e+01
1.300000000000000000e+02 4.221200286528753765e+01
1.304000000000000057e+02 4.214738422310240651e+01
1.308000000000000114e+02 4.208270924895240483e+01
1.311999999999999886e+02 4.201832619448364170e+01
1.316000000000000227e+02 4.195423282342979121e+01
1.320000000000000000e+02 4.189042692373190135e+01
1.324000000000000057e+02 4.182690630720037461e+01
1.328000000000000114e+02 4.176366880918300240e+01
1.331999999999999886e+02 4.170071228823857012e+01
1.336000000000000227e+02 4.163803462581578430e+01
1.340000000000000000e+02 4.157563372593797624e+01
1.344000000000000057e+02 4.151350751489275837e+01
1.348000000000000114e+02 4.145165394092718714e+01
1.351999999999999886e+02 4.139007097394776480e+01
1.356000000000000227e+02 4.132875660522566363e+01
1.360000000000000000e+02 4.126770884710676768e+01
1.364000000000000057e+02 4.120692573272639692e+01
1.368000000000000114e+02 4.114642364165326427e+01
1.371999999999999886e+02 4.108688365173118484e+01
1.376000000000000227e+02 4.102759829502135602e+01
1.380000000000000000e+02 4.096856572839285349e+01
1.384000000000000057e+02 4.090978412752434679e+01
1.388000000000000114e+02 4.085125168665690865e+01
1.392000000000000171e+02 4.079296661835088855e+01
1.395999999999999943e+02 4.073492715324655933e+01
1.400000000000000000e+02 4.067713153982866459e+01
1.404000000000000057e+02 4.061957804419472495e+01
1.408000000000000114e+02 4.056226494982696806e+01
1.412000000000000171e+02 4.050519055736786100e+01
1.415999999999999943e+02 4.044827175522851803e+01
1.420000000000000000e+02 4.039154272300130089e+01
1.424000000000000057e+02 4.033504813682726819e+01
1.428000000000000114e+02 4.027878635750420955e+01
1.432000000000000171e+02 4.022275576199144353e+01
1.435999999999999943e+02 4.016695474320456327e+01
1.440000000000000000e+02 4.011138170981345041e+01
1.444000000000000057e+02 4.005603508604337293e+01
1.448000000000000114e+02 4.000091331147914531e+01
1.452000000000000171e+02 3.994601484087226595e+01
1.455999999999999943e+02 3.989133814395106725e+01
1.460000000000000000e+02 3.983688170523380023e+01
1.464000000000000057e+02 3.978951024231579225e+01
1.468000000000000114e+02 3.973624590839526149e+01
1.472000000000000171e+02 3.968319352638636133e+01
1.475999999999999943e+02 3.963035166706421109e+01
1.480000000000000000e+02 3.957771891480646076e+01
1.484000000000000057e+02 3.952529386742647688e+01
1.488000000000000114e+02 3.947307513600900108e+01
1.492000000000000171e+02 3.942106134474826717e+01
1.495999999999999943e+02 3.936891018656012164e+01
1.500000000000000000e+02 3.931690418900770112e+01
