1.000000000000000000e+01 4.579364936618611068e+02
1.040000000000000036e+01 5.476098030249843305e+02
1.080000000000000071e+01 6.000214379294556011e+02
1.119999999999999929e+01 6.298238988202720066e+02
1.159999999999999964e+01 6.415355934510824909e+02
1.200000000000000000e+01 6.811772619207913522e+02
1.240000000000000036e+01 7.100727006258815663e+02
1.280000000000000071e+01 7.303642821182547777e+02
1.319999999999999929e+01 7.271798138887156711e+02
1.359999999999999964e+01 7.266113603009446251e+02
1.400000000000000000e+01 7.324748609739772292e+02
1.440000000000000036e+01 7.363856589860586155e+02
1.480000000000000071e+01 7.230577635561279521e+02
1.519999999999999929e+01 7.105516015068260458e+02
1.560000000000000142e+01 6.987808998674632903e+02
1.600000000000000000e+01 6.876720680990318897e+02
1.639999999999999858e+01 6.771618213034485052e+02
1.680000000000000071e+01 6.671953404319457377e+02
1.719999999999999929e+01 6.577248286094119294e+02
1.760000000000000142e+01 6.487083644650515453e+02
1.800000000000000000e+01 6.401089814167121403e+02
1.839999999999999858e+01 6.318939211059393983e+02
1.880000000000000071e+01 6.240340226411849471e+02
1.920000000000000284e+01 6.165032188806188742e+02
1.960000000000000142e+01 6.092781179014573354e+02
2.000000000000000000e+01 6.023376528681139916e+02
2.039999999999999858e+01 5.956627872693684367e+02
2.080000000000000071e+01 5.892362653153169276e+02
2.120000000000000284e+01 5.830423994247687460e+02
2.160000000000000142e+01 5.770668883733885650e+02
2.200000000000000000e+01 5.712966609407708347e+02
2.239999999999999858e+01 5.657197408834482530e+02
2.280000000000000071e+01 5.603251298381333072e+02
2.320000000000000284e+01 5.551027053750651703e+02
2.360000000000000142e+01 5.500431319122246805e+02
2.400000000000000000e+01 5.451377825951883551e+02
2.439999999999999858e+01 5.403786705655953710e+02
2.480000000000000071e+01 5.357583882996491411e+02
2.520000000000000284e+01 5.312700539091615610e+02
2.560000000000000142e+01 5.269072634709123122e+02
2.600000000000000000e+01 5.226640485930392970e+02
2.640000000000000213e+01 5.185348385456312599e+02
2.680000000000000071e+01 5.145144263812995860e+02
2.719999999999999929e+01 5.105979385539304758e+02
2.760000000000000142e+01 5.067808076129902020e+02
2.800000000000000000e+01 5.030587476090340715e+02
2.840000000000000213e+01 4.994277318953376152e+02
2.880000000000000071e+01 4.958839730523770868e+02
2.920000000000000284e+01 4.924239046974745406e+02
2.960000000000000142e+01 4.890441649723127853e+02
3.000000000000000000e+01 4.857415815270686039e+02
3.040000000000000213e+01 4.825131578422729035e+02
3.080000000000000071e+01 4.793560607487880247e+02
3.120000000000000284e+01 4.762676090229375632e+02
3.160000000000000142e+01 4.732452629482493194e+02
3.200000000000000000e+01 4.702866147477984669e+02
3.240000000000000568e+01 4.673893798020382064e+02
3.279999999999999716e+01 4.645513885765204236e+02
3.320000000000000284e+01 4.617705791922288086e+02
3.360000000000000142e+01 4.590449905785399665e+02
3.400000000000000000e+01 4.563727561552293537e+02
3.440000000000000568e+01 4.537520979955798452e+02
3.479999999999999716e+01 4.511813214276191957e+02
3.520000000000000284e+01 4.486588100349048887e+02
3.560000000000000142e+01 4.461830210221643824e+02
3.600000000000000000e+01 4.437524809145435256e+02
3.640000000000000568e+01 4.413657815622811995e+02
3.679999999999999716e+01 4.390215764253543398e+02
3.720000000000000284e+01 4.367185771150612368e+02
3.760000000000000142e+01 4.344555501716886852e+02
3.800000000000000000e+01 4.322313140593388425e+02
3.840000000000000568e+01 4.300447363607344187e+02
3.879999999999999716e+01 4.278947311563741778e+02
3.920000000000000284e+01 4.257802565738120393e+02
3.960000000000000142e+01 4.237003124940899284e+02
4.000000000000000000e+01 4.216539384034866771e+02
4.040000000000000568e+01 4.196402113797677771e+02
4.079999999999999716e+01 4.176582442030429547e+02
4.120000000000000284e+01 4.157071835821723766e+02
4.160000000000000142e+01 4.137862084884163778e+02
4.200000000000000000e+01 4.118945285887099317e+02
4.239999999999999858e+01 4.100313827715598904e+02
4.280000000000000426e+01 4.081960377591317410e+02
4.320000000000000284e+01 4.063877867996001783e+02
4.360000000000000142e+01 4.046059484343088570e+02
4.400000000000000000e+01 4.028498653347072604e+02
4.439999999999999858e+01 4.011189032044214855e+02
4.480000000000000426e+01 3.994124497421705087e+02
4.520000000000000284e+01 3.977299136615632733e+02
4.560000000000000142e+01 3.960707237641066740e+02
4.600000000000000000e+01 3.944343280620283849e+02
4.639999999999999858e+01 3.928201929477668273e+02
4.680000000000000426e+01 3.912278024072055587e+02
4.720000000000000284e+01 3.896566572739448588e+02
4.760000000000000142e+01 3.881062745220901320e+02
4.800000000000000000e+01 3.865761865952177914e+02
4.840000000000000568e+01 3.850659407693416370e+02
4.880000000000000426e+01 3.835750985478519510e+02
4.920000000000000284e+01 3.821032350865390299e+02
4.960000000000000142e+01 3.806499386469418482e+02
5.000000000000000000e+01 3.792148100763791945e+02
5.040000000000000568e+01 3.777974623131298131e+02
5.080000000000000426e+01 3.763975199153319977e+02
5.120000000000000284e+01 3.750146186122614722e+02
5.160000000000000142e+01 3.736484048767385389e+02
5.200000000000000000e+01 3.722985355174932351e+02
5.240000000000000568e+01 3.709646772903898864e+02
5.280000000000000426e+01 3.696465065274861672e+02
5.320000000000000284e+01 3.683437087829619827e+02
5.360000000000000142e+01 3.670559784950153244e+02
5.400000000000000000e+01 3.657830186628771685e+02
5.440000000000000568e+01 3.645245405381498358e+02
5.480000000000000426e+01 3.632802633297191051e+02
5.520000000000000284e+01 3.620499139215401101e+02
5.560000000000000142e+01 3.608332266026318393e+02
5.600000000000000000e+01 3.596299428086614967e+02
5.640000000000000568e+01 3.584398108745307354e+02
5.680000000000000426e+01 3.572625857974130668e+02
5.720000000000000284e+01 3.560980290097214720e+02
5.760000000000000142e+01 3.549459081615171385e+02
5.800000000000000000e+01 3.538059969118959316e+02
5.840000000000000568e+01 3.526780747289163287e+02
5.880000000000000426e+01 3.515619266976576114e+02
5.920000000000000284e+01 3.504573433360174022e+02
5.960000000000000142e+01 3.493641204178829867e+02
6.000000000000000000e+01 3.482820588033260378e+02
6.040000000000000568e+01 3.472109642754953143e+02
6.080000000000000426e+01 3.461506473838921352e+02
6.120000000000000284e+01 3.451009232937376510e+02
6.160000000000000142e+01 3.440616116411510461e+02
6.200000000000000000e+01 3.430325363938748069e+02
6.240000000000000568e+01 3.420135257172967727e+02
6.280000000000000426e+01 3.410044118455315356e+02
6.320000000000000284e+01 3.400050309573362028e+02
6.360000000000000142e+01 3.390152230566460503e+02
6.400000000000000000e+01 3.380348318575283315e+02
6.440000000000000568e+01 3.370637046733608599e+02
6.480000000000001137e+01 3.361016923100528402e+02
6.520000000000000284e+01 3.351486489631341783e+02
6.559999999999999432e+01 3.342044321185475155e+02
6.600000000000000000e+01 3.332689024569864387e+02
6.640000000000000568e+01 3.323419237616306532e+02
6.680000000000001137e+01 3.314233628291350442e+02
6.720000000000000284e+01 3.305130893837375083e+02
6.759999999999999432e+01 3.296109759943579434e+02
6.800000000000000000e+01 3.287168979945636238e+02
6.840000000000000568e+01 3.278307334052854003e+02
6.880000000000001137e+01 3.269523628601729683e+02
6.920000000000000284e+01 3.260816695334828523e+02
6.959999999999999432e+01 3.252185390703972416e+02
7.000000000000000000e+01 3.243628595196782385e+02
7.040000000000000568e+01 3.235145212685641809e+02
7.080000000000001137e+01 3.226734169798197627e+02
7.120000000000000284e+01 3.218394415308578118e+02
7.159999999999999432e+01 3.210124919548492812e+02
7.200000000000000000e+01 3.201924673837478394e+02
7.240000000000000568e+01 3.193792689931536870e+02
7.280000000000001137e+01 3.185727999489474769e+02
7.320000000000000284e+01 3.177729653556265248e+02
7.359999999999999432e+01 3.169796722062806111e+02
7.400000000000000000e+01 3.161928293341441076e+02
7.440000000000000568e+01 3.154123473656678698e+02
7.479999999999999716e+01 3.146381386750526872e+02
7.520000000000000284e+01 3.138701173401921096e+02
7.560000000000000853e+01 3.131081990999724098e+02
7.600000000000000000e+01 3.123523013128802290e+02
7.640000000000000568e+01 3.116023429168710663e+02
7.679999999999999716e+01 3.108582443904533079e+02
7.720000000000000284e+01 3.101199277149436284e+02
7.760000000000000853e+01 3.093873163378530649e+02
7.800000000000000000e+01 3.086603351373635746e+02
7.840000000000000568e+01 3.079389103878560263e+02
7.879999999999999716e+01 3.072229697264540960e+02
7.920000000000000284e+01 3.065124421205472345e+02
7.960000000000000853e+01 3.058072578362611011e+02
8.000000000000000000e+01 3.051073484078401634e+02
8.040000000000000568e+01 3.044126466079132456e+02
8.079999999999999716e+01 3.037230864186114445e+02
8.120000000000000284e+01 3.030386030035093654e+02
8.160000000000000853e+01 3.023591326803622223e+02
8.200000000000000000e+01 3.016846128946119734e+02
8.240000000000000568e+01 3.010149821936367971e+02
8.279999999999999716e+01 3.003501802017198656e+02
8.320000000000000284e+01 2.996901475957130287e+02
8.360000000000000853e+01 2.990348260813727279e+02
8.400000000000000000e+01 2.983841583703472793e+02
8.440000000000000568e+01 2.977380881577918785e+02
8.479999999999999716e+01 2.970965601005943881e+02
8.520000000000000284e+01 2.964595197961895110e+02
8.560000000000000853e+01 2.958269137619440698e+02
8.600000000000000000e+01 2.951986894150944636e+02
8.640000000000000568e+01 2.945747950532193045e+02
8.680000000000001137e+01 2.939551798352306378e+02
8.720000000000000284e+01 2.933397937628664067e+02
8.760000000000000853e+01 2.927285876626691561e+02
8.800000000000000000e+01 2.921215131684369908e+02
8.840000000000000568e+01 2.915185227041298504e+02
8.880000000000001137e+01 2.909195694672195032e+02
8.920000000000000284e+01 2.903246074124677989e+02
8.960000000000000853e+01 2.897335912361214696e+02
9.000000000000000000e+01 2.891464763605101780e+02
9.040000000000000568e+01 2.885632189190359895e+02
9.080000000000001137e+01 2.879837757415418764e+02
9.120000000000000284e+01 2.874081043400494764e+02
9.160000000000000853e+01 2.868361628948527482e+02
9.200000000000000000e+01 2.862679102409593952e+02
9.240000000000000568e+01 2.857033058548682902e+02
9.280000000000001137e+01 2.851423098416737503e+02
9.320000000000000284e+01 2.845848829224867131e+02
9.360000000000000853e+01 2.840309864221636644e+02
9.400000000000000000e+01 2.834805822573353566e+02
9.440000000000000568e+01 2.829336329247244635e+02
9.480000000000001137e+01 2.823901014897469395e+02
9.520000000000000284e+01 2.818499515753862852e+02
9.560000000000000853e+01 2.813131473513344076e+02
9.600000000000000000e+01 2.807796535233910618e+02
9.640000000000000568e+01 2.802494353231150512e+02
9.680000000000001137e+01 2.797224584977194581e+02
9.720000000000000284e+01 2.791986893002047054e+02
9.760000000000000853e+01 2.786780944797225175e+02
9.800000000000000000e+01 2.781606412721642982e+02
9.840000000000000568e+01 2.776462973909680159e+02
9.880000000000001137e+01 2.771350310181379086e+02
9.920000000000000284e+01 2.766268107954700781e+02
9.960000000000000853e+01 2.761216058159797058e+02
1.000000000000000000e+02 2.756193856155232424e+02
1.004000000000000057e+02 2.751201201646118761e+02
1.008000000000000114e+02 2.746237798604088312e+02
1.012000000000000028e+02 2.741303355189083959e+02
1.016000000000000085e+02 2.736397583672889482e+02
1.020000000000000000e+02 2.731520200364378752e+02
1.024000000000000057e+02 2.726670925536423056e+02
1.028000000000000114e+02 2.721849483354417316e+02
1.032000000000000028e+02 2.717055601806384857e+02
1.036000000000000085e+02 2.712289012634619212e+02
1.040000000000000000e+02 2.707549451268813527e+02
1.044000000000000057e+02 2.702836656760661072e+02
1.048000000000000114e+02 2.698150371719863188e+02
1.052000000000000028e+02 2.693490342251524226e+02
1.056000000000000085e+02 2.688856317894899348e+02
1.060000000000000000e+02 2.684248051563446893e+02
1.064000000000000057e+02 2.679665299486170511e+02
1.068000000000000114e+02 2.675107821150199356e+02
1.072000000000000028e+02 2.670575379244597229e+02
1.076000000000000085e+02 2.666067739605345537e+02
1.080000000000000000e+02 2.661584671161489268e+02
1.084000000000000057e+02 2.657125945882413589e+02
1.088000000000000114e+02 2.652691338726212393e+02
1.092000000000000028e+02 2.648280627589136316e+02
1.096000000000000085e+02 2.643893593256084387e+02
1.100000000000000000e+02 2.639530019352117165e+02
1.104000000000000057e+02 2.635189692294967472e+02
1.108000000000000114e+02 2.630872401248519168e+02
1.112000000000000028e+02 2.626577938077238059e+02
1.116000000000000085e+02 2.622306097301525938e+02
1.120000000000000000e+02 2.618056676053980141e+02
1.124000000000000057e+02 2.613829474036532474e+02
1.128000000000000114e+02 2.609624293478450454e+02
1.132000000000000028e+02 2.605440939095176986e+02
1.136000000000000085e+02 2.601279218047993140e+02
1.140000000000000000e+02 2.597138939904479571e+02
1.144000000000000057e+02 2.593019916599760109e+02
1.148000000000000114e+02 2.588921962398515006e+02
1.152000000000000028e+02 2.584844893857728039e+02
1.156000000000000085e+02 2.580788529790178814e+02
1.160000000000000000e+02 2.576752691228631420e+02
1.164000000000000057e+02 2.572737201390728501e+02
1.168000000000000114e+02 2.568741885644562899e+02
1.172000000000000028e+02 2.564766571474911530e+02
1.176000000000000085e+02 2.560811088450118405e+02
1.180000000000000000e+02 2.556875268189616008e+02
1.184000000000000057e+02 2.552958944332057456e+02
1.188000000000000114e+02 2.549061952504068245e+02
1.192000000000000028e+02 2.545184130289572977e+02
1.196000000000000085e+02 2.541325317199718654e+02
1.200000000000000000e+02 2.537485354643350774e+02
1.204000000000000057e+02 2.533664085898049052e+02
1.208000000000000114e+02 2.529861356081705139e+02
1.212000000000000028e+02 2.526077012124623309e+02
1.216000000000000085e+02 2.522310902742147505e+02
1.220000000000000000e+02 2.518562878407786911e+02
1.224000000000000057e+02 2.514832791326842880e+02
1.228000000000000114e+02 2.511120495410513627e+02
1.232000000000000028e+02 2.507425846250480390e+02
1.236000000000000085e+02 2.503748701093950899e+02
1.240000000000000000e+02 2.500088918819159574e+02
1.244000000000000057e+02 2.496446359911310537e+02
1.248000000000000114e+02 2.492820886438956336e+02
1.252000000000000028e+02 2.489212362030800989e+02
1.256000000000000085e+02 2.485620651852916296e+02
1.260000000000000000e+02 2.482045622586372247e+02
1.264000000000000057e+02 2.478487142405259362e+02
1.268000000000000114e+02 2.474945080955101844e+02
1.272000000000000028e+02 2.471419309331659804e+02
1.276000000000000085e+02 2.467909700060095872e+02
1.280000000000000000e+02 2.464416127074514691e+02
1.284000000000000057e+02 2.460938465697859954e+02
1.288000000000000114e+02 2.457476592622157341e+02
1.291999999999999886e+02 2.454030385889112722e+02
1.296000000000000227e+02 2.450599724871032095e+02
1.300000000000000000e+02 2.447184490252087130e+02
1.304000000000000057e+02 2.443784564009891369e+02
1.308000000000000114e+02 2.440399829397400140e+02
1.311999999999999886e+02 2.437030170925119137e+02
1.316000000000000227e+02 2.433675474343615122e+02
1.320000000000000000e+02 2.430335626626324768e+02
1.324000000000000057e+02 2.427010515952660512e+02
1.328000000000000114e+02 2.423700031691391246e+02
1.331999999999999886e+02 2.420404064384317735e+02
1.336000000000000227e+02 2.417122505730206967e+02
1.340000000000000000e+02 2.413855248569010428e+02
1.344000000000000057e+02 2.410602186866334193e+02
1.348000000000000114e+02 2.407363215698175054e+02
1.351999999999999886e+02 2.404138231235908734e+02
1.356000000000000227e+02 2.400927130731522823e+02
1.360000000000000000e+02 2.397729812503098970e+02
1.364000000000000057e+02 2.394546175920530118e+02
1.368000000000000114e+02 2.391376121391472509e+02
1.371999999999999886e+02 2.388219550347529889e+02
1.376000000000000227e+02 2.385076365230659690e+02
1.380000000000000000e+02 2.381946469479803454e+02
1.384000000000000057e+02 2.378829767517727589e+02
1.388000000000000114e+02 2.375726164738087505e+02
1.392000000000000171e+02 2.372635567492690143e+02
1.395999999999999943e+02 2.369557883078965688e+02
1.400000000000000000e+02 2.366493019727637090e+02
1.404000000000000057e+02 2.363440886590591958e+02
1.408000000000000114e+02 2.360401393728942026e+02
1.412000000000000171e+02 2.357374452101272198e+02
1.415999999999999943e+02 2.354359973552082579e+02
1.420000000000000000e+02 2.351357870800401031e+02
1.424000000000000057e+02 2.348368057428586440e+02
1.428000000000000114e+02 2.345390447871299386e+02
1.432000000000000171e+02 2.342424957404652162e+02
1.435999999999999943e+02 2.339471502135521064e+02
1.440000000000000000e+02 2.336529998991029800e+02
1.444000000000000057e+02 2.333600365708193181e+02
1.448000000000000114e+02 2.330682520823723394e+02
1.452000000000000171e+02 2.327776383663992021e+02
1.455999999999999943e+02 2.324881874335146676e+02
1.460000000000000000e+02 2.321998913713375714e+02
1.464000000000000057e+02 2.319127423435330400e+02
1.468000000000000114e+02 2.316267325888682649e+02
1.472000000000000171e+02 2.313418544202834255e+02
1.475999999999999943e+02 2.310581002239763109e+02
1.480000000000000000e+02 2.307754624585006695e+02
1.484000000000000057e+02 2.304939336538786279e+02
1.488000000000000114e+02 2.302135064107260405e+02
1.492000000000000171e+02 2.299341733993908576e+02
1.495999999999999943e+02 2.296559273591047940e+02
1.500000000000000000e+02 2.293787610971474180e+02
