1.000000000000000000e+01 4.578108730348517383e+02
1.040000000000000036e+01 5.497523959077904010e+02
1.080000000000000071e+01 5.998906126742004972e+02
1.119999999999999929e+01 6.297073402425307904e+02
1.159999999999999964e+01 6.414315640406051671e+02
1.200000000000000000e+01 6.810843115408633821e+02
1.240000000000000036e+01 7.099896070080440040e+02
1.280000000000000071e+01 7.302900060093453476e+02
1.319999999999999929e+01 7.271134647071584141e+02
1.359999999999999964e+01 7.265521694710357679e+02
1.400000000000000000e+01 7.324221609623111817e+02
1.440000000000000036e+01 7.363388666351949041e+02
1.480000000000000071e+01 7.230163666997136716e+02
1.519999999999999929e+01 7.105151481205773507e+02
1.560000000000000142e+01 6.987489892012065411e+02
1.600000000000000000e+01 6.876443433718131928e+02
1.639999999999999858e+01 6.771379636431956897e+02
1.680000000000000071e+01 6.671750638144203549e+02
1.719999999999999929e+01 6.577078756057696864e+02
1.760000000000000142e+01 6.486945026484424943e+02
1.800000000000000000e+01 6.400980003096242399e+02
1.839999999999999858e+01 6.318856295740064297e+02
1.880000000000000071e+01 6.240282466577722289e+02
1.920000000000000284e+01 6.164997996010310999e+02
1.960000000000000142e+01 6.092769099970262232e+02
2.000000000000000000e+01 6.023385230794814333e+02
2.039999999999999858e+01 5.956656131454939214e+02
2.080000000000000071e+01 5.892409341105329759e+02
2.120000000000000284e+01 5.830488071308832332e+02
2.160000000000000142e+01 5.770749388676304079e+02
2.200000000000000000e+01 5.713062652334702989e+02
2.239999999999999858e+01 5.657308164518900639e+02
2.280000000000000071e+01 5.603376000351083803e+02
2.320000000000000284e+01 5.551164989023849330e+02
2.360000000000000142e+01 5.500581823509010064e+02
2.400000000000000000e+01 5.451540279851880086e+02
2.439999999999999858e+01 5.403960530290823954e+02
2.480000000000000071e+01 5.357768537024815032e+02
2.520000000000000284e+01 5.312895515561216371e+02
2.560000000000000142e+01 5.269277458307592497e+02
2.600000000000000000e+01 5.226854710499862904e+02
2.640000000000000213e+01 5.185571591742916553e+02
2.680000000000000071e+01 5.145376057425219187e+02
2.719999999999999929e+01 5.106219395092626883e+02
2.760000000000000142e+01 5.068055951557955723e+02
2.800000000000000000e+01 5.030842887105167733e+02
2.840000000000000213e+01 4.994539953639446139e+02
2.880000000000000071e+01 4.959109294052229870e+02
2.920000000000000284e+01 4.924515260425906718e+02
2.960000000000000142e+01 4.890724249006593709e+02
3.000000000000000000e+01 4.857704550133652219e+02
3.040000000000000213e+01 4.825426211538095913e+02
3.080000000000000071e+01 4.793860913614664696e+02
3.120000000000000284e+01 4.762981855438756043e+02
3.160000000000000142e+01 4.732763650443495180e+02
3.200000000000000000e+01 4.703182230797449961e+02
3.240000000000000568e+01 4.674214759632415053e+02
3.279999999999999716e+01 4.645839550365758441e+02
3.320000000000000284e+01 4.618035992445015268e+02
3.360000000000000142e+01 4.590784482915235003e+02
3.400000000000000000e+01 4.564066363273615252e+02
3.440000000000000568e+01 4.537863861132291277e+02
3.479999999999999716e+01 4.512160036259820686e+02
3.520000000000000284e+01 4.486938730615787563e+02
3.560000000000000142e+01 4.462184522031822098e+02
3.600000000000000000e+01 4.437882681226765840e+02
3.640000000000000568e+01 4.414019131874324557e+02
3.679999999999999716e+01 4.390580413468823053e+02
3.720000000000000284e+01 4.367553646758862556e+02
3.760000000000000142e+01 4.344926501540491586e+02
3.800000000000000000e+01 4.322687166620733024e+02
3.840000000000000568e+01 4.300824321779779211e+02
3.879999999999999716e+01 4.279327111575661888e+02
3.920000000000000284e+01 4.258185120849217924e+02
3.960000000000000142e+01 4.237388351799718293e+02
4.000000000000000000e+01 4.216927202512875397e+02
4.040000000000000568e+01 4.196792446833116514e+02
4.079999999999999716e+01 4.176975215481265877e+02
4.120000000000000284e+01 4.157466978327099696e+02
4.160000000000000142e+01 4.138259527733749792e+02
4.200000000000000000e+01 4.119344962897841356e+02
4.239999999999999858e+01 4.100715675115361591e+02
4.280000000000000426e+01 4.082364333908974459e+02
4.320000000000000284e+01 4.064283873957559763e+02
4.360000000000000142e+01 4.046467482773453526e+02
4.400000000000000000e+01 4.028908589077099123e+02
4.439999999999999858e+01 4.011600851822714162e+02
4.480000000000000426e+01 3.994538149832096678e+02
4.520000000000000284e+01 3.977714571996950212e+02
4.560000000000000142e+01 3.961124408013065477e+02
4.600000000000000000e+01 3.944762139612383294e+02
4.639999999999999858e+01 3.928622432261515769e+02
4.680000000000000426e+01 3.912700127297484869e+02
4.720000000000000284e+01 3.896990234473643113e+02
4.760000000000000142e+01 3.881487924890561203e+02
4.800000000000000000e+01 3.866188524288537565e+02
4.840000000000000568e+01 3.851087506679926946e+02
4.880000000000000426e+01 3.836180488301057494e+02
4.920000000000000284e+01 3.821463221864850084e+02
4.960000000000000142e+01 3.806931591096552552e+02
5.000000000000000000e+01 3.792581605536171310e+02
5.040000000000000568e+01 3.778409395592283317e+02
5.080000000000000426e+01 3.764411207832927744e+02
5.120000000000000284e+01 3.750583400500181028e+02
5.160000000000000142e+01 3.736922439235925708e+02
5.200000000000000000e+01 3.723424893007112928e+02
5.240000000000000568e+01 3.710087430219528528e+02
5.280000000000000426e+01 3.696906815009829756e+02
5.320000000000000284e+01 3.683879903706204573e+02
5.360000000000000142e+01 3.671003641448625103e+02
5.400000000000000000e+01 3.658275058960230126e+02
5.440000000000000568e+01 3.645691269461880779e+02
5.480000000000000426e+01 3.633249465722390710e+02
5.520000000000000284e+01 3.620946917237438356e+02
5.560000000000000142e+01 3.608780967530520911e+02
5.600000000000000000e+01 3.596749031569745512e+02
5.640000000000000568e+01 3.584848593294602210e+02
5.680000000000000426e+01 3.573077203247199805e+02
5.720000000000000284e+01 3.561432476302766190e+02
5.760000000000000142e+01 3.549912089494515044e+02
5.800000000000000000e+01 3.538513779928257463e+02
5.840000000000000568e+01 3.527235342782391854e+02
5.880000000000000426e+01 3.516074629389162851e+02
5.920000000000000284e+01 3.505029545393280159e+02
5.960000000000000142e+01 3.494098048984251932e+02
6.000000000000000000e+01 3.483278149198916367e+02
6.040000000000000568e+01 3.472567904290930301e+02
6.080000000000000426e+01 3.461965420164058287e+02
6.120000000000000284e+01 3.451468848866363714e+02
6.160000000000000142e+01 3.441076387142469457e+02
6.200000000000000000e+01 3.430786275041284057e+02
6.240000000000000568e+01 3.420596794576670163e+02
6.280000000000000426e+01 3.410506268438680308e+02
6.320000000000000284e+01 3.400513058753126643e+02
6.360000000000000142e+01 3.390615565887330263e+02
6.400000000000000000e+01 3.380812227300029349e+02
6.440000000000000568e+01 3.371101516433525376e+02
6.480000000000001137e+01 3.361481941646234759e+02
6.520000000000000284e+01 3.351952045183912787e+02
6.559999999999999432e+01 3.342510402187882619e+02
6.600000000000000000e+01 3.333155619738727751e+02
6.640000000000000568e+01 3.323886335933927398e+02
6.680000000000001137e+01 3.314701218998027343e+02
6.720000000000000284e+01 3.305598966423983711e+02
6.759999999999999432e+01 3.296578304144408094e+02
6.800000000000000000e+01 3.287637985731468575e+02
6.840000000000000568e+01 3.278776791624285920e+02
6.880000000000001137e+01 3.269993528382710792e+02
6.920000000000000284e+01 3.261287027966424716e+02
6.959999999999999432e+01 3.252656147038334211e+02
7.000000000000000000e+01 3.244099766291313927e+02
7.040000000000000568e+01 3.235616789797363708e+02
7.080000000000001137e+01 3.227206144378295676e+02
7.120000000000000284e+01 3.218866778997127653e+02
7.159999999999999432e+01 3.210597664169358154e+02
7.200000000000000000e+01 3.202397791393372586e+02
7.240000000000000568e+01 3.194266172599245124e+02
7.280000000000001137e+01 3.186201839615226277e+02
7.320000000000000284e+01 3.178203843651257330e+02
7.359999999999999432e+01 3.170271254798860809e+02
7.400000000000000000e+01 3.162403161546810679e+02
7.440000000000000568e+01 3.154598670311970636e+02
7.479999999999999716e+01 3.146856904984763901e+02
7.520000000000000284e+01 3.139177006488718007e+02
7.560000000000000853e+01 3.131558132353583801e+02
7.600000000000000000e+01 3.123999456301527289e+02
7.640000000000000568e+01 3.116500167845920828e+02
7.679999999999999716e+01 3.109059471902290852e+02
7.720000000000000284e+01 3.101676588410971931e+02
7.760000000000000853e+01 3.094350751971067552e+02
7.800000000000000000e+01 3.087081211485307222e+02
7.840000000000000568e+01 3.079867229815423002e+02
7.879999999999999716e+01 3.072708083447671470e+02
7.920000000000000284e+01 3.065603062168150927e+02
7.960000000000000853e+01 3.058551468747588729e+02
8.000000000000000000e+01 3.051552618635246290e+02
8.040000000000000568e+01 3.044605839661649043e+02
8.079999999999999716e+01 3.037710471749843464e+02
8.120000000000000284e+01 3.030865866634879353e+02
8.160000000000000853e+01 3.024071387591249049e+02
8.200000000000000000e+01 3.017326409168018699e+02
8.240000000000000568e+01 3.010630316931384414e+02
8.279999999999999716e+01 3.003982507214425368e+02
8.320000000000000284e+01 2.997382386873799192e+02
8.360000000000000853e+01 2.990829373053163636e+02
8.400000000000000000e+01 2.984322892953098858e+02
8.440000000000000568e+01 2.977862383607320567e+02
8.479999999999999716e+01 2.971447291664985642e+02
8.520000000000000284e+01 2.965077073178887304e+02
8.560000000000000853e+01 2.958751193399356794e+02
8.600000000000000000e+01 2.952469126573687959e+02
8.640000000000000568e+01 2.946230355750909098e+02
8.680000000000001137e+01 2.940034372591738361e+02
8.720000000000000284e+01 2.933880677183555576e+02
8.760000000000000853e+01 2.927768777860231921e+02
8.800000000000000000e+01 2.921698191026677023e+02
8.840000000000000568e+01 2.915668440987944905e+02
8.880000000000001137e+01 2.909679059782771446e+02
8.920000000000000284e+01 2.903729587021394423e+02
8.960000000000000853e+01 2.897819569727537328e+02
9.000000000000000000e+01 2.891948562184425100e+02
9.040000000000000568e+01 2.886116125784715223e+02
9.080000000000001137e+01 2.880321828884214028e+02
9.120000000000000284e+01 2.874565246659285549e+02
9.160000000000000853e+01 2.868845960967819906e+02
9.200000000000000000e+01 2.863163560213681080e+02
9.240000000000000568e+01 2.857517639214505607e+02
9.280000000000001137e+01 2.851907799072776584e+02
9.320000000000000284e+01 2.846333647050062154e+02
9.360000000000000853e+01 2.840794796444333770e+02
9.400000000000000000e+01 2.835290866470275546e+02
9.440000000000000568e+01 2.829821482142490368e+02
9.480000000000001137e+01 2.824386274161536221e+02
9.520000000000000284e+01 2.818984878802691583e+02
9.560000000000000853e+01 2.813616937807388467e+02
9.600000000000000000e+01 2.808282098277231285e+02
9.640000000000000568e+01 2.802980012570526469e+02
9.680000000000001137e+01 2.797710338201262061e+02
9.720000000000000284e+01 2.792472737740451976e+02
9.760000000000000853e+01 2.787266878719801753e+02
9.800000000000000000e+01 2.782092433537608258e+02
9.840000000000000568e+01 2.776949079366849560e+02
9.880000000000001137e+01 2.771836498065400747e+02
9.920000000000000284e+01 2.766754376088305207e+02
9.960000000000000853e+01 2.761702404402066691e+02
1.000000000000000000e+02 2.756680278400889392e+02
1.004000000000000057e+02 2.751687697824826273e+02
1.008000000000000114e+02 2.746724366679768536e+02
1.012000000000000028e+02 2.741789993159254095e+02
1.016000000000000085e+02 2.736884289568010331e+02
1.020000000000000000e+02 2.732006972247220347e+02
1.024000000000000057e+02 2.727157761501443929e+02
1.028000000000000114e+02 2.722336381527156846e+02
1.032000000000000028e+02 2.717542560342870956e+02
1.036000000000000085e+02 2.712776029720787960e+02
1.040000000000000000e+02 2.708036525119944713e+02
1.044000000000000057e+02 2.703323785620820559e+02
1.048000000000000114e+02 2.698637553861364040e+02
1.052000000000000028e+02 2.693977575974396927e+02
1.056000000000000085e+02 2.689343601526372822e+02
1.060000000000000000e+02 2.684735383457443731e+02
1.064000000000000057e+02 2.680152678022809596e+02
1.068000000000000114e+02 2.675595244735313827e+02
1.072000000000000028e+02 2.671062846309257566e+02
1.076000000000000085e+02 2.666555248605399129e+02
1.080000000000000000e+02 2.662072220577105099e+02
1.084000000000000057e+02 2.657613534217637721e+02
1.088000000000000114e+02 2.653178964508535387e+02
1.092000000000000028e+02 2.648768289369067475e+02
1.096000000000000085e+02 2.644381289606736800e+02
1.100000000000000000e+02 2.640017748868799572e+02
1.104000000000000057e+02 2.635677453594786357e+02
1.108000000000000114e+02 2.631360192969988248e+02
1.112000000000000028e+02 2.627065758879897430e+02
1.116000000000000085e+02 2.622793945865567480e+02
1.120000000000000000e+02 2.618544551079883149e+02
1.124000000000000057e+02 2.614317374244702705e+02
1.128000000000000114e+02 2.610112217608872243e+02
1.132000000000000028e+02 2.605928885907067070e+02
1.136000000000000085e+02 2.601767186319465281e+02
1.140000000000000000e+02 2.597626928432215436e+02
1.144000000000000057e+02 2.593507924198686396e+02
1.148000000000000114e+02 2.589409987901485692e+02
1.152000000000000028e+02 2.585332936115216853e+02
1.156000000000000085e+02 2.581276587669972287e+02
1.160000000000000000e+02 2.577240763615535570e+02
1.164000000000000057e+02 2.573225287186276091e+02
1.168000000000000114e+02 2.569229983766725240e+02
1.172000000000000028e+02 2.565254680857822791e+02
1.176000000000000085e+02 2.561299208043797648e+02
1.180000000000000000e+02 2.557363396959701163e+02
1.184000000000000057e+02 2.553447081259540710e+02
1.188000000000000114e+02 2.549550096585037977e+02
1.192000000000000028e+02 2.545672280534960237e+02
1.196000000000000085e+02 2.541813472635049322e+02
1.200000000000000000e+02 2.537973514308502558e+02
1.204000000000000057e+02 2.534152248847011606e+02
1.208000000000000114e+02 2.530349521382348712e+02
1.212000000000000028e+02 2.526565178858466254e+02
1.216000000000000085e+02 2.522799070004133455e+02
1.220000000000000000e+02 2.519051045306063088e+02
1.224000000000000057e+02 2.515320956982544658e+02
1.228000000000000114e+02 2.511608658957551370e+02
1.232000000000000028e+02 2.507914006835331691e+02
1.236000000000000085e+02 2.504236857875456508e+02
1.240000000000000000e+02 2.500577070968322460e+02
1.244000000000000057e+02 2.496934506611100346e+02
1.248000000000000114e+02 2.493309026884114701e+02
1.252000000000000028e+02 2.489700495427655085e+02
1.256000000000000085e+02 2.486108777419191256e+02
1.260000000000000000e+02 2.482533739551008694e+02
1.264000000000000057e+02 2.478975250008235207e+02
1.268000000000000114e+02 2.475433178447257774e+02
1.272000000000000028e+02 2.471907395974525343e+02
1.276000000000000085e+02 2.468397775125721978e+02
1.280000000000000000e+02 2.464904189845306348e+02
1.284000000000000057e+02 2.461426515466413321e+02
1.288000000000000114e+02 2.457964628691102007e+02
1.291999999999999886e+02 2.454518407570952547e+02
1.296000000000000227e+02 2.451087731487991164e+02
1.300000000000000000e+02 2.447672481135959970e+02
1.304000000000000057e+02 2.444272538501892882e+02
1.308000000000000114e+02 2.440887786848020369e+02
1.311999999999999886e+02 2.437518110693980304e+02
1.316000000000000227e+02 2.434163395799329521e+02
1.320000000000000000e+02 2.430823529146358624e+02
1.324000000000000057e+02 2.427498398923196703e+02
1.328000000000000114e+02 2.424187894507196859e+02
1.331999999999999886e+02 2.420891906448612474e+02
1.336000000000000227e+02 2.417610326454535254e+02
1.340000000000000000e+02 2.414343047373114359e+02
1.344000000000000057e+02 2.411089963178030189e+02
1.348000000000000114e+02 2.407850968953231359e+02
1.351999999999999886e+02 2.404625960877925763e+02
1.356000000000000227e+02 2.401414836211815498e+02
1.360000000000000000e+02 2.398217493280581039e+02
1.364000000000000057e+02 2.395033831461599902e+02
1.368000000000000114e+02 2.391863751169903196e+02
1.371999999999999886e+02 2.388707153844357549e+02
1.376000000000000227e+02 2.385563941934076126e+02
1.380000000000000000e+02 2.382434018885050477e+02
1.384000000000000057e+02 2.379317289126992989e+02
1.388000000000000114e+02 2.376213658060402167e+02
1.392000000000000171e+02 2.373123032043827436e+02
1.395999999999999943e+02 2.370045318381342838e+02
1.400000000000000000e+02 2.366980425310217697e+02
1.404000000000000057e+02 2.363928261988790496e+02
1.408000000000000114e+02 2.360888738484529199e+02
1.412000000000000171e+02 2.357861765762283994e+02
1.415999999999999943e+02 2.354847255672727329e+02
1.420000000000000000e+02 2.351845120940971867e+02
1.424000000000000057e+02 2.348855275155372055e+02
1.428000000000000114e+02 2.345877632756499338e+02
1.432000000000000171e+02 2.342912109026289897e+02
1.435999999999999943e+02 2.339958620077361502e+02
1.440000000000000000e+02 2.337017082842496620e+02
1.444000000000000057e+02 2.334087415064288962e+02
1.448000000000000114e+02 2.331169535284948893e+02
1.452000000000000171e+02 2.328263362836268868e+02
1.455999999999999943e+02 2.325368817829740067e+02
1.460000000000000000e+02 2.322485821146819092e+02
1.464000000000000057e+02 2.319614294429349854e+02
1.468000000000000114e+02 2.316754160070125295e+02
1.472000000000000171e+02 2.313905341203595185e+02
1.475999999999999943e+02 2.311067761696714911e+02
1.480000000000000000e+02 2.308241346139929817e+02
1.484000000000000057e+02 2.305426019838300249e+02
1.488000000000000114e+02 2.302621708802755620e+02
1.492000000000000171e+02 2.299828339741481500e+02
1.495999999999999943e+02 2.297045840051433743e+02
1.500000000000000000e+02 2.294274137809984495e+02
