1.000000000000000000e+01 5.424411184525195750e+01
1.040000000000000036e+01 5.610378624182224883e+01
1.080000000000000071e+01 5.782931073327507931e+01
1.119999999999999929e+01 6.270653921830100330e+01
1.159999999999999964e+01 7.180908228442876862e+01
1.200000000000000000e+01 7.128867212709666035e+01
1.240000000000000036e+01 6.852734100473254841e+01
1.280000000000000071e+01 6.607853034091554889e+01
1.319999999999999929e+01 6.388371431238213916e+01
1.359999999999999964e+01 6.189932474545690866e+01
1.400000000000000000e+01 6.009202230928013932e+01
1.440000000000000036e+01 5.843571171640407158e+01
1.480000000000000071e+01 5.690957832234101943e+01
1.519999999999999929e+01 5.552037959012789514e+01
1.560000000000000142e+01 5.424466566116844746e+01
1.600000000000000000e+01 5.305260776962081337e+01
1.639999999999999858e+01 5.193503983623467946e+01
1.680000000000000071e+01 5.088419002039967154e+01
1.719999999999999929e+01 4.989341248907356174e+01
1.760000000000000142e+01 4.895698086424421547e+01
1.800000000000000000e+01 4.806992702525091943e+01
1.839999999999999858e+01 4.722925488440806419e+01
1.880000000000000071e+01 4.661645536585353256e+01
1.920000000000000284e+01 4.603112735297344216e+01
1.960000000000000142e+01 4.547117505706647478e+01
2.000000000000000000e+01 4.493472642324920940e+01
2.039999999999999858e+01 4.442010261891381617e+01
2.080000000000000071e+01 4.392579255608227129e+01
2.120000000000000284e+01 4.274773334913896861e+01
2.160000000000000142e+01 4.232046436824353464e+01
2.200000000000000000e+01 4.190870946211161652e+01
2.239999999999999858e+01 4.151150520656223364e+01
2.280000000000000071e+01 4.112797200180463619e+01
2.320000000000000284e+01 4.075730474930311686e+01
2.360000000000000142e+01 4.039876478460882936e+01
2.400000000000000000e+01 4.005167286846592845e+01
2.439999999999999858e+01 3.971540307392946545e+01
2.480000000000000071e+01 3.938937743557217885e+01
2.520000000000000284e+01 3.907306124966727623e+01
2.560000000000000142e+01 3.876595893270201998e+01
2.600000000000000000e+01 3.846761036061204209e+01
2.640000000000000213e+01 3.817758762343232348e+01
2.680000000000000071e+01 3.789549214018329337e+01
2.719999999999999929e+01 3.761743265890586230e+01
2.760000000000000142e+01 3.733155016394246672e+01
2.800000000000000000e+01 3.705325935793730707e+01
2.840000000000000213e+01 3.678221749437607713e+01
2.880000000000000071e+01 3.651810336830762083e+01
2.920000000000000284e+01 3.626061559426469216e+01
2.960000000000000142e+01 3.600947105046770957e+01
3.000000000000000000e+01 3.576440347056223601e+01
3.040000000000000213e+01 3.552516216655084946e+01
3.080000000000000071e+01 3.182455926860312445e+01
3.120000000000000284e+01 3.155475860418982492e+01
3.160000000000000142e+01 3.129141325810397589e+01
3.200000000000000000e+01 3.103426745496063432e+01
3.240000000000000568e+01 3.078307946157581654e+01
3.279999999999999716e+01 3.053762060660441335e+01
3.320000000000000284e+01 3.029767438292098092e+01
3.360000000000000142e+01 3.006303562457940615e+01
3.400000000000000000e+01 2.983350975110672820e+01
3.440000000000000568e+01 2.960891207269013492e+01
3.479999999999999716e+01 2.938906715051923157e+01
3.520000000000000284e+01 2.917380820716311263e+01
3.560000000000000142e+01 2.896297658240455064e+01
3.600000000000000000e+01 2.898675668234635339e+01
3.640000000000000568e+01 2.879664337425956688e+01
3.679999999999999716e+01 2.861021496077489701e+01
3.720000000000000284e+01 2.842735228422897364e+01
3.760000000000000142e+01 2.824794155643744631e+01
3.800000000000000000e+01 2.807187404957798904e+01
3.840000000000000568e+01 2.789904580867005279e+01
3.879999999999999716e+01 2.772935738388171600e+01
3.920000000000000284e+01 2.756271358105947655e+01
3.960000000000000142e+01 2.739902322902604936e+01
4.000000000000000000e+01 2.723819896232369686e+01
4.040000000000000568e+01 2.708015701820037791e+01
4.079999999999999716e+01 2.692481704674312937e+01
4.120000000000000284e+01 2.677210193315951514e+01
4.160000000000000142e+01 2.662193763129523916e+01
4.200000000000000000e+01 2.647425300755404010e+01
4.239999999999999858e+01 2.632897969445714637e+01
4.280000000000000426e+01 2.618605195314354006e+01
4.320000000000000284e+01 2.604370496517278610e+01
4.360000000000000142e+01 2.589836859023255045e+01
4.400000000000000000e+01 2.575530613509170053e+01
4.439999999999999858e+01 2.561445846614996924e+01
4.480000000000000426e+01 2.547508323764627036e+01
4.520000000000000284e+01 2.533614639403552360e+01
4.560000000000000142e+01 2.519929386857612030e+01
4.600000000000000000e+01 2.506447371511313094e+01
4.639999999999999858e+01 2.493163579260536267e+01
4.680000000000000426e+01 2.480073168489732538e+01
4.720000000000000284e+01 2.467171462482349398e+01
4.760000000000000142e+01 2.454453942237002195e+01
4.800000000000000000e+01 2.441916239663935073e+01
4.840000000000000568e+01 2.429554131138113959e+01
4.880000000000000426e+01 2.417363531386992292e+01
4.920000000000000284e+01 2.405340487692568274e+01
4.960000000000000142e+01 2.393481174388713839e+01
5.000000000000000000e+01 2.381781887636144290e+01
5.040000000000000568e+01 2.370239040458554314e+01
5.080000000000000426e+01 2.358849158024597159e+01
5.120000000000000284e+01 2.347608873161377829e+01
5.160000000000000142e+01 2.336514922086155366e+01
5.200000000000000000e+01 2.325564140343737307e+01
5.240000000000000568e+01 2.314753458937954989e+01
5.280000000000000426e+01 2.304079900646310719e+01
5.320000000000000284e+01 2.293540576507601614e+01
5.360000000000000142e+01 2.283132682472987796e+01
5.400000000000000000e+01 2.272853496211566693e+01
5.440000000000000568e+01 2.262700374062063702e+01
5.480000000000000426e+01 2.252670748122805833e+01
5.520000000000000284e+01 2.242762123472576974e+01
5.560000000000000142e+01 2.232790771703914956e+01
5.600000000000000000e+01 2.223532145756033529e+01
5.640000000000000568e+01 2.214381324994396039e+01
5.680000000000000426e+01 2.205336218377462743e+01
5.720000000000000284e+01 2.196394791588981121e+01
5.760000000000000142e+01 2.187555065063941839e+01
5.800000000000000000e+01 2.178815112098227758e+01
5.840000000000000568e+01 2.170173057037785469e+01
5.880000000000000426e+01 2.161627073543362343e+01
5.920000000000000284e+01 2.153175382927115322e+01
5.960000000000000142e+01 2.144816252557586012e+01
6.000000000000000000e+01 2.139973309442230942e+01
6.040000000000000568e+01 2.132784721976873499e+01
6.080000000000000426e+01 2.125668515904615674e+01
6.120000000000000284e+01 2.118623470148718724e+01
6.160000000000000142e+01 2.111648392385472306e+01
6.200000000000000000e+01 2.104742118178656796e+01
6.240000000000000568e+01 2.097903510145649619e+01
6.280000000000000426e+01 2.091131457153793249e+01
6.320000000000000284e+01 2.084424873545749790e+01
6.360000000000000142e+01 2.077782698392613980e+01
6.400000000000000000e+01 2.071203894773616838e+01
6.440000000000000568e+01 2.064687449081304038e+01
6.480000000000001137e+01 2.058232370351135643e+01
6.520000000000000284e+01 2.051837689614508164e+01
6.559999999999999432e+01 2.045502459274216989e+01
6.600000000000000000e+01 2.039225752501469202e+01
6.640000000000000568e+01 2.033006662653559005e+01
6.680000000000001137e+01 2.026717099203253980e+01
6.720000000000000284e+01 2.020447511238879912e+01
6.759999999999999432e+01 2.014235195043623605e+01
6.800000000000000000e+01 2.008079274411456083e+01
6.840000000000000568e+01 2.001978891853287479e+01
6.880000000000001137e+01 1.995933208085629929e+01
6.920000000000000284e+01 1.989941401536221122e+01
6.959999999999999432e+01 1.984002667865963332e+01
7.000000000000000000e+01 1.978116219506529205e+01
7.040000000000000568e+01 1.972281285213040292e+01
7.080000000000001137e+01 1.966497109631248819e+01
7.120000000000000284e+01 1.960762952878650012e+01
7.159999999999999432e+01 1.955078090139017633e+01
7.200000000000000000e+01 1.949441811269851854e+01
7.240000000000000568e+01 1.943853420422249201e+01
7.280000000000001137e+01 1.938312235672746908e+01
7.320000000000000284e+01 1.932817588666681630e+01
7.359999999999999432e+01 1.927368824272658543e+01
7.400000000000000000e+01 1.921965300247704533e+01
7.440000000000000568e+01 1.916606386912733839e+01
7.479999999999999716e+01 1.911291466837946373e+01
7.520000000000000284e+01 1.906019934537796345e+01
7.560000000000000853e+01 1.900791196175198650e+01
7.600000000000000000e+01 1.895604669274641552e+01
7.640000000000000568e+01 1.890459782443883086e+01
7.679999999999999716e+01 1.885279631487400209e+01
7.720000000000000284e+01 1.879899107099576838e+01
7.760000000000000853e+01 1.874562831011435193e+01
7.800000000000000000e+01 1.869270193864762319e+01
7.840000000000000568e+01 1.864020598047638444e+01
7.879999999999999716e+01 1.858813457404009029e+01
7.920000000000000284e+01 1.853648196952007865e+01
7.960000000000000853e+01 1.848524252610715024e+01
8.000000000000000000e+01 1.846991856398813781e+01
8.040000000000000568e+01 1.842090736359597258e+01
8.079999999999999716e+01 1.837227707943493726e+01
8.120000000000000284e+01 1.832402273929909597e+01
8.160000000000000853e+01 1.827613946202837525e+01
8.200000000000000000e+01 1.822862245536628834e+01
8.240000000000000568e+01 1.818146701387920317e+01
8.279999999999999716e+01 1.813466851693499393e+01
8.320000000000000284e+01 1.808822242673910807e+01
8.360000000000000853e+01 1.804212428642613730e+01
8.400000000000000000e+01 1.799636971820503462e+01
8.440000000000000568e+01 1.795095442155614052e+01
8.479999999999999716e+01 1.790587417147847304e+01
8.520000000000000284e+01 1.786112481678538799e+01
8.560000000000000853e+01 1.781670227844731613e+01
8.600000000000000000e+01 1.777260254797978689e+01
8.640000000000000568e+01 1.772882168587541685e+01
8.680000000000001137e+01 1.768535582007849882e+01
8.720000000000000284e+01 1.764220114450064614e+01
8.760000000000000853e+01 1.759935391757634804e+01
8.800000000000000000e+01 1.755681046085712538e+01
8.840000000000000568e+01 1.751456715764307148e+01
8.880000000000001137e+01 1.747262045165054190e+01
8.920000000000000284e+01 1.743096684571497690e+01
8.960000000000000853e+01 1.738960290052771285e+01
9.000000000000000000e+01 1.734852523340569519e+01
9.040000000000000568e+01 1.730773051709312682e+01
9.080000000000001137e+01 1.726721547859408901e+01
9.120000000000000284e+01 1.722697689803515786e+01
9.160000000000000853e+01 1.718701160755708202e+01
9.200000000000000000e+01 1.714731649023474347e+01
9.240000000000000568e+01 1.710788847902442456e+01
9.280000000000001137e+01 1.706872455573765990e+01
9.320000000000000284e+01 1.702971163500527751e+01
9.360000000000000853e+01 1.699081485918063095e+01
9.400000000000000000e+01 1.695217565218258926e+01
9.440000000000000568e+01 1.691379115202368411e+01
9.480000000000001137e+01 1.687565854131845455e+01
9.520000000000000284e+01 1.683777504639016342e+01
9.560000000000000853e+01 1.680013793639950848e+01
9.600000000000000000e+01 1.676274452249440117e+01
9.640000000000000568e+01 1.672559215698034762e+01
9.680000000000001137e+01 1.668867823251093441e+01
9.720000000000000284e+01 1.665200018129758419e+01
9.760000000000000853e+01 1.661555547433833624e+01
9.800000000000000000e+01 1.657934162066489137e+01
9.840000000000000568e+01 1.654335616660751640e+01
9.880000000000001137e+01 1.650759669507729654e+01
9.920000000000000284e+01 1.659662170793608027e+01
9.960000000000000853e+01 1.656301930197071215e+01
1.000000000000000000e+02 1.652961960542248931e+01
1.004000000000000057e+02 1.649642055569209731e+01
1.008000000000000114e+02 1.646342011967549723e+01
1.012000000000000028e+02 1.643061629322110662e+01
1.016000000000000085e+02 1.639800710059932243e+01
1.020000000000000000e+02 1.636559059398383198e+01
1.024000000000000057e+02 1.633336485294449858e+01
1.028000000000000114e+02 1.630132798395155191e+01
1.032000000000000028e+02 1.626947811989067105e+01
1.036000000000000085e+02 1.623781341958881086e+01
1.040000000000000000e+02 1.620633206735040943e+01
1.044000000000000057e+02 1.617503227250368525e+01
1.048000000000000114e+02 1.614391226895689613e+01
1.052000000000000028e+02 1.611297031476410524e+01
1.056000000000000085e+02 1.608220469170037603e+01
1.060000000000000000e+02 1.605161370484614025e+01
1.064000000000000057e+02 1.602119568218035184e+01
1.068000000000000114e+02 1.599094897418244798e+01
1.072000000000000028e+02 1.596087195344262177e+01
1.076000000000000085e+02 1.593096301428050765e+01
1.080000000000000000e+02 1.590122057237172903e+01
1.084000000000000057e+02 1.587164306438244488e+01
1.088000000000000114e+02 1.584836149747743939e+01
1.092000000000000028e+02 1.581935513839087193e+01
1.096000000000000085e+02 1.579050776781581789e+01
1.100000000000000000e+02 1.576181791408075838e+01
1.104000000000000057e+02 1.573328412468042892e+01
1.108000000000000114e+02 1.570490496595428098e+01
1.112000000000000028e+02 1.567667902277162639e+01
1.116000000000000085e+02 1.564860489822314804e+01
1.120000000000000000e+02 1.562068121331874693e+01
1.124000000000000057e+02 1.559290660669143769e+01
1.128000000000000114e+02 1.556527973430732459e+01
1.132000000000000028e+02 1.553779926918133114e+01
1.136000000000000085e+02 1.551046390109864959e+01
1.140000000000000000e+02 1.548327233634180722e+01
1.144000000000000057e+02 1.545622329742308310e+01
1.148000000000000114e+02 1.542931552282228047e+01
1.152000000000000028e+02 1.540254776672969328e+01
1.156000000000000085e+02 1.537591879879406243e+01
1.160000000000000000e+02 1.534942740387556626e+01
1.164000000000000057e+02 1.532307238180355213e+01
1.168000000000000114e+02 1.529685254713905707e+01
1.172000000000000028e+02 1.527076672894187581e+01
1.176000000000000085e+02 1.524481377054219067e+01
1.180000000000000000e+02 1.521899252931651603e+01
1.184000000000000057e+02 1.519330187646805719e+01
1.188000000000000114e+02 1.516774069681115478e+01
1.192000000000000028e+02 1.514230788855992849e+01
1.196000000000000085e+02 1.511700236312085543e+01
1.200000000000000000e+02 1.509182304488935245e+01
1.204000000000000057e+02 1.506676887105011531e+01
1.208000000000000114e+02 1.504183879138129498e+01
1.212000000000000028e+02 1.501697116106722341e+01
1.216000000000000085e+02 1.499219018677691295e+01
1.220000000000000000e+02 1.496753023097929614e+01
1.224000000000000057e+02 1.494299029801880963e+01
1.228000000000000114e+02 1.491856940374922402e+01
1.232000000000000028e+02 1.489426657536251142e+01
1.236000000000000085e+02 1.487008085122081624e+01
1.240000000000000000e+02 1.484598614502519531e+01
1.244000000000000057e+02 1.482196972181613681e+01
1.248000000000000114e+02 1.479806766872360058e+01
1.252000000000000028e+02 1.477427906865375462e+01
1.256000000000000085e+02 1.475060301484093905e+01
1.260000000000000000e+02 1.472703861069809150e+01
1.264000000000000057e+02 1.470358496966985484e+01
1.268000000000000114e+02 1.468024121508821267e+01
1.272000000000000028e+02 1.465700648003072715e+01
1.276000000000000085e+02 1.463387990718118559e+01
1.280000000000000000e+02 1.461086064869276768e+01
1.284000000000000057e+02 1.458794786605349358e+01
1.288000000000000114e+02 1.456514072995407716e+01
1.291999999999999886e+02 1.454243842015805299e+01
1.296000000000000227e+02 1.451984012537408830e+01
1.300000000000000000e+02 1.449734504313058281e+01
1.304000000000000057e+02 1.447495237965230075e+01
1.308000000000000114e+02 1.445266134973919669e+01
1.311999999999999886e+02 1.443047117664729484e+01
1.316000000000000227e+02 1.440838109197150985e+01
1.320000000000000000e+02 1.438639033553057445e+01
1.324000000000000057e+02 1.436449815525378781e+01
1.328000000000000114e+02 1.434270380706974102e+01
1.331999999999999886e+02 1.432100655479687568e+01
1.336000000000000227e+02 1.429940567003588470e+01
1.340000000000000000e+02 1.427790043206389115e+01
1.344000000000000057e+02 1.425649012773040525e+01
1.348000000000000114e+02 1.423517405135496361e+01
1.351999999999999886e+02 1.421395150462651102e+01
1.356000000000000227e+02 1.419282179650438636e+01
1.360000000000000000e+02 1.417178424312097462e+01
1.364000000000000057e+02 1.415083816768591518e+01
1.368000000000000114e+02 1.412998290039189087e+01
1.371999999999999886e+02 1.410921777832195190e+01
1.376000000000000227e+02 1.408854214535832838e+01
1.380000000000000000e+02 1.406795535209272785e+01
1.384000000000000057e+02 1.404745675573807517e+01
1.388000000000000114e+02 1.402704572004164518e+01
1.392000000000000171e+02 1.400672161519964831e+01
1.395999999999999943e+02 1.398648381777310057e+01
1.400000000000000000e+02 1.396633171060510747e+01
1.404000000000000057e+02 1.394626468273940390e+01
1.408000000000000114e+02 1.392628212934020482e+01
1.412000000000000171e+02 1.390638345161336176e+01
1.415999999999999943e+02 1.388562625964519626e+01
1.420000000000000000e+02 1.386604222899736705e+01
1.424000000000000057e+02 1.384653985193705594e+01
1.428000000000000114e+02 1.382711855478629026e+01
1.432000000000000171e+02 1.380777776953424762e+01
1.435999999999999943e+02 1.378851693376523357e+01
1.440000000000000000e+02 1.376933549058767703e+01
1.444000000000000057e+02 1.375023288856431058e+01
1.448000000000000114e+02 1.373120858164338287e+01
1.452000000000000171e+02 1.371226202909096159e+01
1.455999999999999943e+02 1.369339269542423665e+01
1.460000000000000000e+02 1.367460005034588377e+01
1.464000000000000057e+02 1.365588356867941400e+01
1.468000000000000114e+02 1.363724273030551792e+01
1.472000000000000171e+02 1.361867702009934789e+01
1.475999999999999943e+02 1.359284580491767436e+01
1.480000000000000000e+02 1.357476845484446315e+01
1.484000000000000057e+02 1.355676292416822193e+01
1.488000000000000114e+02 1.353882873084546290e+01
1.492000000000000171e+02 1.352096539738818137e+01
1.495999999999999943e+02 1.350317245080833217e+01
1.500000000000000000e+02 1.348544942256318535e+01
