1.000000000000000000e+01 1.759460755150524847e+02
1.040000000000000036e+01 1.712567092200482080e+02
1.080000000000000071e+01 1.675083725243148081e+02
1.119999999999999929e+01 1.647042516012875524e+02
1.159999999999999964e+01 1.587603720685288522e+02
1.200000000000000000e+01 1.542645108157514926e+02
1.240000000000000036e+01 1.501192485235750667e+02
1.280000000000000071e+01 1.462499935661827521e+02
1.319999999999999929e+01 1.426736418709674012e+02
1.359999999999999964e+01 1.393528549095545657e+02
1.400000000000000000e+01 1.361387665791922927e+02
1.440000000000000036e+01 1.331008556143082728e+02
1.480000000000000071e+01 1.302526867984693695e+02
1.519999999999999929e+01 1.275745773485654126e+02
1.560000000000000142e+01 1.255473761568770357e+02
1.600000000000000000e+01 1.237223827689746827e+02
1.639999999999999858e+01 1.219969860154807861e+02
1.680000000000000071e+01 1.203621454327694380e+02
1.719999999999999929e+01 1.188099532970635011e+02
1.760000000000000142e+01 1.184293968816036084e+02
1.800000000000000000e+01 1.170543323975380474e+02
1.839999999999999858e+01 1.157425125795425345e+02
1.880000000000000071e+01 1.112412291048105999e+02
1.920000000000000284e+01 1.057817554160164519e+02
1.960000000000000142e+01 1.042517204098033403e+02
2.000000000000000000e+01 1.027880564112848560e+02
2.039999999999999858e+01 1.013860287568459597e+02
2.080000000000000071e+01 1.000413666940560091e+02
2.120000000000000284e+01 9.875020604755506781e+01
2.160000000000000142e+01 9.750904038512797456e+01
2.200000000000000000e+01 9.631467922175886542e+01
2.239999999999999858e+01 9.516705555845206277e+01
2.280000000000000071e+01 9.406279418510254686e+01
2.320000000000000284e+01 9.297507910858377045e+01
2.360000000000000142e+01 9.183480589171421116e+01
2.400000000000000000e+01 9.073653761360652936e+01
2.439999999999999858e+01 8.969613371510195066e+01
2.480000000000000071e+01 8.868693715172439340e+01
2.520000000000000284e+01 8.770739282649921620e+01
2.560000000000000142e+01 8.675805764191812841e+01
2.600000000000000000e+01 8.583885641705803948e+01
2.640000000000000213e+01 8.494462530254807575e+01
2.680000000000000071e+01 8.407424250886485595e+01
2.719999999999999929e+01 8.322665647430955005e+01
2.760000000000000142e+01 8.240088025127388960e+01
2.800000000000000000e+01 8.159598643608254065e+01
2.840000000000000213e+01 8.081110258084115117e+01
2.880000000000000071e+01 8.004540703367983667e+01
2.920000000000000284e+01 7.914023093075488191e+01
2.960000000000000142e+01 7.841923359671898197e+01
3.000000000000000000e+01 7.701590073389351687e+01
3.040000000000000213e+01 7.634776357917171197e+01
3.080000000000000071e+01 7.569459819503532572e+01
3.120000000000000284e+01 7.505584598332853830e+01
3.160000000000000142e+01 7.443097755722148179e+01
3.200000000000000000e+01 7.599300349334411919e+01
3.240000000000000568e+01 7.545812250565742829e+01
3.279999999999999716e+01 7.493400622686432655e+01
3.320000000000000284e+01 7.442028778414686485e+01
3.360000000000000142e+01 7.391661800650936698e+01
3.400000000000000000e+01 7.342266432178888635e+01
3.440000000000000568e+01 7.293810973759299543e+01
3.479999999999999716e+01 7.246265189865040668e+01
3.520000000000000284e+01 7.166503800357099863e+01
3.560000000000000142e+01 7.122560264042454037e+01
3.600000000000000000e+01 7.078164255404375638e+01
3.640000000000000568e+01 7.033219482627147556e+01
3.679999999999999716e+01 6.989085600843148427e+01
3.720000000000000284e+01 6.945738189651173400e+01
3.760000000000000142e+01 6.903153858746858873e+01
3.800000000000000000e+01 6.861310192184009793e+01
3.840000000000000568e+01 6.820185696304940848e+01
3.879999999999999716e+01 6.779759751056187156e+01
3.920000000000000284e+01 6.740012564431107478e+01
3.960000000000000142e+01 6.700925129803492553e+01
4.000000000000000000e+01 6.662479185936662418e+01
4.040000000000000568e+01 6.624657179470960955e+01
4.079999999999999716e+01 6.587586317457122220e+01
4.120000000000000284e+01 6.551958472585147319e+01
4.160000000000000142e+01 6.516908151581233710e+01
4.200000000000000000e+01 6.482419650772027353e+01
4.239999999999999858e+01 6.448477861128341715e+01
4.280000000000000426e+01 6.455380368404463809e+01
4.320000000000000284e+01 6.422888656175564392e+01
4.360000000000000142e+01 6.390893160114925564e+01
4.400000000000000000e+01 6.359381121604980791e+01
4.439999999999999858e+01 6.328340239722612637e+01
4.480000000000000426e+01 6.306136919657875950e+01
4.520000000000000284e+01 6.275671215633231270e+01
4.560000000000000142e+01 6.245377233576520837e+01
4.600000000000000000e+01 6.215523490127485218e+01
4.639999999999999858e+01 6.186099202870258296e+01
4.680000000000000426e+01 6.157093958388323074e+01
4.720000000000000284e+01 6.128497696137626605e+01
4.760000000000000142e+01 6.100300693174088451e+01
4.800000000000000000e+01 6.072493549682497616e+01
4.840000000000000568e+01 6.017831565368247482e+01
4.880000000000000426e+01 5.990203978209878244e+01
4.920000000000000284e+01 5.962955918979363901e+01
4.960000000000000142e+01 5.936245296486252698e+01
5.000000000000000000e+01 5.910260742003851675e+01
5.040000000000000568e+01 5.884616209199191417e+01
5.080000000000000426e+01 5.859304195284882155e+01
5.120000000000000284e+01 5.834317429116872944e+01
5.160000000000000142e+01 5.809648862047017559e+01
5.200000000000000000e+01 5.785291659214139770e+01
5.240000000000000568e+01 5.761239191248940017e+01
5.280000000000000426e+01 5.737485026369635932e+01
5.320000000000000284e+01 5.714022922846800157e+01
5.360000000000000142e+01 5.690846821817098089e+01
5.400000000000000000e+01 5.667948239362313245e+01
5.440000000000000568e+01 5.645323717092103522e+01
5.480000000000000426e+01 5.622967952290005655e+01
5.520000000000000284e+01 5.600875555517614401e+01
5.560000000000000142e+01 5.579008772719554088e+01
5.600000000000000000e+01 5.556914050293504204e+01
5.640000000000000568e+01 5.535064249080355836e+01
5.680000000000000426e+01 5.513454834166618923e+01
5.720000000000000284e+01 5.492081388755516258e+01
5.760000000000000142e+01 5.470939610194413660e+01
5.800000000000000000e+01 5.436254464628365213e+01
5.840000000000000568e+01 5.434058229849622279e+01
5.880000000000000426e+01 5.414111633666173873e+01
5.920000000000000284e+01 5.394373655185665939e+01
5.960000000000000142e+01 5.374840656029753916e+01
6.000000000000000000e+01 5.355509086723038337e+01
6.040000000000000568e+01 5.336375483898557803e+01
6.080000000000000426e+01 5.317436467610626494e+01
6.120000000000000284e+01 5.298688738750083616e+01
6.160000000000000142e+01 5.280129076557420831e+01
6.200000000000000000e+01 5.261754336229350315e+01
6.240000000000000568e+01 5.243561446614717880e+01
6.280000000000000426e+01 5.225547407995803439e+01
6.320000000000000284e+01 5.207709289951259279e+01
6.360000000000000142e+01 5.190044229297180323e+01
6.400000000000000000e+01 5.172549428102903590e+01
6.440000000000000568e+01 5.156386091311277653e+01
6.480000000000001137e+01 5.139175988097491654e+01
6.520000000000000284e+01 5.122129306229844303e+01
6.559999999999999432e+01 5.105243458909117749e+01
6.600000000000000000e+01 5.088373445640840487e+01
6.640000000000000568e+01 5.071592423412892003e+01
6.680000000000001137e+01 5.064816342723276676e+01
6.720000000000000284e+01 5.049151536997012357e+01
6.759999999999999432e+01 5.033629471031569125e+01
6.800000000000000000e+01 5.018247958624936444e+01
6.840000000000000568e+01 5.003004860682916899e+01
6.880000000000001137e+01 4.987898083910643265e+01
6.920000000000000284e+01 4.972925579548511621e+01
6.959999999999999432e+01 4.958085342150808117e+01
7.000000000000000000e+01 4.943375408405272964e+01
7.040000000000000568e+01 4.928793855992019246e+01
7.080000000000001137e+01 4.914338802480243373e+01
7.120000000000000284e+01 4.900008404261255635e+01
7.159999999999999432e+01 4.885783947092183155e+01
7.200000000000000000e+01 4.871630921114619639e+01
7.240000000000000568e+01 4.857597850022616370e+01
7.280000000000001137e+01 4.843683027318892442e+01
7.320000000000000284e+01 4.829884780638021624e+01
7.359999999999999432e+01 4.816201470866590739e+01
7.400000000000000000e+01 4.802631491291093369e+01
7.440000000000000568e+01 4.789173266772533566e+01
7.479999999999999716e+01 4.775825252946729904e+01
7.520000000000000284e+01 4.765017739803835184e+01
7.560000000000000853e+01 4.752147996569812705e+01
7.600000000000000000e+01 4.739380032667106946e+01
7.640000000000000568e+01 4.726712494661708774e+01
7.679999999999999716e+01 4.714144054478855139e+01
7.720000000000000284e+01 4.701673408789228858e+01
7.760000000000000853e+01 4.689204096342540851e+01
7.800000000000000000e+01 4.676806311852072895e+01
7.840000000000000568e+01 4.664506444301524368e+01
7.879999999999999716e+01 4.652303181249050112e+01
7.920000000000000284e+01 4.640195235027066190e+01
7.960000000000000853e+01 4.628181342141392207e+01
8.000000000000000000e+01 4.616260262688122396e+01
8.040000000000000568e+01 4.604430779787649897e+01
8.079999999999999716e+01 4.592691699035211172e+01
8.120000000000000284e+01 4.581041847967402703e+01
8.160000000000000853e+01 4.569480075544134934e+01
8.200000000000000000e+01 4.558005251645461442e+01
8.240000000000000568e+01 4.546616266582819321e+01
8.279999999999999716e+01 4.535312030624180579e+01
8.320000000000000284e+01 4.524091473532639185e+01
8.360000000000000853e+01 4.512953544118002469e+01
8.400000000000000000e+01 4.501897209800944921e+01
8.440000000000000568e+01 4.490887528602475953e+01
8.479999999999999716e+01 4.479924532667261161e+01
8.520000000000000284e+01 4.469040956314196222e+01
8.560000000000000853e+01 4.458235825128348750e+01
8.600000000000000000e+01 4.447508181517860493e+01
8.640000000000000568e+01 4.436857084340864077e+01
8.680000000000001137e+01 4.426281608542502966e+01
8.720000000000000284e+01 4.414499545655373680e+01
8.760000000000000853e+01 4.404647964158303353e+01
8.800000000000000000e+01 4.394509149711254281e+01
8.840000000000000568e+01 4.384440627374243604e+01
8.880000000000001137e+01 4.374441572858510341e+01
8.920000000000000284e+01 4.364511175448963343e+01
8.960000000000000853e+01 4.354648637717465931e+01
9.000000000000000000e+01 4.344853175243468257e+01
9.040000000000000568e+01 4.335124016341816855e+01
9.080000000000001137e+01 4.325460401797470666e+01
9.120000000000000284e+01 4.315861584606960832e+01
9.160000000000000853e+01 4.306326829726365446e+01
9.200000000000000000e+01 4.296855413825629455e+01
9.240000000000000568e+01 4.287446625049003046e+01
9.280000000000001137e+01 4.278099762781477722e+01
9.320000000000000284e+01 4.268814137420977062e+01
9.360000000000000853e+01 4.259589070156196300e+01
9.400000000000000000e+01 4.250423892749881105e+01
9.440000000000000568e+01 4.241317947327407012e+01
9.480000000000001137e+01 4.234546353641014349e+01
9.520000000000000284e+01 4.225571550931637432e+01
9.560000000000000853e+01 4.216653943976196217e+01
9.600000000000000000e+01 4.207792916006663120e+01
9.640000000000000568e+01 4.198987859600099881e+01
9.680000000000001137e+01 4.190238176496971079e+01
9.720000000000000284e+01 4.181543277423736527e+01
9.760000000000000853e+01 4.172902581919633036e+01
9.800000000000000000e+01 4.164261621254604506e+01
9.840000000000000568e+01 4.155665687579737266e+01
9.880000000000001137e+01 4.147121776465882448e+01
9.920000000000000284e+01 4.138629359804158980e+01
9.960000000000000853e+01 4.130173453703667974e+01
1.000000000000000000e+02 4.121764928870898359e+01
1.004000000000000057e+02 4.113406464080770775e+01
1.008000000000000114e+02 4.105097559585234990e+01
1.012000000000000028e+02 4.096837722636675494e+01
1.016000000000000085e+02 4.088626467361621053e+01
1.020000000000000000e+02 4.080463314637225380e+01
1.024000000000000057e+02 4.072347791970484820e+01
1.028000000000000114e+02 4.064279433380077222e+01
1.032000000000000028e+02 4.056257779280805664e+01
1.036000000000000085e+02 4.048277031458033548e+01
1.040000000000000000e+02 4.040295801212205618e+01
1.044000000000000057e+02 4.032360377258630280e+01
1.048000000000000114e+02 4.024473782532735555e+01
1.052000000000000028e+02 4.016653852274809822e+01
1.056000000000000085e+02 4.008878114880049282e+01
1.060000000000000000e+02 4.001146151426100062e+01
1.064000000000000057e+02 3.993457548568931514e+01
1.068000000000000114e+02 3.985811898447044399e+01
1.072000000000000028e+02 3.978208798587697714e+01
1.076000000000000085e+02 3.970647851815083129e+01
1.080000000000000000e+02 3.963128666160438485e+01
1.084000000000000057e+02 3.955650854774010128e+01
1.088000000000000114e+02 3.948214035838855551e+01
1.092000000000000028e+02 3.940817832486415284e+01
1.096000000000000085e+02 3.933461872713818508e+01
1.100000000000000000e+02 3.926145789302890421e+01
1.104000000000000057e+02 3.918869219740800958e+01
1.108000000000000114e+02 3.911631806142335677e+01
1.112000000000000028e+02 3.905320470468794980e+01
1.116000000000000085e+02 3.898283953137512725e+01
1.120000000000000000e+02 3.891284812255939585e+01
1.124000000000000057e+02 3.884322713331614807e+01
1.128000000000000114e+02 3.877397326089459284e+01
1.132000000000000028e+02 3.870600615623009588e+01
1.136000000000000085e+02 3.863777446873363886e+01
1.140000000000000000e+02 3.856989829552910010e+01
1.144000000000000057e+02 3.850237451506028918e+01
1.148000000000000114e+02 3.843520004438212823e+01
1.152000000000000028e+02 3.836837183854385813e+01
1.156000000000000085e+02 3.830188688998416069e+01
1.160000000000000000e+02 3.823574222793827460e+01
1.164000000000000057e+02 3.816012418011150231e+01
1.168000000000000114e+02 3.809461906372783346e+01
1.172000000000000028e+02 3.802944656229182385e+01
1.176000000000000085e+02 3.796460382921281962e+01
1.180000000000000000e+02 3.790008805220426780e+01
1.184000000000000057e+02 3.783589645274999924e+01
1.188000000000000114e+02 3.777202628558089970e+01
1.192000000000000028e+02 3.770847483816127976e+01
1.196000000000000085e+02 3.764523943018520669e+01
1.200000000000000000e+02 3.758231741308213714e+01
1.204000000000000057e+02 3.751970616953196469e+01
1.208000000000000114e+02 3.745740311298906988e+01
1.212000000000000028e+02 3.739540568721534441e+01
1.216000000000000085e+02 3.733371136582178451e+01
1.220000000000000000e+02 3.727231765181867473e+01
1.224000000000000057e+02 3.721122207717397856e+01
1.228000000000000114e+02 3.716419700638702750e+01
1.232000000000000028e+02 3.710421370664527529e+01
1.236000000000000085e+02 3.704451760034977781e+01
1.240000000000000000e+02 3.698510636888157421e+01
1.244000000000000057e+02 3.692585933492337347e+01
1.248000000000000114e+02 3.686668455403790290e+01
1.252000000000000028e+02 3.680779251696504417e+01
1.256000000000000085e+02 3.674918093446225242e+01
1.260000000000000000e+02 3.669084754343944610e+01
1.264000000000000057e+02 3.663279010657402068e+01
1.268000000000000114e+02 3.657500641193283997e+01
1.272000000000000028e+02 3.651737673691292940e+01
1.276000000000000085e+02 3.645993292612209302e+01
1.280000000000000000e+02 3.640272085950952174e+01
1.284000000000000057e+02 3.634577557129917125e+01
1.288000000000000114e+02 3.628909495594709256e+01
1.291999999999999886e+02 3.623267693133990974e+01
1.296000000000000227e+02 3.617651943845908846e+01
1.300000000000000000e+02 3.612062044105100966e+01
1.304000000000000057e+02 3.606497792530294078e+01
1.308000000000000114e+02 3.600958989952442835e+01
1.311999999999999886e+02 3.595445439383441055e+01
1.316000000000000227e+02 3.589956945985357351e+01
1.320000000000000000e+02 3.584493317040215743e+01
1.324000000000000057e+02 3.579054361920278637e+01
1.328000000000000114e+02 3.573639892058850620e+01
1.331999999999999886e+02 3.568249720921575374e+01
1.336000000000000227e+02 3.562883663978220028e+01
1.340000000000000000e+02 3.557541538674940540e+01
1.344000000000000057e+02 3.552223164407009648e+01
1.348000000000000114e+02 3.546928362492014486e+01
1.351999999999999886e+02 3.541656956143491897e+01
1.356000000000000227e+02 3.536408770445016359e+01
1.360000000000000000e+02 3.531183632324715660e+01
1.364000000000000057e+02 3.525981370530202952e+01
1.368000000000000114e+02 3.520803037332228058e+01
1.371999999999999886e+02 3.515693998641604168e+01
1.376000000000000227e+02 3.510607051066279638e+01
1.380000000000000000e+02 3.505542033278383229e+01
1.384000000000000057e+02 3.500498785608770191e+01
1.388000000000000114e+02 3.495477150025079993e+01
1.392000000000000171e+02 3.490476970110142929e+01
1.395999999999999943e+02 3.485647980623170383e+01
1.400000000000000000e+02 3.480705854700914870e+01
1.404000000000000057e+02 3.475784638432885032e+01
1.408000000000000114e+02 3.470884182276290630e+01
1.412000000000000171e+02 3.466004338195715917e+01
1.415999999999999943e+02 3.461136816726489229e+01
1.420000000000000000e+02 3.456285057318416420e+01
1.424000000000000057e+02 3.451575657660047369e+01
1.428000000000000114e+02 3.446782342845496316e+01
1.432000000000000171e+02 3.442008887986899879e+01
1.435999999999999943e+02 3.437255154011907621e+01
1.440000000000000000e+02 3.432521003220779932e+01
1.444000000000000057e+02 3.427806299268939227e+01
1.448000000000000114e+02 3.423110907149788318e+01
1.452000000000000171e+02 3.418434693177798067e+01
1.455999999999999943e+02 3.413777524971850852e+01
1.460000000000000000e+02 3.409139271438849761e+01
1.464000000000000057e+02 3.404519802757564406e+01
1.468000000000000114e+02 3.399918990362745319e+01
1.472000000000000171e+02 3.395336706929460746e+01
1.475999999999999943e+02 3.390772826357684266e+01
1.480000000000000000e+02 3.386227223757105520e+01
1.484000000000000057e+02 3.381699775432188915e+01
1.488000000000000114e+02 3.377190358867437681e+01
1.492000000000000171e+02 3.372698852712890982e+01
1.495999999999999943e+02 3.368202407154609546e+01
1.500000000000000000e+02 3.363719828306116000e+01
