1.000000000000000000e+01 1.349636951937843605e+02
1.040000000000000036e+01 1.351403506943828745e+02
1.080000000000000071e+01 1.375474801466975237e+02
1.119999999999999929e+01 1.439120796426365132e+02
1.159999999999999964e+01 1.469418674181032713e+02
1.200000000000000000e+01 1.425960794170479176e+02
1.240000000000000036e+01 1.329158655625232370e+02
1.280000000000000071e+01 1.216617614125695894e+02
1.319999999999999929e+01 1.187885092086426084e+02
1.359999999999999964e+01 1.161288941415857892e+02
1.400000000000000000e+01 1.136560212005898762e+02
1.440000000000000036e+01 1.111637682128128972e+02
1.480000000000000071e+01 1.087567326918564561e+02
1.519999999999999929e+01 1.065114283998875777e+02
1.560000000000000142e+01 1.046583406148388349e+02
1.600000000000000000e+01 1.027794393849703027e+02
1.639999999999999858e+01 1.009529565397646564e+02
1.680000000000000071e+01 9.923655054955644061e+01
1.719999999999999929e+01 9.761939849468870989e+01
1.760000000000000142e+01 9.609212727504073825e+01
1.800000000000000000e+01 9.656481780798243619e+01
1.839999999999999858e+01 9.522429164264806900e+01
1.880000000000000071e+01 9.070123368506526162e+01
1.920000000000000284e+01 8.635732192536130469e+01
1.960000000000000142e+01 8.494180391879574188e+01
2.000000000000000000e+01 8.641211866387848772e+01
2.039999999999999858e+01 8.511087034037726085e+01
2.080000000000000071e+01 8.386573952061525006e+01
2.120000000000000284e+01 8.267276749418557813e+01
2.160000000000000142e+01 8.154627402144774351e+01
2.200000000000000000e+01 8.047187424877395756e+01
2.239999999999999858e+01 7.943803630420580930e+01
2.280000000000000071e+01 7.844225212751987897e+01
2.320000000000000284e+01 7.747134111101868825e+01
2.360000000000000142e+01 7.648974640909580103e+01
2.400000000000000000e+01 7.554108336990950079e+01
2.439999999999999858e+01 7.465923719585609319e+01
2.480000000000000071e+01 7.383170517964080659e+01
2.520000000000000284e+01 7.302868824074550957e+01
2.560000000000000142e+01 7.191636228873126413e+01
2.600000000000000000e+01 7.116767538160365802e+01
2.640000000000000213e+01 7.043957980978937883e+01
2.680000000000000071e+01 6.973112851706414972e+01
2.719999999999999929e+01 6.904143544405695820e+01
2.760000000000000142e+01 6.836967049402241514e+01
2.800000000000000000e+01 6.771505500341260131e+01
2.840000000000000213e+01 6.707685765788626497e+01
2.880000000000000071e+01 6.645439080237551366e+01
2.920000000000000284e+01 6.584700710061042628e+01
2.960000000000000142e+01 6.525409650527507210e+01
3.000000000000000000e+01 6.466780718735819278e+01
3.040000000000000213e+01 6.308408957302462738e+01
3.080000000000000071e+01 6.252282170681527873e+01
3.120000000000000284e+01 6.197452927852283722e+01
3.160000000000000142e+01 6.143871461987576055e+01
3.200000000000000000e+01 6.200166302140274865e+01
3.240000000000000568e+01 6.152126590225676495e+01
3.279999999999999716e+01 6.105116236205836344e+01
3.320000000000000284e+01 6.059098270035384104e+01
3.360000000000000142e+01 6.014037581541721522e+01
3.400000000000000000e+01 5.969900800528824192e+01
3.440000000000000568e+01 5.926656186271534921e+01
3.479999999999999716e+01 5.884273525537729199e+01
3.520000000000000284e+01 5.816204443551801262e+01
3.560000000000000142e+01 5.778536730261026833e+01
3.600000000000000000e+01 5.741565724264080472e+01
3.640000000000000568e+01 5.704602363550065292e+01
3.679999999999999716e+01 5.667223368710644138e+01
3.720000000000000284e+01 5.630531576664658644e+01
3.760000000000000142e+01 5.594505978697834792e+01
3.800000000000000000e+01 5.559126460029576577e+01
3.840000000000000568e+01 5.524373751274971767e+01
3.879999999999999716e+01 5.490229383100209049e+01
3.920000000000000284e+01 5.456675643825425936e+01
3.960000000000000142e+01 5.423695539750656280e+01
4.000000000000000000e+01 5.391272758000014420e+01
4.040000000000000568e+01 5.359279500011667352e+01
4.079999999999999716e+01 5.327662783252189627e+01
4.120000000000000284e+01 5.296994086302753857e+01
4.160000000000000142e+01 5.266834159099265378e+01
4.200000000000000000e+01 5.237168904629295696e+01
4.239999999999999858e+01 5.207984768424202571e+01
4.280000000000000426e+01 5.179268711980326145e+01
4.320000000000000284e+01 5.166363748279547963e+01
4.360000000000000142e+01 5.140232970578672678e+01
4.400000000000000000e+01 5.114493066187073111e+01
4.439999999999999858e+01 5.089134154466066207e+01
4.480000000000000426e+01 5.064146704613418848e+01
4.520000000000000284e+01 5.038918414830157388e+01
4.560000000000000142e+01 5.013784895571598810e+01
4.600000000000000000e+01 4.989016547331491580e+01
4.639999999999999858e+01 4.964604408119262757e+01
4.680000000000000426e+01 4.943551535898033933e+01
4.720000000000000284e+01 4.920138522721157415e+01
4.760000000000000142e+01 4.897051246299127314e+01
4.800000000000000000e+01 4.874282063508466223e+01
4.840000000000000568e+01 4.838205777603013757e+01
4.880000000000000426e+01 4.815764253510572956e+01
4.920000000000000284e+01 4.793627391223419920e+01
4.960000000000000142e+01 4.771788242174851291e+01
5.000000000000000000e+01 4.750240079171144458e+01
5.040000000000000568e+01 4.728660569109378997e+01
5.080000000000000426e+01 4.707253264092372547e+01
5.120000000000000284e+01 4.686126075863354856e+01
5.160000000000000142e+01 4.665272869701523462e+01
5.200000000000000000e+01 4.644687698156300826e+01
5.240000000000000568e+01 4.624364793748116398e+01
5.280000000000000426e+01 4.604298562014298568e+01
5.320000000000000284e+01 4.584432016030633150e+01
5.360000000000000142e+01 4.564770164109020101e+01
5.400000000000000000e+01 4.545349458939188736e+01
5.440000000000000568e+01 4.526164940159624450e+01
5.480000000000000426e+01 4.507211789759426068e+01
5.520000000000000284e+01 4.488485326859667168e+01
5.560000000000000142e+01 4.469964744694061665e+01
5.600000000000000000e+01 4.451421391102661573e+01
5.640000000000000568e+01 4.433089873575090678e+01
5.680000000000000426e+01 4.414966152284754486e+01
5.720000000000000284e+01 4.397046295237959868e+01
5.760000000000000142e+01 4.379326474577671036e+01
5.800000000000000000e+01 4.361802963041752434e+01
5.840000000000000568e+01 4.373267036710214484e+01
5.880000000000000426e+01 4.356768471707984247e+01
5.920000000000000284e+01 4.340445784060661794e+01
5.960000000000000142e+01 4.324295846465986415e+01
6.000000000000000000e+01 4.308315609190739082e+01
6.040000000000000568e+01 4.294096574440382597e+01
6.080000000000000426e+01 4.278537807958917227e+01
6.120000000000000284e+01 4.263139843501872406e+01
6.160000000000000142e+01 4.247899910089743969e+01
6.200000000000000000e+01 4.232815303390312778e+01
6.240000000000000568e+01 4.217883383664502617e+01
6.280000000000000426e+01 4.203101573789366796e+01
6.320000000000000284e+01 4.188467357354751641e+01
6.360000000000000142e+01 4.173978276830465006e+01
6.400000000000000000e+01 4.159631931800790028e+01
6.440000000000000568e+01 4.145425977263525397e+01
6.480000000000001137e+01 4.131358121990693633e+01
6.520000000000000284e+01 4.117426126948328147e+01
6.559999999999999432e+01 4.103627803772830873e+01
6.600000000000000000e+01 4.089961013301490311e+01
6.640000000000000568e+01 4.076455107620900264e+01
6.680000000000001137e+01 4.068083628108879424e+01
6.720000000000000284e+01 4.055313440157617322e+01
6.759999999999999432e+01 4.042658089449529513e+01
6.800000000000000000e+01 4.030113433253868749e+01
6.840000000000000568e+01 4.017681519131961210e+01
6.880000000000001137e+01 4.005360642326903786e+01
6.920000000000000284e+01 3.993149134322521121e+01
6.959999999999999432e+01 3.981045361850748066e+01
7.000000000000000000e+01 3.969047725932244930e+01
7.040000000000000568e+01 3.957154660948938840e+01
7.080000000000001137e+01 3.945364633747244199e+01
7.120000000000000284e+01 3.933676142770752904e+01
7.159999999999999432e+01 3.922070808797038666e+01
7.200000000000000000e+01 3.910514450143065801e+01
7.240000000000000568e+01 3.899055912013893987e+01
7.280000000000001137e+01 3.887693802933739562e+01
7.320000000000000284e+01 3.876426759238405850e+01
7.359999999999999432e+01 3.865253444359277779e+01
7.400000000000000000e+01 3.854172548129852771e+01
7.440000000000000568e+01 3.843182786113969485e+01
7.479999999999999716e+01 3.832282898954931483e+01
7.520000000000000284e+01 3.821471651744765552e+01
7.560000000000000853e+01 3.805174911234526292e+01
7.600000000000000000e+01 3.794135077597665173e+01
7.640000000000000568e+01 3.783726731202531823e+01
7.679999999999999716e+01 3.773401190912271375e+01
7.720000000000000284e+01 3.763157348391295898e+01
7.760000000000000853e+01 3.752946525121736698e+01
7.800000000000000000e+01 3.742803379129215102e+01
7.840000000000000568e+01 3.732740673926274155e+01
7.879999999999999716e+01 3.722757330460692060e+01
7.920000000000000284e+01 3.712852290017720236e+01
7.960000000000000853e+01 3.703024513727854128e+01
8.000000000000000000e+01 3.693272982089099088e+01
8.040000000000000568e+01 3.683596694503255264e+01
8.079999999999999716e+01 3.673994668825730514e+01
8.120000000000000284e+01 3.664465940928407406e+01
8.160000000000000853e+01 3.655009564275138700e+01
8.200000000000000000e+01 3.645624609509418690e+01
8.240000000000000568e+01 3.636310164053834626e+01
8.279999999999999716e+01 3.627065331720901042e+01
8.320000000000000284e+01 3.617889232334891148e+01
8.360000000000000853e+01 3.608781001364295804e+01
8.400000000000000000e+01 3.599722894820371977e+01
8.440000000000000568e+01 3.590717701408843254e+01
8.479999999999999716e+01 3.581758083094889145e+01
8.520000000000000284e+01 3.572755196450849979e+01
8.560000000000000853e+01 3.563817894736327219e+01
8.600000000000000000e+01 3.554945371794515552e+01
8.640000000000000568e+01 3.546136835357781081e+01
8.680000000000001137e+01 3.537391506740991076e+01
8.720000000000000284e+01 3.528708620543091712e+01
8.760000000000000853e+01 3.520260127706642095e+01
8.800000000000000000e+01 3.511866191595608200e+01
8.840000000000000568e+01 3.503530938310159115e+01
8.880000000000001137e+01 3.495253675536375226e+01
8.920000000000000284e+01 3.487033722399376501e+01
8.960000000000000853e+01 3.478870409221207183e+01
9.000000000000000000e+01 3.470763077284973974e+01
9.040000000000000568e+01 3.462711078605011039e+01
9.080000000000001137e+01 3.454713775702913381e+01
9.120000000000000284e+01 3.446770541389255982e+01
9.160000000000000853e+01 3.438880758550826044e+01
9.200000000000000000e+01 3.431043819943211304e+01
9.240000000000000568e+01 3.423259127988576722e+01
9.280000000000001137e+01 3.415618909669558434e+01
9.320000000000000284e+01 3.407990117005768127e+01
9.360000000000000853e+01 3.400411484896969938e+01
9.400000000000000000e+01 3.392882456451400941e+01
9.440000000000000568e+01 3.385402483444475763e+01
9.480000000000001137e+01 3.377971026145879563e+01
9.520000000000000284e+01 3.373173749668740840e+01
9.560000000000000853e+01 3.365942663014479308e+01
9.600000000000000000e+01 3.358757357924699249e+01
9.640000000000000568e+01 3.351617343516066683e+01
9.680000000000001137e+01 3.344522136306451898e+01
9.720000000000000284e+01 3.337471260071501433e+01
9.760000000000000853e+01 3.330464245704587256e+01
9.800000000000000000e+01 3.323473682623614422e+01
9.840000000000000568e+01 3.316522043295290700e+01
9.880000000000001137e+01 3.309612654454695502e+01
9.920000000000000284e+01 3.302745083506938073e+01
9.960000000000000853e+01 3.295918904081596423e+01
1.000000000000000000e+02 3.289133695917314526e+01
1.004000000000000057e+02 3.282389044749024265e+01
1.008000000000000114e+02 3.275684542197716098e+01
1.012000000000000028e+02 3.269019785662680277e+01
1.016000000000000085e+02 3.262394378216173152e+01
1.020000000000000000e+02 3.255795589750143648e+01
1.024000000000000057e+02 3.249225369947284747e+01
1.028000000000000114e+02 3.242693498328958412e+01
1.032000000000000028e+02 3.236199597867738476e+01
1.036000000000000085e+02 3.229737951831312159e+01
1.040000000000000000e+02 3.223267251944960776e+01
1.044000000000000057e+02 3.216833866308943612e+01
1.048000000000000114e+02 3.210437432711012917e+01
1.052000000000000028e+02 3.204077593876669994e+01
1.056000000000000085e+02 3.197746413945087696e+01
1.060000000000000000e+02 3.191448155514409279e+01
1.064000000000000057e+02 3.185185508605684390e+01
1.068000000000000114e+02 3.178958134492455656e+01
1.072000000000000028e+02 3.172765698971448245e+01
1.076000000000000085e+02 3.166607872284795278e+01
1.080000000000000000e+02 3.160484329043909923e+01
1.084000000000000057e+02 3.154394748154939521e+01
1.088000000000000114e+02 3.148338812745783244e+01
1.092000000000000028e+02 3.142316210094627493e+01
1.096000000000000085e+02 3.136326631559952460e+01
1.100000000000000000e+02 3.130369772511990689e+01
1.104000000000000057e+02 3.124445332265590736e+01
1.108000000000000114e+02 3.118553014014458213e+01
1.112000000000000028e+02 3.113136162414257768e+01
1.116000000000000085e+02 3.107369032861584657e+01
1.120000000000000000e+02 3.101505944184335917e+01
1.124000000000000057e+02 3.095848152989328383e+01
1.128000000000000114e+02 3.090220429091181487e+01
1.132000000000000028e+02 3.084622503042287178e+01
1.136000000000000085e+02 3.079054108791299171e+01
1.140000000000000000e+02 3.073514983627952901e+01
1.144000000000000057e+02 3.068004868128976881e+01
1.148000000000000114e+02 3.062523506105087634e+01
1.152000000000000028e+02 3.057070644549017402e+01
1.156000000000000085e+02 3.051646033584573559e+01
1.160000000000000000e+02 3.046249426416694206e+01
1.164000000000000057e+02 3.040880579282470819e+01
1.168000000000000114e+02 3.035824683960488812e+01
1.172000000000000028e+02 3.030518493990398810e+01
1.176000000000000085e+02 3.025239385873213394e+01
1.180000000000000000e+02 3.019987126602345029e+01
1.184000000000000057e+02 3.014761485988752199e+01
1.188000000000000114e+02 3.009562236617059838e+01
1.192000000000000028e+02 3.004389153802514301e+01
1.196000000000000085e+02 2.999242015548756868e+01
1.200000000000000000e+02 2.994120602506391293e+01
1.204000000000000057e+02 2.989024697932337915e+01
1.208000000000000114e+02 2.983954087649948761e+01
1.212000000000000028e+02 2.978908560009868722e+01
1.216000000000000085e+02 2.973885522209463517e+01
1.220000000000000000e+02 2.968863757399401493e+01
1.224000000000000057e+02 2.963866572733591909e+01
1.228000000000000114e+02 2.960271245678764984e+01
1.232000000000000028e+02 2.955374943515396069e+01
1.236000000000000085e+02 2.950502248596757937e+01
1.240000000000000000e+02 2.945652968732072807e+01
1.244000000000000057e+02 2.940820994677812195e+01
1.248000000000000114e+02 2.936001654703512287e+01
1.252000000000000028e+02 2.931205399693753222e+01
1.256000000000000085e+02 2.926432042377556186e+01
1.260000000000000000e+02 2.921681397622704779e+01
1.264000000000000057e+02 2.916953282404317704e+01
1.268000000000000114e+02 2.912247515773975337e+01
1.272000000000000028e+02 2.907563918829407612e+01
1.276000000000000085e+02 2.902902314684708074e+01
1.280000000000000000e+02 2.898262437523884216e+01
1.284000000000000057e+02 2.893643461121150295e+01
1.288000000000000114e+02 2.889045901218374013e+01
1.291999999999999886e+02 2.884469589519825661e+01
1.296000000000000227e+02 2.879914359593484718e+01
1.300000000000000000e+02 2.875380046844464133e+01
1.304000000000000057e+02 2.870866488488879398e+01
1.308000000000000114e+02 2.866373523528184819e+01
1.311999999999999886e+02 2.861900992723948178e+01
1.316000000000000227e+02 2.857448738573059899e+01
1.320000000000000000e+02 2.853016605283377771e+01
1.324000000000000057e+02 2.849022913187210904e+01
1.328000000000000114e+02 2.844663226792328459e+01
1.331999999999999886e+02 2.840323051254954123e+01
1.336000000000000227e+02 2.836002238692169186e+01
1.340000000000000000e+02 2.831700642800795009e+01
1.344000000000000057e+02 2.827418118835642957e+01
1.348000000000000114e+02 2.823154523588144826e+01
1.351999999999999886e+02 2.818909715365328239e+01
1.356000000000000227e+02 2.814683553969155128e+01
1.360000000000000000e+02 2.810475900676194172e+01
1.364000000000000057e+02 2.806286618217640694e+01
1.368000000000000114e+02 2.802116181623799562e+01
1.371999999999999886e+02 2.797987223275345769e+01
1.376000000000000227e+02 2.793876091424765207e+01
1.380000000000000000e+02 2.789782655872899042e+01
1.384000000000000057e+02 2.785706787759355763e+01
1.388000000000000114e+02 2.781648359544789173e+01
1.392000000000000171e+02 2.777607244993457059e+01
1.395999999999999943e+02 2.773583319156072236e+01
1.400000000000000000e+02 2.769576458352909398e+01
1.404000000000000057e+02 2.765133569823598236e+01
1.408000000000000114e+02 2.761181036392454757e+01
1.412000000000000171e+02 2.757245119491328467e+01
1.415999999999999943e+02 2.753317558015148947e+01
1.420000000000000000e+02 2.749401819488736010e+01
1.424000000000000057e+02 2.745502420609684791e+01
1.428000000000000114e+02 2.741619246065196336e+01
1.432000000000000171e+02 2.737749541572369338e+01
1.435999999999999943e+02 2.733890135198238980e+01
1.440000000000000000e+02 2.730046659638564677e+01
1.444000000000000057e+02 2.726219003675118557e+01
1.448000000000000114e+02 2.722407057183145440e+01
1.452000000000000171e+02 2.718610711117514711e+01
1.455999999999999943e+02 2.714829857499086785e+01
1.460000000000000000e+02 2.711064389401295216e+01
1.464000000000000057e+02 2.707314200936926696e+01
1.468000000000000114e+02 2.703579187245111726e+01
1.472000000000000171e+02 2.699859244478509623e+01
1.475999999999999943e+02 2.696154269790692126e+01
1.480000000000000000e+02 2.692464161323714222e+01
1.484000000000000057e+02 2.688788818195879315e+01
1.488000000000000114e+02 2.685128140489684512e+01
1.492000000000000171e+02 2.681482029239953135e+01
1.495999999999999943e+02 2.677839021614522252e+01
1.500000000000000000e+02 2.674208483105490686e+01
