1.000000000000000000e+01 1.017568330163539230e+02
1.040000000000000036e+01 1.278916743169462080e+02
1.080000000000000071e+01 1.492874964711857615e+02
1.119999999999999929e+01 1.680857589389671602e+02
1.159999999999999964e+01 1.902720623302832337e+02
1.200000000000000000e+01 2.395968562642980544e+02
1.240000000000000036e+01 2.774826436508079155e+02
1.280000000000000071e+01 3.061537750113246830e+02
1.319999999999999929e+01 3.108068250873909619e+02
1.359999999999999964e+01 3.175920616633908935e+02
1.400000000000000000e+01 3.303750852762952377e+02
1.440000000000000036e+01 3.408139217301676922e+02
1.480000000000000071e+01 3.336595100634155528e+02
1.519999999999999929e+01 3.270044242995672334e+02
1.560000000000000142e+01 3.207905321138192107e+02
1.600000000000000000e+01 3.149690034777026426e+02
1.639999999999999858e+01 3.094984437703695903e+02
1.680000000000000071e+01 3.043434722800196255e+02
1.719999999999999929e+01 2.994736241473793825e+02
1.760000000000000142e+01 2.948624911818673127e+02
1.800000000000000000e+01 2.904870417683132473e+02
1.839999999999999858e+01 2.863270768738181573e+02
1.880000000000000071e+01 2.823647907589967758e+02
1.920000000000000284e+01 2.785844131429345794e+02
1.960000000000000142e+01 2.749719153829447009e+02
2.000000000000000000e+01 2.715147674363793158e+02
2.039999999999999858e+01 2.682017354557186763e+02
2.080000000000000071e+01 2.650227121564666390e+02
2.120000000000000284e+01 2.619685738141081970e+02
2.160000000000000142e+01 2.590310590474751393e+02
2.200000000000000000e+01 2.562026655413141611e+02
2.239999999999999858e+01 2.534765616291951176e+02
2.280000000000000071e+01 2.508465102558254500e+02
2.320000000000000284e+01 2.483068033067515614e+02
2.360000000000000142e+01 2.458522046638166501e+02
2.400000000000000000e+01 2.434779006393019358e+02
2.439999999999999858e+01 2.411794566774302950e+02
2.480000000000000071e+01 2.389527794017343467e+02
2.520000000000000284e+01 2.367940832405122649e+02
2.560000000000000142e+01 2.346998609877438753e+02
2.600000000000000000e+01 2.326668577592595852e+02
2.640000000000000213e+01 2.306920478881738745e+02
2.680000000000000071e+01 2.287726143731752302e+02
2.719999999999999929e+01 2.269059305509947535e+02
2.760000000000000142e+01 2.250895437124885348e+02
2.800000000000000000e+01 2.233211604220137474e+02
2.840000000000000213e+01 2.215986333335796985e+02
2.880000000000000071e+01 2.199199493257486040e+02
2.920000000000000284e+01 2.182832188013585721e+02
2.960000000000000142e+01 2.166866660185957869e+02
3.000000000000000000e+01 2.151286203373609567e+02
3.040000000000000213e+01 2.136075082797468383e+02
3.080000000000000071e+01 2.121218463161901298e+02
3.120000000000000284e+01 2.106702342998068787e+02
3.160000000000000142e+01 2.092513494808522125e+02
3.200000000000000000e+01 2.078639410413932751e+02
3.240000000000000568e+01 2.065068250973386625e+02
3.279999999999999716e+01 2.051788801210925612e+02
3.320000000000000284e+01 2.038790427434333310e+02
3.360000000000000142e+01 2.026063038978646773e+02
3.400000000000000000e+01 2.013597052747525140e+02
3.440000000000000568e+01 2.001383360561215170e+02
3.479999999999999716e+01 1.989413299051107060e+02
3.520000000000000284e+01 1.977678621868396078e+02
3.560000000000000142e+01 1.966171473998580268e+02
3.600000000000000000e+01 1.954884367994949059e+02
3.640000000000000568e+01 1.943810161963145049e+02
3.679999999999999716e+01 1.932942039145691808e+02
3.720000000000000284e+01 1.922273488970231483e+02
3.760000000000000142e+01 1.911798289438551137e+02
3.800000000000000000e+01 1.901510490745198751e+02
3.840000000000000568e+01 1.891404400025093082e+02
3.879999999999999716e+01 1.881474567138907332e+02
3.920000000000000284e+01 1.871715771413444998e+02
3.960000000000000142e+01 1.862123009261784148e+02
4.000000000000000000e+01 1.852691482614733616e+02
4.040000000000000568e+01 1.843416588101244713e+02
4.079999999999999716e+01 1.834293906920899246e+02
4.120000000000000284e+01 1.825319195356551916e+02
4.160000000000000142e+01 1.816488375879636692e+02
4.200000000000000000e+01 1.807797528804712783e+02
4.239999999999999858e+01 1.799242884453433362e+02
4.280000000000000426e+01 1.790820815791454663e+02
4.320000000000000284e+01 1.782527831504770006e+02
4.360000000000000142e+01 1.774360569484690870e+02
4.400000000000000000e+01 1.766315790693155350e+02
4.439999999999999858e+01 1.758390373382294456e+02
4.480000000000000426e+01 1.750581307644236801e+02
4.520000000000000284e+01 1.742885690268990402e+02
4.560000000000000142e+01 1.735300719889956724e+02
4.600000000000000000e+01 1.727823692398164610e+02
4.639999999999999858e+01 1.720451996607768592e+02
4.680000000000000426e+01 1.713183110156619477e+02
4.720000000000000284e+01 1.706014595626941173e+02
4.760000000000000142e+01 1.698944096872221223e+02
4.800000000000000000e+01 1.691969335537433494e+02
4.840000000000000568e+01 1.685088107760639673e+02
4.880000000000000426e+01 1.678298281044847897e+02
4.920000000000000284e+01 1.671597791289809436e+02
4.960000000000000142e+01 1.664984639974132108e+02
5.000000000000000000e+01 1.658456891478765272e+02
5.040000000000000568e+01 1.652012670543518311e+02
5.080000000000000426e+01 1.645650159848835585e+02
5.120000000000000284e+01 1.639367597715574334e+02
5.160000000000000142e+01 1.633163275916018620e+02
5.200000000000000000e+01 1.627035537589795808e+02
5.240000000000000568e+01 1.620982775258790696e+02
5.280000000000000426e+01 1.615003428935518173e+02
5.320000000000000284e+01 1.609095984319787931e+02
5.360000000000000142e+01 1.603258971078801949e+02
5.400000000000000000e+01 1.597490961206154907e+02
5.440000000000000568e+01 1.591790567455470864e+02
5.480000000000000426e+01 1.586156441844684650e+02
5.520000000000000284e+01 1.580587274227222565e+02
5.560000000000000142e+01 1.575081790926550696e+02
5.600000000000000000e+01 1.569638753430799625e+02
5.640000000000000568e+01 1.564256957144337150e+02
5.680000000000000426e+01 1.558935230193381187e+02
5.720000000000000284e+01 1.553672432282885723e+02
5.760000000000000142e+01 1.548467453602120258e+02
5.800000000000000000e+01 1.543319213776491381e+02
5.840000000000000568e+01 1.538226660863315658e+02
5.880000000000000426e+01 1.533188770389365629e+02
5.920000000000000284e+01 1.528204544428148495e+02
5.960000000000000142e+01 1.523273010714987663e+02
6.000000000000000000e+01 1.518393221798071124e+02
6.040000000000000568e+01 1.513564254223769296e+02
6.080000000000000426e+01 1.508785207754563658e+02
6.120000000000000284e+01 1.504055204618075265e+02
6.160000000000000142e+01 1.499373388785719499e+02
6.200000000000000000e+01 1.494738925279617376e+02
6.240000000000000568e+01 1.490150999506459755e+02
6.280000000000000426e+01 1.485608816617088621e+02
6.320000000000000284e+01 1.481111600890624516e+02
6.360000000000000142e+01 1.476658595142035892e+02
6.400000000000000000e+01 1.472249060152094273e+02
6.440000000000000568e+01 1.467882274118723842e+02
6.480000000000001137e+01 1.463557532128794207e+02
6.520000000000000284e+01 1.459274145649463037e+02
6.559999999999999432e+01 1.455031442038215346e+02
6.600000000000000000e+01 1.450828764070786008e+02
6.640000000000000568e+01 1.446665469486200664e+02
6.680000000000001137e+01 1.442540930548206575e+02
6.720000000000000284e+01 1.438454533622380609e+02
6.759999999999999432e+01 1.434405678768281973e+02
6.800000000000000000e+01 1.430393779345992300e+02
6.840000000000000568e+01 1.426418261636460727e+02
6.880000000000001137e+01 1.422478564475075586e+02
6.920000000000000284e+01 1.418574138897926105e+02
6.959999999999999432e+01 1.414704447800226887e+02
7.000000000000000000e+01 1.410868965606424865e+02
7.040000000000000568e+01 1.407067177951501833e+02
7.080000000000001137e+01 1.403298581373041429e+02
7.120000000000000284e+01 1.399562683013619164e+02
7.159999999999999432e+01 1.395859000333112476e+02
7.200000000000000000e+01 1.392187060830542578e+02
7.240000000000000568e+01 1.388546401775072354e+02
7.280000000000001137e+01 1.384936569945806468e+02
7.320000000000000284e+01 1.381357121380056583e+02
7.359999999999999432e+01 1.377807621129738607e+02
7.400000000000000000e+01 1.374287643025605519e+02
7.440000000000000568e+01 1.370796769449005410e+02
7.479999999999999716e+01 1.367334591110889619e+02
7.520000000000000284e+01 1.363900706837798680e+02
7.560000000000000853e+01 1.360494723364557217e+02
7.600000000000000000e+01 1.357116255133448988e+02
7.640000000000000568e+01 1.353764924099608038e+02
7.679999999999999716e+01 1.350440359542424744e+02
7.720000000000000284e+01 1.347142197882724020e+02
7.760000000000000853e+01 1.343870082505526398e+02
7.800000000000000000e+01 1.340623663588178829e+02
7.840000000000000568e+01 1.337402597933667892e+02
7.879999999999999716e+01 1.334206548808931245e+02
7.920000000000000284e+01 1.331035185787988269e+02
7.960000000000000853e+01 1.327888184599723331e+02
8.000000000000000000e+01 1.324765226980158843e+02
8.040000000000000568e+01 1.321666000529054088e+02
8.079999999999999716e+01 1.318590198570696543e+02
8.120000000000000284e+01 1.315537520018723399e+02
8.160000000000000853e+01 1.312507669244845374e+02
8.200000000000000000e+01 1.309500355951343522e+02
8.240000000000000568e+01 1.306515295047195764e+02
8.279999999999999716e+01 1.303552206527731130e+02
8.320000000000000284e+01 1.300610815357675278e+02
8.360000000000000853e+01 1.297690851357489237e+02
8.400000000000000000e+01 1.294792049092879722e+02
8.440000000000000568e+01 1.291914147767384122e+02
8.479999999999999716e+01 1.289056891117927250e+02
8.520000000000000284e+01 1.286220027313254377e+02
8.560000000000000853e+01 1.283403308855141063e+02
8.600000000000000000e+01 1.280606492482298506e+02
8.640000000000000568e+01 1.277829339076881041e+02
8.680000000000001137e+01 1.275071613573517340e+02
8.720000000000000284e+01 1.272333084870782045e+02
8.760000000000000853e+01 1.269613525745028824e+02
8.800000000000000000e+01 1.266912712766518041e+02
8.840000000000000568e+01 1.264230426217756929e+02
8.880000000000001137e+01 1.261566450013990845e+02
8.920000000000000284e+01 1.258920571625776716e+02
8.960000000000000853e+01 1.256292582003571425e+02
9.000000000000000000e+01 1.253682275504277044e+02
9.040000000000000568e+01 1.251089449819683921e+02
9.080000000000001137e+01 1.248513905906744554e+02
9.120000000000000284e+01 1.245955447919639170e+02
9.160000000000000853e+01 1.243413883143559104e+02
9.200000000000000000e+01 1.240889021930176739e+02
9.240000000000000568e+01 1.238380677634732905e+02
9.280000000000001137e+01 1.235888666554708237e+02
9.320000000000000284e+01 1.233412807870022618e+02
9.360000000000000853e+01 1.230952923584722782e+02
9.400000000000000000e+01 1.228508838470108628e+02
9.440000000000000568e+01 1.226080380009264275e+02
9.480000000000001137e+01 1.223667378342946250e+02
9.520000000000000284e+01 1.221269666216793155e+02
9.560000000000000853e+01 1.218887078929814720e+02
9.600000000000000000e+01 1.216519454284130575e+02
9.640000000000000568e+01 1.214166632535915369e+02
9.680000000000001137e+01 1.211828456347521978e+02
9.720000000000000284e+01 1.209504770740744277e+02
9.760000000000000853e+01 1.207195423051193188e+02
9.800000000000000000e+01 1.204900262883748354e+02
9.840000000000000568e+01 1.202619142069060842e+02
9.880000000000001137e+01 1.200351914621074911e+02
9.920000000000000284e+01 1.198098436695541409e+02
9.960000000000000853e+01 1.195858566549494100e+02
1.000000000000000000e+02 1.193632164501665329e+02
1.004000000000000057e+02 1.191419092893812461e+02
1.008000000000000114e+02 1.189219216052932069e+02
1.012000000000000028e+02 1.187032400254338000e+02
1.016000000000000085e+02 1.184858513685576185e+02
1.020000000000000000e+02 1.182697426411162098e+02
1.024000000000000057e+02 1.180549010338108502e+02
1.028000000000000114e+02 1.178413139182230367e+02
1.032000000000000028e+02 1.176289688435202123e+02
1.036000000000000085e+02 1.174178535332350606e+02
1.040000000000000000e+02 1.172079558821160816e+02
1.044000000000000057e+02 1.169992639530476453e+02
1.048000000000000114e+02 1.167917659740381140e+02
1.052000000000000028e+02 1.165854503352738760e+02
1.056000000000000085e+02 1.163803055862372418e+02
1.060000000000000000e+02 1.161763204328878061e+02
1.064000000000000057e+02 1.159734837349040362e+02
1.068000000000000114e+02 1.157717845029847581e+02
1.072000000000000028e+02 1.155712118962085100e+02
1.076000000000000085e+02 1.153717552194493408e+02
1.080000000000000000e+02 1.151734039208477469e+02
1.084000000000000057e+02 1.149761475893351843e+02
1.088000000000000114e+02 1.147799759522108474e+02
1.092000000000000028e+02 1.145848788727697496e+02
1.096000000000000085e+02 1.143908463479802151e+02
1.100000000000000000e+02 1.141978685062100567e+02
1.104000000000000057e+02 1.140059356050001327e+02
1.108000000000000114e+02 1.138150380288838903e+02
1.112000000000000028e+02 1.136251662872521280e+02
1.116000000000000085e+02 1.134363110122613847e+02
1.120000000000000000e+02 1.132484629567856587e+02
1.124000000000000057e+02 1.130616129924094651e+02
1.128000000000000114e+02 1.128757521074619490e+02
1.132000000000000028e+02 1.126908714050909310e+02
1.136000000000000085e+02 1.125069621013754642e+02
1.140000000000000000e+02 1.123240155234768736e+02
1.144000000000000057e+02 1.121420231078262049e+02
1.148000000000000114e+02 1.119609763983485635e+02
1.152000000000000028e+02 1.117808670447221289e+02
1.156000000000000085e+02 1.116016868006719989e+02
1.160000000000000000e+02 1.114234275222977004e+02
1.164000000000000057e+02 1.112460811664334841e+02
1.168000000000000114e+02 1.110696397890409202e+02
1.172000000000000028e+02 1.108940955436325737e+02
1.176000000000000085e+02 1.107194406797267447e+02
1.180000000000000000e+02 1.105456675413319800e+02
1.184000000000000057e+02 1.103727685654605608e+02
1.188000000000000114e+02 1.102007362806712933e+02
1.192000000000000028e+02 1.100295633056394990e+02
1.196000000000000085e+02 1.098592423477548152e+02
1.200000000000000000e+02 1.096897662017455701e+02
1.204000000000000057e+02 1.095211277483292065e+02
1.208000000000000114e+02 1.093533199528882136e+02
1.212000000000000028e+02 1.091863358641712267e+02
1.216000000000000085e+02 1.090201686130181002e+02
1.220000000000000000e+02 1.088548114111092247e+02
1.224000000000000057e+02 1.086902575497380496e+02
1.228000000000000114e+02 1.085265003986062311e+02
1.232000000000000028e+02 1.083635334046414442e+02
1.236000000000000085e+02 1.082013500908366268e+02
1.240000000000000000e+02 1.080399440551108654e+02
1.244000000000000057e+02 1.078793089691910581e+02
1.248000000000000114e+02 1.077194385775138414e+02
1.252000000000000028e+02 1.075603266961479534e+02
1.256000000000000085e+02 1.074019672117355242e+02
1.260000000000000000e+02 1.072443540804531494e+02
1.264000000000000057e+02 1.070874813269910959e+02
1.268000000000000114e+02 1.069313430435513652e+02
1.272000000000000028e+02 1.067759333888633932e+02
1.276000000000000085e+02 1.066212465872172430e+02
1.280000000000000000e+02 1.064672769275144191e+02
1.284000000000000057e+02 1.063140187623347970e+02
1.288000000000000114e+02 1.061614665070208474e+02
1.291999999999999886e+02 1.060096146387774070e+02
1.296000000000000227e+02 1.058584576957873082e+02
1.300000000000000000e+02 1.057079902763429544e+02
1.304000000000000057e+02 1.055582070379923607e+02
1.308000000000000114e+02 1.054091026967004865e+02
1.311999999999999886e+02 1.052606720260251336e+02
1.316000000000000227e+02 1.051129098563065725e+02
1.320000000000000000e+02 1.049658110738717482e+02
1.324000000000000057e+02 1.048193706202518740e+02
1.328000000000000114e+02 1.046735834914132255e+02
1.331999999999999886e+02 1.045284447370013368e+02
1.336000000000000227e+02 1.043839494595978437e+02
1.340000000000000000e+02 1.042400928139901595e+02
1.344000000000000057e+02 1.040968700064531447e+02
1.348000000000000114e+02 1.039542762940432254e+02
1.351999999999999886e+02 1.038123069839040085e+02
1.356000000000000227e+02 1.036709574325839043e+02
1.360000000000000000e+02 1.035302230453648207e+02
1.364000000000000057e+02 1.033900992756021111e+02
1.368000000000000114e+02 1.032505816240755223e+02
1.371999999999999886e+02 1.031116656383507291e+02
1.376000000000000227e+02 1.029733469121517544e+02
1.380000000000000000e+02 1.028356210847431811e+02
1.384000000000000057e+02 1.026984838403227656e+02
1.388000000000000114e+02 1.025619309074240562e+02
1.392000000000000171e+02 1.024259580583284901e+02
1.395999999999999943e+02 1.022905611084872817e+02
1.400000000000000000e+02 1.021557359159523912e+02
1.404000000000000057e+02 1.020214783808169869e+02
1.408000000000000114e+02 1.018877844446645895e+02
1.412000000000000171e+02 1.017546500900273401e+02
1.415999999999999943e+02 1.016220713398526101e+02
1.420000000000000000e+02 1.014900442569786208e+02
1.424000000000000057e+02 1.013585649436176226e+02
1.428000000000000114e+02 1.012276295408480848e+02
1.432000000000000171e+02 1.010972342281143739e+02
1.435999999999999943e+02 1.009673752227344607e+02
1.440000000000000000e+02 1.008380487794155158e+02
1.444000000000000057e+02 1.007092511897767793e+02
1.448000000000000114e+02 1.005809787818801624e+02
1.452000000000000171e+02 1.004532279197679543e+02
1.455999999999999943e+02 1.003259950030080176e+02
1.460000000000000000e+02 1.001992764662455357e+02
1.464000000000000057e+02 1.000730687787620923e+02
1.468000000000000114e+02 9.994736844404145870e+01
1.472000000000000171e+02 9.982217199934193275e+01
1.475999999999999943e+02 9.969747601527514291e+01
1.480000000000000000e+02 9.957327709539175942e+01
1.484000000000000057e+02 9.944957187577269053e+01
1.488000000000000114e+02 9.932635702462742699e+01
1.492000000000000171e+02 9.920362924189780074e+01
1.495999999999999943e+02 9.908138525886776904e+01
1.500000000000000000e+02 9.895962183777953669e+01
