1.000000000000000000e+01 6.415736473701947489e+02
1.040000000000000036e+01 8.132594134268264270e+02
1.080000000000000071e+01 9.025166308189551501e+02
1.119999999999999929e+01 9.600649277363918372e+02
1.159999999999999964e+01 9.592749084039838863e+02
1.200000000000000000e+01 9.732169108483321907e+02
1.240000000000000036e+01 9.817011916247465706e+02
1.280000000000000071e+01 9.865083711691970620e+02
1.319999999999999929e+01 9.816941462256238538e+02
1.359999999999999964e+01 9.802119981524842842e+02
1.400000000000000000e+01 9.830621706439645777e+02
1.440000000000000036e+01 9.922327902379283842e+02
1.480000000000000071e+01 9.918145031351982652e+02
1.519999999999999929e+01 9.756512227975641736e+02
1.560000000000000142e+01 9.604258511165879781e+02
1.600000000000000000e+01 9.460441684243611462e+02
1.639999999999999858e+01 9.324253643449098945e+02
1.680000000000000071e+01 9.194995805311835966e+02
1.719999999999999929e+01 9.072060008326432126e+02
1.760000000000000142e+01 8.954913463347835432e+02
1.800000000000000000e+01 8.843086748755567896e+02
1.839999999999999858e+01 8.736164129517209176e+02
1.880000000000000071e+01 8.633775673537238617e+02
1.920000000000000284e+01 8.535590774604594344e+02
1.960000000000000142e+01 8.441312788043503588e+02
2.000000000000000000e+01 8.350674555190864794e+02
2.039999999999999858e+01 8.263434644204328379e+02
2.080000000000000071e+01 8.179374172902662394e+02
2.120000000000000284e+01 8.098294108076280509e+02
2.160000000000000142e+01 8.020012957561440317e+02
2.200000000000000000e+01 7.944364788161689148e+02
2.239999999999999858e+01 7.871197515518945238e+02
2.280000000000000071e+01 7.800371422218369162e+02
2.320000000000000284e+01 7.731757868437920251e+02
2.360000000000000142e+01 7.665238165828679939e+02
2.400000000000000000e+01 7.600702590410842276e+02
2.439999999999999858e+01 7.538049514374750970e+02
2.480000000000000071e+01 7.477184640000880336e+02
2.520000000000000284e+01 7.418020321620956565e+02
2.560000000000000142e+01 7.360474963760384526e+02
2.600000000000000000e+01 7.304472485428493655e+02
2.640000000000000213e+01 7.249941842033665580e+02
2.680000000000000071e+01 7.196816597655931673e+02
2.719999999999999929e+01 7.145034541457644082e+02
2.760000000000000142e+01 7.094537342891111393e+02
2.800000000000000000e+01 7.045270241101303554e+02
2.840000000000000213e+01 6.997181764546008935e+02
2.880000000000000071e+01 6.950223477385098931e+02
2.920000000000000284e+01 6.904349749640693972e+02
2.960000000000000142e+01 6.859517548514243117e+02
3.000000000000000000e+01 6.815686248575412947e+02
3.040000000000000213e+01 6.772817458820135244e+02
3.080000000000000071e+01 6.730874864838323219e+02
3.120000000000000284e+01 6.689824084541883167e+02
3.160000000000000142e+01 6.649632536085438232e+02
3.200000000000000000e+01 6.610269316770118166e+02
3.240000000000000568e+01 6.571705091858154901e+02
3.279999999999999716e+01 6.533911992345870203e+02
3.320000000000000284e+01 6.496863520847472273e+02
3.360000000000000142e+01 6.460534464833899619e+02
3.400000000000000000e+01 6.424900816551614753e+02
3.440000000000000568e+01 6.389939699017227213e+02
3.479999999999999716e+01 6.355629297546407770e+02
3.520000000000000284e+01 6.321948796330864297e+02
3.560000000000000142e+01 6.288878319626071516e+02
3.600000000000000000e+01 6.256398877155902483e+02
3.640000000000000568e+01 6.224492313378798372e+02
3.679999999999999716e+01 6.193141260294509038e+02
3.720000000000000284e+01 6.162329093500935642e+02
3.760000000000000142e+01 6.132039891238009659e+02
3.800000000000000000e+01 6.102258396179856845e+02
3.840000000000000568e+01 6.072969979758464660e+02
3.879999999999999716e+01 6.044160608821623555e+02
3.920000000000000284e+01 6.015816814445506679e+02
3.960000000000000142e+01 5.987925662738215351e+02
4.000000000000000000e+01 5.960474727484736377e+02
4.040000000000000568e+01 5.933452064496748335e+02
4.079999999999999716e+01 5.906846187542281541e+02
4.120000000000000284e+01 5.880646045740753607e+02
4.160000000000000142e+01 5.854841002318438541e+02
4.200000000000000000e+01 5.829420814628027756e+02
4.239999999999999858e+01 5.804375615343777781e+02
4.280000000000000426e+01 5.779695894750855132e+02
4.320000000000000284e+01 5.755372484053950757e+02
4.360000000000000142e+01 5.731396539636124317e+02
4.400000000000000000e+01 5.707759528204190929e+02
4.439999999999999858e+01 5.684453212761923169e+02
4.480000000000000426e+01 5.661469639356688504e+02
4.520000000000000284e+01 5.638801124549396491e+02
4.560000000000000142e+01 5.616440243561216903e+02
4.600000000000000000e+01 5.594379819054056497e+02
4.639999999999999858e+01 5.572612910504902857e+02
4.680000000000000426e+01 5.551132804136997265e+02
4.720000000000000284e+01 5.529933003373486144e+02
4.760000000000000142e+01 5.509007219781610729e+02
4.800000000000000000e+01 5.488349364477774088e+02
4.840000000000000568e+01 5.467953539965806158e+02
4.880000000000000426e+01 5.447814032382769938e+02
4.920000000000000284e+01 5.427925304128286825e+02
4.960000000000000142e+01 5.408281986855050718e+02
5.000000000000000000e+01 5.388878874799697769e+02
5.040000000000000568e+01 5.369710918434527684e+02
5.080000000000000426e+01 5.350773218421904858e+02
5.120000000000000284e+01 5.332061019854345432e+02
5.160000000000000142e+01 5.313569706764338889e+02
5.200000000000000000e+01 5.295294796889086228e+02
5.240000000000000568e+01 5.277231936676134865e+02
5.280000000000000426e+01 5.259376896516893112e+02
5.320000000000000284e+01 5.241725566195749479e+02
5.360000000000000142e+01 5.224273950543305318e+02
5.400000000000000000e+01 5.207018165282927384e+02
5.440000000000000568e+01 5.189954433060488554e+02
5.480000000000000426e+01 5.173079079647770868e+02
5.520000000000000284e+01 5.156388530310568967e+02
5.560000000000000142e+01 5.139879306333081104e+02
5.600000000000000000e+01 5.123548021690642145e+02
5.640000000000000568e+01 5.107391379863362886e+02
5.680000000000000426e+01 5.091406170783589573e+02
5.720000000000000284e+01 5.075589267910618219e+02
5.760000000000000142e+01 5.059937625426350678e+02
5.800000000000000000e+01 5.044448275546023979e+02
5.840000000000000568e+01 5.029118325938458156e+02
5.880000000000000426e+01 5.013944957250519678e+02
5.920000000000000284e+01 4.998925420730872133e+02
5.960000000000000142e+01 4.984057035948307544e+02
6.000000000000000000e+01 4.969337188600200079e+02
6.040000000000000568e+01 4.954763328406912137e+02
6.080000000000000426e+01 4.940332967088149303e+02
6.120000000000000284e+01 4.926043676417522761e+02
6.160000000000000142e+01 4.911893086351737452e+02
6.200000000000000000e+01 4.897878883231035729e+02
6.240000000000000568e+01 4.883998808047695093e+02
6.280000000000000426e+01 4.870250654779543424e+02
6.320000000000000284e+01 4.856632268785603515e+02
6.360000000000000142e+01 4.843141545261147485e+02
6.400000000000000000e+01 4.829776427749547452e+02
6.440000000000000568e+01 4.816534906708480435e+02
6.480000000000001137e+01 4.803415018128114866e+02
6.520000000000000284e+01 4.790414842199097052e+02
6.559999999999999432e+01 4.777532502028166732e+02
6.600000000000000000e+01 4.764766162399437235e+02
6.640000000000000568e+01 4.752114028579399587e+02
6.680000000000001137e+01 4.739574345163844100e+02
6.720000000000000284e+01 4.727145394964931029e+02
6.759999999999999432e+01 4.714825497936818124e+02
6.800000000000000000e+01 4.702613010138208551e+02
6.840000000000000568e+01 4.690506322730354896e+02
6.880000000000001137e+01 4.678503861009086222e+02
6.920000000000000284e+01 4.666604083469481452e+02
6.959999999999999432e+01 4.654805480901900410e+02
7.000000000000000000e+01 4.643106575518129375e+02
7.040000000000000568e+01 4.631505920106454255e+02
7.080000000000001137e+01 4.620002097214524497e+02
7.120000000000000284e+01 4.608593718358952174e+02
7.159999999999999432e+01 4.597279423260577005e+02
7.200000000000000000e+01 4.586057879104449739e+02
7.240000000000000568e+01 4.574927779823560741e+02
7.280000000000001137e+01 4.563887845405438952e+02
7.320000000000000284e+01 4.552936821220733918e+02
7.359999999999999432e+01 4.542073477372986758e+02
7.400000000000000000e+01 4.531296608068763021e+02
7.440000000000000568e+01 4.520605031007443131e+02
7.479999999999999716e+01 4.509997586789895081e+02
7.520000000000000284e+01 4.499473138345369989e+02
7.560000000000000853e+01 4.489030570375962839e+02
7.600000000000000000e+01 4.478668788817962536e+02
7.640000000000000568e+01 4.468386720319545589e+02
7.679999999999999716e+01 4.458183311734164818e+02
7.720000000000000284e+01 4.448057529629123223e+02
7.760000000000000853e+01 4.438008359808769683e+02
7.800000000000000000e+01 4.428034806851810572e+02
7.840000000000000568e+01 4.418135893662253011e+02
7.879999999999999716e+01 4.408310661033481210e+02
7.920000000000000284e+01 4.398558167225030502e+02
7.960000000000000853e+01 4.388877487551633294e+02
8.000000000000000000e+01 4.379267713984080501e+02
8.040000000000000568e+01 4.369727954761524984e+02
8.079999999999999716e+01 4.360257334014846151e+02
8.120000000000000284e+01 4.350854991400667018e+02
8.160000000000000853e+01 4.341520081745706534e+02
8.200000000000000000e+01 4.332251774701104523e+02
8.240000000000000568e+01 4.323049254406376463e+02
8.279999999999999716e+01 4.313911719162715031e+02
8.320000000000000284e+01 4.304838381115295078e+02
8.360000000000000853e+01 4.295828465944312597e+02
8.400000000000000000e+01 4.286881212564465500e+02
8.440000000000000568e+01 4.277995872832599957e+02
8.479999999999999716e+01 4.269171711263271618e+02
8.520000000000000284e+01 4.260408004751956241e+02
8.560000000000000853e+01 4.251704042305671010e+02
8.600000000000000000e+01 4.243059124780779712e+02
8.640000000000000568e+01 4.234472564627737938e+02
8.680000000000001137e+01 4.225943685642579908e+02
8.720000000000000284e+01 4.217471822724932053e+02
8.760000000000000853e+01 4.209056321642328271e+02
8.800000000000000000e+01 4.200696538800676763e+02
8.840000000000000568e+01 4.192391841020643142e+02
8.880000000000001137e+01 4.184141605319803716e+02
8.920000000000000284e+01 4.175945218700366581e+02
8.960000000000000853e+01 4.167802077942322967e+02
9.000000000000000000e+01 4.159711589401821925e+02
9.040000000000000568e+01 4.151673168814666610e+02
9.080000000000001137e+01 4.143686241104719556e+02
9.120000000000000284e+01 4.135750240197127710e+02
9.160000000000000853e+01 4.127864608836172238e+02
9.200000000000000000e+01 4.120028798407662407e+02
9.240000000000000568e+01 4.112242268765679682e+02
9.280000000000001137e+01 4.104504488063599297e+02
9.320000000000000284e+01 4.096814932589231830e+02
9.360000000000000853e+01 4.089173086603977936e+02
9.400000000000000000e+01 4.081578442185879112e+02
9.440000000000000568e+01 4.074030499076454248e+02
9.480000000000001137e+01 4.066528764531207685e+02
9.520000000000000284e+01 4.059072753173712726e+02
9.560000000000000853e+01 4.051661986853171129e+02
9.600000000000000000e+01 4.044295994505334875e+02
9.640000000000000568e+01 4.036974312016715771e+02
9.680000000000001137e+01 4.029696482091979419e+02
9.720000000000000284e+01 4.022462054124441693e+02
9.760000000000000853e+01 4.015270584069568827e+02
9.800000000000000000e+01 4.008121634321428246e+02
9.840000000000000568e+01 4.001014773591959397e+02
9.880000000000001137e+01 3.993949576793051506e+02
9.920000000000000284e+01 3.986925624921287863e+02
9.960000000000000853e+01 3.979942504945339010e+02
1.000000000000000000e+02 3.972999809695892282e+02
1.004000000000000057e+02 3.966097137758073927e+02
1.008000000000000114e+02 3.959234093366292200e+02
1.012000000000000028e+02 3.952410286301432052e+02
1.016000000000000085e+02 3.945625331790335508e+02
1.020000000000000000e+02 3.938878850407528489e+02
1.024000000000000057e+02 3.932170467979109389e+02
1.028000000000000114e+02 3.925499815488755644e+02
1.032000000000000028e+02 3.918866528985793707e+02
1.036000000000000085e+02 3.912270249495281291e+02
1.040000000000000000e+02 3.905710622930033082e+02
1.044000000000000057e+02 3.899187300004560370e+02
1.048000000000000114e+02 3.892699936150874009e+02
1.052000000000000028e+02 3.886248191436081925e+02
1.056000000000000085e+02 3.879831730481758427e+02
1.060000000000000000e+02 3.873450222385031338e+02
1.064000000000000057e+02 3.867103340641349973e+02
1.068000000000000114e+02 3.860790763068872025e+02
1.072000000000000028e+02 3.854512171734457411e+02
1.076000000000000085e+02 3.848267252881211107e+02
1.080000000000000000e+02 3.842055696857534031e+02
1.084000000000000057e+02 3.835877198047658112e+02
1.088000000000000114e+02 3.829731454803618362e+02
1.092000000000000028e+02 3.823618169378634661e+02
1.096000000000000085e+02 3.817537047861854376e+02
1.100000000000000000e+02 3.811487800114442734e+02
1.104000000000000057e+02 3.805470139706974919e+02
1.108000000000000114e+02 3.799483783858099741e+02
1.112000000000000028e+02 3.793528453374448191e+02
1.116000000000000085e+02 3.787603872591756158e+02
1.120000000000000000e+02 3.781709769317164387e+02
1.124000000000000057e+02 3.775845874772686557e+02
1.128000000000000114e+02 3.770011923539794338e+02
1.132000000000000028e+02 3.764207653505112035e+02
1.136000000000000085e+02 3.758432805807182149e+02
1.140000000000000000e+02 3.752687124784283696e+02
1.144000000000000057e+02 3.746970357923279948e+02
1.148000000000000114e+02 3.741282255809463777e+02
1.152000000000000028e+02 3.735622572077379573e+02
1.156000000000000085e+02 3.729991063362616615e+02
1.160000000000000000e+02 3.724387489254515344e+02
1.164000000000000057e+02 3.718811612249803034e+02
1.168000000000000114e+02 3.713263197707118479e+02
1.172000000000000028e+02 3.707742013802400152e+02
1.176000000000000085e+02 3.702247831485134952e+02
1.180000000000000000e+02 3.696780424435446548e+02
1.184000000000000057e+02 3.691339569021974398e+02
1.188000000000000114e+02 3.685925044260573600e+02
1.192000000000000028e+02 3.680536631773778709e+02
1.196000000000000085e+02 3.675174115751032105e+02
1.200000000000000000e+02 3.669837282909657006e+02
1.204000000000000057e+02 3.664525922456555804e+02
1.208000000000000114e+02 3.659239826050621787e+02
1.212000000000000028e+02 3.653978787765845482e+02
1.216000000000000085e+02 3.648742604055100855e+02
1.220000000000000000e+02 3.643531073714597142e+02
1.224000000000000057e+02 3.638343997848986078e+02
1.228000000000000114e+02 3.633181179837098398e+02
1.232000000000000028e+02 3.628042425298310150e+02
1.236000000000000085e+02 3.622927542059514963e+02
1.240000000000000000e+02 3.617836340122696583e+02
1.244000000000000057e+02 3.612768631633083487e+02
1.248000000000000114e+02 3.607724230847869649e+02
1.252000000000000028e+02 3.602702954105508297e+02
1.256000000000000085e+02 3.597704619795541703e+02
1.260000000000000000e+02 3.592729048328965860e+02
1.264000000000000057e+02 3.587776062109132909e+02
1.268000000000000114e+02 3.582845485503149803e+02
1.272000000000000028e+02 3.577937144813796522e+02
1.276000000000000085e+02 3.573050868251925181e+02
1.280000000000000000e+02 3.568186485909347994e+02
1.284000000000000057e+02 3.563343829732192489e+02
1.288000000000000114e+02 3.558522733494724548e+02
1.291999999999999886e+02 3.553723032773623345e+02
1.296000000000000227e+02 3.548944564922692280e+02
1.300000000000000000e+02 3.544187169048020678e+02
1.304000000000000057e+02 3.539450685983554195e+02
1.308000000000000114e+02 3.534734958267097227e+02
1.311999999999999886e+02 3.530039830116709254e+02
1.316000000000000227e+02 3.525365147407518407e+02
1.320000000000000000e+02 3.520710757648913045e+02
1.324000000000000057e+02 3.516076509962124987e+02
1.328000000000000114e+02 3.511462255058193023e+02
1.331999999999999886e+02 3.506867845216286241e+02
1.336000000000000227e+02 3.502293134262398553e+02
1.340000000000000000e+02 3.497737977548392792e+02
1.344000000000000057e+02 3.493202231931396113e+02
1.348000000000000114e+02 3.488685755753535886e+02
1.351999999999999886e+02 3.484188408822006409e+02
1.356000000000000227e+02 3.479710052389469297e+02
1.360000000000000000e+02 3.475250549134772768e+02
1.364000000000000057e+02 3.470809763143984128e+02
1.368000000000000114e+02 3.466387559891735464e+02
1.371999999999999886e+02 3.461983806222871181e+02
1.376000000000000227e+02 3.457598370334389415e+02
1.380000000000000000e+02 3.453231121757683582e+02
1.384000000000000057e+02 3.448881931341056202e+02
1.388000000000000114e+02 3.444550671232533432e+02
1.392000000000000171e+02 3.440237214862931410e+02
1.395999999999999943e+02 3.435941436929218753e+02
1.400000000000000000e+02 3.431663213378111550e+02
1.404000000000000057e+02 3.427402421389965639e+02
1.408000000000000114e+02 3.423158939362895126e+02
1.412000000000000171e+02 3.418932646897149539e+02
1.415999999999999943e+02 3.414723424779751895e+02
1.420000000000000000e+02 3.410531154969343675e+02
1.424000000000000057e+02 3.406355720581310607e+02
1.428000000000000114e+02 3.402197005873096032e+02
1.432000000000000171e+02 3.398054896229781434e+02
1.435999999999999943e+02 3.393929278149863080e+02
1.440000000000000000e+02 3.389820039231259443e+02
1.444000000000000057e+02 3.385727068157535768e+02
1.448000000000000114e+02 3.381650254684335550e+02
1.452000000000000171e+02 3.377589489626025738e+02
1.455999999999999943e+02 3.373544664842538054e+02
1.460000000000000000e+02 3.369515673226414947e+02
1.464000000000000057e+02 3.365502408690057337e+02
1.468000000000000114e+02 3.361504766153157107e+02
1.472000000000000171e+02 3.357522641530323426e+02
1.475999999999999943e+02 3.353555931718897227e+02
1.480000000000000000e+02 3.349604534586940190e+02
1.484000000000000057e+02 3.345668348961422680e+02
1.488000000000000114e+02 3.341747274616560617e+02
1.492000000000000171e+02 3.337841212262351860e+02
1.495999999999999943e+02 3.333950063533267212e+02
1.500000000000000000e+02 3.330073730977115360e+02
