1.000000000000000000e+01 3.877979834196705866e+01
1.040000000000000036e+01 4.522784343342183888e+01
1.080000000000000071e+01 5.312099288875978687e+01
1.119999999999999929e+01 6.514524391383262980e+01
1.159999999999999964e+01 7.869322421990926841e+01
1.200000000000000000e+01 7.805808329977115534e+01
1.240000000000000036e+01 7.450813894699216178e+01
1.280000000000000071e+01 7.157098726119470200e+01
1.319999999999999929e+01 6.910749744321876165e+01
1.359999999999999964e+01 6.690651850381028964e+01
1.400000000000000000e+01 6.492342883443490109e+01
1.440000000000000036e+01 6.325383507210064238e+01
1.480000000000000071e+01 6.187576554278746954e+01
1.519999999999999929e+01 6.061102891392118863e+01
1.560000000000000142e+01 5.944464398325223442e+01
1.600000000000000000e+01 5.836429326044339660e+01
1.639999999999999858e+01 5.735973772258151371e+01
1.680000000000000071e+01 5.642238263272540877e+01
1.719999999999999929e+01 5.554495011473365906e+01
1.760000000000000142e+01 5.472122860154044588e+01
1.800000000000000000e+01 5.394587857527518793e+01
1.839999999999999858e+01 5.321428015502115727e+01
1.880000000000000071e+01 5.252241222219878125e+01
1.920000000000000284e+01 5.186675561073091245e+01
1.960000000000000142e+01 5.124421486939560566e+01
2.000000000000000000e+01 5.065205450737887816e+01
2.039999999999999858e+01 5.008784664305485990e+01
2.080000000000000071e+01 4.546882298096366526e+01
2.120000000000000284e+01 4.493750926107871635e+01
2.160000000000000142e+01 4.442822569221728202e+01
2.200000000000000000e+01 4.393945091649052870e+01
2.239999999999999858e+01 4.346980855215781503e+01
2.280000000000000071e+01 4.301804974222706335e+01
2.320000000000000284e+01 4.258303822142535466e+01
2.360000000000000142e+01 3.806243651959741214e+01
2.400000000000000000e+01 3.762585004463691263e+01
2.439999999999999858e+01 3.720397064475084647e+01
2.480000000000000071e+01 3.679597221345143510e+01
2.520000000000000284e+01 3.640109323964395571e+01
2.560000000000000142e+01 3.601863037654200639e+01
2.600000000000000000e+01 3.564793278339931959e+01
2.640000000000000213e+01 3.528839713187961991e+01
2.680000000000000071e+01 3.493946318608531953e+01
2.719999999999999929e+01 3.460060987941707111e+01
2.760000000000000142e+01 3.427135182313272566e+01
2.800000000000000000e+01 3.395123619118433567e+01
2.840000000000000213e+01 3.363983993400586314e+01
2.880000000000000071e+01 3.332869883159125379e+01
2.920000000000000284e+01 3.300759230185932580e+01
2.960000000000000142e+01 3.269501958854345247e+01
3.000000000000000000e+01 3.239060641908383786e+01
3.040000000000000213e+01 3.209400125168156848e+01
3.080000000000000071e+01 3.180487352140652035e+01
3.120000000000000284e+01 3.152291204964363658e+01
3.160000000000000142e+01 3.124782359913290719e+01
3.200000000000000000e+01 3.097933155905281666e+01
3.240000000000000568e+01 3.071717474648877300e+01
3.279999999999999716e+01 3.046110631226169119e+01
3.320000000000000284e+01 3.019962838338955891e+01
3.360000000000000142e+01 2.993694457430375166e+01
3.400000000000000000e+01 2.968020979370332668e+01
3.440000000000000568e+01 2.942920275925861873e+01
3.479999999999999716e+01 2.918371356663265459e+01
3.520000000000000284e+01 2.894354294683617113e+01
3.560000000000000142e+01 2.870850158208048697e+01
3.600000000000000000e+01 2.847840947475032181e+01
3.640000000000000568e+01 2.825309536468228799e+01
3.679999999999999716e+01 2.803239619043239372e+01
3.720000000000000284e+01 2.781615659065469259e+01
3.760000000000000142e+01 2.760422844210432913e+01
3.800000000000000000e+01 2.739647043112229241e+01
3.840000000000000568e+01 2.719274765576805208e+01
3.879999999999999716e+01 2.699293125603900023e+01
3.920000000000000284e+01 2.679689806986016620e+01
3.960000000000000142e+01 2.660453031274543889e+01
4.000000000000000000e+01 2.641571527922653928e+01
4.040000000000000568e+01 2.623034506432108515e+01
4.079999999999999716e+01 2.604831630346721028e+01
4.120000000000000284e+01 2.586952992949341734e+01
4.160000000000000142e+01 2.569389094531911866e+01
4.200000000000000000e+01 2.552130821119478554e+01
4.239999999999999858e+01 2.561295943602577552e+01
4.280000000000000426e+01 2.546857813405807036e+01
4.320000000000000284e+01 2.532646097602543023e+01
4.360000000000000142e+01 2.518654883657458399e+01
4.400000000000000000e+01 2.504878474837518354e+01
4.439999999999999858e+01 2.491311380119471153e+01
4.480000000000000426e+01 2.477948304671559399e+01
4.520000000000000284e+01 2.464784140871034168e+01
4.560000000000000142e+01 2.451813959822024813e+01
4.600000000000000000e+01 2.439033003341011252e+01
4.639999999999999858e+01 2.426436676379591617e+01
4.680000000000000426e+01 2.414020539856498004e+01
4.720000000000000284e+01 2.401780303872866185e+01
4.760000000000000142e+01 2.389711821286692128e+01
4.800000000000000000e+01 2.396770342118615460e+01
4.840000000000000568e+01 2.386781541871536305e+01
4.880000000000000426e+01 2.376916987767200595e+01
4.920000000000000284e+01 2.367174104885077313e+01
4.960000000000000142e+01 2.357550392618061608e+01
5.000000000000000000e+01 2.348043421935931363e+01
5.040000000000000568e+01 2.338650832770804300e+01
5.080000000000000426e+01 2.329370331518257586e+01
5.120000000000000284e+01 2.320199688648116165e+01
5.160000000000000142e+01 2.311136736419291537e+01
5.200000000000000000e+01 2.302179366693366092e+01
5.240000000000000568e+01 2.293325528841934613e+01
5.280000000000000426e+01 2.284573227742997403e+01
5.320000000000000284e+01 2.275920521861975487e+01
5.360000000000000142e+01 2.267365521413156770e+01
5.400000000000000000e+01 2.258906386597631410e+01
5.440000000000000568e+01 2.250541325913996360e+01
5.480000000000000426e+01 2.242268594538295545e+01
5.520000000000000284e+01 2.234086492769885268e+01
5.560000000000000142e+01 2.225993364540074282e+01
5.600000000000000000e+01 2.217464188472719400e+01
5.640000000000000568e+01 2.208941311997492107e+01
5.680000000000000426e+01 2.200513905887052601e+01
5.720000000000000284e+01 2.192180185287298499e+01
5.760000000000000142e+01 2.183938411996016171e+01
5.800000000000000000e+01 2.175786892899319014e+01
5.840000000000000568e+01 2.167723978471924084e+01
5.880000000000000426e+01 2.159748061338195413e+01
5.920000000000000284e+01 2.151857574891056402e+01
5.960000000000000142e+01 2.144050991966032882e+01
6.000000000000000000e+01 2.136326823567830502e+01
6.040000000000000568e+01 2.128683617646999693e+01
6.080000000000000426e+01 2.121119957924365451e+01
6.120000000000000284e+01 2.113634462761035238e+01
6.160000000000000142e+01 2.106225784071884632e+01
6.200000000000000000e+01 2.098892606280572082e+01
6.240000000000000568e+01 2.091633645314198731e+01
6.280000000000000426e+01 2.084238829660825232e+01
6.320000000000000284e+01 2.076633039642507583e+01
6.360000000000000142e+01 2.069105801140371526e+01
6.400000000000000000e+01 2.061655764365267629e+01
6.440000000000000568e+01 2.054281611924132989e+01
6.480000000000001137e+01 2.046982057823667489e+01
6.520000000000000284e+01 2.039755846511309301e+01
6.559999999999999432e+01 2.032601751951873581e+01
6.600000000000000000e+01 2.025518576738291898e+01
6.640000000000000568e+01 2.018505151234973027e+01
6.680000000000001137e+01 2.011560332752365809e+01
6.720000000000000284e+01 2.004683004751404241e+01
6.759999999999999432e+01 1.997872076076540537e+01
6.800000000000000000e+01 1.991126480216180283e+01
6.840000000000000568e+01 1.984445174589345484e+01
6.880000000000001137e+01 1.977827139857483729e+01
6.920000000000000284e+01 1.971271379260379675e+01
6.959999999999999432e+01 1.964776917975166981e+01
7.000000000000000000e+01 1.958342802497504209e+01
7.040000000000000568e+01 1.951968100044006604e+01
7.080000000000001137e+01 1.945651897975076849e+01
7.120000000000000284e+01 1.939393303237313404e+01
7.159999999999999432e+01 1.933191441824715895e+01
7.200000000000000000e+01 1.927045458257942556e+01
7.240000000000000568e+01 1.920954515080902780e+01
7.280000000000001137e+01 1.914917792374017580e+01
7.320000000000000284e+01 1.908934487283475434e+01
7.359999999999999432e+01 1.903003813565894120e+01
7.400000000000000000e+01 1.897125001147767165e+01
7.440000000000000568e+01 1.891297295699152414e+01
7.479999999999999716e+01 1.885519958221040682e+01
7.520000000000000284e+01 1.901144901652259023e+01
7.560000000000000853e+01 1.895706640339005844e+01
7.600000000000000000e+01 1.890313877551717781e+01
7.640000000000000568e+01 1.884965975058997856e+01
7.679999999999999716e+01 1.879662307201235905e+01
7.720000000000000284e+01 1.874402260571884682e+01
7.760000000000000853e+01 1.869185233708608962e+01
7.800000000000000000e+01 1.864010636793950582e+01
7.840000000000000568e+01 1.858877891365155932e+01
7.879999999999999716e+01 1.853786430032842958e+01
7.920000000000000284e+01 1.848735696208184720e+01
7.960000000000000853e+01 1.843725143838304348e+01
8.000000000000000000e+01 1.838754237149596094e+01
8.040000000000000568e+01 1.833822450398683657e+01
8.079999999999999716e+01 1.828929267630752520e+01
8.120000000000000284e+01 1.824074182445003345e+01
8.160000000000000853e+01 1.819256697766962105e+01
8.200000000000000000e+01 1.814476325627430953e+01
8.240000000000000568e+01 1.809732586947837518e+01
8.279999999999999716e+01 1.805025011331765938e+01
8.320000000000000284e+01 1.800353136862467096e+01
8.360000000000000853e+01 1.813805687351779738e+01
8.400000000000000000e+01 1.809431285549290180e+01
8.440000000000000568e+01 1.805088852359972407e+01
8.479999999999999716e+01 1.800777993185842263e+01
8.520000000000000284e+01 1.796498320298983842e+01
8.560000000000000853e+01 1.792249452687013189e+01
8.600000000000000000e+01 1.788031015902802068e+01
8.640000000000000568e+01 1.783842641918330685e+01
8.680000000000001137e+01 1.779683968982524789e+01
8.720000000000000284e+01 1.775554641482953144e+01
8.760000000000000853e+01 1.771454309811266370e+01
8.800000000000000000e+01 1.767382630232248886e+01
8.840000000000000568e+01 1.763339264756371350e+01
8.880000000000001137e+01 1.759323881015738777e+01
8.920000000000000284e+01 1.755336152143319239e+01
8.960000000000000853e+01 1.751375756655351879e+01
9.000000000000000000e+01 1.747442378336842950e+01
9.040000000000000568e+01 1.743535706130040097e+01
9.080000000000001137e+01 1.739655434025810976e+01
9.120000000000000284e+01 1.735801260957813952e+01
9.160000000000000853e+01 1.731972890699397993e+01
9.200000000000000000e+01 1.728170031763138326e+01
9.240000000000000568e+01 1.724392397302921864e+01
9.280000000000001137e+01 1.720639705018521681e+01
9.320000000000000284e+01 1.716911677062568842e+01
9.360000000000000853e+01 1.713208039949860861e+01
9.400000000000000000e+01 1.709528524468937150e+01
9.440000000000000568e+01 1.705875098763793574e+01
9.480000000000001137e+01 1.702249300310095492e+01
9.520000000000000284e+01 1.698646506202172191e+01
9.560000000000000853e+01 1.695066471263909236e+01
9.600000000000000000e+01 1.691508953990077657e+01
9.640000000000000568e+01 1.687973716475551100e+01
9.680000000000001137e+01 1.684460524346201638e+01
9.720000000000000284e+01 1.680969146691411709e+01
9.760000000000000853e+01 1.677499355998168795e+01
9.800000000000000000e+01 1.674050928086686696e+01
9.840000000000000568e+01 1.670623642047528534e+01
9.880000000000001137e+01 1.667217280180171457e+01
9.920000000000000284e+01 1.663831627932989932e+01
9.960000000000000853e+01 1.660466473844605417e+01
1.000000000000000000e+02 1.657121609486580027e+01
1.004000000000000057e+02 1.653796829407400892e+01
1.008000000000000114e+02 1.650491931077737462e+01
1.012000000000000028e+02 1.647206714836926977e+01
1.016000000000000085e+02 1.643940983840655790e+01
1.020000000000000000e+02 1.640694544009813427e+01
1.024000000000000057e+02 1.637467203980476782e+01
1.028000000000000114e+02 1.634258775055006652e+01
1.032000000000000028e+02 1.631069071154215067e+01
1.036000000000000085e+02 1.627897908770587065e+01
1.040000000000000000e+02 1.624744007938804558e+01
1.044000000000000057e+02 1.621603721038355772e+01
1.048000000000000114e+02 1.618481318523452117e+01
1.052000000000000028e+02 1.615376630029548011e+01
1.056000000000000085e+02 1.612289487464187943e+01
1.060000000000000000e+02 1.609219724968112075e+01
1.064000000000000057e+02 1.606167178877178969e+01
1.068000000000000114e+02 1.603131687685080209e+01
1.072000000000000028e+02 1.600113092006823834e+01
1.076000000000000085e+02 1.597111234542974501e+01
1.080000000000000000e+02 1.594125960044624080e+01
1.084000000000000057e+02 1.591157115279083811e+01
1.088000000000000114e+02 1.588204548996276344e+01
1.092000000000000028e+02 1.585268111895807408e+01
1.096000000000000085e+02 1.582347656594705043e+01
1.100000000000000000e+02 1.579443037595814303e+01
1.104000000000000057e+02 1.576554111256819724e+01
1.108000000000000114e+02 1.573680735759894844e+01
1.112000000000000028e+02 1.570822771081952496e+01
1.116000000000000085e+02 1.567980078965488033e+01
1.120000000000000000e+02 1.565152522890005038e+01
1.124000000000000057e+02 1.562339968043993821e+01
1.128000000000000114e+02 1.559542281297473210e+01
1.132000000000000028e+02 1.556759331175061334e+01
1.136000000000000085e+02 1.553990987829578074e+01
1.140000000000000000e+02 1.551237123016157682e+01
1.144000000000000057e+02 1.548497610066863572e+01
1.148000000000000114e+02 1.545772323865795883e+01
1.152000000000000028e+02 1.543061140824675448e+01
1.156000000000000085e+02 1.540363938858897086e+01
1.160000000000000000e+02 1.537680597364044388e+01
1.164000000000000057e+02 1.535010997192840598e+01
1.168000000000000114e+02 1.532355020632555842e+01
1.172000000000000028e+02 1.529712551382818830e+01
1.176000000000000085e+02 1.527083474533868923e+01
1.180000000000000000e+02 1.522314025907313706e+01
1.184000000000000057e+02 1.519761891536287379e+01
1.188000000000000114e+02 1.517222541345581988e+01
1.192000000000000028e+02 1.514695867731311552e+01
1.196000000000000085e+02 1.512181764361949377e+01
1.200000000000000000e+02 1.509680126158957592e+01
1.204000000000000057e+02 1.507190849277782263e+01
1.208000000000000114e+02 1.504713831089198628e+01
1.212000000000000028e+02 1.502248970161001651e+01
1.216000000000000085e+02 1.499796166240033557e+01
1.220000000000000000e+02 1.497355320234540343e+01
1.224000000000000057e+02 1.494926334196853368e+01
1.228000000000000114e+02 1.492509111306384284e+01
1.232000000000000028e+02 1.490103555852930484e+01
1.236000000000000085e+02 1.487709573220280213e+01
1.240000000000000000e+02 1.485327069870120553e+01
1.244000000000000057e+02 1.482955953326222875e+01
1.248000000000000114e+02 1.480596132158924938e+01
1.252000000000000028e+02 1.478247515969881576e+01
1.256000000000000085e+02 1.475910015377086637e+01
1.260000000000000000e+02 1.473583542000170610e+01
1.264000000000000057e+02 1.471268008445943565e+01
1.268000000000000114e+02 1.468963328294207926e+01
1.272000000000000028e+02 1.466669416083809274e+01
1.276000000000000085e+02 1.464386187298934772e+01
1.280000000000000000e+02 1.462113558355655485e+01
1.284000000000000057e+02 1.459851446588699275e+01
1.288000000000000114e+02 1.457599770238448578e+01
1.291999999999999886e+02 1.454021838398458399e+01
1.296000000000000227e+02 1.451836352410332509e+01
1.300000000000000000e+02 1.449660815237669986e+01
1.304000000000000057e+02 1.447495150498741623e+01
1.308000000000000114e+02 1.445339282637679190e+01
1.311999999999999886e+02 1.443193136912954877e+01
1.316000000000000227e+02 1.441056639386060390e+01
1.320000000000000000e+02 1.438929716910377010e+01
1.324000000000000057e+02 1.436812297120234305e+01
1.328000000000000114e+02 1.434704308420154462e+01
1.331999999999999886e+02 1.432605679974280122e+01
1.336000000000000227e+02 1.430516341695973637e+01
1.340000000000000000e+02 1.428436224237600705e+01
1.344000000000000057e+02 1.426365258980474238e+01
1.348000000000000114e+02 1.424303378024973377e+01
1.351999999999999886e+02 1.422250514180822556e+01
1.356000000000000227e+02 1.420206600957532928e+01
1.360000000000000000e+02 1.418171572555002413e+01
1.364000000000000057e+02 1.416145363854266748e+01
1.368000000000000114e+02 1.414127910408408439e+01
1.371999999999999886e+02 1.412119148433606597e+01
1.376000000000000227e+02 1.410119014800340409e+01
1.380000000000000000e+02 1.408127447024731538e+01
1.384000000000000057e+02 1.406144383260024000e+01
1.388000000000000114e+02 1.404169762288207934e+01
1.392000000000000171e+02 1.402203523511777306e+01
1.395999999999999943e+02 1.400245606945611598e+01
1.400000000000000000e+02 1.398295953209000331e+01
1.404000000000000057e+02 1.396354503517783385e+01
1.408000000000000114e+02 1.394421199676626344e+01
1.412000000000000171e+02 1.392489291908639970e+01
1.415999999999999943e+02 1.390541767702388753e+01
1.420000000000000000e+02 1.388602415899920395e+01
1.424000000000000057e+02 1.386671178765106482e+01
1.428000000000000114e+02 1.384747999135816698e+01
1.432000000000000171e+02 1.382832820416556530e+01
1.435999999999999943e+02 1.380925586571229502e+01
1.440000000000000000e+02 1.379026242116007417e+01
1.444000000000000057e+02 1.377134732112311966e+01
1.448000000000000114e+02 1.375251002159907898e+01
1.452000000000000171e+02 1.373374998390101709e+01
1.455999999999999943e+02 1.371506667459043527e+01
1.460000000000000000e+02 1.369645956541138077e+01
1.464000000000000057e+02 1.367792813322549961e+01
1.468000000000000114e+02 1.365947185994815527e+01
1.472000000000000171e+02 1.364109023248544261e+01
1.475999999999999943e+02 1.362278274267225697e+01
1.480000000000000000e+02 1.360454888721122302e+01
1.484000000000000057e+02 1.358638816761258639e+01
1.488000000000000114e+02 1.356830009013502547e+01
1.492000000000000171e+02 1.355028416572731942e+01
1.495999999999999943e+02 1.353233990997093272e+01
1.500000000000000000e+02 1.351446684302341339e+01
