1.000000000000000000e+01 8.084123946766743529e+01
1.040000000000000036e+01 8.599651558861683043e+01
1.080000000000000071e+01 9.228960050781535074e+01
1.119999999999999929e+01 1.051364486311959610e+02
1.159999999999999964e+01 1.229866157994082414e+02
1.200000000000000000e+01 1.180784401649728039e+02
1.240000000000000036e+01 1.080170379383302190e+02
1.280000000000000071e+01 1.044487316353632025e+02
1.319999999999999929e+01 1.012513352951602883e+02
1.359999999999999964e+01 9.836208280190896858e+01
1.400000000000000000e+01 9.573260679757615321e+01
1.440000000000000036e+01 9.314089125993464791e+01
1.480000000000000071e+01 9.090083249411887323e+01
1.519999999999999929e+01 8.888491417588599575e+01
1.560000000000000142e+01 8.702230174836716969e+01
1.600000000000000000e+01 8.529424637332853365e+01
1.639999999999999858e+01 8.368508918953419595e+01
1.680000000000000071e+01 8.218162993572401831e+01
1.719999999999999929e+01 8.077264774895228072e+01
1.760000000000000142e+01 7.944853228687631486e+01
1.800000000000000000e+01 8.011924184987729802e+01
1.839999999999999858e+01 7.897156454696121841e+01
1.880000000000000071e+01 7.463620752846573225e+01
1.920000000000000284e+01 7.346031584190671992e+01
1.960000000000000142e+01 7.234306029375773051e+01
2.000000000000000000e+01 7.127965892679394244e+01
2.039999999999999858e+01 7.026586212791467290e+01
2.080000000000000071e+01 6.929787836735550854e+01
2.120000000000000284e+01 6.837231227874843853e+01
2.160000000000000142e+01 6.750400840312570949e+01
2.200000000000000000e+01 6.667907088465018717e+01
2.239999999999999858e+01 6.588642379400675964e+01
2.280000000000000071e+01 6.512398440922041232e+01
2.320000000000000284e+01 6.438985461678608146e+01
2.360000000000000142e+01 6.368230027381648028e+01
2.400000000000000000e+01 5.896661350485896946e+01
2.439999999999999858e+01 5.827829446638133248e+01
2.480000000000000071e+01 5.761284388307982596e+01
2.520000000000000284e+01 5.696900700651772098e+01
2.560000000000000142e+01 5.601301372069764284e+01
2.600000000000000000e+01 5.541786845115998261e+01
2.640000000000000213e+01 5.484058080333296914e+01
2.680000000000000071e+01 5.428026201022189667e+01
2.719999999999999929e+01 5.373608468726737897e+01
2.760000000000000142e+01 5.320727744059152542e+01
2.800000000000000000e+01 5.269312004715577302e+01
2.840000000000000213e+01 5.219293913605339696e+01
2.880000000000000071e+01 5.170610431013118102e+01
2.920000000000000284e+01 5.123202465553651308e+01
2.960000000000000142e+01 5.077014559388929626e+01
3.000000000000000000e+01 5.031266969637351849e+01
3.040000000000000213e+01 4.986330525383347378e+01
3.080000000000000071e+01 4.942501210307354143e+01
3.120000000000000284e+01 4.899733779956317647e+01
3.160000000000000142e+01 4.857985556000092942e+01
3.200000000000000000e+01 4.817216241022472190e+01
3.240000000000000568e+01 4.777387749469303913e+01
3.279999999999999716e+01 4.738464053107198026e+01
3.320000000000000284e+01 4.700411039537600288e+01
3.360000000000000142e+01 4.662360608270047635e+01
3.400000000000000000e+01 4.624131799435344448e+01
3.440000000000000568e+01 4.586734259387421986e+01
3.479999999999999716e+01 4.550138083820510104e+01
3.520000000000000284e+01 4.487795284818083985e+01
3.560000000000000142e+01 4.455794031516867904e+01
3.600000000000000000e+01 4.424430144546487753e+01
3.640000000000000568e+01 4.393682580311009644e+01
3.679999999999999716e+01 4.363531259514434169e+01
3.720000000000000284e+01 4.333957010900436302e+01
3.760000000000000142e+01 4.304941518963390479e+01
3.800000000000000000e+01 4.276467275302746884e+01
3.840000000000000568e+01 4.248517533323814632e+01
3.879999999999999716e+01 4.221076266015607104e+01
3.920000000000000284e+01 4.194128126561163583e+01
3.960000000000000142e+01 4.167658411558019083e+01
4.000000000000000000e+01 4.141653026646372382e+01
4.040000000000000568e+01 4.115986322750241300e+01
4.079999999999999716e+01 4.090535356482478591e+01
4.120000000000000284e+01 4.065519568099734471e+01
4.160000000000000142e+01 4.040926594976107822e+01
4.200000000000000000e+01 4.016744562929774531e+01
4.239999999999999858e+01 3.992962061604296053e+01
4.280000000000000426e+01 3.969568121354012646e+01
4.320000000000000284e+01 3.946552191525822195e+01
4.360000000000000142e+01 3.923904120038493204e+01
4.400000000000000000e+01 3.901614134168657699e+01
4.439999999999999858e+01 3.879672822459893666e+01
4.480000000000000426e+01 3.858071117677958028e+01
4.520000000000000284e+01 3.836197175762565337e+01
4.560000000000000142e+01 3.814387058900710770e+01
4.600000000000000000e+01 3.792911613166378970e+01
4.639999999999999858e+01 3.771762315882962469e+01
4.680000000000000426e+01 3.753942661126008318e+01
4.720000000000000284e+01 3.733733660591371972e+01
4.760000000000000142e+01 3.713821615826898892e+01
4.800000000000000000e+01 3.694199297293725692e+01
4.840000000000000568e+01 3.693693986166972820e+01
4.880000000000000426e+01 3.676374321443692850e+01
4.920000000000000284e+01 3.659288563081432244e+01
4.960000000000000142e+01 3.642431442349678861e+01
5.000000000000000000e+01 3.625797856144177445e+01
5.040000000000000568e+01 3.609382860323755438e+01
5.080000000000000426e+01 3.593181663372995871e+01
5.120000000000000284e+01 3.577189620372039514e+01
5.160000000000000142e+01 3.561402227256046160e+01
5.200000000000000000e+01 3.545815115347942026e+01
5.240000000000000568e+01 3.530424046149192208e+01
5.280000000000000426e+01 3.515224906374258040e+01
5.320000000000000284e+01 3.500162144574070311e+01
5.360000000000000142e+01 3.485242160150228585e+01
5.400000000000000000e+01 3.470502754412245139e+01
5.440000000000000568e+01 3.455940275011243301e+01
5.480000000000000426e+01 3.441551172755298893e+01
5.520000000000000284e+01 3.427331997879397107e+01
5.560000000000000142e+01 3.413279396479403971e+01
5.600000000000000000e+01 3.399390107101548608e+01
5.640000000000000568e+01 3.385660957479478839e+01
5.680000000000000426e+01 3.372088861411356930e+01
5.720000000000000284e+01 3.358670815769954743e+01
5.760000000000000142e+01 3.345403897639067736e+01
5.800000000000000000e+01 3.332285261570000046e+01
5.840000000000000568e+01 3.337811134563174420e+01
5.880000000000000426e+01 3.325508164509340503e+01
5.920000000000000284e+01 3.313336647120041789e+01
5.960000000000000142e+01 3.301294229576105010e+01
6.000000000000000000e+01 3.289378617865511956e+01
6.040000000000000568e+01 3.279182042771323324e+01
6.080000000000000426e+01 3.267604307829481769e+01
6.120000000000000284e+01 3.256146640731364528e+01
6.160000000000000142e+01 3.244806956777733831e+01
6.200000000000000000e+01 3.233583221855060685e+01
6.240000000000000568e+01 3.222473450862790401e+01
6.280000000000000426e+01 3.211475706200135249e+01
6.320000000000000284e+01 3.200588096309722630e+01
6.360000000000000142e+01 3.189486273499834823e+01
6.400000000000000000e+01 3.178332910148502322e+01
6.440000000000000568e+01 3.167292010549240899e+01
6.480000000000001137e+01 3.156361679693242905e+01
6.520000000000000284e+01 3.145540067172624532e+01
6.559999999999999432e+01 3.134825365835898481e+01
6.600000000000000000e+01 3.124215810492755097e+01
6.640000000000000568e+01 3.113709676666054094e+01
6.680000000000001137e+01 3.103305279388978732e+01
6.720000000000000284e+01 3.093000972045444996e+01
6.759999999999999432e+01 3.082793664672848166e+01
6.800000000000000000e+01 3.072679425169148715e+01
6.840000000000000568e+01 3.062660508524447778e+01
6.880000000000001137e+01 3.052735413989049107e+01
6.920000000000000284e+01 3.042902673810211311e+01
6.959999999999999432e+01 3.033160852303038624e+01
7.000000000000000000e+01 3.023508544953206467e+01
7.040000000000000568e+01 3.013944377550239295e+01
7.080000000000001137e+01 3.004467005350108622e+01
7.120000000000000284e+01 2.995075112265988793e+01
7.159999999999999432e+01 2.985750501661854983e+01
7.200000000000000000e+01 2.976459171613407761e+01
7.240000000000000568e+01 2.967250144311085336e+01
7.280000000000001137e+01 2.958122202544210921e+01
7.320000000000000284e+01 2.949074154245356993e+01
7.359999999999999432e+01 2.940104831825121323e+01
7.400000000000000000e+01 2.931213091528315928e+01
7.440000000000000568e+01 2.922397812810773132e+01
7.479999999999999716e+01 2.913657897735969016e+01
7.520000000000000284e+01 2.904992270390744125e+01
7.560000000000000853e+01 2.896399876319397038e+01
7.600000000000000000e+01 2.887372261685982266e+01
7.640000000000000568e+01 2.878963164091531723e+01
7.679999999999999716e+01 2.870624040797122234e+01
7.720000000000000284e+01 2.862353919032216254e+01
7.760000000000000853e+01 2.854151844928026804e+01
7.800000000000000000e+01 2.846016883046785750e+01
7.840000000000000568e+01 2.837948115925293990e+01
7.879999999999999716e+01 2.829944643632239476e+01
7.920000000000000284e+01 2.822005583338775025e+01
7.960000000000000853e+01 2.814130068901923920e+01
8.000000000000000000e+01 2.806317250460323720e+01
8.040000000000000568e+01 2.798566294041910041e+01
8.079999999999999716e+01 2.790876381183104371e+01
8.120000000000000284e+01 2.783246708559115490e+01
8.160000000000000853e+01 2.775676487624981092e+01
8.200000000000000000e+01 2.768164944266966998e+01
8.240000000000000568e+01 2.760711318463980746e+01
8.279999999999999716e+01 2.753314863958662784e+01
8.320000000000000284e+01 2.745974847937826624e+01
8.360000000000000853e+01 2.738690550721932482e+01
8.400000000000000000e+01 2.731444370634143226e+01
8.440000000000000568e+01 2.742062469804016445e+01
8.479999999999999716e+01 2.735135994053613473e+01
8.520000000000000284e+01 2.728260301589436310e+01
8.560000000000000853e+01 2.721434766760437540e+01
8.600000000000000000e+01 2.714658774725017309e+01
8.640000000000000568e+01 2.707931721211010512e+01
8.680000000000001137e+01 2.701253012282181132e+01
8.720000000000000284e+01 2.694622064111008086e+01
8.760000000000000853e+01 2.687813324802831971e+01
8.800000000000000000e+01 2.681398763903241900e+01
8.840000000000000568e+01 2.675029139241037512e+01
8.880000000000001137e+01 2.668703920631801907e+01
8.920000000000000284e+01 2.662422586672354896e+01
8.960000000000000853e+01 2.656184624553695528e+01
9.000000000000000000e+01 2.649989529878805428e+01
9.040000000000000568e+01 2.643836806485169433e+01
9.080000000000001137e+01 2.637725966271873546e+01
9.120000000000000284e+01 2.631656529031134539e+01
9.160000000000000853e+01 2.625628022284133678e+01
9.200000000000000000e+01 2.619639981121018835e+01
9.240000000000000568e+01 2.613691948044949243e+01
9.280000000000001137e+01 2.607876291070991925e+01
9.320000000000000284e+01 2.602060091566550426e+01
9.360000000000000853e+01 2.596282221219698627e+01
9.400000000000000000e+01 2.590542254646232578e+01
9.440000000000000568e+01 2.584839773090784831e+01
9.480000000000001137e+01 2.579174364293934829e+01
9.520000000000000284e+01 2.573545622362578200e+01
9.560000000000000853e+01 2.567953147643449086e+01
9.600000000000000000e+01 2.562396546599719827e+01
9.640000000000000568e+01 2.556875431690576050e+01
9.680000000000001137e+01 2.551389421253696099e+01
9.720000000000000284e+01 2.545938139390536392e+01
9.760000000000000853e+01 2.540521215854354864e+01
9.800000000000000000e+01 2.535138285940894320e+01
9.840000000000000568e+01 2.529788990381648972e+01
9.880000000000001137e+01 2.524472975239634209e+01
9.920000000000000284e+01 2.519189891807612725e+01
9.960000000000000853e+01 2.513939396508678925e+01
1.000000000000000000e+02 2.508721150799160426e+01
1.004000000000000057e+02 2.503534821073765926e+01
1.008000000000000114e+02 2.498380078572913732e+01
1.012000000000000028e+02 2.493256599292180198e+01
1.016000000000000085e+02 2.488164063893830757e+01
1.020000000000000000e+02 2.483089818915576785e+01
1.024000000000000057e+02 2.478035889632575461e+01
1.028000000000000114e+02 2.473012130222642924e+01
1.032000000000000028e+02 2.468018237385197011e+01
1.036000000000000085e+02 2.463048567187873061e+01
1.040000000000000000e+02 2.458061883243937373e+01
1.044000000000000057e+02 2.453104624644326393e+01
1.048000000000000114e+02 2.448176499284525320e+01
1.052000000000000028e+02 2.443271706205521809e+01
1.056000000000000085e+02 2.438394866326365218e+01
1.060000000000000000e+02 2.433546197555279633e+01
1.064000000000000057e+02 2.428725426687592659e+01
1.068000000000000114e+02 2.423932284231117507e+01
1.072000000000000028e+02 2.419166504341386670e+01
1.076000000000000085e+02 2.414427824758248775e+01
1.080000000000000000e+02 2.409715986743816529e+01
1.084000000000000057e+02 2.405030735021727395e+01
1.088000000000000114e+02 2.400371817717677203e+01
1.092000000000000028e+02 2.395738986301197571e+01
1.096000000000000085e+02 2.391131995528655807e+01
1.100000000000000000e+02 2.386550603387435032e+01
1.104000000000000057e+02 2.381994571041268571e+01
1.108000000000000114e+02 2.377463662776708020e+01
1.112000000000000028e+02 2.372957645950685901e+01
1.116000000000000085e+02 2.368476290939159412e+01
1.120000000000000000e+02 2.363892523766282139e+01
1.124000000000000057e+02 2.359507657188826713e+01
1.128000000000000114e+02 2.355146515358847736e+01
1.132000000000000028e+02 2.350808882859011817e+01
1.136000000000000085e+02 2.346494547013429610e+01
1.140000000000000000e+02 2.342203297842841181e+01
1.144000000000000057e+02 2.337934928020695224e+01
1.148000000000000114e+02 2.333689232830110072e+01
1.152000000000000028e+02 2.329466010121672426e+01
1.156000000000000085e+02 2.325265060272084128e+01
1.160000000000000000e+02 2.321086186143611130e+01
1.164000000000000057e+02 2.316929193044324364e+01
1.168000000000000114e+02 2.312793888689132871e+01
1.172000000000000028e+02 2.308680083161551266e+01
1.176000000000000085e+02 2.304587588876227855e+01
1.180000000000000000e+02 2.300516220542182921e+01
1.184000000000000057e+02 2.296465795126762188e+01
1.188000000000000114e+02 2.292436131820279144e+01
1.192000000000000028e+02 2.288427052001329187e+01
1.196000000000000085e+02 2.284438379202767777e+01
1.200000000000000000e+02 2.280469939078333397e+01
1.204000000000000057e+02 2.276521559369902903e+01
1.208000000000000114e+02 2.272593069875358651e+01
1.212000000000000028e+02 2.268684302417065268e+01
1.216000000000000085e+02 2.264792707159552876e+01
1.220000000000000000e+02 2.260897109791025983e+01
1.224000000000000057e+02 2.257020859433086457e+01
1.228000000000000114e+02 2.254541275086299024e+01
1.232000000000000028e+02 2.250755565098183553e+01
1.236000000000000085e+02 2.246988352429077906e+01
1.240000000000000000e+02 2.243239485041986114e+01
1.244000000000000057e+02 2.239508812653256342e+01
1.248000000000000114e+02 2.235796186706587108e+01
1.252000000000000028e+02 2.232101460347510269e+01
1.256000000000000085e+02 2.228424488398328407e+01
1.260000000000000000e+02 2.224765127333500203e+01
1.264000000000000057e+02 2.221123235255477368e+01
1.268000000000000114e+02 2.217498671870962568e+01
1.272000000000000028e+02 2.213891298467594027e+01
1.276000000000000085e+02 2.210300977891045093e+01
1.280000000000000000e+02 2.206727574522526680e+01
1.284000000000000057e+02 2.203170954256688319e+01
1.288000000000000114e+02 2.199630984479903617e+01
1.291999999999999886e+02 2.196107534048942966e+01
1.296000000000000227e+02 2.192600473270008621e+01
1.300000000000000000e+02 2.187802435000475754e+01
1.304000000000000057e+02 2.184372564941630301e+01
1.308000000000000114e+02 2.180958460375132546e+01
1.311999999999999886e+02 2.177559999063933915e+01
1.316000000000000227e+02 2.174177060102955750e+01
1.320000000000000000e+02 2.170809523900413041e+01
1.324000000000000057e+02 2.167875745253455122e+01
1.328000000000000114e+02 2.164571326767401516e+01
1.331999999999999886e+02 2.161281807306277614e+01
1.336000000000000227e+02 2.158007073651716823e+01
1.340000000000000000e+02 2.154747013794394661e+01
1.344000000000000057e+02 2.151501516917403833e+01
1.348000000000000114e+02 2.148270473379918855e+01
1.351999999999999886e+02 2.145053774701127125e+01
1.356000000000000227e+02 2.141851313544432500e+01
1.360000000000000000e+02 2.138662983701917142e+01
1.364000000000000057e+02 2.135488680079068757e+01
1.368000000000000114e+02 2.132328298679752621e+01
1.371999999999999886e+02 2.129181736591435126e+01
1.376000000000000227e+02 2.126048891970651766e+01
1.380000000000000000e+02 2.122929664028711016e+01
1.384000000000000057e+02 2.119823953017630913e+01
1.388000000000000114e+02 2.116731660216308342e+01
1.392000000000000171e+02 2.113652687916908590e+01
1.395999999999999943e+02 2.110586939411483698e+01
1.400000000000000000e+02 2.107534318978791532e+01
1.404000000000000057e+02 2.104494731871346502e+01
1.408000000000000114e+02 2.101468084302660344e+01
1.412000000000000171e+02 2.098454283434699619e+01
1.415999999999999943e+02 2.095445094448475132e+01
1.420000000000000000e+02 2.092444010894883633e+01
1.424000000000000057e+02 2.089455575240906526e+01
1.428000000000000114e+02 2.086479697689715707e+01
1.432000000000000171e+02 2.083513649212278551e+01
1.435999999999999943e+02 2.080554282900972751e+01
1.440000000000000000e+02 2.077607256231767963e+01
1.444000000000000057e+02 2.074672482520389494e+01
1.448000000000000114e+02 2.071749875938207808e+01
1.452000000000000171e+02 2.068839351501365087e+01
1.455999999999999943e+02 2.065940825060071973e+01
1.460000000000000000e+02 2.063054213288075545e+01
1.464000000000000057e+02 2.060179433672281846e+01
1.468000000000000114e+02 2.057316404502545737e+01
1.472000000000000171e+02 2.054465044861611744e+01
1.475999999999999943e+02 2.051625274615213357e+01
1.480000000000000000e+02 2.048797014402318339e+01
1.484000000000000057e+02 2.045980185625528236e+01
1.488000000000000114e+02 2.043174710441619624e+01
1.492000000000000171e+02 2.040380511752229609e+01
1.495999999999999943e+02 2.037597513194682364e+01
1.500000000000000000e+02 2.034825639132953512e+01
