1.000000000000000000e+01 1.964637975912851289e+02
1.040000000000000036e+01 2.106594690071127900e+02
1.080000000000000071e+01 2.252399036539180202e+02
1.119999999999999929e+01 2.677305586339994647e+02
1.159999999999999964e+01 3.000987750137030616e+02
1.200000000000000000e+01 3.143384128883061521e+02
1.240000000000000036e+01 3.198507087035268910e+02
1.280000000000000071e+01 3.254277606192454755e+02
1.319999999999999929e+01 3.325868963338053845e+02
1.359999999999999964e+01 3.452128674503526327e+02
1.400000000000000000e+01 3.622661477579564462e+02
1.440000000000000036e+01 3.781324317023536992e+02
1.480000000000000071e+01 3.710896951113180080e+02
1.519999999999999929e+01 3.645182413450347099e+02
1.560000000000000142e+01 3.583636034607583838e+02
1.600000000000000000e+01 3.525801264794457666e+02
1.639999999999999858e+01 3.471291606355705994e+02
1.680000000000000071e+01 3.419776975265087913e+02
1.719999999999999929e+01 3.370973242208705187e+02
1.760000000000000142e+01 3.324634098724057480e+02
1.800000000000000000e+01 3.280544651635385094e+02
1.839999999999999858e+01 3.238516321220985787e+02
1.880000000000000071e+01 3.198382735969678947e+02
1.920000000000000284e+01 3.159996398352939195e+02
1.960000000000000142e+01 3.123225953661720951e+02
2.000000000000000000e+01 3.087953935288528555e+02
2.039999999999999858e+01 3.054074889897623279e+02
2.080000000000000071e+01 3.021493808072947331e+02
2.120000000000000284e+01 2.990124802541607778e+02
2.160000000000000142e+01 2.959889988510423677e+02
2.200000000000000000e+01 2.930718530121547474e+02
2.239999999999999858e+01 2.902545824307749740e+02
2.280000000000000071e+01 2.875312798965920820e+02
2.320000000000000284e+01 2.848965306772421400e+02
2.360000000000000142e+01 2.823453599432035048e+02
2.400000000000000000e+01 2.798731869902304084e+02
2.439999999999999858e+01 2.774757852330283185e+02
2.480000000000000071e+01 2.751492471202251409e+02
2.520000000000000284e+01 2.728899532632108276e+02
2.560000000000000142e+01 2.706945451872393278e+02
2.600000000000000000e+01 2.685599012078188821e+02
2.640000000000000213e+01 2.664831150131313962e+02
2.680000000000000071e+01 2.644614765973393560e+02
2.719999999999999929e+01 2.624924552427965523e+02
2.760000000000000142e+01 2.605736842934277320e+02
2.800000000000000000e+01 2.587029474985354227e+02
2.840000000000000213e+01 2.568781667373425535e+02
2.880000000000000071e+01 2.550973909607365329e+02
2.920000000000000284e+01 2.533587862087981080e+02
2.960000000000000142e+01 2.516606265814638164e+02
3.000000000000000000e+01 2.500012860556461760e+02
3.040000000000000213e+01 2.483792310557789733e+02
3.080000000000000071e+01 2.467930136964392034e+02
3.120000000000000284e+01 2.452412656257401125e+02
3.160000000000000142e+01 2.437226924068377230e+02
3.200000000000000000e+01 2.422360683823671934e+02
3.240000000000000568e+01 2.407802319730980685e+02
3.279999999999999716e+01 2.393540813677171002e+02
3.320000000000000284e+01 2.379565705655415684e+02
3.360000000000000142e+01 2.365867057382339169e+02
3.400000000000000000e+01 2.352435418803216578e+02
3.440000000000000568e+01 2.339261797215989986e+02
3.479999999999999716e+01 2.326337628773596293e+02
3.520000000000000284e+01 2.313654752149400338e+02
3.560000000000000142e+01 2.301205384172820629e+02
3.600000000000000000e+01 2.288982097261940112e+02
3.640000000000000568e+01 2.276977798497347862e+02
3.679999999999999716e+01 2.265185710196916773e+02
3.720000000000000284e+01 2.253599351864957612e+02
3.760000000000000142e+01 2.242212523401440194e+02
3.800000000000000000e+01 2.231019289467845965e+02
3.840000000000000568e+01 2.220013964915957558e+02
3.879999999999999716e+01 2.209191101194603561e+02
3.920000000000000284e+01 2.198545473657142679e+02
3.960000000000000142e+01 2.188072069699489930e+02
4.000000000000000000e+01 2.177766077664728641e+02
4.040000000000000568e+01 2.167622876456042320e+02
4.079999999999999716e+01 2.157638025804733388e+02
4.120000000000000284e+01 2.147807257144725099e+02
4.160000000000000142e+01 2.138126465049058424e+02
4.200000000000000000e+01 2.128591699187635413e+02
4.239999999999999858e+01 2.119199156768885643e+02
4.280000000000000426e+01 2.109945175431042230e+02
4.320000000000000284e+01 2.100826226551563707e+02
4.360000000000000142e+01 2.091838908945730964e+02
4.400000000000000000e+01 2.082979942927753427e+02
4.439999999999999858e+01 2.074246164709844322e+02
4.480000000000000426e+01 2.065634521116590463e+02
4.520000000000000284e+01 2.057142064593724058e+02
4.560000000000000142e+01 2.048765948491978293e+02
4.600000000000000000e+01 2.040503422608160804e+02
4.639999999999999858e+01 2.032351828966921801e+02
4.680000000000000426e+01 2.024308597827907761e+02
4.720000000000000284e+01 2.016371243904108894e+02
4.760000000000000142e+01 2.008537362778232023e+02
4.800000000000000000e+01 2.000804627504893460e+02
4.840000000000000568e+01 1.993170785387251556e+02
4.880000000000000426e+01 1.985633654917551780e+02
4.920000000000000284e+01 1.978191122871730840e+02
4.960000000000000142e+01 1.970841141548955306e+02
5.000000000000000000e+01 1.963581726147564552e+02
5.040000000000000568e+01 1.956410952269469021e+02
5.080000000000000426e+01 1.949326953545590300e+02
5.120000000000000284e+01 1.942327919375423448e+02
5.160000000000000142e+01 1.935412092774251960e+02
5.200000000000000000e+01 1.928577768321968051e+02
5.240000000000000568e+01 1.921823290207843797e+02
5.280000000000000426e+01 1.915147050365962400e+02
5.320000000000000284e+01 1.908547486696344890e+02
5.360000000000000142e+01 1.902023081367129294e+02
5.400000000000000000e+01 1.895572359193452598e+02
5.440000000000000568e+01 1.889193886088932572e+02
5.480000000000000426e+01 1.882886267585931250e+02
5.520000000000000284e+01 1.876648147420980877e+02
5.560000000000000142e+01 1.870478206181994381e+02
5.600000000000000000e+01 1.864375160014076300e+02
5.640000000000000568e+01 1.858337759380933676e+02
5.680000000000000426e+01 1.852364787879076857e+02
5.720000000000000284e+01 1.846455061102141144e+02
5.760000000000000142e+01 1.840607425552846905e+02
5.800000000000000000e+01 1.834820757600223260e+02
5.840000000000000568e+01 1.829093962479882975e+02
5.880000000000000426e+01 1.823425973335247647e+02
5.920000000000000284e+01 1.817815750297742170e+02
5.960000000000000142e+01 1.812262279604091191e+02
6.000000000000000000e+01 1.806764572748946023e+02
6.040000000000000568e+01 1.801321665671180199e+02
6.080000000000000426e+01 1.795932617972268872e+02
6.120000000000000284e+01 1.790596512165254524e+02
6.160000000000000142e+01 1.785312452952900912e+02
6.200000000000000000e+01 1.780079566533675290e+02
6.240000000000000568e+01 1.774896999934310031e+02
6.280000000000000426e+01 1.769763920367732339e+02
6.320000000000000284e+01 1.764679514615221194e+02
6.360000000000000142e+01 1.759642988431722586e+02
6.400000000000000000e+01 1.754653565973287925e+02
6.440000000000000568e+01 1.749710489245666736e+02
6.480000000000001137e+01 1.744813017573132470e+02
6.520000000000000284e+01 1.739960427086662094e+02
6.559999999999999432e+01 1.735152010230635540e+02
6.600000000000000000e+01 1.730387075287270875e+02
6.640000000000000568e+01 1.725664945918030071e+02
6.680000000000001137e+01 1.720984960721289667e+02
6.720000000000000284e+01 1.716346472805591930e+02
6.759999999999999432e+01 1.711748849377824797e+02
6.800000000000000000e+01 1.707191471345719549e+02
6.840000000000000568e+01 1.702673732934075588e+02
6.880000000000001137e+01 1.698195041314145897e+02
6.920000000000000284e+01 1.693754816245665324e+02
6.959999999999999432e+01 1.689352489730992204e+02
7.000000000000000000e+01 1.684987505680899744e+02
7.040000000000000568e+01 1.680659319591533176e+02
7.080000000000001137e+01 1.676367398232110020e+02
7.120000000000000284e+01 1.672111219342927200e+02
7.159999999999999432e+01 1.667890271343281086e+02
7.200000000000000000e+01 1.663704053048917046e+02
7.240000000000000568e+01 1.659552073398629943e+02
7.280000000000001137e+01 1.655433851189681036e+02
7.320000000000000284e+01 1.651348914821681149e+02
7.359999999999999432e+01 1.647296802048631434e+02
7.400000000000000000e+01 1.643277059738804269e+02
7.440000000000000568e+01 1.639289243642180338e+02
7.479999999999999716e+01 1.635332918165154297e+02
7.520000000000000284e+01 1.631407656152243248e+02
7.560000000000000853e+01 1.627513038674541974e+02
7.600000000000000000e+01 1.623648654824675361e+02
7.640000000000000568e+01 1.619814101518015832e+02
7.679999999999999716e+01 1.616008983299930719e+02
7.720000000000000284e+01 1.612232912158860927e+02
7.760000000000000853e+01 1.608485507345002645e+02
7.800000000000000000e+01 1.604766395194403970e+02
7.840000000000000568e+01 1.601075208958286282e+02
7.879999999999999716e+01 1.597411588637401678e+02
7.920000000000000284e+01 1.593775180821252491e+02
7.960000000000000853e+01 1.590165638532008927e+02
8.000000000000000000e+01 1.586582621072954282e+02
8.040000000000000568e+01 1.583025793881308800e+02
8.079999999999999716e+01 1.579494828385277572e+02
8.120000000000000284e+01 1.575989401865187176e+02
8.160000000000000853e+01 1.572509197318563849e+02
8.200000000000000000e+01 1.569053903329023285e+02
8.240000000000000568e+01 1.565623213938850142e+02
8.279999999999999716e+01 1.562216828525136805e+02
8.320000000000000284e+01 1.558834451679370261e+02
8.360000000000000853e+01 1.555475793090347736e+02
8.400000000000000000e+01 1.552140567430317049e+02
8.440000000000000568e+01 1.548828494244235117e+02
8.479999999999999716e+01 1.545539297842041435e+02
8.520000000000000284e+01 1.542272707193853876e+02
8.560000000000000853e+01 1.539028455827987614e+02
8.600000000000000000e+01 1.535806281731711920e+02
8.640000000000000568e+01 1.532605927254656422e+02
8.680000000000001137e+01 1.529427139014780721e+02
8.720000000000000284e+01 1.526269667806832047e+02
8.760000000000000853e+01 1.523133268513206531e+02
8.800000000000000000e+01 1.520017700017145899e+02
8.840000000000000568e+01 1.516922725118192261e+02
8.880000000000001137e+01 1.513848110449834508e+02
8.920000000000000284e+01 1.510793626399278082e+02
8.960000000000000853e+01 1.507759047029273063e+02
9.000000000000000000e+01 1.504744150001937157e+02
9.040000000000000568e+01 1.501748716504517915e+02
9.080000000000001137e+01 1.498772531177029350e+02
9.120000000000000284e+01 1.495815382041710109e+02
9.160000000000000853e+01 1.492877060434252314e+02
9.200000000000000000e+01 1.489957360936740827e+02
9.240000000000000568e+01 1.487056081312259153e+02
9.280000000000001137e+01 1.484173022441110561e+02
9.320000000000000284e+01 1.481307988258607509e+02
9.360000000000000853e+01 1.478460785694382480e+02
9.400000000000000000e+01 1.475631224613179313e+02
9.440000000000000568e+01 1.472819117757076128e+02
9.480000000000001137e+01 1.470024280689109730e+02
9.520000000000000284e+01 1.467246531738247768e+02
9.560000000000000853e+01 1.464485691945683357e+02
9.600000000000000000e+01 1.461741585012402425e+02
9.640000000000000568e+01 1.459014037247999624e+02
9.680000000000001137e+01 1.456302877520699326e+02
9.720000000000000284e+01 1.453607937208551846e+02
9.760000000000000853e+01 1.450929050151772230e+02
9.800000000000000000e+01 1.448266052606185212e+02
9.840000000000000568e+01 1.445618783197756443e+02
9.880000000000001137e+01 1.442987082878167655e+02
9.920000000000000284e+01 1.440370794881415577e+02
9.960000000000000853e+01 1.437769764681404183e+02
1.000000000000000000e+02 1.435183839950502716e+02
1.004000000000000057e+02 1.432612870519044748e+02
1.008000000000000114e+02 1.430056708335742996e+02
1.012000000000000028e+02 1.427515207428993165e+02
1.016000000000000085e+02 1.424988223869045783e+02
1.020000000000000000e+02 1.422475615731022742e+02
1.024000000000000057e+02 1.419977243058754937e+02
1.028000000000000114e+02 1.417492967829418262e+02
1.032000000000000028e+02 1.415022653918952358e+02
1.036000000000000085e+02 1.412566167068234790e+02
1.040000000000000000e+02 1.410123374849996196e+02
1.044000000000000057e+02 1.407694146636455628e+02
1.048000000000000114e+02 1.405278353567655358e+02
1.052000000000000028e+02 1.402875868520482925e+02
1.056000000000000085e+02 1.400486566078353690e+02
1.060000000000000000e+02 1.398110322501547955e+02
1.064000000000000057e+02 1.395747015698177336e+02
1.068000000000000114e+02 1.393396525195768163e+02
1.072000000000000028e+02 1.391058732113448855e+02
1.076000000000000085e+02 1.388733519134717938e+02
1.080000000000000000e+02 1.386420770480788747e+02
1.084000000000000057e+02 1.384120371884489487e+02
1.088000000000000114e+02 1.381832210564705292e+02
1.092000000000000028e+02 1.379556175201352914e+02
1.096000000000000085e+02 1.377292155910869837e+02
1.100000000000000000e+02 1.375040044222211577e+02
1.104000000000000057e+02 1.372799733053336126e+02
1.108000000000000114e+02 1.370571116688172708e+02
1.112000000000000028e+02 1.368354090754057495e+02
1.116000000000000085e+02 1.366148552199626351e+02
1.120000000000000000e+02 1.363954399273155218e+02
1.124000000000000057e+02 1.361771531501333641e+02
1.128000000000000114e+02 1.359599849668466049e+02
1.132000000000000028e+02 1.357439255796087423e+02
1.136000000000000085e+02 1.355289653122985101e+02
1.140000000000000000e+02 1.353150946085612532e+02
1.144000000000000057e+02 1.351023040298896376e+02
1.148000000000000114e+02 1.348905842537414514e+02
1.152000000000000028e+02 1.346799260716947515e+02
1.156000000000000085e+02 1.344703203876387079e+02
1.160000000000000000e+02 1.342617582159998051e+02
1.164000000000000057e+02 1.340542306800023766e+02
1.168000000000000114e+02 1.338477290099627908e+02
1.172000000000000028e+02 1.336422445416161509e+02
1.176000000000000085e+02 1.334377687144757090e+02
1.180000000000000000e+02 1.332342930702228330e+02
1.184000000000000057e+02 1.330318092511281520e+02
1.188000000000000114e+02 1.328303089985024599e+02
1.192000000000000028e+02 1.326297841511769775e+02
1.196000000000000085e+02 1.324302266440120945e+02
1.200000000000000000e+02 1.322316285064341059e+02
1.204000000000000057e+02 1.320339818609995177e+02
1.208000000000000114e+02 1.318372789219858134e+02
1.212000000000000028e+02 1.316415119940086242e+02
1.216000000000000085e+02 1.314466734706642512e+02
1.220000000000000000e+02 1.312527558331973978e+02
1.224000000000000057e+02 1.310597516491933732e+02
1.228000000000000114e+02 1.308676535712940563e+02
1.232000000000000028e+02 1.306764543359376205e+02
1.236000000000000085e+02 1.304861467621207396e+02
1.240000000000000000e+02 1.302967237501836735e+02
1.244000000000000057e+02 1.301081782806168690e+02
1.248000000000000114e+02 1.299205034128895591e+02
1.252000000000000028e+02 1.297336922842987406e+02
1.256000000000000085e+02 1.295477381088392690e+02
1.260000000000000000e+02 1.293626341760938203e+02
1.264000000000000057e+02 1.291783738501426910e+02
1.268000000000000114e+02 1.289949505684926407e+02
1.272000000000000028e+02 1.288123578410250616e+02
1.276000000000000085e+02 1.286305892489622238e+02
1.280000000000000000e+02 1.284496384438519954e+02
1.284000000000000057e+02 1.282694991465697854e+02
1.288000000000000114e+02 1.280901651463385633e+02
1.291999999999999886e+02 1.279116302997653207e+02
1.296000000000000227e+02 1.277338885298943865e+02
1.300000000000000000e+02 1.275569338252771558e+02
1.304000000000000057e+02 1.273807602390575369e+02
1.308000000000000114e+02 1.272053618880734405e+02
1.311999999999999886e+02 1.270307329519734196e+02
1.316000000000000227e+02 1.268568676723481019e+02
1.320000000000000000e+02 1.266837603518768276e+02
1.324000000000000057e+02 1.265114053534884135e+02
1.328000000000000114e+02 1.263397970995360282e+02
1.331999999999999886e+02 1.261689300709863062e+02
1.336000000000000227e+02 1.259987988066213376e+02
1.340000000000000000e+02 1.258293979022549820e+02
1.344000000000000057e+02 1.256607220099612050e+02
1.348000000000000114e+02 1.254927658373158863e+02
1.351999999999999886e+02 1.253255241466510057e+02
1.356000000000000227e+02 1.251589917543209509e+02
1.360000000000000000e+02 1.249931635299811603e+02
1.364000000000000057e+02 1.248280343958784613e+02
1.368000000000000114e+02 1.246635993261527915e+02
1.371999999999999886e+02 1.244998533461508003e+02
1.376000000000000227e+02 1.243367915317501371e+02
1.380000000000000000e+02 1.241744090086948233e+02
1.384000000000000057e+02 1.240127009519414685e+02
1.388000000000000114e+02 1.238516625850158164e+02
1.392000000000000171e+02 1.236912891793797655e+02
1.395999999999999943e+02 1.235315760538084930e+02
1.400000000000000000e+02 1.233725185737773700e+02
1.404000000000000057e+02 1.232141121508588242e+02
1.408000000000000114e+02 1.230563522421286109e+02
1.412000000000000171e+02 1.228992343495815476e+02
1.415999999999999943e+02 1.227427540195565427e+02
1.420000000000000000e+02 1.225869068421703787e+02
1.424000000000000057e+02 1.224316884507605323e+02
1.428000000000000114e+02 1.222770945213369771e+02
1.432000000000000171e+02 1.221231207720419292e+02
1.435999999999999943e+02 1.219697629626185176e+02
1.440000000000000000e+02 1.218170168938872848e+02
1.444000000000000057e+02 1.216648784072311003e+02
1.448000000000000114e+02 1.215133433840879178e+02
1.452000000000000171e+02 1.213624077454510086e+02
1.455999999999999943e+02 1.212120674513772371e+02
1.460000000000000000e+02 1.210623185005027977e+02
1.464000000000000057e+02 1.209131569295660142e+02
1.468000000000000114e+02 1.207645788129377138e+02
1.472000000000000171e+02 1.206165802621585215e+02
1.475999999999999943e+02 1.204691574254832460e+02
1.480000000000000000e+02 1.203223064874319732e+02
1.484000000000000057e+02 1.201760236683481082e+02
1.488000000000000114e+02 1.200303052239628130e+02
1.492000000000000171e+02 1.198851474449661509e+02
1.495999999999999943e+02 1.197405466565842858e+02
1.500000000000000000e+02 1.195964992181634159e+02
