1.000000000000000000e+01 8.345054785425051023e+02
1.040000000000000036e+01 1.049784555837323751e+03
1.080000000000000071e+01 1.211958725685582522e+03
1.119999999999999929e+01 1.281522875518625142e+03
1.159999999999999964e+01 1.291787875835825844e+03
1.200000000000000000e+01 1.318960734535151687e+03
1.240000000000000036e+01 1.329973994496195473e+03
1.280000000000000071e+01 1.329151382641059627e+03
1.319999999999999929e+01 1.317579808758027184e+03
1.359999999999999964e+01 1.298947251026233062e+03
1.400000000000000000e+01 1.284704851120728563e+03
1.440000000000000036e+01 1.270535350313370600e+03
1.480000000000000071e+01 1.248689071123859094e+03
1.519999999999999929e+01 1.228104448324222403e+03
1.560000000000000142e+01 1.208658855718290624e+03
1.600000000000000000e+01 1.190246229414439995e+03
1.639999999999999858e+01 1.172774226592300693e+03
1.680000000000000071e+01 1.156161971763510337e+03
1.719999999999999929e+01 1.140338249073217639e+03
1.760000000000000142e+01 1.125240037876894803e+03
1.800000000000000000e+01 1.110811315720228095e+03
1.839999999999999858e+01 1.097002071896750294e+03
1.880000000000000071e+01 1.083767488473271897e+03
1.920000000000000284e+01 1.071067255697016208e+03
1.960000000000000142e+01 1.058864996122862067e+03
2.000000000000000000e+01 1.047127777365323027e+03
2.039999999999999858e+01 1.035825697599311070e+03
2.080000000000000071e+01 1.024931531164769922e+03
2.120000000000000284e+01 1.014420424127608612e+03
2.160000000000000142e+01 1.004269631596307477e+03
2.200000000000000000e+01 9.944582901236221915e+02
2.239999999999999858e+01 9.849672197341938045e+02
2.280000000000000071e+01 9.757787510846549139e+02
2.320000000000000284e+01 9.668765740378387363e+02
2.360000000000000142e+01 9.582456045584045796e+02
2.400000000000000000e+01 9.498718673453206520e+02
2.439999999999999858e+01 9.417423920314738552e+02
2.480000000000000071e+01 9.338451211211299778e+02
2.520000000000000284e+01 9.261688281167138257e+02
2.560000000000000142e+01 9.187030445189448074e+02
2.600000000000000000e+01 9.114379945779132868e+02
2.640000000000000213e+01 9.043645368343669588e+02
2.680000000000000071e+01 8.974741116261345724e+02
2.719999999999999929e+01 8.907586938488359465e+02
2.760000000000000142e+01 8.842107503565589468e+02
2.800000000000000000e+01 8.778232014700504351e+02
2.840000000000000213e+01 8.715893861296145815e+02
2.880000000000000071e+01 8.655030302893792395e+02
2.920000000000000284e+01 8.595582182004791321e+02
2.960000000000000142e+01 8.537493662744252561e+02
3.000000000000000000e+01 8.480711992555661709e+02
3.040000000000000213e+01 8.425187284640392136e+02
3.080000000000000071e+01 8.370872318987550216e+02
3.120000000000000284e+01 8.317722360143646938e+02
3.160000000000000142e+01 8.265694990074090356e+02
3.200000000000000000e+01 8.214749954653691475e+02
3.240000000000000568e+01 8.164849022485292380e+02
3.279999999999999716e+01 8.115955854887426995e+02
3.320000000000000284e+01 8.068035886016407403e+02
3.360000000000000142e+01 8.021056212197715922e+02
3.400000000000000000e+01 7.974985489638033869e+02
3.440000000000000568e+01 7.929793839774520166e+02
3.479999999999999716e+01 7.885452761593221567e+02
3.520000000000000284e+01 7.841935050315378248e+02
3.560000000000000142e+01 7.799214721909634136e+02
3.600000000000000000e+01 7.757266942940941590e+02
3.640000000000000568e+01 7.716067965313891364e+02
3.679999999999999716e+01 7.675595065510140103e+02
3.720000000000000284e+01 7.635826487957012887e+02
3.760000000000000142e+01 7.596741392197978939e+02
3.800000000000000000e+01 7.558319803565591428e+02
3.840000000000000568e+01 7.520542567084585244e+02
3.879999999999999716e+01 7.483391304356986211e+02
3.920000000000000284e+01 7.446848373202903986e+02
3.960000000000000142e+01 7.410896829850369159e+02
4.000000000000000000e+01 7.375520393485289787e+02
4.040000000000000568e+01 7.340703412988630134e+02
4.079999999999999716e+01 7.306430835702429931e+02
4.120000000000000284e+01 7.272688178079416730e+02
4.160000000000000142e+01 7.239461498082833941e+02
4.200000000000000000e+01 7.206737369213991542e+02
4.239999999999999858e+01 7.174502856054778022e+02
4.280000000000000426e+01 7.142745491221410248e+02
4.320000000000000284e+01 7.111453253633764007e+02
4.360000000000000142e+01 7.080614548012090381e+02
4.400000000000000000e+01 7.050218185519681811e+02
4.439999999999999858e+01 7.020253365476273757e+02
4.480000000000000426e+01 6.990709658072556749e+02
4.520000000000000284e+01 6.961576988021471379e+02
4.560000000000000142e+01 6.932845619086552915e+02
4.600000000000000000e+01 6.904506139432118061e+02
4.639999999999999858e+01 6.876549447743924475e+02
4.680000000000000426e+01 6.848966740072722814e+02
4.720000000000000284e+01 6.821749497356423717e+02
4.760000000000000142e+01 6.794889473579733021e+02
4.800000000000000000e+01 6.768378684532990519e+02
4.840000000000000568e+01 6.742209397134542996e+02
4.880000000000000426e+01 6.716374119283450455e+02
4.920000000000000284e+01 6.690865590211533345e+02
4.960000000000000142e+01 6.665676771305885495e+02
5.000000000000000000e+01 6.640800837374880530e+02
5.040000000000000568e+01 6.616231168332433299e+02
5.080000000000000426e+01 6.591961341277001338e+02
5.120000000000000284e+01 6.567985122943242686e+02
5.160000000000000142e+01 6.544296462505743648e+02
5.200000000000000000e+01 6.520889484715492017e+02
5.240000000000000568e+01 6.497758483350964980e+02
5.280000000000000426e+01 6.474897914966907138e+02
5.320000000000000284e+01 6.452302392924850665e+02
5.360000000000000142e+01 6.429966681690436872e+02
5.400000000000000000e+01 6.407885691383527274e+02
5.440000000000000568e+01 6.386054472567888070e+02
5.480000000000000426e+01 6.364468211268075493e+02
5.520000000000000284e+01 6.343122224201862309e+02
5.560000000000000142e+01 6.322011954217208540e+02
5.600000000000000000e+01 6.301132965923471829e+02
5.640000000000000568e+01 6.280480941507127000e+02
5.680000000000000426e+01 6.260051676722783895e+02
5.720000000000000284e+01 6.239841077050915601e+02
5.760000000000000142e+01 6.219845154014072932e+02
5.800000000000000000e+01 6.200060021643939763e+02
5.840000000000000568e+01 6.180481893091931624e+02
5.880000000000000426e+01 6.161107077376468624e+02
5.920000000000000284e+01 6.141931976260445936e+02
5.960000000000000142e+01 6.122953081252753691e+02
6.000000000000000000e+01 6.104166970728045953e+02
6.040000000000000568e+01 6.085570307159266576e+02
6.080000000000000426e+01 6.067159834457742136e+02
6.120000000000000284e+01 6.048932375415893148e+02
6.160000000000000142e+01 6.030884829247933112e+02
6.200000000000000000e+01 6.013014169224097714e+02
6.240000000000000568e+01 5.995317440394248933e+02
6.280000000000000426e+01 5.977791757396846606e+02
6.320000000000000284e+01 5.960434302349538029e+02
6.360000000000000142e+01 5.943242322817762897e+02
6.400000000000000000e+01 5.926213129857994772e+02
6.440000000000000568e+01 5.909344096132376762e+02
6.480000000000001137e+01 5.892632654091678432e+02
6.520000000000000284e+01 5.876076294223671539e+02
6.559999999999999432e+01 5.859672563364127882e+02
6.600000000000000000e+01 5.843419063067823345e+02
6.640000000000000568e+01 5.827313448037018588e+02
6.680000000000001137e+01 5.811353424605040345e+02
6.720000000000000284e+01 5.795536749272657744e+02
6.759999999999999432e+01 5.779861227295145909e+02
6.800000000000000000e+01 5.764324711317893843e+02
6.840000000000000568e+01 5.748925100058644375e+02
6.880000000000001137e+01 5.733660337034473287e+02
6.920000000000000284e+01 5.718528409331705689e+02
6.959999999999999432e+01 5.703527346417072295e+02
7.000000000000000000e+01 5.688655218988481010e+02
7.040000000000000568e+01 5.673910137863833825e+02
7.080000000000001137e+01 5.659290252906408796e+02
7.120000000000000284e+01 5.644793751985411063e+02
7.159999999999999432e+01 5.630418859970279755e+02
7.200000000000000000e+01 5.616163837757532065e+02
7.240000000000000568e+01 5.602026981328839383e+02
7.280000000000001137e+01 5.588006620839192919e+02
7.320000000000000284e+01 5.574101119734003760e+02
7.359999999999999432e+01 5.560308873894072121e+02
7.400000000000000000e+01 5.546628310807366233e+02
7.440000000000000568e+01 5.533057888766654742e+02
7.479999999999999716e+01 5.519596096091992194e+02
7.520000000000000284e+01 5.506241450377186766e+02
7.560000000000000853e+01 5.492992497759385060e+02
7.600000000000000000e+01 5.479847812210886104e+02
7.640000000000000568e+01 5.466805994852450112e+02
7.679999999999999716e+01 5.453865673287283471e+02
7.720000000000000284e+01 5.441025500954997369e+02
7.760000000000000853e+01 5.428284156504811335e+02
7.800000000000000000e+01 5.415640343187335475e+02
7.840000000000000568e+01 5.403092788264298179e+02
7.879999999999999716e+01 5.390640242435554228e+02
7.920000000000000284e+01 5.378281479282808277e+02
7.960000000000000853e+01 5.366015294729480729e+02
8.000000000000000000e+01 5.353840506516144160e+02
8.040000000000000568e+01 5.341755953691000514e+02
8.079999999999999716e+01 5.329760496114921580e+02
8.120000000000000284e+01 5.317853013980519563e+02
8.160000000000000853e+01 5.306032407344805506e+02
8.200000000000000000e+01 5.294297595674980812e+02
8.240000000000000568e+01 5.282647517406905990e+02
8.279999999999999716e+01 5.271081129515865769e+02
8.320000000000000284e+01 5.259597407099181510e+02
8.360000000000000853e+01 5.248195342970326465e+02
8.400000000000000000e+01 5.236873947264143681e+02
8.440000000000000568e+01 5.225632247052811863e+02
8.479999999999999716e+01 5.214469285972232910e+02
8.520000000000000284e+01 5.203384123858476187e+02
8.560000000000000853e+01 5.192375836393985082e+02
8.600000000000000000e+01 5.181443514763230951e+02
8.640000000000000568e+01 5.170586265317500647e+02
8.680000000000001137e+01 5.159803209248558460e+02
8.720000000000000284e+01 5.149093482270892537e+02
8.760000000000000853e+01 5.138456234312259312e+02
8.800000000000000000e+01 5.127890629212306521e+02
8.840000000000000568e+01 5.117395844429012186e+02
8.880000000000001137e+01 5.106971070752673540e+02
8.920000000000000284e+01 5.096615512027262866e+02
8.960000000000000853e+01 5.086328384878892734e+02
9.000000000000000000e+01 5.076108918451184309e+02
9.040000000000000568e+01 5.065956354147347724e+02
9.080000000000001137e+01 5.055869945378734656e+02
9.120000000000000284e+01 5.045848957319728925e+02
9.160000000000000853e+01 5.035892666668722768e+02
9.200000000000000000e+01 5.026000361415059956e+02
9.240000000000000568e+01 5.016171340611716687e+02
9.280000000000001137e+01 5.006404914153598043e+02
9.320000000000000284e+01 4.996700402561256169e+02
9.360000000000000853e+01 4.987057136769885801e+02
9.400000000000000000e+01 4.977474457923451041e+02
9.440000000000000568e+01 4.967951717173776274e+02
9.480000000000001137e+01 4.958488275484481846e+02
9.520000000000000284e+01 4.949083503439610467e+02
9.560000000000000853e+01 4.939736781056827226e+02
9.600000000000000000e+01 4.930447497605047147e+02
9.640000000000000568e+01 4.921215051426372042e+02
9.680000000000001137e+01 4.912038849762229802e+02
9.720000000000000284e+01 4.902918308583580824e+02
9.760000000000000853e+01 4.893852852425085302e+02
9.800000000000000000e+01 4.884841914223130743e+02
9.840000000000000568e+01 4.875884935157590689e+02
9.880000000000001137e+01 4.866981364497254390e+02
9.920000000000000284e+01 4.858130659448769393e+02
9.960000000000000853e+01 4.849332285009068642e+02
1.000000000000000000e+02 4.840585713821119498e+02
1.004000000000000057e+02 4.831890426032969685e+02
1.008000000000000114e+02 4.823245909159946336e+02
1.012000000000000028e+02 4.814651657949975174e+02
1.016000000000000085e+02 4.806107174251883407e+02
1.020000000000000000e+02 4.797611966886659616e+02
1.024000000000000057e+02 4.789165551521560360e+02
1.028000000000000114e+02 4.780767450546989039e+02
1.032000000000000028e+02 4.772417192956097551e+02
1.036000000000000085e+02 4.764114314227016962e+02
1.040000000000000000e+02 4.755858356207661473e+02
1.044000000000000057e+02 4.747648867003025543e+02
1.048000000000000114e+02 4.739485400864942903e+02
1.052000000000000028e+02 4.731367518084198309e+02
1.056000000000000085e+02 4.723294784884965338e+02
1.060000000000000000e+02 4.715266773321502001e+02
1.064000000000000057e+02 4.707283061177054151e+02
1.068000000000000114e+02 4.699343231864883705e+02
1.072000000000000028e+02 4.691446874331406889e+02
1.076000000000000085e+02 4.683593582961368043e+02
1.080000000000000000e+02 4.675782957484996700e+02
1.084000000000000057e+02 4.668014602887100182e+02
1.088000000000000114e+02 4.660288129318063284e+02
1.092000000000000028e+02 4.652603152006680034e+02
1.096000000000000085e+02 4.644959291174782265e+02
1.100000000000000000e+02 4.637356171953636590e+02
1.104000000000000057e+02 4.629793424302044400e+02
1.108000000000000114e+02 4.622270682926117047e+02
1.112000000000000028e+02 4.614787587200685266e+02
1.116000000000000085e+02 4.607343781092290556e+02
1.120000000000000000e+02 4.599938913083743728e+02
1.124000000000000057e+02 4.592572636100189811e+02
1.128000000000000114e+02 4.585244607436662818e+02
1.132000000000000028e+02 4.577954488687074672e+02
1.136000000000000085e+02 4.570701945674632611e+02
1.140000000000000000e+02 4.563486648383615716e+02
1.144000000000000057e+02 4.556308270892511132e+02
1.148000000000000114e+02 4.549166491308469631e+02
1.152000000000000028e+02 4.542060991703021386e+02
1.156000000000000085e+02 4.534991458049078688e+02
1.160000000000000000e+02 4.527957580159138615e+02
1.164000000000000057e+02 4.520959051624695348e+02
1.168000000000000114e+02 4.513995569756822874e+02
1.172000000000000028e+02 4.507066835527894000e+02
1.176000000000000085e+02 4.500172553514422589e+02
1.180000000000000000e+02 4.493312431841002876e+02
1.184000000000000057e+02 4.486486182125296409e+02
1.188000000000000114e+02 4.479693519424089345e+02
1.192000000000000028e+02 4.472934162180349631e+02
1.196000000000000085e+02 4.466207832171286327e+02
1.200000000000000000e+02 4.459514254457392326e+02
1.204000000000000057e+02 4.452853157332426690e+02
1.208000000000000114e+02 4.446224272274341729e+02
1.212000000000000028e+02 4.439627333897113317e+02
1.216000000000000085e+02 4.433062079903469339e+02
1.220000000000000000e+02 4.426528251038481585e+02
1.224000000000000057e+02 4.420025591044026214e+02
1.228000000000000114e+02 4.413553846614057647e+02
1.232000000000000028e+02 4.407112767350724312e+02
1.236000000000000085e+02 4.400702105721252337e+02
1.240000000000000000e+02 4.394321617015647234e+02
1.244000000000000057e+02 4.387971059305128847e+02
1.248000000000000114e+02 4.381650193401331421e+02
1.252000000000000028e+02 4.375358782816236953e+02
1.256000000000000085e+02 4.369096593722817943e+02
1.260000000000000000e+02 4.362863394916385005e+02
1.264000000000000057e+02 4.356658957776626835e+02
1.268000000000000114e+02 4.350483056230314105e+02
1.272000000000000028e+02 4.344335466714672975e+02
1.276000000000000085e+02 4.338215968141389567e+02
1.280000000000000000e+02 4.332124341861262451e+02
1.284000000000000057e+02 4.326060371629457677e+02
1.288000000000000114e+02 4.320023843571378848e+02
1.291999999999999886e+02 4.314014546149132343e+02
1.296000000000000227e+02 4.308032270128559844e+02
1.300000000000000000e+02 4.302076808546860320e+02
1.304000000000000057e+02 4.296147956680749758e+02
1.308000000000000114e+02 4.290245512015181930e+02
1.311999999999999886e+02 4.284369274212593837e+02
1.316000000000000227e+02 4.278519045082682624e+02
1.320000000000000000e+02 4.272694628552689551e+02
1.324000000000000057e+02 4.266895830638193843e+02
1.328000000000000114e+02 4.261122459414396531e+02
1.331999999999999886e+02 4.255374324987887462e+02
1.336000000000000227e+02 4.249651239468884683e+02
1.340000000000000000e+02 4.243953016943944476e+02
1.344000000000000057e+02 4.238279473449117631e+02
1.348000000000000114e+02 4.232630426943561019e+02
1.351999999999999886e+02 4.227005697283577774e+02
1.356000000000000227e+02 4.221405106197093460e+02
1.360000000000000000e+02 4.215828477258551175e+02
1.364000000000000057e+02 4.210275635864214792e+02
1.368000000000000114e+02 4.204746409207880333e+02
1.371999999999999886e+02 4.199240626256988094e+02
1.376000000000000227e+02 4.193758117729111063e+02
1.380000000000000000e+02 4.188298716068835574e+02
1.384000000000000057e+02 4.182862255425012563e+02
1.388000000000000114e+02 4.177448571628378886e+02
1.392000000000000171e+02 4.172057502169530494e+02
1.395999999999999943e+02 4.166688886177258269e+02
1.400000000000000000e+02 4.161342564397219235e+02
1.404000000000000057e+02 4.156018379170960202e+02
1.408000000000000114e+02 4.150716174415268824e+02
1.412000000000000171e+02 4.145435795601842415e+02
1.415999999999999943e+02 4.140177089737302936e+02
1.420000000000000000e+02 4.134939905343491091e+02
1.424000000000000057e+02 4.129724092438110006e+02
1.428000000000000114e+02 4.124529502515632089e+02
1.432000000000000171e+02 4.119355988528542412e+02
1.435999999999999943e+02 4.114203404868840721e+02
1.440000000000000000e+02 4.109071607349850410e+02
1.444000000000000057e+02 4.103960453188303745e+02
1.448000000000000114e+02 4.098869800986706196e+02
1.452000000000000171e+02 4.093799510715964516e+02
1.455999999999999943e+02 4.088749443698291088e+02
1.460000000000000000e+02 4.083719462590358944e+02
1.464000000000000057e+02 4.078709431366728495e+02
1.468000000000000114e+02 4.073719215303511874e+02
1.472000000000000171e+02 4.068748680962294770e+02
1.475999999999999943e+02 4.063797696174297016e+02
1.480000000000000000e+02 4.058866130024768495e+02
1.484000000000000057e+02 4.053953852837635736e+02
1.488000000000000114e+02 4.049060736160358260e+02
1.492000000000000171e+02 4.044186652749021391e+02
1.495999999999999943e+02 4.039331476553657012e+02
1.500000000000000000e+02 4.034495082703771800e+02
