1.000000000000000000e+01 2.181050978848390685e+02
1.040000000000000036e+01 2.115643817137299720e+02
1.080000000000000071e+01 2.061748046111816279e+02
1.119999999999999929e+01 2.005823082815567204e+02
1.159999999999999964e+01 1.968313460374697286e+02
1.200000000000000000e+01 1.907476715275920753e+02
1.240000000000000036e+01 1.851978405507416312e+02
1.280000000000000071e+01 1.801035613166843063e+02
1.319999999999999929e+01 1.754025821162646537e+02
1.359999999999999964e+01 1.710444890947179886e+02
1.400000000000000000e+01 1.669378879668676632e+02
1.440000000000000036e+01 1.632475928942211283e+02
1.480000000000000071e+01 1.597880596098529224e+02
1.519999999999999929e+01 1.565609343769772863e+02
1.560000000000000142e+01 1.543390072399566009e+02
1.600000000000000000e+01 1.523704708333650899e+02
1.639999999999999858e+01 1.504781412992193736e+02
1.680000000000000071e+01 1.486669811055471939e+02
1.719999999999999929e+01 1.469456600030816844e+02
1.760000000000000142e+01 1.453067015717338677e+02
1.800000000000000000e+01 1.437434878188771279e+02
1.839999999999999858e+01 1.422501346354288501e+02
1.880000000000000071e+01 1.375735591797342465e+02
1.920000000000000284e+01 1.271051753285855455e+02
1.960000000000000142e+01 1.252950117244477468e+02
2.000000000000000000e+01 1.238099510755182706e+02
2.039999999999999858e+01 1.210454103511463870e+02
2.080000000000000071e+01 1.194948309415092353e+02
2.120000000000000284e+01 1.180043536920903477e+02
2.160000000000000142e+01 1.165701296755772063e+02
2.200000000000000000e+01 1.151886492789825951e+02
2.239999999999999858e+01 1.138567043958039307e+02
2.280000000000000071e+01 1.125713556828296760e+02
2.320000000000000284e+01 1.112950896923530451e+02
2.360000000000000142e+01 1.099219419681583219e+02
2.400000000000000000e+01 1.085918988683693982e+02
2.439999999999999858e+01 1.073027213413070911e+02
2.480000000000000071e+01 1.060523323983652233e+02
2.520000000000000284e+01 1.048388021362820837e+02
2.560000000000000142e+01 1.036550381891318580e+02
2.600000000000000000e+01 1.024936543051439060e+02
2.640000000000000213e+01 1.013643326577449386e+02
2.680000000000000071e+01 1.002656166548014625e+02
2.719999999999999929e+01 9.919614160137982140e+01
2.760000000000000142e+01 9.821527808998820319e+01
2.800000000000000000e+01 9.720568073355129002e+01
2.840000000000000213e+01 9.622159396026833633e+01
2.880000000000000071e+01 9.526195746554213883e+01
2.920000000000000284e+01 9.432577218656024343e+01
2.960000000000000142e+01 9.341209579266757146e+01
3.000000000000000000e+01 9.252003857757895844e+01
3.040000000000000213e+01 9.164875971157923118e+01
3.080000000000000071e+01 9.079746381682832634e+01
3.120000000000000284e+01 8.996539783320055506e+01
3.160000000000000142e+01 8.915184814583213324e+01
3.200000000000000000e+01 9.161612323319724283e+01
3.240000000000000568e+01 9.093225438405805505e+01
3.279999999999999716e+01 9.026242322701858711e+01
3.320000000000000284e+01 8.985431954638272600e+01
3.360000000000000142e+01 8.922634973933378433e+01
3.400000000000000000e+01 8.861058143684013544e+01
3.440000000000000568e+01 8.800661793235120456e+01
3.479999999999999716e+01 8.741408063043233767e+01
3.520000000000000284e+01 8.650164377406842675e+01
3.560000000000000142e+01 8.594957210306837680e+01
3.600000000000000000e+01 8.540742477666672983e+01
3.640000000000000568e+01 8.487490369945948032e+01
3.679999999999999716e+01 8.435172332915804816e+01
3.720000000000000284e+01 8.380567515103626874e+01
3.760000000000000142e+01 8.330564809024296835e+01
3.800000000000000000e+01 8.281404135032886416e+01
3.840000000000000568e+01 8.233061818912827334e+01
3.879999999999999716e+01 8.185515119759698166e+01
3.920000000000000284e+01 8.138742182715647289e+01
3.960000000000000142e+01 8.092721994619428472e+01
4.000000000000000000e+01 8.047434342360575954e+01
4.040000000000000568e+01 8.002783672548649463e+01
4.079999999999999716e+01 7.958867386832801571e+01
4.120000000000000284e+01 7.916911728271220738e+01
4.160000000000000142e+01 7.875624304794676789e+01
4.200000000000000000e+01 7.834987176778314222e+01
4.239999999999999858e+01 7.794848956864072420e+01
4.280000000000000426e+01 7.755173547951345370e+01
4.320000000000000284e+01 7.716106503466845368e+01
4.360000000000000142e+01 7.677632094634211057e+01
4.400000000000000000e+01 7.639735160054119945e+01
4.439999999999999858e+01 7.602401079608640089e+01
4.480000000000000426e+01 7.565615749818307734e+01
4.520000000000000284e+01 7.528762455578620916e+01
4.560000000000000142e+01 7.492172546378883169e+01
4.600000000000000000e+01 7.456112307427214603e+01
4.639999999999999858e+01 7.420568800819070532e+01
4.680000000000000426e+01 7.385529530295151801e+01
4.720000000000000284e+01 7.350982421990744342e+01
4.760000000000000142e+01 7.316915806201960493e+01
4.800000000000000000e+01 7.283318400106078627e+01
4.840000000000000568e+01 7.209325876543525169e+01
4.880000000000000426e+01 7.181169476861759904e+01
4.920000000000000284e+01 7.148150595171105692e+01
4.960000000000000142e+01 7.115940400634741536e+01
5.000000000000000000e+01 7.084198957001832753e+01
5.040000000000000568e+01 7.052879120861265960e+01
5.080000000000000426e+01 7.021971492525995018e+01
5.120000000000000284e+01 6.991466963825355663e+01
5.160000000000000142e+01 6.961356706594342825e+01
5.200000000000000000e+01 6.931632161712850859e+01
5.240000000000000568e+01 6.902285028664111621e+01
5.280000000000000426e+01 6.873307255583489450e+01
5.320000000000000284e+01 6.844691029770753232e+01
5.360000000000000142e+01 6.816428768640480484e+01
5.400000000000000000e+01 6.788513111086972174e+01
5.440000000000000568e+01 6.760936909241381443e+01
5.480000000000000426e+01 6.733731017454800849e+01
5.520000000000000284e+01 6.706897039673388861e+01
5.560000000000000142e+01 6.680331734003513589e+01
5.600000000000000000e+01 6.653356087629094873e+01
5.640000000000000568e+01 6.626680673677597611e+01
5.680000000000000426e+01 6.600299937191255140e+01
5.720000000000000284e+01 6.574208467145795964e+01
5.760000000000000142e+01 6.548400991651001846e+01
5.800000000000000000e+01 6.522872373346908148e+01
5.840000000000000568e+01 6.516116602597159613e+01
5.880000000000000426e+01 6.491545461377550907e+01
5.920000000000000284e+01 6.467187925066208720e+01
5.960000000000000142e+01 6.443083963222410659e+01
6.000000000000000000e+01 6.419229191060264839e+01
6.040000000000000568e+01 6.395619329790055474e+01
6.080000000000000426e+01 6.372250203325427265e+01
6.120000000000000284e+01 6.349117735115476080e+01
6.160000000000000142e+01 6.324624463342471614e+01
6.200000000000000000e+01 6.301916728883678331e+01
6.240000000000000568e+01 6.279434642530975452e+01
6.280000000000000426e+01 6.257174479917510013e+01
6.320000000000000284e+01 6.235132602591744444e+01
6.360000000000000142e+01 6.213305455470679561e+01
6.400000000000000000e+01 6.191689564385254130e+01
6.440000000000000568e+01 6.170281533714007338e+01
6.480000000000001137e+01 6.149078044101237595e+01
6.520000000000000284e+01 6.128075850256126245e+01
6.559999999999999432e+01 6.107271778829399267e+01
6.600000000000000000e+01 6.086662726364342291e+01
6.640000000000000568e+01 6.066245657319080919e+01
6.680000000000001137e+01 6.060789503622832797e+01
6.720000000000000284e+01 6.041954529680412378e+01
6.759999999999999432e+01 6.023288679351847463e+01
6.800000000000000000e+01 6.004789402913866780e+01
6.840000000000000568e+01 5.986454204721592021e+01
6.880000000000001137e+01 5.968270784306509569e+01
6.920000000000000284e+01 5.950240472539139347e+01
6.959999999999999432e+01 5.935372317844480250e+01
7.000000000000000000e+01 5.917777122091156627e+01
7.040000000000000568e+01 5.900333128222487744e+01
7.080000000000001137e+01 5.883038154882782322e+01
7.120000000000000284e+01 5.865890064979963370e+01
7.159999999999999432e+01 5.848869856102436415e+01
7.200000000000000000e+01 5.831942735414485668e+01
7.240000000000000568e+01 5.815156948704507300e+01
7.280000000000001137e+01 5.798510516524804359e+01
7.320000000000000284e+01 5.782001498401638884e+01
7.359999999999999432e+01 5.765627991845385480e+01
7.400000000000000000e+01 5.749388131391455659e+01
7.440000000000000568e+01 5.733280087670907221e+01
7.479999999999999716e+01 5.717302066509567737e+01
7.520000000000000284e+01 5.701452308054730622e+01
7.560000000000000853e+01 5.685729085928351623e+01
7.600000000000000000e+01 5.670130706405851129e+01
7.640000000000000568e+01 5.655439747953787588e+01
7.679999999999999716e+01 5.640066028728402614e+01
7.720000000000000284e+01 5.624812645184741200e+01
7.760000000000000853e+01 5.609535244838306056e+01
7.800000000000000000e+01 5.594339452920824840e+01
7.840000000000000568e+01 5.579265179989251067e+01
7.879999999999999716e+01 5.564310778526191115e+01
7.920000000000000284e+01 5.549474632379753558e+01
7.960000000000000853e+01 5.534755155998340825e+01
8.000000000000000000e+01 5.520150793688115698e+01
8.040000000000000568e+01 5.505660018892380236e+01
8.079999999999999716e+01 5.491264935989345020e+01
8.120000000000000284e+01 5.476977910496032109e+01
8.160000000000000853e+01 5.462800124104732902e+01
8.200000000000000000e+01 5.448730160392702260e+01
8.240000000000000568e+01 5.434766628745317263e+01
8.279999999999999716e+01 5.420908163753095010e+01
8.320000000000000284e+01 5.407153424625834504e+01
8.360000000000000853e+01 5.393501094623320569e+01
8.400000000000000000e+01 5.379949880502039150e+01
8.440000000000000568e+01 5.366507980636126263e+01
8.479999999999999716e+01 5.353176753071832650e+01
8.520000000000000284e+01 5.339942507859267096e+01
8.560000000000000853e+01 5.326804048138085790e+01
8.600000000000000000e+01 5.313760197820159448e+01
8.640000000000000568e+01 5.300809801126966647e+01
8.680000000000001137e+01 5.287951722139530375e+01
8.720000000000000284e+01 5.275184844360457959e+01
8.760000000000000853e+01 5.263476136247221149e+01
8.800000000000000000e+01 5.251142160433630579e+01
8.840000000000000568e+01 5.238893790991376420e+01
8.880000000000001137e+01 5.226730022574896850e+01
8.920000000000000284e+01 5.214649866394797328e+01
8.960000000000000853e+01 5.202652349868631632e+01
9.000000000000000000e+01 5.190736516280620094e+01
9.040000000000000568e+01 5.178901424450059210e+01
9.080000000000001137e+01 5.167146148408157558e+01
9.120000000000000284e+01 5.155469777083040128e+01
9.160000000000000853e+01 5.143871413992678043e+01
9.200000000000000000e+01 5.132350176945536901e+01
9.240000000000000568e+01 5.120905197748658821e+01
9.280000000000001137e+01 5.108691862203718159e+01
9.320000000000000284e+01 5.096967665658701208e+01
9.360000000000000853e+01 5.085808666128157540e+01
9.400000000000000000e+01 5.074722273739160272e+01
9.440000000000000568e+01 5.063707688305515831e+01
9.480000000000001137e+01 5.052764122023262416e+01
9.520000000000000284e+01 5.041890799225016906e+01
9.560000000000000853e+01 5.031086956140235600e+01
9.600000000000000000e+01 5.020351840661260923e+01
9.640000000000000568e+01 5.009684712114918170e+01
9.680000000000001137e+01 4.999084841039616123e+01
9.720000000000000284e+01 4.988551508967682935e+01
9.760000000000000853e+01 4.978084008212857725e+01
9.800000000000000000e+01 4.967600796293410781e+01
9.840000000000000568e+01 4.957169969702949430e+01
9.880000000000001137e+01 4.946802177762461383e+01
9.920000000000000284e+01 4.936496782014161511e+01
9.960000000000000853e+01 4.926253153069286128e+01
1.000000000000000000e+02 4.916070670442134372e+01
1.004000000000000057e+02 4.905948722387829974e+01
1.008000000000000114e+02 4.895886705743706813e+01
1.012000000000000028e+02 4.885884025774213768e+01
1.016000000000000085e+02 4.875925887556629590e+01
1.020000000000000000e+02 4.866020626391062365e+01
1.024000000000000057e+02 4.856173108415105588e+01
1.028000000000000114e+02 4.846382769425878223e+01
1.032000000000000028e+02 4.836649052949130834e+01
1.036000000000000085e+02 4.826966065190399036e+01
1.040000000000000000e+02 4.817292323156735989e+01
1.044000000000000057e+02 4.807674022534204283e+01
1.048000000000000114e+02 4.798110630961326706e+01
1.052000000000000028e+02 4.788601623241081029e+01
1.056000000000000085e+02 4.779144240202565186e+01
1.060000000000000000e+02 4.769713730514772720e+01
1.064000000000000057e+02 4.760336287253971932e+01
1.068000000000000114e+02 4.751011410157344983e+01
1.072000000000000028e+02 4.741738605570423459e+01
1.076000000000000085e+02 4.732517386334700404e+01
1.080000000000000000e+02 4.723347271677613435e+01
1.084000000000000057e+02 4.714227787104785961e+01
1.088000000000000114e+02 4.705158464294503062e+01
1.092000000000000028e+02 4.696138840994356656e+01
1.096000000000000085e+02 4.687168460920004520e+01
1.100000000000000000e+02 4.678246873656002691e+01
1.104000000000000057e+02 4.669373634558644426e+01
1.108000000000000114e+02 4.660836241252939516e+01
1.112000000000000028e+02 4.653411894892467160e+01
1.116000000000000085e+02 4.644889056000324246e+01
1.120000000000000000e+02 4.636411656461936559e+01
1.124000000000000057e+02 4.627979288076166853e+01
1.128000000000000114e+02 4.619591547800559539e+01
1.132000000000000028e+02 4.611248037667250088e+01
1.136000000000000085e+02 4.602948364700513650e+01
1.140000000000000000e+02 4.594692140835988425e+01
1.144000000000000057e+02 4.586478982841475727e+01
1.148000000000000114e+02 4.578308512239319583e+01
1.152000000000000028e+02 4.570180355230304059e+01
1.156000000000000085e+02 4.562094142619051240e+01
1.160000000000000000e+02 4.554049509740876545e+01
1.164000000000000057e+02 4.546046096390049485e+01
1.168000000000000114e+02 4.538083546749478359e+01
1.172000000000000028e+02 4.530161509321721525e+01
1.176000000000000085e+02 4.522279636861343022e+01
1.180000000000000000e+02 4.514437586308572037e+01
1.184000000000000057e+02 4.506635018724207953e+01
1.188000000000000114e+02 4.498871599225792295e+01
1.192000000000000028e+02 4.491146996924970836e+01
1.196000000000000085e+02 4.483460884866049412e+01
1.200000000000000000e+02 4.476480870022000857e+01
1.204000000000000057e+02 4.468894543737233249e+01
1.208000000000000114e+02 4.461345374843183720e+01
1.212000000000000028e+02 4.453833237653000765e+01
1.216000000000000085e+02 4.446357826078453712e+01
1.220000000000000000e+02 4.438918837588706623e+01
1.224000000000000057e+02 4.431515973156975718e+01
1.228000000000000114e+02 4.425526417608901397e+01
1.232000000000000028e+02 4.418247246629380243e+01
1.236000000000000085e+02 4.411002952006429467e+01
1.240000000000000000e+02 4.403793251999300651e+01
1.244000000000000057e+02 4.396600110309472598e+01
1.248000000000000114e+02 4.389409799828518999e+01
1.252000000000000028e+02 4.382253957993593474e+01
1.256000000000000085e+02 4.375132304524215954e+01
1.260000000000000000e+02 4.368044562353025384e+01
1.264000000000000057e+02 4.360990457578370894e+01
1.268000000000000114e+02 4.353969719417766271e+01
1.272000000000000028e+02 4.346982080162166540e+01
1.276000000000000085e+02 4.340027275131075157e+01
1.280000000000000000e+02 4.333105042628442760e+01
1.284000000000000057e+02 4.326215123899351767e+01
1.288000000000000114e+02 4.319357263087468368e+01
1.291999999999999886e+02 4.312531207193248406e+01
1.296000000000000227e+02 4.305736706032868000e+01
1.300000000000000000e+02 4.298973512197887459e+01
1.304000000000000057e+02 4.292042138493176395e+01
1.308000000000000114e+02 4.285363210362332609e+01
1.311999999999999886e+02 4.278714778508918215e+01
1.316000000000000227e+02 4.272096606813118314e+01
1.320000000000000000e+02 4.265508461733715961e+01
1.324000000000000057e+02 4.258950112271823940e+01
1.328000000000000114e+02 4.252421329935247485e+01
1.331999999999999886e+02 4.245921888703461633e+01
1.336000000000000227e+02 4.239451564993175481e+01
1.340000000000000000e+02 4.233010137624488323e+01
1.344000000000000057e+02 4.226591104920375841e+01
1.348000000000000114e+02 4.220200315392762036e+01
1.351999999999999886e+02 4.213837800476446915e+01
1.356000000000000227e+02 4.207503348099618989e+01
1.360000000000000000e+02 4.201196748434499995e+01
1.364000000000000057e+02 4.194917793866748212e+01
1.368000000000000114e+02 4.188668111557824147e+01
1.371999999999999886e+02 4.182515798627166959e+01
1.376000000000000227e+02 4.176390097744460661e+01
1.380000000000000000e+02 4.170290814186764550e+01
1.384000000000000057e+02 4.164217755236789742e+01
1.388000000000000114e+02 4.158170730156329853e+01
1.392000000000000171e+02 4.152149550160123681e+01
1.395999999999999943e+02 4.146154028390127877e+01
1.400000000000000000e+02 4.140183979890214516e+01
1.404000000000000057e+02 4.134230914612047769e+01
1.408000000000000114e+02 4.128297290089956562e+01
1.412000000000000171e+02 4.122388664530825508e+01
1.415999999999999943e+02 4.116496716833272274e+01
1.420000000000000000e+02 4.110624855130060240e+01
1.424000000000000057e+02 4.104777537323163017e+01
1.428000000000000114e+02 4.098954589892912992e+01
1.432000000000000171e+02 4.093155841046852572e+01
1.435999999999999943e+02 4.087381120697617831e+01
1.440000000000000000e+02 4.081630260441167479e+01
1.444000000000000057e+02 4.075903093535347210e+01
1.448000000000000114e+02 4.070199454878789425e+01
1.452000000000000171e+02 4.064519180990142644e+01
1.455999999999999943e+02 4.058862109987615696e+01
1.460000000000000000e+02 4.053228081568844487e+01
1.464000000000000057e+02 4.047616936991051517e+01
1.468000000000000114e+02 4.042028519051541480e+01
1.472000000000000171e+02 4.036462672068460478e+01
1.475999999999999943e+02 4.030919241861862901e+01
1.480000000000000000e+02 4.025398075735072467e+01
1.484000000000000057e+02 4.019899022456311855e+01
1.488000000000000114e+02 4.014421932240625779e+01
1.492000000000000171e+02 4.008966656732054190e+01
1.495999999999999943e+02 4.003498954563254131e+01
1.500000000000000000e+02 3.998013342728221176e+01
