1.000000000000000000e+01 3.283223045742448107e+02
1.040000000000000036e+01 3.506871990935476333e+02
1.080000000000000071e+01 3.649250663344561190e+02
1.119999999999999929e+01 3.680992821445194636e+02
1.159999999999999964e+01 3.734195873666291163e+02
1.200000000000000000e+01 3.927064336312835167e+02
1.240000000000000036e+01 4.066253858574207811e+02
1.280000000000000071e+01 4.162501356383962730e+02
1.319999999999999929e+01 4.141462706729879528e+02
1.359999999999999964e+01 4.133609212427591615e+02
1.400000000000000000e+01 4.158027348168352546e+02
1.440000000000000036e+01 4.172797577490984509e+02
1.480000000000000071e+01 4.101491510948611676e+02
1.519999999999999929e+01 4.034411275677364301e+02
1.560000000000000142e+01 3.971124375464600007e+02
1.600000000000000000e+01 3.911260930283343100e+02
1.639999999999999858e+01 3.854502034722173676e+02
1.680000000000000071e+01 3.800570738504960673e+02
1.719999999999999929e+01 3.749224961245206487e+02
1.760000000000000142e+01 3.700251857863596570e+02
1.800000000000000000e+01 3.653463288142778538e+02
1.839999999999999858e+01 3.608692137829341391e+02
1.880000000000000071e+01 3.565789304328291109e+02
1.920000000000000284e+01 3.524621206694123430e+02
1.960000000000000142e+01 3.485067713312383830e+02
2.000000000000000000e+01 3.447020405337580087e+02
2.039999999999999858e+01 3.410381112255962535e+02
2.080000000000000071e+01 3.375060669680630099e+02
2.120000000000000284e+01 3.340977859912189842e+02
2.160000000000000142e+01 3.308058503789498559e+02
2.200000000000000000e+01 3.276234678537277887e+02
2.239999999999999858e+01 3.245444041141574871e+02
2.280000000000000071e+01 3.215629240578724080e+02
2.320000000000000284e+01 3.186737405230737750e+02
2.360000000000000142e+01 3.158719694220145584e+02
2.400000000000000000e+01 3.131530903325290183e+02
2.439999999999999858e+01 3.105129117695549894e+02
2.480000000000000071e+01 3.079475404852955194e+02
2.520000000000000284e+01 3.054533542502470027e+02
2.560000000000000142e+01 3.030269776524324357e+02
2.600000000000000000e+01 3.006652605224632566e+02
2.640000000000000213e+01 2.983652586503644102e+02
2.680000000000000071e+01 2.961242165086872546e+02
2.719999999999999929e+01 2.939395517370948596e+02
2.760000000000000142e+01 2.918088411777711713e+02
2.800000000000000000e+01 2.897298082798129144e+02
2.840000000000000213e+01 2.877003117151562037e+02
2.880000000000000071e+01 2.857183350693064767e+02
2.920000000000000284e+01 2.837819774877934265e+02
2.960000000000000142e+01 2.818894451743736340e+02
3.000000000000000000e+01 2.800390436499468478e+02
3.040000000000000213e+01 2.782291706922888466e+02
3.080000000000000071e+01 2.764583098863107011e+02
3.120000000000000284e+01 2.747250247228612920e+02
3.160000000000000142e+01 2.730279531912948414e+02
3.200000000000000000e+01 2.713658028172900458e+02
3.240000000000000568e+01 2.697373461028657289e+02
3.279999999999999716e+01 2.681414163303043097e+02
3.320000000000000284e+01 2.665769036958728861e+02
3.360000000000000142e+01 2.650427517428921078e+02
3.400000000000000000e+01 2.635379540669231346e+02
3.440000000000000568e+01 2.620615512686840702e+02
3.479999999999999716e+01 2.606126281328071741e+02
3.520000000000000284e+01 2.591903110127701666e+02
3.560000000000000142e+01 2.577937654042924578e+02
3.600000000000000000e+01 2.564221936912331330e+02
3.640000000000000568e+01 2.550748330495779612e+02
3.679999999999999716e+01 2.537509534964817419e+02
3.720000000000000284e+01 2.524498560725635059e+02
3.760000000000000142e+01 2.511708711467567241e+02
3.800000000000000000e+01 2.499133568339966018e+02
3.840000000000000568e+01 2.486766975169140892e+02
3.879999999999999716e+01 2.474603024634969302e+02
3.920000000000000284e+01 2.462636045333906623e+02
3.960000000000000142e+01 2.450860589661554343e+02
4.000000000000000000e+01 2.439271422453712148e+02
4.040000000000000568e+01 2.427863510330070937e+02
4.079999999999999716e+01 2.416632011689412707e+02
4.120000000000000284e+01 2.405572267309461267e+02
4.160000000000000142e+01 2.394679791508388291e+02
4.200000000000000000e+01 2.383950263828488687e+02
4.239999999999999858e+01 2.373379521205720835e+02
4.280000000000000426e+01 2.362963550591719297e+02
4.320000000000000284e+01 2.352698481997498448e+02
4.360000000000000142e+01 2.342580581930487256e+02
4.400000000000000000e+01 2.332606247198719984e+02
4.439999999999999858e+01 2.322771999058001597e+02
4.480000000000000426e+01 2.313074477679697623e+02
4.520000000000000284e+01 2.303510436918483890e+02
4.560000000000000142e+01 2.294076739360891679e+02
4.600000000000000000e+01 2.284770351636915677e+02
4.639999999999999858e+01 2.275588339978235126e+02
4.680000000000000426e+01 2.266527866007756415e+02
4.720000000000000284e+01 2.257586182746310612e+02
4.760000000000000142e+01 2.248760630823304609e+02
4.800000000000000000e+01 2.240048634879057659e+02
4.840000000000000568e+01 2.231447700147415389e+02
4.880000000000000426e+01 2.222955409207988566e+02
4.920000000000000284e+01 2.214569418898103663e+02
4.960000000000000142e+01 2.206287457375216547e+02
5.000000000000000000e+01 2.198107321321153904e+02
5.040000000000000568e+01 2.190026873280104951e+02
5.080000000000000426e+01 2.182044039122845618e+02
5.120000000000000284e+01 2.174156805630117901e+02
5.160000000000000142e+01 2.166363218188588462e+02
5.200000000000000000e+01 2.158661378593195366e+02
5.240000000000000568e+01 2.151049442950099149e+02
5.280000000000000426e+01 2.143525619674807672e+02
5.320000000000000284e+01 2.136088167580390120e+02
5.360000000000000142e+01 2.128735394050995069e+02
5.400000000000000000e+01 2.121465653296193068e+02
5.440000000000000568e+01 2.114277344681925399e+02
5.480000000000000426e+01 2.107168911134096732e+02
5.520000000000000284e+01 2.100138837611085592e+02
5.560000000000000142e+01 2.093185649641665691e+02
5.600000000000000000e+01 2.086307911925035228e+02
5.640000000000000568e+01 2.079504226989844824e+02
5.680000000000000426e+01 2.072773233909295243e+02
5.720000000000000284e+01 2.066113607069534623e+02
5.760000000000000142e+01 2.059524054988754074e+02
5.800000000000000000e+01 2.053003319184521160e+02
5.840000000000000568e+01 2.046550173087025826e+02
5.880000000000000426e+01 2.040163420996041737e+02
5.920000000000000284e+01 2.033841897079535954e+02
5.960000000000000142e+01 2.027584464411961847e+02
6.000000000000000000e+01 2.021390014050381865e+02
6.040000000000000568e+01 2.015257464146661164e+02
6.080000000000000426e+01 2.009185759094082755e+02
6.120000000000000284e+01 2.003173868706792291e+02
6.160000000000000142e+01 1.997220787430603082e+02
6.200000000000000000e+01 1.991325533583732010e+02
6.240000000000000568e+01 1.985487148626130818e+02
6.280000000000000426e+01 1.979704696456154238e+02
6.320000000000000284e+01 1.973977262733338307e+02
6.360000000000000142e+01 1.968303954226162773e+02
6.400000000000000000e+01 1.962683898183702240e+02
6.440000000000000568e+01 1.957116241730134334e+02
6.480000000000001137e+01 1.951600151281126614e+02
6.520000000000000284e+01 1.946134811981168582e+02
6.559999999999999432e+01 1.940719427160955775e+02
6.600000000000000000e+01 1.935353217813998299e+02
6.640000000000000568e+01 1.930035422091630153e+02
6.680000000000001137e+01 1.924765294815674110e+02
6.720000000000000284e+01 1.919542107008020366e+02
6.759999999999999432e+01 1.914365145436434545e+02
6.800000000000000000e+01 1.909233712175932851e+02
6.840000000000000568e+01 1.904147124185089979e+02
6.880000000000001137e+01 1.899104712896684077e+02
6.920000000000000284e+01 1.894105823822110892e+02
6.959999999999999432e+01 1.889149816169006613e+02
7.000000000000000000e+01 1.884236062471575224e+02
7.040000000000000568e+01 1.879363948233109909e+02
7.080000000000001137e+01 1.874532871580238975e+02
7.120000000000000284e+01 1.869742242928444398e+02
7.159999999999999432e+01 1.864991484658412446e+02
7.200000000000000000e+01 1.860280030802811098e+02
7.240000000000000568e+01 1.855607326743089232e+02
7.280000000000001137e+01 1.850972828915925845e+02
7.320000000000000284e+01 1.846376004528961516e+02
7.359999999999999432e+01 1.841816331285469914e+02
7.400000000000000000e+01 1.837293297117635689e+02
7.440000000000000568e+01 1.832806399928118140e+02
7.479999999999999716e+01 1.828355147339605651e+02
7.520000000000000284e+01 1.823939056452055070e+02
7.560000000000000853e+01 1.819557653607354553e+02
7.600000000000000000e+01 1.815210474161126513e+02
7.640000000000000568e+01 1.810897062261424537e+02
7.679999999999999716e+01 1.806616970634075585e+02
7.720000000000000284e+01 1.802369760374430143e+02
7.760000000000000853e+01 1.798155000745297514e+02
7.800000000000000000e+01 1.793972268980847389e+02
7.840000000000000568e+01 1.789821150096269662e+02
7.879999999999999716e+01 1.785701236702994095e+02
7.920000000000000284e+01 1.781612128829276003e+02
7.960000000000000853e+01 1.777553433745966345e+02
8.000000000000000000e+01 1.773524765797290570e+02
8.040000000000000568e+01 1.769525746236457167e+02
8.079999999999999716e+01 1.765556003065946129e+02
8.120000000000000284e+01 1.761615170882312214e+02
8.160000000000000853e+01 1.757702890725350926e+02
8.200000000000000000e+01 1.753818809931488545e+02
8.240000000000000568e+01 1.749962581991251227e+02
8.279999999999999716e+01 1.746133866410683027e+02
8.320000000000000284e+01 1.742332328576577538e+02
8.360000000000000853e+01 1.738557639625408342e+02
8.400000000000000000e+01 1.734809476315832057e+02
8.440000000000000568e+01 1.731087520904645203e+02
8.479999999999999716e+01 1.727391461026097659e+02
8.520000000000000284e+01 1.723720989574440239e+02
8.560000000000000853e+01 1.720075804589616268e+02
8.600000000000000000e+01 1.716455609145987751e+02
8.640000000000000568e+01 1.712860111244008294e+02
8.680000000000001137e+01 1.709289023704750150e+02
8.720000000000000284e+01 1.705742064067188153e+02
8.760000000000000853e+01 1.702218954488168094e+02
8.800000000000000000e+01 1.698719421644966587e+02
8.840000000000000568e+01 1.695243196640366818e+02
8.880000000000001137e+01 1.691790014910177149e+02
8.920000000000000284e+01 1.688359616133108148e+02
8.960000000000000853e+01 1.684951744142950361e+02
9.000000000000000000e+01 1.681566146842969260e+02
9.040000000000000568e+01 1.678202576122465928e+02
9.080000000000001137e+01 1.674860787775425592e+02
9.120000000000000284e+01 1.671540541421200601e+02
9.160000000000000853e+01 1.668241600427163007e+02
9.200000000000000000e+01 1.664963731833275631e+02
9.240000000000000568e+01 1.661706706278514503e+02
9.280000000000001137e+01 1.658470297929100070e+02
9.320000000000000284e+01 1.655254284408478043e+02
9.360000000000000853e+01 1.652058446729001275e+02
9.400000000000000000e+01 1.648882569225264945e+02
9.440000000000000568e+01 1.645726439489044424e+02
9.480000000000001137e+01 1.642589848305795499e+02
9.520000000000000284e+01 1.639472589592667759e+02
9.560000000000000853e+01 1.636374460337990513e+02
9.600000000000000000e+01 1.633295260542191727e+02
9.640000000000000568e+01 1.630234793160104232e+02
9.680000000000001137e+01 1.627192864044628777e+02
9.720000000000000284e+01 1.624169281891710739e+02
9.760000000000000853e+01 1.621163858186591824e+02
9.800000000000000000e+01 1.618176407151312048e+02
9.840000000000000568e+01 1.615206745693414518e+02
9.880000000000001137e+01 1.612254693355832558e+02
9.920000000000000284e+01 1.609320072267916544e+02
9.960000000000000853e+01 1.606402707097579992e+02
1.000000000000000000e+02 1.603502425004523388e+02
1.004000000000000057e+02 1.600619055594519295e+02
1.008000000000000114e+02 1.597752430874717504e+02
1.012000000000000028e+02 1.594902385209958027e+02
1.016000000000000085e+02 1.592068755280047867e+02
1.020000000000000000e+02 1.589251380037991908e+02
1.024000000000000057e+02 1.586450100669145229e+02
1.028000000000000114e+02 1.583664760551261566e+02
1.032000000000000028e+02 1.580895205215419423e+02
1.036000000000000085e+02 1.578141282307798292e+02
1.040000000000000000e+02 1.575402841552291591e+02
1.044000000000000057e+02 1.572679734713917128e+02
1.048000000000000114e+02 1.569971815563029907e+02
1.052000000000000028e+02 1.567278939840292367e+02
1.056000000000000085e+02 1.564600965222399509e+02
1.060000000000000000e+02 1.561937751288533036e+02
1.064000000000000057e+02 1.559289159487524330e+02
1.068000000000000114e+02 1.556655053105715183e+02
1.072000000000000028e+02 1.554035297235492408e+02
1.076000000000000085e+02 1.551429758744482399e+02
1.080000000000000000e+02 1.548838306245391436e+02
1.084000000000000057e+02 1.546260810066467002e+02
1.088000000000000114e+02 1.543697142222580965e+02
1.092000000000000028e+02 1.541147176386900242e+02
1.096000000000000085e+02 1.538610787863144083e+02
1.100000000000000000e+02 1.536087853558411780e+02
1.104000000000000057e+02 1.533578251956559484e+02
1.108000000000000114e+02 1.531081863092122717e+02
1.112000000000000028e+02 1.528598568524766677e+02
1.116000000000000085e+02 1.526128251314246995e+02
1.120000000000000000e+02 1.523670795995881804e+02
1.124000000000000057e+02 1.521226088556506966e+02
1.128000000000000114e+02 1.518794016410916470e+02
1.132000000000000028e+02 1.516374468378770075e+02
1.136000000000000085e+02 1.513967334661954283e+02
1.140000000000000000e+02 1.511572506822397770e+02
1.144000000000000057e+02 1.509189877760312584e+02
1.148000000000000114e+02 1.506819341692871035e+02
1.152000000000000028e+02 1.504460794133294996e+02
1.156000000000000085e+02 1.502114131870347364e+02
1.160000000000000000e+02 1.499779252948230237e+02
1.164000000000000057e+02 1.497456056646861384e+02
1.168000000000000114e+02 1.495144443462536969e+02
1.172000000000000028e+02 1.492844315088961480e+02
1.176000000000000085e+02 1.490555574398641170e+02
1.180000000000000000e+02 1.488278125424631355e+02
1.184000000000000057e+02 1.486011873342627894e+02
1.188000000000000114e+02 1.483756724453402285e+02
1.192000000000000028e+02 1.481512586165559355e+02
1.196000000000000085e+02 1.479279366978627763e+02
1.200000000000000000e+02 1.477056976466458025e+02
1.204000000000000057e+02 1.474845325260936590e+02
1.208000000000000114e+02 1.472644325035997781e+02
1.212000000000000028e+02 1.470453888491933867e+02
1.216000000000000085e+02 1.468273929339993913e+02
1.220000000000000000e+02 1.466104362287265133e+02
1.224000000000000057e+02 1.463945103021832779e+02
1.228000000000000114e+02 1.461796068198207479e+02
1.232000000000000028e+02 1.459657175423022295e+02
1.236000000000000085e+02 1.457528343240984725e+02
1.240000000000000000e+02 1.455409491121085352e+02
1.244000000000000057e+02 1.453300539443053481e+02
1.248000000000000114e+02 1.451201409484055773e+02
1.252000000000000028e+02 1.449112023405634773e+02
1.256000000000000085e+02 1.447032304240875931e+02
1.260000000000000000e+02 1.444962175881808548e+02
1.264000000000000057e+02 1.442901563067024426e+02
1.268000000000000114e+02 1.440850391369517922e+02
1.272000000000000028e+02 1.438808587184740020e+02
1.276000000000000085e+02 1.436776077718860734e+02
1.280000000000000000e+02 1.434752790977235861e+02
1.284000000000000057e+02 1.432738655753078660e+02
1.288000000000000114e+02 1.430733601616321380e+02
1.291999999999999886e+02 1.428737558902679154e+02
1.296000000000000227e+02 1.426750458702891251e+02
1.300000000000000000e+02 1.424772232852158425e+02
1.304000000000000057e+02 1.422802813919751088e+02
1.308000000000000114e+02 1.420842135198805067e+02
1.311999999999999886e+02 1.418890130696281915e+02
1.316000000000000227e+02 1.416946735123106862e+02
1.320000000000000000e+02 1.415011883884469057e+02
1.324000000000000057e+02 1.413085513070288641e+02
1.328000000000000114e+02 1.411167559445841277e+02
1.331999999999999886e+02 1.409257960442542412e+02
1.336000000000000227e+02 1.407356654148883877e+02
1.340000000000000000e+02 1.405463579301522543e+02
1.344000000000000057e+02 1.403578675276517060e+02
1.348000000000000114e+02 1.401701882080707264e+02
1.351999999999999886e+02 1.399833140343241666e+02
1.356000000000000227e+02 1.397972391307235966e+02
1.360000000000000000e+02 1.396119576821577084e+02
1.364000000000000057e+02 1.394274639332854804e+02
1.368000000000000114e+02 1.392437521877428992e+02
1.371999999999999886e+02 1.390608168073624142e+02
1.376000000000000227e+02 1.388786522114049262e+02
1.380000000000000000e+02 1.386972528758045087e+02
1.384000000000000057e+02 1.385166133324249245e+02
1.388000000000000114e+02 1.383367281683284773e+02
1.392000000000000171e+02 1.381575920250562604e+02
1.395999999999999943e+02 1.379791995979200010e+02
1.400000000000000000e+02 1.378015456353051889e+02
1.404000000000000057e+02 1.376246249379853452e+02
1.408000000000000114e+02 1.374484323584469507e+02
1.412000000000000171e+02 1.372729628002253435e+02
1.415999999999999943e+02 1.370982112172506504e+02
1.420000000000000000e+02 1.369241726132041777e+02
1.424000000000000057e+02 1.367508420408852885e+02
1.428000000000000114e+02 1.365782146015872058e+02
1.432000000000000171e+02 1.364062854444834159e+02
1.435999999999999943e+02 1.362350497660232804e+02
1.440000000000000000e+02 1.360645028093367159e+02
1.444000000000000057e+02 1.358946398636484787e+02
1.448000000000000114e+02 1.357254562637012896e+02
1.452000000000000171e+02 1.355569473891876555e+02
1.455999999999999943e+02 1.353891086641905872e+02
1.460000000000000000e+02 1.352219355566328147e+02
1.464000000000000057e+02 1.350554235777341887e+02
1.468000000000000114e+02 1.348895682814775796e+02
1.472000000000000171e+02 1.347243652640826497e+02
1.475999999999999943e+02 1.345598101634876116e+02
1.480000000000000000e+02 1.343958986588386892e+02
1.484000000000000057e+02 1.342326264699875935e+02
1.488000000000000114e+02 1.340699893569960182e+02
1.492000000000000171e+02 1.339079831196478096e+02
1.495999999999999943e+02 1.337466035969681855e+02
1.500000000000000000e+02 1.335858466667505127e+02
