1.000000000000000000e+01 2.043943052334153094e+02
1.040000000000000036e+01 2.013742877108593348e+02
1.080000000000000071e+01 2.006006612278913224e+02
1.119999999999999929e+01 2.034166569467486170e+02
1.159999999999999964e+01 2.049949649172155830e+02
1.200000000000000000e+01 1.986667169022708208e+02
1.240000000000000036e+01 1.871391755333541198e+02
1.280000000000000071e+01 1.820975133676820974e+02
1.319999999999999929e+01 1.774425081850611434e+02
1.359999999999999964e+01 1.731249735755060044e+02
1.400000000000000000e+01 1.691043901636173814e+02
1.440000000000000036e+01 1.651630110655024453e+02
1.480000000000000071e+01 1.613954501055544313e+02
1.519999999999999929e+01 1.578695941684720196e+02
1.560000000000000142e+01 1.553061238388729066e+02
1.600000000000000000e+01 1.530317669548825279e+02
1.639999999999999858e+01 1.508926368876650486e+02
1.680000000000000071e+01 1.488987150034199658e+02
1.719999999999999929e+01 1.470639509847721058e+02
1.760000000000000142e+01 1.453231926355772146e+02
1.800000000000000000e+01 1.455865491310571258e+02
1.839999999999999858e+01 1.440408343302235892e+02
1.880000000000000071e+01 1.393166984808914037e+02
1.920000000000000284e+01 1.288049651601214691e+02
1.960000000000000142e+01 1.269551615086871692e+02
2.000000000000000000e+01 1.251845789822156263e+02
2.039999999999999858e+01 1.234876060479157047e+02
2.080000000000000071e+01 1.218591793958781864e+02
2.120000000000000284e+01 1.202947161295566190e+02
2.160000000000000142e+01 1.188079517309808182e+02
2.200000000000000000e+01 1.173839542391932582e+02
2.239999999999999858e+01 1.160106792442988706e+02
2.280000000000000071e+01 1.146851382661092913e+02
2.320000000000000284e+01 1.123109919961207765e+02
2.360000000000000142e+01 1.109199630322952430e+02
2.400000000000000000e+01 1.095726270681671508e+02
2.439999999999999858e+01 1.082667150159742988e+02
2.480000000000000071e+01 1.070001219116125810e+02
2.520000000000000284e+01 1.057708917612814474e+02
2.560000000000000142e+01 1.042445936614605557e+02
2.600000000000000000e+01 1.030936083795713643e+02
2.640000000000000213e+01 1.019743571725283999e+02
2.680000000000000071e+01 1.008853952673986640e+02
2.719999999999999929e+01 9.982536955209009477e+01
2.760000000000000142e+01 9.879301114302441533e+01
2.800000000000000000e+01 9.778712868382709189e+01
2.840000000000000213e+01 9.680660229079904866e+01
2.880000000000000071e+01 9.585037807202841975e+01
2.920000000000000284e+01 9.491746315645565346e+01
2.960000000000000142e+01 9.400243682129803346e+01
3.000000000000000000e+01 9.308928483707131818e+01
3.040000000000000213e+01 9.219429743036982927e+01
3.080000000000000071e+01 9.132007710323176752e+01
3.120000000000000284e+01 9.046583150735055767e+01
3.160000000000000142e+01 8.963081032464992859e+01
3.200000000000000000e+01 9.207457148936042302e+01
3.240000000000000568e+01 9.137145353644586976e+01
3.279999999999999716e+01 9.068300285559104168e+01
3.320000000000000284e+01 9.000870663138917394e+01
3.360000000000000142e+01 8.934807722606495872e+01
3.400000000000000000e+01 8.870065059220233650e+01
3.440000000000000568e+01 8.806598480721004307e+01
3.479999999999999716e+01 8.744365871856548722e+01
3.520000000000000284e+01 8.656807474186021523e+01
3.560000000000000142e+01 8.600000183335106385e+01
3.600000000000000000e+01 8.544228905887622716e+01
3.640000000000000568e+01 8.489462102506301733e+01
3.679999999999999716e+01 8.435669578689059733e+01
3.720000000000000284e+01 8.382822411237216897e+01
3.760000000000000142e+01 8.330892879610730972e+01
3.800000000000000000e+01 8.279854401789367557e+01
3.840000000000000568e+01 8.229681474292948451e+01
3.879999999999999716e+01 8.204263311257602709e+01
3.920000000000000284e+01 8.156797102627761831e+01
3.960000000000000142e+01 8.110100120764515452e+01
4.000000000000000000e+01 8.064151573144249596e+01
4.040000000000000568e+01 8.018819322852114340e+01
4.079999999999999716e+01 7.974190272437228089e+01
4.120000000000000284e+01 7.931539941965323237e+01
4.160000000000000142e+01 7.889575273661577626e+01
4.200000000000000000e+01 7.848277693572137537e+01
4.239999999999999858e+01 7.807629329010768515e+01
4.280000000000000426e+01 7.767612974820090699e+01
4.320000000000000284e+01 7.728212061597112381e+01
4.360000000000000142e+01 7.689410625749184192e+01
4.400000000000000000e+01 7.651193281257054934e+01
4.439999999999999858e+01 7.613545193031097824e+01
4.480000000000000426e+01 7.576452051755489947e+01
4.520000000000000284e+01 7.539296945144458562e+01
4.560000000000000142e+01 7.502411033710953348e+01
4.600000000000000000e+01 7.466060421469668995e+01
4.639999999999999858e+01 7.430231996709301256e+01
4.680000000000000426e+01 7.397924808078411729e+01
4.720000000000000284e+01 7.363415572701018164e+01
4.760000000000000142e+01 7.329386422033611836e+01
4.800000000000000000e+01 7.295789208483166988e+01
4.840000000000000568e+01 7.221681184643077245e+01
4.880000000000000426e+01 7.188016294545668927e+01
4.920000000000000284e+01 7.154814745940829823e+01
4.960000000000000142e+01 7.122065864502047816e+01
5.000000000000000000e+01 7.089759317458872090e+01
5.040000000000000568e+01 7.057885099694081532e+01
5.080000000000000426e+01 7.026433520525276322e+01
5.120000000000000284e+01 6.995395191131417789e+01
5.160000000000000142e+01 6.964761012587504752e+01
5.200000000000000000e+01 6.934522164472979000e+01
5.240000000000000568e+01 6.904670094021639670e+01
5.280000000000000426e+01 6.875196505782948009e+01
5.320000000000000284e+01 6.846041792916224722e+01
5.360000000000000142e+01 6.817208421809601759e+01
5.400000000000000000e+01 6.788730378283788980e+01
5.440000000000000568e+01 6.760600307358248529e+01
5.480000000000000426e+01 6.732811065974456710e+01
5.520000000000000284e+01 6.705355715218257728e+01
5.560000000000000142e+01 6.678178738789166857e+01
5.600000000000000000e+01 6.650600891676168658e+01
5.640000000000000568e+01 6.623332522166850822e+01
5.680000000000000426e+01 6.596367857530395895e+01
5.720000000000000284e+01 6.569701275761522652e+01
5.760000000000000142e+01 6.543327300518939182e+01
5.800000000000000000e+01 6.517240596271435038e+01
5.840000000000000568e+01 6.509934961252558594e+01
5.880000000000000426e+01 6.484934673954404616e+01
5.920000000000000284e+01 6.458140540006046137e+01
5.960000000000000142e+01 6.434019361960645256e+01
6.000000000000000000e+01 6.410147270542086062e+01
6.040000000000000568e+01 6.388114465807097986e+01
6.080000000000000426e+01 6.364818741273770542e+01
6.120000000000000284e+01 6.341759387505075551e+01
6.160000000000000142e+01 6.318932418505387005e+01
6.200000000000000000e+01 6.296333942276977069e+01
6.240000000000000568e+01 6.273960157969840878e+01
6.280000000000000426e+01 6.251807353137137113e+01
6.320000000000000284e+01 6.229871901091594566e+01
6.360000000000000142e+01 6.208150258358556783e+01
6.400000000000000000e+01 6.186638962221407212e+01
6.440000000000000568e+01 6.165334628355522284e+01
6.480000000000001137e+01 6.144233948546891355e+01
6.520000000000000284e+01 6.123333688491865701e+01
6.559999999999999432e+01 6.102630685674648703e+01
6.600000000000000000e+01 6.082121847319234575e+01
6.640000000000000568e+01 6.061804148412773685e+01
6.680000000000001137e+01 6.056446531263003408e+01
6.720000000000000284e+01 6.037709270504049641e+01
6.759999999999999432e+01 6.019138839546530306e+01
6.800000000000000000e+01 6.000730339792120560e+01
6.840000000000000568e+01 5.982485078379359322e+01
6.880000000000001137e+01 5.964400625165558978e+01
6.920000000000000284e+01 5.946474600891186668e+01
6.959999999999999432e+01 5.928704675805356317e+01
7.000000000000000000e+01 5.911088568336790416e+01
7.040000000000000568e+01 5.893565616741220481e+01
7.080000000000001137e+01 5.876084637890175344e+01
7.120000000000000284e+01 5.858753111310171136e+01
7.159999999999999432e+01 5.841551985746600195e+01
7.200000000000000000e+01 5.824446420714865269e+01
7.240000000000000568e+01 5.807484615512909443e+01
7.280000000000001137e+01 5.790664545326575308e+01
7.320000000000000284e+01 5.773984225406415760e+01
7.359999999999999432e+01 5.757441710045782912e+01
7.400000000000000000e+01 5.741035091590795503e+01
7.440000000000000568e+01 5.724762499481067124e+01
7.479999999999999716e+01 5.708622099319962473e+01
7.520000000000000284e+01 5.692612091973437316e+01
7.560000000000000853e+01 5.676730712696298298e+01
7.600000000000000000e+01 5.660468808903926430e+01
7.640000000000000568e+01 5.644879434823621978e+01
7.679999999999999716e+01 5.629413373614723071e+01
7.720000000000000284e+01 5.614068991036126022e+01
7.760000000000000853e+01 5.598701910160704642e+01
7.800000000000000000e+01 5.583417732339157880e+01
7.840000000000000568e+01 5.568256344793295654e+01
7.879999999999999716e+01 5.553216077201305012e+01
7.920000000000000284e+01 5.538295291122904729e+01
7.960000000000000853e+01 5.523492379219945292e+01
8.000000000000000000e+01 5.508805764500138480e+01
8.040000000000000568e+01 5.494233899583132086e+01
8.079999999999999716e+01 5.479775265988165245e+01
8.120000000000000284e+01 5.465428373442531296e+01
8.160000000000000853e+01 5.451191759210158239e+01
8.200000000000000000e+01 5.437063987439610457e+01
8.240000000000000568e+01 5.423043648530842376e+01
8.279999999999999716e+01 5.409129358520102926e+01
8.320000000000000284e+01 5.395319758482330030e+01
8.360000000000000853e+01 5.381613513950502181e+01
8.400000000000000000e+01 5.371279844836044504e+01
8.440000000000000568e+01 5.357905195835157031e+01
8.479999999999999716e+01 5.344628415168718760e+01
8.520000000000000284e+01 5.331448287638650640e+01
8.560000000000000853e+01 5.318363619265440434e+01
8.600000000000000000e+01 5.305373236812739890e+01
8.640000000000000568e+01 5.292475987324929321e+01
8.680000000000001137e+01 5.279670737677228942e+01
8.720000000000000284e+01 5.266956374137939179e+01
8.760000000000000853e+01 5.255299867901892696e+01
8.800000000000000000e+01 5.243017784312215923e+01
8.840000000000000568e+01 5.230821000121958519e+01
8.880000000000001137e+01 5.218708512639257435e+01
8.920000000000000284e+01 5.206679335700970057e+01
8.960000000000000853e+01 5.194732499323662722e+01
9.000000000000000000e+01 5.182867049363576228e+01
9.040000000000000568e+01 5.171082047185264230e+01
9.080000000000001137e+01 5.159376569338658669e+01
9.120000000000000284e+01 5.147749707244329898e+01
9.160000000000000853e+01 5.136200566886652297e+01
9.200000000000000000e+01 5.124728268514691365e+01
9.240000000000000568e+01 5.113331946350538715e+01
9.280000000000001137e+01 5.102103563395996844e+01
9.320000000000000284e+01 5.090909811823992470e+01
9.360000000000000853e+01 5.079789170738771986e+01
9.400000000000000000e+01 5.068740831423249915e+01
9.440000000000000568e+01 5.057763997718710414e+01
9.480000000000001137e+01 5.046857885774816310e+01
9.520000000000000284e+01 5.036021723805649941e+01
9.560000000000000853e+01 5.025254751851655755e+01
9.600000000000000000e+01 5.014556221547278625e+01
9.640000000000000568e+01 5.003925395894162165e+01
9.680000000000001137e+01 4.993361549039754976e+01
9.720000000000000284e+01 4.982863966061149341e+01
9.760000000000000853e+01 4.972404473750115983e+01
9.800000000000000000e+01 4.961922283323500693e+01
9.840000000000000568e+01 4.951492559187113329e+01
9.880000000000001137e+01 4.941125949091359359e+01
9.920000000000000284e+01 4.930821813039192847e+01
9.960000000000000853e+01 4.920579520133200901e+01
1.000000000000000000e+02 4.910398448408949434e+01
1.004000000000000057e+02 4.900277984672069920e+01
1.008000000000000114e+02 4.890217524338988397e+01
1.012000000000000028e+02 4.880216471281185164e+01
1.016000000000000085e+02 4.870274237672919782e+01
1.020000000000000000e+02 4.860377905092011019e+01
1.024000000000000057e+02 4.850529237445937270e+01
1.028000000000000114e+02 4.840737830975763956e+01
1.032000000000000028e+02 4.831003127825619003e+01
1.036000000000000085e+02 4.821319232844443547e+01
1.040000000000000000e+02 4.811644661707202886e+01
1.044000000000000057e+02 4.802025608791866773e+01
1.048000000000000114e+02 4.792461540452369206e+01
1.052000000000000028e+02 4.782951930230127857e+01
1.056000000000000085e+02 4.773496258729429798e+01
1.060000000000000000e+02 4.764094013495473234e+01
1.064000000000000057e+02 4.754744688894963645e+01
1.068000000000000114e+02 4.745447785999247969e+01
1.072000000000000028e+02 4.736202812469889523e+01
1.076000000000000085e+02 4.727009282446620375e+01
1.080000000000000000e+02 4.717866716437647057e+01
1.084000000000000057e+02 4.708774641212207968e+01
1.088000000000000114e+02 4.699732589695365448e+01
1.092000000000000028e+02 4.690740100864949369e+01
1.096000000000000085e+02 4.681796719650617433e+01
1.100000000000000000e+02 4.672901996834974625e+01
1.104000000000000057e+02 4.664055488956697815e+01
1.108000000000000114e+02 4.655256758215636381e+01
1.112000000000000028e+02 4.647836285322394900e+01
1.116000000000000085e+02 4.639317277433438846e+01
1.120000000000000000e+02 4.630716820121210020e+01
1.124000000000000057e+02 4.622336041476442858e+01
1.128000000000000114e+02 4.613999584398169418e+01
1.132000000000000028e+02 4.606778121343229060e+01
1.136000000000000085e+02 4.598554354331335503e+01
1.140000000000000000e+02 4.590373551812784569e+01
1.144000000000000057e+02 4.582235335575750668e+01
1.148000000000000114e+02 4.574139332091890253e+01
1.152000000000000028e+02 4.566085172441509599e+01
1.156000000000000085e+02 4.558072492240201257e+01
1.160000000000000000e+02 4.550100931566906581e+01
1.164000000000000057e+02 4.542170134893374467e+01
1.168000000000000114e+02 4.534279751014997828e+01
1.172000000000000028e+02 4.526429432982978085e+01
1.176000000000000085e+02 4.518618838037777152e+01
1.180000000000000000e+02 4.510847627543878247e+01
1.184000000000000057e+02 4.503115466925760302e+01
1.188000000000000114e+02 4.495422025605111571e+01
1.192000000000000028e+02 4.487766976939213492e+01
1.196000000000000085e+02 4.480149998160510449e+01
1.200000000000000000e+02 4.472570770317295796e+01
1.204000000000000057e+02 4.465028978215523381e+01
1.208000000000000114e+02 4.457524310361702646e+01
1.212000000000000028e+02 4.450056458906855283e+01
1.216000000000000085e+02 4.442622735949349533e+01
1.220000000000000000e+02 4.435201830625192798e+01
1.224000000000000057e+02 4.427816957141970988e+01
1.228000000000000114e+02 4.421845301072730905e+01
1.232000000000000028e+02 4.414583938841480659e+01
1.236000000000000085e+02 4.407357362967101011e+01
1.240000000000000000e+02 4.400165292431624664e+01
1.244000000000000057e+02 4.392989691651325757e+01
1.248000000000000114e+02 4.385816834224704763e+01
1.252000000000000028e+02 4.378678358288076566e+01
1.256000000000000085e+02 4.371573984252472655e+01
1.260000000000000000e+02 4.364503435734498282e+01
1.264000000000000057e+02 4.357466439509020262e+01
1.268000000000000114e+02 4.350462725462735847e+01
1.272000000000000028e+02 4.343492026548545937e+01
1.276000000000000085e+02 4.336554078740754647e+01
1.280000000000000000e+02 4.329648620991078189e+01
1.284000000000000057e+02 4.322775395185417580e+01
1.288000000000000114e+02 4.315933354622722362e+01
1.291999999999999886e+02 4.309121780309382643e+01
1.296000000000000227e+02 4.302341675082823258e+01
1.300000000000000000e+02 4.295592792369102142e+01
1.304000000000000057e+02 4.288874888318755296e+01
1.308000000000000114e+02 4.282187721768034550e+01
1.311999999999999886e+02 4.275531054200842362e+01
1.316000000000000227e+02 4.268904649711292620e+01
1.320000000000000000e+02 4.262308274966952837e+01
1.324000000000000057e+02 4.256160173610121689e+01
1.328000000000000114e+02 4.249655834296849122e+01
1.331999999999999886e+02 4.243180687158153575e+01
1.336000000000000227e+02 4.236734510100831841e+01
1.340000000000000000e+02 4.230317083414967527e+01
1.344000000000000057e+02 4.223928189740979633e+01
1.348000000000000114e+02 4.217567614037261592e+01
1.351999999999999886e+02 4.211235143548331905e+01
1.356000000000000227e+02 4.204930567773543970e+01
1.360000000000000000e+02 4.198653678436311054e+01
1.364000000000000057e+02 4.192404269453828647e+01
1.368000000000000114e+02 4.186183969499751356e+01
1.371999999999999886e+02 4.180060877186680557e+01
1.376000000000000227e+02 4.173964236658731863e+01
1.380000000000000000e+02 4.167893854648963270e+01
1.384000000000000057e+02 4.161849539877941595e+01
1.388000000000000114e+02 4.155831103027456663e+01
1.392000000000000171e+02 4.149838356714668208e+01
1.395999999999999943e+02 4.143871115466651389e+01
1.400000000000000000e+02 4.137929195695364371e+01
1.404000000000000057e+02 4.132012415673012384e+01
1.408000000000000114e+02 4.126120595507811117e+01
1.412000000000000171e+02 4.120253557120118870e+01
1.415999999999999943e+02 4.114402981301896034e+01
1.420000000000000000e+02 4.108572278056595906e+01
1.424000000000000057e+02 4.102765907134568124e+01
1.428000000000000114e+02 4.096983696842551836e+01
1.432000000000000171e+02 4.091222837076722385e+01
1.435999999999999943e+02 4.085480100635600564e+01
1.440000000000000000e+02 4.079761065491835836e+01
1.444000000000000057e+02 4.074065566242580871e+01
1.448000000000000114e+02 4.068393439110155896e+01
1.452000000000000171e+02 4.062744521921501217e+01
1.455999999999999943e+02 4.057118654087951626e+01
1.460000000000000000e+02 4.051515676585334802e+01
1.464000000000000057e+02 4.045837680162708239e+01
1.468000000000000114e+02 4.040286835581697034e+01
1.472000000000000171e+02 4.034758397416437248e+01
1.475999999999999943e+02 4.029252212672604117e+01
1.480000000000000000e+02 4.023768129827349327e+01
1.484000000000000057e+02 4.018305998811092650e+01
1.488000000000000114e+02 4.012865670989582156e+01
1.492000000000000171e+02 4.007446999146217337e+01
1.495999999999999943e+02 4.002015743041810936e+01
1.500000000000000000e+02 3.996600146005717846e+01
