1.000000000000000000e+01 4.938841787855496932e+02
1.040000000000000036e+01 6.488243425662648178e+02
1.080000000000000071e+01 7.461644498077480421e+02
1.119999999999999929e+01 8.216980791731957652e+02
1.159999999999999964e+01 8.355271896127230775e+02
1.200000000000000000e+01 8.655476352550493857e+02
1.240000000000000036e+01 8.736348740800299311e+02
1.280000000000000071e+01 8.790780428266157287e+02
1.319999999999999929e+01 8.743463158947353122e+02
1.359999999999999964e+01 8.703844125385863890e+02
1.400000000000000000e+01 8.759894075249262642e+02
1.440000000000000036e+01 8.737984887496238571e+02
1.480000000000000071e+01 8.585343536862404790e+02
1.519999999999999929e+01 8.441914873858922874e+02
1.560000000000000142e+01 8.306753365118890997e+02
1.600000000000000000e+01 8.179049125585987667e+02
1.639999999999999858e+01 8.058103116782721145e+02
1.680000000000000071e+01 7.943307818118772730e+02
1.719999999999999929e+01 7.834131965820846517e+02
1.760000000000000142e+01 7.730108363047590956e+02
1.800000000000000000e+01 7.630824041565332436e+02
1.839999999999999858e+01 7.535912246685882110e+02
1.880000000000000071e+01 7.445045851897918965e+02
1.920000000000000284e+01 7.357931906098602894e+02
1.960000000000000142e+01 7.274307086462266625e+02
2.000000000000000000e+01 7.193933881662567273e+02
2.039999999999999858e+01 7.116597368723128056e+02
2.080000000000000071e+01 7.042102475869451155e+02
2.120000000000000284e+01 6.970271645942990517e+02
2.160000000000000142e+01 6.900942832021130471e+02
2.200000000000000000e+01 6.833967770156477854e+02
2.239999999999999858e+01 6.769210484541960113e+02
2.280000000000000071e+01 6.706545988611105713e+02
2.320000000000000284e+01 6.645859152103852239e+02
2.360000000000000142e+01 6.587043709346900187e+02
2.400000000000000000e+01 6.530001388200736301e+02
2.439999999999999858e+01 6.474641142530539355e+02
2.480000000000000071e+01 6.420878473832374311e+02
2.520000000000000284e+01 6.368634829918245259e+02
2.560000000000000142e+01 6.317837070433694180e+02
2.600000000000000000e+01 6.268416990528459110e+02
2.640000000000000213e+01 6.220310895285580273e+02
2.680000000000000071e+01 6.173459218586414181e+02
2.719999999999999929e+01 6.127806180987092830e+02
2.760000000000000142e+01 6.083299481937179962e+02
2.800000000000000000e+01 6.039890022308844664e+02
2.840000000000000213e+01 5.997531653744814548e+02
2.880000000000000071e+01 5.956180951792431415e+02
2.920000000000000284e+01 5.915797010182526492e+02
2.960000000000000142e+01 5.876341253946573033e+02
3.000000000000000000e+01 5.837777269352924350e+02
3.040000000000000213e+01 5.800070648889970926e+02
3.080000000000000071e+01 5.763188849737379087e+02
3.120000000000000284e+01 5.727101064350982824e+02
3.160000000000000142e+01 5.691778101946930519e+02
3.200000000000000000e+01 5.657192279809762567e+02
3.240000000000000568e+01 5.623317323470332667e+02
3.279999999999999716e+01 5.590128274905397348e+02
3.320000000000000284e+01 5.557601408003398546e+02
3.360000000000000142e+01 5.525714150622292209e+02
3.400000000000000000e+01 5.494445012636814454e+02
3.440000000000000568e+01 5.463773519435529806e+02
3.479999999999999716e+01 5.433680150383668206e+02
3.520000000000000284e+01 5.404146281816865667e+02
3.560000000000000142e+01 5.375154134174526916e+02
3.600000000000000000e+01 5.346686722920183001e+02
3.640000000000000568e+01 5.318727812930578693e+02
3.679999999999999716e+01 5.291261876065825618e+02
3.720000000000000284e+01 5.264274051660290752e+02
3.760000000000000142e+01 5.237750109698241658e+02
3.800000000000000000e+01 5.211676416460120436e+02
3.840000000000000568e+01 5.186039902444844074e+02
3.879999999999999716e+01 5.160828032391124225e+02
3.920000000000000284e+01 5.136028777236502947e+02
3.960000000000000142e+01 5.111630587867060740e+02
4.000000000000000000e+01 5.087622370523471886e+02
4.040000000000000568e+01 5.063993463740684433e+02
4.079999999999999716e+01 5.040733616708864702e+02
4.120000000000000284e+01 5.017832968952721444e+02
4.160000000000000142e+01 4.995282031234820579e+02
4.200000000000000000e+01 4.973071667596285579e+02
4.239999999999999858e+01 4.951193078455262935e+02
4.280000000000000426e+01 4.929637784689939508e+02
4.320000000000000284e+01 4.908397612638721057e+02
4.360000000000000142e+01 4.887464679955429574e+02
4.400000000000000000e+01 4.866831382262240595e+02
4.439999999999999858e+01 4.846490380547479617e+02
4.480000000000000426e+01 4.826434589259366135e+02
4.520000000000000284e+01 4.806657165050572189e+02
4.560000000000000142e+01 4.787151496131704107e+02
4.600000000000000000e+01 4.767911192195007857e+02
4.639999999999999858e+01 4.748930074872364457e+02
4.680000000000000426e+01 4.730202168694247575e+02
4.720000000000000284e+01 4.711721692518719351e+02
4.760000000000000142e+01 4.693483051401697708e+02
4.800000000000000000e+01 4.675480828881803745e+02
4.840000000000000568e+01 4.657709779654861109e+02
4.880000000000000426e+01 4.640164822614954119e+02
4.920000000000000284e+01 4.622841034240406088e+02
4.960000000000000142e+01 4.605733642304591058e+02
5.000000000000000000e+01 4.588838019892810394e+02
5.040000000000000568e+01 4.572149679707663950e+02
5.080000000000000426e+01 4.555664268646592063e+02
5.120000000000000284e+01 4.539377562636240668e+02
5.160000000000000142e+01 4.523285461709338051e+02
5.200000000000000000e+01 4.507383985310708567e+02
5.240000000000000568e+01 4.491669267819808056e+02
5.280000000000000426e+01 4.476137554278091102e+02
5.320000000000000284e+01 4.460785196310122274e+02
5.360000000000000142e+01 4.445608648228111406e+02
5.400000000000000000e+01 4.430604463310157826e+02
5.440000000000000568e+01 4.415769290243079581e+02
5.480000000000000426e+01 4.401099869721246023e+02
5.520000000000000284e+01 4.386593031193376078e+02
5.560000000000000142e+01 4.372245689749694293e+02
5.600000000000000000e+01 4.358054843142334676e+02
5.640000000000000568e+01 4.344017568932266613e+02
5.680000000000000426e+01 4.330131021756398013e+02
5.720000000000000284e+01 4.316392430708918937e+02
5.760000000000000142e+01 4.302799096831236056e+02
5.800000000000000000e+01 4.289348390705202405e+02
5.840000000000000568e+01 4.276037750144643041e+02
5.880000000000000426e+01 4.262864677980418833e+02
5.920000000000000284e+01 4.249826739934591728e+02
5.960000000000000142e+01 4.236921562579457259e+02
6.000000000000000000e+01 4.224146831377431681e+02
6.040000000000000568e+01 4.211500288798056886e+02
6.080000000000000426e+01 4.198979732508512370e+02
6.120000000000000284e+01 4.186583013634270287e+02
6.160000000000000142e+01 4.174308035086686459e+02
6.200000000000000000e+01 4.162152749954482260e+02
6.240000000000000568e+01 4.150115159956250750e+02
6.280000000000000426e+01 4.138193313951255732e+02
6.320000000000000284e+01 4.126385306505924291e+02
6.360000000000000142e+01 4.114689276513595360e+02
6.400000000000000000e+01 4.103103405865170998e+02
6.440000000000000568e+01 4.091625918168477938e+02
6.480000000000001137e+01 4.080255077514217987e+02
6.520000000000000284e+01 4.068989187286518927e+02
6.559999999999999432e+01 4.057826589016174239e+02
6.600000000000000000e+01 4.046765661274785089e+02
6.640000000000000568e+01 4.035804818608057758e+02
6.680000000000001137e+01 4.024942510506643885e+02
6.720000000000000284e+01 4.014177220412949509e+02
6.759999999999999432e+01 4.003507464762444101e+02
6.800000000000000000e+01 3.992931792058042788e+02
6.840000000000000568e+01 3.982448781976223131e+02
6.880000000000001137e+01 3.972057044503595193e+02
6.920000000000000284e+01 3.961755219102693673e+02
6.959999999999999432e+01 3.951541973905834766e+02
7.000000000000000000e+01 3.941416004935907722e+02
7.040000000000000568e+01 3.931376035353069938e+02
7.080000000000001137e+01 3.921420814726287176e+02
7.120000000000000284e+01 3.911549118328794066e+02
7.159999999999999432e+01 3.901759746456518769e+02
7.200000000000000000e+01 3.892051523768600418e+02
7.240000000000000568e+01 3.882423298649158028e+02
7.280000000000001137e+01 3.872873942589494050e+02
7.320000000000000284e+01 3.863402349589963478e+02
7.359999999999999432e+01 3.854007435580772380e+02
7.400000000000000000e+01 3.844688137860994743e+02
7.440000000000000568e+01 3.835443414555146546e+02
7.479999999999999716e+01 3.826272244086630963e+02
7.520000000000000284e+01 3.817173624667486820e+02
7.560000000000000853e+01 3.808146573803805950e+02
7.600000000000000000e+01 3.799190127816265772e+02
7.640000000000000568e+01 3.790303341375234822e+02
7.679999999999999716e+01 3.781485287049926569e+02
7.720000000000000284e+01 3.772735054871084230e+02
7.760000000000000853e+01 3.764051751906752656e+02
7.800000000000000000e+01 3.755434501850637616e+02
7.840000000000000568e+01 3.746882444622637536e+02
7.879999999999999716e+01 3.738394735981104304e+02
7.920000000000000284e+01 3.729970547146442073e+02
7.960000000000000853e+01 3.721609064435647838e+02
8.000000000000000000e+01 3.713309488907408422e+02
8.040000000000000568e+01 3.705071036017405959e+02
8.079999999999999716e+01 3.696892935283486281e+02
8.120000000000000284e+01 3.688774429960341763e+02
8.160000000000000853e+01 3.680714776723408477e+02
8.200000000000000000e+01 3.672713245361658210e+02
8.240000000000000568e+01 3.664769118478985206e+02
8.279999999999999716e+01 3.656881691203925584e+02
8.320000000000000284e+01 3.649050270907403046e+02
8.360000000000000853e+01 3.641274176928267252e+02
8.400000000000000000e+01 3.633552740306359965e+02
8.440000000000000568e+01 3.625885303522850336e+02
8.479999999999999716e+01 3.618271220247643782e+02
8.520000000000000284e+01 3.610709855093587635e+02
8.560000000000000853e+01 3.603200583377300177e+02
8.600000000000000000e+01 3.595742790886388889e+02
8.640000000000000568e+01 3.588335873652860073e+02
8.680000000000001137e+01 3.580979237732533988e+02
8.720000000000000284e+01 3.573672298990267677e+02
8.760000000000000853e+01 3.566414482890806994e+02
8.800000000000000000e+01 3.559205224295094467e+02
8.840000000000000568e+01 3.552043967261873263e+02
8.880000000000001137e+01 3.544930164854406485e+02
8.920000000000000284e+01 3.537863278952173687e+02
8.960000000000000853e+01 3.530842780067383160e+02
9.000000000000000000e+01 3.523868147166153904e+02
9.040000000000000568e+01 3.516938867494240526e+02
9.080000000000001137e+01 3.510054436407142475e+02
9.120000000000000284e+01 3.503214357204486191e+02
9.160000000000000853e+01 3.496418140968542616e+02
9.200000000000000000e+01 3.489665306406768082e+02
9.240000000000000568e+01 3.482955379698237834e+02
9.280000000000001137e+01 3.476287894343864195e+02
9.320000000000000284e+01 3.469662391020294194e+02
9.360000000000000853e+01 3.463078417437372423e+02
9.400000000000000000e+01 3.456535528199068494e+02
9.440000000000000568e+01 3.450033284667773046e+02
9.480000000000001137e+01 3.443571254831858823e+02
9.520000000000000284e+01 3.437149013176422159e+02
9.560000000000000853e+01 3.430766140557111044e+02
9.600000000000000000e+01 3.424422224076946577e+02
9.640000000000000568e+01 3.418116856966066734e+02
9.680000000000001137e+01 3.411849638464300938e+02
9.720000000000000284e+01 3.405620173706496985e+02
9.760000000000000853e+01 3.399428073610528713e+02
9.800000000000000000e+01 3.393272954767912211e+02
9.840000000000000568e+01 3.387154439336941891e+02
9.880000000000001137e+01 3.381072154938304948e+02
9.920000000000000284e+01 3.375025734553083225e+02
9.960000000000000853e+01 3.369014816423092498e+02
1.000000000000000000e+02 3.363039043953479563e+02
1.004000000000000057e+02 3.357098065617541351e+02
1.008000000000000114e+02 3.351191534863679635e+02
1.012000000000000028e+02 3.345319110024457814e+02
1.016000000000000085e+02 3.339480454227680184e+02
1.020000000000000000e+02 3.333675235309464142e+02
1.024000000000000057e+02 3.327903125729237672e+02
1.028000000000000114e+02 3.322163802486615509e+02
1.032000000000000028e+02 3.316456947040103387e+02
1.036000000000000085e+02 3.310782245227587168e+02
1.040000000000000000e+02 3.305139387188559681e+02
1.044000000000000057e+02 3.299528067288028979e+02
1.048000000000000114e+02 3.293947984042091548e+02
1.052000000000000028e+02 3.288398840045090310e+02
1.056000000000000085e+02 3.282880341898355141e+02
1.060000000000000000e+02 3.277392200140457703e+02
1.064000000000000057e+02 3.271934129178956141e+02
1.068000000000000114e+02 3.266505847223588717e+02
1.072000000000000028e+02 3.261107076220878866e+02
1.076000000000000085e+02 3.255737541790118144e+02
1.080000000000000000e+02 3.250396973160694074e+02
1.084000000000000057e+02 3.245085103110722002e+02
1.088000000000000114e+02 3.239801667906958755e+02
1.092000000000000028e+02 3.234546407245965156e+02
1.096000000000000085e+02 3.229319064196475324e+02
1.100000000000000000e+02 3.224119385142955139e+02
1.104000000000000057e+02 3.218947119730325994e+02
1.108000000000000114e+02 3.213802020809799842e+02
1.112000000000000028e+02 3.208683844385835187e+02
1.116000000000000085e+02 3.203592349564152073e+02
1.120000000000000000e+02 3.198527298500807206e+02
1.124000000000000057e+02 3.193488456352284857e+02
1.128000000000000114e+02 3.188475591226596748e+02
1.132000000000000028e+02 3.183488474135351112e+02
1.136000000000000085e+02 3.178526878946776151e+02
1.140000000000000000e+02 3.173590582339677439e+02
1.144000000000000057e+02 3.168679363758298564e+02
1.148000000000000114e+02 3.163793005368080458e+02
1.152000000000000028e+02 3.158931292012268273e+02
1.156000000000000085e+02 3.154094011169393070e+02
1.160000000000000000e+02 3.149280952911550457e+02
1.164000000000000057e+02 3.144491909863510273e+02
1.168000000000000114e+02 3.139726677162611281e+02
1.172000000000000028e+02 3.134985052419415297e+02
1.176000000000000085e+02 3.130266835679130963e+02
1.180000000000000000e+02 3.125571829383773661e+02
1.184000000000000057e+02 3.120899838335029699e+02
1.188000000000000114e+02 3.116250669657848675e+02
1.192000000000000028e+02 3.111624132764699766e+02
1.196000000000000085e+02 3.107020039320526053e+02
1.200000000000000000e+02 3.102438203208332652e+02
1.204000000000000057e+02 3.097878440495437644e+02
1.208000000000000114e+02 3.093340569400343156e+02
1.212000000000000028e+02 3.088824410260220930e+02
1.216000000000000085e+02 3.084329785499003265e+02
1.220000000000000000e+02 3.079856519596065141e+02
1.224000000000000057e+02 3.075404439055472494e+02
1.228000000000000114e+02 3.070973372375806321e+02
1.232000000000000028e+02 3.066563150020526791e+02
1.236000000000000085e+02 3.062173604388883632e+02
1.240000000000000000e+02 3.057804569787352307e+02
1.244000000000000057e+02 3.053455882401586905e+02
1.248000000000000114e+02 3.049127380268873821e+02
1.252000000000000028e+02 3.044818903251088500e+02
1.256000000000000085e+02 3.040530293008128524e+02
1.260000000000000000e+02 3.036261392971824762e+02
1.264000000000000057e+02 3.032012048320314648e+02
1.268000000000000114e+02 3.027782105952869074e+02
1.272000000000000028e+02 3.023571414465165503e+02
1.276000000000000085e+02 3.019379824124995366e+02
1.280000000000000000e+02 3.015207186848396077e+02
1.284000000000000057e+02 3.011053356176204261e+02
1.288000000000000114e+02 3.006918187251013137e+02
1.291999999999999886e+02 3.002801536794536332e+02
1.296000000000000227e+02 2.998703263085350272e+02
1.300000000000000000e+02 2.994623225937045845e+02
1.304000000000000057e+02 2.990561286676723967e+02
1.308000000000000114e+02 2.986517308123886778e+02
1.311999999999999886e+02 2.982491154569676155e+02
1.316000000000000227e+02 2.978482691756469762e+02
1.320000000000000000e+02 2.974491786857820443e+02
1.324000000000000057e+02 2.970518308458744059e+02
1.328000000000000114e+02 2.966562126536326218e+02
1.331999999999999886e+02 2.962623112440668365e+02
1.336000000000000227e+02 2.958701138876148207e+02
1.340000000000000000e+02 2.954796079882992217e+02
1.344000000000000057e+02 2.950907810819154520e+02
1.348000000000000114e+02 2.947036208342503869e+02
1.351999999999999886e+02 2.943181150393297116e+02
1.356000000000000227e+02 2.939342516176948266e+02
1.360000000000000000e+02 2.935520186147078334e+02
1.364000000000000057e+02 2.931714041988843178e+02
1.368000000000000114e+02 2.927923966602534733e+02
1.371999999999999886e+02 2.924149844087453971e+02
1.376000000000000227e+02 2.920391559726037940e+02
1.380000000000000000e+02 2.916648999968251701e+02
1.384000000000000057e+02 2.912922052416223551e+02
1.388000000000000114e+02 2.909210605809145704e+02
1.392000000000000171e+02 2.905514550008393826e+02
1.395999999999999943e+02 2.901833775982905195e+02
1.400000000000000000e+02 2.898168175794774015e+02
1.404000000000000057e+02 2.894517642585094563e+02
1.408000000000000114e+02 2.890882070560011243e+02
1.412000000000000171e+02 2.887261354976998859e+02
1.415999999999999943e+02 2.883655392131363442e+02
1.420000000000000000e+02 2.880064079342940317e+02
1.424000000000000057e+02 2.876487314943017850e+02
1.428000000000000114e+02 2.872924998261457290e+02
1.432000000000000171e+02 2.869377029614013281e+02
1.435999999999999943e+02 2.865843310289853889e+02
1.440000000000000000e+02 2.862323742539274463e+02
1.444000000000000057e+02 2.858818229561600219e+02
1.448000000000000114e+02 2.855326675493275275e+02
1.452000000000000171e+02 2.851848985396135276e+02
1.455999999999999943e+02 2.848385065245863643e+02
1.460000000000000000e+02 2.844934821920612649e+02
1.464000000000000057e+02 2.841498163189814932e+02
1.468000000000000114e+02 2.838074997703154168e+02
1.472000000000000171e+02 2.834665234979698880e+02
1.475999999999999943e+02 2.831268785397215311e+02
1.480000000000000000e+02 2.827885560181626374e+02
1.484000000000000057e+02 2.824515471396640578e+02
1.488000000000000114e+02 2.821158431933528163e+02
1.492000000000000171e+02 2.817814355501053569e+02
1.495999999999999943e+02 2.814483156615559665e+02
1.500000000000000000e+02 2.811164750591195798e+02
