1.000000000000000000e+01 2.181050978848461739e+02
1.040000000000000036e+01 2.115643817137355427e+02
1.080000000000000071e+01 2.061748046111858343e+02
1.119999999999999929e+01 2.005823082815592500e+02
1.159999999999999964e+01 1.968313460374649253e+02
1.200000000000000000e+01 1.907476715275875279e+02
1.240000000000000036e+01 1.851978405507373679e+02
1.280000000000000071e+01 1.801035613166802420e+02
1.319999999999999929e+01 1.754025821162607883e+02
1.359999999999999964e+01 1.710444890947142653e+02
1.400000000000000000e+01 1.669378879668641105e+02
1.440000000000000036e+01 1.632475928942177177e+02
1.480000000000000071e+01 1.597880596098496824e+02
1.519999999999999929e+01 1.565609343769741315e+02
1.560000000000000142e+01 1.543390072399535882e+02
1.600000000000000000e+01 1.523704708333621625e+02
1.639999999999999858e+01 1.504781412992165315e+02
1.680000000000000071e+01 1.486669811055444654e+02
1.719999999999999929e+01 1.469456600030790412e+02
1.760000000000000142e+01 1.453067015717313097e+02
1.800000000000000000e+01 1.437434878188746552e+02
1.839999999999999858e+01 1.422501346354264342e+02
1.880000000000000071e+01 1.375735591797329676e+02
1.920000000000000284e+01 1.271051753285843233e+02
1.960000000000000142e+01 1.252950117244465673e+02
2.000000000000000000e+01 1.238099510755171480e+02
2.039999999999999858e+01 1.210454103511453070e+02
2.080000000000000071e+01 1.194948309415081837e+02
2.120000000000000284e+01 1.180043536920893530e+02
2.160000000000000142e+01 1.165701296755762542e+02
2.200000000000000000e+01 1.151886492789816714e+02
2.239999999999999858e+01 1.138567043958030496e+02
2.280000000000000071e+01 1.125713556828288233e+02
2.320000000000000284e+01 1.112950896923522208e+02
2.360000000000000142e+01 1.099219419681575403e+02
2.400000000000000000e+01 1.085918988683686450e+02
2.439999999999999858e+01 1.073027213413063521e+02
2.480000000000000071e+01 1.060523323983645412e+02
2.520000000000000284e+01 1.048388021362814015e+02
2.560000000000000142e+01 1.036550381891312327e+02
2.600000000000000000e+01 1.024936543051432523e+02
2.640000000000000213e+01 1.013643326577442423e+02
2.680000000000000071e+01 1.002656166548007519e+02
2.719999999999999929e+01 9.919614160137908243e+01
2.760000000000000142e+01 9.821527808998743581e+01
2.800000000000000000e+01 9.720568073355049421e+01
2.840000000000000213e+01 9.622159396026751210e+01
2.880000000000000071e+01 9.526195746554131460e+01
2.920000000000000284e+01 9.432577218655939078e+01
2.960000000000000142e+01 9.341209579266669039e+01
3.000000000000000000e+01 9.252003857757807737e+01
3.040000000000000213e+01 9.164875971157832169e+01
3.080000000000000071e+01 9.079746381682738843e+01
3.120000000000000284e+01 8.996539783319960293e+01
3.160000000000000142e+01 8.915184814583115269e+01
3.200000000000000000e+01 9.161612323319624807e+01
3.240000000000000568e+01 9.093225438405703187e+01
3.279999999999999716e+01 9.026242322701756393e+01
3.320000000000000284e+01 8.985431954638167440e+01
3.360000000000000142e+01 8.922634973933271851e+01
3.400000000000000000e+01 8.861058143683905541e+01
3.440000000000000568e+01 8.800661793235011032e+01
3.479999999999999716e+01 8.741408063043121501e+01
3.520000000000000284e+01 8.650164377406798621e+01
3.560000000000000142e+01 8.594957210306795048e+01
3.600000000000000000e+01 8.540742477666631771e+01
3.640000000000000568e+01 8.487490369945908242e+01
3.679999999999999716e+01 8.435172332915766447e+01
3.720000000000000284e+01 8.380567515103589926e+01
3.760000000000000142e+01 8.330564809024261308e+01
3.800000000000000000e+01 8.281404135032852309e+01
3.840000000000000568e+01 8.233061818912793228e+01
3.879999999999999716e+01 8.185515119759666902e+01
3.920000000000000284e+01 8.138742182715617446e+01
3.960000000000000142e+01 8.092721994619400050e+01
4.000000000000000000e+01 8.047434342360548953e+01
4.040000000000000568e+01 8.002783672548622462e+01
4.079999999999999716e+01 7.958867386832775992e+01
4.120000000000000284e+01 7.916911728271195159e+01
4.160000000000000142e+01 7.875624304794654051e+01
4.200000000000000000e+01 7.834987176778291484e+01
4.239999999999999858e+01 7.794848956864051104e+01
4.280000000000000426e+01 7.755173547951324053e+01
4.320000000000000284e+01 7.716106503466825473e+01
4.360000000000000142e+01 7.677632094634192583e+01
4.400000000000000000e+01 7.639735160054102892e+01
4.439999999999999858e+01 7.602401079608623036e+01
4.480000000000000426e+01 7.565615749818292102e+01
4.520000000000000284e+01 7.528762455578623758e+01
4.560000000000000142e+01 7.492172546378887432e+01
4.600000000000000000e+01 7.456112307427220287e+01
4.639999999999999858e+01 7.420568800819074795e+01
4.680000000000000426e+01 7.385529530295157485e+01
4.720000000000000284e+01 7.350982421990750026e+01
4.760000000000000142e+01 7.316915806201969019e+01
4.800000000000000000e+01 7.283318400106087154e+01
4.840000000000000568e+01 7.209325876543533695e+01
4.880000000000000426e+01 7.181169476861768430e+01
4.920000000000000284e+01 7.148150595171114219e+01
4.960000000000000142e+01 7.115940400634751484e+01
5.000000000000000000e+01 7.084198957001844121e+01
5.040000000000000568e+01 7.052879120861277329e+01
5.080000000000000426e+01 7.021971492526007808e+01
5.120000000000000284e+01 6.991466963825369874e+01
5.160000000000000142e+01 6.961356706594355614e+01
5.200000000000000000e+01 6.931632161712865070e+01
5.240000000000000568e+01 6.902285028664127253e+01
5.280000000000000426e+01 6.873307255583503661e+01
5.320000000000000284e+01 6.844691029770768864e+01
5.360000000000000142e+01 6.816428768640497537e+01
5.400000000000000000e+01 6.788513111086989227e+01
5.440000000000000568e+01 6.760936909241399917e+01
5.480000000000000426e+01 6.733731017454819323e+01
5.520000000000000284e+01 6.706897039673407335e+01
5.560000000000000142e+01 6.680331734003532063e+01
5.600000000000000000e+01 6.653356087629114768e+01
5.640000000000000568e+01 6.626680673677617506e+01
5.680000000000000426e+01 6.600299937191276456e+01
5.720000000000000284e+01 6.574208467145817281e+01
5.760000000000000142e+01 6.548400991651024583e+01
5.800000000000000000e+01 6.522872373346929464e+01
5.840000000000000568e+01 6.516116602597189456e+01
5.880000000000000426e+01 6.491545461377580750e+01
5.920000000000000284e+01 6.467187925066237142e+01
5.960000000000000142e+01 6.443083963222439081e+01
6.000000000000000000e+01 6.419229191060293260e+01
6.040000000000000568e+01 6.395619329790083896e+01
6.080000000000000426e+01 6.372250203325454976e+01
6.120000000000000284e+01 6.349117735115504502e+01
6.160000000000000142e+01 6.324624463342497904e+01
6.200000000000000000e+01 6.301916728883705332e+01
6.240000000000000568e+01 6.279434642531002453e+01
6.280000000000000426e+01 6.257174479917536303e+01
6.320000000000000284e+01 6.235132602591769313e+01
6.360000000000000142e+01 6.213305455470705141e+01
6.400000000000000000e+01 6.191689564385278999e+01
6.440000000000000568e+01 6.170281533714031497e+01
6.480000000000001137e+01 6.149078044101262464e+01
6.520000000000000284e+01 6.128075850256150403e+01
6.559999999999999432e+01 6.107271778829423425e+01
6.600000000000000000e+01 6.086662726364365739e+01
6.640000000000000568e+01 6.066245657319104367e+01
6.680000000000001137e+01 6.060789503622854824e+01
6.720000000000000284e+01 6.041954529680434405e+01
6.759999999999999432e+01 6.023288679351870201e+01
6.800000000000000000e+01 6.004789402913888097e+01
6.840000000000000568e+01 5.986454204721613337e+01
6.880000000000001137e+01 5.968270784306530885e+01
6.920000000000000284e+01 5.950240472539159953e+01
6.959999999999999432e+01 5.935372317844501566e+01
7.000000000000000000e+01 5.917777122091177233e+01
7.040000000000000568e+01 5.900333128222507639e+01
7.080000000000001137e+01 5.883038154882802928e+01
7.120000000000000284e+01 5.865890064979983265e+01
7.159999999999999432e+01 5.848869856102457732e+01
7.200000000000000000e+01 5.831942735414506984e+01
7.240000000000000568e+01 5.815156948704528617e+01
7.280000000000001137e+01 5.798510516524825675e+01
7.320000000000000284e+01 5.782001498401661621e+01
7.359999999999999432e+01 5.765627991845408218e+01
7.400000000000000000e+01 5.749388131391478396e+01
7.440000000000000568e+01 5.733280087670931380e+01
7.479999999999999716e+01 5.717302066509590475e+01
7.520000000000000284e+01 5.701452308054754781e+01
7.560000000000000853e+01 5.685729085928375781e+01
7.600000000000000000e+01 5.670130706405875287e+01
7.640000000000000568e+01 5.655439747953813168e+01
7.679999999999999716e+01 5.640066028728427483e+01
7.720000000000000284e+01 5.624812645184766779e+01
7.760000000000000853e+01 5.609535244838331636e+01
7.800000000000000000e+01 5.594339452920851841e+01
7.840000000000000568e+01 5.579265179989276646e+01
7.879999999999999716e+01 5.564310778526217405e+01
7.920000000000000284e+01 5.549474632379780559e+01
7.960000000000000853e+01 5.534755155998367826e+01
8.000000000000000000e+01 5.520150793688142699e+01
8.040000000000000568e+01 5.505660018892407948e+01
8.079999999999999716e+01 5.491264935989372020e+01
8.120000000000000284e+01 5.476977910496060531e+01
8.160000000000000853e+01 5.462800124104761323e+01
8.200000000000000000e+01 5.448730160392730681e+01
8.240000000000000568e+01 5.434766628745345685e+01
8.279999999999999716e+01 5.420908163753124143e+01
8.320000000000000284e+01 5.407153424625862925e+01
8.360000000000000853e+01 5.393501094623349701e+01
8.400000000000000000e+01 5.379949880502068993e+01
8.440000000000000568e+01 5.366507980636156816e+01
8.479999999999999716e+01 5.353176753071863203e+01
8.520000000000000284e+01 5.339942507859298360e+01
8.560000000000000853e+01 5.326804048138117054e+01
8.600000000000000000e+01 5.313760197820190001e+01
8.640000000000000568e+01 5.300809801126997911e+01
8.680000000000001137e+01 5.287951722139561639e+01
8.720000000000000284e+01 5.275184844360489222e+01
8.760000000000000853e+01 5.263476136247233228e+01
8.800000000000000000e+01 5.251142160433642658e+01
8.840000000000000568e+01 5.238893790991389210e+01
8.880000000000001137e+01 5.226730022574908219e+01
8.920000000000000284e+01 5.214649866394809408e+01
8.960000000000000853e+01 5.202652349868643000e+01
9.000000000000000000e+01 5.190736516280631463e+01
9.040000000000000568e+01 5.178901424450070579e+01
9.080000000000001137e+01 5.167146148408168926e+01
9.120000000000000284e+01 5.155469777083050076e+01
9.160000000000000853e+01 5.143871413992688701e+01
9.200000000000000000e+01 5.132350176945547560e+01
9.240000000000000568e+01 5.120905197748668769e+01
9.280000000000001137e+01 5.108691862203728107e+01
9.320000000000000284e+01 5.096967665658711155e+01
9.360000000000000853e+01 5.085808666128166067e+01
9.400000000000000000e+01 5.074722273739169509e+01
9.440000000000000568e+01 5.063707688305525068e+01
9.480000000000001137e+01 5.052764122023271653e+01
9.520000000000000284e+01 5.041890799225025432e+01
9.560000000000000853e+01 5.031086956140245547e+01
9.600000000000000000e+01 5.020351840661268739e+01
9.640000000000000568e+01 5.009684712114925986e+01
9.680000000000001137e+01 4.999084841039623228e+01
9.720000000000000284e+01 4.988551508967690040e+01
9.760000000000000853e+01 4.978084008212864831e+01
9.800000000000000000e+01 4.967600796293417886e+01
9.840000000000000568e+01 4.957169969702955825e+01
9.880000000000001137e+01 4.946802177762468489e+01
9.920000000000000284e+01 4.936496782014168616e+01
9.960000000000000853e+01 4.926253153069292523e+01
1.000000000000000000e+02 4.916070670442140056e+01
1.004000000000000057e+02 4.905948722387835659e+01
1.008000000000000114e+02 4.895886705743712497e+01
1.012000000000000028e+02 4.885884025774219452e+01
1.016000000000000085e+02 4.875925887556633853e+01
1.020000000000000000e+02 4.866020626391067339e+01
1.024000000000000057e+02 4.856173108415110562e+01
1.028000000000000114e+02 4.846382769425883197e+01
1.032000000000000028e+02 4.836649052949135097e+01
1.036000000000000085e+02 4.826966065190403299e+01
1.040000000000000000e+02 4.817292323156740252e+01
1.044000000000000057e+02 4.807674022534209257e+01
1.048000000000000114e+02 4.798110630961330969e+01
1.052000000000000028e+02 4.788601623241085292e+01
1.056000000000000085e+02 4.779144240202569449e+01
1.060000000000000000e+02 4.769713730514776984e+01
1.064000000000000057e+02 4.760336287253976195e+01
1.068000000000000114e+02 4.751011410157349246e+01
1.072000000000000028e+02 4.741738605570427723e+01
1.076000000000000085e+02 4.732517386334703247e+01
1.080000000000000000e+02 4.723347271677617698e+01
1.084000000000000057e+02 4.714227787104789513e+01
1.088000000000000114e+02 4.705158464294505904e+01
1.092000000000000028e+02 4.696138840994359498e+01
1.096000000000000085e+02 4.687168460920007362e+01
1.100000000000000000e+02 4.678246873656005533e+01
1.104000000000000057e+02 4.669373634558647268e+01
1.108000000000000114e+02 4.660836241252942358e+01
1.112000000000000028e+02 4.653411894892470002e+01
1.116000000000000085e+02 4.644889056000326377e+01
1.120000000000000000e+02 4.636411656461939401e+01
1.124000000000000057e+02 4.627979288076168984e+01
1.128000000000000114e+02 4.619591547800561671e+01
1.132000000000000028e+02 4.611248037667252220e+01
1.136000000000000085e+02 4.602948364700516493e+01
1.140000000000000000e+02 4.594692140835991268e+01
1.144000000000000057e+02 4.586478982841477858e+01
1.148000000000000114e+02 4.578308512239321004e+01
1.152000000000000028e+02 4.570180355230304059e+01
1.156000000000000085e+02 4.562094142619052661e+01
1.160000000000000000e+02 4.554049509740877966e+01
1.164000000000000057e+02 4.546046096390051616e+01
1.168000000000000114e+02 4.538083546749479780e+01
1.172000000000000028e+02 4.530161509321722946e+01
1.176000000000000085e+02 4.522279636861345153e+01
1.180000000000000000e+02 4.514437586308572747e+01
1.184000000000000057e+02 4.506635018724209374e+01
1.188000000000000114e+02 4.498871599225793005e+01
1.192000000000000028e+02 4.491146996924971546e+01
1.196000000000000085e+02 4.483460884866050122e+01
1.200000000000000000e+02 4.476480870022001568e+01
1.204000000000000057e+02 4.468894543737233960e+01
1.208000000000000114e+02 4.461345374843184430e+01
1.212000000000000028e+02 4.453833237653000765e+01
1.216000000000000085e+02 4.446357826078453712e+01
1.220000000000000000e+02 4.438918837588706623e+01
1.224000000000000057e+02 4.431515973156975718e+01
1.228000000000000114e+02 4.425526417608890029e+01
1.232000000000000028e+02 4.418247246629369585e+01
1.236000000000000085e+02 4.411002952006418809e+01
1.240000000000000000e+02 4.403793251999289993e+01
1.244000000000000057e+02 4.396600110309461229e+01
1.248000000000000114e+02 4.389409799828509051e+01
1.252000000000000028e+02 4.382253957993582816e+01
1.256000000000000085e+02 4.375132304524204585e+01
1.260000000000000000e+02 4.368044562353014726e+01
1.264000000000000057e+02 4.360990457578360235e+01
1.268000000000000114e+02 4.353969719417754902e+01
1.272000000000000028e+02 4.346982080162156592e+01
1.276000000000000085e+02 4.340027275131064499e+01
1.280000000000000000e+02 4.333105042628432813e+01
1.284000000000000057e+02 4.326215123899341819e+01
1.288000000000000114e+02 4.319357263087458421e+01
1.291999999999999886e+02 4.312531207193238458e+01
1.296000000000000227e+02 4.305736706032858052e+01
1.300000000000000000e+02 4.298973512197877511e+01
1.304000000000000057e+02 4.292042138493166448e+01
1.308000000000000114e+02 4.285363210362322661e+01
1.311999999999999886e+02 4.278714778508908978e+01
1.316000000000000227e+02 4.272096606813108366e+01
1.320000000000000000e+02 4.265508461733706724e+01
1.324000000000000057e+02 4.258950112271814703e+01
1.328000000000000114e+02 4.252421329935237537e+01
1.331999999999999886e+02 4.245921888703453106e+01
1.336000000000000227e+02 4.239451564993166244e+01
1.340000000000000000e+02 4.233010137624479086e+01
1.344000000000000057e+02 4.226591104920366604e+01
1.348000000000000114e+02 4.220200315392752088e+01
1.351999999999999886e+02 4.213837800476437678e+01
1.356000000000000227e+02 4.207503348099610463e+01
1.360000000000000000e+02 4.201196748434491468e+01
1.364000000000000057e+02 4.194917793866738975e+01
1.368000000000000114e+02 4.188668111557815621e+01
1.371999999999999886e+02 4.182515798627158432e+01
1.376000000000000227e+02 4.176390097744452135e+01
1.380000000000000000e+02 4.170290814186756023e+01
1.384000000000000057e+02 4.164217755236781215e+01
1.388000000000000114e+02 4.158170730156321326e+01
1.392000000000000171e+02 4.152149550160115155e+01
1.395999999999999943e+02 4.146154028390119350e+01
1.400000000000000000e+02 4.140183979890206700e+01
1.404000000000000057e+02 4.134230914612039243e+01
1.408000000000000114e+02 4.128297290089948035e+01
1.412000000000000171e+02 4.122388664530816982e+01
1.415999999999999943e+02 4.116496716833263747e+01
1.420000000000000000e+02 4.110624855130052424e+01
1.424000000000000057e+02 4.104777537323155201e+01
1.428000000000000114e+02 4.098954589892904465e+01
1.432000000000000171e+02 4.093155841046844756e+01
1.435999999999999943e+02 4.087381120697609305e+01
1.440000000000000000e+02 4.081630260441159663e+01
1.444000000000000057e+02 4.075903093535338684e+01
1.448000000000000114e+02 4.070199454878780898e+01
1.452000000000000171e+02 4.064519180990134117e+01
1.455999999999999943e+02 4.058862109987607170e+01
1.460000000000000000e+02 4.053228081568835250e+01
1.464000000000000057e+02 4.047616936991042991e+01
1.468000000000000114e+02 4.042028519051532953e+01
1.472000000000000171e+02 4.036462672068451241e+01
1.475999999999999943e+02 4.030919241861853664e+01
1.480000000000000000e+02 4.025398075735063230e+01
1.484000000000000057e+02 4.019899022456302617e+01
1.488000000000000114e+02 4.014421932240615831e+01
1.492000000000000171e+02 4.008966656732044243e+01
1.495999999999999943e+02 4.003498954563244183e+01
1.500000000000000000e+02 3.998013342728211228e+01
