1.000000000000000000e+01 6.323704060213387947e+02
1.040000000000000036e+01 7.822743634908083550e+02
1.080000000000000071e+01 8.753103369679811294e+02
1.119999999999999929e+01 1.001663568118847252e+03
1.159999999999999964e+01 1.032645173079099550e+03
1.200000000000000000e+01 1.067319515987247314e+03
1.240000000000000036e+01 1.094462850561058303e+03
1.280000000000000071e+01 1.100397580989330208e+03
1.319999999999999929e+01 1.088827269521565540e+03
1.359999999999999964e+01 1.082543787924037815e+03
1.400000000000000000e+01 1.081633175997724265e+03
1.440000000000000036e+01 1.070902973071579936e+03
1.480000000000000071e+01 1.052325755445854156e+03
1.519999999999999929e+01 1.034852273619860625e+03
1.560000000000000142e+01 1.018371273906995270e+03
1.600000000000000000e+01 1.002787139021014923e+03
1.639999999999999858e+01 9.880170938922955202e+02
1.680000000000000071e+01 9.739890129423018834e+02
1.719999999999999929e+01 9.606396783526540730e+02
1.760000000000000142e+01 9.479133814993371061e+02
1.800000000000000000e+01 9.357607889380706183e+02
1.839999999999999858e+01 9.241380147434256287e+02
1.880000000000000071e+01 9.130058555233744073e+02
1.920000000000000284e+01 9.023291549191869763e+02
1.960000000000000142e+01 8.920762720849577363e+02
2.000000000000000000e+01 8.822186343438866061e+02
2.039999999999999858e+01 8.727303585006184221e+02
2.080000000000000071e+01 8.635879285390788027e+02
2.120000000000000284e+01 8.547699199265869083e+02
2.160000000000000142e+01 8.462567626722695877e+02
2.200000000000000000e+01 8.380305367913450709e+02
2.239999999999999858e+01 8.300747950091318899e+02
2.280000000000000071e+01 8.223744084751768924e+02
2.320000000000000284e+01 8.149154320048925229e+02
2.360000000000000142e+01 8.076849859657592106e+02
2.400000000000000000e+01 8.006711524094947663e+02
2.439999999999999858e+01 7.938628834450141767e+02
2.480000000000000071e+01 7.872499201683236834e+02
2.520000000000000284e+01 7.808227207292613912e+02
2.560000000000000142e+01 7.745723963325593786e+02
2.600000000000000000e+01 7.684906541510162015e+02
2.640000000000000213e+01 7.625697462786175720e+02
2.680000000000000071e+01 7.568024239768710686e+02
2.719999999999999929e+01 7.511818965728555213e+02
2.760000000000000142e+01 7.457017944561264358e+02
2.800000000000000000e+01 7.403561356965524283e+02
2.840000000000000213e+01 7.351392958687113151e+02
2.880000000000000071e+01 7.300459807225792019e+02
2.920000000000000284e+01 7.250712013864221035e+02
2.960000000000000142e+01 7.202102518273610485e+02
3.000000000000000000e+01 7.154586883290485275e+02
3.040000000000000213e+01 7.108123107751589487e+02
3.080000000000000071e+01 7.062671455526691489e+02
3.120000000000000284e+01 7.018194299107858569e+02
3.160000000000000142e+01 6.974655976303776015e+02
3.200000000000000000e+01 6.932022658753039650e+02
3.240000000000000568e+01 6.890262231114452334e+02
3.279999999999999716e+01 6.849344179918571172e+02
3.320000000000000284e+01 6.809239491175065950e+02
3.360000000000000142e+01 6.769920555927553778e+02
3.400000000000000000e+01 6.731361083032795705e+02
3.440000000000000568e+01 6.693536018516424519e+02
3.479999999999999716e+01 6.656421470923793322e+02
3.520000000000000284e+01 6.619994642143290093e+02
3.560000000000000142e+01 6.584233763231630974e+02
3.600000000000000000e+01 6.549118034816876843e+02
3.640000000000000568e+01 6.514627571696106543e+02
3.679999999999999716e+01 6.480743351281356581e+02
3.720000000000000284e+01 6.447447165580169894e+02
3.760000000000000142e+01 6.414721576426372849e+02
3.800000000000000000e+01 6.382549873702852210e+02
3.840000000000000568e+01 6.350916036321625597e+02
3.879999999999999716e+01 6.319804695747579899e+02
3.920000000000000284e+01 6.289201101871158244e+02
3.960000000000000142e+01 6.259091091052421234e+02
4.000000000000000000e+01 6.229461056174203577e+02
4.040000000000000568e+01 6.200297918556034347e+02
4.079999999999999716e+01 6.171589101593011719e+02
4.120000000000000284e+01 6.143322505995190568e+02
4.160000000000000142e+01 6.115486486513298132e+02
4.200000000000000000e+01 6.088069830045973276e+02
4.239999999999999858e+01 6.061061735032163824e+02
4.280000000000000426e+01 6.034451792040006239e+02
4.320000000000000284e+01 6.008229965470574143e+02
4.360000000000000142e+01 5.982386576301216792e+02
4.400000000000000000e+01 5.956912285799045321e+02
4.439999999999999858e+01 5.931798080140489446e+02
4.480000000000000426e+01 5.907035255877592590e+02
4.520000000000000284e+01 5.882615406196318872e+02
4.560000000000000142e+01 5.858530407916049398e+02
4.600000000000000000e+01 5.834772409183296986e+02
4.639999999999999858e+01 5.811333817816030205e+02
4.680000000000000426e+01 5.788207290258146713e+02
4.720000000000000284e+01 5.765385721106538313e+02
4.760000000000000142e+01 5.742862233175803794e+02
4.800000000000000000e+01 5.720630168068189505e+02
4.840000000000000568e+01 5.698683077218468043e+02
4.880000000000000426e+01 5.677014713385673303e+02
4.920000000000000284e+01 5.655619022565393834e+02
4.960000000000000142e+01 5.634490136298213656e+02
5.000000000000000000e+01 5.613622364351442684e+02
5.040000000000000568e+01 5.593010187752809088e+02
5.080000000000000426e+01 5.572648252156200215e+02
5.120000000000000284e+01 5.552531361520824476e+02
5.160000000000000142e+01 5.532654472086350097e+02
5.200000000000000000e+01 5.513012686627735093e+02
5.240000000000000568e+01 5.493601248974409827e+02
5.280000000000000426e+01 5.474415538779568351e+02
5.320000000000000284e+01 5.455451066526036357e+02
5.360000000000000142e+01 5.436703468756204529e+02
5.400000000000000000e+01 5.418168503514127678e+02
5.440000000000000568e+01 5.399842045988714290e+02
5.480000000000000426e+01 5.381720084347524562e+02
5.520000000000000284e+01 5.363798715751390773e+02
5.560000000000000142e+01 5.346074142540587673e+02
5.600000000000000000e+01 5.328542668583868362e+02
5.640000000000000568e+01 5.311200695782179082e+02
5.680000000000000426e+01 5.294044720719305133e+02
5.720000000000000284e+01 5.277071331452214054e+02
5.760000000000000142e+01 5.260277204434194118e+02
5.800000000000000000e+01 5.243659101564337561e+02
5.840000000000000568e+01 5.227213867357248773e+02
5.880000000000000426e+01 5.210938426227204445e+02
5.920000000000000284e+01 5.194829779881306422e+02
5.960000000000000142e+01 5.178885004816492028e+02
6.000000000000000000e+01 5.163101249915490598e+02
6.040000000000000568e+01 5.147475734137165091e+02
6.080000000000000426e+01 5.132005744296816374e+02
6.120000000000000284e+01 5.116688632932367113e+02
6.160000000000000142e+01 5.101521816252480903e+02
6.200000000000000000e+01 5.086502772162914994e+02
6.240000000000000568e+01 5.071629038367598241e+02
6.280000000000000426e+01 5.056898210541085064e+02
6.320000000000000284e+01 5.042307940569232869e+02
6.360000000000000142e+01 5.027855934855101623e+02
6.400000000000000000e+01 5.013539952687212349e+02
6.440000000000000568e+01 4.999357804667467917e+02
6.480000000000001137e+01 4.985307351196173613e+02
6.520000000000000284e+01 4.971386501011683094e+02
6.559999999999999432e+01 4.957593209782376107e+02
6.600000000000000000e+01 4.943925478748740829e+02
6.640000000000000568e+01 4.930381353413465604e+02
6.680000000000001137e+01 4.916958922277534612e+02
6.720000000000000284e+01 4.903656315620415285e+02
6.759999999999999432e+01 4.890471704322540631e+02
6.800000000000000000e+01 4.877403298728341952e+02
6.840000000000000568e+01 4.864449347548189166e+02
6.880000000000001137e+01 4.851608136797665907e+02
6.920000000000000284e+01 4.838877988772696881e+02
6.959999999999999432e+01 4.826257261059065513e+02
7.000000000000000000e+01 4.813744345575000239e+02
7.040000000000000568e+01 4.801337667645498755e+02
7.080000000000001137e+01 4.789035685107151039e+02
7.120000000000000284e+01 4.776836887442303805e+02
7.159999999999999432e+01 4.764739794941383479e+02
7.200000000000000000e+01 4.752742957892342019e+02
7.240000000000000568e+01 4.740844955796168279e+02
7.280000000000001137e+01 4.729044396607474141e+02
7.320000000000000284e+01 4.717339915999220352e+02
7.359999999999999432e+01 4.705730176650664021e+02
7.400000000000000000e+01 4.694213867557674575e+02
7.440000000000000568e+01 4.682789703364584284e+02
7.479999999999999716e+01 4.671456423716775817e+02
7.520000000000000284e+01 4.660212792633244590e+02
7.560000000000000853e+01 4.649057597898433869e+02
7.600000000000000000e+01 4.637989650472596850e+02
7.640000000000000568e+01 4.627007783920076349e+02
7.679999999999999716e+01 4.616110853854808056e+02
7.720000000000000284e+01 4.605297737402464122e+02
7.760000000000000853e+01 4.594567332678647631e+02
7.800000000000000000e+01 4.583918558282554727e+02
7.840000000000000568e+01 4.573350352805584862e+02
7.879999999999999716e+01 4.562861674354358001e+02
7.920000000000000284e+01 4.552451500087649379e+02
7.960000000000000853e+01 4.542118825766779082e+02
8.000000000000000000e+01 4.531862665318957397e+02
8.040000000000000568e+01 4.521682050413171510e+02
8.079999999999999716e+01 4.511576030048200323e+02
8.120000000000000284e+01 4.501543670152300933e+02
8.160000000000000853e+01 4.491584053194235366e+02
8.200000000000000000e+01 4.481696277805210684e+02
8.240000000000000568e+01 4.471879458411390260e+02
8.279999999999999716e+01 4.462132724876639713e+02
8.320000000000000284e+01 4.452455222155139722e+02
8.360000000000000853e+01 4.442846109953573546e+02
8.400000000000000000e+01 4.433304562402565239e+02
8.440000000000000568e+01 4.423829767737059910e+02
8.479999999999999716e+01 4.414420927985382264e+02
8.520000000000000284e+01 4.405077258666671014e+02
8.560000000000000853e+01 4.395797988496439643e+02
8.600000000000000000e+01 4.386582359099996324e+02
8.640000000000000568e+01 4.377429624733475180e+02
8.680000000000001137e+01 4.368339052012250932e+02
8.720000000000000284e+01 4.359309919646498201e+02
8.760000000000000853e+01 4.350341518183661265e+02
8.800000000000000000e+01 4.341433149757644969e+02
8.840000000000000568e+01 4.332584127844511386e+02
8.880000000000001137e+01 4.323793777024467317e+02
8.920000000000000284e+01 4.315061432749970436e+02
8.960000000000000853e+01 4.306386441119763617e+02
9.000000000000000000e+01 4.297768158658649327e+02
9.040000000000000568e+01 4.289205952102850006e+02
9.080000000000001137e+01 4.280699198190760626e+02
9.120000000000000284e+01 4.272247283458963238e+02
9.160000000000000853e+01 4.263849604043319346e+02
9.200000000000000000e+01 4.255505565485019019e+02
9.240000000000000568e+01 4.247214582541412824e+02
9.280000000000001137e+01 4.238976079001504331e+02
9.320000000000000284e+01 4.230789487505965667e+02
9.360000000000000853e+01 4.222654249371540800e+02
9.400000000000000000e+01 4.214569814419715499e+02
9.440000000000000568e+01 4.206535640809521510e+02
9.480000000000001137e+01 4.198551194874369230e+02
9.520000000000000284e+01 4.190615950962788361e+02
9.560000000000000853e+01 4.182729391282967981e+02
9.600000000000000000e+01 4.174891005750980071e+02
9.640000000000000568e+01 4.167100291842596107e+02
9.680000000000001137e+01 4.159356754448594984e+02
9.720000000000000284e+01 4.151659905733451978e+02
9.760000000000000853e+01 4.144009264997330320e+02
9.800000000000000000e+01 4.136404358541274178e+02
9.840000000000000568e+01 4.128844719535522927e+02
9.880000000000001137e+01 4.121329887890855730e+02
9.920000000000000284e+01 4.113859410132885728e+02
9.960000000000000853e+01 4.106432839279226528e+02
1.000000000000000000e+02 4.099049734719444587e+02
1.004000000000000057e+02 4.091709662097740079e+02
1.008000000000000114e+02 4.084412193198257910e+02
1.012000000000000028e+02 4.077156905832992493e+02
1.016000000000000085e+02 4.069943383732172606e+02
1.020000000000000000e+02 4.062771216437114390e+02
1.024000000000000057e+02 4.055639999195426526e+02
1.028000000000000114e+02 4.048549332858544858e+02
1.032000000000000028e+02 4.041498823781505507e+02
1.036000000000000085e+02 4.034488083724931471e+02
1.040000000000000000e+02 4.027516729759134932e+02
1.044000000000000057e+02 4.020584384170318231e+02
1.048000000000000114e+02 4.013690674368801865e+02
1.052000000000000028e+02 4.006835232799217579e+02
1.056000000000000085e+02 4.000017696852647759e+02
1.060000000000000000e+02 3.993237708780623052e+02
1.064000000000000057e+02 3.986494915610966245e+02
1.068000000000000114e+02 3.979788969065410811e+02
1.072000000000000028e+02 3.973119525478963965e+02
1.076000000000000085e+02 3.966486245720964234e+02
1.080000000000000000e+02 3.959888795117796008e+02
1.084000000000000057e+02 3.953326843377209343e+02
1.088000000000000114e+02 3.946800064514224005e+02
1.092000000000000028e+02 3.940308136778563153e+02
1.096000000000000085e+02 3.933850742583579176e+02
1.100000000000000000e+02 3.927427568436647221e+02
1.104000000000000057e+02 3.921038304870985485e+02
1.108000000000000114e+02 3.914682646378855111e+02
1.112000000000000028e+02 3.908360291346131135e+02
1.116000000000000085e+02 3.902070941988187087e+02
1.120000000000000000e+02 3.895814304287076197e+02
1.124000000000000057e+02 3.889590087929976789e+02
1.128000000000000114e+02 3.883398006248867773e+02
1.132000000000000028e+02 3.877237776161404099e+02
1.136000000000000085e+02 3.871109118112974556e+02
1.140000000000000000e+02 3.865011756019896438e+02
1.144000000000000057e+02 3.858945417213736846e+02
1.148000000000000114e+02 3.852909832386732205e+02
1.152000000000000028e+02 3.846904735538257682e+02
1.156000000000000085e+02 3.840929863922368668e+02
1.160000000000000000e+02 3.834984957996337585e+02
1.164000000000000057e+02 3.829069761370195124e+02
1.168000000000000114e+02 3.823184020757253165e+02
1.172000000000000028e+02 3.817327485925563906e+02
1.176000000000000085e+02 3.811499909650322024e+02
1.180000000000000000e+02 3.805701047667171792e+02
1.184000000000000057e+02 3.799930658626391278e+02
1.188000000000000114e+02 3.794188504047963875e+02
1.192000000000000028e+02 3.788474348277484864e+02
1.196000000000000085e+02 3.782787958442900731e+02
1.200000000000000000e+02 3.777129104412059064e+02
1.204000000000000057e+02 3.771497558751058250e+02
1.208000000000000114e+02 3.765893096683365115e+02
1.212000000000000028e+02 3.760315496049690864e+02
1.216000000000000085e+02 3.754764537268617346e+02
1.220000000000000000e+02 3.749240003297939552e+02
1.224000000000000057e+02 3.743741679596726613e+02
1.228000000000000114e+02 3.738269354088070031e+02
1.232000000000000028e+02 3.732822817122514607e+02
1.236000000000000085e+02 3.727401861442156132e+02
1.240000000000000000e+02 3.722006282145385399e+02
1.244000000000000057e+02 3.716635876652272827e+02
1.248000000000000114e+02 3.711290444670570992e+02
1.252000000000000028e+02 3.705969788162339000e+02
1.256000000000000085e+02 3.700673711311142142e+02
1.260000000000000000e+02 3.695402020489859751e+02
1.264000000000000057e+02 3.690154524229047297e+02
1.268000000000000114e+02 3.684931033185868046e+02
1.272000000000000028e+02 3.679731360113565870e+02
1.276000000000000085e+02 3.674555319831485463e+02
1.280000000000000000e+02 3.669402729195603570e+02
1.284000000000000057e+02 3.664273407069586597e+02
1.288000000000000114e+02 3.659167174296349572e+02
1.291999999999999886e+02 3.654083853670103963e+02
1.296000000000000227e+02 3.649023269908891507e+02
1.300000000000000000e+02 3.643985249627601206e+02
1.304000000000000057e+02 3.638969621311429705e+02
1.308000000000000114e+02 3.633976215289817446e+02
1.311999999999999886e+02 3.629004863710816835e+02
1.316000000000000227e+02 3.624055400515900374e+02
1.320000000000000000e+02 3.619127661415198531e+02
1.324000000000000057e+02 3.614221483863154845e+02
1.328000000000000114e+02 3.609336707034589722e+02
1.331999999999999886e+02 3.604473171801170110e+02
1.336000000000000227e+02 3.599630720708270815e+02
1.340000000000000000e+02 3.594809197952225190e+02
1.344000000000000057e+02 3.590008449357949871e+02
1.348000000000000114e+02 3.585228322356948638e+02
1.351999999999999886e+02 3.580468665965670425e+02
1.356000000000000227e+02 3.575729330764232827e+02
1.360000000000000000e+02 3.571010168875495197e+02
1.364000000000000057e+02 3.566311033944467113e+02
1.368000000000000114e+02 3.561631781118063031e+02
1.371999999999999886e+02 3.556972267025179235e+02
1.376000000000000227e+02 3.552332349757102179e+02
1.380000000000000000e+02 3.547711888848227773e+02
1.384000000000000057e+02 3.543110745257091594e+02
1.388000000000000114e+02 3.538528781347715153e+02
1.392000000000000171e+02 3.533965860871236373e+02
1.395999999999999943e+02 3.529421848947847593e+02
1.400000000000000000e+02 3.524896612049008695e+02
1.404000000000000057e+02 3.520390017979960362e+02
1.408000000000000114e+02 3.515901935862497112e+02
1.412000000000000171e+02 3.511432236118024548e+02
1.415999999999999943e+02 3.506980790450880932e+02
1.420000000000000000e+02 3.502547471831913981e+02
1.424000000000000057e+02 3.498132154482330520e+02
1.428000000000000114e+02 3.493734713857783163e+02
1.432000000000000171e+02 3.489355026632713361e+02
1.435999999999999943e+02 3.484992970684937745e+02
1.440000000000000000e+02 3.480648425080466950e+02
1.444000000000000057e+02 3.476321270058568302e+02
1.448000000000000114e+02 3.472011387017051902e+02
1.452000000000000171e+02 3.467718658497784645e+02
1.455999999999999943e+02 3.463442968172429914e+02
1.460000000000000000e+02 3.459184200828396456e+02
1.464000000000000057e+02 3.454942242355010080e+02
1.468000000000000114e+02 3.450716979729891136e+02
1.472000000000000171e+02 3.446508301005540034e+02
1.475999999999999943e+02 3.442316095296123990e+02
1.480000000000000000e+02 3.438140252764461025e+02
1.484000000000000057e+02 3.433980664609207452e+02
1.488000000000000114e+02 3.429837223052227273e+02
1.492000000000000171e+02 3.425709821326155406e+02
1.495999999999999943e+02 3.421598353662145655e+02
1.500000000000000000e+02 3.417502715277802849e+02
