1.000000000000000000e+01 2.989207001158399066e+02
1.040000000000000036e+01 3.988621889756640257e+02
1.080000000000000071e+01 4.376296092459278952e+02
1.119999999999999929e+01 5.003371268924927904e+02
1.159999999999999964e+01 5.279054072364452850e+02
1.200000000000000000e+01 5.943678289434001272e+02
1.240000000000000036e+01 6.172056506170332568e+02
1.280000000000000071e+01 6.340736623409010235e+02
1.319999999999999929e+01 6.426030999267663901e+02
1.359999999999999964e+01 6.557315761406481442e+02
1.400000000000000000e+01 6.802280506407633993e+02
1.440000000000000036e+01 6.897387165125121555e+02
1.480000000000000071e+01 6.757926719470658554e+02
1.519999999999999929e+01 6.627659101439228380e+02
1.560000000000000142e+01 6.505564320370494897e+02
1.600000000000000000e+01 6.390779763398022624e+02
1.639999999999999858e+01 6.282569425678935886e+02
1.680000000000000071e+01 6.180300351016639979e+02
1.719999999999999929e+01 6.083424331797297100e+02
1.760000000000000142e+01 5.991463510800097083e+02
1.800000000000000000e+01 5.903998921967945535e+02
1.839999999999999858e+01 5.820661275150185929e+02
1.880000000000000071e+01 5.741123475332526596e+02
1.920000000000000284e+01 5.665094497563528648e+02
1.960000000000000142e+01 5.592314332330289517e+02
2.000000000000000000e+01 5.522549784055876216e+02
2.039999999999999858e+01 5.455590955357754410e+02
2.080000000000000071e+01 5.391248286909748231e+02
2.120000000000000284e+01 5.329350050759130681e+02
2.160000000000000142e+01 5.269740216254133429e+02
2.200000000000000000e+01 5.212276624095278521e+02
2.239999999999999858e+01 5.156829416695732107e+02
2.280000000000000071e+01 5.103279682933199410e+02
2.320000000000000284e+01 5.051518283165556795e+02
2.360000000000000142e+01 5.001444826557903980e+02
2.400000000000000000e+01 4.952966777697251928e+02
2.439999999999999858e+01 4.905998673429862151e+02
2.480000000000000071e+01 4.860461434055027894e+02
2.520000000000000284e+01 4.816281755608397930e+02
2.560000000000000142e+01 4.773391572091630906e+02
2.600000000000000000e+01 4.731727578248807617e+02
2.640000000000000213e+01 4.691230804928818543e+02
2.680000000000000071e+01 4.651846240265389270e+02
2.719999999999999929e+01 4.613522490899122204e+02
2.760000000000000142e+01 4.576211478295762731e+02
2.800000000000000000e+01 4.539868165911316851e+02
2.840000000000000213e+01 4.504450313541306627e+02
2.880000000000000071e+01 4.469918255687456394e+02
2.920000000000000284e+01 4.436234701195894559e+02
2.960000000000000142e+01 4.403364551779113754e+02
3.000000000000000000e+01 4.371274737339817307e+02
3.040000000000000213e+01 4.339934066276675821e+02
3.080000000000000071e+01 4.309313089177119309e+02
3.120000000000000284e+01 4.279383974496038263e+02
3.160000000000000142e+01 4.250120394986790870e+02
3.200000000000000000e+01 4.221497423795864279e+02
3.240000000000000568e+01 4.193491439258452829e+02
3.279999999999999716e+01 4.166080037541764796e+02
3.320000000000000284e+01 4.139241952378471865e+02
3.360000000000000142e+01 4.112956981216289023e+02
3.400000000000000000e+01 4.087205917182855046e+02
3.440000000000000568e+01 4.061970486329456662e+02
3.479999999999999716e+01 4.037233289673649210e+02
3.520000000000000284e+01 4.012977749610750493e+02
3.560000000000000142e+01 3.989188060308235890e+02
3.600000000000000000e+01 3.965849141736052843e+02
3.640000000000000568e+01 3.942946597020435320e+02
3.679999999999999716e+01 3.920466672839535249e+02
3.720000000000000284e+01 3.898396222606448873e+02
3.760000000000000142e+01 3.876722672209614302e+02
3.800000000000000000e+01 3.855433988102238345e+02
3.840000000000000568e+01 3.834518647551843742e+02
3.879999999999999716e+01 3.813965610878415760e+02
3.920000000000000284e+01 3.793764295525219268e+02
3.960000000000000142e+01 3.773904551820340885e+02
4.000000000000000000e+01 3.754376640299603878e+02
4.040000000000000568e+01 3.735171210472826715e+02
4.079999999999999716e+01 3.716279280925632520e+02
4.120000000000000284e+01 3.697692220658190649e+02
4.160000000000000142e+01 3.679401731570672496e+02
4.200000000000000000e+01 3.661399832012671709e+02
4.239999999999999858e+01 3.643678841320740958e+02
4.280000000000000426e+01 3.626231365274346672e+02
4.320000000000000284e+01 3.609050282406192878e+02
4.360000000000000142e+01 3.592128731107985686e+02
4.400000000000000000e+01 3.575460097477355816e+02
4.439999999999999858e+01 3.559038003855911256e+02
4.480000000000000426e+01 3.542856298012251273e+02
4.520000000000000284e+01 3.526909042927325117e+02
4.560000000000000142e+01 3.511190507142715660e+02
4.600000000000000000e+01 3.495695155635423248e+02
4.639999999999999858e+01 3.480417641185393904e+02
4.680000000000000426e+01 3.465352796204538208e+02
4.720000000000000284e+01 3.450495624998241624e+02
4.760000000000000142e+01 3.435841296432480476e+02
4.800000000000000000e+01 3.421385136981549522e+02
4.840000000000000568e+01 3.407122624133177169e+02
4.880000000000000426e+01 3.393049380129461952e+02
4.920000000000000284e+01 3.379161166023497458e+02
4.960000000000000142e+01 3.365453876032988774e+02
5.000000000000000000e+01 3.351923532173416334e+02
5.040000000000000568e+01 3.338566279154459835e+02
5.080000000000000426e+01 3.325378379524520369e+02
5.120000000000000284e+01 3.312356209049144127e+02
5.160000000000000142e+01 3.299496252310106570e+02
5.200000000000000000e+01 3.286795098512768618e+02
5.240000000000000568e+01 3.274249437490110495e+02
5.280000000000000426e+01 3.261856055892592963e+02
5.320000000000000284e+01 3.249611833553694851e+02
5.360000000000000142e+01 3.237513740021572062e+02
5.400000000000000000e+01 3.225558831247942635e+02
5.440000000000000568e+01 3.213744246425788447e+02
5.480000000000000426e+01 3.202067204968009264e+02
5.520000000000000284e+01 3.190525003619656559e+02
5.560000000000000142e+01 3.179115013696770120e+02
5.600000000000000000e+01 3.167834678445310601e+02
5.640000000000000568e+01 3.156681510514038109e+02
5.680000000000000426e+01 3.145653089535537674e+02
5.720000000000000284e+01 3.134747059809968164e+02
5.760000000000000142e+01 3.123961128086383496e+02
5.800000000000000000e+01 3.113293061436797871e+02
5.840000000000000568e+01 3.102740685218429917e+02
5.880000000000000426e+01 3.092301881119825566e+02
5.920000000000000284e+01 3.081974585286787374e+02
5.960000000000000142e+01 3.071756786524285872e+02
6.000000000000000000e+01 3.061646524570710994e+02
6.040000000000000568e+01 3.051641888441056381e+02
6.080000000000000426e+01 3.041741014835781129e+02
6.120000000000000284e+01 3.031942086612287426e+02
6.160000000000000142e+01 3.022243331316119566e+02
6.200000000000000000e+01 3.012643019769128614e+02
6.240000000000000568e+01 3.003139464712007793e+02
6.280000000000000426e+01 2.993731019498728756e+02
6.320000000000000284e+01 2.984416076840548158e+02
6.360000000000000142e+01 2.975193067597359686e+02
6.400000000000000000e+01 2.966060459614301976e+02
6.440000000000000568e+01 2.957016756601614702e+02
6.480000000000001137e+01 2.948060497055856217e+02
6.520000000000000284e+01 2.939190253220687055e+02
6.559999999999999432e+01 2.930404630085498070e+02
6.600000000000000000e+01 2.921702264420279676e+02
6.640000000000000568e+01 2.913081823845166127e+02
6.680000000000001137e+01 2.904542005933203654e+02
6.720000000000000284e+01 2.896081537344934418e+02
6.759999999999999432e+01 2.887699172993477532e+02
6.800000000000000000e+01 2.879393695238833288e+02
6.840000000000000568e+01 2.871163913110203794e+02
6.880000000000001137e+01 2.863008661555193157e+02
6.920000000000000284e+01 2.854926800714786168e+02
6.959999999999999432e+01 2.846917215223056132e+02
7.000000000000000000e+01 2.838978813530623029e+02
7.040000000000000568e+01 2.831110527250903033e+02
7.080000000000001137e+01 2.823311310528238209e+02
7.120000000000000284e+01 2.815580139427069639e+02
7.159999999999999432e+01 2.807916011341291096e+02
7.200000000000000000e+01 2.800317944423030667e+02
7.240000000000000568e+01 2.792784977030091227e+02
7.280000000000001137e+01 2.785316167191330123e+02
7.320000000000000284e+01 2.777910592089300508e+02
7.359999999999999432e+01 2.770567347559489804e+02
7.400000000000000000e+01 2.763285547605532315e+02
7.440000000000000568e+01 2.756064323929797411e+02
7.479999999999999716e+01 2.748902825478767227e+02
7.520000000000000284e+01 2.741800218002672409e+02
7.560000000000000853e+01 2.734755683628842462e+02
7.600000000000000000e+01 2.727768420448275037e+02
7.640000000000000568e+01 2.720837642114942128e+02
7.679999999999999716e+01 2.713962577457373868e+02
7.720000000000000284e+01 2.707142470102057814e+02
7.760000000000000853e+01 2.700376578108258627e+02
7.800000000000000000e+01 2.693664173613826733e+02
7.840000000000000568e+01 2.687004542491617940e+02
7.879999999999999716e+01 2.680396984016144870e+02
7.920000000000000284e+01 2.673840810540100392e+02
7.960000000000000853e+01 2.667335347180415965e+02
8.000000000000000000e+01 2.660879931513509860e+02
8.040000000000000568e+01 2.654473913279421140e+02
8.079999999999999716e+01 2.648116654094518481e+02
8.120000000000000284e+01 2.641807527172487084e+02
8.160000000000000853e+01 2.635545917053324843e+02
8.200000000000000000e+01 2.629331219340056123e+02
8.240000000000000568e+01 2.623162840442929564e+02
8.279999999999999716e+01 2.617040197330824753e+02
8.320000000000000284e+01 2.610962717289643820e+02
8.360000000000000853e+01 2.604929837687455461e+02
8.400000000000000000e+01 2.598941005746159476e+02
8.440000000000000568e+01 2.592995678319462627e+02
8.479999999999999716e+01 2.587093321676973119e+02
8.520000000000000284e+01 2.581233411294189182e+02
8.560000000000000853e+01 2.575415431648215190e+02
8.600000000000000000e+01 2.569638876019008649e+02
8.640000000000000568e+01 2.563903246295988652e+02
8.680000000000001137e+01 2.558208052789825615e+02
8.720000000000000284e+01 2.552552814049258529e+02
8.760000000000000853e+01 2.546937056682777154e+02
8.800000000000000000e+01 2.541360315185017384e+02
8.840000000000000568e+01 2.535822131767718588e+02
8.880000000000001137e+01 2.530322056195110463e+02
8.920000000000000284e+01 2.524859645623582196e+02
8.960000000000000853e+01 2.519434464445514834e+02
9.000000000000000000e+01 2.514046084137132482e+02
9.040000000000000568e+01 2.508694083110270014e+02
9.080000000000001137e+01 2.503378046567922297e+02
9.120000000000000284e+01 2.498097566363468900e+02
9.160000000000000853e+01 2.492852240863460622e+02
9.200000000000000000e+01 2.487641674813870338e+02
9.240000000000000568e+01 2.482465479209685668e+02
9.280000000000001137e+01 2.477323271167770429e+02
9.320000000000000284e+01 2.472214673802875495e+02
9.360000000000000853e+01 2.467139316106720344e+02
9.400000000000000000e+01 2.462096832830051767e+02
9.440000000000000568e+01 2.457086864367591943e+02
9.480000000000001137e+01 2.452109056645796841e+02
9.520000000000000284e+01 2.447163061013336289e+02
9.560000000000000853e+01 2.442248534134224940e+02
9.600000000000000000e+01 2.437365137883526245e+02
9.640000000000000568e+01 2.432512539245555558e+02
9.680000000000001137e+01 2.427690410214509882e+02
9.720000000000000284e+01 2.422898427697464854e+02
9.760000000000000853e+01 2.418136273419655140e+02
9.800000000000000000e+01 2.413403633831997013e+02
9.840000000000000568e+01 2.408700200020768989e+02
9.880000000000001137e+01 2.404025667619409319e+02
9.920000000000000284e+01 2.399379736722359553e+02
9.960000000000000853e+01 2.394762111800898765e+02
1.000000000000000000e+02 2.390172501620926937e+02
1.004000000000000057e+02 2.385610619162625881e+02
1.008000000000000114e+02 2.381076181541959045e+02
1.012000000000000028e+02 2.376568909933961322e+02
1.016000000000000085e+02 2.372088529497761442e+02
1.020000000000000000e+02 2.367634769303297730e+02
1.024000000000000057e+02 2.363207362259686590e+02
1.028000000000000114e+02 2.358806045045181463e+02
1.032000000000000028e+02 2.354430558038706351e+02
1.036000000000000085e+02 2.350080645252899672e+02
1.040000000000000000e+02 2.345756054268642856e+02
1.044000000000000057e+02 2.341456536171025107e+02
1.048000000000000114e+02 2.337181845486721556e+02
1.052000000000000028e+02 2.332931740122726012e+02
1.056000000000000085e+02 2.328705981306426622e+02
1.060000000000000000e+02 2.324504333526976438e+02
1.064000000000000057e+02 2.320326564477924762e+02
1.068000000000000114e+02 2.316172445001085691e+02
1.072000000000000028e+02 2.312041749031612312e+02
1.076000000000000085e+02 2.307934253544225953e+02
1.080000000000000000e+02 2.303849738500609590e+02
1.084000000000000057e+02 2.299787986797891790e+02
1.088000000000000114e+02 2.295748784218235983e+02
1.092000000000000028e+02 2.291731919379470241e+02
1.096000000000000085e+02 2.287737183686762705e+02
1.100000000000000000e+02 2.283764371285294601e+02
1.104000000000000057e+02 2.279813279013922909e+02
1.108000000000000114e+02 2.275883706359789755e+02
1.112000000000000028e+02 2.271975455413880240e+02
1.116000000000000085e+02 2.268088330827477535e+02
1.120000000000000000e+02 2.264222139769519515e+02
1.124000000000000057e+02 2.260376691884817149e+02
1.128000000000000114e+02 2.256551799253119839e+02
1.132000000000000028e+02 2.252747276349012679e+02
1.136000000000000085e+02 2.248962940002613493e+02
1.140000000000000000e+02 2.245198609361067952e+02
1.144000000000000057e+02 2.241454105850801852e+02
1.148000000000000114e+02 2.237729253140536798e+02
1.152000000000000028e+02 2.234023877105030635e+02
1.156000000000000085e+02 2.230337805789538379e+02
1.160000000000000000e+02 2.226670869374974302e+02
1.164000000000000057e+02 2.223022900143751031e+02
1.168000000000000114e+02 2.219393732446293654e+02
1.172000000000000028e+02 2.215783202668203558e+02
1.176000000000000085e+02 2.212191149198056905e+02
1.180000000000000000e+02 2.208617412395827841e+02
1.184000000000000057e+02 2.205061834561921046e+02
1.188000000000000114e+02 2.201524259906797454e+02
1.192000000000000028e+02 2.198004534521182904e+02
1.196000000000000085e+02 2.194502506346839823e+02
1.200000000000000000e+02 2.191018025147900516e+02
1.204000000000000057e+02 2.187550942482739345e+02
1.208000000000000114e+02 2.184101111676377229e+02
1.212000000000000028e+02 2.180668387793402587e+02
1.216000000000000085e+02 2.177252627611402431e+02
1.220000000000000000e+02 2.173853689594887726e+02
1.224000000000000057e+02 2.170471433869703617e+02
1.228000000000000114e+02 2.167105722197916009e+02
1.232000000000000028e+02 2.163756417953161701e+02
1.236000000000000085e+02 2.160423386096448155e+02
1.240000000000000000e+02 2.157106493152404596e+02
1.244000000000000057e+02 2.153805607185963709e+02
1.248000000000000114e+02 2.150520597779465675e+02
1.252000000000000028e+02 2.147251336010184559e+02
1.256000000000000085e+02 2.143997694428255159e+02
1.260000000000000000e+02 2.140759547035004573e+02
1.264000000000000057e+02 2.137536769261666052e+02
1.268000000000000114e+02 2.134329237948481079e+02
1.272000000000000028e+02 2.131136831324174636e+02
1.276000000000000085e+02 2.127959428985786587e+02
1.280000000000000000e+02 2.124796911878875392e+02
1.284000000000000057e+02 2.121649162278061453e+02
1.288000000000000114e+02 2.118516063767915796e+02
1.291999999999999886e+02 2.115397501224189227e+02
1.296000000000000227e+02 2.112293360795363810e+02
1.300000000000000000e+02 2.109203529884532600e+02
1.304000000000000057e+02 2.106127897131586906e+02
1.308000000000000114e+02 2.103066352395725005e+02
1.311999999999999886e+02 2.100018786738248764e+02
1.316000000000000227e+02 2.096985092405668638e+02
1.320000000000000000e+02 2.093965162813092604e+02
1.324000000000000057e+02 2.090958892527902435e+02
1.328000000000000114e+02 2.087966177253707372e+02
1.331999999999999886e+02 2.084986913814572347e+02
1.336000000000000227e+02 2.082021000139510818e+02
1.340000000000000000e+02 2.079068335247245898e+02
1.344000000000000057e+02 2.076128819231221314e+02
1.348000000000000114e+02 2.073202353244870153e+02
1.351999999999999886e+02 2.070288839487124903e+02
1.356000000000000227e+02 2.067388181188177612e+02
1.360000000000000000e+02 2.064500282595468832e+02
1.364000000000000057e+02 2.061625048959915603e+02
1.368000000000000114e+02 2.058762386522361680e+02
1.371999999999999886e+02 2.055912202500257138e+02
1.376000000000000227e+02 2.053074405074553397e+02
1.380000000000000000e+02 2.050248903376814837e+02
1.384000000000000057e+02 2.047435607476540440e+02
1.388000000000000114e+02 2.044634428368692056e+02
1.392000000000000171e+02 2.041845277961427882e+02
1.395999999999999943e+02 2.039068069064028919e+02
1.400000000000000000e+02 2.036302715375028356e+02
1.404000000000000057e+02 2.033549131470525708e+02
1.408000000000000114e+02 2.030807232792692503e+02
1.412000000000000171e+02 2.028076935638459872e+02
1.415999999999999943e+02 2.025358157148388045e+02
1.420000000000000000e+02 2.022650815295712619e+02
1.424000000000000057e+02 2.019954828875565909e+02
1.428000000000000114e+02 2.017270117494365422e+02
1.432000000000000171e+02 2.014596601559373994e+02
1.435999999999999943e+02 2.011934202268423348e+02
1.440000000000000000e+02 2.009282841599793983e+02
1.444000000000000057e+02 2.006642442302263305e+02
1.448000000000000114e+02 2.004012927885298154e+02
1.452000000000000171e+02 2.001394222609408189e+02
1.455999999999999943e+02 1.998786251476642519e+02
1.460000000000000000e+02 1.996188940221239250e+02
1.464000000000000057e+02 1.993602215300415423e+02
1.468000000000000114e+02 1.991026003885299360e+02
1.472000000000000171e+02 1.988460233852001977e+02
1.475999999999999943e+02 1.985904833772826805e+02
1.480000000000000000e+02 1.983359732907609896e+02
1.484000000000000057e+02 1.980824861195195012e+02
1.488000000000000114e+02 1.978300149245037005e+02
1.492000000000000171e+02 1.975785528328931946e+02
1.495999999999999943e+02 1.973280930372871182e+02
1.500000000000000000e+02 1.970786287949019311e+02
