1.000000000000000000e+01 1.236285980409568310e+02
1.040000000000000036e+01 1.242173137764360149e+02
1.080000000000000071e+01 1.314741178704998106e+02
1.119999999999999929e+01 1.348332477210376510e+02
1.159999999999999964e+01 1.336002161605869674e+02
1.200000000000000000e+01 1.300726037536791750e+02
1.240000000000000036e+01 1.269432276129941783e+02
1.280000000000000071e+01 1.241915712955620990e+02
1.319999999999999929e+01 1.174064034615800551e+02
1.359999999999999964e+01 1.146261673448134957e+02
1.400000000000000000e+01 1.120716138978593506e+02
1.440000000000000036e+01 1.097119566815645300e+02
1.480000000000000071e+01 1.075222130643929006e+02
1.519999999999999929e+01 1.054818306108364681e+02
1.560000000000000142e+01 1.038225450533197147e+02
1.600000000000000000e+01 1.023128741535357022e+02
1.639999999999999858e+01 1.008955961154652954e+02
1.680000000000000071e+01 9.958825796949351172e+01
1.719999999999999929e+01 9.836561138574535335e+01
1.760000000000000142e+01 9.720642551444649371e+01
1.800000000000000000e+01 9.610515562540487622e+01
1.839999999999999858e+01 9.505692504685255528e+01
1.880000000000000071e+01 9.080959389564587525e+01
1.920000000000000284e+01 8.672625670132276809e+01
1.960000000000000142e+01 8.555741515519352447e+01
2.000000000000000000e+01 8.444004084264162202e+01
2.039999999999999858e+01 8.337036578041701773e+01
2.080000000000000071e+01 8.234500207413454120e+01
2.120000000000000284e+01 8.136089351336951836e+01
2.160000000000000142e+01 7.993427096612442995e+01
2.200000000000000000e+01 7.903752678406532084e+01
2.239999999999999858e+01 7.817410528344881016e+01
2.280000000000000071e+01 7.734194128775024524e+01
2.320000000000000284e+01 7.652826100226795347e+01
2.360000000000000142e+01 7.569788196335474595e+01
2.400000000000000000e+01 7.489476467517097547e+01
2.439999999999999858e+01 7.411741194318258863e+01
2.480000000000000071e+01 7.336444109706380345e+01
2.520000000000000284e+01 7.263457282864470699e+01
2.560000000000000142e+01 7.192862509878959543e+01
2.600000000000000000e+01 7.124676997689670088e+01
2.640000000000000213e+01 7.058407791961266753e+01
2.680000000000000071e+01 6.992864498738600787e+01
2.719999999999999929e+01 6.929043641865794712e+01
2.760000000000000142e+01 6.866936082859038493e+01
2.800000000000000000e+01 6.806464942940969820e+01
2.840000000000000213e+01 6.747558153298899697e+01
2.880000000000000071e+01 6.690148070914030143e+01
2.920000000000000284e+01 6.634171131555162049e+01
2.960000000000000142e+01 6.579567535731472105e+01
3.000000000000000000e+01 6.526280963941913171e+01
3.040000000000000213e+01 6.474258318023308334e+01
3.080000000000000071e+01 6.423449485797610237e+01
3.120000000000000284e+01 6.373807126561700187e+01
3.160000000000000142e+01 5.994383119353490486e+01
3.200000000000000000e+01 6.053709889182636061e+01
3.240000000000000568e+01 6.008620330424213307e+01
3.279999999999999716e+01 5.964481685081457840e+01
3.320000000000000284e+01 5.936135703346229775e+01
3.360000000000000142e+01 5.894305639829997290e+01
3.400000000000000000e+01 5.853320959525099454e+01
3.440000000000000568e+01 5.813152848405223239e+01
3.479999999999999716e+01 5.773773875076572892e+01
3.520000000000000284e+01 5.702061484432422844e+01
3.560000000000000142e+01 5.666051783241523054e+01
3.600000000000000000e+01 5.630709951050479134e+01
3.640000000000000568e+01 5.596015090380446821e+01
3.679999999999999716e+01 5.561947224129282574e+01
3.720000000000000284e+01 5.528487243414596719e+01
3.760000000000000142e+01 5.495616859020778833e+01
3.800000000000000000e+01 5.463318556156917083e+01
3.840000000000000568e+01 5.431575552260001416e+01
3.879999999999999716e+01 5.400371757602169254e+01
3.920000000000000284e+01 5.369691738482702448e+01
3.960000000000000142e+01 5.339520682805195406e+01
4.000000000000000000e+01 5.309822090979633913e+01
4.040000000000000568e+01 5.280600189441656767e+01
4.079999999999999716e+01 5.251914642040601677e+01
4.120000000000000284e+01 5.224107096685112595e+01
4.160000000000000142e+01 5.196740680026981352e+01
4.200000000000000000e+01 5.169803567378487230e+01
4.239999999999999858e+01 5.143284377836605614e+01
4.280000000000000426e+01 5.117172152975993527e+01
4.320000000000000284e+01 5.091456336783603831e+01
4.360000000000000142e+01 5.066126756750058746e+01
4.400000000000000000e+01 5.041173606039603783e+01
4.439999999999999858e+01 5.016587426666474414e+01
4.480000000000000426e+01 4.992359093611033671e+01
4.520000000000000284e+01 4.967876694835432971e+01
4.560000000000000142e+01 4.943476215332336210e+01
4.600000000000000000e+01 4.919428415658941844e+01
4.639999999999999858e+01 4.895724680119936778e+01
4.680000000000000426e+01 4.872356688169872996e+01
4.720000000000000284e+01 4.849316401459595482e+01
4.760000000000000142e+01 4.823717092034445386e+01
4.800000000000000000e+01 4.801611308079254314e+01
4.840000000000000568e+01 4.766189666106747325e+01
4.880000000000000426e+01 4.744394203336414506e+01
4.920000000000000284e+01 4.722894987832974323e+01
4.960000000000000142e+01 4.701685234992955742e+01
5.000000000000000000e+01 4.680758377584743357e+01
5.040000000000000568e+01 4.659913023566453205e+01
5.080000000000000426e+01 4.639009243869114840e+01
5.120000000000000284e+01 4.618376991371561502e+01
5.160000000000000142e+01 4.598010339177261585e+01
5.200000000000000000e+01 4.577903541396578646e+01
5.240000000000000568e+01 4.558051026070911860e+01
5.280000000000000426e+01 4.538447388432911112e+01
5.320000000000000284e+01 4.519087384484043923e+01
5.360000000000000142e+01 4.499965924871952438e+01
5.400000000000000000e+01 4.481078069051171298e+01
5.440000000000000568e+01 4.462419019711807522e+01
5.480000000000000426e+01 4.443984117461739913e+01
5.520000000000000284e+01 4.425768835748789343e+01
5.560000000000000142e+01 4.407638634179055259e+01
5.600000000000000000e+01 4.389426790546183810e+01
5.640000000000000568e+01 4.371422737429128347e+01
5.680000000000000426e+01 4.353622513885472500e+01
5.720000000000000284e+01 4.336022264980302054e+01
5.760000000000000142e+01 4.318618238133259979e+01
5.800000000000000000e+01 4.301406779619424015e+01
5.840000000000000568e+01 4.302883328827328313e+01
5.880000000000000426e+01 4.286573766007020936e+01
5.920000000000000284e+01 4.270437638536170510e+01
5.960000000000000142e+01 4.254471863931731690e+01
6.000000000000000000e+01 4.238673436577024489e+01
6.040000000000000568e+01 4.223039425254459189e+01
6.080000000000000426e+01 4.207566970775047110e+01
6.120000000000000284e+01 4.192253283700200228e+01
6.160000000000000142e+01 4.177095642151609667e+01
6.200000000000000000e+01 4.162091389705132372e+01
6.240000000000000568e+01 4.147237933364953477e+01
6.280000000000000426e+01 4.132532741614340921e+01
6.320000000000000284e+01 4.117973342539613668e+01
6.360000000000000142e+01 4.103557322024084897e+01
6.400000000000000000e+01 4.089282322008869386e+01
6.440000000000000568e+01 4.075146038817651117e+01
6.480000000000001137e+01 4.062269858735357531e+01
6.520000000000000284e+01 4.048639390923814574e+01
6.559999999999999432e+01 4.035137583375809811e+01
6.600000000000000000e+01 4.021762408290868507e+01
6.640000000000000568e+01 4.008511882665240478e+01
6.680000000000001137e+01 4.000308034174128125e+01
6.720000000000000284e+01 3.987703355558983276e+01
6.759999999999999432e+01 3.975212919694618563e+01
6.800000000000000000e+01 3.962834988004119907e+01
6.840000000000000568e+01 3.950567859126869763e+01
6.880000000000001137e+01 3.938409867891630256e+01
6.920000000000000284e+01 3.926359384324261725e+01
6.959999999999999432e+01 3.914414812688740852e+01
7.000000000000000000e+01 3.902574590560121948e+01
7.040000000000000568e+01 3.890837187928204344e+01
7.080000000000001137e+01 3.879201106330696547e+01
7.120000000000000284e+01 3.867664878014743834e+01
7.159999999999999432e+01 3.856210156701480685e+01
7.200000000000000000e+01 3.844802792818185111e+01
7.240000000000000568e+01 3.833491662872717143e+01
7.280000000000001137e+01 3.822275405909390855e+01
7.320000000000000284e+01 3.811152688025315172e+01
7.359999999999999432e+01 3.800122201677427825e+01
7.400000000000000000e+01 3.789166566368500355e+01
7.440000000000000568e+01 3.778234837442738581e+01
7.479999999999999716e+01 3.767392713723675968e+01
7.520000000000000284e+01 3.756638963930328146e+01
7.560000000000000853e+01 3.745972380566828974e+01
7.600000000000000000e+01 3.735391779330163331e+01
7.640000000000000568e+01 3.724895998535939867e+01
7.679999999999999716e+01 3.714483898561570641e+01
7.720000000000000284e+01 3.704154361306197529e+01
7.760000000000000853e+01 3.693858698631409254e+01
7.800000000000000000e+01 3.683631559084234652e+01
7.840000000000000568e+01 3.673485696837872183e+01
7.879999999999999716e+01 3.663420023637364409e+01
7.920000000000000284e+01 3.653433471699268154e+01
7.960000000000000853e+01 3.643524993216895780e+01
8.000000000000000000e+01 3.654466832177062940e+01
8.040000000000000568e+01 3.645028997671180093e+01
8.079999999999999716e+01 3.635663490816689603e+01
8.120000000000000284e+01 3.626369372675941349e+01
8.160000000000000853e+01 3.617145721463354846e+01
8.200000000000000000e+01 3.607991632142696403e+01
8.240000000000000568e+01 3.598906216035886985e+01
8.279999999999999716e+01 3.589888600442938582e+01
8.320000000000000284e+01 3.580937928272658155e+01
8.360000000000000853e+01 3.572053357683753916e+01
8.400000000000000000e+01 3.563234061736007163e+01
8.440000000000000568e+01 3.554479228051165052e+01
8.479999999999999716e+01 3.547695241968163060e+01
8.520000000000000284e+01 3.539122318705688031e+01
8.560000000000000853e+01 3.530610925666861277e+01
8.600000000000000000e+01 3.522160314703022266e+01
8.640000000000000568e+01 3.513769750473306885e+01
8.680000000000001137e+01 3.505438510162692722e+01
8.720000000000000284e+01 3.497165883207599535e+01
8.760000000000000853e+01 3.489123874378839218e+01
8.800000000000000000e+01 3.481132699882088133e+01
8.840000000000000568e+01 3.473196537694965258e+01
8.880000000000001137e+01 3.465314746438227189e+01
8.920000000000000284e+01 3.457486695249907882e+01
8.960000000000000853e+01 3.449711763563669109e+01
9.000000000000000000e+01 3.441989340892825311e+01
9.040000000000000568e+01 3.434318826619920628e+01
9.080000000000001137e+01 3.426699629791635715e+01
9.120000000000000284e+01 3.419131168918912778e+01
9.160000000000000853e+01 3.411612871782106282e+01
9.200000000000000000e+01 3.404144175241039960e+01
9.240000000000000568e+01 3.396724525049798871e+01
9.280000000000001137e+01 3.389353375676130753e+01
9.320000000000000284e+01 3.382030190125328772e+01
9.360000000000000853e+01 3.374754439768442182e+01
9.400000000000000000e+01 3.367525604174717557e+01
9.440000000000000568e+01 3.360343170948117830e+01
9.480000000000001137e+01 3.353206635567828187e+01
9.520000000000000284e+01 3.346115501232625178e+01
9.560000000000000853e+01 3.339069260567157471e+01
9.600000000000000000e+01 3.332067294972059557e+01
9.640000000000000568e+01 3.325109223383976342e+01
9.680000000000001137e+01 3.318194579757918206e+01
9.720000000000000284e+01 3.311322905013089724e+01
9.760000000000000853e+01 3.304493746899062501e+01
9.800000000000000000e+01 3.297679711408621017e+01
9.840000000000000568e+01 3.290903287307932601e+01
9.880000000000001137e+01 3.284167817361866071e+01
9.920000000000000284e+01 3.277472884741252557e+01
9.960000000000000853e+01 3.270818078582786370e+01
1.000000000000000000e+02 3.264202993878951986e+01
1.004000000000000057e+02 3.257627231370440768e+01
1.008000000000000114e+02 3.251090397440985669e+01
1.012000000000000028e+02 3.244592104014547829e+01
1.016000000000000085e+02 3.238131968454808174e+01
1.020000000000000000e+02 3.231709613466869513e+01
1.024000000000000057e+02 3.225324667001156342e+01
1.028000000000000114e+02 3.218976762159413596e+01
1.032000000000000028e+02 3.212665537102775914e+01
1.036000000000000085e+02 3.206385290049357195e+01
1.040000000000000000e+02 3.200094727441403819e+01
1.044000000000000057e+02 3.193840231867260826e+01
1.048000000000000114e+02 3.187621455378347690e+01
1.052000000000000028e+02 3.181438054743775012e+01
1.056000000000000085e+02 3.175289691367931511e+01
1.060000000000000000e+02 3.169176031209822497e+01
1.064000000000000057e+02 3.163096744704130003e+01
1.068000000000000114e+02 3.157051506683951203e+01
1.072000000000000028e+02 3.151039996305164337e+01
1.076000000000000085e+02 3.145061896972382698e+01
1.080000000000000000e+02 3.138910335455821610e+01
1.084000000000000057e+02 3.133008025864861423e+01
1.088000000000000114e+02 3.127138208603601299e+01
1.092000000000000028e+02 3.121300582568109405e+01
1.096000000000000085e+02 3.115486107290279350e+01
1.100000000000000000e+02 3.109655579957691884e+01
1.104000000000000057e+02 3.103856674804706728e+01
1.108000000000000114e+02 3.098089103555974688e+01
1.112000000000000028e+02 3.092796219276497993e+01
1.116000000000000085e+02 3.087152285652744865e+01
1.120000000000000000e+02 3.081538476586520403e+01
1.124000000000000057e+02 3.075954521027269806e+01
1.128000000000000114e+02 3.070400151358482077e+01
1.132000000000000028e+02 3.064875103341573848e+01
1.136000000000000085e+02 3.059379116060867432e+01
1.140000000000000000e+02 3.053911931869690832e+01
1.144000000000000057e+02 3.048473296337530769e+01
1.148000000000000114e+02 3.043062958198244417e+01
1.152000000000000028e+02 3.037680669299284020e+01
1.156000000000000085e+02 3.032326184551920534e+01
1.160000000000000000e+02 3.026999261882452785e+01
1.164000000000000057e+02 3.021699662184341761e+01
1.168000000000000114e+02 3.016427149271307684e+01
1.172000000000000028e+02 3.011181489831314195e+01
1.176000000000000085e+02 3.005962453381441435e+01
1.180000000000000000e+02 3.000769812223637345e+01
1.184000000000000057e+02 2.995603341401305642e+01
1.188000000000000114e+02 2.990462818656730803e+01
1.192000000000000028e+02 2.985348024389304200e+01
1.196000000000000085e+02 2.980258741614550999e+01
1.200000000000000000e+02 2.975190885116461104e+01
1.204000000000000057e+02 2.970144409428191778e+01
1.208000000000000114e+02 2.965122835163969128e+01
1.212000000000000028e+02 2.960125955385300145e+01
1.216000000000000085e+02 2.955153565573622387e+01
1.220000000000000000e+02 2.950205463593813349e+01
1.224000000000000057e+02 2.945281449658361339e+01
1.228000000000000114e+02 2.941758806692908479e+01
1.232000000000000028e+02 2.936934707359963781e+01
1.236000000000000085e+02 2.932133739319325372e+01
1.240000000000000000e+02 2.927355715612464593e+01
1.244000000000000057e+02 2.922594532155092395e+01
1.248000000000000114e+02 2.917845522304198624e+01
1.252000000000000028e+02 2.913119141961244551e+01
1.256000000000000085e+02 2.908415208802724194e+01
1.260000000000000000e+02 2.903733542575658433e+01
1.264000000000000057e+02 2.899073965067294267e+01
1.268000000000000114e+02 2.894436300075343738e+01
1.272000000000000028e+02 2.889820373378762497e+01
1.276000000000000085e+02 2.885226012709036780e+01
1.280000000000000000e+02 2.880653047721986226e+01
1.284000000000000057e+02 2.876101309970061948e+01
1.288000000000000114e+02 2.871570632875131324e+01
1.291999999999999886e+02 2.867060851701743474e+01
1.296000000000000227e+02 2.862571803530854808e+01
1.300000000000000000e+02 2.858103327234020341e+01
1.304000000000000057e+02 2.853655263448028734e+01
1.308000000000000114e+02 2.849227454549978233e+01
1.311999999999999886e+02 2.844819744632779646e+01
1.316000000000000227e+02 2.840431979481085278e+01
1.320000000000000000e+02 2.836064006547629290e+01
1.324000000000000057e+02 2.831715674929971271e+01
1.328000000000000114e+02 2.827386835347633109e+01
1.331999999999999886e+02 2.823077340119630918e+01
1.336000000000000227e+02 2.818470218919119930e+01
1.340000000000000000e+02 2.814224846631739041e+01
1.344000000000000057e+02 2.809998235128005462e+01
1.348000000000000114e+02 2.805790244237221742e+01
1.351999999999999886e+02 2.801600735265555997e+01
1.356000000000000227e+02 2.797429570975981150e+01
1.360000000000000000e+02 2.793276615568545651e+01
1.364000000000000057e+02 2.789141734660969618e+01
1.368000000000000114e+02 2.785025406133703996e+01
1.371999999999999886e+02 2.780950265181752457e+01
1.376000000000000227e+02 2.776892662836660364e+01
1.380000000000000000e+02 2.772852471643605554e+01
1.384000000000000057e+02 2.768829565452335117e+01
1.388000000000000114e+02 2.764823819399969906e+01
1.392000000000000171e+02 2.760835109894076211e+01
1.395999999999999943e+02 2.756863314596010639e+01
1.400000000000000000e+02 2.752908312404537128e+01
1.404000000000000057e+02 2.748969983439699760e+01
1.408000000000000114e+02 2.745048209026956698e+01
1.412000000000000171e+02 2.741142871681563875e+01
1.415999999999999943e+02 2.737245712176138923e+01
1.420000000000000000e+02 2.733360199888538133e+01
1.424000000000000057e+02 2.729490853345115653e+01
1.428000000000000114e+02 2.725637559037946289e+01
1.432000000000000171e+02 2.721800204581616001e+01
1.435999999999999943e+02 2.717978678698921513e+01
1.440000000000000000e+02 2.714172871206790205e+01
1.444000000000000057e+02 2.710382673002424170e+01
1.448000000000000114e+02 2.706607976049649267e+01
1.452000000000000171e+02 2.702848673365481602e+01
1.455999999999999943e+02 2.699104659006900420e+01
1.460000000000000000e+02 2.695375828057824208e+01
1.464000000000000057e+02 2.691662076616276522e+01
1.468000000000000114e+02 2.687956190196508643e+01
1.472000000000000171e+02 2.684256730307978955e+01
1.475999999999999943e+02 2.681813035839800818e+01
1.480000000000000000e+02 2.678218763692139959e+01
1.484000000000000057e+02 2.674638773330138264e+01
1.488000000000000114e+02 2.671072968734427278e+01
1.492000000000000171e+02 2.667521254795925501e+01
1.495999999999999943e+02 2.663972172497092927e+01
1.500000000000000000e+02 2.660435091103731509e+01
