1.000000000000000000e+01 1.945577690014137602e+02
1.040000000000000036e+01 1.915718338715284403e+02
1.080000000000000071e+01 1.902399396020623215e+02
1.119999999999999929e+01 1.911865070900816193e+02
1.159999999999999964e+01 1.972918962100180806e+02
1.200000000000000000e+01 1.935194375653876477e+02
1.240000000000000036e+01 1.880910986755078511e+02
1.280000000000000071e+01 1.830957543669625807e+02
1.319999999999999929e+01 1.762554369569585333e+02
1.359999999999999964e+01 1.715790911651036197e+02
1.400000000000000000e+01 1.672587138044576704e+02
1.440000000000000036e+01 1.632482187125376072e+02
1.480000000000000071e+01 1.595099399010127286e+02
1.519999999999999929e+01 1.560126621053266831e+02
1.560000000000000142e+01 1.534816630390300816e+02
1.600000000000000000e+01 1.512824182584033110e+02
1.639999999999999858e+01 1.492098034248776344e+02
1.680000000000000071e+01 1.472514591612426500e+02
1.719999999999999929e+01 1.453967041215467475e+02
1.760000000000000142e+01 1.447321874860571995e+02
1.800000000000000000e+01 1.430897789444905754e+02
1.839999999999999858e+01 1.415255312583456941e+02
1.880000000000000071e+01 1.367852717478278919e+02
1.920000000000000284e+01 1.262594942974633767e+02
1.960000000000000142e+01 1.243974467557928847e+02
2.000000000000000000e+01 1.226161829546091298e+02
2.039999999999999858e+01 1.197900003756477787e+02
2.080000000000000071e+01 1.182546418153618930e+02
2.120000000000000284e+01 1.167793302467831325e+02
2.160000000000000142e+01 1.153601543541608692e+02
2.200000000000000000e+01 1.139935549626308955e+02
2.239999999999999858e+01 1.126791283604066223e+02
2.280000000000000071e+01 1.114131909880438940e+02
2.320000000000000284e+01 1.101577583378731759e+02
2.360000000000000142e+01 1.088100137065572568e+02
2.400000000000000000e+01 1.075043409550963247e+02
2.439999999999999858e+01 1.062385466161603063e+02
2.480000000000000071e+01 1.050033184086582878e+02
2.520000000000000284e+01 1.037565846115646053e+02
2.560000000000000142e+01 1.025488316917418956e+02
2.600000000000000000e+01 1.013795148020143273e+02
2.640000000000000213e+01 1.002430351359718799e+02
2.680000000000000071e+01 9.913786740305403100e+01
2.719999999999999929e+01 9.806258511066825179e+01
2.760000000000000142e+01 9.701585238366109820e+01
2.800000000000000000e+01 9.599641660534901177e+01
2.840000000000000213e+01 9.500310178347157830e+01
2.880000000000000071e+01 9.403480255741550309e+01
2.920000000000000284e+01 9.293258454425787818e+01
2.960000000000000142e+01 9.201985825808198172e+01
3.000000000000000000e+01 9.112898182481373510e+01
3.040000000000000213e+01 9.025909246358891380e+01
3.080000000000000071e+01 8.940937485362940151e+01
3.120000000000000284e+01 8.933610634115711946e+01
3.160000000000000142e+01 8.853855509964634507e+01
3.200000000000000000e+01 9.101877309205563904e+01
3.240000000000000568e+01 9.035113924675052033e+01
3.279999999999999716e+01 8.969723821019017862e+01
3.320000000000000284e+01 8.905659342688613833e+01
3.360000000000000142e+01 8.842875165109472846e+01
3.400000000000000000e+01 8.781328147866749134e+01
3.440000000000000568e+01 8.720977199165373861e+01
3.479999999999999716e+01 8.661783150547188370e+01
3.520000000000000284e+01 8.570612219926121611e+01
3.560000000000000142e+01 8.515489768668338399e+01
3.600000000000000000e+01 8.461223812506653985e+01
3.640000000000000568e+01 8.407577139101604757e+01
3.679999999999999716e+01 8.354888876314952029e+01
3.720000000000000284e+01 8.303270131527415288e+01
3.760000000000000142e+01 8.252981636690915934e+01
3.800000000000000000e+01 8.203542493327725538e+01
3.840000000000000568e+01 8.154928626430209704e+01
3.879999999999999716e+01 8.107116922793312597e+01
3.920000000000000284e+01 8.060085181440329904e+01
3.960000000000000142e+01 8.013812067172024456e+01
4.000000000000000000e+01 7.968277067007012704e+01
4.040000000000000568e+01 7.923460449301350650e+01
4.079999999999999716e+01 7.879559356974914408e+01
4.120000000000000284e+01 7.837617678888999251e+01
4.160000000000000142e+01 7.796343015148242728e+01
4.200000000000000000e+01 7.755717422384680049e+01
4.239999999999999858e+01 7.715723632546369970e+01
4.280000000000000426e+01 7.676345020424241739e+01
4.320000000000000284e+01 7.637565573071755409e+01
4.360000000000000142e+01 7.599369860988153391e+01
4.400000000000000000e+01 7.561743010946129573e+01
4.439999999999999858e+01 7.498765714214712830e+01
4.480000000000000426e+01 7.471642499566954143e+01
4.520000000000000284e+01 7.436320307636887605e+01
4.560000000000000142e+01 7.401231825692494226e+01
4.600000000000000000e+01 7.366644197389014437e+01
4.639999999999999858e+01 7.332545311084982131e+01
4.680000000000000426e+01 7.298923466079470757e+01
4.720000000000000284e+01 7.265767354760160401e+01
4.760000000000000142e+01 7.233066045692876855e+01
4.800000000000000000e+01 7.200808967594423393e+01
4.840000000000000568e+01 7.128132479300717250e+01
4.880000000000000426e+01 7.095873732995531213e+01
4.920000000000000284e+01 7.064053610827420471e+01
4.960000000000000142e+01 7.032662089645364745e+01
5.000000000000000000e+01 7.001689465611583785e+01
5.040000000000000568e+01 6.971126341230034029e+01
5.080000000000000426e+01 6.940963613013106226e+01
5.120000000000000284e+01 6.911192459749744899e+01
5.160000000000000142e+01 6.881090623171773757e+01
5.200000000000000000e+01 6.851180701242343218e+01
5.240000000000000568e+01 6.821652944322364931e+01
5.280000000000000426e+01 6.792499109627983955e+01
5.320000000000000284e+01 6.763711202033637448e+01
5.360000000000000142e+01 6.735281464595183820e+01
5.400000000000000000e+01 6.707199768447176780e+01
5.440000000000000568e+01 6.679461061306693637e+01
5.480000000000000426e+01 6.652058495637636781e+01
5.520000000000000284e+01 6.624985184365122848e+01
5.560000000000000142e+01 6.598185663144830926e+01
5.600000000000000000e+01 6.570980738972698987e+01
5.640000000000000568e+01 6.544080812133671543e+01
5.680000000000000426e+01 6.517480161829546148e+01
5.720000000000000284e+01 6.491173217872652401e+01
5.760000000000000142e+01 6.465154555578487816e+01
5.800000000000000000e+01 6.439418890870155110e+01
5.840000000000000568e+01 6.432460073195184691e+01
5.880000000000000426e+01 6.407802431985011538e+01
5.920000000000000284e+01 6.383404001682793449e+01
5.960000000000000142e+01 6.359260223564604075e+01
6.000000000000000000e+01 6.335366651321814402e+01
6.040000000000000568e+01 6.311718947492745713e+01
6.080000000000000426e+01 6.308615455669936978e+01
6.120000000000000284e+01 6.285963259371028755e+01
6.160000000000000142e+01 6.263537812745325795e+01
6.200000000000000000e+01 6.241335331696554789e+01
6.240000000000000568e+01 6.219352120473283918e+01
6.280000000000000426e+01 6.197584569018076195e+01
6.320000000000000284e+01 6.176029150413768321e+01
6.360000000000000142e+01 6.154682418422704160e+01
6.400000000000000000e+01 6.133541005114891220e+01
6.440000000000000568e+01 6.113765558114217669e+01
6.480000000000001137e+01 6.092977301596489070e+01
6.520000000000000284e+01 6.072385890301455902e+01
6.559999999999999432e+01 6.051988216035936574e+01
6.600000000000000000e+01 6.031781239248992676e+01
6.640000000000000568e+01 6.011761987083961856e+01
6.680000000000001137e+01 6.006699452963601971e+01
6.720000000000000284e+01 5.988253961622700672e+01
6.759999999999999432e+01 5.969973516115004486e+01
6.800000000000000000e+01 5.951855624801262934e+01
6.840000000000000568e+01 5.933897849036765137e+01
6.880000000000001137e+01 5.916097801716632887e+01
6.920000000000000284e+01 5.898453145869987679e+01
6.959999999999999432e+01 5.880961593301071844e+01
7.000000000000000000e+01 5.863678290656508807e+01
7.040000000000000568e+01 5.846572847059672284e+01
7.080000000000001137e+01 5.829613147238890747e+01
7.120000000000000284e+01 5.812797110040672521e+01
7.159999999999999432e+01 5.796105787753879923e+01
7.200000000000000000e+01 5.779504441037842355e+01
7.240000000000000568e+01 5.763041368002349429e+01
7.280000000000001137e+01 5.746714640378231564e+01
7.320000000000000284e+01 5.730522367757260582e+01
7.359999999999999432e+01 5.714462696631274241e+01
7.400000000000000000e+01 5.698533809461196853e+01
7.440000000000000568e+01 5.682733923774907936e+01
7.479999999999999716e+01 5.667061291292814929e+01
7.520000000000000284e+01 5.651535248155387592e+01
7.560000000000000853e+01 5.636141503734749847e+01
7.600000000000000000e+01 5.620869372367020844e+01
7.640000000000000568e+01 5.605717247708000883e+01
7.679999999999999716e+01 5.590683553253956006e+01
7.720000000000000284e+01 5.575766741625534451e+01
7.760000000000000853e+01 5.560822520766502919e+01
7.800000000000000000e+01 5.545956574962931995e+01
7.840000000000000568e+01 5.531208872490028483e+01
7.879999999999999716e+01 5.516577822249183782e+01
7.920000000000000284e+01 5.502061863243261541e+01
7.960000000000000853e+01 5.485479729221911782e+01
8.000000000000000000e+01 5.471119561718129631e+01
8.040000000000000568e+01 5.456870827152418002e+01
8.079999999999999716e+01 5.442732058204805412e+01
8.120000000000000284e+01 5.428701814762230526e+01
8.160000000000000853e+01 5.414778683270508708e+01
8.200000000000000000e+01 5.400961276105073949e+01
8.240000000000000568e+01 5.387248230959887252e+01
8.279999999999999716e+01 5.373638210253878356e+01
8.320000000000000284e+01 5.360129900554326809e+01
8.360000000000000853e+01 5.346722012016628867e+01
8.400000000000000000e+01 5.333413277839883904e+01
8.440000000000000568e+01 5.320202453737785930e+01
8.479999999999999716e+01 5.307088317424322810e+01
8.520000000000000284e+01 5.294069668113770888e+01
8.560000000000000853e+01 5.281145326034540233e+01
8.600000000000000000e+01 5.268314131956407209e+01
8.640000000000000568e+01 5.255574946730710906e+01
8.680000000000001137e+01 5.242926650843081404e+01
8.720000000000000284e+01 5.229086844832044534e+01
8.760000000000000853e+01 5.217590090872759134e+01
8.800000000000000000e+01 5.205466859572800331e+01
8.840000000000000568e+01 5.193428035653187180e+01
8.880000000000001137e+01 5.181472624336718980e+01
8.920000000000000284e+01 5.169599647320349334e+01
8.960000000000000853e+01 5.157797647272157349e+01
9.000000000000000000e+01 5.146072457928138988e+01
9.040000000000000568e+01 5.134426512603331361e+01
9.080000000000001137e+01 5.122858899986852066e+01
9.120000000000000284e+01 5.111368723494490496e+01
9.160000000000000853e+01 5.099955100963703103e+01
9.200000000000000000e+01 5.088617164356318057e+01
9.240000000000000568e+01 5.077354059468667913e+01
9.280000000000001137e+01 5.066164945648966267e+01
9.320000000000000284e+01 5.055048995521702437e+01
9.360000000000000853e+01 5.044005394718838886e+01
9.400000000000000000e+01 5.033033341617644396e+01
9.440000000000000568e+01 5.022132047084932083e+01
9.480000000000001137e+01 5.011300734227555154e+01
9.520000000000000284e+01 5.000538638148951520e+01
9.560000000000000853e+01 4.989845005711585202e+01
9.600000000000000000e+01 4.979219095305096232e+01
9.640000000000000568e+01 4.968660176620026192e+01
9.680000000000001137e+01 4.958167530426932501e+01
9.720000000000000284e+01 4.947740448360760723e+01
9.760000000000000853e+01 4.937378232710311465e+01
9.800000000000000000e+01 4.926999350843298942e+01
9.840000000000000568e+01 4.916671908979071759e+01
9.880000000000001137e+01 4.906406566042522854e+01
9.920000000000000284e+01 4.896202693059787947e+01
9.960000000000000853e+01 4.886045206701774646e+01
1.000000000000000000e+02 4.875944879637466300e+01
1.004000000000000057e+02 4.865904293979436090e+01
1.008000000000000114e+02 4.856429968320635737e+01
1.012000000000000028e+02 4.846534639767143204e+01
1.016000000000000085e+02 4.836697206899096102e+01
1.020000000000000000e+02 4.826917099318322357e+01
1.024000000000000057e+02 4.817193754522056537e+01
1.028000000000000114e+02 4.807526617762034959e+01
1.032000000000000028e+02 4.797915141906671721e+01
1.036000000000000085e+02 4.788353442393751180e+01
1.040000000000000000e+02 4.778800045353648329e+01
1.044000000000000057e+02 4.769301155488302868e+01
1.048000000000000114e+02 4.759856249346136536e+01
1.052000000000000028e+02 4.750464810535480353e+01
1.056000000000000085e+02 4.741126329601870282e+01
1.060000000000000000e+02 4.731840303907934242e+01
1.064000000000000057e+02 4.722606237515822158e+01
1.068000000000000114e+02 4.713423641072138537e+01
1.072000000000000028e+02 4.704292031695285203e+01
1.076000000000000085e+02 4.695210932865153097e+01
1.080000000000000000e+02 4.686179874315141092e+01
1.084000000000000057e+02 4.677198391926393128e+01
1.088000000000000114e+02 4.668266027624247982e+01
1.092000000000000028e+02 4.659382329276811419e+01
1.096000000000000085e+02 4.650546850595613080e+01
1.100000000000000000e+02 4.641759151038306896e+01
1.104000000000000057e+02 4.633018795713341120e+01
1.108000000000000114e+02 4.624325355286579509e+01
1.112000000000000028e+02 4.617009318832389653e+01
1.116000000000000085e+02 4.608593901770220924e+01
1.120000000000000000e+02 4.600223044737553835e+01
1.124000000000000057e+02 4.591898172881428764e+01
1.128000000000000114e+02 4.583618869342944890e+01
1.132000000000000028e+02 4.575475493370583280e+01
1.136000000000000085e+02 4.567312845054684800e+01
1.140000000000000000e+02 4.559192870070856429e+01
1.144000000000000057e+02 4.551115193027398220e+01
1.148000000000000114e+02 4.543079443181490973e+01
1.152000000000000028e+02 4.535085254364811647e+01
1.156000000000000085e+02 4.527132264910619597e+01
1.160000000000000000e+02 4.519220117582260343e+01
1.164000000000000057e+02 4.511348459503059161e+01
1.168000000000000114e+02 4.503516942087593833e+01
1.172000000000000028e+02 4.495725220974276937e+01
1.176000000000000085e+02 4.487972955959239840e+01
1.180000000000000000e+02 4.480259810931502784e+01
1.184000000000000057e+02 4.472585453809365674e+01
1.188000000000000114e+02 4.464949556478018167e+01
1.192000000000000028e+02 4.457351794728344885e+01
1.196000000000000085e+02 4.449791848196868926e+01
1.200000000000000000e+02 4.442269400306847160e+01
1.204000000000000057e+02 4.434784138210456916e+01
1.208000000000000114e+02 4.427335752732081886e+01
1.212000000000000028e+02 4.419923938312637546e+01
1.216000000000000085e+02 4.412548392954947474e+01
1.220000000000000000e+02 4.405208818170125085e+01
1.224000000000000057e+02 4.397904918924938755e+01
1.228000000000000114e+02 4.392013883990851042e+01
1.232000000000000028e+02 4.384832792951579705e+01
1.236000000000000085e+02 4.377686141447559010e+01
1.240000000000000000e+02 4.370573651544748373e+01
1.244000000000000057e+02 4.361352334693029320e+01
1.248000000000000114e+02 4.354314617758575423e+01
1.252000000000000028e+02 4.347310613838850202e+01
1.256000000000000085e+02 4.340340049403589973e+01
1.260000000000000000e+02 4.333402654053676883e+01
1.264000000000000057e+02 4.326498160474963584e+01
1.268000000000000114e+02 4.319626304392924254e+01
1.272000000000000028e+02 4.312775070959320800e+01
1.276000000000000085e+02 4.305955725940434320e+01
1.280000000000000000e+02 4.299168322738575654e+01
1.284000000000000057e+02 4.292412608019272824e+01
1.288000000000000114e+02 4.285688331283208186e+01
1.291999999999999886e+02 4.278995244825318878e+01
1.296000000000000227e+02 4.272333103694641920e+01
1.300000000000000000e+02 4.265701665654842145e+01
1.304000000000000057e+02 4.259100691145447115e+01
1.308000000000000114e+02 4.252529943243747823e+01
1.311999999999999886e+02 4.245989187627365169e+01
1.316000000000000227e+02 4.239478192537468715e+01
1.320000000000000000e+02 4.232996728742627823e+01
1.324000000000000057e+02 4.226544569503279547e+01
1.328000000000000114e+02 4.220121490536818953e+01
1.331999999999999886e+02 4.213727269983282042e+01
1.336000000000000227e+02 4.207361688371601360e+01
1.340000000000000000e+02 4.201024528586462026e+01
1.344000000000000057e+02 4.194715575835691368e+01
1.348000000000000114e+02 4.188434617618221978e+01
1.351999999999999886e+02 4.182181443692579137e+01
1.356000000000000227e+02 4.175955846045907549e+01
1.360000000000000000e+02 4.169757618863518900e+01
1.364000000000000057e+02 4.163546356672536319e+01
1.368000000000000114e+02 4.157340804952951885e+01
1.371999999999999886e+02 4.151232252298094494e+01
1.376000000000000227e+02 4.145149944378011497e+01
1.380000000000000000e+02 4.139093689441132540e+01
1.384000000000000057e+02 4.133063297712876505e+01
1.388000000000000114e+02 4.127058581369404067e+01
1.392000000000000171e+02 4.121079354511810067e+01
1.395999999999999943e+02 4.115125433140701716e+01
1.400000000000000000e+02 4.109196635131218756e+01
1.404000000000000057e+02 4.103292780208435175e+01
1.408000000000000114e+02 4.097413689923173763e+01
1.412000000000000171e+02 4.091559187628177341e+01
1.415999999999999943e+02 4.085720955537620114e+01
1.420000000000000000e+02 4.079902405067044668e+01
1.424000000000000057e+02 4.074230106153864028e+01
1.428000000000000114e+02 4.068477756420598013e+01
1.432000000000000171e+02 4.062749103783569637e+01
1.435999999999999943e+02 4.057043982246921132e+01
1.440000000000000000e+02 4.051362227456189657e+01
1.444000000000000057e+02 4.045703676677393190e+01
1.448000000000000114e+02 4.040068168776463153e+01
1.452000000000000171e+02 4.034455544198971211e+01
1.455999999999999943e+02 4.028865644950189306e+01
1.460000000000000000e+02 4.023298314575458079e+01
1.464000000000000057e+02 4.017753398140823862e+01
1.468000000000000114e+02 4.012230742214028112e+01
1.472000000000000171e+02 4.006730194845734871e+01
1.475999999999999943e+02 4.001251605551077262e+01
1.480000000000000000e+02 3.995794825291466168e+01
1.484000000000000057e+02 3.990359706456688826e+01
1.488000000000000114e+02 3.984946102847268889e+01
1.492000000000000171e+02 3.979553869657090814e+01
1.495999999999999943e+02 3.974148769033449469e+01
1.500000000000000000e+02 3.971439609228374934e+01
