1.000000000000000000e+01 8.343841570926393842e+02
1.040000000000000036e+01 1.049673243120170582e+03
1.080000000000000071e+01 1.213028489056110402e+03
1.119999999999999929e+01 1.280056516509903759e+03
1.159999999999999964e+01 1.290345247979341366e+03
1.200000000000000000e+01 1.317542572290480166e+03
1.240000000000000036e+01 1.329920750029498777e+03
1.280000000000000071e+01 1.329096374886697731e+03
1.319999999999999929e+01 1.317523584566027239e+03
1.359999999999999964e+01 1.298890210296578744e+03
1.400000000000000000e+01 1.284647288963431720e+03
1.440000000000000036e+01 1.270477486009551285e+03
1.480000000000000071e+01 1.248631068379087992e+03
1.519999999999999929e+01 1.228046429658470288e+03
1.560000000000000142e+01 1.208600912835111558e+03
1.600000000000000000e+01 1.190188430767542741e+03
1.639999999999999858e+01 1.172716622969635637e+03
1.680000000000000071e+01 1.156104600450222961e+03
1.719999999999999929e+01 1.140281136983483520e+03
1.760000000000000142e+01 1.125183203929349702e+03
1.800000000000000000e+01 1.110754772652912379e+03
1.839999999999999858e+01 1.096945827662920692e+03
1.880000000000000071e+01 1.083711547321133821e+03
1.920000000000000284e+01 1.071011619009250580e+03
1.960000000000000142e+01 1.058809663072315971e+03
2.000000000000000000e+01 1.047072745429087718e+03
2.039999999999999858e+01 1.035770962963064676e+03
2.080000000000000071e+01 1.024877089041627642e+03
2.120000000000000284e+01 1.014366269010032170e+03
2.160000000000000142e+01 1.004215757455367680e+03
2.200000000000000000e+01 9.944046905666864404e+02
2.239999999999999858e+01 9.849138881296620411e+02
2.280000000000000071e+01 9.757256806604975736e+02
2.320000000000000284e+01 9.668237579592409929e+02
2.360000000000000142e+01 9.581930359887155646e+02
2.400000000000000000e+01 9.498195394936293496e+02
2.439999999999999858e+01 9.416902981894590994e+02
2.480000000000000071e+01 9.337932546912979888e+02
2.520000000000000284e+01 9.261171826337168795e+02
2.560000000000000142e+01 9.186516136653397098e+02
2.600000000000000000e+01 9.113867721954559329e+02
2.640000000000000213e+01 9.043135169317262125e+02
2.680000000000000071e+01 8.974232883837403278e+02
2.719999999999999929e+01 8.907080616214412885e+02
2.760000000000000142e+01 8.841603036739838899e+02
2.800000000000000000e+01 8.777729350364909351e+02
2.840000000000000213e+01 8.715392948218249103e+02
2.880000000000000071e+01 8.654531091539799945e+02
2.920000000000000284e+01 8.595084624505959709e+02
2.960000000000000142e+01 8.536997712858233172e+02
3.000000000000000000e+01 8.480217605624159205e+02
3.040000000000000213e+01 8.424694417544226326e+02
3.080000000000000071e+01 8.370380930099998977e+02
3.120000000000000284e+01 8.317232409282793242e+02
3.160000000000000142e+01 8.265206438454724776e+02
3.200000000000000000e+01 8.214262764839240845e+02
3.240000000000000568e+01 8.164363158340124755e+02
3.279999999999999716e+01 8.115471281529818270e+02
3.320000000000000284e+01 8.067552569772396964e+02
3.360000000000000142e+01 8.020574120556000253e+02
3.400000000000000000e+01 7.974504591206040232e+02
3.440000000000000568e+01 7.929314104235741070e+02
3.479999999999999716e+01 7.884974159665871412e+02
3.520000000000000284e+01 7.841457553712417621e+02
3.560000000000000142e+01 7.798738303300170855e+02
3.600000000000000000e+01 7.756791575913030101e+02
3.640000000000000568e+01 7.715593624338703194e+02
3.679999999999999716e+01 7.675121725907511063e+02
3.720000000000000284e+01 7.635354125862321553e+02
3.760000000000000142e+01 7.596269984530347301e+02
3.800000000000000000e+01 7.557849327997366800e+02
3.840000000000000568e+01 7.520073002012056804e+02
3.879999999999999716e+01 7.482922628872319137e+02
3.920000000000000284e+01 7.446380567067224092e+02
3.960000000000000142e+01 7.410429873467987818e+02
4.000000000000000000e+01 7.375054267878992960e+02
4.040000000000000568e+01 7.340238099776024683e+02
4.079999999999999716e+01 7.305966317073281289e+02
4.120000000000000284e+01 7.272224436773948355e+02
4.160000000000000142e+01 7.238998517370944228e+02
4.200000000000000000e+01 7.206275132875355212e+02
4.239999999999999858e+01 7.174041348359788799e+02
4.280000000000000426e+01 7.142284696912932986e+02
4.320000000000000284e+01 7.110993157909654201e+02
4.360000000000000142e+01 7.080155136508460600e+02
4.400000000000000000e+01 7.049759444294861623e+02
4.439999999999999858e+01 7.019795280995454050e+02
4.480000000000000426e+01 6.990252217193074102e+02
4.520000000000000284e+01 6.961120177978700667e+02
4.560000000000000142e+01 6.932389427480397899e+02
4.600000000000000000e+01 6.904050554214059048e+02
4.639999999999999858e+01 6.876094457204596893e+02
4.680000000000000426e+01 6.848512332830009655e+02
4.720000000000000284e+01 6.821295662344039101e+02
4.760000000000000142e+01 6.794436200036266200e+02
4.800000000000000000e+01 6.767925961991401209e+02
4.840000000000000568e+01 6.741757215412076221e+02
4.880000000000000426e+01 6.715922468471959519e+02
4.920000000000000284e+01 6.690414460668188212e+02
4.960000000000000142e+01 6.665226153644257465e+02
5.000000000000000000e+01 6.640350722456370249e+02
5.040000000000000568e+01 6.615781547258051205e+02
5.080000000000000426e+01 6.591512205379453917e+02
5.120000000000000284e+01 6.567536463779342739e+02
5.160000000000000142e+01 6.543848271849104776e+02
5.200000000000000000e+01 6.520441754549511870e+02
5.240000000000000568e+01 6.497311205862075667e+02
5.280000000000000426e+01 6.474451082538081437e+02
5.320000000000000284e+01 6.451855998129360614e+02
5.360000000000000142e+01 6.429520717285842011e+02
5.400000000000000000e+01 6.407440150305892530e+02
5.440000000000000568e+01 6.385609347926219925e+02
5.480000000000000426e+01 6.364023496338958239e+02
5.520000000000000284e+01 6.342677912424297801e+02
5.560000000000000142e+01 6.321568039187648083e+02
5.600000000000000000e+01 6.300689441391018590e+02
5.640000000000000568e+01 6.280037801368927148e+02
5.680000000000000426e+01 6.259608915019578035e+02
5.720000000000000284e+01 6.239398687962742542e+02
5.760000000000000142e+01 6.219403131856141727e+02
5.800000000000000000e+01 6.199618360862637019e+02
5.840000000000000568e+01 6.180040588260976619e+02
5.880000000000000426e+01 6.160666123193200292e+02
5.920000000000000284e+01 6.141491367542238322e+02
5.960000000000000142e+01 6.122512812933562145e+02
6.000000000000000000e+01 6.103727037855064737e+02
6.040000000000000568e+01 6.085130704889709250e+02
6.080000000000000426e+01 6.066720558055724268e+02
6.120000000000000284e+01 6.048493420249428709e+02
6.160000000000000142e+01 6.030446190786024090e+02
6.200000000000000000e+01 6.012575843033932870e+02
6.240000000000000568e+01 5.994879422138483278e+02
6.280000000000000426e+01 5.977354042830983190e+02
6.320000000000000284e+01 5.959996887319384768e+02
6.360000000000000142e+01 5.942805203256982622e+02
6.400000000000000000e+01 5.925776301785734859e+02
6.440000000000000568e+01 5.908907555650966970e+02
6.480000000000001137e+01 5.892196397384411739e+02
6.520000000000000284e+01 5.875640317552656597e+02
6.559999999999999432e+01 5.859236863068206276e+02
6.600000000000000000e+01 5.842983635560549374e+02
6.640000000000000568e+01 5.826878289804718634e+02
6.680000000000001137e+01 5.810918532204909752e+02
6.720000000000000284e+01 5.795102119330942969e+02
6.759999999999999432e+01 5.779426856505364185e+02
6.800000000000000000e+01 5.763890596439114233e+02
6.840000000000000568e+01 5.748491237913826808e+02
6.880000000000001137e+01 5.733226724508849657e+02
6.920000000000000284e+01 5.718095043371217798e+02
6.959999999999999432e+01 5.703094224026854135e+02
7.000000000000000000e+01 5.688222337231384245e+02
7.040000000000000568e+01 5.673477493859002152e+02
7.080000000000001137e+01 5.658857843827896659e+02
7.120000000000000284e+01 5.644361575060834184e+02
7.159999999999999432e+01 5.629986912479514558e+02
7.200000000000000000e+01 5.615732117031446933e+02
7.240000000000000568e+01 5.601595484748073659e+02
7.280000000000001137e+01 5.587575345832956373e+02
7.320000000000000284e+01 5.573670063778922668e+02
7.359999999999999432e+01 5.559878034513064904e+02
7.400000000000000000e+01 5.546197685568548650e+02
7.440000000000000568e+01 5.532627475282281466e+02
7.479999999999999716e+01 5.519165892017422266e+02
7.520000000000000284e+01 5.505811453409887690e+02
7.560000000000000853e+01 5.492562705637956242e+02
7.600000000000000000e+01 5.479418222714108424e+02
7.640000000000000568e+01 5.466376605798371884e+02
7.679999999999999716e+01 5.453436482532326863e+02
7.720000000000000284e+01 5.440596506393081881e+02
7.760000000000000853e+01 5.427855356066512513e+02
7.800000000000000000e+01 5.415211734839062956e+02
7.840000000000000568e+01 5.402664370007494199e+02
7.879999999999999716e+01 5.390212012305916005e+02
7.920000000000000284e+01 5.377853435349526308e+02
7.960000000000000853e+01 5.365587435094507782e+02
8.000000000000000000e+01 5.353412829313471093e+02
8.040000000000000568e+01 5.341328457085963919e+02
8.079999999999999716e+01 5.329333178303520526e+02
8.120000000000000284e+01 5.317425873188751666e+02
8.160000000000000853e+01 5.305605441828024595e+02
8.200000000000000000e+01 5.293870803717270519e+02
8.240000000000000568e+01 5.282220897320465838e+02
8.279999999999999716e+01 5.270654679640414315e+02
8.320000000000000284e+01 5.259171125801376547e+02
8.360000000000000853e+01 5.247769228643201131e+02
8.400000000000000000e+01 5.236447998326551669e+02
8.440000000000000568e+01 5.225206461948895367e+02
8.479999999999999716e+01 5.214043663170893979e+02
8.520000000000000284e+01 5.202958661852868545e+02
8.560000000000000853e+01 5.191950533701016184e+02
8.600000000000000000e+01 5.181018369923076534e+02
8.640000000000000568e+01 5.170161276893131799e+02
8.680000000000001137e+01 5.159378375825278908e+02
8.720000000000000284e+01 5.148668802455888454e+02
8.760000000000000853e+01 5.138031706734162753e+02
8.800000000000000000e+01 5.127466252520764556e+02
8.840000000000000568e+01 5.116971617294267958e+02
8.880000000000001137e+01 5.106546991865161544e+02
8.920000000000000284e+01 5.096191580097207634e+02
8.960000000000000853e+01 5.085904598635922866e+02
9.000000000000000000e+01 5.075685276643951056e+02
9.040000000000000568e+01 5.065532855543155506e+02
9.080000000000001137e+01 5.055446588763180102e+02
9.120000000000000284e+01 5.045425741496346745e+02
9.160000000000000853e+01 5.035469590458642415e+02
9.200000000000000000e+01 5.025577423656667406e+02
9.240000000000000568e+01 5.015748540160327025e+02
9.280000000000001137e+01 5.005982249881133157e+02
9.320000000000000284e+01 4.996277873355931547e+02
9.360000000000000853e+01 4.986634741535905277e+02
9.400000000000000000e+01 4.977052195580704392e+02
9.440000000000000568e+01 4.967529586657548180e+02
9.480000000000001137e+01 4.958066275745165399e+02
9.520000000000000284e+01 4.948661633442429775e+02
9.560000000000000853e+01 4.939315039781560017e+02
9.600000000000000000e+01 4.930025884045760449e+02
9.640000000000000568e+01 4.920793564591160703e+02
9.680000000000001137e+01 4.911617488672960690e+02
9.720000000000000284e+01 4.902497072275642722e+02
9.760000000000000853e+01 4.893431739947145047e+02
9.800000000000000000e+01 4.884420924636895620e+02
9.840000000000000568e+01 4.875464067537573101e+02
9.880000000000001137e+01 4.866560617930543344e+02
9.920000000000000284e+01 4.857710033034808248e+02
9.960000000000000853e+01 4.848911777859436256e+02
1.000000000000000000e+02 4.840165325059315933e+02
1.004000000000000057e+02 4.831470154794204745e+02
1.008000000000000114e+02 4.822825754590940051e+02
1.012000000000000028e+02 4.814231619208750317e+02
1.016000000000000085e+02 4.805687250507575641e+02
1.020000000000000000e+02 4.797192157319321382e+02
1.024000000000000057e+02 4.788745855321973863e+02
1.028000000000000114e+02 4.780347866916482076e+02
1.032000000000000028e+02 4.771997721106364452e+02
1.036000000000000085e+02 4.763694953379940671e+02
1.040000000000000000e+02 4.755439105595140745e+02
1.044000000000000057e+02 4.747229725866807257e+02
1.048000000000000114e+02 4.739066368456454370e+02
1.052000000000000028e+02 4.730948593664384703e+02
1.056000000000000085e+02 4.722875967724133375e+02
1.060000000000000000e+02 4.714848062699162483e+02
1.064000000000000057e+02 4.706864456381767923e+02
1.068000000000000114e+02 4.698924732194113858e+02
1.072000000000000028e+02 4.691028479091372674e+02
1.076000000000000085e+02 4.683175291466899921e+02
1.080000000000000000e+02 4.675364769059397076e+02
1.084000000000000057e+02 4.667596516862003000e+02
1.088000000000000114e+02 4.659870145033301014e+02
1.092000000000000028e+02 4.652185268810151229e+02
1.096000000000000085e+02 4.644541508422321385e+02
1.100000000000000000e+02 4.636938489008885540e+02
1.104000000000000057e+02 4.629375840536329179e+02
1.108000000000000114e+02 4.621853197718324964e+02
1.112000000000000028e+02 4.614370199937143866e+02
1.116000000000000085e+02 4.606926491166652227e+02
1.120000000000000000e+02 4.599521719896868035e+02
1.124000000000000057e+02 4.592155539060030947e+02
1.128000000000000114e+02 4.584827605958158756e+02
1.132000000000000028e+02 4.577537582192040873e+02
1.136000000000000085e+02 4.570285133591648901e+02
1.140000000000000000e+02 4.563069930147927948e+02
1.144000000000000057e+02 4.555891645945926030e+02
1.148000000000000114e+02 4.548749959099252465e+02
1.152000000000000028e+02 4.541644551685798206e+02
1.156000000000000085e+02 4.534575109684739118e+02
1.160000000000000000e+02 4.527541322914742068e+02
1.164000000000000057e+02 4.520542884973376090e+02
1.168000000000000114e+02 4.513579493177696804e+02
1.172000000000000028e+02 4.506650848505971112e+02
1.176000000000000085e+02 4.499756655540517158e+02
1.180000000000000000e+02 4.492896622411646490e+02
1.184000000000000057e+02 4.486070460742654404e+02
1.188000000000000114e+02 4.479277885595874977e+02
1.192000000000000028e+02 4.472518615419743355e+02
1.196000000000000085e+02 4.465792371996855650e+02
1.200000000000000000e+02 4.459098880393009949e+02
1.204000000000000057e+02 4.452437868907195480e+02
1.208000000000000114e+02 4.445809069022517406e+02
1.212000000000000028e+02 4.439212215358029425e+02
1.216000000000000085e+02 4.432647045621462780e+02
1.220000000000000000e+02 4.426113300562822133e+02
1.224000000000000057e+02 4.419610723928843186e+02
1.228000000000000114e+02 4.413139062418272829e+02
1.232000000000000028e+02 4.406698065637979198e+02
1.236000000000000085e+02 4.400287486059845605e+02
1.240000000000000000e+02 4.393907078978465961e+02
1.244000000000000057e+02 4.387556602469582572e+02
1.248000000000000114e+02 4.381235817349289619e+02
1.252000000000000028e+02 4.374944487133967641e+02
1.256000000000000085e+02 4.368682378000921744e+02
1.260000000000000000e+02 4.362449258749738874e+02
1.264000000000000057e+02 4.356244900764320960e+02
1.268000000000000114e+02 4.350069077975596201e+02
1.272000000000000028e+02 4.343921566824889169e+02
1.276000000000000085e+02 4.337802146227928120e+02
1.280000000000000000e+02 4.331710597539496916e+02
1.284000000000000057e+02 4.325646704518693468e+02
1.288000000000000114e+02 4.319610253294800373e+02
1.291999999999999886e+02 4.313601032333747298e+02
1.296000000000000227e+02 4.307618832405149760e+02
1.300000000000000000e+02 4.301663446549928267e+02
1.304000000000000057e+02 4.295734670048469184e+02
1.308000000000000114e+02 4.289832300389349484e+02
1.311999999999999886e+02 4.283956137238579345e+02
1.316000000000000227e+02 4.278105982409380772e+02
1.320000000000000000e+02 4.272281639832473275e+02
1.324000000000000057e+02 4.266482915526869419e+02
1.328000000000000114e+02 4.260709617571155263e+02
1.331999999999999886e+02 4.254961556075263616e+02
1.336000000000000227e+02 4.249238543152708871e+02
1.340000000000000000e+02 4.243540392893303306e+02
1.344000000000000057e+02 4.237866921336308792e+02
1.348000000000000114e+02 4.232217946444052359e+02
1.351999999999999886e+02 4.226593288075963528e+02
1.356000000000000227e+02 4.220992767963059009e+02
1.360000000000000000e+02 4.215416209682828139e+02
1.364000000000000057e+02 4.209863438634542945e+02
1.368000000000000114e+02 4.204334282014970654e+02
1.371999999999999886e+02 4.198828568794482408e+02
1.376000000000000227e+02 4.193346129693544526e+02
1.380000000000000000e+02 4.187886797159603134e+02
1.384000000000000057e+02 4.182450405344327464e+02
1.388000000000000114e+02 4.177036790081242543e+02
1.392000000000000171e+02 4.171645788863692133e+02
1.395999999999999943e+02 4.166277240823183661e+02
1.400000000000000000e+02 4.160930986708054320e+02
1.404000000000000057e+02 4.155606868862499823e+02
1.408000000000000114e+02 4.150304731205922053e+02
1.412000000000000171e+02 4.145024419212600151e+02
1.415999999999999943e+02 4.139765779891707211e+02
1.420000000000000000e+02 4.134528661767600966e+02
1.424000000000000057e+02 4.129312914860471437e+02
1.428000000000000114e+02 4.124118390667250651e+02
1.432000000000000171e+02 4.118944942142848049e+02
1.435999999999999943e+02 4.113792423681659898e+02
1.440000000000000000e+02 4.108660691099378255e+02
1.444000000000000057e+02 4.103549601615074494e+02
1.448000000000000114e+02 4.098459013833563631e+02
1.452000000000000171e+02 4.093388787728035823e+02
1.455999999999999943e+02 4.088338784622957292e+02
1.460000000000000000e+02 4.083308867177230468e+02
1.464000000000000057e+02 4.078298899367615604e+02
1.468000000000000114e+02 4.073308746472400230e+02
1.472000000000000171e+02 4.068338275055318718e+02
1.475999999999999943e+02 4.063387352949714000e+02
1.480000000000000000e+02 4.058455849242935756e+02
1.484000000000000057e+02 4.053543634260981321e+02
1.488000000000000114e+02 4.048650579553359989e+02
1.492000000000000171e+02 4.043776557878183553e+02
1.495999999999999943e+02 4.038921443187482510e+02
1.500000000000000000e+02 4.034085110612742824e+02
