1.000000000000000000e+01 7.202908425553479788e+01
1.040000000000000036e+01 7.034114680993182844e+01
1.080000000000000071e+01 6.935428320855149309e+01
1.119999999999999929e+01 6.901931048452644291e+01
1.159999999999999964e+01 6.962974231083776999e+01
1.200000000000000000e+01 6.754541343657722052e+01
1.240000000000000036e+01 6.563999769742811452e+01
1.280000000000000071e+01 6.385886729510409765e+01
1.319999999999999929e+01 6.223573716320385785e+01
1.359999999999999964e+01 6.074755365240953608e+01
1.400000000000000000e+01 5.937589510033717488e+01
1.440000000000000036e+01 5.810579979555771502e+01
1.480000000000000071e+01 5.692494737478790512e+01
1.519999999999999929e+01 5.582307131660803634e+01
1.560000000000000142e+01 5.479152750355304136e+01
1.600000000000000000e+01 5.382297110261360729e+01
1.639999999999999858e+01 5.291111040536388543e+01
1.680000000000000071e+01 5.205051647034214568e+01
1.719999999999999929e+01 5.123647395449087583e+01
1.760000000000000142e+01 5.156080455292244835e+01
1.800000000000000000e+01 5.085989146577728093e+01
1.839999999999999858e+01 5.019374899362622244e+01
1.880000000000000071e+01 4.631170010636795809e+01
1.920000000000000284e+01 4.556353786582671717e+01
1.960000000000000142e+01 4.485074741052063274e+01
2.000000000000000000e+01 4.417057954380032925e+01
2.039999999999999858e+01 4.352057833937571019e+01
2.080000000000000071e+01 4.289854179408082757e+01
2.120000000000000284e+01 4.230248878732911066e+01
2.160000000000000142e+01 4.173063117986819748e+01
2.200000000000000000e+01 4.118135012808326678e+01
2.239999999999999858e+01 4.065601935143895673e+01
2.280000000000000071e+01 4.015258714520236083e+01
2.320000000000000284e+01 3.966722663254986969e+01
2.360000000000000142e+01 3.919886041267905341e+01
2.400000000000000000e+01 3.874650002951726435e+01
2.439999999999999858e+01 3.830923666861789911e+01
2.480000000000000071e+01 3.788623302389484593e+01
2.520000000000000284e+01 3.747671616334223188e+01
2.560000000000000142e+01 3.708197500546862102e+01
2.600000000000000000e+01 3.670262033127660573e+01
2.640000000000000213e+01 3.633413189019431400e+01
2.680000000000000071e+01 3.597599246189938071e+01
2.719999999999999929e+01 3.562771904077023066e+01
2.760000000000000142e+01 3.528885995676206022e+01
2.800000000000000000e+01 3.495899228873898323e+01
2.840000000000000213e+01 3.463771953561833783e+01
2.880000000000000071e+01 3.432466951535447208e+01
2.920000000000000284e+01 3.386159823592295481e+01
2.960000000000000142e+01 3.357256701336179816e+01
3.000000000000000000e+01 3.329054809454969188e+01
3.040000000000000213e+01 3.301525878679426285e+01
3.080000000000000071e+01 3.274643224043349932e+01
3.120000000000000284e+01 3.248381631833553485e+01
3.160000000000000142e+01 3.222717256290674470e+01
3.200000000000000000e+01 3.197627525078418387e+01
3.240000000000000568e+01 3.173091052651702171e+01
3.279999999999999716e+01 3.149087560752497694e+01
3.320000000000000284e+01 3.125597805348009928e+01
3.360000000000000142e+01 3.102603509401052762e+01
3.400000000000000000e+01 3.080087300928341421e+01
3.440000000000000568e+01 3.058032655860423432e+01
3.479999999999999716e+01 3.036423845267987076e+01
3.520000000000000284e+01 2.982149465538287103e+01
3.560000000000000142e+01 2.963256257698323282e+01
3.600000000000000000e+01 2.944572676095185670e+01
3.640000000000000568e+01 2.925881059627612757e+01
3.679999999999999716e+01 2.907539249936630199e+01
3.720000000000000284e+01 2.889536361901521389e+01
3.760000000000000142e+01 2.871861981307932510e+01
3.800000000000000000e+01 2.854506138886747380e+01
3.840000000000000568e+01 2.837459286085346832e+01
3.879999999999999716e+01 2.820712272435962120e+01
3.920000000000000284e+01 2.804256324397969280e+01
3.960000000000000142e+01 2.788083025561791572e+01
4.000000000000000000e+01 2.772184298111854162e+01
4.040000000000000568e+01 2.756552385454868315e+01
4.079999999999999716e+01 2.741179835927682973e+01
4.120000000000000284e+01 2.726059487506169177e+01
4.160000000000000142e+01 2.711184453443107500e+01
4.200000000000000000e+01 2.696548108769000862e+01
4.239999999999999858e+01 2.682144077595078357e+01
4.280000000000000426e+01 2.667966221162672724e+01
4.320000000000000284e+01 2.654008626587560471e+01
4.360000000000000142e+01 2.640265596251933999e+01
4.400000000000000000e+01 2.626731637800336472e+01
4.439999999999999858e+01 2.613401454699288706e+01
4.480000000000000426e+01 2.608648206685688109e+01
4.520000000000000284e+01 2.595378464047288958e+01
4.560000000000000142e+01 2.582032621031445885e+01
4.600000000000000000e+01 2.568885265002850105e+01
4.639999999999999858e+01 2.555931476279458536e+01
4.680000000000000426e+01 2.543166505277886813e+01
4.720000000000000284e+01 2.530585764995993259e+01
4.760000000000000142e+01 2.518184823898674196e+01
4.800000000000000000e+01 2.505959399181537606e+01
4.840000000000000568e+01 2.493905350388880393e+01
4.880000000000000426e+01 2.482018673364143524e+01
4.920000000000000284e+01 2.470295494512490819e+01
4.960000000000000142e+01 2.458732065356633001e+01
5.000000000000000000e+01 2.447324757368317094e+01
5.040000000000000568e+01 2.436070057059080085e+01
5.080000000000000426e+01 2.424964561315033507e+01
5.120000000000000284e+01 2.414004972961408768e+01
5.160000000000000142e+01 2.403188096543622976e+01
5.200000000000000000e+01 2.392510834312408008e+01
5.240000000000000568e+01 2.381970182401470737e+01
5.280000000000000426e+01 2.371563227186801370e+01
5.320000000000000284e+01 2.361287141817523860e+01
5.360000000000000142e+01 2.351139182908782743e+01
5.400000000000000000e+01 2.341114086323064569e+01
5.440000000000000568e+01 2.331211521287914223e+01
5.480000000000000426e+01 2.321429223918386242e+01
5.520000000000000284e+01 2.311764758047524282e+01
5.560000000000000142e+01 2.302215756480970299e+01
5.600000000000000000e+01 2.292779918495678260e+01
5.640000000000000568e+01 2.283455007448939256e+01
5.680000000000000426e+01 2.274238848492009168e+01
5.720000000000000284e+01 2.265129326382945507e+01
5.760000000000000142e+01 2.256124383393609634e+01
5.800000000000000000e+01 2.247222017306059172e+01
5.840000000000000568e+01 2.256919277104842791e+01
5.880000000000000426e+01 2.248743612101040412e+01
5.920000000000000284e+01 2.240656099518881561e+01
5.960000000000000142e+01 2.232655148775096166e+01
6.000000000000000000e+01 2.224739209423356101e+01
6.040000000000000568e+01 2.216906769856414527e+01
6.080000000000000426e+01 2.209156356059311932e+01
6.120000000000000284e+01 2.201486530411283837e+01
6.160000000000000142e+01 2.193895890534137294e+01
6.200000000000000000e+01 2.186383068184970568e+01
6.240000000000000568e+01 2.178946728191240467e+01
6.280000000000000426e+01 2.171585567426255636e+01
6.320000000000000284e+01 2.164298313823299935e+01
6.360000000000000142e+01 2.157083725426679877e+01
6.400000000000000000e+01 2.149940589478052644e+01
6.440000000000000568e+01 2.144031661069402617e+01
6.480000000000001137e+01 2.136980225498551533e+01
6.520000000000000284e+01 2.129997953591503546e+01
6.559999999999999432e+01 2.123083709470517633e+01
6.600000000000000000e+01 2.116236383350864259e+01
6.640000000000000568e+01 2.109454890772705227e+01
6.680000000000001137e+01 2.102738171860496408e+01
6.720000000000000284e+01 2.096085190608745563e+01
6.759999999999999432e+01 2.089494934193016462e+01
6.800000000000000000e+01 2.082966412305142256e+01
6.840000000000000568e+01 2.076498656511641983e+01
6.880000000000001137e+01 2.070090719634378473e+01
6.920000000000000284e+01 2.063741675152572697e+01
6.959999999999999432e+01 2.057450616625279949e+01
7.000000000000000000e+01 2.051216657133532451e+01
7.040000000000000568e+01 2.045038928741340101e+01
7.080000000000001137e+01 2.038916581974807940e+01
7.120000000000000284e+01 2.032848785318656581e+01
7.159999999999999432e+01 2.026817816305236164e+01
7.200000000000000000e+01 2.020790137060979319e+01
7.240000000000000568e+01 2.014815223985379333e+01
7.280000000000001137e+01 2.008892304501982196e+01
7.320000000000000284e+01 2.003020621860777339e+01
7.359999999999999432e+01 1.997199434722555367e+01
7.400000000000000000e+01 1.991428016756550079e+01
7.440000000000000568e+01 1.985705656250870632e+01
7.479999999999999716e+01 1.980031655735244200e+01
7.520000000000000284e+01 1.974426382690768378e+01
7.560000000000000853e+01 1.968876558829421342e+01
7.600000000000000000e+01 1.963372492280408466e+01
7.640000000000000568e+01 1.957913552386527556e+01
7.679999999999999716e+01 1.952499120652727527e+01
7.720000000000000284e+01 1.947128590445333884e+01
7.760000000000000853e+01 1.941801366700339315e+01
7.800000000000000000e+01 1.936516865640424001e+01
7.840000000000000568e+01 1.931274514500407946e+01
7.879999999999999716e+01 1.926073751260835110e+01
7.920000000000000284e+01 1.920914024389404773e+01
7.960000000000000853e+01 1.915794792589987949e+01
8.000000000000000000e+01 1.910715524558949596e+01
8.040000000000000568e+01 1.905675698748541436e+01
8.079999999999999716e+01 1.900674803137119540e+01
8.120000000000000284e+01 1.895712335005950777e+01
8.160000000000000853e+01 1.890787800722391765e+01
8.200000000000000000e+01 1.885900715529221472e+01
8.240000000000000568e+01 1.881050603339923555e+01
8.279999999999999716e+01 1.876236996539724444e+01
8.320000000000000284e+01 1.871459435792188231e+01
8.360000000000000853e+01 1.866717469851194267e+01
8.400000000000000000e+01 1.862010655378116297e+01
8.440000000000000568e+01 1.857338556764031878e+01
8.479999999999999716e+01 1.852700745956807182e+01
8.520000000000000284e+01 1.848096802292893415e+01
8.560000000000000853e+01 1.843526312333679584e+01
8.600000000000000000e+01 1.838988869706268758e+01
8.640000000000000568e+01 1.834484074948527166e+01
8.680000000000001137e+01 1.830011535358272567e+01
8.720000000000000284e+01 1.824289565700225779e+01
8.760000000000000853e+01 1.819660386155997145e+01
8.800000000000000000e+01 1.815410049478953169e+01
8.840000000000000568e+01 1.811189496328050197e+01
8.880000000000001137e+01 1.806998376283908669e+01
8.920000000000000284e+01 1.802836344709526628e+01
8.960000000000000853e+01 1.798703062627688709e+01
9.000000000000000000e+01 1.794598196601546647e+01
9.040000000000000568e+01 1.790521418618276783e+01
9.080000000000001137e+01 1.786472405975712974e+01
9.120000000000000284e+01 1.782450841171873890e+01
9.160000000000000853e+01 1.778456411797290571e+01
9.200000000000000000e+01 1.774488810430058550e+01
9.240000000000000568e+01 1.770547734533523254e+01
9.280000000000001137e+01 1.766632886356530463e+01
9.320000000000000284e+01 1.762743972836157269e+01
9.360000000000000853e+01 1.758880705502861019e+01
9.400000000000000000e+01 1.755042800387963453e+01
9.440000000000000568e+01 1.751229977933412485e+01
9.480000000000001137e+01 1.747441962903748802e+01
9.520000000000000284e+01 1.743678484300219367e+01
9.560000000000000853e+01 1.739939275276968544e+01
9.600000000000000000e+01 1.736224073059258188e+01
9.640000000000000568e+01 1.732532618863643137e+01
9.680000000000001137e+01 1.728864657820071571e+01
9.720000000000000284e+01 1.725219938895822480e+01
9.760000000000000853e+01 1.721598214821263184e+01
9.800000000000000000e+01 1.717999242017348749e+01
9.840000000000000568e+01 1.714422780524828482e+01
9.880000000000001137e+01 1.710868593935115101e+01
9.920000000000000284e+01 1.707336449322757232e+01
9.960000000000000853e+01 1.703811653873422571e+01
1.000000000000000000e+02 1.700305365336934216e+01
1.004000000000000057e+02 1.696820545570347605e+01
1.008000000000000114e+02 1.693356974016989369e+01
1.012000000000000028e+02 1.689914433298778107e+01
1.016000000000000085e+02 1.686492709157344905e+01
1.020000000000000000e+02 1.683091590396482928e+01
1.024000000000000057e+02 1.679710868825893755e+01
1.028000000000000114e+02 1.676350339206191364e+01
1.032000000000000028e+02 1.673009799195144254e+01
1.036000000000000085e+02 1.669683704382611467e+01
1.040000000000000000e+02 1.666330916494269232e+01
1.044000000000000057e+02 1.662997971349358295e+01
1.048000000000000114e+02 1.659684672212705436e+01
1.052000000000000028e+02 1.656390825083644813e+01
1.056000000000000085e+02 1.653116238647186975e+01
1.060000000000000000e+02 1.649860724226254405e+01
1.064000000000000057e+02 1.646624095734950544e+01
1.068000000000000114e+02 1.643406169632840985e+01
1.072000000000000028e+02 1.640206764880215928e+01
1.076000000000000085e+02 1.637025702894316126e+01
1.080000000000000000e+02 1.633862807506488224e+01
1.084000000000000057e+02 1.630717904920257411e+01
1.088000000000000114e+02 1.627590823670281850e+01
1.092000000000000028e+02 1.624481394582182503e+01
1.096000000000000085e+02 1.621389450733207127e+01
1.100000000000000000e+02 1.618314827413726675e+01
1.104000000000000057e+02 1.615257362089529636e+01
1.108000000000000114e+02 1.612216894364904363e+01
1.112000000000000028e+02 1.609193265946483109e+01
1.116000000000000085e+02 1.606186320607831064e+01
1.120000000000000000e+02 1.603195904154766893e+01
1.124000000000000057e+02 1.600221864391389559e+01
1.128000000000000114e+02 1.597264051086801118e+01
1.132000000000000028e+02 1.594414607162396180e+01
1.136000000000000085e+02 1.591518573206268883e+01
1.140000000000000000e+02 1.588638132431505845e+01
1.144000000000000057e+02 1.585773144070973295e+01
1.148000000000000114e+02 1.582923469139750416e+01
1.152000000000000028e+02 1.580088970406139559e+01
1.156000000000000085e+02 1.577269512363239556e+01
1.160000000000000000e+02 1.574464961201099555e+01
1.164000000000000057e+02 1.571675184779397050e+01
1.168000000000000114e+02 1.568900052600677242e+01
1.172000000000000028e+02 1.566139435784099732e+01
1.176000000000000085e+02 1.563393207039698751e+01
1.180000000000000000e+02 1.560661240643153214e+01
1.184000000000000057e+02 1.557943412411032469e+01
1.188000000000000114e+02 1.555239599676530560e+01
1.192000000000000028e+02 1.552549681265654868e+01
1.196000000000000085e+02 1.549873537473883545e+01
1.200000000000000000e+02 1.547211050043261338e+01
1.204000000000000057e+02 1.544562102139929749e+01
1.208000000000000114e+02 1.541926578332087594e+01
1.212000000000000028e+02 1.539304364568365102e+01
1.216000000000000085e+02 1.536695348156604979e+01
1.220000000000000000e+02 1.534099417743044391e+01
1.224000000000000057e+02 1.531516463291880470e+01
1.228000000000000114e+02 1.530323856465922816e+01
1.232000000000000028e+02 1.527818857665149466e+01
1.236000000000000085e+02 1.525326141301699501e+01
1.240000000000000000e+02 1.522845606198569968e+01
1.244000000000000057e+02 1.520377152349042937e+01
1.248000000000000114e+02 1.517920680899276675e+01
1.252000000000000028e+02 1.515476094131205897e+01
1.256000000000000085e+02 1.513043295445756087e+01
1.260000000000000000e+02 1.510622189346361388e+01
1.264000000000000057e+02 1.508212681422776669e+01
1.268000000000000114e+02 1.505814678335180901e+01
1.272000000000000028e+02 1.503416334229759421e+01
1.276000000000000085e+02 1.501029081955341482e+01
1.280000000000000000e+02 1.498653140112797466e+01
1.284000000000000057e+02 1.496288418709629298e+01
1.288000000000000114e+02 1.493934828758811051e+01
1.291999999999999886e+02 1.491592282264332781e+01
1.296000000000000227e+02 1.489260692207002457e+01
1.300000000000000000e+02 1.486939972530494458e+01
1.304000000000000057e+02 1.484630038127640894e+01
1.308000000000000114e+02 1.482330804826964155e+01
1.311999999999999886e+02 1.480042189379440032e+01
1.316000000000000227e+02 1.477764109445489993e+01
1.320000000000000000e+02 1.475496483582197804e+01
1.324000000000000057e+02 1.473239231230748914e+01
1.328000000000000114e+02 1.470992272704077841e+01
1.331999999999999886e+02 1.468755529174732999e+01
1.336000000000000227e+02 1.466528922662945433e+01
1.340000000000000000e+02 1.464312376024897588e+01
1.344000000000000057e+02 1.462105812941194927e+01
1.348000000000000114e+02 1.459909157905528687e+01
1.351999999999999886e+02 1.457722336213528891e+01
1.356000000000000227e+02 1.455545273951806351e+01
1.360000000000000000e+02 1.453377897987175871e+01
1.364000000000000057e+02 1.451220135956058677e+01
1.368000000000000114e+02 1.449071916254062842e+01
1.371999999999999886e+02 1.446933168025732108e+01
1.376000000000000227e+02 1.444803821154468615e+01
1.380000000000000000e+02 1.442683806252617629e+01
1.384000000000000057e+02 1.440573054651714990e+01
1.388000000000000114e+02 1.438471498392899051e+01
1.392000000000000171e+02 1.436379070217469689e+01
1.395999999999999943e+02 1.434295703557610935e+01
1.400000000000000000e+02 1.432221332527253743e+01
1.404000000000000057e+02 1.430155891913095445e+01
1.408000000000000114e+02 1.428099317165758819e+01
1.412000000000000171e+02 1.426051544391092918e+01
1.415999999999999943e+02 1.424004367424551276e+01
1.420000000000000000e+02 1.421961308185764672e+01
1.424000000000000057e+02 1.420049046013479987e+01
1.428000000000000114e+02 1.418041386842879881e+01
1.432000000000000171e+02 1.416042185828377242e+01
1.435999999999999943e+02 1.414051383151285890e+01
1.440000000000000000e+02 1.412068919586934079e+01
1.444000000000000057e+02 1.410094736497077861e+01
1.448000000000000114e+02 1.408128775822429191e+01
1.452000000000000171e+02 1.406170980075303945e+01
1.455999999999999943e+02 1.404221292332380244e+01
1.460000000000000000e+02 1.402279656227571714e+01
1.464000000000000057e+02 1.400346015945007139e+01
1.468000000000000114e+02 1.398420316212125769e+01
1.472000000000000171e+02 1.396502502292867831e+01
1.475999999999999943e+02 1.394592519980976242e+01
1.480000000000000000e+02 1.392690315593400818e+01
1.484000000000000057e+02 1.390795835963799298e+01
1.488000000000000114e+02 1.388909028436139081e+01
1.492000000000000171e+02 1.387029840858394536e+01
1.495999999999999943e+02 1.385158221576341830e+01
1.500000000000000000e+02 1.383294119427442226e+01
