1.000000000000000000e+01 5.591434323341833306e+02
1.040000000000000036e+01 6.877889228105783559e+02
1.080000000000000071e+01 8.061918168505211497e+02
1.119999999999999929e+01 8.577239633969364832e+02
1.159999999999999964e+01 8.703603916506324367e+02
1.200000000000000000e+01 8.784502495642800568e+02
1.240000000000000036e+01 8.820364027067020061e+02
1.280000000000000071e+01 8.820824725692625634e+02
1.319999999999999929e+01 8.710629667979010264e+02
1.359999999999999964e+01 8.619488743288218302e+02
1.400000000000000000e+01 8.565846031723331180e+02
1.440000000000000036e+01 8.507235514275548667e+02
1.480000000000000071e+01 8.366760410906773586e+02
1.519999999999999929e+01 8.234318638733855096e+02
1.560000000000000142e+01 8.109126691093895261e+02
1.600000000000000000e+01 7.990508121033219595e+02
1.639999999999999858e+01 7.877874852738722211e+02
1.680000000000000071e+01 7.770712441869363829e+02
1.719999999999999929e+01 7.668568310338228002e+02
1.760000000000000142e+01 7.571042254714081992e+02
1.800000000000000000e+01 7.477778715332913180e+02
1.839999999999999858e+01 7.388460424898919428e+02
1.880000000000000071e+01 7.302803149298017615e+02
1.920000000000000284e+01 7.220551301439484178e+02
1.960000000000000142e+01 7.141474259007425189e+02
2.000000000000000000e+01 7.065363254294750277e+02
2.039999999999999858e+01 6.992028732396428268e+02
2.080000000000000071e+01 6.921298095447987180e+02
2.120000000000000284e+01 6.853013767065961019e+02
2.160000000000000142e+01 6.787031523934072084e+02
2.200000000000000000e+01 6.723219051490085576e+02
2.239999999999999858e+01 6.661454688567530411e+02
2.280000000000000071e+01 6.601626332124885721e+02
2.320000000000000284e+01 6.543630478218944972e+02
2.360000000000000142e+01 6.487371379425261466e+02
2.400000000000000000e+01 6.432760302186632089e+02
2.439999999999999858e+01 6.379714870241371045e+02
2.480000000000000071e+01 6.328158482470739727e+02
2.520000000000000284e+01 6.278019795305805246e+02
2.560000000000000142e+01 6.229232261323448938e+02
2.600000000000000000e+01 6.181733716899033197e+02
2.640000000000000213e+01 6.135466012815832073e+02
2.680000000000000071e+01 6.090374682596692537e+02
2.719999999999999929e+01 6.046408644051210786e+02
2.760000000000000142e+01 6.003519930146095476e+02
2.800000000000000000e+01 5.961663445827081205e+02
2.840000000000000213e+01 5.920796747863225846e+02
2.880000000000000071e+01 5.880879845161994126e+02
2.920000000000000284e+01 5.841875017326390207e+02
2.960000000000000142e+01 5.803746649502576247e+02
3.000000000000000000e+01 5.766461081804892501e+02
3.040000000000000213e+01 5.729986471810992725e+02
3.080000000000000071e+01 5.694292668797895658e+02
3.120000000000000284e+01 5.659351098544228762e+02
3.160000000000000142e+01 5.625134657658280730e+02
3.200000000000000000e+01 5.591617616508569881e+02
3.240000000000000568e+01 5.558775529935966233e+02
3.279999999999999716e+01 5.526585155015956161e+02
3.320000000000000284e+01 5.495024375218306432e+02
3.360000000000000142e+01 5.464072130380448016e+02
3.400000000000000000e+01 5.433708351971864658e+02
3.440000000000000568e+01 5.403913903180509806e+02
3.479999999999999716e+01 5.374670523399842068e+02
3.520000000000000284e+01 5.345960776737221067e+02
3.560000000000000142e+01 5.317768004201800522e+02
3.600000000000000000e+01 5.290076279263330434e+02
3.640000000000000568e+01 5.262870366502895649e+02
3.679999999999999716e+01 5.236135683103063911e+02
3.720000000000000284e+01 5.209858262948509946e+02
3.760000000000000142e+01 5.184024723129350605e+02
3.800000000000000000e+01 5.158622232658319717e+02
3.840000000000000568e+01 5.133638483229966596e+02
3.879999999999999716e+01 5.109061661865290489e+02
3.920000000000000284e+01 5.084880425299007811e+02
3.960000000000000142e+01 5.061083875979035724e+02
4.000000000000000000e+01 5.037661539558952200e+02
4.040000000000000568e+01 5.014603343774298878e+02
4.079999999999999716e+01 4.991899598602742003e+02
4.120000000000000284e+01 4.969540977616389910e+02
4.160000000000000142e+01 4.947518500442054119e+02
4.200000000000000000e+01 4.925823516252086165e+02
4.239999999999999858e+01 4.904447688214594336e+02
4.280000000000000426e+01 4.883382978837495330e+02
4.320000000000000284e+01 4.862621636145997854e+02
4.360000000000000142e+01 4.842156180637768443e+02
4.400000000000000000e+01 4.821979392964336739e+02
4.439999999999999858e+01 4.802084302291198128e+02
4.480000000000000426e+01 4.782464175292593609e+02
4.520000000000000284e+01 4.763112505740322717e+02
4.560000000000000142e+01 4.744023004648801702e+02
4.600000000000000000e+01 4.725189590941446909e+02
4.639999999999999858e+01 4.706606382605932595e+02
4.680000000000000426e+01 4.688267688308170591e+02
4.720000000000000284e+01 4.670167999437044273e+02
4.760000000000000142e+01 4.652301982553832431e+02
4.800000000000000000e+01 4.634664472222119116e+02
4.840000000000000568e+01 4.617250464195603854e+02
4.880000000000000426e+01 4.600055108942797233e+02
4.920000000000000284e+01 4.583073705488977794e+02
4.960000000000000142e+01 4.566301695557115750e+02
5.000000000000000000e+01 4.549734657990698565e+02
5.040000000000000568e+01 4.533368303442438219e+02
5.080000000000000426e+01 4.517198469313993314e+02
5.120000000000000284e+01 4.501221114932691876e+02
5.160000000000000142e+01 4.485432316952208112e+02
5.200000000000000000e+01 4.469828264964945106e+02
5.240000000000000568e+01 4.454405257314634810e+02
5.280000000000000426e+01 4.439159697098402830e+02
5.320000000000000284e+01 4.424088088348207748e+02
5.360000000000000142e+01 4.409187032382154712e+02
5.400000000000000000e+01 4.394453224316806654e+02
5.440000000000000568e+01 4.379883449732100189e+02
5.480000000000000426e+01 4.365474581481017822e+02
5.520000000000000284e+01 4.351223576636603525e+02
5.560000000000000142e+01 4.337127473569358358e+02
5.600000000000000000e+01 4.323183389148452989e+02
5.640000000000000568e+01 4.309388516060587335e+02
5.680000000000000426e+01 4.295740120240648139e+02
5.720000000000000284e+01 4.282235538408694993e+02
5.760000000000000142e+01 4.268872175708065697e+02
5.800000000000000000e+01 4.255647503439727757e+02
5.840000000000000568e+01 4.242559056888243845e+02
5.880000000000000426e+01 4.229604433234983389e+02
5.920000000000000284e+01 4.216781289554456293e+02
5.960000000000000142e+01 4.204087340889868756e+02
6.000000000000000000e+01 4.191520358404197850e+02
6.040000000000000568e+01 4.179078167603307747e+02
6.080000000000000426e+01 4.166758646627780536e+02
6.120000000000000284e+01 4.154559724610338662e+02
6.160000000000000142e+01 4.142479380095895181e+02
6.200000000000000000e+01 4.130515639521395883e+02
6.240000000000000568e+01 4.118666575752807830e+02
6.280000000000000426e+01 4.106930306676707687e+02
6.320000000000000284e+01 4.095304993844068804e+02
6.360000000000000142e+01 4.083788841163972734e+02
6.400000000000000000e+01 4.072380093645060697e+02
6.440000000000000568e+01 4.061077036182692837e+02
6.480000000000001137e+01 4.049877992389832571e+02
6.520000000000000284e+01 4.038781323469815447e+02
6.559999999999999432e+01 4.027785427129213645e+02
6.600000000000000000e+01 4.016888736529136850e+02
6.640000000000000568e+01 4.006089719273346645e+02
6.680000000000001137e+01 3.995386876431671226e+02
6.720000000000000284e+01 3.984778741597258431e+02
6.759999999999999432e+01 3.974263879976300018e+02
6.800000000000000000e+01 3.963840887508885658e+02
6.840000000000000568e+01 3.953508390019749186e+02
6.880000000000001137e+01 3.943265042397698039e+02
6.920000000000000284e+01 3.933109527802590151e+02
6.959999999999999432e+01 3.923040556898752129e+02
7.000000000000000000e+01 3.913056867113821227e+02
7.040000000000000568e+01 3.903157221922000986e+02
7.080000000000001137e+01 3.893340410150773891e+02
7.120000000000000284e+01 3.883605245310189957e+02
7.159999999999999432e+01 3.873950564943841073e+02
7.200000000000000000e+01 3.864375230000705983e+02
7.240000000000000568e+01 3.854878124227063836e+02
7.280000000000001137e+01 3.845458153577736198e+02
7.320000000000000284e+01 3.836114245645906635e+02
7.359999999999999432e+01 3.826845349110857342e+02
7.400000000000000000e+01 3.817650433202929321e+02
7.440000000000000568e+01 3.808528487185091649e+02
7.479999999999999716e+01 3.799478519850506473e+02
7.520000000000000284e+01 3.790499559035491757e+02
7.560000000000000853e+01 3.781590651147357107e+02
7.600000000000000000e+01 3.772750860706540834e+02
7.640000000000000568e+01 3.763979269902566784e+02
7.679999999999999716e+01 3.755274978163303672e+02
7.720000000000000284e+01 3.746637101737075000e+02
7.760000000000000853e+01 3.738064773287158573e+02
7.800000000000000000e+01 3.729557141498243027e+02
7.840000000000000568e+01 3.721113370694422997e+02
7.879999999999999716e+01 3.712732640468344130e+02
7.920000000000000284e+01 3.704414145321089222e+02
7.960000000000000853e+01 3.696157094312475238e+02
8.000000000000000000e+01 3.687960710721366695e+02
8.040000000000000568e+01 3.679824231715693372e+02
8.079999999999999716e+01 3.671746908031839212e+02
8.120000000000000284e+01 3.663728003663076151e+02
8.160000000000000853e+01 3.655766795556759234e+02
8.200000000000000000e+01 3.647862573319981720e+02
8.240000000000000568e+01 3.640014638933405990e+02
8.279999999999999716e+01 3.632222306473021831e+02
8.320000000000000284e+01 3.624484901839546751e+02
8.360000000000000853e+01 3.616801762495243793e+02
8.400000000000000000e+01 3.609172237207901617e+02
8.440000000000000568e+01 3.601595685801748346e+02
8.479999999999999716e+01 3.594071478915091120e+02
8.520000000000000284e+01 3.586598997764444903e+02
8.560000000000000853e+01 3.579177633914961234e+02
8.600000000000000000e+01 3.571806789056962543e+02
8.640000000000000568e+01 3.564485874788356341e+02
8.680000000000001137e+01 3.557214312402804808e+02
8.720000000000000284e+01 3.549991532683412743e+02
8.760000000000000853e+01 3.542816975701792899e+02
8.800000000000000000e+01 3.535690090622344997e+02
8.840000000000000568e+01 3.528610335511575613e+02
8.880000000000001137e+01 3.521577177152314562e+02
8.920000000000000284e+01 3.514590090862673151e+02
8.960000000000000853e+01 3.507648560319610738e+02
9.000000000000000000e+01 3.500752077386956671e+02
9.040000000000000568e+01 3.493900141947774500e+02
9.080000000000001137e+01 3.487092261740913273e+02
9.120000000000000284e+01 3.480327952201648714e+02
9.160000000000000853e+01 3.473606736306272182e+02
9.200000000000000000e+01 3.466928144420528497e+02
9.240000000000000568e+01 3.460291714151777001e+02
9.280000000000001137e+01 3.453696990204773556e+02
9.320000000000000284e+01 3.447143524240970009e+02
9.360000000000000853e+01 3.440630874741228240e+02
9.400000000000000000e+01 3.434158606871848747e+02
9.440000000000000568e+01 3.427726292353821691e+02
9.480000000000001137e+01 3.421333509335210579e+02
9.520000000000000284e+01 3.414979842266570813e+02
9.560000000000000853e+01 3.408664881779336042e+02
9.600000000000000000e+01 3.402388224567065436e+02
9.640000000000000568e+01 3.396149473269485952e+02
9.680000000000001137e+01 3.389948236359264229e+02
9.720000000000000284e+01 3.383784128031394403e+02
9.760000000000000853e+01 3.377656768095174584e+02
9.800000000000000000e+01 3.371565781868671365e+02
9.840000000000000568e+01 3.365510800075608131e+02
9.880000000000001137e+01 3.359491458744626584e+02
9.920000000000000284e+01 3.353507399110843608e+02
9.960000000000000853e+01 3.347558267519636956e+02
1.000000000000000000e+02 3.341643715332619990e+02
1.004000000000000057e+02 3.335763398835724161e+02
1.008000000000000114e+02 3.329916979149352301e+02
1.012000000000000028e+02 3.324104122140535083e+02
1.016000000000000085e+02 3.318324498337034925e+02
1.020000000000000000e+02 3.312577782843369505e+02
1.024000000000000057e+02 3.306863655258674726e+02
1.028000000000000114e+02 3.301181799596372457e+02
1.032000000000000028e+02 3.295531904205607248e+02
1.036000000000000085e+02 3.289913661694384928e+02
1.040000000000000000e+02 3.284326768854384113e+02
1.044000000000000057e+02 3.278770926587387748e+02
1.048000000000000114e+02 3.273245839833313084e+02
1.052000000000000028e+02 3.267751217499765062e+02
1.056000000000000085e+02 3.262286772393110823e+02
1.060000000000000000e+02 3.256852221151010554e+02
1.064000000000000057e+02 3.251447284176387029e+02
1.068000000000000114e+02 3.246071685572777596e+02
1.072000000000000028e+02 3.240725153081054941e+02
1.076000000000000085e+02 3.235407418017471173e+02
1.080000000000000000e+02 3.230118215212989412e+02
1.084000000000000057e+02 3.224857282953880713e+02
1.088000000000000114e+02 3.219624362923549938e+02
1.092000000000000028e+02 3.214419200145562741e+02
1.096000000000000085e+02 3.209241542927834985e+02
1.100000000000000000e+02 3.204091142807973256e+02
1.104000000000000057e+02 3.198967754499727221e+02
1.108000000000000114e+02 3.193871135840524857e+02
1.112000000000000028e+02 3.188801047740077479e+02
1.116000000000000085e+02 3.183757254130008505e+02
1.120000000000000000e+02 3.178739521914507122e+02
1.124000000000000057e+02 3.173747620921957946e+02
1.128000000000000114e+02 3.168781323857542702e+02
1.132000000000000028e+02 3.163840406256775282e+02
1.136000000000000085e+02 3.158924646439965613e+02
1.140000000000000000e+02 3.154033825467569159e+02
1.144000000000000057e+02 3.149167727096423732e+02
1.148000000000000114e+02 3.144326137736838973e+02
1.152000000000000028e+02 3.139508846410517435e+02
1.156000000000000085e+02 3.134715644709299909e+02
1.160000000000000000e+02 3.129946326754708252e+02
1.164000000000000057e+02 3.125200689158260730e+02
1.168000000000000114e+02 3.120478530982561551e+02
1.172000000000000028e+02 3.115779653703124836e+02
1.176000000000000085e+02 3.111103861170934124e+02
1.180000000000000000e+02 3.106450959575710158e+02
1.184000000000000057e+02 3.101820757409872158e+02
1.188000000000000114e+02 3.097213065433189740e+02
1.192000000000000028e+02 3.092627696638082853e+02
1.196000000000000085e+02 3.088064466215587345e+02
1.200000000000000000e+02 3.083523191521948092e+02
1.204000000000000057e+02 3.079003692045836829e+02
1.208000000000000114e+02 3.074505789376178200e+02
1.212000000000000028e+02 3.070029307170566426e+02
1.216000000000000085e+02 3.065574071124271427e+02
1.220000000000000000e+02 3.061139908939803718e+02
1.224000000000000057e+02 3.056726650297047740e+02
1.228000000000000114e+02 3.052334126823930092e+02
1.232000000000000028e+02 3.047962172067625488e+02
1.236000000000000085e+02 3.043610621466282282e+02
1.240000000000000000e+02 3.039279312321260136e+02
1.244000000000000057e+02 3.034968083769865075e+02
1.248000000000000114e+02 3.030676776758573965e+02
1.252000000000000028e+02 3.026405234016740451e+02
1.256000000000000085e+02 3.022153300030761898e+02
1.260000000000000000e+02 3.017920821018714150e+02
1.264000000000000057e+02 3.013707644905425127e+02
1.268000000000000114e+02 3.009513621297996906e+02
1.272000000000000028e+02 3.005338601461753001e+02
1.276000000000000085e+02 3.001182438296605142e+02
1.280000000000000000e+02 2.997044986313841832e+02
1.284000000000000057e+02 2.992926101613306855e+02
1.288000000000000114e+02 2.988825641860987616e+02
1.291999999999999886e+02 2.984743466266982637e+02
1.296000000000000227e+02 2.980679435563848187e+02
1.300000000000000000e+02 2.976633411985324074e+02
1.304000000000000057e+02 2.972605259245417528e+02
1.308000000000000114e+02 2.968594842517844654e+02
1.311999999999999886e+02 2.964602028415823156e+02
1.316000000000000227e+02 2.960626684972210683e+02
1.320000000000000000e+02 2.956668681619970585e+02
1.324000000000000057e+02 2.952727889172978166e+02
1.328000000000000114e+02 2.948804179807139008e+02
1.331999999999999886e+02 2.944897427041829587e+02
1.336000000000000227e+02 2.941007505721648840e+02
1.340000000000000000e+02 2.937134291998465869e+02
1.344000000000000057e+02 2.933277663313774610e+02
1.348000000000000114e+02 2.929437498381334990e+02
1.351999999999999886e+02 2.925613677170102847e+02
1.356000000000000227e+02 2.921806080887437815e+02
1.360000000000000000e+02 2.918014591962589748e+02
1.364000000000000057e+02 2.914239094030452861e+02
1.368000000000000114e+02 2.910479471915583076e+02
1.371999999999999886e+02 2.906735611616482515e+02
1.376000000000000227e+02 2.903007400290125020e+02
1.380000000000000000e+02 2.899294726236747692e+02
1.384000000000000057e+02 2.895597478884870952e+02
1.388000000000000114e+02 2.891915548776573814e+02
1.392000000000000171e+02 2.888248827552993134e+02
1.395999999999999943e+02 2.884597207940063868e+02
1.400000000000000000e+02 2.880960583734472493e+02
1.404000000000000057e+02 2.877338849789853157e+02
1.408000000000000114e+02 2.873731902003182768e+02
1.412000000000000171e+02 2.870139637301400626e+02
1.415999999999999943e+02 2.866561953628239507e+02
1.420000000000000000e+02 2.862998749931253428e+02
1.424000000000000057e+02 2.859449926149062549e+02
1.428000000000000114e+02 2.855915383198781683e+02
1.432000000000000171e+02 2.852395022963657425e+02
1.435999999999999943e+02 2.848888748280887171e+02
1.440000000000000000e+02 2.845396462929629706e+02
1.444000000000000057e+02 2.841918071619202237e+02
1.448000000000000114e+02 2.838453479977457619e+02
1.452000000000000171e+02 2.835002594539337224e+02
1.455999999999999943e+02 2.831565322735601740e+02
1.460000000000000000e+02 2.828141572881730212e+02
1.464000000000000057e+02 2.824731254166993608e+02
1.468000000000000114e+02 2.821334276643685257e+02
1.472000000000000171e+02 2.817950551216521831e+02
1.475999999999999943e+02 2.814579989632200636e+02
1.480000000000000000e+02 2.811222504469109822e+02
1.484000000000000057e+02 2.807878009127202290e+02
1.488000000000000114e+02 2.804546417818011150e+02
1.492000000000000171e+02 2.801227645554817514e+02
1.495999999999999943e+02 2.797921608142966647e+02
1.500000000000000000e+02 2.794628222170323397e+02
