1.000000000000000000e+01 2.735427077550091326e+02
1.040000000000000036e+01 2.986227729360548437e+02
1.080000000000000071e+01 3.210354788924872764e+02
1.119999999999999929e+01 3.670182657551516741e+02
1.159999999999999964e+01 4.040402393400146366e+02
1.200000000000000000e+01 4.367290710981993698e+02
1.240000000000000036e+01 4.543659559238851671e+02
1.280000000000000071e+01 4.676454288868333151e+02
1.319999999999999929e+01 4.707089312436295359e+02
1.359999999999999964e+01 4.765780167963361009e+02
1.400000000000000000e+01 4.870146057990075974e+02
1.440000000000000036e+01 4.869328772363367079e+02
1.480000000000000071e+01 4.783747769777419308e+02
1.519999999999999929e+01 4.703527566471760224e+02
1.560000000000000142e+01 4.628089730108057438e+02
1.600000000000000000e+01 4.556943242029067846e+02
1.639999999999999858e+01 4.489667718198717239e+02
1.680000000000000071e+01 4.425900493744542246e+02
1.719999999999999929e+01 4.365326543236732277e+02
1.760000000000000142e+01 4.307670516501251541e+02
1.800000000000000000e+01 4.252690375832615928e+02
1.839999999999999858e+01 4.200172261402345839e+02
1.880000000000000071e+01 4.149926309859414459e+02
1.920000000000000284e+01 4.101783220706516317e+02
1.960000000000000142e+01 4.055591415105637338e+02
2.000000000000000000e+01 4.011214668296257742e+02
2.039999999999999858e+01 3.968530123801689342e+02
2.080000000000000071e+01 3.927426617777700812e+02
2.120000000000000284e+01 3.887803257105723560e+02
2.160000000000000142e+01 3.849568206470424911e+02
2.200000000000000000e+01 3.812637648625591282e+02
2.239999999999999858e+01 3.776934889016740726e+02
2.280000000000000071e+01 3.742389581383317818e+02
2.320000000000000284e+01 3.708937055267221581e+02
2.360000000000000142e+01 3.676517729774457734e+02
2.400000000000000000e+01 3.645076600672393852e+02
2.439999999999999858e+01 3.614562790107028150e+02
2.480000000000000071e+01 3.584929150007413341e+02
2.520000000000000284e+01 3.556131911695786698e+02
2.560000000000000142e+01 3.528130375409763246e+02
2.600000000000000000e+01 3.500886634419966867e+02
2.640000000000000213e+01 3.474365329233858120e+02
2.680000000000000071e+01 3.448533428046724794e+02
2.719999999999999929e+01 3.423360030159587950e+02
2.760000000000000142e+01 3.398816189551494062e+02
2.800000000000000000e+01 3.374874756186718514e+02
2.840000000000000213e+01 3.351510232968967671e+02
2.880000000000000071e+01 3.328698646535316357e+02
2.920000000000000284e+01 3.306417430320998392e+02
2.960000000000000142e+01 3.284645318529328506e+02
3.000000000000000000e+01 3.263362249814694565e+02
3.040000000000000213e+01 3.242549279635449579e+02
3.080000000000000071e+01 3.222188500361617116e+02
3.120000000000000284e+01 3.202262968332697710e+02
3.160000000000000142e+01 3.182756637156369379e+02
3.200000000000000000e+01 3.163654296621627395e+02
3.240000000000000568e+01 3.144941516671828481e+02
3.279999999999999716e+01 3.126604595945768210e+02
3.320000000000000284e+01 3.108630514449622524e+02
3.360000000000000142e+01 3.091006889970468592e+02
3.400000000000000000e+01 3.073721937884080262e+02
3.440000000000000568e+01 3.056764434046598353e+02
3.479999999999999716e+01 3.040123680492170024e+02
3.520000000000000284e+01 3.023789473687339751e+02
3.560000000000000142e+01 3.007752075118311268e+02
3.600000000000000000e+01 2.992002184009649000e+02
3.640000000000000568e+01 2.976530911992919073e+02
3.679999999999999716e+01 2.961329759561490391e+02
3.720000000000000284e+01 2.946390594163431160e+02
3.760000000000000142e+01 2.931705629798568680e+02
3.800000000000000000e+01 2.917267407998260751e+02
3.840000000000000568e+01 2.903068780077719566e+02
3.879999999999999716e+01 2.889102890560767491e+02
3.920000000000000284e+01 2.875363161685927480e+02
3.960000000000000142e+01 2.861843278910890831e+02
4.000000000000000000e+01 2.848537177339670166e+02
4.040000000000000568e+01 2.835439029003371161e+02
4.079999999999999716e+01 2.822543230931388507e+02
4.120000000000000284e+01 2.809844393955258965e+02
4.160000000000000142e+01 2.797337332192196300e+02
4.200000000000000000e+01 2.785017053159762099e+02
4.239999999999999858e+01 2.772878748477085651e+02
4.280000000000000426e+01 2.760917785111671492e+02
4.320000000000000284e+01 2.749129697134106891e+02
4.360000000000000142e+01 2.737510177945976011e+02
4.400000000000000000e+01 2.726055072949005194e+02
4.439999999999999858e+01 2.714760372625947866e+02
4.480000000000000426e+01 2.703622206005967996e+02
4.520000000000000284e+01 2.692636834489368312e+02
4.560000000000000142e+01 2.681800646008387048e+02
4.600000000000000000e+01 2.671110149502515014e+02
4.639999999999999858e+01 2.660561969688386625e+02
4.680000000000000426e+01 2.650152842105735544e+02
4.720000000000000284e+01 2.639879608422255615e+02
4.760000000000000142e+01 2.629739211981403741e+02
4.800000000000000000e+01 2.619728693578367711e+02
4.840000000000000568e+01 2.609845187450385993e+02
4.880000000000000426e+01 2.600085917468627486e+02
4.920000000000000284e+01 2.590448193519669644e+02
4.960000000000000142e+01 2.580929408065462098e+02
5.000000000000000000e+01 2.571527032871396727e+02
5.040000000000000568e+01 2.562238615892800908e+02
5.080000000000000426e+01 2.553061778310803049e+02
5.120000000000000284e+01 2.543994211709136550e+02
5.160000000000000142e+01 2.535033675383968443e+02
5.200000000000000000e+01 2.526177993779371889e+02
5.240000000000000568e+01 2.517425054041518706e+02
5.280000000000000426e+01 2.508772803685110944e+02
5.320000000000000284e+01 2.500219248365982310e+02
5.360000000000000142e+01 2.491762449754163242e+02
5.400000000000000000e+01 2.483400523502078840e+02
5.440000000000000568e+01 2.475131637302850152e+02
5.480000000000000426e+01 2.466954009033988768e+02
5.520000000000000284e+01 2.458865904982062034e+02
5.560000000000000142e+01 2.450865638144145748e+02
5.600000000000000000e+01 2.442951566602169464e+02
5.640000000000000568e+01 2.435122091966439939e+02
5.680000000000000426e+01 2.427375657884893201e+02
5.720000000000000284e+01 2.419710748614776890e+02
5.760000000000000142e+01 2.412125887653696736e+02
5.800000000000000000e+01 2.404619636427107707e+02
5.840000000000000568e+01 2.397190593029500860e+02
5.880000000000000426e+01 2.389837391016703236e+02
5.920000000000000284e+01 2.382558698246830886e+02
5.960000000000000142e+01 2.375353215767588040e+02
6.000000000000000000e+01 2.368219676747723383e+02
6.040000000000000568e+01 2.361156845450578601e+02
6.080000000000000426e+01 2.354163516247761549e+02
6.120000000000000284e+01 2.347238512671108595e+02
6.160000000000000142e+01 2.340380686501168270e+02
6.200000000000000000e+01 2.333588916890553264e+02
6.240000000000000568e+01 2.326862109520574222e+02
6.280000000000000426e+01 2.320199195789689952e+02
6.320000000000000284e+01 2.313599132032319972e+02
6.360000000000000142e+01 2.307060898766710011e+02
6.400000000000000000e+01 2.300583499970562116e+02
6.440000000000000568e+01 2.294165962383210911e+02
6.480000000000001137e+01 2.287807334833217965e+02
6.520000000000000284e+01 2.281506687590269848e+02
6.559999999999999432e+01 2.275263111740351860e+02
6.600000000000000000e+01 2.269075718583221715e+02
6.640000000000000568e+01 2.262943639051212585e+02
6.680000000000001137e+01 2.256866023148512568e+02
6.720000000000000284e+01 2.250842039410032385e+02
6.759999999999999432e+01 2.244870874379081442e+02
6.800000000000000000e+01 2.238951732103062398e+02
6.840000000000000568e+01 2.233083833646458345e+02
6.880000000000001137e+01 2.227266416620405494e+02
6.920000000000000284e+01 2.221498734728195927e+02
6.959999999999999432e+01 2.215780057326057886e+02
7.000000000000000000e+01 2.210109668998622396e+02
7.040000000000000568e+01 2.204486869148481674e+02
7.080000000000001137e+01 2.198910971599296431e+02
7.120000000000000284e+01 2.193381304211924316e+02
7.159999999999999432e+01 2.187897208513050771e+02
7.200000000000000000e+01 2.182458039335869273e+02
7.240000000000000568e+01 2.177063164472310746e+02
7.280000000000001137e+01 2.171711964336421090e+02
7.320000000000000284e+01 2.166403831638439215e+02
7.359999999999999432e+01 2.161138171069184182e+02
7.400000000000000000e+01 2.155914398994363523e+02
7.440000000000000568e+01 2.150731943158437502e+02
7.479999999999999716e+01 2.145590242397681777e+02
7.520000000000000284e+01 2.140488746362109964e+02
7.560000000000000853e+01 2.135426915245940904e+02
7.600000000000000000e+01 2.130404219526293446e+02
7.640000000000000568e+01 2.125420139709807472e+02
7.679999999999999716e+01 2.120474166086924583e+02
7.720000000000000284e+01 2.115565798493532270e+02
7.760000000000000853e+01 2.110694546079726024e+02
7.800000000000000000e+01 2.105859927085437562e+02
7.840000000000000568e+01 2.101061468622677353e+02
7.879999999999999716e+01 2.096298706464171744e+02
7.920000000000000284e+01 2.091571184838171575e+02
7.960000000000000853e+01 2.086878456229210315e+02
8.000000000000000000e+01 2.082220081184623268e+02
8.040000000000000568e+01 2.077595628126609881e+02
8.079999999999999716e+01 2.073004673169675414e+02
8.120000000000000284e+01 2.068446799943251335e+02
8.160000000000000853e+01 2.063921599419328743e+02
8.200000000000000000e+01 2.059428669744936542e+02
8.240000000000000568e+01 2.054967616079300115e+02
8.279999999999999716e+01 2.050538050435536093e+02
8.320000000000000284e+01 2.046139591526715833e+02
8.360000000000000853e+01 2.041771864616173957e+02
8.400000000000000000e+01 2.037434501371912461e+02
8.440000000000000568e+01 2.033127139724968231e+02
8.479999999999999716e+01 2.028849423731622892e+02
8.520000000000000284e+01 2.024601003439323961e+02
8.560000000000000853e+01 2.020381534756206747e+02
8.600000000000000000e+01 2.016190679324094503e+02
8.640000000000000568e+01 2.012028104394871946e+02
8.680000000000001137e+01 2.007893482710130684e+02
8.720000000000000284e+01 2.003786492383972586e+02
8.760000000000000853e+01 1.999706816788881270e+02
8.800000000000000000e+01 1.995654144444570193e+02
8.840000000000000568e+01 1.991628168909700207e+02
8.880000000000001137e+01 1.987628588676401193e+02
8.920000000000000284e+01 1.983655107067488643e+02
8.960000000000000853e+01 1.979707432136315219e+02
9.000000000000000000e+01 1.975785276569155826e+02
9.040000000000000568e+01 1.971888357590073895e+02
9.080000000000001137e+01 1.968016396868173388e+02
9.120000000000000284e+01 1.964169120427176836e+02
9.160000000000000853e+01 1.960346258557258921e+02
9.200000000000000000e+01 1.956547545729069952e+02
9.240000000000000568e+01 1.952772720509876763e+02
9.280000000000001137e+01 1.949021525481773836e+02
9.320000000000000284e+01 1.945293707161890211e+02
9.360000000000000853e+01 1.941589015924543560e+02
9.400000000000000000e+01 1.937907205925279754e+02
9.440000000000000568e+01 1.934248035026748198e+02
9.480000000000001137e+01 1.930611264726358627e+02
9.520000000000000284e+01 1.926996660085667372e+02
9.560000000000000853e+01 1.923403989661445621e+02
9.600000000000000000e+01 1.919833025438381924e+02
9.640000000000000568e+01 1.916283542763375749e+02
9.680000000000001137e+01 1.912755320281370928e+02
9.720000000000000284e+01 1.909248139872694310e+02
9.760000000000000853e+01 1.905761786591852456e+02
9.800000000000000000e+01 1.902296048607745433e+02
9.840000000000000568e+01 1.898850717145266742e+02
9.880000000000001137e+01 1.895425586428240763e+02
9.920000000000000284e+01 1.892020453623669596e+02
9.960000000000000853e+01 1.888635118787249496e+02
1.000000000000000000e+02 1.885269384810123370e+02
1.004000000000000057e+02 1.881923057366838634e+02
1.008000000000000114e+02 1.878595944864475200e+02
1.012000000000000028e+02 1.875287858392911744e+02
1.016000000000000085e+02 1.871998611676207247e+02
1.020000000000000000e+02 1.868728021025054886e+02
1.024000000000000057e+02 1.865475905290296623e+02
1.028000000000000114e+02 1.862242085817455290e+02
1.032000000000000028e+02 1.859026386402268542e+02
1.036000000000000085e+02 1.855828633247194261e+02
1.040000000000000000e+02 1.852648654918861837e+02
1.044000000000000057e+02 1.849486282306444878e+02
1.048000000000000114e+02 1.846341348580936028e+02
1.052000000000000028e+02 1.843213689155294048e+02
1.056000000000000085e+02 1.840103141645446385e+02
1.060000000000000000e+02 1.837009545832123365e+02
1.064000000000000057e+02 1.833932743623501551e+02
1.068000000000000114e+02 1.830872579018640636e+02
1.072000000000000028e+02 1.827828898071688570e+02
1.076000000000000085e+02 1.824801548856838167e+02
1.080000000000000000e+02 1.821790381434018968e+02
1.084000000000000057e+02 1.818795247815300797e+02
1.088000000000000114e+02 1.815816001931995629e+02
1.092000000000000028e+02 1.812852499602439877e+02
1.096000000000000085e+02 1.809904598500438340e+02
1.100000000000000000e+02 1.806972158124358430e+02
1.104000000000000057e+02 1.804055039766851110e+02
1.108000000000000114e+02 1.801153106485192552e+02
1.112000000000000028e+02 1.798266223072225785e+02
1.116000000000000085e+02 1.795394256027884978e+02
1.120000000000000000e+02 1.792537073531301530e+02
1.124000000000000057e+02 1.789694545413459252e+02
1.128000000000000114e+02 1.786866543130403215e+02
1.132000000000000028e+02 1.784052939736977805e+02
1.136000000000000085e+02 1.781253609861087455e+02
1.140000000000000000e+02 1.778468429678461291e+02
1.144000000000000057e+02 1.775697276887920566e+02
1.148000000000000114e+02 1.772940030687126978e+02
1.152000000000000028e+02 1.770196571748804217e+02
1.156000000000000085e+02 1.767466782197423925e+02
1.160000000000000000e+02 1.764750545586343264e+02
1.164000000000000057e+02 1.762047746875383041e+02
1.168000000000000114e+02 1.759358272408838957e+02
1.172000000000000028e+02 1.756682009893913516e+02
1.176000000000000085e+02 1.754018848379559756e+02
1.180000000000000000e+02 1.751368678235729135e+02
1.184000000000000057e+02 1.748731391133010504e+02
1.188000000000000114e+02 1.746106880022658743e+02
1.192000000000000028e+02 1.743495039116994008e+02
1.196000000000000085e+02 1.740895763870172459e+02
1.200000000000000000e+02 1.738308950959315951e+02
1.204000000000000057e+02 1.735734498265992443e+02
1.208000000000000114e+02 1.733172304858043162e+02
1.212000000000000028e+02 1.730622270971741159e+02
1.216000000000000085e+02 1.728084297994284384e+02
1.220000000000000000e+02 1.725558288446607662e+02
1.224000000000000057e+02 1.723044145966508722e+02
1.228000000000000114e+02 1.720541775292085163e+02
1.232000000000000028e+02 1.718051082245470980e+02
1.236000000000000085e+02 1.715571973716866978e+02
1.240000000000000000e+02 1.713104357648862788e+02
1.244000000000000057e+02 1.710648143021037413e+02
1.248000000000000114e+02 1.708203239834838882e+02
1.252000000000000028e+02 1.705769559098735044e+02
1.256000000000000085e+02 1.703347012813624701e+02
1.260000000000000000e+02 1.700935513958513923e+02
1.264000000000000057e+02 1.698534976476440761e+02
1.268000000000000114e+02 1.696145315260651500e+02
1.272000000000000028e+02 1.693766446141020765e+02
1.276000000000000085e+02 1.691398285870704115e+02
1.280000000000000000e+02 1.689040752113033079e+02
1.284000000000000057e+02 1.686693763428629609e+02
1.288000000000000114e+02 1.684357239262748749e+02
1.291999999999999886e+02 1.682031099932842153e+02
1.296000000000000227e+02 1.679715266616329927e+02
1.300000000000000000e+02 1.677409661338589899e+02
1.304000000000000057e+02 1.675114206961144419e+02
1.308000000000000114e+02 1.672828827170060038e+02
1.311999999999999886e+02 1.670553446464534773e+02
1.316000000000000227e+02 1.668287990145682045e+02
1.320000000000000000e+02 1.666032384305507890e+02
1.324000000000000057e+02 1.663786555816069495e+02
1.328000000000000114e+02 1.661550432318819048e+02
1.331999999999999886e+02 1.659323942214124372e+02
1.336000000000000227e+02 1.657107014650964345e+02
1.340000000000000000e+02 1.654899579516800259e+02
1.344000000000000057e+02 1.652701567427608609e+02
1.348000000000000114e+02 1.650512909718084131e+02
1.351999999999999886e+02 1.648333538432002001e+02
1.356000000000000227e+02 1.646163386312739760e+02
1.360000000000000000e+02 1.644002386793953860e+02
1.364000000000000057e+02 1.641850473990409114e+02
1.368000000000000114e+02 1.639707582688957928e+02
1.371999999999999886e+02 1.637573648339663919e+02
1.376000000000000227e+02 1.635448607047073892e+02
1.380000000000000000e+02 1.633332395561626242e+02
1.384000000000000057e+02 1.631224951271198336e+02
1.388000000000000114e+02 1.629126212192794014e+02
1.392000000000000171e+02 1.627036116964357007e+02
1.395999999999999943e+02 1.624954604836722751e+02
1.400000000000000000e+02 1.622881615665689878e+02
1.404000000000000057e+02 1.620817089904225554e+02
1.408000000000000114e+02 1.618760968594789915e+02
1.412000000000000171e+02 1.616713193361778735e+02
1.415999999999999943e+02 1.614673706404094276e+02
1.420000000000000000e+02 1.612642450487819872e+02
1.424000000000000057e+02 1.610619368939020433e+02
1.428000000000000114e+02 1.608604405636648380e+02
1.432000000000000171e+02 1.606597505005562994e+02
1.435999999999999943e+02 1.604598612009655767e+02
1.440000000000000000e+02 1.602607672145082631e+02
1.444000000000000057e+02 1.600624631433601905e+02
1.448000000000000114e+02 1.598649436416013145e+02
1.452000000000000171e+02 1.596682034145696889e+02
1.455999999999999943e+02 1.594722372182251036e+02
1.460000000000000000e+02 1.592770398585229543e+02
1.464000000000000057e+02 1.590826061907969233e+02
1.468000000000000114e+02 1.588889311191516072e+02
1.472000000000000171e+02 1.586960095958638703e+02
1.475999999999999943e+02 1.585038366207934928e+02
1.480000000000000000e+02 1.583124072408026279e+02
1.484000000000000057e+02 1.581217165491837591e+02
1.488000000000000114e+02 1.579317596850964946e+02
1.492000000000000171e+02 1.577425318330124639e+02
1.495999999999999943e+02 1.575540282221685402e+02
1.500000000000000000e+02 1.573662441260284481e+02
