1.000000000000000000e+01 1.157744034178943480e+02
1.040000000000000036e+01 1.198335731921785907e+02
1.080000000000000071e+01 1.260592718624949242e+02
1.119999999999999929e+01 1.362923144215238267e+02
1.159999999999999964e+01 1.487606979206244944e+02
1.200000000000000000e+01 1.450731210790630428e+02
1.240000000000000036e+01 1.402019647844914800e+02
1.280000000000000071e+01 1.358383392958317870e+02
1.319999999999999929e+01 1.269580053802375659e+02
1.359999999999999964e+01 1.234894944033372184e+02
1.400000000000000000e+01 1.203869428481780659e+02
1.440000000000000036e+01 1.179499086987400602e+02
1.480000000000000071e+01 1.156849051788892382e+02
1.519999999999999929e+01 1.135714449760789364e+02
1.560000000000000142e+01 1.116609083766102231e+02
1.600000000000000000e+01 1.099113152274588572e+02
1.639999999999999858e+01 1.082750566047311764e+02
1.680000000000000071e+01 1.067399114847287791e+02
1.719999999999999929e+01 1.052954549877263446e+02
1.760000000000000142e+01 1.039327288826734872e+02
1.800000000000000000e+01 9.848314524067336606e+01
1.839999999999999858e+01 9.708158011208624316e+01
1.880000000000000071e+01 9.250499900855805890e+01
1.920000000000000284e+01 8.959434206116053190e+01
1.960000000000000142e+01 8.816718403323602615e+01
2.000000000000000000e+01 8.680682436598019081e+01
2.039999999999999858e+01 8.550813373202035450e+01
2.080000000000000071e+01 8.426652252990780312e+01
2.120000000000000284e+01 8.307786944981768329e+01
2.160000000000000142e+01 8.192659781433653166e+01
2.200000000000000000e+01 8.078716149158287863e+01
2.239999999999999858e+01 7.969202155511834462e+01
2.280000000000000071e+01 7.863834857477441176e+01
2.320000000000000284e+01 7.762476791079045313e+01
2.360000000000000142e+01 7.660868461191972756e+01
2.400000000000000000e+01 7.562699244841897439e+01
2.439999999999999858e+01 7.467777342861515422e+01
2.480000000000000071e+01 7.375925801567136375e+01
2.520000000000000284e+01 7.286981051042802449e+01
2.560000000000000142e+01 7.200991992580733836e+01
2.600000000000000000e+01 7.117945415642903129e+01
2.640000000000000213e+01 7.037320189966089856e+01
2.680000000000000071e+01 6.959000210353150351e+01
2.719999999999999929e+01 6.882877103470787006e+01
2.760000000000000142e+01 6.825034618176573531e+01
2.800000000000000000e+01 6.757703880443820310e+01
2.840000000000000213e+01 6.692139400543240413e+01
2.880000000000000071e+01 6.628264235740664390e+01
2.920000000000000284e+01 6.566006120730743589e+01
2.960000000000000142e+01 6.505297104136073472e+01
3.000000000000000000e+01 6.446073219265258558e+01
3.040000000000000213e+01 6.388274185348945622e+01
3.080000000000000071e+01 6.331843135949455359e+01
3.120000000000000284e+01 6.276726371648951641e+01
3.160000000000000142e+01 6.222873134473454115e+01
3.200000000000000000e+01 6.278841541105327906e+01
3.240000000000000568e+01 6.229863931352662831e+01
3.279999999999999716e+01 6.181949114020158476e+01
3.320000000000000284e+01 6.135058495907170339e+01
3.360000000000000142e+01 6.088546695346613546e+01
3.400000000000000000e+01 6.042817321309378542e+01
3.440000000000000568e+01 5.998040921905075606e+01
3.479999999999999716e+01 5.954184284104470493e+01
3.520000000000000284e+01 5.878119391666009363e+01
3.560000000000000142e+01 5.837877188861357070e+01
3.600000000000000000e+01 5.798417971281131855e+01
3.640000000000000568e+01 5.759716217536681881e+01
3.679999999999999716e+01 5.721747569621810214e+01
3.720000000000000284e+01 5.684488765038040725e+01
3.760000000000000142e+01 5.650757815000830675e+01
3.800000000000000000e+01 5.615813283667098688e+01
3.840000000000000568e+01 5.581488041406947787e+01
3.879999999999999716e+01 5.547763709213030126e+01
3.920000000000000284e+01 5.514622671060356396e+01
3.960000000000000142e+01 5.482048033350628913e+01
4.000000000000000000e+01 5.450023586975140688e+01
4.040000000000000568e+01 5.418533771797926590e+01
4.079999999999999716e+01 5.395269056463870072e+01
4.120000000000000284e+01 5.365861243723383467e+01
4.160000000000000142e+01 5.336932190081053307e+01
4.200000000000000000e+01 5.308468801483896726e+01
4.239999999999999858e+01 5.280458483313974938e+01
4.280000000000000426e+01 5.252889116081632892e+01
4.320000000000000284e+01 5.225570761478056170e+01
4.360000000000000142e+01 5.198531096217703862e+01
4.400000000000000000e+01 5.171907256428729482e+01
4.439999999999999858e+01 5.145688486879123502e+01
4.480000000000000426e+01 5.119864420780463377e+01
4.520000000000000284e+01 5.093821956886529989e+01
4.560000000000000142e+01 5.067895940806816668e+01
4.600000000000000000e+01 5.042356040974070197e+01
4.639999999999999858e+01 5.017192594417494433e+01
4.680000000000000426e+01 4.992396275901007385e+01
4.720000000000000284e+01 4.967958082841080625e+01
4.760000000000000142e+01 4.943869321041492526e+01
4.800000000000000000e+01 4.920023330150950613e+01
4.840000000000000568e+01 4.882824907510031665e+01
4.880000000000000426e+01 4.859283981328208313e+01
4.920000000000000284e+01 4.836069801594479856e+01
4.960000000000000142e+01 4.816659834985735245e+01
5.000000000000000000e+01 4.794343099722983936e+01
5.040000000000000568e+01 4.772326193461000798e+01
5.080000000000000426e+01 4.750602390685136811e+01
5.120000000000000284e+01 4.729165176074915422e+01
5.160000000000000142e+01 4.708008236116282319e+01
5.200000000000000000e+01 4.687125451119872821e+01
5.240000000000000568e+01 4.666510887622271042e+01
5.280000000000000426e+01 4.646158791148670986e+01
5.320000000000000284e+01 4.626063579316805630e+01
5.360000000000000142e+01 4.606219835263260620e+01
5.400000000000000000e+01 4.586622301374482902e+01
5.440000000000000568e+01 4.567265873305920820e+01
5.480000000000000426e+01 4.548145594273774606e+01
5.520000000000000284e+01 4.529256649604741369e+01
5.560000000000000142e+01 4.510578103497278590e+01
5.600000000000000000e+01 4.491881179307334548e+01
5.640000000000000568e+01 4.473808226824677803e+01
5.680000000000000426e+01 4.455792896688708993e+01
5.720000000000000284e+01 4.437981312228372843e+01
5.760000000000000142e+01 4.420369625573609795e+01
5.800000000000000000e+01 4.402954090695997280e+01
5.840000000000000568e+01 4.404230057554805455e+01
5.880000000000000426e+01 4.387723319737980177e+01
5.920000000000000284e+01 4.371393340625812129e+01
5.960000000000000142e+01 4.355236956304584339e+01
6.000000000000000000e+01 4.339251082199819365e+01
6.040000000000000568e+01 4.323432710519173838e+01
6.080000000000000426e+01 4.307778907795912460e+01
6.120000000000000284e+01 4.292286812528296025e+01
6.160000000000000142e+01 4.276953632910470304e+01
6.200000000000000000e+01 4.261776644650669965e+01
6.240000000000000568e+01 4.246753188872801132e+01
6.280000000000000426e+01 4.231880670097599761e+01
6.320000000000000284e+01 4.217156554299850768e+01
6.360000000000000142e+01 4.202578367038269391e+01
6.400000000000000000e+01 4.188873927504712924e+01
6.440000000000000568e+01 4.174633213315643587e+01
6.480000000000001137e+01 4.160425031389601003e+01
6.520000000000000284e+01 4.146354985989319175e+01
6.559999999999999432e+01 4.132420831526793137e+01
6.600000000000000000e+01 4.118620373535370049e+01
6.640000000000000568e+01 4.104951467174539914e+01
6.680000000000001137e+01 4.096335982943300280e+01
6.720000000000000284e+01 4.083326260905541005e+01
6.759999999999999432e+01 4.070437225601812514e+01
6.800000000000000000e+01 4.057666994315214737e+01
6.840000000000000568e+01 4.045013725596380283e+01
6.880000000000001137e+01 4.032475618099243064e+01
6.920000000000000284e+01 4.020050909456902843e+01
6.959999999999999432e+01 4.007737875195991961e+01
7.000000000000000000e+01 3.995534827687967550e+01
7.040000000000000568e+01 3.983440115135849169e+01
7.080000000000001137e+01 3.971452120595002810e+01
7.120000000000000284e+01 3.959566513697268419e+01
7.159999999999999432e+01 3.947754613680532287e+01
7.200000000000000000e+01 3.935995227316731615e+01
7.240000000000000568e+01 3.924337124609021998e+01
7.280000000000001137e+01 3.912778840869651020e+01
7.320000000000000284e+01 3.901318941149227015e+01
7.359999999999999432e+01 3.889956019459892644e+01
7.400000000000000000e+01 3.878688698023272252e+01
7.440000000000000568e+01 3.868153026004225126e+01
7.479999999999999716e+01 3.857251616528350979e+01
7.520000000000000284e+01 3.846439741246567223e+01
7.560000000000000853e+01 3.835716164113642890e+01
7.600000000000000000e+01 3.825079673041987860e+01
7.640000000000000568e+01 3.814529079304401193e+01
7.679999999999999716e+01 3.804063216954999405e+01
7.720000000000000284e+01 3.793680942267653933e+01
7.760000000000000853e+01 3.783333542155926210e+01
7.800000000000000000e+01 3.773055640876000894e+01
7.840000000000000568e+01 3.762859968947996947e+01
7.879999999999999716e+01 3.752745415082890190e+01
7.920000000000000284e+01 3.742710889064041169e+01
7.960000000000000853e+01 3.732754310952749677e+01
8.000000000000000000e+01 3.722906322629035003e+01
8.040000000000000568e+01 3.713135047940404831e+01
8.079999999999999716e+01 3.703439476968303268e+01
8.120000000000000284e+01 3.693818618459535230e+01
8.160000000000000853e+01 3.684271499383761750e+01
8.200000000000000000e+01 3.674797164503762303e+01
8.240000000000000568e+01 3.665394675958022930e+01
8.279999999999999716e+01 3.656063112855251518e+01
8.320000000000000284e+01 3.646801570880403176e+01
8.360000000000000853e+01 3.637609161911834832e+01
8.400000000000000000e+01 3.628475651226005994e+01
8.440000000000000568e+01 3.619347794020240627e+01
8.479999999999999716e+01 3.610287249439319623e+01
8.520000000000000284e+01 3.601293180922684201e+01
8.560000000000000853e+01 3.592364766506083384e+01
8.600000000000000000e+01 3.583501198494550977e+01
8.640000000000000568e+01 3.574701683144306230e+01
8.680000000000001137e+01 3.565965440353303251e+01
8.720000000000000284e+01 3.557291703360134250e+01
8.760000000000000853e+01 3.548852421801042567e+01
8.800000000000000000e+01 3.540463768668296751e+01
8.840000000000000568e+01 3.532123489919325721e+01
8.880000000000001137e+01 3.523841328486382452e+01
8.920000000000000284e+01 3.515616601942043218e+01
8.960000000000000853e+01 3.507448639100105936e+01
9.000000000000000000e+01 3.499336779777892303e+01
9.040000000000000568e+01 3.491280374564667710e+01
9.080000000000001137e+01 3.483278784596006972e+01
9.120000000000000284e+01 3.475331381333917591e+01
9.160000000000000853e+01 3.467437546352547884e+01
9.200000000000000000e+01 3.459596671129322942e+01
9.240000000000000568e+01 3.451808156841325115e+01
9.280000000000001137e+01 3.444071414166792522e+01
9.320000000000000284e+01 3.436385863091555848e+01
9.360000000000000853e+01 3.428750932720291189e+01
9.400000000000000000e+01 3.421166061092431221e+01
9.440000000000000568e+01 3.413630695002612470e+01
9.480000000000001137e+01 3.408071537905750858e+01
9.520000000000000284e+01 3.400676373947693776e+01
9.560000000000000853e+01 3.393328749430312996e+01
9.600000000000000000e+01 3.386028148664314585e+01
9.640000000000000568e+01 3.378774063816830164e+01
9.680000000000001137e+01 3.371565994757651197e+01
9.720000000000000284e+01 3.364357468769413373e+01
9.760000000000000853e+01 3.357270193848831497e+01
9.800000000000000000e+01 3.350200330105457169e+01
9.840000000000000568e+01 3.343170336632388739e+01
9.880000000000001137e+01 3.336183527030115670e+01
9.920000000000000284e+01 3.329239455802895975e+01
9.960000000000000853e+01 3.322337683908041583e+01
1.000000000000000000e+02 3.315477778635500528e+01
1.004000000000000057e+02 3.308659313490203857e+01
1.008000000000000114e+02 3.301881868077069271e+01
1.012000000000000028e+02 3.295145027988623809e+01
1.016000000000000085e+02 3.288448384695151105e+01
1.020000000000000000e+02 3.281791535437309193e+01
1.024000000000000057e+02 3.275174083121142132e+01
1.028000000000000114e+02 3.268595636215439981e+01
1.032000000000000028e+02 3.262055808651366817e+01
1.036000000000000085e+02 3.255548874811812254e+01
1.040000000000000000e+02 3.249033517690530459e+01
1.044000000000000057e+02 3.242556096806259802e+01
1.048000000000000114e+02 3.236116241512069536e+01
1.052000000000000028e+02 3.229713586242510814e+01
1.056000000000000085e+02 3.223350073331200605e+01
1.060000000000000000e+02 3.217027447117054351e+01
1.064000000000000057e+02 3.210738680540448087e+01
1.068000000000000114e+02 3.204473230724526189e+01
1.072000000000000028e+02 3.198243201545233916e+01
1.076000000000000085e+02 3.192048256302115661e+01
1.080000000000000000e+02 3.185888062788867359e+01
1.084000000000000057e+02 3.179762293216133529e+01
1.088000000000000114e+02 3.173670624135918672e+01
1.092000000000000028e+02 3.167612736367582471e+01
1.096000000000000085e+02 3.161588314925378285e+01
1.100000000000000000e+02 3.155597048947495153e+01
1.104000000000000057e+02 3.149638631626560326e+01
1.108000000000000114e+02 3.143712760141585960e+01
1.112000000000000028e+02 3.138262773238832892e+01
1.116000000000000085e+02 3.132462920508578463e+01
1.120000000000000000e+02 3.126694361974753988e+01
1.124000000000000057e+02 3.120956812923082069e+01
1.128000000000000114e+02 3.115249992283440150e+01
1.132000000000000028e+02 3.109573622569764950e+01
1.136000000000000085e+02 3.103927429821159478e+01
1.140000000000000000e+02 3.098311143544200164e+01
1.144000000000000057e+02 3.092724496656386179e+01
1.148000000000000114e+02 3.087167225430719597e+01
1.152000000000000028e+02 3.081639069441385814e+01
1.156000000000000085e+02 3.076139771510514009e+01
1.160000000000000000e+02 3.070669077655984935e+01
1.164000000000000057e+02 3.065226737040256211e+01
1.168000000000000114e+02 3.059767826389841261e+01
1.172000000000000028e+02 3.054410383993816680e+01
1.176000000000000085e+02 3.048188071452263159e+01
1.180000000000000000e+02 3.042909844763982719e+01
1.184000000000000057e+02 3.037658476919030193e+01
1.188000000000000114e+02 3.032433737377330374e+01
1.192000000000000028e+02 3.027235398383057330e+01
1.196000000000000085e+02 3.022063234921304797e+01
1.200000000000000000e+02 3.016917024675576187e+01
1.204000000000000057e+02 3.011796547986076433e+01
1.208000000000000114e+02 3.006701587808803566e+01
1.212000000000000028e+02 3.001631929675400556e+01
1.216000000000000085e+02 2.996587361653764248e+01
1.220000000000000000e+02 2.991567674309393610e+01
1.224000000000000057e+02 2.986572660667455281e+01
1.228000000000000114e+02 2.982979596576258174e+01
1.232000000000000028e+02 2.978085647728945773e+01
1.236000000000000085e+02 2.973215394921941623e+01
1.240000000000000000e+02 2.968368644437396497e+01
1.244000000000000057e+02 2.963539285533862255e+01
1.248000000000000114e+02 2.958722645011480168e+01
1.252000000000000028e+02 2.953929172313352325e+01
1.256000000000000085e+02 2.949158678754334773e+01
1.260000000000000000e+02 2.944410977814784047e+01
1.264000000000000057e+02 2.939685885108562502e+01
1.268000000000000114e+02 2.934974036351576032e+01
1.272000000000000028e+02 2.930278530649039226e+01
1.276000000000000085e+02 2.925605158161383912e+01
1.280000000000000000e+02 2.920953742206290116e+01
1.284000000000000057e+02 2.916324108089265010e+01
1.288000000000000114e+02 2.911716083074842132e+01
1.291999999999999886e+02 2.907129496358283660e+01
1.296000000000000227e+02 2.902564179037791448e+01
1.300000000000000000e+02 2.897998762046737298e+01
1.304000000000000057e+02 2.893453886008251885e+01
1.308000000000000114e+02 2.888929956155530832e+01
1.311999999999999886e+02 2.884426809488109100e+01
1.316000000000000227e+02 2.879944284790759212e+01
1.320000000000000000e+02 2.875482222608317429e+01
1.324000000000000057e+02 2.871040465220940874e+01
1.328000000000000114e+02 2.866618856619794897e+01
1.331999999999999886e+02 2.862217242483153967e+01
1.336000000000000227e+02 2.857835470152910418e+01
1.340000000000000000e+02 2.853473388611480743e+01
1.344000000000000057e+02 2.849130848459106957e+01
1.348000000000000114e+02 2.844807701891540219e+01
1.351999999999999886e+02 2.840503802678098566e+01
1.356000000000000227e+02 2.836219006140096610e+01
1.360000000000000000e+02 2.831953169129636905e+01
1.364000000000000057e+02 2.827706150008746633e+01
1.368000000000000114e+02 2.823478419493018521e+01
1.371999999999999886e+02 2.819292605702025156e+01
1.376000000000000227e+02 2.815222069842763375e+01
1.380000000000000000e+02 2.811097915152489435e+01
1.384000000000000057e+02 2.806991632130482728e+01
1.388000000000000114e+02 2.802903090211285075e+01
1.392000000000000171e+02 2.798832160170613292e+01
1.395999999999999943e+02 2.794778714107629725e+01
1.400000000000000000e+02 2.790742625427504464e+01
1.404000000000000057e+02 2.786723768824251124e+01
1.408000000000000114e+02 2.782722020263845053e+01
1.412000000000000171e+02 2.778737256967603031e+01
1.415999999999999943e+02 2.774761214478775528e+01
1.420000000000000000e+02 2.770797357009445605e+01
1.424000000000000057e+02 2.766850197982852322e+01
1.428000000000000114e+02 2.763539049062305253e+01
1.432000000000000171e+02 2.759641572235565121e+01
1.435999999999999943e+02 2.755760346741453048e+01
1.440000000000000000e+02 2.751895258306465664e+01
1.444000000000000057e+02 2.748046193787287095e+01
1.448000000000000114e+02 2.744213041156401545e+01
1.452000000000000171e+02 2.740395689487928621e+01
1.455999999999999943e+02 2.736594028943677515e+01
1.460000000000000000e+02 2.732807950759422511e+01
1.464000000000000057e+02 2.729037347231378874e+01
1.468000000000000114e+02 2.725282111702902554e+01
1.472000000000000171e+02 2.721542138551378542e+01
1.475999999999999943e+02 2.717817323175317412e+01
1.480000000000000000e+02 2.714107561981648331e+01
1.484000000000000057e+02 2.710412752373204626e+01
1.488000000000000114e+02 2.706724332780931164e+01
1.492000000000000171e+02 2.703049026001987443e+01
1.495999999999999943e+02 2.699377057169347793e+01
1.500000000000000000e+02 2.695717789679657983e+01
