1.000000000000000000e+01 7.386837192582921716e+02
1.040000000000000036e+01 9.227208724573675909e+02
1.080000000000000071e+01 1.023989245820896713e+03
1.119999999999999929e+01 1.118387505772636814e+03
1.159999999999999964e+01 1.136584902151822462e+03
1.200000000000000000e+01 1.154985183135299167e+03
1.240000000000000036e+01 1.157909650110691246e+03
1.280000000000000071e+01 1.157511831070334665e+03
1.319999999999999929e+01 1.147812939322328248e+03
1.359999999999999964e+01 1.140137614908519936e+03
1.400000000000000000e+01 1.140946688492912699e+03
1.440000000000000036e+01 1.130290041474205736e+03
1.480000000000000071e+01 1.111746381622612034e+03
1.519999999999999929e+01 1.094273185941210841e+03
1.560000000000000142e+01 1.077764677633969313e+03
1.600000000000000000e+01 1.062129733014149224e+03
1.639999999999999858e+01 1.047289289401311635e+03
1.680000000000000071e+01 1.033174307471190332e+03
1.719999999999999929e+01 1.019724149764855497e+03
1.760000000000000142e+01 1.006885276242640316e+03
1.800000000000000000e+01 9.946101845909788608e+02
1.839999999999999858e+01 9.828565417263076824e+02
1.880000000000000071e+01 9.715864662633903208e+02
1.920000000000000284e+01 9.607659313423291678e+02
1.960000000000000142e+01 9.503642642655224790e+02
2.000000000000000000e+01 9.403537246368659908e+02
2.039999999999999858e+01 9.307091466344309083e+02
2.080000000000000071e+01 9.214076340404903931e+02
2.120000000000000284e+01 9.124282989492938896e+02
2.160000000000000142e+01 9.037520368516289864e+02
2.200000000000000000e+01 8.953613321845481323e+02
2.239999999999999858e+01 8.872400895285171600e+02
2.280000000000000071e+01 8.793734865018786877e+02
2.320000000000000284e+01 8.717478450954782829e+02
2.360000000000000142e+01 8.643505187473190290e+02
2.400000000000000000e+01 8.571697929076143510e+02
2.439999999999999858e+01 8.501947972110108367e+02
2.480000000000000071e+01 8.434154276724116244e+02
2.520000000000000284e+01 8.368222775691334618e+02
2.560000000000000142e+01 8.304065758755386923e+02
2.600000000000000000e+01 8.241601322850917768e+02
2.640000000000000213e+01 8.180752879954304717e+02
2.680000000000000071e+01 8.121448715497531339e+02
2.719999999999999929e+01 8.063621591267022950e+02
2.760000000000000142e+01 8.007208387543078061e+02
2.800000000000000000e+01 7.952149779941244105e+02
2.840000000000000213e+01 7.898389947016239603e+02
2.880000000000000071e+01 7.845876305199697072e+02
2.920000000000000284e+01 7.794559268079347021e+02
2.960000000000000142e+01 7.744392027401477208e+02
3.000000000000000000e+01 7.695330353500188494e+02
3.040000000000000213e+01 7.647332413134340641e+02
3.080000000000000071e+01 7.600358602952860565e+02
3.120000000000000284e+01 7.554371397017000618e+02
3.160000000000000142e+01 7.509335206988657774e+02
3.200000000000000000e+01 7.465216253751306112e+02
3.240000000000000568e+01 7.421982449367310437e+02
3.279999999999999716e+01 7.379603288395702521e+02
3.320000000000000284e+01 7.338049747699803902e+02
3.360000000000000142e+01 7.297294193966765761e+02
3.400000000000000000e+01 7.257310298242578028e+02
3.440000000000000568e+01 7.218072956858138696e+02
3.479999999999999716e+01 7.179558218185504757e+02
3.520000000000000284e+01 7.141743214719805337e+02
3.560000000000000142e+01 7.104606100032281120e+02
3.600000000000000000e+01 7.068125990184314560e+02
3.640000000000000568e+01 7.032282909231814756e+02
3.679999999999999716e+01 6.997057738484672882e+02
3.720000000000000284e+01 6.962432169217338469e+02
3.760000000000000142e+01 6.928388658554915764e+02
3.800000000000000000e+01 6.894910388284199598e+02
3.840000000000000568e+01 6.861981226361891686e+02
3.879999999999999716e+01 6.829585690912446125e+02
3.920000000000000284e+01 6.797708916526323719e+02
3.960000000000000142e+01 6.766336622685956854e+02
4.000000000000000000e+01 6.735455084161494597e+02
4.040000000000000568e+01 6.705051103231928664e+02
4.079999999999999716e+01 6.675111983599274481e+02
4.120000000000000284e+01 6.645625505874495502e+02
4.160000000000000142e+01 6.616579904523815685e+02
4.200000000000000000e+01 6.587963846173147431e+02
4.239999999999999858e+01 6.559766409176512525e+02
4.280000000000000426e+01 6.531977064361874454e+02
4.320000000000000284e+01 6.504585656874556889e+02
4.360000000000000142e+01 6.477582389044673619e+02
4.400000000000000000e+01 6.450957804210594304e+02
4.439999999999999858e+01 6.424702771435732984e+02
4.480000000000000426e+01 6.398808471060547163e+02
4.520000000000000284e+01 6.373266381036112307e+02
4.560000000000000142e+01 6.348068263989457591e+02
4.600000000000000000e+01 6.323206154974584479e+02
4.639999999999999858e+01 6.298672349866378681e+02
4.680000000000000426e+01 6.274459394357694464e+02
4.720000000000000284e+01 6.250560073522713083e+02
4.760000000000000142e+01 6.226967401912264677e+02
4.800000000000000000e+01 6.203674614149203990e+02
4.840000000000000568e+01 6.180675155994086936e+02
4.880000000000000426e+01 6.157962675853498240e+02
4.920000000000000284e+01 6.135531016705147067e+02
4.960000000000000142e+01 6.113374208415696103e+02
5.000000000000000000e+01 6.091486460428811824e+02
5.040000000000000568e+01 6.069862154802386840e+02
5.080000000000000426e+01 6.048495839575359696e+02
5.120000000000000284e+01 6.027382222445692150e+02
5.160000000000000142e+01 6.006516164742333785e+02
5.200000000000000000e+01 5.985892675675094097e+02
5.240000000000000568e+01 5.965506906847265327e+02
5.280000000000000426e+01 5.945354147016915931e+02
5.320000000000000284e+01 5.925429817093531710e+02
5.360000000000000142e+01 5.905729465357555910e+02
5.400000000000000000e+01 5.886248762891143542e+02
5.440000000000000568e+01 5.866983499209109141e+02
5.480000000000000426e+01 5.847929578079737212e+02
5.520000000000000284e+01 5.829083013525748811e+02
5.560000000000000142e+01 5.810439925996229249e+02
5.600000000000000000e+01 5.791996538700950623e+02
5.640000000000000568e+01 5.773749174098933281e+02
5.680000000000000426e+01 5.755694250533607601e+02
5.720000000000000284e+01 5.737828279007360379e+02
5.760000000000000142e+01 5.720147860088655989e+02
5.800000000000000000e+01 5.702649680945305590e+02
5.840000000000000568e+01 5.685330512497830568e+02
5.880000000000000426e+01 5.668187206687164235e+02
5.920000000000000284e+01 5.651216693851298487e+02
5.960000000000000142e+01 5.634415980205742471e+02
6.000000000000000000e+01 5.617782145422943358e+02
6.040000000000000568e+01 5.601312340306096758e+02
6.080000000000000426e+01 5.585003784552998241e+02
6.120000000000000284e+01 5.568853764605823926e+02
6.160000000000000142e+01 5.552859631582953170e+02
6.200000000000000000e+01 5.537018799289129447e+02
6.240000000000000568e+01 5.521328742300463546e+02
6.280000000000000426e+01 5.505786994120970803e+02
6.320000000000000284e+01 5.490391145407462545e+02
6.360000000000000142e+01 5.475138842259832472e+02
6.400000000000000000e+01 5.460027784573867393e+02
6.440000000000000568e+01 5.445055724453910670e+02
6.480000000000001137e+01 5.430220464682779493e+02
6.520000000000000284e+01 5.415519857246553102e+02
6.559999999999999432e+01 5.400951801911832035e+02
6.600000000000000000e+01 5.386514244853344735e+02
6.640000000000000568e+01 5.372205177329743719e+02
6.680000000000001137e+01 5.358022634405629105e+02
6.720000000000000284e+01 5.343964693717858836e+02
6.759999999999999432e+01 5.330029474284384605e+02
6.800000000000000000e+01 5.316215135353826327e+02
6.840000000000000568e+01 5.302519875294185567e+02
6.880000000000001137e+01 5.288941930519105199e+02
6.920000000000000284e+01 5.275479574450176870e+02
6.959999999999999432e+01 5.262131116513880897e+02
7.000000000000000000e+01 5.248894901171776155e+02
7.040000000000000568e+01 5.235769306982659828e+02
7.080000000000001137e+01 5.222752745695428302e+02
7.120000000000000284e+01 5.209843661371480721e+02
7.159999999999999432e+01 5.197040529535497626e+02
7.200000000000000000e+01 5.184341856353545381e+02
7.240000000000000568e+01 5.171746177837434288e+02
7.280000000000001137e+01 5.159252059074372028e+02
7.320000000000000284e+01 5.146858093480935850e+02
7.359999999999999432e+01 5.134562902080477897e+02
7.400000000000000000e+01 5.122365132803071219e+02
7.440000000000000568e+01 5.110263459807207482e+02
7.479999999999999716e+01 5.098256582822389191e+02
7.520000000000000284e+01 5.086343226511903595e+02
7.560000000000000853e+01 5.074522139855041587e+02
7.600000000000000000e+01 5.062792095548022644e+02
7.640000000000000568e+01 5.051151889423018133e+02
7.679999999999999716e+01 5.039600339884563027e+02
7.720000000000000284e+01 5.028136287362792700e+02
7.760000000000000853e+01 5.016758593782879529e+02
7.800000000000000000e+01 5.005466142050117924e+02
7.840000000000000568e+01 4.994257835550114919e+02
7.879999999999999716e+01 4.983132597663539514e+02
7.920000000000000284e+01 4.972089371294956663e+02
7.960000000000000853e+01 4.961127118415262771e+02
8.000000000000000000e+01 4.950244819617229268e+02
8.040000000000000568e+01 4.939441473683735921e+02
8.079999999999999716e+01 4.928716097168278338e+02
8.120000000000000284e+01 4.918067723987289810e+02
8.160000000000000853e+01 4.907495405023934723e+02
8.200000000000000000e+01 4.896998207742969953e+02
8.240000000000000568e+01 4.886575215816295099e+02
8.279999999999999716e+01 4.876225528758876635e+02
8.320000000000000284e+01 4.865948261574670255e+02
8.360000000000000853e+01 4.855742544412241841e+02
8.400000000000000000e+01 4.845607522229757365e+02
8.440000000000000568e+01 4.835542354469054089e+02
8.479999999999999716e+01 4.825546214738488970e+02
8.520000000000000284e+01 4.815618290504298784e+02
8.560000000000000853e+01 4.805757782790180386e+02
8.600000000000000000e+01 4.795963905884868836e+02
8.640000000000000568e+01 4.786235887057413265e+02
8.680000000000001137e+01 4.776572966279959473e+02
8.720000000000000284e+01 4.766974395957772117e+02
8.760000000000000853e+01 4.757439440666282167e+02
8.800000000000000000e+01 4.747967376894953873e+02
8.840000000000000568e+01 4.738557492797744430e+02
8.880000000000001137e+01 4.729209087949974446e+02
8.920000000000000284e+01 4.719921473111393766e+02
8.960000000000000853e+01 4.710693969995280668e+02
9.000000000000000000e+01 4.701525911043366364e+02
9.040000000000000568e+01 4.692416639206439868e+02
9.080000000000001137e+01 4.683365507730427453e+02
9.120000000000000284e+01 4.674371879947829598e+02
9.160000000000000853e+01 4.665435129074310225e+02
9.200000000000000000e+01 4.656554638010333633e+02
9.240000000000000568e+01 4.647729799147658696e+02
9.280000000000001137e+01 4.638960014180578355e+02
9.320000000000000284e+01 4.630244693921760017e+02
9.360000000000000853e+01 4.621583258122544748e+02
9.400000000000000000e+01 4.612975135297592146e+02
9.440000000000000568e+01 4.604419762553734472e+02
9.480000000000001137e+01 4.595916585422926346e+02
9.520000000000000284e+01 4.587465057699174622e+02
9.560000000000000853e+01 4.579064641279337025e+02
9.600000000000000000e+01 4.570714806007673019e+02
9.640000000000000568e+01 4.562415029524051420e+02
9.680000000000001137e+01 4.554164797115714123e+02
9.720000000000000284e+01 4.545963601572487391e+02
9.760000000000000853e+01 4.537810943045351451e+02
9.800000000000000000e+01 4.529706328908287105e+02
9.840000000000000568e+01 4.521649273623277736e+02
9.880000000000001137e+01 4.513639298608431432e+02
9.920000000000000284e+01 4.505675932109080577e+02
9.960000000000000853e+01 4.497758709071834460e+02
1.000000000000000000e+02 4.489887171021455288e+02
1.004000000000000057e+02 4.482060865940522376e+02
1.008000000000000114e+02 4.474279348151789009e+02
1.012000000000000028e+02 4.466542178203163189e+02
1.016000000000000085e+02 4.458848922755245781e+02
1.020000000000000000e+02 4.451199154471360657e+02
1.024000000000000057e+02 4.443592451910008094e+02
1.028000000000000114e+02 4.436028399419677726e+02
1.032000000000000028e+02 4.428506587035961957e+02
1.036000000000000085e+02 4.421026610380914121e+02
1.040000000000000000e+02 4.413588070564583177e+02
1.044000000000000057e+02 4.406190574088673202e+02
1.048000000000000114e+02 4.398833732752291326e+02
1.052000000000000028e+02 4.391517163559692563e+02
1.056000000000000085e+02 4.384240488630009622e+02
1.060000000000000000e+02 4.377003335108892657e+02
1.064000000000000057e+02 4.369805335082031092e+02
1.068000000000000114e+02 4.362646125490480813e+02
1.072000000000000028e+02 4.355525348047785315e+02
1.076000000000000085e+02 4.348442649158828317e+02
1.080000000000000000e+02 4.341397679840368937e+02
1.084000000000000057e+02 4.334390095643236691e+02
1.088000000000000114e+02 4.327419556576125501e+02
1.092000000000000028e+02 4.320485727030973067e+02
1.096000000000000085e+02 4.313588275709849427e+02
1.100000000000000000e+02 4.306726875553358127e+02
1.104000000000000057e+02 4.299901203670488030e+02
1.108000000000000114e+02 4.293110941269888485e+02
1.112000000000000028e+02 4.286355773592534320e+02
1.116000000000000085e+02 4.279635389845745976e+02
1.120000000000000000e+02 4.272949483138530695e+02
1.124000000000000057e+02 4.266297750418219721e+02
1.128000000000000114e+02 4.259679892408366868e+02
1.132000000000000028e+02 4.253095613547871494e+02
1.136000000000000085e+02 4.246544621931315646e+02
1.140000000000000000e+02 4.240026629250464794e+02
1.144000000000000057e+02 4.233541350736923050e+02
1.148000000000000114e+02 4.227088505105910485e+02
1.152000000000000028e+02 4.220667814501121029e+02
1.156000000000000085e+02 4.214279004440675180e+02
1.160000000000000000e+02 4.207921803764091919e+02
1.164000000000000057e+02 4.201595944580294599e+02
1.168000000000000114e+02 4.195301162216618422e+02
1.172000000000000028e+02 4.189037195168782546e+02
1.176000000000000085e+02 4.182803785051818863e+02
1.180000000000000000e+02 4.176600676551943820e+02
1.184000000000000057e+02 4.170427617379316985e+02
1.188000000000000114e+02 4.164284358221715934e+02
1.192000000000000028e+02 4.158170652699062657e+02
1.196000000000000085e+02 4.152086257318811136e+02
1.200000000000000000e+02 4.146030931432163698e+02
1.204000000000000057e+02 4.140004437191099100e+02
1.208000000000000114e+02 4.134006539506204945e+02
1.212000000000000028e+02 4.128037006005278613e+02
1.216000000000000085e+02 4.122095606992692183e+02
1.220000000000000000e+02 4.116182115409508242e+02
1.224000000000000057e+02 4.110296306794321595e+02
1.228000000000000114e+02 4.104437959244806393e+02
1.232000000000000028e+02 4.098606853379973245e+02
1.236000000000000085e+02 4.092802772303099346e+02
1.240000000000000000e+02 4.087025501565334480e+02
1.244000000000000057e+02 4.081274829129953332e+02
1.248000000000000114e+02 4.075550545337250696e+02
1.252000000000000028e+02 4.069852442870067080e+02
1.256000000000000085e+02 4.064180316719924235e+02
1.260000000000000000e+02 4.058533964153755278e+02
1.264000000000000057e+02 4.052913184681234497e+02
1.268000000000000114e+02 4.047317780022668785e+02
1.272000000000000028e+02 4.041747554077468294e+02
1.276000000000000085e+02 4.036202312893151429e+02
1.280000000000000000e+02 4.030681864634906333e+02
1.284000000000000057e+02 4.025186019555666803e+02
1.288000000000000114e+02 4.019714589966719700e+02
1.291999999999999886e+02 4.014267390208812003e+02
1.296000000000000227e+02 4.008844236623750703e+02
1.300000000000000000e+02 4.003444947526509168e+02
1.304000000000000057e+02 3.998069343177782002e+02
1.308000000000000114e+02 3.992717245757038427e+02
1.311999999999999886e+02 3.987388479336003684e+02
1.316000000000000227e+02 3.982082869852616795e+02
1.320000000000000000e+02 3.976800245085406118e+02
1.324000000000000057e+02 3.971540434628310550e+02
1.328000000000000114e+02 3.966303269865916832e+02
1.331999999999999886e+02 3.961088583949111808e+02
1.336000000000000227e+02 3.955896211771141679e+02
1.340000000000000000e+02 3.950725989944068033e+02
1.344000000000000057e+02 3.945577756775614944e+02
1.348000000000000114e+02 3.940451352246400347e+02
1.351999999999999886e+02 3.935346617987532909e+02
1.356000000000000227e+02 3.930263397258593159e+02
1.360000000000000000e+02 3.925201534925962505e+02
1.364000000000000057e+02 3.920160877441504113e+02
1.368000000000000114e+02 3.915141272821602456e+02
1.371999999999999886e+02 3.910142570626533711e+02
1.376000000000000227e+02 3.905164621940169241e+02
1.380000000000000000e+02 3.900207279350013323e+02
1.384000000000000057e+02 3.895270396927552383e+02
1.388000000000000114e+02 3.890353830208929367e+02
1.392000000000000171e+02 3.885457436175915973e+02
1.395999999999999943e+02 3.880581073237202077e+02
1.400000000000000000e+02 3.875724601209959133e+02
1.404000000000000057e+02 3.870887881301724747e+02
1.408000000000000114e+02 3.866070776092551569e+02
1.412000000000000171e+02 3.861273149517442107e+02
1.415999999999999943e+02 3.856494866849070036e+02
1.420000000000000000e+02 3.851735794680747631e+02
1.424000000000000057e+02 3.846995800909693344e+02
1.428000000000000114e+02 3.842274754720522196e+02
1.432000000000000171e+02 3.837572526569025513e+02
1.435999999999999943e+02 3.832888988166178024e+02
1.440000000000000000e+02 3.828224012462401902e+02
1.444000000000000057e+02 3.823577473632072952e+02
1.448000000000000114e+02 3.818949247058260426e+02
1.452000000000000171e+02 3.814339209317705581e+02
1.455999999999999943e+02 3.809747238166022498e+02
1.460000000000000000e+02 3.805173212523125130e+02
1.464000000000000057e+02 3.800617012458885711e+02
1.468000000000000114e+02 3.796078519178995521e+02
1.472000000000000171e+02 3.791557615011043367e+02
1.475999999999999943e+02 3.787054183390812341e+02
1.480000000000000000e+02 3.782568108848763018e+02
1.484000000000000057e+02 3.778099276996745743e+02
1.488000000000000114e+02 3.773647574514880034e+02
1.492000000000000171e+02 3.769212889138653395e+02
1.495999999999999943e+02 3.764795109646199762e+02
1.500000000000000000e+02 3.760394125845768940e+02
