1.000000000000000000e+01 3.388294560784881924e+02
1.040000000000000036e+01 4.407900246781936175e+02
1.080000000000000071e+01 5.118550595904083025e+02
1.119999999999999929e+01 5.712652573694417697e+02
1.159999999999999964e+01 5.908391568499612276e+02
1.200000000000000000e+01 6.261536563518569665e+02
1.240000000000000036e+01 6.391425183606845621e+02
1.280000000000000071e+01 6.491429738757540235e+02
1.319999999999999929e+01 6.486642914358180860e+02
1.359999999999999964e+01 6.486849330798166875e+02
1.400000000000000000e+01 6.580306142088953720e+02
1.440000000000000036e+01 6.593630209348528979e+02
1.480000000000000071e+01 6.474259531892029145e+02
1.519999999999999929e+01 6.362321902791359207e+02
1.560000000000000142e+01 6.257031321109066084e+02
1.600000000000000000e+01 6.157717774438985998e+02
1.639999999999999858e+01 6.063805474243812341e+02
1.680000000000000071e+01 5.974796006559829493e+02
1.719999999999999929e+01 5.890255110243305126e+02
1.760000000000000142e+01 5.809802176117626686e+02
1.800000000000000000e+01 5.733101816632026839e+02
1.839999999999999858e+01 5.659857031597607602e+02
1.880000000000000071e+01 5.589803618691155407e+02
1.920000000000000284e+01 5.522705565048077005e+02
1.960000000000000142e+01 5.458351219597486761e+02
2.000000000000000000e+01 5.396550092203088980e+02
2.039999999999999858e+01 5.337130160117828837e+02
2.080000000000000071e+01 5.279935588121730916e+02
2.120000000000000284e+01 5.224824788337805330e+02
2.160000000000000142e+01 5.171668760761324393e+02
2.200000000000000000e+01 5.120349667169754184e+02
2.239999999999999858e+01 5.070759600153138535e+02
2.280000000000000071e+01 5.022799516136778948e+02
2.320000000000000284e+01 4.976378306916241741e+02
2.360000000000000142e+01 4.931411988728639244e+02
2.400000000000000000e+01 4.887822991498924239e+02
2.439999999999999858e+01 4.845539533818833320e+02
2.480000000000000071e+01 4.804495071586673021e+02
2.520000000000000284e+01 4.764627810171793953e+02
2.560000000000000142e+01 4.725880271556274010e+02
2.600000000000000000e+01 4.688198909216595212e+02
2.640000000000000213e+01 4.651533764593705200e+02
2.680000000000000071e+01 4.615838159903275937e+02
2.719999999999999929e+01 4.581068422792972683e+02
2.760000000000000142e+01 4.547183638986973619e+02
2.800000000000000000e+01 4.514145429591432617e+02
2.840000000000000213e+01 4.481917750185533578e+02
2.880000000000000071e+01 4.450466709205221605e+02
2.920000000000000284e+01 4.419760403452229980e+02
2.960000000000000142e+01 4.389768768838848700e+02
3.000000000000000000e+01 4.360463444716906452e+02
3.040000000000000213e+01 4.331817650343792820e+02
3.080000000000000071e+01 4.303806072214368328e+02
3.120000000000000284e+01 4.276404761139694983e+02
3.160000000000000142e+01 4.249591038085093260e+02
3.200000000000000000e+01 4.223343407894390111e+02
3.240000000000000568e+01 4.197641480126615079e+02
3.279999999999999716e+01 4.172465896318159366e+02
3.320000000000000284e+01 4.147798263059270312e+02
3.360000000000000142e+01 4.123621090340168962e+02
3.400000000000000000e+01 4.099917734680424246e+02
3.440000000000000568e+01 4.076672346606548558e+02
3.479999999999999716e+01 4.053869822088006458e+02
3.520000000000000284e+01 4.031495757581827775e+02
3.560000000000000142e+01 4.009536408371334346e+02
3.600000000000000000e+01 3.987978649915868345e+02
3.640000000000000568e+01 3.966809941956244643e+02
3.679999999999999716e+01 3.946018295145418051e+02
3.720000000000000284e+01 3.925592239995892783e+02
3.760000000000000142e+01 3.905520797955158514e+02
3.800000000000000000e+01 3.885793454437958303e+02
3.840000000000000568e+01 3.866400133660029041e+02
3.879999999999999716e+01 3.847331175132029557e+02
3.920000000000000284e+01 3.828577311685075415e+02
3.960000000000000142e+01 3.810129648910718174e+02
4.000000000000000000e+01 3.791979645908438670e+02
4.040000000000000568e+01 3.774119097243013812e+02
4.079999999999999716e+01 3.756540116022450775e+02
4.120000000000000284e+01 3.739235118014739783e+02
4.160000000000000142e+01 3.722196806728511547e+02
4.200000000000000000e+01 3.705418159388877939e+02
4.239999999999999858e+01 3.688892413745326735e+02
4.280000000000000426e+01 3.672613055653689571e+02
4.320000000000000284e+01 3.656573807378780430e+02
4.360000000000000142e+01 3.640768616568565221e+02
4.400000000000000000e+01 3.625191645854532112e+02
4.439999999999999858e+01 3.609837263036484387e+02
4.480000000000000426e+01 3.594700031813106875e+02
4.520000000000000284e+01 3.579774703022666245e+02
4.560000000000000142e+01 3.565056206360804936e+02
4.600000000000000000e+01 3.550539642544887897e+02
4.639999999999999858e+01 3.536220275896579892e+02
4.680000000000000426e+01 3.522093527316409336e+02
4.720000000000000284e+01 3.508154967625942504e+02
4.760000000000000142e+01 3.494400311254945564e+02
4.800000000000000000e+01 3.480825410252518850e+02
4.840000000000000568e+01 3.467426248602616852e+02
4.880000000000000426e+01 3.454198936825786745e+02
4.920000000000000284e+01 3.441139706850134985e+02
4.960000000000000142e+01 3.428244907135747326e+02
5.000000000000000000e+01 3.415510998037817672e+02
5.040000000000000568e+01 3.402934547394717697e+02
5.080000000000000426e+01 3.390512226328193037e+02
5.120000000000000284e+01 3.378240805243650016e+02
5.160000000000000142e+01 3.366117150019331348e+02
5.200000000000000000e+01 3.354138218373884115e+02
5.240000000000000568e+01 3.342301056402468475e+02
5.280000000000000426e+01 3.330602795272222920e+02
5.320000000000000284e+01 3.319040648068440760e+02
5.360000000000000142e+01 3.307611906783368454e+02
5.400000000000000000e+01 3.296313939440034346e+02
5.440000000000000568e+01 3.285144187343973954e+02
5.480000000000000426e+01 3.274100162456154521e+02
5.520000000000000284e+01 3.263179444880806841e+02
5.560000000000000142e+01 3.252379680462242959e+02
5.600000000000000000e+01 3.241698578485087978e+02
5.640000000000000568e+01 3.231133909472695223e+02
5.680000000000000426e+01 3.220683503078787453e+02
5.720000000000000284e+01 3.210345246067698781e+02
5.760000000000000142e+01 3.200117080378807941e+02
5.800000000000000000e+01 3.189997001271041768e+02
5.840000000000000568e+01 3.179983055543543173e+02
5.880000000000000426e+01 3.170073339828821872e+02
5.920000000000000284e+01 3.160265998954898805e+02
5.960000000000000142e+01 3.150559224373175766e+02
6.000000000000000000e+01 3.140951252648905552e+02
6.040000000000000568e+01 3.131440364011333486e+02
6.080000000000000426e+01 3.122024880960727273e+02
6.120000000000000284e+01 3.112703166929670147e+02
6.160000000000000142e+01 3.103473624996119042e+02
6.200000000000000000e+01 3.094334696645868235e+02
6.240000000000000568e+01 3.085284860582188458e+02
6.280000000000000426e+01 3.076322631580522966e+02
6.320000000000000284e+01 3.067446559386217473e+02
6.360000000000000142e+01 3.058655227653392785e+02
6.400000000000000000e+01 3.049947252923140582e+02
6.440000000000000568e+01 3.041321283639327930e+02
6.480000000000001137e+01 3.032775999200375736e+02
6.520000000000000284e+01 3.024310109045466675e+02
6.559999999999999432e+01 3.015922351773697869e+02
6.600000000000000000e+01 3.007611494294791328e+02
6.640000000000000568e+01 2.999376331010019499e+02
6.680000000000001137e+01 2.991215683022076632e+02
6.720000000000000284e+01 2.983128397372699965e+02
6.759999999999999432e+01 2.975113346306882249e+02
6.800000000000000000e+01 2.967169426562584249e+02
6.840000000000000568e+01 2.959295558684908656e+02
6.880000000000001137e+01 2.951490686363732152e+02
6.920000000000000284e+01 2.943753775793862815e+02
6.959999999999999432e+01 2.936083815056808248e+02
7.000000000000000000e+01 2.928479813523295547e+02
7.040000000000000568e+01 2.920940801275730792e+02
7.080000000000001137e+01 2.913465828549794310e+02
7.120000000000000284e+01 2.906053965194446391e+02
7.159999999999999432e+01 2.898704300149607889e+02
7.200000000000000000e+01 2.891415940940842688e+02
7.240000000000000568e+01 2.884188013190392894e+02
7.280000000000001137e+01 2.877019660143930082e+02
7.320000000000000284e+01 2.869910042212439407e+02
7.359999999999999432e+01 2.862858336528653922e+02
7.400000000000000000e+01 2.855863736517504776e+02
7.440000000000000568e+01 2.848925451480060929e+02
7.479999999999999716e+01 2.842042706190450190e+02
7.520000000000000284e+01 2.835214740505297186e+02
7.560000000000000853e+01 2.828440808985211561e+02
7.600000000000000000e+01 2.821720180527887578e+02
7.640000000000000568e+01 2.815052138012396199e+02
7.679999999999999716e+01 2.808435977954273994e+02
7.720000000000000284e+01 2.801871010171000762e+02
7.760000000000000853e+01 2.795356557457525355e+02
7.800000000000000000e+01 2.788891955271461143e+02
7.840000000000000568e+01 2.782476551427619142e+02
7.879999999999999716e+01 2.776109705801557084e+02
7.920000000000000284e+01 2.769790790041811306e+02
7.960000000000000853e+01 2.763519187290546029e+02
8.000000000000000000e+01 2.757294291912286326e+02
8.040000000000000568e+01 2.751115509230493217e+02
8.079999999999999716e+01 2.744982255271698932e+02
8.120000000000000284e+01 2.738893956516942580e+02
8.160000000000000853e+01 2.732850049660273157e+02
8.200000000000000000e+01 2.726849981374066374e+02
8.240000000000000568e+01 2.720893208080942713e+02
8.279999999999999716e+01 2.714979195732063317e+02
8.320000000000000284e+01 2.709107419591582016e+02
8.360000000000000853e+01 2.703277364027073872e+02
8.400000000000000000e+01 2.697488522305723109e+02
8.440000000000000568e+01 2.691740396396092478e+02
8.479999999999999716e+01 2.686032496775301865e+02
8.520000000000000284e+01 2.680364342241421127e+02
8.560000000000000853e+01 2.674735459730932234e+02
8.600000000000000000e+01 2.669145384141087334e+02
8.640000000000000568e+01 2.663593658157006416e+02
8.680000000000001137e+01 2.658079832083375891e+02
8.720000000000000284e+01 2.652603463680589471e+02
8.760000000000000853e+01 2.647164118005204614e+02
8.800000000000000000e+01 2.641761367254570132e+02
8.840000000000000568e+01 2.636394790615510715e+02
8.880000000000001137e+01 2.631063974116925692e+02
8.920000000000000284e+01 2.625768510486192895e+02
8.960000000000000853e+01 2.620507999009265063e+02
9.000000000000000000e+01 2.615282045394330908e+02
9.040000000000000568e+01 2.610090261638955553e+02
9.080000000000001137e+01 2.604932265900574180e+02
9.120000000000000284e+01 2.599807682370255861e+02
9.160000000000000853e+01 2.594716141149625628e+02
9.200000000000000000e+01 2.589657278130864597e+02
9.240000000000000568e+01 2.584630734879689271e+02
9.280000000000001137e+01 2.579636158521223592e+02
9.320000000000000284e+01 2.574673201628679635e+02
9.360000000000000853e+01 2.569741522114767918e+02
9.400000000000000000e+01 2.564840783125757184e+02
9.440000000000000568e+01 2.559970652938099818e+02
9.480000000000001137e+01 2.555130804857566886e+02
9.520000000000000284e+01 2.550320917120798185e+02
9.560000000000000853e+01 2.545540672799220374e+02
9.600000000000000000e+01 2.540789759705249651e+02
9.640000000000000568e+01 2.536067870300725247e+02
9.680000000000001137e+01 2.531374701607505813e+02
9.720000000000000284e+01 2.526709955120171571e+02
9.760000000000000853e+01 2.522073336720767145e+02
9.800000000000000000e+01 2.517464556595539875e+02
9.840000000000000568e+01 2.512883329153605700e+02
9.880000000000001137e+01 2.508329372947501383e+02
9.920000000000000284e+01 2.503802410595561980e+02
9.960000000000000853e+01 2.499302168706082341e+02
1.000000000000000000e+02 2.494828377803204660e+02
1.004000000000000057e+02 2.490380772254496264e+02
1.008000000000000114e+02 2.485959090200164496e+02
1.012000000000000028e+02 2.481563073483867186e+02
1.016000000000000085e+02 2.477192467585075235e+02
1.020000000000000000e+02 2.472847021552950935e+02
1.024000000000000057e+02 2.468526487941695109e+02
1.028000000000000114e+02 2.464230622747326720e+02
1.032000000000000028e+02 2.459959185345863091e+02
1.036000000000000085e+02 2.455711938432854140e+02
1.040000000000000000e+02 2.451488647964243341e+02
1.044000000000000057e+02 2.447289083098518745e+02
1.048000000000000114e+02 2.443113016140119385e+02
1.052000000000000028e+02 2.438960222484066378e+02
1.056000000000000085e+02 2.434830480561786885e+02
1.060000000000000000e+02 2.430723571788100799e+02
1.064000000000000057e+02 2.426639280509341745e+02
1.068000000000000114e+02 2.422577393952578007e+02
1.072000000000000028e+02 2.418537702175918298e+02
1.076000000000000085e+02 2.414519998019858917e+02
1.080000000000000000e+02 2.410524077059659760e+02
1.084000000000000057e+02 2.406549737558714526e+02
1.088000000000000114e+02 2.402596780422899485e+02
1.092000000000000028e+02 2.398665009155865562e+02
1.096000000000000085e+02 2.394754229815260658e+02
1.100000000000000000e+02 2.390864250969853231e+02
1.104000000000000057e+02 2.386994883657538935e+02
1.108000000000000114e+02 2.383145941344204175e+02
1.112000000000000028e+02 2.379317239883432649e+02
1.116000000000000085e+02 2.375508597477027593e+02
1.120000000000000000e+02 2.371719834636333530e+02
1.124000000000000057e+02 2.367950774144340187e+02
1.128000000000000114e+02 2.364201241018546398e+02
1.132000000000000028e+02 2.360471062474564974e+02
1.136000000000000085e+02 2.356760067890460277e+02
1.140000000000000000e+02 2.353068088771784687e+02
1.144000000000000057e+02 2.349394958717316229e+02
1.148000000000000114e+02 2.345740513385467523e+02
1.152000000000000028e+02 2.342104590461352700e+02
1.156000000000000085e+02 2.338487029624506590e+02
1.160000000000000000e+02 2.334887672517224644e+02
1.164000000000000057e+02 2.331306362713523015e+02
1.168000000000000114e+02 2.327742945688701184e+02
1.172000000000000028e+02 2.324197268789488646e+02
1.176000000000000085e+02 2.320669181204766289e+02
1.180000000000000000e+02 2.317158533936851086e+02
1.184000000000000057e+02 2.313665179773324212e+02
1.188000000000000114e+02 2.310188973259402871e+02
1.192000000000000028e+02 2.306729770670823996e+02
1.196000000000000085e+02 2.303287429987254598e+02
1.200000000000000000e+02 2.299861810866189558e+02
1.204000000000000057e+02 2.296452774617347643e+02
1.208000000000000114e+02 2.293060184177541601e+02
1.212000000000000028e+02 2.289683904086019197e+02
1.216000000000000085e+02 2.286323800460258724e+02
1.220000000000000000e+02 2.282979740972214415e+02
1.224000000000000057e+02 2.279651594825002121e+02
1.228000000000000114e+02 2.276339232730005904e+02
1.232000000000000028e+02 2.273042526884413519e+02
1.236000000000000085e+02 2.269761350949152074e+02
1.240000000000000000e+02 2.266495580027232677e+02
1.244000000000000057e+02 2.263245090642483603e+02
1.248000000000000114e+02 2.260009760718667167e+02
1.252000000000000028e+02 2.256789469558976009e+02
1.256000000000000085e+02 2.253584097825893764e+02
1.260000000000000000e+02 2.250393527521415535e+02
1.264000000000000057e+02 2.247217641967625639e+02
1.268000000000000114e+02 2.244056325787614696e+02
1.272000000000000028e+02 2.240909464886736941e+02
1.276000000000000085e+02 2.237776946434200909e+02
1.280000000000000000e+02 2.234658658844976458e+02
1.284000000000000057e+02 2.231554491762029784e+02
1.288000000000000114e+02 2.228464336038856572e+02
1.291999999999999886e+02 2.225388083722332624e+02
1.296000000000000227e+02 2.222325628035846989e+02
1.300000000000000000e+02 2.219276863362743484e+02
1.304000000000000057e+02 2.216241685230033625e+02
1.308000000000000114e+02 2.213219990292397483e+02
1.311999999999999886e+02 2.210211676316458238e+02
1.316000000000000227e+02 2.207216642165321332e+02
1.320000000000000000e+02 2.204234787783379659e+02
1.324000000000000057e+02 2.201266014181380797e+02
1.328000000000000114e+02 2.198310223421735259e+02
1.331999999999999886e+02 2.195367318604087075e+02
1.336000000000000227e+02 2.192437203851115726e+02
1.340000000000000000e+02 2.189519784294581086e+02
1.344000000000000057e+02 2.186614966061602274e+02
1.348000000000000114e+02 2.183722656261161319e+02
1.351999999999999886e+02 2.180842762970835338e+02
1.356000000000000227e+02 2.177975195223743583e+02
1.360000000000000000e+02 2.175119862995717313e+02
1.364000000000000057e+02 2.172276677192670036e+02
1.368000000000000114e+02 2.169445549638185184e+02
1.371999999999999886e+02 2.166626393061302451e+02
1.376000000000000227e+02 2.163819121084501091e+02
1.380000000000000000e+02 2.161023648211884165e+02
1.384000000000000057e+02 2.158239889817545532e+02
1.388000000000000114e+02 2.155467762134138070e+02
1.392000000000000171e+02 2.152707182241611577e+02
1.395999999999999943e+02 2.149958068056142508e+02
1.400000000000000000e+02 2.147220338319231701e+02
1.404000000000000057e+02 2.144493912586988245e+02
1.408000000000000114e+02 2.141778711219569686e+02
1.412000000000000171e+02 2.139074655370802702e+02
1.415999999999999943e+02 2.136381666977958957e+02
1.420000000000000000e+02 2.133699668751696663e+02
1.424000000000000057e+02 2.131028584166159305e+02
1.428000000000000114e+02 2.128368337449228420e+02
1.432000000000000171e+02 2.125718853572933540e+02
1.435999999999999943e+02 2.123080058244004249e+02
1.440000000000000000e+02 2.120451877894576000e+02
1.444000000000000057e+02 2.117834239673034915e+02
1.448000000000000114e+02 2.115227071435008099e+02
1.452000000000000171e+02 2.112630301734490672e+02
1.455999999999999943e+02 2.110043859815109499e+02
1.460000000000000000e+02 2.107467675601520511e+02
1.464000000000000057e+02 2.104901679690938181e+02
1.468000000000000114e+02 2.102345803344794604e+02
1.472000000000000171e+02 2.099799978480524203e+02
1.475999999999999943e+02 2.097264137663472638e+02
1.480000000000000000e+02 2.094738214098927074e+02
1.484000000000000057e+02 2.092222141624274911e+02
1.488000000000000114e+02 2.089715854701263709e+02
1.492000000000000171e+02 2.087219288408395244e+02
1.495999999999999943e+02 2.084732378433419342e+02
1.500000000000000000e+02 2.082255061065949349e+02
