1.000000000000000000e+01 5.174029333079417938e+02
1.040000000000000036e+01 7.103790294276060422e+02
1.080000000000000071e+01 8.425336210268078503e+02
1.119999999999999929e+01 9.104183594989240191e+02
1.159999999999999964e+01 9.405568065763771983e+02
1.200000000000000000e+01 9.632539549096896963e+02
1.240000000000000036e+01 9.878324709028643156e+02
1.280000000000000071e+01 9.881660444400744154e+02
1.319999999999999929e+01 9.727373362306575473e+02
1.359999999999999964e+01 9.595820961914137115e+02
1.400000000000000000e+01 9.504981662157208575e+02
1.440000000000000036e+01 9.412001673477939221e+02
1.480000000000000071e+01 9.239658326191159858e+02
1.519999999999999929e+01 9.077573383577614550e+02
1.560000000000000142e+01 8.924727578044036136e+02
1.600000000000000000e+01 8.780241816780308000e+02
1.639999999999999858e+01 8.643352759537185648e+02
1.680000000000000071e+01 8.513393515254040267e+02
1.719999999999999929e+01 8.389778210190540904e+02
1.760000000000000142e+01 8.271989525016208518e+02
1.800000000000000000e+01 8.159568536994750048e+02
1.839999999999999858e+01 8.052106371790093817e+02
1.880000000000000071e+01 7.949237290236771969e+02
1.920000000000000284e+01 7.850632923415446385e+02
1.960000000000000142e+01 7.755997434344476460e+02
2.000000000000000000e+01 7.665063433160280510e+02
2.039999999999999858e+01 7.577588509366054268e+02
2.080000000000000071e+01 7.493352272760389496e+02
2.120000000000000284e+01 7.412153816268246374e+02
2.160000000000000142e+01 7.333809530703326800e+02
2.200000000000000000e+01 7.258151214667711884e+02
2.239999999999999858e+01 7.185024433203805074e+02
2.280000000000000071e+01 7.114287087094551225e+02
2.320000000000000284e+01 7.045808161339430171e+02
2.360000000000000142e+01 6.979466626677158274e+02
2.400000000000000000e+01 6.915150472357074705e+02
2.439999999999999858e+01 6.852755851890531176e+02
2.480000000000000071e+01 6.792186326405121690e+02
2.520000000000000284e+01 6.733352192604827451e+02
2.560000000000000142e+01 6.676169884307876146e+02
2.600000000000000000e+01 6.620561438169711437e+02
2.640000000000000213e+01 6.566454015562937911e+02
2.680000000000000071e+01 6.513779473729033498e+02
2.719999999999999929e+01 6.462473980277712826e+02
2.760000000000000142e+01 6.412477665920869185e+02
2.800000000000000000e+01 6.363734311014885634e+02
2.840000000000000213e+01 6.316191062068837709e+02
2.880000000000000071e+01 6.269798174873598100e+02
2.920000000000000284e+01 6.224508781332444869e+02
2.960000000000000142e+01 6.180278677438559498e+02
3.000000000000000000e+01 6.137066130158796113e+02
3.040000000000000213e+01 6.094831701253660867e+02
3.080000000000000071e+01 6.053538086297647851e+02
3.120000000000000284e+01 6.013149967366903184e+02
3.160000000000000142e+01 5.973633878037602472e+02
3.200000000000000000e+01 5.934958079492057550e+02
3.240000000000000568e+01 5.897092446663712053e+02
3.279999999999999716e+01 5.860008363469517008e+02
3.320000000000000284e+01 5.823678626281189281e+02
3.360000000000000142e+01 5.788077354877252674e+02
3.400000000000000000e+01 5.753179910197419531e+02
3.440000000000000568e+01 5.718962818291120129e+02
3.479999999999999716e+01 5.685403699914145363e+02
3.520000000000000284e+01 5.652481205282258543e+02
3.560000000000000142e+01 5.620174953539519720e+02
3.600000000000000000e+01 5.588465476542329498e+02
3.640000000000000568e+01 5.557334166598812999e+02
3.679999999999999716e+01 5.526763227837585646e+02
3.720000000000000284e+01 5.496735630910554846e+02
3.760000000000000142e+01 5.467235070762001214e+02
3.800000000000000000e+01 5.438245927220691556e+02
3.840000000000000568e+01 5.409753228193844734e+02
3.879999999999999716e+01 5.381742615261641731e+02
3.920000000000000284e+01 5.354200311488698389e+02
3.960000000000000142e+01 5.327113091285073097e+02
4.000000000000000000e+01 5.300468252163769876e+02
4.040000000000000568e+01 5.274253588254804299e+02
4.079999999999999716e+01 5.248457365447720804e+02
4.120000000000000284e+01 5.223068298045116080e+02
4.160000000000000142e+01 5.198075526819438892e+02
4.200000000000000000e+01 5.173468598374117846e+02
4.239999999999999858e+01 5.149237445718047184e+02
4.280000000000000426e+01 5.125372369969751389e+02
4.320000000000000284e+01 5.101864023114121096e+02
4.360000000000000142e+01 5.078703391740657480e+02
4.400000000000000000e+01 5.055881781697661950e+02
4.439999999999999858e+01 5.033390803601808443e+02
4.480000000000000426e+01 5.011222359147129168e+02
4.520000000000000284e+01 4.989368628161642505e+02
4.560000000000000142e+01 4.967822056363676779e+02
4.600000000000000000e+01 4.946575343773497480e+02
4.639999999999999858e+01 4.925621433739026429e+02
4.680000000000000426e+01 4.904953502537464374e+02
4.720000000000000284e+01 4.884564949517298942e+02
4.760000000000000142e+01 4.864449387747719129e+02
4.800000000000000000e+01 4.844600635144770990e+02
4.840000000000000568e+01 4.825012706045682762e+02
4.880000000000000426e+01 4.805679803204775453e+02
4.920000000000000284e+01 4.786596310186176879e+02
4.960000000000000142e+01 4.767756784130211827e+02
5.000000000000000000e+01 4.749155948871933788e+02
5.040000000000000568e+01 4.730788688391596679e+02
5.080000000000000426e+01 4.712650040578307653e+02
5.120000000000000284e+01 4.694735191289215663e+02
5.160000000000000142e+01 4.677039468687801218e+02
5.200000000000000000e+01 4.659558337845836036e+02
5.240000000000000568e+01 4.642287395594593704e+02
5.280000000000000426e+01 4.625222365611766691e+02
5.320000000000000284e+01 4.608359093731408507e+02
5.360000000000000142e+01 4.591693543465003131e+02
5.400000000000000000e+01 4.575221791722479452e+02
5.440000000000000568e+01 4.558940024722674025e+02
5.480000000000000426e+01 4.542844534083383223e+02
5.520000000000000284e+01 4.526931713081724524e+02
5.560000000000000142e+01 4.511198053076090559e+02
5.600000000000000000e+01 4.495640140081467280e+02
5.640000000000000568e+01 4.480254651490406559e+02
5.680000000000000426e+01 4.465038352932343741e+02
5.720000000000000284e+01 4.449988095264406525e+02
5.760000000000000142e+01 4.435100811687234454e+02
5.800000000000000000e+01 4.420373514979704055e+02
5.840000000000000568e+01 4.405803294846783729e+02
5.880000000000000426e+01 4.391387315375079083e+02
5.920000000000000284e+01 4.377122812590916965e+02
5.960000000000000142e+01 4.363007092116119452e+02
6.000000000000000000e+01 4.349037526916847582e+02
6.040000000000000568e+01 4.335211555141185045e+02
6.080000000000000426e+01 4.321526678041331593e+02
6.120000000000000284e+01 4.307980457976524349e+02
6.160000000000000142e+01 4.294570516492979095e+02
6.200000000000000000e+01 4.281294532477361372e+02
6.240000000000000568e+01 4.268150240380483638e+02
6.280000000000000426e+01 4.255135428508061750e+02
6.320000000000000284e+01 4.242247937375574338e+02
6.360000000000000142e+01 4.229485658124376073e+02
6.400000000000000000e+01 4.216846530996396041e+02
6.440000000000000568e+01 4.204328543864846779e+02
6.480000000000001137e+01 4.191929730818554276e+02
6.520000000000000284e+01 4.179648170797577222e+02
6.559999999999999432e+01 4.167481986277931583e+02
6.600000000000000000e+01 4.155429342003359920e+02
6.640000000000000568e+01 4.143488443762138331e+02
6.680000000000001137e+01 4.131657537207052542e+02
6.720000000000000284e+01 4.119934906716738396e+02
6.759999999999999432e+01 4.108318874296693366e+02
6.800000000000000000e+01 4.096807798518317441e+02
6.840000000000000568e+01 4.085400073494444086e+02
6.880000000000001137e+01 4.074094127889864581e+02
6.920000000000000284e+01 4.062888423965470110e+02
6.959999999999999432e+01 4.051781456654632620e+02
7.000000000000000000e+01 4.040771752670556225e+02
7.040000000000000568e+01 4.029857869643395816e+02
7.080000000000001137e+01 4.019038395285928118e+02
7.120000000000000284e+01 4.008311946586713930e+02
7.159999999999999432e+01 3.997677169029642528e+02
7.200000000000000000e+01 3.987132735838863482e+02
7.240000000000000568e+01 3.976677347248131582e+02
7.280000000000001137e+01 3.966309729793628662e+02
7.320000000000000284e+01 3.956028635629371593e+02
7.359999999999999432e+01 3.945832841864366856e+02
7.400000000000000000e+01 3.935721149920690323e+02
7.440000000000000568e+01 3.925692384911711770e+02
7.479999999999999716e+01 3.915745395039726873e+02
7.520000000000000284e+01 3.905879051012271930e+02
7.560000000000000853e+01 3.896092245476453400e+02
7.600000000000000000e+01 3.886383892470620367e+02
7.640000000000000568e+01 3.876752926892762616e+02
7.679999999999999716e+01 3.867198303985039729e+02
7.720000000000000284e+01 3.857718998833839805e+02
7.760000000000000853e+01 3.848314005884850530e+02
7.800000000000000000e+01 3.838982338472576998e+02
7.840000000000000568e+01 3.829723028363830508e+02
7.879999999999999716e+01 3.820535125314669926e+02
7.920000000000000284e+01 3.811417696640350528e+02
7.960000000000000853e+01 3.802369826797821588e+02
8.000000000000000000e+01 3.793390616980339018e+02
8.040000000000000568e+01 3.784479184723776370e+02
8.079999999999999716e+01 3.775634663524253369e+02
8.120000000000000284e+01 3.766856202466673267e+02
8.160000000000000853e+01 3.758142965863821701e+02
8.200000000000000000e+01 3.749494132905663264e+02
8.240000000000000568e+01 3.740908897318494155e+02
8.279999999999999716e+01 3.732386467033643953e+02
8.320000000000000284e+01 3.723926063865372953e+02
8.360000000000000853e+01 3.715526923197708697e+02
8.400000000000000000e+01 3.707188293679895423e+02
8.440000000000000568e+01 3.698909436930187553e+02
8.479999999999999716e+01 3.690689627247732005e+02
8.520000000000000284e+01 3.682528151332248285e+02
8.560000000000000853e+01 3.674424308011291487e+02
8.600000000000000000e+01 3.666377407974829907e+02
8.640000000000000568e+01 3.658386773516917856e+02
8.680000000000001137e+01 3.650451738284240264e+02
8.720000000000000284e+01 3.642571647031314797e+02
8.760000000000000853e+01 3.634745855382128639e+02
8.800000000000000000e+01 3.626973729598032605e+02
8.840000000000000568e+01 3.619254646351683959e+02
8.880000000000001137e+01 3.611587992506857745e+02
8.920000000000000284e+01 3.603973164903944166e+02
8.960000000000000853e+01 3.596409570150959780e+02
9.000000000000000000e+01 3.588896624419904811e+02
9.040000000000000568e+01 3.581433753248311973e+02
9.080000000000001137e+01 3.574020391345815142e+02
9.120000000000000284e+01 3.566655982405606551e+02
9.160000000000000853e+01 3.559339978920620524e+02
9.200000000000000000e+01 3.552071842004319251e+02
9.240000000000000568e+01 3.544851041215927125e+02
9.280000000000001137e+01 3.537677054390002240e+02
9.320000000000000284e+01 3.530549367470204061e+02
9.360000000000000853e+01 3.523467474347140183e+02
9.400000000000000000e+01 3.516430876700174508e+02
9.440000000000000568e+01 3.509439083843083154e+02
9.480000000000001137e+01 3.502491612573444968e+02
9.520000000000000284e+01 3.495587987025663779e+02
9.560000000000000853e+01 3.488727738527516635e+02
9.600000000000000000e+01 3.481910405460126299e+02
9.640000000000000568e+01 3.475135533121265894e+02
9.680000000000001137e+01 3.468402673591899088e+02
9.720000000000000284e+01 3.461711385605871669e+02
9.760000000000000853e+01 3.455061234422648795e+02
9.800000000000000000e+01 3.448451791703043341e+02
9.840000000000000568e+01 3.441882635387821665e+02
9.880000000000001137e+01 3.435353349579127666e+02
9.920000000000000284e+01 3.428863524424646130e+02
9.960000000000000853e+01 3.422412756004420658e+02
1.000000000000000000e+02 3.416000646220262524e+02
1.004000000000000057e+02 3.409626802687681106e+02
1.008000000000000114e+02 3.403290838630261987e+02
1.012000000000000028e+02 3.396992372776437605e+02
1.016000000000000085e+02 3.390731029258567446e+02
1.020000000000000000e+02 3.384506437514292543e+02
1.024000000000000057e+02 3.378318232190082426e+02
1.028000000000000114e+02 3.372166053046927345e+02
1.032000000000000028e+02 3.366049544868115504e+02
1.036000000000000085e+02 3.359968357369045862e+02
1.040000000000000000e+02 3.353922145109016242e+02
1.044000000000000057e+02 3.347910567404941276e+02
1.048000000000000114e+02 3.341933288246950156e+02
1.052000000000000028e+02 3.335989976215809065e+02
1.056000000000000085e+02 3.330080304402134743e+02
1.060000000000000000e+02 3.324203950327338362e+02
1.064000000000000057e+02 3.318360595866265612e+02
1.068000000000000114e+02 3.312549927171491504e+02
1.072000000000000028e+02 3.306771634599215304e+02
1.076000000000000085e+02 3.301025412636734018e+02
1.080000000000000000e+02 3.295310959831440414e+02
1.084000000000000057e+02 3.289627978721309773e+02
1.088000000000000114e+02 3.283976175766849224e+02
1.092000000000000028e+02 3.278355261284459630e+02
1.096000000000000085e+02 3.272764949381179349e+02
1.100000000000000000e+02 3.267204957890785408e+02
1.104000000000000057e+02 3.261675008311204920e+02
1.108000000000000114e+02 3.256174825743210590e+02
1.112000000000000028e+02 3.250704138830380430e+02
1.116000000000000085e+02 3.245262679700264243e+02
1.120000000000000000e+02 3.239850183906756911e+02
1.124000000000000057e+02 3.234466390373634113e+02
1.128000000000000114e+02 3.229111041339221515e+02
1.132000000000000028e+02 3.223783882302178085e+02
1.136000000000000085e+02 3.218484661968363412e+02
1.140000000000000000e+02 3.213213132198762310e+02
1.144000000000000057e+02 3.207969047958441138e+02
1.148000000000000114e+02 3.202752167266521610e+02
1.152000000000000028e+02 3.197562251147128336e+02
1.156000000000000085e+02 3.192399063581310656e+02
1.160000000000000000e+02 3.187262371459896713e+02
1.164000000000000057e+02 3.182151944537270651e+02
1.168000000000000114e+02 3.177067555386046820e+02
1.172000000000000028e+02 3.172008979352622191e+02
1.176000000000000085e+02 3.166975994513581441e+02
1.180000000000000000e+02 3.161968381632945579e+02
1.184000000000000057e+02 3.156985924120234017e+02
1.188000000000000114e+02 3.152028407989331527e+02
1.192000000000000028e+02 3.147095621818131121e+02
1.196000000000000085e+02 3.142187356708947732e+02
1.200000000000000000e+02 3.137303406249673685e+02
1.204000000000000057e+02 3.132443566475670309e+02
1.208000000000000114e+02 3.127607635832371216e+02
1.212000000000000028e+02 3.122795415138581347e+02
1.216000000000000085e+02 3.118006707550464398e+02
1.220000000000000000e+02 3.113241318526195869e+02
1.224000000000000057e+02 3.108499055791270393e+02
1.228000000000000114e+02 3.103779729304448551e+02
1.232000000000000028e+02 3.099083151224326116e+02
1.236000000000000085e+02 3.094409135876519485e+02
1.240000000000000000e+02 3.089757499721448539e+02
1.244000000000000057e+02 3.085128061322702706e+02
1.248000000000000114e+02 3.080520641315981720e+02
1.252000000000000028e+02 3.075935062378600833e+02
1.256000000000000085e+02 3.071371149199536035e+02
1.260000000000000000e+02 3.066828728450017820e+02
1.264000000000000057e+02 3.062307628754638813e+02
1.268000000000000114e+02 3.057807680662988332e+02
1.272000000000000028e+02 3.053328716621781496e+02
1.276000000000000085e+02 3.048870570947483429e+02
1.280000000000000000e+02 3.044433079799424036e+02
1.284000000000000057e+02 3.040016081153372056e+02
1.288000000000000114e+02 3.035619414775585483e+02
1.291999999999999886e+02 3.031242922197309895e+02
1.296000000000000227e+02 3.026886446689715626e+02
1.300000000000000000e+02 3.022549833239282862e+02
1.304000000000000057e+02 3.018232928523599412e+02
1.308000000000000114e+02 3.013935580887584820e+02
1.311999999999999886e+02 3.009657640320121459e+02
1.316000000000000227e+02 3.005398958431080132e+02
1.320000000000000000e+02 3.001159388428749253e+02
1.324000000000000057e+02 2.996938785097639766e+02
1.328000000000000114e+02 2.992737004776669210e+02
1.331999999999999886e+02 2.988553905337715264e+02
1.336000000000000227e+02 2.984389346164534231e+02
1.340000000000000000e+02 2.980243188132027399e+02
1.344000000000000057e+02 2.976115293585863810e+02
1.348000000000000114e+02 2.972005526322432161e+02
1.351999999999999886e+02 2.967913751569141141e+02
1.356000000000000227e+02 2.963839835965034126e+02
1.360000000000000000e+02 2.959783647541732989e+02
1.364000000000000057e+02 2.955745055704692277e+02
1.368000000000000114e+02 2.951723931214764320e+02
1.371999999999999886e+02 2.947720146170067892e+02
1.376000000000000227e+02 2.943733573988148464e+02
1.380000000000000000e+02 2.939764089388436901e+02
1.384000000000000057e+02 2.935811568374984972e+02
1.388000000000000114e+02 2.931875888219489639e+02
1.392000000000000171e+02 2.927956927444584494e+02
1.395999999999999943e+02 2.924054565807407471e+02
1.400000000000000000e+02 2.920168684283420930e+02
1.404000000000000057e+02 2.916299165050508009e+02
1.408000000000000114e+02 2.912445891473308279e+02
1.412000000000000171e+02 2.908608748087809204e+02
1.415999999999999943e+02 2.904787620586183721e+02
1.420000000000000000e+02 2.900982395801861458e+02
1.424000000000000057e+02 2.897192961694843802e+02
1.428000000000000114e+02 2.893419207337248054e+02
1.432000000000000171e+02 2.889661022899069849e+02
1.435999999999999943e+02 2.885918299634182631e+02
1.440000000000000000e+02 2.882190929866542888e+02
1.444000000000000057e+02 2.878478806976620490e+02
1.448000000000000114e+02 2.874781825388030825e+02
1.452000000000000171e+02 2.871099880554378387e+02
1.455999999999999943e+02 2.867432868946305007e+02
1.460000000000000000e+02 2.863780688038731910e+02
1.464000000000000057e+02 2.860143236298301872e+02
1.468000000000000114e+02 2.856520413171012933e+02
1.472000000000000171e+02 2.852912119070037988e+02
1.475999999999999943e+02 2.849318255363734806e+02
1.480000000000000000e+02 2.845738724363828851e+02
1.484000000000000057e+02 2.842173429313787665e+02
1.488000000000000114e+02 2.838622274377361236e+02
1.492000000000000171e+02 2.835085164627296308e+02
1.495999999999999943e+02 2.831562006034218371e+02
1.500000000000000000e+02 2.828052705455688738e+02
