1.000000000000000000e+01 7.416100581695293386e+02
1.040000000000000036e+01 9.315018981285934387e+02
1.080000000000000071e+01 1.040958061809875971e+03
1.119999999999999929e+01 1.149590177073778023e+03
1.159999999999999964e+01 1.166248881843251411e+03
1.200000000000000000e+01 1.196690468521648199e+03
1.240000000000000036e+01 1.234780595249893850e+03
1.280000000000000071e+01 1.241079063604795920e+03
1.319999999999999929e+01 1.242719944184831093e+03
1.359999999999999964e+01 1.243082564756207830e+03
1.400000000000000000e+01 1.261228866441234459e+03
1.440000000000000036e+01 1.289218105401944285e+03
1.480000000000000071e+01 1.266055882626188804e+03
1.519999999999999929e+01 1.244342928765852093e+03
1.560000000000000142e+01 1.223923695200267957e+03
1.600000000000000000e+01 1.204666118249710053e+03
1.639999999999999858e+01 1.186457083670971315e+03
1.680000000000000071e+01 1.169198949404608811e+03
1.719999999999999929e+01 1.152806839567674615e+03
1.760000000000000142e+01 1.137206510660342246e+03
1.800000000000000000e+01 1.122332649089069037e+03
1.839999999999999858e+01 1.108127498421735936e+03
1.880000000000000071e+01 1.094539741927312889e+03
1.920000000000000284e+01 1.081523585033137351e+03
1.960000000000000142e+01 1.069037995973072384e+03
2.000000000000000000e+01 1.057046072798319756e+03
2.039999999999999858e+01 1.045514512204611265e+03
2.080000000000000071e+01 1.034413161053781550e+03
2.120000000000000284e+01 1.023714635554686197e+03
2.160000000000000142e+01 1.013393996180351678e+03
2.200000000000000000e+01 1.003428468790892111e+03
2.239999999999999858e+01 9.937972042879721357e+02
2.280000000000000071e+01 9.844810705787928100e+02
2.320000000000000284e+01 9.754624717725801020e+02
2.360000000000000142e+01 9.667251904419060793e+02
2.400000000000000000e+01 9.582542495083711174e+02
2.439999999999999858e+01 9.500357908973642225e+02
2.480000000000000071e+01 9.420569685804563278e+02
2.520000000000000284e+01 9.343058540097713376e+02
2.560000000000000142e+01 9.267713522645013882e+02
2.600000000000000000e+01 9.194431274895991919e+02
2.640000000000000213e+01 9.123115364214952479e+02
2.680000000000000071e+01 9.053675689741196493e+02
2.719999999999999929e+01 8.986027950073237207e+02
2.760000000000000142e+01 8.920093165244477404e+02
2.800000000000000000e+01 8.855797246505926523e+02
2.840000000000000213e+01 8.793070608316128300e+02
2.880000000000000071e+01 8.731847817687850011e+02
2.920000000000000284e+01 8.672067276677880727e+02
2.960000000000000142e+01 8.613670934349421486e+02
3.000000000000000000e+01 8.556604025001151967e+02
3.040000000000000213e+01 8.500814829855596599e+02
3.080000000000000071e+01 8.446254459742463041e+02
3.120000000000000284e+01 8.392876656608583517e+02
3.160000000000000142e+01 8.340637611942174772e+02
3.200000000000000000e+01 8.289495800421244667e+02
3.240000000000000568e+01 8.239411827289177381e+02
3.279999999999999716e+01 8.190348288128849390e+02
3.320000000000000284e+01 8.142269639853805074e+02
3.360000000000000142e+01 8.095142081863803014e+02
3.400000000000000000e+01 8.048933446425088505e+02
3.440000000000000568e+01 8.003613097435188592e+02
3.479999999999999716e+01 7.959151836819570462e+02
3.520000000000000284e+01 7.915521817884882694e+02
3.560000000000000142e+01 7.872696465021874701e+02
3.600000000000000000e+01 7.830650399211739341e+02
3.640000000000000568e+01 7.789359368843398670e+02
3.679999999999999716e+01 7.748800185397130917e+02
3.720000000000000284e+01 7.708950663592556793e+02
3.760000000000000142e+01 7.669789565637074702e+02
3.800000000000000000e+01 7.631296549244732432e+02
3.840000000000000568e+01 7.593452119126021671e+02
3.879999999999999716e+01 7.556237581676335822e+02
3.920000000000000284e+01 7.519635002615251551e+02
3.960000000000000142e+01 7.483627167350866785e+02
4.000000000000000000e+01 7.448197543863172996e+02
4.040000000000000568e+01 7.413330247918306668e+02
4.079999999999999716e+01 7.379010010441659233e+02
4.120000000000000284e+01 7.345222146892336923e+02
4.160000000000000142e+01 7.311952528494659873e+02
4.200000000000000000e+01 7.279187555194336028e+02
4.239999999999999858e+01 7.246914130217705861e+02
4.280000000000000426e+01 7.215119636122371958e+02
4.320000000000000284e+01 7.183791912236356438e+02
4.360000000000000142e+01 7.152919233391166927e+02
4.400000000000000000e+01 7.122490289861427755e+02
4.439999999999999858e+01 7.092494168430623631e+02
4.480000000000000426e+01 7.062920334508551150e+02
4.520000000000000284e+01 7.033758615231790827e+02
4.560000000000000142e+01 7.004999183483585057e+02
4.600000000000000000e+01 6.976632542774320882e+02
4.639999999999999858e+01 6.948649512928041077e+02
4.680000000000000426e+01 6.921041216524446327e+02
4.720000000000000284e+01 6.893799066049455178e+02
4.760000000000000142e+01 6.866914751710719429e+02
4.800000000000000000e+01 6.840380229877658849e+02
4.840000000000000568e+01 6.814187712108240476e+02
4.880000000000000426e+01 6.788329654727550633e+02
4.920000000000000284e+01 6.762798748925411019e+02
4.960000000000000142e+01 6.737587911342658344e+02
5.000000000000000000e+01 6.712690275117685132e+02
5.040000000000000568e+01 6.688099181366719677e+02
5.080000000000000426e+01 6.663808171073151243e+02
5.120000000000000284e+01 6.639810977362726589e+02
5.160000000000000142e+01 6.616101518143028670e+02
5.200000000000000000e+01 6.592673889087010366e+02
5.240000000000000568e+01 6.569522356941616863e+02
5.280000000000000426e+01 6.546641353143776314e+02
5.320000000000000284e+01 6.524025467727128671e+02
5.360000000000000142e+01 6.501669443503874390e+02
5.400000000000000000e+01 6.479568170507154719e+02
5.440000000000000568e+01 6.457716680680155150e+02
5.480000000000000426e+01 6.436110142799097957e+02
5.520000000000000284e+01 6.414743857617932008e+02
5.560000000000000142e+01 6.393613253223340962e+02
5.600000000000000000e+01 6.372713880589338942e+02
5.640000000000000568e+01 6.352041409321327592e+02
5.680000000000000426e+01 6.331591623580114856e+02
5.720000000000000284e+01 6.311360418176930125e+02
5.760000000000000142e+01 6.291343794830961542e+02
5.800000000000000000e+01 6.271537858581467617e+02
5.840000000000000568e+01 6.251938814346926847e+02
5.880000000000000426e+01 6.232542963624114236e+02
5.920000000000000284e+01 6.213346701320417651e+02
5.960000000000000142e+01 6.194346512713041193e+02
6.000000000000000000e+01 6.175538970529094058e+02
6.040000000000000568e+01 6.156920732140929431e+02
6.080000000000000426e+01 6.138488536871337828e+02
6.120000000000000284e+01 6.120239203403542660e+02
6.160000000000000142e+01 6.102169627291189045e+02
6.200000000000000000e+01 6.084276778563759080e+02
6.240000000000000568e+01 6.066557699423128724e+02
6.280000000000000426e+01 6.049009502027151939e+02
6.320000000000000284e+01 6.031629366356402215e+02
6.360000000000000142e+01 6.014414538160398251e+02
6.400000000000000000e+01 5.997362326979811087e+02
6.440000000000000568e+01 5.980470104241347826e+02
6.480000000000001137e+01 5.963735301422146904e+02
6.520000000000000284e+01 5.947155408280726760e+02
6.559999999999999432e+01 5.930727971151584370e+02
6.600000000000000000e+01 5.914450591300807218e+02
6.640000000000000568e+01 5.898320923340075979e+02
6.680000000000001137e+01 5.882336673696640901e+02
6.720000000000000284e+01 5.866495599136912915e+02
6.759999999999999432e+01 5.850795505341492344e+02
6.800000000000000000e+01 5.835234245529481996e+02
6.840000000000000568e+01 5.819809719130098529e+02
6.880000000000001137e+01 5.804519870499652825e+02
6.920000000000000284e+01 5.789362687682078104e+02
6.959999999999999432e+01 5.774336201211245907e+02
7.000000000000000000e+01 5.759438482953438552e+02
7.040000000000000568e+01 5.744667644988353459e+02
7.080000000000001137e+01 5.730021838527147793e+02
7.120000000000000284e+01 5.715499252866077313e+02
7.159999999999999432e+01 5.701098114374332226e+02
7.200000000000000000e+01 5.686816685514766050e+02
7.240000000000000568e+01 5.672653263896248745e+02
7.280000000000001137e+01 5.658606181356444722e+02
7.320000000000000284e+01 5.644673803073851559e+02
7.359999999999999432e+01 5.630854526708013736e+02
7.400000000000000000e+01 5.617146781566827940e+02
7.440000000000000568e+01 5.603549027799989517e+02
7.479999999999999716e+01 5.590059755617531891e+02
7.520000000000000284e+01 5.576677484532601738e+02
7.560000000000000853e+01 5.563400762627568383e+02
7.600000000000000000e+01 5.550228165842576118e+02
7.640000000000000568e+01 5.537158297285810704e+02
7.679999999999999716e+01 5.524189786564611495e+02
7.720000000000000284e+01 5.511321289136740234e+02
7.760000000000000853e+01 5.498551485681078930e+02
7.800000000000000000e+01 5.485879081487048552e+02
7.840000000000000568e+01 5.473302805862132345e+02
7.879999999999999716e+01 5.460821411556820522e+02
7.920000000000000284e+01 5.448433674206398791e+02
7.960000000000000853e+01 5.436138391789016850e+02
8.000000000000000000e+01 5.423934384099428598e+02
8.040000000000000568e+01 5.411820492237907274e+02
8.079999999999999716e+01 5.399795578113811416e+02
8.120000000000000284e+01 5.387858523963284370e+02
8.160000000000000853e+01 5.376008231880645098e+02
8.200000000000000000e+01 5.364243623362992821e+02
8.240000000000000568e+01 5.352563638867571854e+02
8.279999999999999716e+01 5.340967237381512405e+02
8.320000000000000284e+01 5.329453396003498256e+02
8.360000000000000853e+01 5.318021109537003213e+02
8.400000000000000000e+01 5.306669390094693881e+02
8.440000000000000568e+01 5.295397266713647468e+02
8.479999999999999716e+01 5.284203784981045828e+02
8.520000000000000284e+01 5.273088006669991046e+02
8.560000000000000853e+01 5.262049009385116278e+02
8.600000000000000000e+01 5.251085886217713323e+02
8.640000000000000568e+01 5.240197745410031303e+02
8.680000000000001137e+01 5.229383710028495216e+02
8.720000000000000284e+01 5.218642917645538546e+02
8.760000000000000853e+01 5.207974520029797532e+02
8.800000000000000000e+01 5.197377682844397668e+02
8.840000000000000568e+01 5.186851585353094833e+02
8.880000000000001137e+01 5.176395420134012966e+02
8.920000000000000284e+01 5.166008392800757747e+02
8.960000000000000853e+01 5.155689721730685733e+02
9.000000000000000000e+01 5.145438637800091328e+02
9.040000000000000568e+01 5.135254384126139939e+02
9.080000000000001137e+01 5.125136215815293781e+02
9.120000000000000284e+01 5.115083399718091641e+02
9.160000000000000853e+01 5.105095214190044999e+02
9.200000000000000000e+01 5.095170948858517477e+02
9.240000000000000568e+01 5.085309904395355716e+02
9.280000000000001137e+01 5.075511392295159112e+02
9.320000000000000284e+01 5.065774734658983789e+02
9.360000000000000853e+01 5.056099263983343235e+02
9.400000000000000000e+01 5.046484322954343043e+02
9.440000000000000568e+01 5.036929264246809907e+02
9.480000000000001137e+01 5.027433450328264826e+02
9.520000000000000284e+01 5.017996253267601787e+02
9.560000000000000853e+01 5.008617054548354304e+02
9.600000000000000000e+01 4.999295244886392879e+02
9.640000000000000568e+01 4.990030224051948267e+02
9.680000000000001137e+01 4.980821400695840566e+02
9.720000000000000284e+01 4.971668192179786843e+02
9.760000000000000853e+01 4.962570024410672431e+02
9.800000000000000000e+01 4.953526331678694987e+02
9.840000000000000568e+01 4.944536556499243716e+02
9.880000000000001137e+01 4.935600149458451256e+02
9.920000000000000284e+01 4.926716569062272697e+02
9.960000000000000853e+01 4.917885281589046258e+02
1.000000000000000000e+02 4.909105760945385555e+02
1.004000000000000057e+02 4.900377488525361969e+02
1.008000000000000114e+02 4.891699953072869675e+02
1.012000000000000028e+02 4.883072650547077274e+02
1.016000000000000085e+02 4.874495083990901776e+02
1.020000000000000000e+02 4.865966763402418565e+02
1.024000000000000057e+02 4.857487205609126022e+02
1.028000000000000114e+02 4.849055934144997195e+02
1.032000000000000028e+02 4.840672479130236638e+02
1.036000000000000085e+02 4.832336377153684452e+02
1.040000000000000000e+02 4.824047171157779985e+02
1.044000000000000057e+02 4.815804410326039715e+02
1.048000000000000114e+02 4.807607649972974286e+02
1.052000000000000028e+02 4.799456451436377051e+02
1.056000000000000085e+02 4.791350381971938077e+02
1.060000000000000000e+02 4.783289014650103468e+02
1.064000000000000057e+02 4.775271928255155558e+02
1.068000000000000114e+02 4.767298707186415641e+02
1.072000000000000028e+02 4.759368941361552174e+02
1.076000000000000085e+02 4.751482226121929671e+02
1.080000000000000000e+02 4.743638162139934593e+02
1.084000000000000057e+02 4.735836355328246441e+02
1.088000000000000114e+02 4.728076416751003421e+02
1.092000000000000028e+02 4.720357962536809282e+02
1.096000000000000085e+02 4.712680613793533553e+02
1.100000000000000000e+02 4.705043996524872227e+02
1.104000000000000057e+02 4.697447741548626823e+02
1.108000000000000114e+02 4.689891484416639855e+02
1.112000000000000028e+02 4.682374865336375365e+02
1.116000000000000085e+02 4.674897529094078550e+02
1.120000000000000000e+02 4.667459124979496323e+02
1.124000000000000057e+02 4.660059306712109901e+02
1.128000000000000114e+02 4.652697732368848165e+02
1.132000000000000028e+02 4.645374064313248823e+02
1.136000000000000085e+02 4.638087969126022472e+02
1.140000000000000000e+02 4.630839117537001925e+02
1.144000000000000057e+02 4.623627184358429645e+02
1.148000000000000114e+02 4.616451848419571320e+02
1.152000000000000028e+02 4.609312792502588536e+02
1.156000000000000085e+02 4.602209703279693827e+02
1.160000000000000000e+02 4.595142271251511943e+02
1.164000000000000057e+02 4.588110190686633132e+02
1.168000000000000114e+02 4.581113159562355008e+02
1.172000000000000028e+02 4.574150879506546516e+02
1.176000000000000085e+02 4.567223055740637392e+02
1.180000000000000000e+02 4.560329397023700722e+02
1.184000000000000057e+02 4.553469615597588813e+02
1.188000000000000114e+02 4.546643427133127489e+02
1.192000000000000028e+02 4.539850550677315368e+02
1.196000000000000085e+02 4.533090708601527581e+02
1.200000000000000000e+02 4.526363626550687513e+02
1.204000000000000057e+02 4.519669033393392397e+02
1.208000000000000114e+02 4.513006661172971121e+02
1.212000000000000028e+02 4.506376245059449275e+02
1.216000000000000085e+02 4.499777523302408326e+02
1.220000000000000000e+02 4.493210237184708262e+02
1.224000000000000057e+02 4.486674130977075947e+02
1.228000000000000114e+02 4.480168951893504072e+02
1.232000000000000028e+02 4.473694450047494229e+02
1.236000000000000085e+02 4.467250378409067935e+02
1.240000000000000000e+02 4.460836492762579724e+02
1.244000000000000057e+02 4.454452551665285682e+02
1.248000000000000114e+02 4.448098316406653794e+02
1.252000000000000028e+02 4.441773550968415520e+02
1.256000000000000085e+02 4.435478021985331907e+02
1.260000000000000000e+02 4.429211498706646921e+02
1.264000000000000057e+02 4.422973752958246223e+02
1.268000000000000114e+02 4.416764559105471335e+02
1.272000000000000028e+02 4.410583694016601157e+02
1.276000000000000085e+02 4.404430937026970696e+02
1.280000000000000000e+02 4.398306069903723596e+02
1.284000000000000057e+02 4.392208876811179152e+02
1.288000000000000114e+02 4.386139144276804132e+02
1.291999999999999886e+02 4.380096661157782592e+02
1.296000000000000227e+02 4.374081218608148447e+02
1.300000000000000000e+02 4.368092610046509208e+02
1.304000000000000057e+02 4.362130631124303477e+02
1.308000000000000114e+02 4.356195079694621199e+02
1.311999999999999886e+02 4.350285755781544594e+02
1.316000000000000227e+02 4.344402461550016596e+02
1.320000000000000000e+02 4.338545001276226003e+02
1.324000000000000057e+02 4.332713181318486590e+02
1.328000000000000114e+02 4.326906810088617021e+02
1.331999999999999886e+02 4.321125698023793120e+02
1.336000000000000227e+02 4.315369657558882182e+02
1.340000000000000000e+02 4.309638503099232594e+02
1.344000000000000057e+02 4.303932050993923895e+02
1.348000000000000114e+02 4.298250119509457363e+02
1.351999999999999886e+02 4.292592528803880896e+02
1.356000000000000227e+02 4.286959100901354986e+02
1.360000000000000000e+02 4.281349659667118317e+02
1.364000000000000057e+02 4.275764030782876262e+02
1.368000000000000114e+02 4.270202041722595823e+02
1.371999999999999886e+02 4.264663521728684827e+02
1.376000000000000227e+02 4.259148301788569597e+02
1.380000000000000000e+02 4.253656214611644941e+02
1.384000000000000057e+02 4.248187094606595906e+02
1.388000000000000114e+02 4.242740777859103787e+02
1.392000000000000171e+02 4.237317102109880693e+02
1.395999999999999943e+02 4.231915906733086672e+02
1.400000000000000000e+02 4.226537032715061173e+02
1.404000000000000057e+02 4.221180322633426840e+02
1.408000000000000114e+02 4.215845620636500257e+02
1.412000000000000171e+02 4.210532772423034089e+02
1.415999999999999943e+02 4.205241625222295738e+02
1.420000000000000000e+02 4.199972027774427943e+02
1.424000000000000057e+02 4.194723830311154984e+02
1.428000000000000114e+02 4.189496884536760035e+02
1.432000000000000171e+02 4.184291043609381404e+02
1.435999999999999943e+02 4.179106162122581622e+02
1.440000000000000000e+02 4.173942096087218943e+02
1.444000000000000057e+02 4.168798702913594525e+02
1.448000000000000114e+02 4.163675841393863948e+02
1.452000000000000171e+02 4.158573371684738049e+02
1.455999999999999943e+02 4.153491155290436154e+02
1.460000000000000000e+02 4.148429055045901919e+02
1.464000000000000057e+02 4.143386935100282926e+02
1.468000000000000114e+02 4.138364660900653007e+02
1.472000000000000171e+02 4.133362099175982962e+02
1.475999999999999943e+02 4.128379117921363104e+02
1.480000000000000000e+02 4.123415586382443507e+02
1.484000000000000057e+02 4.118471375040136309e+02
1.488000000000000114e+02 4.113546355595523210e+02
1.492000000000000171e+02 4.108640400955000018e+02
1.495999999999999943e+02 4.103753385215642311e+02
1.500000000000000000e+02 4.098885183650787098e+02
