1.000000000000000000e+01 1.046844925747597586e+02
1.040000000000000036e+01 1.138489336986068281e+02
1.080000000000000071e+01 1.653556664492333539e+02
1.119999999999999929e+01 1.931352332873906903e+02
1.159999999999999964e+01 2.385089763537289400e+02
1.200000000000000000e+01 2.766516142522419841e+02
1.240000000000000036e+01 3.060887621193487576e+02
1.280000000000000071e+01 3.217839551053858145e+02
1.319999999999999929e+01 3.411968035473761915e+02
1.359999999999999964e+01 3.668603605347465191e+02
1.400000000000000000e+01 3.832238331276040526e+02
1.440000000000000036e+01 3.881726368063937116e+02
1.480000000000000071e+01 3.798619379431615926e+02
1.519999999999999929e+01 3.721355753478209181e+02
1.560000000000000142e+01 3.649251796373911247e+02
1.600000000000000000e+01 3.581733610242910117e+02
1.639999999999999858e+01 3.518315003332586457e+02
1.680000000000000071e+01 3.458580678351953566e+02
1.719999999999999929e+01 3.402173252813643103e+02
1.760000000000000142e+01 3.348783108449309225e+02
1.800000000000000000e+01 3.298140360807751108e+02
1.839999999999999858e+01 3.250008439372224984e+02
1.880000000000000071e+01 3.204178906101825532e+02
1.920000000000000284e+01 3.160467236931801835e+02
1.960000000000000142e+01 3.118709359702811525e+02
2.000000000000000000e+01 3.078758791867101081e+02
2.039999999999999858e+01 3.040484257879006691e+02
2.080000000000000071e+01 3.003767693295232561e+02
2.120000000000000284e+01 2.968502562947355727e+02
2.160000000000000142e+01 2.934592435956416807e+02
2.200000000000000000e+01 2.901949772143025257e+02
2.239999999999999858e+01 2.870494883477935559e+02
2.280000000000000071e+01 2.840155041290474855e+02
2.320000000000000284e+01 2.810863705496401508e+02
2.360000000000000142e+01 2.782559856484348870e+02
2.400000000000000000e+01 2.755187413780072347e+02
2.439999999999999858e+01 2.728694728391897115e+02
2.480000000000000071e+01 2.703034137981808271e+02
2.520000000000000284e+01 2.678161575820661255e+02
2.560000000000000142e+01 2.654036225962470894e+02
2.600000000000000000e+01 2.630620218280541280e+02
2.640000000000000213e+01 2.607878358001091215e+02
2.680000000000000071e+01 2.585777885190011602e+02
2.719999999999999929e+01 2.564288260328586375e+02
2.760000000000000142e+01 2.543380972680616878e+02
2.800000000000000000e+01 2.523029368627254030e+02
2.840000000000000213e+01 2.503208497543711530e+02
2.880000000000000071e+01 2.483894973127294179e+02
2.920000000000000284e+01 2.465066848369671106e+02
2.960000000000000142e+01 2.446703502606874281e+02
3.000000000000000000e+01 2.428785539285270261e+02
3.040000000000000213e+01 2.411294693256587891e+02
3.080000000000000071e+01 2.394213746564841756e+02
3.120000000000000284e+01 2.377526451816586359e+02
3.160000000000000142e+01 2.361217462336729227e+02
3.200000000000000000e+01 2.345272268407774163e+02
3.240000000000000568e+01 2.329677138973215733e+02
3.279999999999999716e+01 2.314419068257661820e+02
3.320000000000000284e+01 2.299485726818832063e+02
3.360000000000000142e+01 2.284865416601130619e+02
3.400000000000000000e+01 2.270547029608111700e+02
3.440000000000000568e+01 2.256520009852989119e+02
3.479999999999999716e+01 2.242774318282922081e+02
3.520000000000000284e+01 2.229300400405080893e+02
3.560000000000000142e+01 2.216089156370893534e+02
3.600000000000000000e+01 2.203131913299961866e+02
3.640000000000000568e+01 2.190420399647301224e+02
3.679999999999999716e+01 2.177946721437247959e+02
3.720000000000000284e+01 2.165703340204801179e+02
3.760000000000000142e+01 2.153683052500712733e+02
3.800000000000000000e+01 2.141878970830433104e+02
3.840000000000000568e+01 2.130284505909366715e+02
3.879999999999999716e+01 2.118893350127912640e+02
3.920000000000000284e+01 2.107699462129598089e+02
3.960000000000000142e+01 2.096697052414482130e+02
4.000000000000000000e+01 2.085880569887904699e+02
4.040000000000000568e+01 2.075244689281787487e+02
4.079999999999999716e+01 2.064784299382126846e+02
4.120000000000000284e+01 2.054494492002050379e+02
4.160000000000000142e+01 2.044370551645074556e+02
4.200000000000000000e+01 2.034407945807868714e+02
4.239999999999999858e+01 2.024602315876100249e+02
4.280000000000000426e+01 2.014949468570815156e+02
4.320000000000000284e+01 2.005445367906263812e+02
4.360000000000000142e+01 1.996086127623294146e+02
4.400000000000000000e+01 1.986868004065296986e+02
4.439999999999999858e+01 1.977787389466315631e+02
4.480000000000000426e+01 1.968840805623329686e+02
4.520000000000000284e+01 1.960024897926886922e+02
4.560000000000000142e+01 1.951336429726255517e+02
4.600000000000000000e+01 1.942772277007082948e+02
4.639999999999999858e+01 1.934329423361203339e+02
4.680000000000000426e+01 1.926004955229752227e+02
4.720000000000000284e+01 1.917796057402157714e+02
4.760000000000000142e+01 1.909700008754820715e+02
4.800000000000000000e+01 1.901714178214501203e+02
4.840000000000000568e+01 1.893836020932479585e+02
4.880000000000000426e+01 1.886063074656564709e+02
4.920000000000000284e+01 1.878392956288919891e+02
4.960000000000000142e+01 1.870823358618523855e+02
5.000000000000000000e+01 1.863352047217852032e+02
5.040000000000000568e+01 1.855976857494078729e+02
5.080000000000000426e+01 1.848695691885747010e+02
5.120000000000000284e+01 1.841506517196480672e+02
5.160000000000000142e+01 1.834407362057852140e+02
5.200000000000000000e+01 1.827396314514055007e+02
5.240000000000000568e+01 1.820471519721500044e+02
5.280000000000000426e+01 1.813631177756910802e+02
5.320000000000000284e+01 1.806873541527892826e+02
5.360000000000000142e+01 1.800196914780344741e+02
5.400000000000000000e+01 1.793599650197432993e+02
5.440000000000000568e+01 1.787080147585178906e+02
5.480000000000000426e+01 1.780636852140014810e+02
5.520000000000000284e+01 1.774268252793956435e+02
5.560000000000000142e+01 1.767972880633292334e+02
5.600000000000000000e+01 1.761749307386960766e+02
5.640000000000000568e+01 1.755596143980982049e+02
5.680000000000000426e+01 1.749512039155569028e+02
5.720000000000000284e+01 1.743495678141700296e+02
5.760000000000000142e+01 1.737545781394159690e+02
5.800000000000000000e+01 1.731661103378196174e+02
5.840000000000000568e+01 1.725840431407144990e+02
5.880000000000000426e+01 1.720082584528475707e+02
5.920000000000000284e+01 1.714386412455905031e+02
5.960000000000000142e+01 1.708750794545325391e+02
6.000000000000000000e+01 1.703174638812432420e+02
6.040000000000000568e+01 1.697656880990057289e+02
6.080000000000000426e+01 1.692196483623308154e+02
6.120000000000000284e+01 1.686792435200737543e+02
6.160000000000000142e+01 1.681443749319849985e+02
6.200000000000000000e+01 1.676149463885344062e+02
6.240000000000000568e+01 1.670908640338586508e+02
6.280000000000000426e+01 1.665720362916875672e+02
6.320000000000000284e+01 1.660583737941143738e+02
6.360000000000000142e+01 1.655497893130810212e+02
6.400000000000000000e+01 1.650461976944570210e+02
6.440000000000000568e+01 1.645475157945953981e+02
6.480000000000001137e+01 1.640536624192568809e+02
6.520000000000000284e+01 1.635645582647979097e+02
6.559999999999999432e+01 1.630801258615234133e+02
6.600000000000000000e+01 1.626002895191106745e+02
6.640000000000000568e+01 1.621249752740153554e+02
6.680000000000001137e+01 1.616541108387741019e+02
6.720000000000000284e+01 1.611876255531237803e+02
6.759999999999999432e+01 1.607254503368606038e+02
6.800000000000000000e+01 1.602675176443656540e+02
6.840000000000000568e+01 1.598137614207282127e+02
6.880000000000001137e+01 1.593641170593998027e+02
6.920000000000000284e+01 1.589185213613168628e+02
6.959999999999999432e+01 1.584769124954312360e+02
7.000000000000000000e+01 1.580392299605922233e+02
7.040000000000000568e+01 1.576054145487245819e+02
7.080000000000001137e+01 1.571754083092516794e+02
7.120000000000000284e+01 1.567491545147131546e+02
7.159999999999999432e+01 1.563265976275305036e+02
7.200000000000000000e+01 1.559076832678749156e+02
7.240000000000000568e+01 1.554923581825949555e+02
7.280000000000001137e+01 1.550805702151619698e+02
7.320000000000000284e+01 1.546722682765944512e+02
7.359999999999999432e+01 1.542674023173241835e+02
7.400000000000000000e+01 1.538659232999668234e+02
7.440000000000000568e+01 1.534677831729645163e+02
7.479999999999999716e+01 1.530729348450659302e+02
7.520000000000000284e+01 1.526813321606131524e+02
7.560000000000000853e+01 1.522929298756056937e+02
7.600000000000000000e+01 1.519076836345116703e+02
7.640000000000000568e+01 1.515255499477998455e+02
7.679999999999999716e+01 1.511464861701653035e+02
7.720000000000000284e+01 1.507704504794239995e+02
7.760000000000000853e+01 1.503974018560516015e+02
7.800000000000000000e+01 1.500273000633434890e+02
7.840000000000000568e+01 1.496601056281739375e+02
7.879999999999999716e+01 1.492957798223330315e+02
7.920000000000000284e+01 1.489342846444203019e+02
7.960000000000000853e+01 1.485755828022763581e+02
8.000000000000000000e+01 1.482196376959334430e+02
8.040000000000000568e+01 1.478664134010660689e+02
8.079999999999999716e+01 1.475158746529255893e+02
8.120000000000000284e+01 1.471679868307408583e+02
8.160000000000000853e+01 1.468227159425703974e+02
8.200000000000000000e+01 1.464800286105891018e+02
8.240000000000000568e+01 1.461398920567959578e+02
8.279999999999999716e+01 1.458022740891280193e+02
8.320000000000000284e+01 1.454671430879671448e+02
8.360000000000000853e+01 1.451344679930266182e+02
8.400000000000000000e+01 1.448042182906042399e+02
8.440000000000000568e+01 1.444763640011910297e+02
8.479999999999999716e+01 1.441508756674228664e+02
8.520000000000000284e+01 1.438277243423638936e+02
8.560000000000000853e+01 1.435068815781118587e+02
8.600000000000000000e+01 1.431883194147136749e+02
8.640000000000000568e+01 1.428720103693821670e+02
8.680000000000001137e+01 1.425579274260039142e+02
8.720000000000000284e+01 1.422460440249291764e+02
8.760000000000000853e+01 1.419363340530343294e+02
8.800000000000000000e+01 1.416287718340495587e+02
8.840000000000000568e+01 1.413233321191416394e+02
8.880000000000001137e+01 1.410199900777454616e+02
8.920000000000000284e+01 1.407187212886360044e+02
8.960000000000000853e+01 1.404195017312322307e+02
9.000000000000000000e+01 1.401223077771282419e+02
9.040000000000000568e+01 1.398271161818420296e+02
9.080000000000001137e+01 1.395339040767769916e+02
9.120000000000000284e+01 1.392426489613889657e+02
9.160000000000000853e+01 1.389533286955528695e+02
9.200000000000000000e+01 1.386659214921229761e+02
9.240000000000000568e+01 1.383804059096804906e+02
9.280000000000001137e+01 1.380967608454636775e+02
9.320000000000000284e+01 1.378149655284746018e+02
9.360000000000000853e+01 1.375349995127572242e+02
9.400000000000000000e+01 1.372568426708421612e+02
9.440000000000000568e+01 1.369804751873530506e+02
9.480000000000001137e+01 1.367058775527696923e+02
9.520000000000000284e+01 1.364330305573436704e+02
9.560000000000000853e+01 1.361619152851619106e+02
9.600000000000000000e+01 1.358925131083538815e+02
9.640000000000000568e+01 1.356248056814385166e+02
9.680000000000001137e+01 1.353587749358068208e+02
9.720000000000000284e+01 1.350944030743360713e+02
9.760000000000000853e+01 1.348316725661321414e+02
9.800000000000000000e+01 1.345705661413966538e+02
9.840000000000000568e+01 1.343110667864146137e+02
9.880000000000001137e+01 1.340531577386600190e+02
9.920000000000000284e+01 1.337968224820157559e+02
9.960000000000000853e+01 1.335420447421047072e+02
1.000000000000000000e+02 1.332888084817290633e+02
1.004000000000000057e+02 1.330370978964147923e+02
1.008000000000000114e+02 1.327868974100584012e+02
1.012000000000000028e+02 1.325381916706734273e+02
1.016000000000000085e+02 1.322909655462336787e+02
1.020000000000000000e+02 1.320452041206107765e+02
1.024000000000000057e+02 1.318008926896033586e+02
1.028000000000000114e+02 1.315580167570556682e+02
1.032000000000000028e+02 1.313165620310633699e+02
1.036000000000000085e+02 1.310765144202630950e+02
1.040000000000000000e+02 1.308378600302056043e+02
1.044000000000000057e+02 1.306005851598080483e+02
1.048000000000000114e+02 1.303646762978852962e+02
1.052000000000000028e+02 1.301301201197566400e+02
1.056000000000000085e+02 1.298969034839271615e+02
1.060000000000000000e+02 1.296650134288410072e+02
1.064000000000000057e+02 1.294344371697052338e+02
1.068000000000000114e+02 1.292051620953819793e+02
1.072000000000000028e+02 1.289771757653478517e+02
1.076000000000000085e+02 1.287504659067178068e+02
1.080000000000000000e+02 1.285250204113334007e+02
1.084000000000000057e+02 1.283008273329118367e+02
1.088000000000000114e+02 1.280778748842562891e+02
1.092000000000000028e+02 1.278561514345245769e+02
1.096000000000000085e+02 1.276356455065550506e+02
1.100000000000000000e+02 1.274163457742488959e+02
1.104000000000000057e+02 1.271982410600066231e+02
1.108000000000000114e+02 1.269813203322176491e+02
1.112000000000000028e+02 1.267655727028021744e+02
1.116000000000000085e+02 1.265509874248034663e+02
1.120000000000000000e+02 1.263375538900295254e+02
1.124000000000000057e+02 1.261252616267429119e+02
1.128000000000000114e+02 1.259141002973978942e+02
1.132000000000000028e+02 1.257040596964230588e+02
1.136000000000000085e+02 1.254951297480491519e+02
1.140000000000000000e+02 1.252873005041804362e+02
1.144000000000000057e+02 1.250805621423087075e+02
1.148000000000000114e+02 1.248749049634691346e+02
1.152000000000000028e+02 1.246703193902367985e+02
1.156000000000000085e+02 1.244667959647627953e+02
1.160000000000000000e+02 1.242643253468493896e+02
1.164000000000000057e+02 1.240628983120628845e+02
1.168000000000000114e+02 1.238625057498836242e+02
1.172000000000000028e+02 1.236631386618921056e+02
1.176000000000000085e+02 1.234647881599904338e+02
1.180000000000000000e+02 1.232674454646584081e+02
1.184000000000000057e+02 1.230711019032431182e+02
1.188000000000000114e+02 1.228757489082816790e+02
1.192000000000000028e+02 1.226813780158560547e+02
1.196000000000000085e+02 1.224879808639794305e+02
1.200000000000000000e+02 1.222955491910133219e+02
1.204000000000000057e+02 1.221040748341147832e+02
1.208000000000000114e+02 1.219135497277129900e+02
1.212000000000000028e+02 1.217239659020144700e+02
1.216000000000000085e+02 1.215353154815366281e+02
1.220000000000000000e+02 1.213475906836685567e+02
1.224000000000000057e+02 1.211607838172588174e+02
1.228000000000000114e+02 1.209748872812295133e+02
1.232000000000000028e+02 1.207898935632159407e+02
1.236000000000000085e+02 1.206057952382313800e+02
1.240000000000000000e+02 1.204225849673568121e+02
1.244000000000000057e+02 1.202402554964540400e+02
1.248000000000000114e+02 1.200587996549029413e+02
1.252000000000000028e+02 1.198782103543614994e+02
1.256000000000000085e+02 1.196984805875482607e+02
1.260000000000000000e+02 1.195196034270469170e+02
1.264000000000000057e+02 1.193415720241326312e+02
1.268000000000000114e+02 1.191643796076190682e+02
1.272000000000000028e+02 1.189880194827266564e+02
1.276000000000000085e+02 1.188124850299703894e+02
1.280000000000000000e+02 1.186377697040680488e+02
1.284000000000000057e+02 1.184638670328673840e+02
1.288000000000000114e+02 1.182907706162924484e+02
1.291999999999999886e+02 1.181184741253085804e+02
1.296000000000000227e+02 1.179469713009052327e+02
1.300000000000000000e+02 1.177762559530972055e+02
1.304000000000000057e+02 1.176063219599426191e+02
1.308000000000000114e+02 1.174371632665785370e+02
1.311999999999999886e+02 1.172687738842730454e+02
1.316000000000000227e+02 1.171011478894937454e+02
1.320000000000000000e+02 1.169342794229923470e+02
1.324000000000000057e+02 1.167681626889050506e+02
1.328000000000000114e+02 1.166027919538681772e+02
1.331999999999999886e+02 1.164381615461489332e+02
1.336000000000000227e+02 1.162742658547911958e+02
1.340000000000000000e+02 1.161110993287754525e+02
1.344000000000000057e+02 1.159486564761930936e+02
1.348000000000000114e+02 1.157869318634347167e+02
1.351999999999999886e+02 1.156259201143919029e+02
1.356000000000000227e+02 1.154656159096725503e+02
1.360000000000000000e+02 1.153060139858290825e+02
1.364000000000000057e+02 1.151471091345997593e+02
1.368000000000000114e+02 1.149888962021622802e+02
1.371999999999999886e+02 1.148313700884001491e+02
1.376000000000000227e+02 1.146745257461806915e+02
1.380000000000000000e+02 1.145183581806452935e+02
1.384000000000000057e+02 1.143628624485109668e+02
1.388000000000000114e+02 1.142080336573838224e+02
1.392000000000000171e+02 1.140538669650830457e+02
1.395999999999999943e+02 1.139003575789765250e+02
1.400000000000000000e+02 1.137475007553266977e+02
1.404000000000000057e+02 1.135952917986473665e+02
1.408000000000000114e+02 1.134437260610707483e+02
1.412000000000000171e+02 1.132927989417244703e+02
1.415999999999999943e+02 1.131425058861188404e+02
1.420000000000000000e+02 1.129928423855437245e+02
1.424000000000000057e+02 1.128438039764751011e+02
1.428000000000000114e+02 1.126953862399910093e+02
1.432000000000000171e+02 1.125475848011965923e+02
1.435999999999999943e+02 1.124003953286585613e+02
1.440000000000000000e+02 1.122538135338481311e+02
1.444000000000000057e+02 1.121078351705929350e+02
1.448000000000000114e+02 1.119624560345375812e+02
1.452000000000000171e+02 1.118176719626124225e+02
1.455999999999999943e+02 1.116734788325105683e+02
1.460000000000000000e+02 1.115298725621732387e+02
1.464000000000000057e+02 1.113868491092829345e+02
1.468000000000000114e+02 1.112444044707642945e+02
1.472000000000000171e+02 1.111025346822927844e+02
1.475999999999999943e+02 1.109612358178110583e+02
1.480000000000000000e+02 1.108205039890522414e+02
1.484000000000000057e+02 1.106803353450709437e+02
1.488000000000000114e+02 1.105407260717811369e+02
1.492000000000000171e+02 1.104016723915011937e+02
1.495999999999999943e+02 1.102631705625056497e+02
1.500000000000000000e+02 1.101252168785838705e+02
