1.000000000000000000e+01 3.744297405290693064e+02
1.040000000000000036e+01 3.712997467222137971e+02
1.080000000000000071e+01 3.855763136976248688e+02
1.119999999999999929e+01 3.918422450283972012e+02
1.159999999999999964e+01 3.980688370684323445e+02
1.200000000000000000e+01 4.089939422558572915e+02
1.240000000000000036e+01 4.150377051470650258e+02
1.280000000000000071e+01 4.272340064851060220e+02
1.319999999999999929e+01 4.485865432701623945e+02
1.359999999999999964e+01 4.676392735322872340e+02
1.400000000000000000e+01 4.832753085241912459e+02
1.440000000000000036e+01 4.752609402666192295e+02
1.480000000000000071e+01 4.677552374640982293e+02
1.519999999999999929e+01 4.607006411462251094e+02
1.560000000000000142e+01 4.540488679584594820e+02
1.600000000000000000e+01 4.477590008908517802e+02
1.639999999999999858e+01 4.417960510669072391e+02
1.680000000000000071e+01 4.361298568682282166e+02
1.719999999999999929e+01 4.307342291453130088e+02
1.760000000000000142e+01 4.255862789432891304e+02
1.800000000000000000e+01 4.206658826232386446e+02
1.839999999999999858e+01 4.159552518148403237e+02
1.880000000000000071e+01 4.114385843379966445e+02
1.920000000000000284e+01 4.071017783643682151e+02
1.960000000000000142e+01 4.029321964791192840e+02
2.000000000000000000e+01 3.989184694887788964e+02
2.039999999999999858e+01 3.950503321630156961e+02
2.080000000000000071e+01 3.913184848402999592e+02
2.120000000000000284e+01 3.877144761377701911e+02
2.160000000000000142e+01 3.842306030012581459e+02
2.200000000000000000e+01 3.808598250951379782e+02
2.239999999999999858e+01 3.775956911226833199e+02
2.280000000000000071e+01 3.744322751287772348e+02
2.320000000000000284e+01 3.713641211994606692e+02
2.360000000000000142e+01 3.683861952600484528e+02
2.400000000000000000e+01 3.654938429026210542e+02
2.439999999999999858e+01 3.626827523575859686e+02
2.480000000000000071e+01 3.599489218724930879e+02
2.520000000000000284e+01 3.572886308819069541e+02
2.560000000000000142e+01 3.546984144506358234e+02
2.600000000000000000e+01 3.521750405534763217e+02
2.640000000000000213e+01 3.497154898213345859e+02
2.680000000000000071e+01 3.473169374388642154e+02
2.719999999999999929e+01 3.449767369247792885e+02
2.760000000000000142e+01 3.426924055644744271e+02
2.800000000000000000e+01 3.404616112968702168e+02
2.840000000000000213e+01 3.382821608846151094e+02
2.880000000000000071e+01 3.361519892197817398e+02
2.920000000000000284e+01 3.340691496367272748e+02
2.960000000000000142e+01 3.320318051204158110e+02
3.000000000000000000e+01 3.300382203127078924e+02
3.040000000000000213e+01 3.280867542313008016e+02
3.080000000000000071e+01 3.261758536264650274e+02
3.120000000000000284e+01 3.243040469097463756e+02
3.160000000000000142e+01 3.224699385966015370e+02
3.200000000000000000e+01 3.206722042116915645e+02
3.240000000000000568e+01 3.189095856114320213e+02
3.279999999999999716e+01 3.171808866835148137e+02
3.320000000000000284e+01 3.154849693875797811e+02
3.360000000000000142e+01 3.138207501051286386e+02
3.400000000000000000e+01 3.121871962701966368e+02
3.440000000000000568e+01 3.105833232553143262e+02
3.479999999999999716e+01 3.090081914899462845e+02
3.520000000000000284e+01 3.074609037909327753e+02
3.560000000000000142e+01 3.059406028865378175e+02
3.600000000000000000e+01 3.044464691175357984e+02
3.640000000000000568e+01 3.029777183004028416e+02
3.679999999999999716e+01 3.015335997391258047e+02
3.720000000000000284e+01 3.001133943734303102e+02
3.760000000000000142e+01 2.987164130523831318e+02
3.800000000000000000e+01 2.973419949233496027e+02
3.840000000000000568e+01 2.959895059272101889e+02
3.879999999999999716e+01 2.946583373915623270e+02
3.920000000000000284e+01 2.933479047143774778e+02
3.960000000000000142e+01 2.920576461312463152e+02
4.000000000000000000e+01 2.907870215599459698e+02
4.040000000000000568e+01 2.895355115166045152e+02
4.079999999999999716e+01 2.883026160982232113e+02
4.120000000000000284e+01 2.870878540267594303e+02
4.160000000000000142e+01 2.858907617503728034e+02
4.200000000000000000e+01 2.847108925977981357e+02
4.239999999999999858e+01 2.835478159821346935e+02
4.280000000000000426e+01 2.824011166506436439e+02
4.320000000000000284e+01 2.812703939774121409e+02
4.360000000000000142e+01 2.801552612959912381e+02
4.400000000000000000e+01 2.790553452693404779e+02
4.439999999999999858e+01 2.779702852946136318e+02
4.480000000000000426e+01 2.768997329405109440e+02
4.520000000000000284e+01 2.758433514150938208e+02
4.560000000000000142e+01 2.748008150621109280e+02
4.600000000000000000e+01 2.737718088840326232e+02
4.639999999999999858e+01 2.727560280901216174e+02
4.680000000000000426e+01 2.717531776679842892e+02
4.720000000000000284e+01 2.707629719771633745e+02
4.760000000000000142e+01 2.697851343634312684e+02
4.800000000000000000e+01 2.688193967925378729e+02
4.840000000000000568e+01 2.678654995022542380e+02
4.880000000000000426e+01 2.669231906716303229e+02
4.920000000000000284e+01 2.659922261064624536e+02
4.960000000000000142e+01 2.650723689400292642e+02
5.000000000000000000e+01 2.641633893482226654e+02
5.040000000000000568e+01 2.632650642782530781e+02
5.080000000000000426e+01 2.623771771901657530e+02
5.120000000000000284e+01 2.614995178104527440e+02
5.160000000000000142e+01 2.606318818970911479e+02
5.200000000000000000e+01 2.597740710153823329e+02
5.240000000000000568e+01 2.589258923240032573e+02
5.280000000000000426e+01 2.580871583707217951e+02
5.320000000000000284e+01 2.572576868972590773e+02
5.360000000000000142e+01 2.564373006528144288e+02
5.400000000000000000e+01 2.556258272157992053e+02
5.440000000000000568e+01 2.548230988233510175e+02
5.480000000000000426e+01 2.540289522082280200e+02
5.520000000000000284e+01 2.532432284427044067e+02
5.560000000000000142e+01 2.524657727891129184e+02
5.600000000000000000e+01 2.516964345566988754e+02
5.640000000000000568e+01 2.509350669644705363e+02
5.680000000000000426e+01 2.501815270097494590e+02
5.720000000000000284e+01 2.494356753421398025e+02
5.760000000000000142e+01 2.486973761426532405e+02
5.800000000000000000e+01 2.479664970077392923e+02
5.840000000000000568e+01 2.472429088379863060e+02
5.880000000000000426e+01 2.465264857312701565e+02
5.920000000000000284e+01 2.458171048801407323e+02
5.960000000000000142e+01 2.451146464732470349e+02
6.000000000000000000e+01 2.444189936006135326e+02
6.040000000000000568e+01 2.437300321625887705e+02
6.080000000000000426e+01 2.430476507822995984e+02
6.120000000000000284e+01 2.423717407214487025e+02
6.160000000000000142e+01 2.417021957993073897e+02
6.200000000000000000e+01 2.410389123147580506e+02
6.240000000000000568e+01 2.403817889712509555e+02
6.280000000000000426e+01 2.397307268045475155e+02
6.320000000000000284e+01 2.390856291131260605e+02
6.360000000000000142e+01 2.384464013911353959e+02
6.400000000000000000e+01 2.378129512637845835e+02
6.440000000000000568e+01 2.371851884250659452e+02
6.480000000000001137e+01 2.365630245777092568e+02
6.520000000000000284e+01 2.359463733752746748e+02
6.559999999999999432e+01 2.353351503662931918e+02
6.600000000000000000e+01 2.347292729403690714e+02
6.640000000000000568e+01 2.341286602761630320e+02
6.680000000000001137e+01 2.335332332911781918e+02
6.720000000000000284e+01 2.329429145932751055e+02
6.759999999999999432e+01 2.323576284338450932e+02
6.800000000000000000e+01 2.317773006625752998e+02
6.840000000000000568e+01 2.312018586837410510e+02
6.880000000000001137e+01 2.306312314139643149e+02
6.920000000000000284e+01 2.300653492413807726e+02
6.959999999999999432e+01 2.295041439861591357e+02
7.000000000000000000e+01 2.289475488623201045e+02
7.040000000000000568e+01 2.283954984408046016e+02
7.080000000000001137e+01 2.278479286137420559e+02
7.120000000000000284e+01 2.273047765598737442e+02
7.159999999999999432e+01 2.267659807110857741e+02
7.200000000000000000e+01 2.262314807200106088e+02
7.240000000000000568e+01 2.257012174286562640e+02
7.280000000000001137e+01 2.251751328380246377e+02
7.320000000000000284e+01 2.246531700786817396e+02
7.359999999999999432e+01 2.241352733822453160e+02
7.400000000000000000e+01 2.236213880537555383e+02
7.440000000000000568e+01 2.231114604448961245e+02
7.479999999999999716e+01 2.226054379280353146e+02
7.520000000000000284e+01 2.221032688710570824e+02
7.560000000000000853e+01 2.216049026129536514e+02
7.600000000000000000e+01 2.211102894401521155e+02
7.640000000000000568e+01 2.206193805635500951e+02
7.679999999999999716e+01 2.201321280962335436e+02
7.720000000000000284e+01 2.196484850318534541e+02
7.760000000000000853e+01 2.191684052236396951e+02
7.800000000000000000e+01 2.186918433640273349e+02
7.840000000000000568e+01 2.182187549648763820e+02
7.879999999999999716e+01 2.177490963382630866e+02
7.920000000000000284e+01 2.172828245778244423e+02
7.960000000000000853e+01 2.168198975406357363e+02
8.000000000000000000e+01 2.163602738296043526e+02
8.040000000000000568e+01 2.159039127763616079e+02
8.079999999999999716e+01 2.154507744246358811e+02
8.120000000000000284e+01 2.150008195140920861e+02
8.160000000000000853e+01 2.145540094646206057e+02
8.200000000000000000e+01 2.141103063610614470e+02
8.240000000000000568e+01 2.136696729383499473e+02
8.279999999999999716e+01 2.132320725670692809e+02
8.320000000000000284e+01 2.127974692393972873e+02
8.360000000000000853e+01 2.123658275554342367e+02
8.400000000000000000e+01 2.119371127099001058e+02
8.440000000000000568e+01 2.115112904791888297e+02
8.479999999999999716e+01 2.110883272087685896e+02
8.520000000000000284e+01 2.106681898009169913e+02
8.560000000000000853e+01 2.102508457027808504e+02
8.600000000000000000e+01 2.098362628947498933e+02
8.640000000000000568e+01 2.094244098791352258e+02
8.680000000000001137e+01 2.090152556691427890e+02
8.720000000000000284e+01 2.086087697781327108e+02
8.760000000000000853e+01 2.082049222091555123e+02
8.800000000000000000e+01 2.078036834447574392e+02
8.840000000000000568e+01 2.074050244370463076e+02
8.880000000000001137e+01 2.070089165980094208e+02
8.920000000000000284e+01 2.066153317900772208e+02
8.960000000000000853e+01 2.062242423169237782e+02
9.000000000000000000e+01 2.058356209144989180e+02
9.040000000000000568e+01 2.054494407422831159e+02
9.080000000000001137e+01 2.050656753747601613e+02
9.120000000000000284e+01 2.046842987931001971e+02
9.160000000000000853e+01 2.043052853770475963e+02
9.200000000000000000e+01 2.039286098970071919e+02
9.240000000000000568e+01 2.035542475063237191e+02
9.280000000000001137e+01 2.031821737337482148e+02
9.320000000000000284e+01 2.028123644760865432e+02
9.360000000000000853e+01 2.024447959910245345e+02
9.400000000000000000e+01 2.020794448901248188e+02
9.440000000000000568e+01 2.017162881319906091e+02
9.480000000000001137e+01 2.013553030155912893e+02
9.520000000000000284e+01 2.009964671737459412e+02
9.560000000000000853e+01 2.006397585667597809e+02
9.600000000000000000e+01 2.002851554762093542e+02
9.640000000000000568e+01 1.999326364988731370e+02
9.680000000000001137e+01 1.995821805408018577e+02
9.720000000000000284e+01 1.992337668115268912e+02
9.760000000000000853e+01 1.988873748184008150e+02
9.800000000000000000e+01 1.985429843610682781e+02
9.840000000000000568e+01 1.982005755260620958e+02
9.880000000000001137e+01 1.978601286815228946e+02
9.920000000000000284e+01 1.975216244720373879e+02
9.960000000000000853e+01 1.971850438135929267e+02
1.000000000000000000e+02 1.968503678886452803e+02
1.004000000000000057e+02 1.965175781412962124e+02
1.008000000000000114e+02 1.961866562725784888e+02
1.012000000000000028e+02 1.958575842358447971e+02
1.016000000000000085e+02 1.955303442322586136e+02
1.020000000000000000e+02 1.952049187063839213e+02
1.024000000000000057e+02 1.948812903418708515e+02
1.028000000000000114e+02 1.945594420572359695e+02
1.032000000000000028e+02 1.942393570017334241e+02
1.036000000000000085e+02 1.939210185513151714e+02
1.040000000000000000e+02 1.936044103046784812e+02
1.044000000000000057e+02 1.932895160793976288e+02
1.048000000000000114e+02 1.929763199081381231e+02
1.052000000000000028e+02 1.926648060349515390e+02
1.056000000000000085e+02 1.923549589116485663e+02
1.060000000000000000e+02 1.920467631942482001e+02
1.064000000000000057e+02 1.917402037395019931e+02
1.068000000000000114e+02 1.914352656014903573e+02
1.072000000000000028e+02 1.911319340282901464e+02
1.076000000000000085e+02 1.908301944587111052e+02
1.080000000000000000e+02 1.905300325190997910e+02
1.084000000000000057e+02 1.902314340202090648e+02
1.088000000000000114e+02 1.899343849541321561e+02
1.092000000000000028e+02 1.896388714912989713e+02
1.096000000000000085e+02 1.893448799775333100e+02
1.100000000000000000e+02 1.890523969311702785e+02
1.104000000000000057e+02 1.887614090402314275e+02
1.108000000000000114e+02 1.884719031596566197e+02
1.112000000000000028e+02 1.881838663085917460e+02
1.116000000000000085e+02 1.878972856677300456e+02
1.120000000000000000e+02 1.876121485767067156e+02
1.124000000000000057e+02 1.873284425315449084e+02
1.128000000000000114e+02 1.870461551821519492e+02
1.132000000000000028e+02 1.867652743298652354e+02
1.136000000000000085e+02 1.864857879250454857e+02
1.140000000000000000e+02 1.862076840647177960e+02
1.144000000000000057e+02 1.859309509902577702e+02
1.148000000000000114e+02 1.856555770851229568e+02
1.152000000000000028e+02 1.853815508726278836e+02
1.156000000000000085e+02 1.851088610137617536e+02
1.160000000000000000e+02 1.848374963050482336e+02
1.164000000000000057e+02 1.845674456764458853e+02
1.168000000000000114e+02 1.842986981892884728e+02
1.172000000000000028e+02 1.840312430342644916e+02
1.176000000000000085e+02 1.837650695294348679e+02
1.180000000000000000e+02 1.835001671182875498e+02
1.184000000000000057e+02 1.832365253678291310e+02
1.188000000000000114e+02 1.829741339667117472e+02
1.192000000000000028e+02 1.827129827233949868e+02
1.196000000000000085e+02 1.824530615643419651e+02
1.200000000000000000e+02 1.821943605322483677e+02
1.204000000000000057e+02 1.819368697843048608e+02
1.208000000000000114e+02 1.816805795904905381e+02
1.212000000000000028e+02 1.814254803318981999e+02
1.216000000000000085e+02 1.811715624990899869e+02
1.220000000000000000e+02 1.809188166904827995e+02
1.224000000000000057e+02 1.806672336107629064e+02
1.228000000000000114e+02 1.804168040693296575e+02
1.232000000000000028e+02 1.801675189787664237e+02
1.236000000000000085e+02 1.799193693533395049e+02
1.240000000000000000e+02 1.796723463075236964e+02
1.244000000000000057e+02 1.794264410545539761e+02
1.248000000000000114e+02 1.791816449050031110e+02
1.252000000000000028e+02 1.789379492653842192e+02
1.256000000000000085e+02 1.786953456367781428e+02
1.260000000000000000e+02 1.784538256134847529e+02
1.264000000000000057e+02 1.782133808816980434e+02
1.268000000000000114e+02 1.779740032182040750e+02
1.272000000000000028e+02 1.777356844891020273e+02
1.276000000000000085e+02 1.774984166485469359e+02
1.280000000000000000e+02 1.772621917375143994e+02
1.284000000000000057e+02 1.770270018825866600e+02
1.288000000000000114e+02 1.767928392947591192e+02
1.291999999999999886e+02 1.765596962682680555e+02
1.296000000000000227e+02 1.763275651794370447e+02
1.300000000000000000e+02 1.760964384855447804e+02
1.304000000000000057e+02 1.758663087237102332e+02
1.308000000000000114e+02 1.756371685097978741e+02
1.311999999999999886e+02 1.754090105373411461e+02
1.316000000000000227e+02 1.751818275764833288e+02
1.320000000000000000e+02 1.749556124729371049e+02
1.324000000000000057e+02 1.747303581469607821e+02
1.328000000000000114e+02 1.745060575923517661e+02
1.331999999999999886e+02 1.742827038754567752e+02
1.336000000000000227e+02 1.740602901341981976e+02
1.340000000000000000e+02 1.738388095771169333e+02
1.344000000000000057e+02 1.736182554824304702e+02
1.348000000000000114e+02 1.733986211971065075e+02
1.351999999999999886e+02 1.731799001359520105e+02
1.356000000000000227e+02 1.729620857807166487e+02
1.360000000000000000e+02 1.727451716792110119e+02
1.364000000000000057e+02 1.725291514444392078e+02
1.368000000000000114e+02 1.723140187537451027e+02
1.371999999999999886e+02 1.720997673479726018e+02
1.376000000000000227e+02 1.718863910306391745e+02
1.380000000000000000e+02 1.716738836671227943e+02
1.384000000000000057e+02 1.714622391838615840e+02
1.388000000000000114e+02 1.712514515675663915e+02
1.392000000000000171e+02 1.710415148644457304e+02
1.395999999999999943e+02 1.708324231794428840e+02
1.400000000000000000e+02 1.706241706754853169e+02
1.404000000000000057e+02 1.704167515727453690e+02
1.408000000000000114e+02 1.702101601479130295e+02
1.412000000000000171e+02 1.700043907334797666e+02
1.415999999999999943e+02 1.697994377170335838e+02
1.420000000000000000e+02 1.695952955405649050e+02
1.424000000000000057e+02 1.693919586997833164e+02
1.428000000000000114e+02 1.691894217434449956e+02
1.432000000000000171e+02 1.689876792726900021e+02
1.435999999999999943e+02 1.687867259403902835e+02
1.440000000000000000e+02 1.685865564505071745e+02
1.444000000000000057e+02 1.683871655574590704e+02
1.448000000000000114e+02 1.681885480654984235e+02
1.452000000000000171e+02 1.679906988280985161e+02
1.455999999999999943e+02 1.677936127473489591e+02
1.460000000000000000e+02 1.675972847733610251e+02
1.464000000000000057e+02 1.674017099036811373e+02
1.468000000000000114e+02 1.672068831827138808e+02
1.472000000000000171e+02 1.670127997011530852e+02
1.475999999999999943e+02 1.668194545954215755e+02
1.480000000000000000e+02 1.666268430471194790e+02
1.484000000000000057e+02 1.664349602824802901e+02
1.488000000000000114e+02 1.662438015718353199e+02
1.492000000000000171e+02 1.660533622290857068e+02
1.495999999999999943e+02 1.658636376111825825e+02
1.500000000000000000e+02 1.656746231176145443e+02
