1.000000000000000000e+01 1.358846683437050729e+02
1.040000000000000036e+01 1.331659414801264347e+02
1.080000000000000071e+01 1.289074088343909068e+02
1.119999999999999929e+01 1.246378088042600609e+02
1.159999999999999964e+01 1.241768143135703895e+02
1.200000000000000000e+01 1.203746023775516392e+02
1.240000000000000036e+01 1.169265862057095262e+02
1.280000000000000071e+01 1.137761753232920512e+02
1.319999999999999929e+01 1.108795830579149566e+02
1.359999999999999964e+01 1.082021203111511909e+02
1.400000000000000000e+01 1.057791894511533997e+02
1.440000000000000036e+01 1.035727901166546872e+02
1.480000000000000071e+01 1.014994357060623429e+02
1.519999999999999929e+01 9.956135262676784237e+01
1.560000000000000142e+01 9.779591964781312186e+01
1.600000000000000000e+01 9.612090540258664362e+01
1.639999999999999858e+01 9.452856967858869552e+01
1.680000000000000071e+01 9.301635428376467019e+01
1.719999999999999929e+01 9.170816205145628430e+01
1.760000000000000142e+01 9.045819338121910391e+01
1.800000000000000000e+01 8.851043614344035859e+01
1.839999999999999858e+01 8.733939305641247586e+01
1.880000000000000071e+01 8.621855002048255301e+01
1.920000000000000284e+01 8.514423599702253398e+01
1.960000000000000142e+01 8.411315993584059925e+01
2.000000000000000000e+01 8.312235996204825028e+01
2.039999999999999858e+01 8.216916085994780872e+01
2.080000000000000071e+01 8.029925071325945396e+01
2.120000000000000284e+01 7.942085709979173203e+01
2.160000000000000142e+01 7.857395612057267442e+01
2.200000000000000000e+01 7.775663730024983522e+01
2.239999999999999858e+01 7.696309327931167843e+01
2.280000000000000071e+01 7.619446696689696807e+01
2.320000000000000284e+01 7.545064240976148540e+01
2.360000000000000142e+01 7.473027128403059294e+01
2.400000000000000000e+01 7.403210753845526426e+01
2.439999999999999858e+01 7.335499749221330035e+01
2.480000000000000071e+01 7.269787109393449498e+01
2.520000000000000284e+01 7.205973418268216335e+01
2.560000000000000142e+01 7.143966161653975178e+01
2.600000000000000000e+01 7.083679115500416401e+01
2.640000000000000213e+01 7.024826917442955221e+01
2.680000000000000071e+01 6.966166069088083646e+01
2.719999999999999929e+01 6.910047598322574913e+01
2.760000000000000142e+01 6.859509692058125552e+01
2.800000000000000000e+01 6.807500035832411811e+01
2.840000000000000213e+01 6.760810382923482109e+01
2.880000000000000071e+01 6.715250706350769860e+01
2.920000000000000284e+01 6.670774141482037578e+01
2.960000000000000142e+01 6.627336545392634548e+01
3.000000000000000000e+01 6.584896295027041901e+01
3.040000000000000213e+01 6.543414103490877665e+01
3.080000000000000071e+01 6.502852852567403374e+01
3.120000000000000284e+01 6.463177439781365763e+01
3.160000000000000142e+01 6.124666102570314052e+01
3.200000000000000000e+01 6.083250658403484579e+01
3.240000000000000568e+01 6.042714963253690996e+01
3.279999999999999716e+01 6.003027486990840345e+01
3.320000000000000284e+01 5.964158276968883854e+01
3.360000000000000142e+01 5.925721360510497959e+01
3.400000000000000000e+01 5.887815568657917709e+01
3.440000000000000568e+01 5.869554939736178767e+01
3.479999999999999716e+01 5.834302343823988224e+01
3.520000000000000284e+01 5.799721121348592590e+01
3.560000000000000142e+01 5.765789606450590554e+01
3.600000000000000000e+01 5.732487112099153137e+01
3.640000000000000568e+01 5.699793873508565412e+01
3.679999999999999716e+01 5.667690995527600961e+01
3.720000000000000284e+01 5.636160403674195152e+01
3.760000000000000142e+01 5.605184798519009348e+01
3.800000000000000000e+01 5.574747613148937120e+01
3.840000000000000568e+01 5.544832973466483139e+01
3.879999999999999716e+01 5.515425661103000010e+01
3.920000000000000284e+01 5.486511078743781411e+01
3.960000000000000142e+01 5.458075217680824665e+01
4.000000000000000000e+01 5.430104627425253483e+01
4.040000000000000568e+01 5.402586387225866815e+01
4.079999999999999716e+01 5.374225066484399349e+01
4.120000000000000284e+01 5.348704927626635452e+01
4.160000000000000142e+01 5.323572831431319230e+01
4.200000000000000000e+01 5.298730884611961756e+01
4.239999999999999858e+01 5.274145451128656248e+01
4.280000000000000426e+01 5.249923543706653106e+01
4.320000000000000284e+01 5.226056037667056842e+01
4.360000000000000142e+01 5.202534129376131489e+01
4.400000000000000000e+01 5.179349321788673421e+01
4.439999999999999858e+01 5.156493410781677511e+01
4.480000000000000426e+01 5.133958472227644876e+01
4.520000000000000284e+01 5.111736849760545454e+01
4.560000000000000142e+01 5.089821143190932418e+01
4.600000000000000000e+01 5.068204197529760791e+01
4.639999999999999858e+01 5.046839943172705034e+01
4.680000000000000426e+01 5.025433536674725588e+01
4.720000000000000284e+01 5.004310451663840809e+01
4.760000000000000142e+01 4.983303036203960801e+01
4.800000000000000000e+01 4.962240672743051562e+01
4.840000000000000568e+01 4.941454257176643949e+01
4.880000000000000426e+01 4.920937649298095096e+01
4.920000000000000284e+01 4.900684900987381809e+01
4.960000000000000142e+01 4.880690248497312211e+01
5.000000000000000000e+01 4.860948105116816009e+01
5.040000000000000568e+01 4.841453054189646110e+01
5.080000000000000426e+01 4.822199842468250353e+01
5.120000000000000284e+01 4.803183373783881649e+01
5.160000000000000142e+01 4.785002420551120395e+01
5.200000000000000000e+01 4.571001247104718601e+01
5.240000000000000568e+01 4.552189142804631672e+01
5.280000000000000426e+01 4.533602899578843903e+01
5.320000000000000284e+01 4.515237979994794415e+01
5.360000000000000142e+01 4.497089974091449704e+01
5.400000000000000000e+01 4.479154594789252997e+01
5.440000000000000568e+01 4.461427673501292901e+01
5.480000000000000426e+01 4.443905155935328111e+01
5.520000000000000284e+01 4.426583098076899603e+01
5.560000000000000142e+01 4.409457662344318152e+01
5.600000000000000000e+01 4.392525113906887668e+01
5.640000000000000568e+01 4.383541357902191038e+01
5.680000000000000426e+01 4.367343665613947223e+01
5.720000000000000284e+01 4.351321764978845152e+01
5.760000000000000142e+01 4.335472466209829889e+01
5.800000000000000000e+01 4.319792660397950357e+01
5.840000000000000568e+01 4.304279316886023565e+01
5.880000000000000426e+01 4.288929480746038081e+01
5.920000000000000284e+01 4.273740270355479964e+01
5.960000000000000142e+01 4.258708875068044364e+01
6.000000000000000000e+01 4.243832552974375005e+01
6.040000000000000568e+01 4.229108628748763721e+01
6.080000000000000426e+01 4.214495969654064567e+01
6.120000000000000284e+01 4.199950607610941233e+01
6.160000000000000142e+01 4.185551824493826700e+01
6.200000000000000000e+01 4.171297151450082197e+01
6.240000000000000568e+01 4.157184177742942666e+01
6.280000000000000426e+01 4.143210548999154241e+01
6.320000000000000284e+01 4.129373965520903056e+01
6.360000000000000142e+01 4.115672180659240098e+01
6.400000000000000000e+01 4.102102999246415038e+01
6.440000000000000568e+01 4.088664276084547566e+01
6.480000000000001137e+01 4.075353914488313478e+01
6.520000000000000284e+01 4.062150880990006385e+01
6.559999999999999432e+01 4.049050559441826636e+01
6.600000000000000000e+01 4.036073041307096787e+01
6.640000000000000568e+01 4.029865290661386013e+01
6.680000000000001137e+01 4.017530988072482501e+01
6.720000000000000284e+01 4.005309345204760518e+01
6.759999999999999432e+01 3.993198635968781218e+01
6.800000000000000000e+01 3.981197171259870515e+01
6.840000000000000568e+01 3.969303297942983022e+01
6.880000000000001137e+01 3.957515397871465268e+01
6.920000000000000284e+01 3.945831886938399435e+01
6.959999999999999432e+01 3.934251214159228027e+01
7.000000000000000000e+01 3.922771860784466469e+01
7.040000000000000568e+01 3.911392339441348298e+01
7.080000000000001137e+01 3.900111193303266077e+01
7.120000000000000284e+01 3.888926995285980581e+01
7.159999999999999432e+01 3.877838347269555896e+01
7.200000000000000000e+01 3.869087851336471573e+01
7.240000000000000568e+01 3.858286440180704346e+01
7.280000000000001137e+01 3.847575374666790538e+01
7.320000000000000284e+01 3.836953385397950456e+01
7.359999999999999432e+01 3.826419227942727730e+01
7.400000000000000000e+01 3.815971682205655213e+01
7.440000000000000568e+01 3.805609551817222780e+01
7.479999999999999716e+01 3.795331663542470579e+01
7.520000000000000284e+01 3.785530984862337078e+01
7.560000000000000853e+01 3.775471598514867111e+01
7.600000000000000000e+01 3.765492617442345136e+01
7.640000000000000568e+01 3.755592960721381246e+01
7.679999999999999716e+01 3.745771567791754819e+01
7.720000000000000284e+01 3.735784170685443684e+01
7.760000000000000853e+01 3.725837395921604411e+01
7.800000000000000000e+01 3.715968680388989753e+01
7.840000000000000568e+01 3.706176996627730347e+01
7.879999999999999716e+01 3.696461336118574081e+01
7.920000000000000284e+01 3.686820708834996196e+01
7.960000000000000853e+01 3.677254142808207149e+01
8.000000000000000000e+01 3.667760683704623403e+01
8.040000000000000568e+01 3.658339394415379786e+01
8.079999999999999716e+01 3.648989354657481954e+01
8.120000000000000284e+01 3.639709660586218121e+01
8.160000000000000853e+01 3.630499424418439247e+01
8.200000000000000000e+01 3.621357774066353130e+01
8.240000000000000568e+01 3.612283852781503413e+01
8.279999999999999716e+01 3.603276818808578241e+01
8.320000000000000284e+01 3.594331115517066166e+01
8.360000000000000853e+01 3.585437972987156741e+01
8.400000000000000000e+01 3.576609388629290009e+01
8.440000000000000568e+01 3.567844576452809946e+01
8.479999999999999716e+01 3.559142763874808679e+01
8.520000000000000284e+01 3.550503191426605554e+01
8.560000000000000853e+01 3.541914382150064000e+01
8.600000000000000000e+01 3.533378509723607408e+01
8.640000000000000568e+01 3.524803663627808703e+01
8.680000000000001137e+01 3.516274994861914394e+01
8.720000000000000284e+01 3.507806145206721737e+01
8.760000000000000853e+01 3.499396412114944610e+01
8.800000000000000000e+01 3.491045104596622650e+01
8.840000000000000568e+01 3.482751542975136516e+01
8.880000000000001137e+01 3.474515058649529209e+01
8.920000000000000284e+01 3.466334993862885483e+01
8.960000000000000853e+01 3.458210701476626525e+01
9.000000000000000000e+01 3.450141544750528766e+01
9.040000000000000568e+01 3.442126897128291318e+01
9.080000000000001137e+01 3.434166142028487201e+01
9.120000000000000284e+01 3.426258672640756942e+01
9.160000000000000853e+01 3.418403891727065513e+01
9.200000000000000000e+01 3.410601211427885460e+01
9.240000000000000568e+01 3.402850053073169079e+01
9.280000000000001137e+01 3.395149846997959031e+01
9.320000000000000284e+01 3.387500032362505920e+01
9.360000000000000853e+01 3.379900056976769207e+01
9.400000000000000000e+01 3.372349377129171444e+01
9.440000000000000568e+01 3.364847457419477905e+01
9.480000000000001137e+01 3.357393770595702875e+01
9.520000000000000284e+01 3.349987797394901179e+01
9.560000000000000853e+01 3.342629026387770352e+01
9.600000000000000000e+01 3.335029943570519606e+01
9.640000000000000568e+01 3.327807150438350448e+01
9.680000000000001137e+01 3.320629726587807085e+01
9.720000000000000284e+01 3.313365294111592618e+01
9.760000000000000853e+01 3.306317823373047560e+01
9.800000000000000000e+01 3.299313971549957358e+01
9.840000000000000568e+01 3.292353285948828301e+01
9.880000000000001137e+01 3.285435320466108777e+01
9.920000000000000284e+01 3.278559635464927879e+01
9.960000000000000853e+01 3.271725797654633539e+01
1.000000000000000000e+02 3.264933379973090410e+01
1.004000000000000057e+02 3.258181961471612453e+01
1.008000000000000114e+02 3.251471127202520250e+01
1.012000000000000028e+02 3.244800468109188785e+01
1.016000000000000085e+02 3.238169580918583534e+01
1.020000000000000000e+02 3.231578068036162676e+01
1.024000000000000057e+02 3.225025537443131185e+01
1.028000000000000114e+02 3.218511602595943799e+01
1.032000000000000028e+02 3.212035882328033409e+01
1.036000000000000085e+02 3.205598000753680310e+01
1.040000000000000000e+02 3.199197587173985369e+01
1.044000000000000057e+02 3.192834275984886006e+01
1.048000000000000114e+02 3.186507706587154587e+01
1.052000000000000028e+02 3.180217523298346904e+01
1.056000000000000085e+02 3.173963375266634301e+01
1.060000000000000000e+02 3.167744916386482146e+01
1.064000000000000057e+02 3.161561805216122067e+01
1.068000000000000114e+02 3.155413704896773908e+01
1.072000000000000028e+02 3.149300283073580431e+01
1.076000000000000085e+02 3.143221211818200800e+01
1.080000000000000000e+02 3.137176167553031902e+01
1.084000000000000057e+02 3.131164830977006730e+01
1.088000000000000114e+02 3.125162819809094117e+01
1.092000000000000028e+02 3.119176507449045488e+01
1.096000000000000085e+02 3.113223309267353045e+01
1.100000000000000000e+02 3.107302918356905863e+01
1.104000000000000057e+02 3.111729779771416560e+01
1.108000000000000114e+02 3.108869469534556984e+01
1.112000000000000028e+02 3.103398652192829132e+01
1.116000000000000085e+02 3.097956790239015845e+01
1.120000000000000000e+02 3.092543625174843314e+01
1.124000000000000057e+02 3.087158901746114026e+01
1.128000000000000114e+02 3.081802367890320227e+01
1.132000000000000028e+02 3.076473774685298679e+01
1.136000000000000085e+02 3.071172876298887289e+01
1.140000000000000000e+02 3.065899429939575782e+01
1.144000000000000057e+02 3.060653195808107085e+01
1.148000000000000114e+02 3.055433937050032611e+01
1.152000000000000028e+02 3.050241419709177393e+01
1.156000000000000085e+02 3.045075412682006899e+01
1.160000000000000000e+02 3.039935687672871012e+01
1.164000000000000057e+02 3.034822019150104921e+01
1.168000000000000114e+02 3.029734184302969524e+01
1.172000000000000028e+02 3.024671962999410368e+01
1.176000000000000085e+02 3.019635137744618447e+01
1.180000000000000000e+02 3.014623493640372587e+01
1.184000000000000057e+02 3.009636818345146736e+01
1.188000000000000114e+02 3.004674902034972916e+01
1.192000000000000028e+02 2.999737537365023243e+01
1.196000000000000085e+02 2.994824519431920606e+01
1.200000000000000000e+02 2.989935645736740355e+01
1.204000000000000057e+02 2.985070716148705117e+01
1.208000000000000114e+02 2.980229532869538289e+01
1.212000000000000028e+02 2.975411900398484377e+01
1.216000000000000085e+02 2.971060931599990340e+01
1.220000000000000000e+02 2.966309030755830634e+01
1.224000000000000057e+02 2.961579992317997778e+01
1.228000000000000114e+02 2.956873630692575361e+01
1.232000000000000028e+02 2.952698335180980393e+01
1.236000000000000085e+02 2.948059119995967237e+01
1.240000000000000000e+02 2.943441891797206011e+01
1.244000000000000057e+02 2.938846474689471222e+01
1.248000000000000114e+02 2.934272694757258648e+01
1.252000000000000028e+02 2.929720380036094696e+01
1.256000000000000085e+02 2.925189360484357337e+01
1.260000000000000000e+02 2.920679467955590169e+01
1.264000000000000057e+02 2.916190536171307457e+01
1.268000000000000114e+02 2.911722400694275237e+01
1.272000000000000028e+02 2.907274898902254989e+01
1.276000000000000085e+02 2.902847869962212712e+01
1.280000000000000000e+02 2.898441154804971731e+01
1.284000000000000057e+02 2.894054596100301779e+01
1.288000000000000114e+02 2.889688038232440448e+01
1.291999999999999886e+02 2.885341327276041312e+01
1.296000000000000227e+02 2.881014310972522452e+01
1.300000000000000000e+02 2.876706838706832414e+01
1.304000000000000057e+02 2.872418761484598093e+01
1.308000000000000114e+02 2.868149931909676198e+01
1.311999999999999886e+02 2.863900204162074203e+01
1.316000000000000227e+02 2.859669433976246111e+01
1.320000000000000000e+02 2.855457478619754141e+01
1.324000000000000057e+02 2.851264196872291024e+01
1.328000000000000114e+02 2.847089449005048323e+01
1.331999999999999886e+02 2.842933096760433287e+01
1.336000000000000227e+02 2.838795003332118938e+01
1.340000000000000000e+02 2.834675033345428119e+01
1.344000000000000057e+02 2.830572602877352750e+01
1.348000000000000114e+02 2.826484528166337640e+01
1.351999999999999886e+02 2.822414183875368821e+01
1.356000000000000227e+02 2.818350835019680645e+01
1.360000000000000000e+02 2.814281056144035986e+01
1.364000000000000057e+02 2.810228844029651540e+01
1.368000000000000114e+02 2.806194070787125128e+01
1.371999999999999886e+02 2.802176609837039223e+01
1.376000000000000227e+02 2.798176049362078643e+01
1.380000000000000000e+02 2.794188046801091119e+01
1.384000000000000057e+02 2.790217006152112234e+01
1.388000000000000114e+02 2.786262805760108208e+01
1.392000000000000171e+02 2.782325325197682986e+01
1.395999999999999943e+02 2.778404445249128685e+01
1.400000000000000000e+02 2.774500047894721888e+01
1.404000000000000057e+02 2.770612016295278224e+01
1.408000000000000114e+02 2.766740234776940000e+01
1.412000000000000171e+02 2.762884588816209686e+01
1.415999999999999943e+02 2.759044965025218943e+01
1.420000000000000000e+02 2.755221251137223959e+01
1.424000000000000057e+02 2.751413335992330644e+01
1.428000000000000114e+02 2.747621109523440808e+01
1.432000000000000171e+02 2.743844462742416823e+01
1.435999999999999943e+02 2.740083287726460881e+01
1.440000000000000000e+02 2.736308917202417135e+01
1.444000000000000057e+02 2.732523208348730392e+01
1.448000000000000114e+02 2.728752983973404866e+01
1.452000000000000171e+02 2.724998137435796508e+01
1.455999999999999943e+02 2.721258563128061780e+01
1.460000000000000000e+02 2.717534156462276940e+01
1.464000000000000057e+02 2.713824813857760176e+01
1.468000000000000114e+02 2.710130432728582051e+01
1.472000000000000171e+02 2.706450911471266707e+01
1.475999999999999943e+02 2.702786149452678899e+01
1.480000000000000000e+02 2.699136046998093974e+01
1.484000000000000057e+02 2.695500505379446210e+01
1.488000000000000114e+02 2.691901486211633099e+01
1.492000000000000171e+02 2.688302021197448255e+01
1.495999999999999943e+02 2.684716810219213912e+01
1.500000000000000000e+02 2.681145758214699626e+01
