1.000000000000000000e+01 8.616636993119325894e+01
1.040000000000000036e+01 8.500808524885300699e+01
1.080000000000000071e+01 8.456435361348613355e+01
1.119999999999999929e+01 8.410641218958681975e+01
1.159999999999999964e+01 7.776295256954094270e+01
1.200000000000000000e+01 7.593990688088301511e+01
1.240000000000000036e+01 7.426398873862629557e+01
1.280000000000000071e+01 7.271199874695136600e+01
1.319999999999999929e+01 7.126633539019798036e+01
1.359999999999999964e+01 6.991322197726042020e+01
1.400000000000000000e+01 6.864160529826807533e+01
1.440000000000000036e+01 6.731105996692426174e+01
1.480000000000000071e+01 6.599277466174214624e+01
1.519999999999999929e+01 6.474699973952598953e+01
1.560000000000000142e+01 6.356699989828169350e+01
1.600000000000000000e+01 6.244692940621582267e+01
1.639999999999999858e+01 6.138167881490903710e+01
1.680000000000000071e+01 6.036675428559421874e+01
1.719999999999999929e+01 5.939818129981640027e+01
1.760000000000000142e+01 5.847242691204101561e+01
1.800000000000000000e+01 5.939553373336725173e+01
1.839999999999999858e+01 5.857097637022110348e+01
1.880000000000000071e+01 5.778014208240507799e+01
1.920000000000000284e+01 5.702070261821315000e+01
1.960000000000000142e+01 5.629055786645232473e+01
2.000000000000000000e+01 5.558780672600590833e+01
2.039999999999999858e+01 5.491072256695992593e+01
2.080000000000000071e+01 5.425773242422583564e+01
2.120000000000000284e+01 5.363425844830928213e+01
2.160000000000000142e+01 5.306317242779695675e+01
2.200000000000000000e+01 5.250947159015384358e+01
2.239999999999999858e+01 5.197225259407647968e+01
2.280000000000000071e+01 5.145067873939974845e+01
2.320000000000000284e+01 5.094397356836642388e+01
2.360000000000000142e+01 5.045141522606827067e+01
2.400000000000000000e+01 4.997233147267698428e+01
2.439999999999999858e+01 4.950609525770677521e+01
2.480000000000000071e+01 4.905212078089024885e+01
2.520000000000000284e+01 4.860985997598686481e+01
2.560000000000000142e+01 4.817879936350649217e+01
2.600000000000000000e+01 4.775845722632854518e+01
2.640000000000000213e+01 4.734838106884933495e+01
2.680000000000000071e+01 4.628332526534102698e+01
2.719999999999999929e+01 4.591929602225849294e+01
2.760000000000000142e+01 4.560507042439860470e+01
2.800000000000000000e+01 4.529791047926671865e+01
2.840000000000000213e+01 4.503643542536228495e+01
2.880000000000000071e+01 4.479324314864472001e+01
2.920000000000000284e+01 4.455497301784144071e+01
2.960000000000000142e+01 4.432144924502838279e+01
3.000000000000000000e+01 4.409250494001401677e+01
3.040000000000000213e+01 4.386798153205696593e+01
3.080000000000000071e+01 4.364772823724511852e+01
3.120000000000000284e+01 4.343160156730846921e+01
3.160000000000000142e+01 4.321946487608545340e+01
3.200000000000000000e+01 4.301118794025744307e+01
3.240000000000000568e+01 4.279813401694015340e+01
3.279999999999999716e+01 4.257993313885528153e+01
3.320000000000000284e+01 4.236583033773229090e+01
3.360000000000000142e+01 4.215568937448645670e+01
3.400000000000000000e+01 4.194938045290736284e+01
3.440000000000000568e+01 4.174677982680822197e+01
3.479999999999999716e+01 4.154776943640622733e+01
3.520000000000000284e+01 4.135223657137228770e+01
3.560000000000000142e+01 4.116007355824574176e+01
3.600000000000000000e+01 4.097117747013912492e+01
3.640000000000000568e+01 4.078544985686048108e+01
3.679999999999999716e+01 4.060279649376195721e+01
3.720000000000000284e+01 4.042312714778376659e+01
3.760000000000000142e+01 4.024635535930735131e+01
3.800000000000000000e+01 4.007239823855888972e+01
3.840000000000000568e+01 3.990117627542028345e+01
3.879999999999999716e+01 3.973261316160746048e+01
3.920000000000000284e+01 3.967189907780657165e+01
3.960000000000000142e+01 3.952834804740411556e+01
4.000000000000000000e+01 3.938670515289874174e+01
4.040000000000000568e+01 3.924692454311417578e+01
4.079999999999999716e+01 3.910896196543969694e+01
4.120000000000000284e+01 3.897277469307748987e+01
4.160000000000000142e+01 3.883832145635481936e+01
4.200000000000000000e+01 3.870556237783338815e+01
4.239999999999999858e+01 3.857445891096779889e+01
4.280000000000000426e+01 3.844497378208428984e+01
4.320000000000000284e+01 3.831707093546748411e+01
4.360000000000000142e+01 3.819071548135842420e+01
4.400000000000000000e+01 3.806587364668181550e+01
4.439999999999999858e+01 3.794251272833310651e+01
4.480000000000000426e+01 3.782060104886829777e+01
4.520000000000000284e+01 3.770010791445042742e+01
4.560000000000000142e+01 3.758100357491701260e+01
4.600000000000000000e+01 3.745796347583090835e+01
4.639999999999999858e+01 3.733514229010040708e+01
4.680000000000000426e+01 3.721377695691737131e+01
4.720000000000000284e+01 3.709383680702985231e+01
4.760000000000000142e+01 3.697529209632340752e+01
4.800000000000000000e+01 3.685811396971293874e+01
4.840000000000000568e+01 3.674227442675627486e+01
4.880000000000000426e+01 3.662774628889280848e+01
4.920000000000000284e+01 3.651450316821678399e+01
4.960000000000000142e+01 3.640251943770045528e+01
5.000000000000000000e+01 3.629177020278794430e+01
5.040000000000000568e+01 3.618223127428527874e+01
5.080000000000000426e+01 3.607387914247718186e+01
5.120000000000000284e+01 3.596669095240488190e+01
5.160000000000000142e+01 3.586064448024387730e+01
5.200000000000000000e+01 3.379828785609494446e+01
5.240000000000000568e+01 3.368675066548919972e+01
5.280000000000000426e+01 3.357642423600806580e+01
5.320000000000000284e+01 3.147867119008881787e+01
5.360000000000000142e+01 3.151732505936457329e+01
5.400000000000000000e+01 3.140405260091343465e+01
5.440000000000000568e+01 3.129201061781942173e+01
5.480000000000000426e+01 3.118117659778711470e+01
5.520000000000000284e+01 3.107152860390047522e+01
5.560000000000000142e+01 3.096304525580884359e+01
5.600000000000000000e+01 3.085570571166078935e+01
5.640000000000000568e+01 3.074948965075120810e+01
5.680000000000000426e+01 3.064437725684829061e+01
5.720000000000000284e+01 3.054034920216930615e+01
5.760000000000000142e+01 3.043738663197513716e+01
5.800000000000000000e+01 3.033547114975578296e+01
5.840000000000000568e+01 3.023458480298000950e+01
5.880000000000000426e+01 3.013471006938389962e+01
5.920000000000000284e+01 3.003582984377436560e+01
5.960000000000000142e+01 2.993792742532478712e+01
6.000000000000000000e+01 2.984098650534130925e+01
6.040000000000000568e+01 2.974499115547921946e+01
6.080000000000000426e+01 2.964992581638988867e+01
6.120000000000000284e+01 2.955577528677986976e+01
6.160000000000000142e+01 2.946398838057570302e+01
6.200000000000000000e+01 2.937362133721649116e+01
6.240000000000000568e+01 2.928408278858487535e+01
6.280000000000000426e+01 2.919535987265215837e+01
6.320000000000000284e+01 2.910744000827993005e+01
6.360000000000000142e+01 2.902031088732404385e+01
6.400000000000000000e+01 2.893396046700969038e+01
6.440000000000000568e+01 2.884837696256676765e+01
6.480000000000001137e+01 2.876354884011490753e+01
6.520000000000000284e+01 2.867946480978825008e+01
6.559999999999999432e+01 2.859611381909038030e+01
6.600000000000000000e+01 2.851348504647038951e+01
6.640000000000000568e+01 2.843156789511134974e+01
6.680000000000001137e+01 2.835035198692288105e+01
6.720000000000000284e+01 2.826982715672988888e+01
6.759999999999999432e+01 2.818998344665005007e+01
6.800000000000000000e+01 2.811081110065256183e+01
6.840000000000000568e+01 2.803230055929152442e+01
6.880000000000001137e+01 2.795444245460707933e+01
6.920000000000000284e+01 2.787722760518830256e+01
6.959999999999999432e+01 2.780064701139141192e+01
7.000000000000000000e+01 2.772469185070793429e+01
7.040000000000000568e+01 2.758506961816493330e+01
7.080000000000001137e+01 2.751050264301890280e+01
7.120000000000000284e+01 2.743654237607517388e+01
7.159999999999999432e+01 2.736318044412990957e+01
7.200000000000000000e+01 2.729040863654604721e+01
7.240000000000000568e+01 2.721821890119273490e+01
7.280000000000001137e+01 2.714660334050856250e+01
7.320000000000000284e+01 2.707555420768421683e+01
7.359999999999999432e+01 2.700506390296028769e+01
7.400000000000000000e+01 2.693512497003612438e+01
7.440000000000000568e+01 2.686573009258579958e+01
7.479999999999999716e+01 2.679687209087738609e+01
7.520000000000000284e+01 2.672854391849199374e+01
7.560000000000000853e+01 2.666073865913900320e+01
7.600000000000000000e+01 2.659344952356427427e+01
7.640000000000000568e+01 2.652666984654801752e+01
7.679999999999999716e+01 2.646039308398934153e+01
7.720000000000000284e+01 2.639218053728729174e+01
7.760000000000000853e+01 2.632410237431589906e+01
7.800000000000000000e+01 2.625507393792864974e+01
7.840000000000000568e+01 2.618513477857821670e+01
7.879999999999999716e+01 2.611572512675791558e+01
7.920000000000000284e+01 2.604683823149624189e+01
7.960000000000000853e+01 2.597755461034195790e+01
8.000000000000000000e+01 2.590864214889105455e+01
8.040000000000000568e+01 2.584024575108917077e+01
8.079999999999999716e+01 2.577235892315232491e+01
8.120000000000000284e+01 2.570497528579996072e+01
8.160000000000000853e+01 2.563808857166567634e+01
8.200000000000000000e+01 2.557169262277920296e+01
8.240000000000000568e+01 2.550578138811733453e+01
8.279999999999999716e+01 2.544034892122163427e+01
8.320000000000000284e+01 2.537538937788073667e+01
8.360000000000000853e+01 2.531089701387514879e+01
8.400000000000000000e+01 2.524686618278273542e+01
8.440000000000000568e+01 2.518329133384262519e+01
8.479999999999999716e+01 2.512016700987620510e+01
8.520000000000000284e+01 2.505748784526286954e+01
8.560000000000000853e+01 2.499524856396923411e+01
8.600000000000000000e+01 2.493344397763001297e+01
8.640000000000000568e+01 2.487206898367884023e+01
8.680000000000001137e+01 2.481111856352777068e+01
8.720000000000000284e+01 2.475058778079370114e+01
8.760000000000000853e+01 2.469047177957045847e+01
8.800000000000000000e+01 2.463076578274518624e+01
8.840000000000000568e+01 2.457146509035748494e+01
8.880000000000001137e+01 2.451256507800029993e+01
8.920000000000000284e+01 2.445406119526109734e+01
8.960000000000000853e+01 2.440837204463229426e+01
9.000000000000000000e+01 2.435195343356854636e+01
9.040000000000000568e+01 2.429590403741093496e+01
9.080000000000001137e+01 2.424021978057646010e+01
9.120000000000000284e+01 2.418489665085419915e+01
9.160000000000000853e+01 2.412993069813536096e+01
9.200000000000000000e+01 2.407531803317428398e+01
9.240000000000000568e+01 2.402105482637980316e+01
9.280000000000001137e+01 2.396713730663586972e+01
9.320000000000000284e+01 2.391356176015071355e+01
9.360000000000000853e+01 2.386032452933363146e+01
9.400000000000000000e+01 2.380742201169882577e+01
9.440000000000000568e+01 2.375485065879517776e+01
9.480000000000001137e+01 2.370260697516159354e+01
9.520000000000000284e+01 2.365068751730700569e+01
9.560000000000000853e+01 2.359908889271430255e+01
9.600000000000000000e+01 2.354780775886773014e+01
9.640000000000000568e+01 2.349684082230284332e+01
9.680000000000001137e+01 2.344618483767862926e+01
9.720000000000000284e+01 2.339583660687107880e+01
9.760000000000000853e+01 2.334579297808756593e+01
9.800000000000000000e+01 2.329605084500160217e+01
9.840000000000000568e+01 2.324660714590736177e+01
9.880000000000001137e+01 2.319745886289337022e+01
9.920000000000000284e+01 2.314860302103492984e+01
9.960000000000000853e+01 2.309971977612423188e+01
1.000000000000000000e+02 2.305102686044212845e+01
1.004000000000000057e+02 2.300262139457326782e+01
1.008000000000000114e+02 2.295450052379640127e+01
1.012000000000000028e+02 2.290666143325048409e+01
1.016000000000000085e+02 2.285910134721816078e+01
1.020000000000000000e+02 2.281181752842512367e+01
1.024000000000000057e+02 2.276480727735467013e+01
1.028000000000000114e+02 2.271806793157727355e+01
1.032000000000000028e+02 2.267159686509466354e+01
1.036000000000000085e+02 2.262539148769802466e+01
1.040000000000000000e+02 2.257944924434014311e+01
1.044000000000000057e+02 2.253376761452085120e+01
1.048000000000000114e+02 2.248834411168571279e+01
1.052000000000000028e+02 2.244317628263744169e+01
1.056000000000000085e+02 2.239826170695979002e+01
1.060000000000000000e+02 2.235359799645360113e+01
1.064000000000000057e+02 2.230918279458473918e+01
1.068000000000000114e+02 2.226501377594350117e+01
1.072000000000000028e+02 2.222108864571541176e+01
1.076000000000000085e+02 2.217740513916291434e+01
1.080000000000000000e+02 2.213396102111787656e+01
1.084000000000000057e+02 2.209075408548444486e+01
1.088000000000000114e+02 2.204778215475225878e+01
1.092000000000000028e+02 2.200504307951948135e+01
1.096000000000000085e+02 2.196253473802565281e+01
1.100000000000000000e+02 2.192025503569401579e+01
1.104000000000000057e+02 2.199174320889414247e+01
1.108000000000000114e+02 2.195255992405953194e+01
1.112000000000000028e+02 2.191358011560275898e+01
1.116000000000000085e+02 2.198490259861122098e+01
1.120000000000000000e+02 2.194865818025788684e+01
1.124000000000000057e+02 2.191259438287901418e+01
1.128000000000000114e+02 2.187670967450997495e+01
1.132000000000000028e+02 2.184100254152320275e+01
1.136000000000000085e+02 2.180547148834511617e+01
1.140000000000000000e+02 2.177011503717843510e+01
1.144000000000000057e+02 2.173493172772966631e+01
1.148000000000000114e+02 2.169992011694179013e+01
1.152000000000000028e+02 2.166507877873182508e+01
1.156000000000000085e+02 2.163040630373338757e+01
1.160000000000000000e+02 2.159590129904399447e+01
1.164000000000000057e+02 2.156156238797699132e+01
1.168000000000000114e+02 2.152738820981810619e+01
1.172000000000000028e+02 2.149337741958649417e+01
1.176000000000000085e+02 2.145952868780010903e+01
1.180000000000000000e+02 2.142584070024534171e+01
1.184000000000000057e+02 2.139231215775094341e+01
1.188000000000000114e+02 2.135894177596589927e+01
1.192000000000000028e+02 2.132572828514148711e+01
1.196000000000000085e+02 2.129267042991708792e+01
1.200000000000000000e+02 2.125976696910996466e+01
1.204000000000000057e+02 2.122701667550874305e+01
1.208000000000000114e+02 2.119441833567059064e+01
1.212000000000000028e+02 2.116197074972195580e+01
1.216000000000000085e+02 2.112966880081425103e+01
1.220000000000000000e+02 2.109750856605107572e+01
1.224000000000000057e+02 2.106549473910096992e+01
1.228000000000000114e+02 2.103362618409175155e+01
1.232000000000000028e+02 2.100190177761286137e+01
1.236000000000000085e+02 2.097032040853866874e+01
1.240000000000000000e+02 2.093888097785484348e+01
1.244000000000000057e+02 2.090758239848774025e+01
1.248000000000000114e+02 2.087642359513672119e+01
1.252000000000000028e+02 2.084540350410943432e+01
1.256000000000000085e+02 2.081452107315979916e+01
1.260000000000000000e+02 2.078377526132884512e+01
1.264000000000000057e+02 2.075316503878822871e+01
1.268000000000000114e+02 2.072268938668647209e+01
1.272000000000000028e+02 2.069234729699770980e+01
1.276000000000000085e+02 2.066213777237304328e+01
1.280000000000000000e+02 2.063205982599442834e+01
1.284000000000000057e+02 2.060211248143094309e+01
1.288000000000000114e+02 2.057229477249748584e+01
1.291999999999999886e+02 2.054260574311591370e+01
1.296000000000000227e+02 2.051304444717829867e+01
1.300000000000000000e+02 2.048360994841268123e+01
1.304000000000000057e+02 2.045430132025085612e+01
1.308000000000000114e+02 2.042511764569839983e+01
1.311999999999999886e+02 2.039605801720690081e+01
1.316000000000000227e+02 2.036712153654813662e+01
1.320000000000000000e+02 2.033830731469047137e+01
1.324000000000000057e+02 2.030961447167710077e+01
1.328000000000000114e+02 2.028104213650639309e+01
1.331999999999999886e+02 2.025258944701412389e+01
1.336000000000000227e+02 2.022024098637155731e+01
1.340000000000000000e+02 2.019222775931505254e+01
1.344000000000000057e+02 2.016433099543683127e+01
1.348000000000000114e+02 2.013654987022946585e+01
1.351999999999999886e+02 2.010888356743776484e+01
1.356000000000000227e+02 2.008133127895208503e+01
1.360000000000000000e+02 2.005389220470328837e+01
1.364000000000000057e+02 2.002656555255945392e+01
1.368000000000000114e+02 1.999935053822412101e+01
1.371999999999999886e+02 1.997224638513617734e+01
1.376000000000000227e+02 1.994525232437133155e+01
1.380000000000000000e+02 1.991836759454507799e+01
1.384000000000000057e+02 1.989159144171717131e+01
1.388000000000000114e+02 1.986492311929765364e+01
1.392000000000000171e+02 1.983836188795424604e+01
1.395999999999999943e+02 1.981190701552122846e+01
1.400000000000000000e+02 1.978555777690970174e+01
1.404000000000000057e+02 1.975931345401921746e+01
1.408000000000000114e+02 1.973317333565078258e+01
1.412000000000000171e+02 1.970713671742116091e+01
1.415999999999999943e+02 1.968120290167850683e+01
1.420000000000000000e+02 1.965537119741926375e+01
1.424000000000000057e+02 1.962964092020632378e+01
1.428000000000000114e+02 1.960401139208840249e+01
1.432000000000000171e+02 1.957848194152068544e+01
1.435999999999999943e+02 1.955305190328655840e+01
1.440000000000000000e+02 1.952743501439780616e+01
1.444000000000000057e+02 1.950165025217028258e+01
1.448000000000000114e+02 1.947596624605878191e+01
1.452000000000000171e+02 1.944986768797065579e+01
1.455999999999999943e+02 1.942381744527113341e+01
1.460000000000000000e+02 1.939775550342374189e+01
1.464000000000000057e+02 1.937179576012207960e+01
1.468000000000000114e+02 1.934593753577219388e+01
1.472000000000000171e+02 1.932018015715589598e+01
1.475999999999999943e+02 1.929452295735369916e+01
1.480000000000000000e+02 1.926896527566880124e+01
1.484000000000000057e+02 1.924350645755220768e+01
1.488000000000000114e+02 1.921814585452896296e+01
1.492000000000000171e+02 1.919288282412547630e+01
1.495999999999999943e+02 1.916771672979790608e+01
1.500000000000000000e+02 1.914264694086155316e+01
