1.000000000000000000e+01 1.482329109382124273e+02
1.040000000000000036e+01 1.481984916818854288e+02
1.080000000000000071e+01 1.461952781481145962e+02
1.119999999999999929e+01 1.466522773657155767e+02
1.159999999999999964e+01 1.475326769194351186e+02
1.200000000000000000e+01 1.515371330259421541e+02
1.240000000000000036e+01 1.475828280457700998e+02
1.280000000000000071e+01 1.439882944443512258e+02
1.319999999999999929e+01 1.406943347939534874e+02
1.359999999999999964e+01 1.331764747045391175e+02
1.400000000000000000e+01 1.301220837150033844e+02
1.440000000000000036e+01 1.272859486144744352e+02
1.480000000000000071e+01 1.246405959771009151e+02
1.519999999999999929e+01 1.221790959737894156e+02
1.560000000000000142e+01 1.199316446232871698e+02
1.600000000000000000e+01 1.178102822639264673e+02
1.639999999999999858e+01 1.158026333949112114e+02
1.680000000000000071e+01 1.139065945369181065e+02
1.719999999999999929e+01 1.123728481342943297e+02
1.760000000000000142e+01 1.109125135676431597e+02
1.800000000000000000e+01 1.094921814642377456e+02
1.839999999999999858e+01 1.081337607752409156e+02
1.880000000000000071e+01 1.068329031669035487e+02
1.920000000000000284e+01 1.055854301585013530e+02
1.960000000000000142e+01 1.043875935163841291e+02
2.000000000000000000e+01 1.032360178333163105e+02
2.039999999999999858e+01 1.021276525043848125e+02
2.080000000000000071e+01 1.001078437360354911e+02
2.120000000000000284e+01 9.908450681660968939e+01
2.160000000000000142e+01 9.809733179727673757e+01
2.200000000000000000e+01 9.714414551772634354e+01
2.239999999999999858e+01 9.622295815899171600e+01
2.280000000000000071e+01 9.533194338042017080e+01
2.320000000000000284e+01 9.446942107791119270e+01
2.360000000000000142e+01 9.363384235681304801e+01
2.400000000000000000e+01 9.301627147232090920e+01
2.439999999999999858e+01 9.226326734513995120e+01
2.480000000000000071e+01 9.153195121083264496e+01
2.520000000000000284e+01 9.082125213662880014e+01
2.560000000000000142e+01 9.013017366251354190e+01
2.600000000000000000e+01 8.945778713831958839e+01
2.640000000000000213e+01 8.880117696436519736e+01
2.680000000000000071e+01 8.814785019898351948e+01
2.719999999999999929e+01 8.752126281674190977e+01
2.760000000000000142e+01 8.695174571401251740e+01
2.800000000000000000e+01 8.639621132159722094e+01
2.840000000000000213e+01 8.585406351790008728e+01
2.880000000000000071e+01 8.532474198507389929e+01
2.920000000000000284e+01 8.480771945104311271e+01
2.960000000000000142e+01 8.430249918986285707e+01
3.000000000000000000e+01 8.380861275199171700e+01
3.040000000000000213e+01 8.331875736152366585e+01
3.080000000000000071e+01 8.283811757475440629e+01
3.120000000000000284e+01 8.236782083970577162e+01
3.160000000000000142e+01 7.591370897741599322e+01
3.200000000000000000e+01 7.539468095043349649e+01
3.240000000000000568e+01 7.488666298994124304e+01
3.279999999999999716e+01 7.438926098490223637e+01
3.320000000000000284e+01 7.390210056575789110e+01
3.360000000000000142e+01 7.342482583855394296e+01
3.400000000000000000e+01 7.295709821771917802e+01
3.440000000000000568e+01 7.268751838307277069e+01
3.479999999999999716e+01 7.224966042985980152e+01
3.520000000000000284e+01 7.182010563265205860e+01
3.560000000000000142e+01 7.139858753401968272e+01
3.600000000000000000e+01 7.098485166113239586e+01
3.640000000000000568e+01 7.057865483490139979e+01
3.679999999999999716e+01 7.017976452757768868e+01
3.720000000000000284e+01 6.978795826480971698e+01
3.760000000000000142e+01 6.940302306854229641e+01
3.800000000000000000e+01 6.902475493747613200e+01
3.840000000000000568e+01 6.865295836211033986e+01
3.879999999999999716e+01 6.828744587166079327e+01
3.920000000000000284e+01 6.801256805046983800e+01
3.960000000000000142e+01 6.766666974994943473e+01
4.000000000000000000e+01 6.732635776238159053e+01
4.040000000000000568e+01 6.699147914153243732e+01
4.079999999999999716e+01 6.666188680946665102e+01
4.120000000000000284e+01 6.633743926826088000e+01
4.160000000000000142e+01 6.601800032892558079e+01
4.200000000000000000e+01 6.570255998098792816e+01
4.239999999999999858e+01 6.539075198873243266e+01
4.280000000000000426e+01 6.508361774668672695e+01
4.320000000000000284e+01 6.478103836183804276e+01
4.360000000000000142e+01 6.448289918538858956e+01
4.400000000000000000e+01 6.418908961856863016e+01
4.439999999999999858e+01 6.389950292925338715e+01
4.480000000000000426e+01 6.361403607867659105e+01
4.520000000000000284e+01 6.333258955758856246e+01
4.560000000000000142e+01 6.305506723125350277e+01
4.600000000000000000e+01 6.278137619272547454e+01
4.639999999999999858e+01 6.251064363566950988e+01
4.680000000000000426e+01 6.223701973553865230e+01
4.720000000000000284e+01 6.196705953028653369e+01
4.760000000000000142e+01 6.170067995388662752e+01
4.800000000000000000e+01 6.143678972348862999e+01
4.840000000000000568e+01 6.117534196747911324e+01
4.880000000000000426e+01 6.091727897176095752e+01
4.920000000000000284e+01 6.066252657498488787e+01
4.960000000000000142e+01 6.041101289981938294e+01
5.000000000000000000e+01 6.016266826260550715e+01
5.040000000000000568e+01 5.991742508736466277e+01
5.080000000000000426e+01 5.967521782391306573e+01
5.120000000000000284e+01 5.943598286985162105e+01
5.160000000000000142e+01 5.920569567157376412e+01
5.200000000000000000e+01 5.701778694423641980e+01
5.240000000000000568e+01 5.678233799001790771e+01
5.280000000000000426e+01 5.654970546131406905e+01
5.320000000000000284e+01 5.631983302977783268e+01
5.360000000000000142e+01 5.609266594346890855e+01
5.400000000000000000e+01 5.586815097027113097e+01
5.440000000000000568e+01 5.564623634378362738e+01
5.480000000000000426e+01 5.542687171155844794e+01
5.520000000000000284e+01 5.521000808556522088e+01
5.560000000000000142e+01 5.499559779476948052e+01
5.600000000000000000e+01 5.478359443971902465e+01
5.640000000000000568e+01 5.457395284903775234e+01
5.680000000000000426e+01 5.436662903773294175e+01
5.720000000000000284e+01 5.416158016722688728e+01
5.760000000000000142e+01 5.395876450702876070e+01
5.800000000000000000e+01 5.375814139796776203e+01
5.840000000000000568e+01 5.355967121691232080e+01
5.880000000000000426e+01 5.336331534290504663e+01
5.920000000000000284e+01 5.319073604337353345e+01
5.960000000000000142e+01 5.300075332588582455e+01
6.000000000000000000e+01 5.281274159468561891e+01
6.040000000000000568e+01 5.262666663150818636e+01
6.080000000000000426e+01 5.244210983062767184e+01
6.120000000000000284e+01 5.225862441353513077e+01
6.160000000000000142e+01 5.207699627612069548e+01
6.200000000000000000e+01 5.189719397631350972e+01
6.240000000000000568e+01 5.171918681717497890e+01
6.280000000000000426e+01 5.154294482424456447e+01
6.320000000000000284e+01 5.136843872372469377e+01
6.360000000000000142e+01 5.119563992146808573e+01
6.400000000000000000e+01 5.102452048273291041e+01
6.440000000000000568e+01 5.085505311267268524e+01
6.480000000000001137e+01 5.068721113752952334e+01
6.520000000000000284e+01 5.052096848650063521e+01
6.559999999999999432e+01 5.035629967425025910e+01
6.600000000000000000e+01 5.019317978403935854e+01
6.640000000000000568e+01 5.016456221879973754e+01
6.680000000000001137e+01 5.001253440484266122e+01
6.720000000000000284e+01 4.986189409244371973e+01
6.759999999999999432e+01 4.971261998704684970e+01
6.800000000000000000e+01 4.956469125197279624e+01
6.840000000000000568e+01 4.941808749578974869e+01
6.880000000000001137e+01 4.927278876010807807e+01
6.920000000000000284e+01 4.912877550778299707e+01
6.959999999999999432e+01 4.898602861150843069e+01
7.000000000000000000e+01 4.884452934278741054e+01
7.040000000000000568e+01 4.870363680387283267e+01
7.080000000000001137e+01 4.856386349096865729e+01
7.120000000000000284e+01 4.842529234992542797e+01
7.159999999999999432e+01 4.828790599942661999e+01
7.200000000000000000e+01 4.817412713019943737e+01
7.240000000000000568e+01 4.804006180724570640e+01
7.280000000000001137e+01 4.790711944363819441e+01
7.320000000000000284e+01 4.777528421445998674e+01
7.359999999999999432e+01 4.764454060738771801e+01
7.400000000000000000e+01 4.751487341476789794e+01
7.440000000000000568e+01 4.738626772593809733e+01
7.479999999999999716e+01 4.725870891978381394e+01
7.520000000000000284e+01 4.713218265752276182e+01
7.560000000000000853e+01 4.700667487570827774e+01
7.600000000000000000e+01 4.688217177944390102e+01
7.640000000000000568e+01 4.675865983580189322e+01
7.679999999999999716e+01 4.663612576743815907e+01
7.720000000000000284e+01 4.651212427360972157e+01
7.760000000000000853e+01 4.638871904788837242e+01
7.800000000000000000e+01 4.626628193578803661e+01
7.840000000000000568e+01 4.614480018641848602e+01
7.879999999999999716e+01 4.602426128424929885e+01
7.920000000000000284e+01 4.590465294353504788e+01
7.960000000000000853e+01 4.578596310290144089e+01
8.000000000000000000e+01 4.566817992008688520e+01
8.040000000000000568e+01 4.555129176683404779e+01
8.079999999999999716e+01 4.543528722392674979e+01
8.120000000000000284e+01 4.532015507636695872e+01
8.160000000000000853e+01 4.520588430868738072e+01
8.200000000000000000e+01 4.509246410039522601e+01
8.240000000000000568e+01 4.497988382154268550e+01
8.279999999999999716e+01 4.486813302842005413e+01
8.320000000000000284e+01 4.475715416405073199e+01
8.360000000000000853e+01 4.465992493734626123e+01
8.400000000000000000e+01 4.455118189343484403e+01
8.440000000000000568e+01 4.444322223943993322e+01
8.479999999999999716e+01 4.433603649163342908e+01
8.520000000000000284e+01 4.422961532733850021e+01
8.560000000000000853e+01 4.412394958141736367e+01
8.600000000000000000e+01 4.401903024285231680e+01
8.640000000000000568e+01 4.391286568445347882e+01
8.680000000000001137e+01 4.380716442890789608e+01
8.720000000000000284e+01 4.370220472371362064e+01
8.760000000000000853e+01 4.359797784090643091e+01
8.800000000000000000e+01 4.349447519663802098e+01
8.840000000000000568e+01 4.339168834811874831e+01
8.880000000000001137e+01 4.328960899063964263e+01
8.920000000000000284e+01 4.318822895467103251e+01
8.960000000000000853e+01 4.308754020303548771e+01
9.000000000000000000e+01 4.298753482815298810e+01
9.040000000000000568e+01 4.288820504935587508e+01
9.080000000000001137e+01 4.278954321027168817e+01
9.120000000000000284e+01 4.269154177627184765e+01
9.160000000000000853e+01 4.259419333198427893e+01
9.200000000000000000e+01 4.249749057886783987e+01
9.240000000000000568e+01 4.240142633284707330e+01
9.280000000000001137e+01 4.230599352200535179e+01
9.320000000000000284e+01 4.221118518433458888e+01
9.360000000000000853e+01 4.211699446554023041e+01
9.400000000000000000e+01 4.202341461689957924e+01
9.440000000000000568e+01 4.193043899317204648e+01
9.480000000000001137e+01 4.183806105055997193e+01
9.520000000000000284e+01 4.174627434471837262e+01
9.560000000000000853e+01 4.165507252881236866e+01
9.600000000000000000e+01 4.156157924905659939e+01
9.640000000000000568e+01 4.147195932508124372e+01
9.680000000000001137e+01 4.138284682296183803e+01
9.720000000000000284e+01 4.129415130873289286e+01
9.760000000000000853e+01 4.120600847540514167e+01
9.800000000000000000e+01 4.111841254660284761e+01
9.840000000000000568e+01 4.103135783067639863e+01
9.880000000000001137e+01 4.094483871910508554e+01
9.920000000000000284e+01 4.085884968493643044e+01
9.960000000000000853e+01 4.077338528126139749e+01
1.000000000000000000e+02 4.068844013972438489e+01
1.004000000000000057e+02 4.060400896906692481e+01
1.008000000000000114e+02 4.052008655370448764e+01
1.012000000000000028e+02 4.043666775233523225e+01
1.016000000000000085e+02 4.035374749658001292e+01
1.020000000000000000e+02 4.027132078965271944e+01
1.024000000000000057e+02 4.018938270506027521e+01
1.028000000000000114e+02 4.010792838533138394e+01
1.032000000000000028e+02 4.002695304077338534e+01
1.036000000000000085e+02 3.994645194825628209e+01
1.040000000000000000e+02 3.986642045002365364e+01
1.044000000000000057e+02 3.978685395252920642e+01
1.048000000000000114e+02 3.970774792529879704e+01
1.052000000000000028e+02 3.962909789981696917e+01
1.056000000000000085e+02 3.955089946843749260e+01
1.060000000000000000e+02 3.947314828331734304e+01
1.064000000000000057e+02 3.939584005537335543e+01
1.068000000000000114e+02 3.931897055326115265e+01
1.072000000000000028e+02 3.924253560237579563e+01
1.076000000000000085e+02 3.916653108387343707e+01
1.080000000000000000e+02 3.909095293371360214e+01
1.084000000000000057e+02 3.901579714172149238e+01
1.088000000000000114e+02 3.894099247617779014e+01
1.092000000000000028e+02 3.886645096611818673e+01
1.096000000000000085e+02 3.879232184414244955e+01
1.100000000000000000e+02 3.871860128627307063e+01
1.104000000000000057e+02 3.874843299801518981e+01
1.108000000000000114e+02 3.873308989384037915e+01
1.112000000000000028e+02 3.866531340503502179e+01
1.116000000000000085e+02 3.859789478804621154e+01
1.120000000000000000e+02 3.853083085417033971e+01
1.124000000000000057e+02 3.846547268078597881e+01
1.128000000000000114e+02 3.839941767743353296e+01
1.132000000000000028e+02 3.833370588437722404e+01
1.136000000000000085e+02 3.826833429050575575e+01
1.140000000000000000e+02 3.820329992187964763e+01
1.144000000000000057e+02 3.813859984114035484e+01
1.148000000000000114e+02 3.807423114693093424e+01
1.152000000000000028e+02 3.801019097332802232e+01
1.156000000000000085e+02 3.794647648928454231e+01
1.160000000000000000e+02 3.788308489808336788e+01
1.164000000000000057e+02 3.782001343680126837e+01
1.168000000000000114e+02 3.775725937578312141e+01
1.172000000000000028e+02 3.769482001812625782e+01
1.176000000000000085e+02 3.763269269917427096e+01
1.180000000000000000e+02 3.757087478602076658e+01
1.184000000000000057e+02 3.750936367702211527e+01
1.188000000000000114e+02 3.744815680131952718e+01
1.192000000000000028e+02 3.738725161837005828e+01
1.196000000000000085e+02 3.732664561748617871e+01
1.200000000000000000e+02 3.726633631738410912e+01
1.204000000000000057e+02 3.720632126574036391e+01
1.208000000000000114e+02 3.714659803875650113e+01
1.212000000000000028e+02 3.708716424073185181e+01
1.216000000000000085e+02 3.702801750364415057e+01
1.220000000000000000e+02 3.696915548673769081e+01
1.224000000000000057e+02 3.691057587611908275e+01
1.228000000000000114e+02 3.685227638436021635e+01
1.232000000000000028e+02 3.679934047786937157e+01
1.236000000000000085e+02 3.674181787697920498e+01
1.240000000000000000e+02 3.668456723123374275e+01
1.244000000000000057e+02 3.662758636930071532e+01
1.248000000000000114e+02 3.657087314425054103e+01
1.252000000000000028e+02 3.651442543320299450e+01
1.256000000000000085e+02 3.645824113698034807e+01
1.260000000000000000e+02 3.640231817976645345e+01
1.264000000000000057e+02 3.634665450877197657e+01
1.268000000000000114e+02 3.629124809390534523e+01
1.272000000000000028e+02 3.623609692744958721e+01
1.276000000000000085e+02 3.618115326595007986e+01
1.280000000000000000e+02 3.612638200011727463e+01
1.284000000000000057e+02 3.607186088156086612e+01
1.288000000000000114e+02 3.601758798166959252e+01
1.291999999999999886e+02 3.596356139276180386e+01
1.296000000000000227e+02 3.590977922779286047e+01
1.300000000000000000e+02 3.585623962006765453e+01
1.304000000000000057e+02 3.580294072295794194e+01
1.308000000000000114e+02 3.574988070962449882e+01
1.311999999999999886e+02 3.569705777274406699e+01
1.316000000000000227e+02 3.564447012424075467e+01
1.320000000000000000e+02 3.559211599502204848e+01
1.324000000000000057e+02 3.553999363471923090e+01
1.328000000000000114e+02 3.548810131143214619e+01
1.331999999999999886e+02 3.543643731147821541e+01
1.336000000000000227e+02 3.538499993914557962e+01
1.340000000000000000e+02 3.533378751645042115e+01
1.344000000000000057e+02 3.528279838289817860e+01
1.348000000000000114e+02 3.523203089524878351e+01
1.351999999999999886e+02 3.518148342728571265e+01
1.356000000000000227e+02 3.513094226520208707e+01
1.360000000000000000e+02 3.508013987562977576e+01
1.364000000000000057e+02 3.502955715991249974e+01
1.368000000000000114e+02 3.497919251609665281e+01
1.371999999999999886e+02 3.492904435867360746e+01
1.376000000000000227e+02 3.487910825305621643e+01
1.380000000000000000e+02 3.482934046047544285e+01
1.384000000000000057e+02 3.477978471096739810e+01
1.388000000000000114e+02 3.473043948120822222e+01
1.392000000000000171e+02 3.468130326327931812e+01
1.395999999999999943e+02 3.463237456446663032e+01
1.400000000000000000e+02 3.458365190706319936e+01
1.404000000000000057e+02 3.453513382817476440e+01
1.408000000000000114e+02 3.448681887952842118e+01
1.412000000000000171e+02 3.443870562728442764e+01
1.415999999999999943e+02 3.439079265185084466e+01
1.420000000000000000e+02 3.434307854770115398e+01
1.424000000000000057e+02 3.429556192319466845e+01
1.428000000000000114e+02 3.424824140039988407e+01
1.432000000000000171e+02 3.420111561492036856e+01
1.435999999999999943e+02 3.415418321572358451e+01
1.440000000000000000e+02 3.410715726094927902e+01
1.444000000000000057e+02 3.406005605589514573e+01
1.448000000000000114e+02 3.401314756476293866e+01
1.452000000000000171e+02 3.396896220643104414e+01
1.455999999999999943e+02 3.392259086142594526e+01
1.460000000000000000e+02 3.387640746518934520e+01
1.464000000000000057e+02 3.383041073442682034e+01
1.468000000000000114e+02 3.378459939817599178e+01
1.472000000000000171e+02 3.373897219765374444e+01
1.475999999999999943e+02 3.369352788610597571e+01
1.480000000000000000e+02 3.364826522865951830e+01
1.484000000000000057e+02 3.360318300217623744e+01
1.488000000000000114e+02 3.355827999510943016e+01
1.492000000000000171e+02 3.351355500736225679e+01
1.495999999999999943e+02 3.346900685014840349e+01
1.500000000000000000e+02 3.342463434585467041e+01
