1.000000000000000000e+01 7.050077713459747883e+02
1.040000000000000036e+01 7.006000061371306629e+02
1.080000000000000071e+01 6.969223156979386431e+02
1.119999999999999929e+01 6.893071094959752827e+02
1.159999999999999964e+01 6.768696345163170918e+02
1.200000000000000000e+01 6.652157678957787539e+02
1.240000000000000036e+01 6.542620477360337645e+02
1.280000000000000071e+01 6.439373046303795718e+02
1.319999999999999929e+01 6.341803824747039471e+02
1.359999999999999964e+01 6.249383631828144416e+02
1.400000000000000000e+01 6.161651670624756889e+02
1.440000000000000036e+01 6.078204372630091257e+02
1.480000000000000071e+01 5.998686418061820405e+02
1.519999999999999929e+01 5.922783442198535795e+02
1.560000000000000142e+01 5.850216062086635702e+02
1.600000000000000000e+01 5.780734947318973127e+02
1.639999999999999858e+01 5.714116723783995440e+02
1.680000000000000071e+01 5.650160547448023181e+02
1.719999999999999929e+01 5.588685221222115160e+02
1.760000000000000142e+01 5.529526755141200738e+02
1.800000000000000000e+01 5.472536290805651333e+02
1.839999999999999858e+01 5.417578326980656129e+02
1.880000000000000071e+01 5.364529195622041016e+02
1.920000000000000284e+01 5.313275747274536798e+02
1.960000000000000142e+01 5.263714212413747191e+02
2.000000000000000000e+01 5.215749211352849670e+02
2.039999999999999858e+01 5.169292890166665302e+02
2.080000000000000071e+01 5.124264163967981176e+02
2.120000000000000284e+01 5.080588052008870363e+02
2.160000000000000142e+01 5.038195091629762601e+02
2.200000000000000000e+01 4.997020820162342716e+02
2.239999999999999858e+01 4.957005315602626183e+02
2.280000000000000071e+01 4.918092788281425101e+02
2.320000000000000284e+01 4.880231216928370372e+02
2.360000000000000142e+01 4.843372023498405383e+02
2.400000000000000000e+01 4.807469781942389773e+02
2.439999999999999858e+01 4.772481956785188686e+02
2.480000000000000071e+01 4.738368667948599295e+02
2.520000000000000284e+01 4.705092478741381683e+02
2.560000000000000142e+01 4.672618204349843722e+02
2.600000000000000000e+01 4.640912738512186024e+02
2.640000000000000213e+01 4.609944896358190363e+02
2.680000000000000071e+01 4.579685271651325138e+02
2.719999999999999929e+01 4.550106106889525677e+02
2.760000000000000142e+01 4.521181174909693254e+02
2.800000000000000000e+01 4.492885670803818812e+02
2.840000000000000213e+01 4.465196113095607302e+02
2.880000000000000071e+01 4.438090253248788599e+02
2.920000000000000284e+01 4.411546992684652082e+02
2.960000000000000142e+01 4.385546306579018960e+02
3.000000000000000000e+01 4.360069173789917727e+02
3.040000000000000213e+01 4.335097512338085153e+02
3.080000000000000071e+01 4.310614119924701413e+02
3.120000000000000284e+01 4.286602619025427430e+02
3.160000000000000142e+01 4.263047406148052687e+02
3.200000000000000000e+01 4.239933604883574390e+02
3.240000000000000568e+01 4.217247022418196138e+02
3.279999999999999716e+01 4.194974109207009292e+02
3.320000000000000284e+01 4.173101921539773116e+02
3.360000000000000142e+01 4.151618086755436821e+02
3.400000000000000000e+01 4.130510770885528018e+02
3.440000000000000568e+01 4.109768648527384585e+02
3.479999999999999716e+01 4.089380874766879970e+02
3.520000000000000284e+01 4.069337058986970419e+02
3.560000000000000142e+01 4.049627240413404934e+02
3.600000000000000000e+01 4.030241865262263445e+02
3.640000000000000568e+01 4.011171765366165118e+02
3.679999999999999716e+01 3.992408138166750859e+02
3.720000000000000284e+01 3.973942527970866081e+02
3.760000000000000142e+01 3.955766808376690733e+02
3.800000000000000000e+01 3.937873165784008052e+02
3.840000000000000568e+01 3.920254083910047029e+02
3.879999999999999716e+01 3.902902329238824564e+02
3.920000000000000284e+01 3.885810937337853375e+02
3.960000000000000142e+01 3.868973199981441553e+02
4.000000000000000000e+01 3.852382653024703814e+02
4.040000000000000568e+01 3.836033064976821834e+02
4.079999999999999716e+01 3.819918426226146266e+02
4.120000000000000284e+01 3.804032938873424428e+02
4.160000000000000142e+01 3.788371007132787440e+02
4.200000000000000000e+01 3.772927228263213806e+02
4.239999999999999858e+01 3.757696383995971132e+02
4.280000000000000426e+01 3.742673432426163345e+02
4.320000000000000284e+01 3.727853500338782169e+02
4.360000000000000142e+01 3.713231875941902445e+02
4.400000000000000000e+01 3.698804001981595775e+02
4.439999999999999858e+01 3.684565469214966242e+02
4.480000000000000426e+01 3.670512010219379135e+02
4.520000000000000284e+01 3.656639493517533879e+02
4.560000000000000142e+01 3.642943917999373866e+02
4.600000000000000000e+01 3.629421407623210598e+02
4.639999999999999858e+01 3.616068206379600269e+02
4.680000000000000426e+01 3.602880673502628497e+02
4.720000000000000284e+01 3.589855278914304222e+02
4.760000000000000142e+01 3.576988598888694924e+02
4.800000000000000000e+01 3.564277311923322031e+02
4.840000000000000568e+01 3.551718194806160227e+02
4.880000000000000426e+01 3.539308118867307371e+02
4.920000000000000284e+01 3.527044046405134736e+02
4.960000000000000142e+01 3.514923027277335450e+02
5.000000000000000000e+01 3.502942195647916606e+02
5.040000000000000568e+01 3.491098766881733582e+02
5.080000000000000426e+01 3.479390034578670452e+02
5.120000000000000284e+01 3.467813367740091621e+02
5.160000000000000142e+01 3.456366208060583176e+02
5.200000000000000000e+01 3.445046067338494709e+02
5.240000000000000568e+01 3.433850524999098184e+02
5.280000000000000426e+01 3.422777225724632899e+02
5.320000000000000284e+01 3.411823877185767628e+02
5.360000000000000142e+01 3.400988247869391330e+02
5.400000000000000000e+01 3.390268164997895610e+02
5.440000000000000568e+01 3.379661512535404881e+02
5.480000000000000426e+01 3.369166229276688682e+02
5.520000000000000284e+01 3.358780307014696973e+02
5.560000000000000142e+01 3.348501788782908193e+02
5.600000000000000000e+01 3.338328767168907234e+02
5.640000000000000568e+01 3.328259382695757722e+02
5.680000000000000426e+01 3.318291822267985367e+02
5.720000000000000284e+01 3.308424317679115916e+02
5.760000000000000142e+01 3.298655144177895409e+02
5.800000000000000000e+01 3.288982619090476192e+02
5.840000000000000568e+01 3.279405100495981742e+02
5.880000000000000426e+01 3.269920985953027071e+02
5.920000000000000284e+01 3.260528711274873217e+02
5.960000000000000142e+01 3.251226749351020544e+02
6.000000000000000000e+01 3.242013609013177415e+02
6.040000000000000568e+01 3.232887833943618148e+02
6.080000000000000426e+01 3.223848001624082826e+02
6.120000000000000284e+01 3.214892722323407384e+02
6.160000000000000142e+01 3.206020638122247419e+02
6.200000000000000000e+01 3.197230421973247303e+02
6.240000000000000568e+01 3.188520776795162419e+02
6.280000000000000426e+01 3.179890434599483342e+02
6.320000000000000284e+01 3.171338155648175530e+02
6.360000000000000142e+01 3.162862727641231686e+02
6.400000000000000000e+01 3.154462964932806699e+02
6.440000000000000568e+01 3.146137707774717569e+02
6.480000000000001137e+01 3.137885821586214661e+02
6.520000000000000284e+01 3.129706196248916967e+02
6.559999999999999432e+01 3.121597745425914354e+02
6.600000000000000000e+01 3.113559405904043729e+02
6.640000000000000568e+01 3.105590136958410312e+02
6.680000000000001137e+01 3.097688919738267828e+02
6.720000000000000284e+01 3.089854756673412339e+02
6.759999999999999432e+01 3.082086670900282570e+02
6.800000000000000000e+01 3.074383705706978844e+02
6.840000000000000568e+01 3.066744923996492389e+02
6.880000000000001137e+01 3.059169407767408302e+02
6.920000000000000284e+01 3.051656257611439855e+02
6.959999999999999432e+01 3.044204592227125659e+02
7.000000000000000000e+01 3.036813547949092253e+02
7.040000000000000568e+01 3.029482278292290403e+02
7.080000000000001137e+01 3.022209953510630953e+02
7.120000000000000284e+01 3.014995760169508117e+02
7.159999999999999432e+01 3.007838900731663330e+02
7.200000000000000000e+01 3.000738593155920171e+02
7.240000000000000568e+01 2.993694070508322511e+02
7.280000000000001137e+01 2.986704580585189319e+02
7.320000000000000284e+01 2.979769385547700722e+02
7.359999999999999432e+01 2.972887761567560574e+02
7.400000000000000000e+01 2.966058998483358664e+02
7.440000000000000568e+01 2.959282399467255118e+02
7.479999999999999716e+01 2.952557280701598756e+02
7.520000000000000284e+01 2.945882971065152560e+02
7.560000000000000853e+01 2.939258811828576654e+02
7.600000000000000000e+01 2.932684156358850487e+02
7.640000000000000568e+01 2.926158369832326116e+02
7.679999999999999716e+01 2.919680828956107916e+02
7.720000000000000284e+01 2.913250921697473359e+02
7.760000000000000853e+01 2.906868047021085317e+02
7.800000000000000000e+01 2.900531614633683262e+02
7.840000000000000568e+01 2.894241044736047002e+02
7.879999999999999716e+01 2.887995767781966947e+02
7.920000000000000284e+01 2.881795224243987832e+02
7.960000000000000853e+01 2.875638864385708189e+02
8.000000000000000000e+01 2.869526148040407634e+02
8.040000000000000568e+01 2.863456544395811534e+02
8.079999999999999716e+01 2.857429531784767960e+02
8.120000000000000284e+01 2.851444597481674919e+02
8.160000000000000853e+01 2.845501237504439587e+02
8.200000000000000000e+01 2.839598956421817775e+02
8.240000000000000568e+01 2.833737267165943763e+02
8.279999999999999716e+01 2.827915690849900443e+02
8.320000000000000284e+01 2.822133756590151279e+02
8.360000000000000853e+01 2.816391001333698227e+02
8.400000000000000000e+01 2.810686969689805892e+02
8.440000000000000568e+01 2.805021213766156052e+02
8.479999999999999716e+01 2.799393293009289891e+02
8.520000000000000284e+01 2.793802774049206619e+02
8.560000000000000853e+01 2.788249230547995694e+02
8.600000000000000000e+01 2.782732243052366812e+02
8.640000000000000568e+01 2.777251398849976454e+02
8.680000000000001137e+01 2.771806291829415159e+02
8.720000000000000284e+01 2.766396522343768538e+02
8.760000000000000853e+01 2.761021697077615045e+02
8.800000000000000000e+01 2.755681428917391713e+02
8.840000000000000568e+01 2.750375336825000545e+02
8.880000000000001137e+01 2.745103045714566861e+02
8.920000000000000284e+01 2.739864186332272311e+02
8.960000000000000853e+01 2.734658395139140339e+02
9.000000000000000000e+01 2.729485314196723493e+02
9.040000000000000568e+01 2.724344591055581191e+02
9.080000000000001137e+01 2.719235878646480273e+02
9.120000000000000284e+01 2.714158835174237083e+02
9.160000000000000853e+01 2.709113124014123173e+02
9.200000000000000000e+01 2.704098413610765306e+02
9.240000000000000568e+01 2.699114377379466418e+02
9.280000000000001137e+01 2.694160693609875921e+02
9.320000000000000284e+01 2.689237045371951353e+02
9.360000000000000853e+01 2.684343120424138078e+02
9.400000000000000000e+01 2.679478611123712994e+02
9.440000000000000568e+01 2.674643214339222368e+02
9.480000000000001137e+01 2.669836631364971709e+02
9.520000000000000284e+01 2.665058567837490386e+02
9.560000000000000853e+01 2.660308733653931768e+02
9.600000000000000000e+01 2.655586842892354866e+02
9.640000000000000568e+01 2.650892613733827261e+02
9.680000000000001137e+01 2.646225768386312325e+02
9.720000000000000284e+01 2.641586033010278243e+02
9.760000000000000853e+01 2.636973137645999259e+02
9.800000000000000000e+01 2.632386816142487191e+02
9.840000000000000568e+01 2.627826806088021385e+02
9.880000000000001137e+01 2.623292848742232763e+02
9.920000000000000284e+01 2.618784688969694230e+02
9.960000000000000853e+01 2.614302075174986726e+02
1.000000000000000000e+02 2.609844759239196037e+02
1.004000000000000057e+02 2.605412496457805673e+02
1.008000000000000114e+02 2.601005045479950013e+02
1.012000000000000028e+02 2.596622168248992466e+02
1.016000000000000085e+02 2.592263629944385457e+02
1.020000000000000000e+02 2.587929198924802563e+02
1.024000000000000057e+02 2.583618646672479713e+02
1.028000000000000114e+02 2.579331747738760896e+02
1.032000000000000028e+02 2.575068279690800637e+02
1.036000000000000085e+02 2.570828023059403336e+02
1.040000000000000000e+02 2.566610761287969353e+02
1.044000000000000057e+02 2.562416280682515435e+02
1.048000000000000114e+02 2.558244370362746167e+02
1.052000000000000028e+02 2.554094822214152600e+02
1.056000000000000085e+02 2.549967430841109319e+02
1.060000000000000000e+02 2.545861993520945816e+02
1.064000000000000057e+02 2.541778310158964587e+02
1.068000000000000114e+02 2.537716183244396007e+02
1.072000000000000028e+02 2.533675417807249346e+02
1.076000000000000085e+02 2.529655821376047697e+02
1.080000000000000000e+02 2.525657203936430619e+02
1.084000000000000057e+02 2.521679377890587830e+02
1.088000000000000114e+02 2.517722158017524521e+02
1.092000000000000028e+02 2.513785361434117362e+02
1.096000000000000085e+02 2.509868807556955232e+02
1.100000000000000000e+02 2.505972318064949320e+02
1.104000000000000057e+02 2.502095716862680774e+02
1.108000000000000114e+02 2.498238830044476799e+02
1.112000000000000028e+02 2.494401485859202694e+02
1.116000000000000085e+02 2.490583514675740844e+02
1.120000000000000000e+02 2.486784748949152970e+02
1.124000000000000057e+02 2.483005023187500910e+02
1.128000000000000114e+02 2.479244173919314562e+02
1.132000000000000028e+02 2.475502039661694766e+02
1.136000000000000085e+02 2.471778460889026690e+02
1.140000000000000000e+02 2.468073280002305410e+02
1.144000000000000057e+02 2.464386341299040168e+02
1.148000000000000114e+02 2.460717490943746384e+02
1.152000000000000028e+02 2.457066576938990181e+02
1.156000000000000085e+02 2.453433449096988284e+02
1.160000000000000000e+02 2.449817959011745643e+02
1.164000000000000057e+02 2.446219960031717164e+02
1.168000000000000114e+02 2.442639307232984720e+02
1.172000000000000028e+02 2.439075857392938076e+02
1.176000000000000085e+02 2.435529468964443538e+02
1.180000000000000000e+02 2.432000002050494913e+02
1.184000000000000057e+02 2.428487318379337694e+02
1.188000000000000114e+02 2.424991281280047986e+02
1.192000000000000028e+02 2.421511755658563629e+02
1.196000000000000085e+02 2.418048607974156425e+02
1.200000000000000000e+02 2.414601706216330399e+02
1.204000000000000057e+02 2.411170919882147814e+02
1.208000000000000114e+02 2.407756119953959058e+02
1.212000000000000028e+02 2.404357178877542651e+02
1.216000000000000085e+02 2.400973970540634923e+02
1.220000000000000000e+02 2.397606370251849626e+02
1.224000000000000057e+02 2.394254254719970447e+02
1.228000000000000114e+02 2.390917502033620394e+02
1.232000000000000028e+02 2.387595991641285025e+02
1.236000000000000085e+02 2.384289604331695216e+02
1.240000000000000000e+02 2.380998222214556961e+02
1.244000000000000057e+02 2.377721728701618247e+02
1.248000000000000114e+02 2.374460008488070457e+02
1.252000000000000028e+02 2.371212947534274349e+02
1.256000000000000085e+02 2.367980433047805491e+02
1.260000000000000000e+02 2.364762353465812907e+02
1.264000000000000057e+02 2.361558598437681269e+02
1.268000000000000114e+02 2.358369058807993497e+02
1.272000000000000028e+02 2.355193626599792367e+02
1.276000000000000085e+02 2.352032194998117802e+02
1.280000000000000000e+02 2.348884658333838047e+02
1.284000000000000057e+02 2.345750912067749141e+02
1.288000000000000114e+02 2.342630852774947812e+02
1.291999999999999886e+02 2.339524378129471813e+02
1.296000000000000227e+02 2.336431386889188957e+02
1.300000000000000000e+02 2.333351778880957568e+02
1.304000000000000057e+02 2.330285454986022557e+02
1.308000000000000114e+02 2.327232317125660188e+02
1.311999999999999886e+02 2.324192268247066409e+02
1.316000000000000227e+02 2.321165212309470292e+02
1.320000000000000000e+02 2.318151054270491613e+02
1.324000000000000057e+02 2.315149700072711596e+02
1.328000000000000114e+02 2.312161056630469034e+02
1.331999999999999886e+02 2.309185031816878393e+02
1.336000000000000227e+02 2.306221534451051696e+02
1.340000000000000000e+02 2.303270474285538114e+02
1.344000000000000057e+02 2.300331761993959958e+02
1.348000000000000114e+02 2.297405309158854436e+02
1.351999999999999886e+02 2.294491028259714653e+02
1.356000000000000227e+02 2.291588832661211370e+02
1.360000000000000000e+02 2.288698636601622241e+02
1.364000000000000057e+02 2.285820355181431296e+02
1.368000000000000114e+02 2.282953904352117434e+02
1.371999999999999886e+02 2.280099200905122814e+02
1.376000000000000227e+02 2.277256162460992073e+02
1.380000000000000000e+02 2.274424707458686896e+02
1.384000000000000057e+02 2.271604755145070840e+02
1.388000000000000114e+02 2.268796225564555300e+02
1.392000000000000171e+02 2.265999039548910332e+02
1.395999999999999943e+02 2.263213118707238038e+02
1.400000000000000000e+02 2.260438385416096025e+02
1.404000000000000057e+02 2.257674762809782010e+02
1.408000000000000114e+02 2.254922174770764229e+02
1.412000000000000171e+02 2.252180545920259078e+02
1.415999999999999943e+02 2.249449801608961650e+02
1.420000000000000000e+02 2.246729867907910432e+02
1.424000000000000057e+02 2.244020671599494676e+02
1.428000000000000114e+02 2.241322140168604733e+02
1.432000000000000171e+02 2.238634201793908005e+02
1.435999999999999943e+02 2.235956785339267583e+02
1.440000000000000000e+02 2.233289820345283374e+02
1.444000000000000057e+02 2.230633237020962270e+02
1.448000000000000114e+02 2.227986966235523028e+02
1.452000000000000171e+02 2.225350939510308308e+02
1.455999999999999943e+02 2.222725089010834836e+02
1.460000000000000000e+02 2.220109347538948725e+02
1.464000000000000057e+02 2.217503648525107849e+02
1.468000000000000114e+02 2.214907926020773630e+02
1.472000000000000171e+02 2.212322114690916237e+02
1.475999999999999943e+02 2.209746149806633753e+02
1.480000000000000000e+02 2.207179967237876212e+02
1.484000000000000057e+02 2.204623503446278789e+02
1.488000000000000114e+02 2.202076695478102693e+02
1.492000000000000171e+02 2.199539480957270428e+02
1.495999999999999943e+02 2.197011798078515596e+02
1.500000000000000000e+02 2.194493585600623078e+02
