1.000000000000000000e+01 1.783037248362508649e+02
1.040000000000000036e+01 1.741626298073121575e+02
1.080000000000000071e+01 1.696042289931601488e+02
1.119999999999999929e+01 1.653865623329239156e+02
1.159999999999999964e+01 1.614685376684363973e+02
1.200000000000000000e+01 1.578157686316957040e+02
1.240000000000000036e+01 1.543992141290060260e+02
1.280000000000000071e+01 1.511941442759946312e+02
1.319999999999999929e+01 1.481793431444340854e+02
1.359999999999999964e+01 1.453364862015166636e+02
1.400000000000000000e+01 1.426496485573270547e+02
1.440000000000000036e+01 1.401049124836663395e+02
1.480000000000000071e+01 1.376900511903998563e+02
1.519999999999999929e+01 1.354144524976869661e+02
1.560000000000000142e+01 1.333055873559891893e+02
1.600000000000000000e+01 1.312908140241608237e+02
1.639999999999999858e+01 1.293632606198569874e+02
1.680000000000000071e+01 1.275295057361035731e+02
1.719999999999999929e+01 1.261737571735312997e+02
1.760000000000000142e+01 1.248696360316844078e+02
1.800000000000000000e+01 1.236138416813880383e+02
1.839999999999999858e+01 1.224033646306642282e+02
1.880000000000000071e+01 1.212354540958995699e+02
1.920000000000000284e+01 1.201075899070036570e+02
1.960000000000000142e+01 1.190174580745789683e+02
2.000000000000000000e+01 1.179629294651414995e+02
2.039999999999999858e+01 1.169420411253887693e+02
2.080000000000000071e+01 1.159529798733493635e+02
2.120000000000000284e+01 1.149940678367652680e+02
2.160000000000000142e+01 1.129738087393787822e+02
2.200000000000000000e+01 1.120827115781814882e+02
2.239999999999999858e+01 1.112174195736856603e+02
2.280000000000000071e+01 1.103766624428657508e+02
2.320000000000000284e+01 1.095592568045422439e+02
2.360000000000000142e+01 1.087640986297673891e+02
2.400000000000000000e+01 1.079901564832200478e+02
2.439999999999999858e+01 1.072364654589770083e+02
2.480000000000000071e+01 1.065021217274651235e+02
2.520000000000000284e+01 1.057862776217483258e+02
2.560000000000000142e+01 1.050881372009210111e+02
2.600000000000000000e+01 1.044069522365558100e+02
2.640000000000000213e+01 1.037420185751314250e+02
2.680000000000000071e+01 1.030926728353319675e+02
2.719999999999999929e+01 1.024781479987919397e+02
2.760000000000000142e+01 1.019599923851780829e+02
2.800000000000000000e+01 1.014393771160878543e+02
2.840000000000000213e+01 1.009259229031238192e+02
2.880000000000000071e+01 1.004232674236492500e+02
2.920000000000000284e+01 9.993100710453082058e+01
2.960000000000000142e+01 9.944875966171679238e+01
3.000000000000000000e+01 9.897616266614352298e+01
3.040000000000000213e+01 9.851287222639855656e+01
3.080000000000000071e+01 9.805856177704721688e+01
3.120000000000000284e+01 9.761292096272877927e+01
3.160000000000000142e+01 8.818499853035910974e+01
3.200000000000000000e+01 8.765341242595444271e+01
3.240000000000000568e+01 8.713230619588452441e+01
3.279999999999999716e+01 8.662132867407966330e+01
3.320000000000000284e+01 8.612014511503565473e+01
3.360000000000000142e+01 8.562843621617822976e+01
3.400000000000000000e+01 8.514589721054689164e+01
3.440000000000000568e+01 8.467223702389237872e+01
3.479999999999999716e+01 8.420717749084732873e+01
3.520000000000000284e+01 8.375045262533481605e+01
3.560000000000000142e+01 8.330180794083045726e+01
3.600000000000000000e+01 8.286099981649776680e+01
3.640000000000000568e+01 8.242779490557975919e+01
3.679999999999999716e+01 8.222919546229095999e+01
3.720000000000000284e+01 8.182220976449917771e+01
3.760000000000000142e+01 8.142189318997681369e+01
3.800000000000000000e+01 8.102805897156304127e+01
3.840000000000000568e+01 8.064052767239597586e+01
3.879999999999999716e+01 8.025912681839018603e+01
3.920000000000000284e+01 7.988369055303557786e+01
3.960000000000000142e+01 7.951405931293120943e+01
4.000000000000000000e+01 7.915007952259604451e+01
4.040000000000000568e+01 7.879160330721609284e+01
4.079999999999999716e+01 7.843848822209365323e+01
4.120000000000000284e+01 7.809059699766160634e+01
4.160000000000000142e+01 7.774779729901391079e+01
4.200000000000000000e+01 7.740996149898478507e+01
4.239999999999999858e+01 7.707696646388211548e+01
4.280000000000000426e+01 7.674869335104854429e+01
4.320000000000000284e+01 7.642502741748535300e+01
4.360000000000000142e+01 7.610585783883080069e+01
4.400000000000000000e+01 7.579107753803612013e+01
4.439999999999999858e+01 7.548058302313108925e+01
4.480000000000000426e+01 7.517427423351281845e+01
4.520000000000000284e+01 7.487205439423388498e+01
4.560000000000000142e+01 7.457382987780140127e+01
4.600000000000000000e+01 7.427860923924295378e+01
4.639999999999999858e+01 7.398492770942132779e+01
4.680000000000000426e+01 7.368519116360107546e+01
4.720000000000000284e+01 7.338927507691562369e+01
4.760000000000000142e+01 7.309709628339392395e+01
4.800000000000000000e+01 7.280857416752859024e+01
4.840000000000000568e+01 7.252363056385136986e+01
4.880000000000000426e+01 7.224218966131883235e+01
4.920000000000000284e+01 7.196417791223794325e+01
4.960000000000000142e+01 7.168952394547784479e+01
5.000000000000000000e+01 7.141815848373147446e+01
5.040000000000000568e+01 7.115001426460437983e+01
5.080000000000000426e+01 7.088502596532345024e+01
5.120000000000000284e+01 7.062313013086951230e+01
5.160000000000000142e+01 7.036426510535201828e+01
5.200000000000000000e+01 6.619351045719486137e+01
5.240000000000000568e+01 6.592510916268390986e+01
5.280000000000000426e+01 6.565982816062488325e+01
5.320000000000000284e+01 6.539760686067384654e+01
5.360000000000000142e+01 6.513838631637308652e+01
5.400000000000000000e+01 6.488210916804280259e+01
5.440000000000000568e+01 6.462871958808565864e+01
5.480000000000000426e+01 6.437816322858384410e+01
5.520000000000000284e+01 6.413038717107636444e+01
5.560000000000000142e+01 6.388533987840914818e+01
5.600000000000000000e+01 6.364297114855813220e+01
5.640000000000000568e+01 6.340323207032988506e+01
5.680000000000000426e+01 6.316607498084989203e+01
5.720000000000000284e+01 6.292090379847493153e+01
5.760000000000000142e+01 6.269271509104506634e+01
5.800000000000000000e+01 6.246691429243439586e+01
5.840000000000000568e+01 6.224345962550439282e+01
5.880000000000000426e+01 6.202231033510833669e+01
5.920000000000000284e+01 6.180342665605706287e+01
5.960000000000000142e+01 6.158676978230703014e+01
6.000000000000000000e+01 6.137230183731490030e+01
6.040000000000000568e+01 6.115998584550760597e+01
6.080000000000000426e+01 6.094978570481792701e+01
6.120000000000000284e+01 6.074166616023882881e+01
6.160000000000000142e+01 6.053559277835258712e+01
6.200000000000000000e+01 6.033153192279173282e+01
6.240000000000000568e+01 6.012945073059239576e+01
6.280000000000000426e+01 5.992931708940129454e+01
6.320000000000000284e+01 5.973109961550054692e+01
6.360000000000000142e+01 5.953476763261554083e+01
6.400000000000000000e+01 5.934029115147306044e+01
6.440000000000000568e+01 5.914764085007859507e+01
6.480000000000001137e+01 5.895678805468288886e+01
6.520000000000000284e+01 5.876770472140928803e+01
6.559999999999999432e+01 5.858036341851529016e+01
6.600000000000000000e+01 5.839473730926208361e+01
6.640000000000000568e+01 5.841026678639593683e+01
6.680000000000001137e+01 5.824009303528952586e+01
6.720000000000000284e+01 5.807142249211917573e+01
6.759999999999999432e+01 5.790423279770389797e+01
6.800000000000000000e+01 5.773850205834565230e+01
6.840000000000000568e+01 5.757247963840680427e+01
6.880000000000001137e+01 5.740789034178096983e+01
6.920000000000000284e+01 5.724471994604752467e+01
6.959999999999999432e+01 5.708294786008453059e+01
7.000000000000000000e+01 5.692255391101202378e+01
7.040000000000000568e+01 5.676351833331180785e+01
7.080000000000001137e+01 5.660582175829159723e+01
7.120000000000000284e+01 5.644944520388045817e+01
7.159999999999999432e+01 5.629437006474351790e+01
7.200000000000000000e+01 5.614057810270394100e+01
7.240000000000000568e+01 5.598805143746125168e+01
7.280000000000001137e+01 5.583677253759492487e+01
7.320000000000000284e+01 5.568672421184309229e+01
7.359999999999999432e+01 5.553788960064647284e+01
7.400000000000000000e+01 5.539025216794808415e+01
7.440000000000000568e+01 5.524379569323939165e+01
7.479999999999999716e+01 5.509850426384450373e+01
7.520000000000000284e+01 5.495436226743387209e+01
7.560000000000000853e+01 5.481135438475946842e+01
7.600000000000000000e+01 5.466946558260377032e+01
7.640000000000000568e+01 5.452868110693513870e+01
7.679999999999999716e+01 5.438898647626252369e+01
7.720000000000000284e+01 5.424550292960809372e+01
7.760000000000000853e+01 5.410236946769249045e+01
7.800000000000000000e+01 5.396034117377335804e+01
7.840000000000000568e+01 5.381940372236947212e+01
7.879999999999999716e+01 5.367954304804361243e+01
7.920000000000000284e+01 5.354074533935195745e+01
7.960000000000000853e+01 5.340299703296498990e+01
8.000000000000000000e+01 5.326628480795390885e+01
8.040000000000000568e+01 5.313059558023702067e+01
8.079999999999999716e+01 5.299591649718119868e+01
8.120000000000000284e+01 5.286223493235287663e+01
8.160000000000000853e+01 5.276465954230484812e+01
8.200000000000000000e+01 5.263454054227830170e+01
8.240000000000000568e+01 5.250536429349230616e+01
8.279999999999999716e+01 5.237711931749792171e+01
8.320000000000000284e+01 5.224979433174780041e+01
8.360000000000000853e+01 5.212337824530712282e+01
8.400000000000000000e+01 5.199786015467896760e+01
8.440000000000000568e+01 5.187322933974034100e+01
8.479999999999999716e+01 5.174947525978558360e+01
8.520000000000000284e+01 5.162658754967368679e+01
8.560000000000000853e+01 5.150455601607633582e+01
8.600000000000000000e+01 5.138337063382370928e+01
8.640000000000000568e+01 5.126004739189912129e+01
8.680000000000001137e+01 5.113715244390612469e+01
8.720000000000000284e+01 5.101510647182455926e+01
8.760000000000000853e+01 5.089389963691858298e+01
8.800000000000000000e+01 5.077352226038576788e+01
8.840000000000000568e+01 5.065396482001838763e+01
8.880000000000001137e+01 5.053521794694983527e+01
8.920000000000000284e+01 5.041727242248336438e+01
8.960000000000000853e+01 5.030011917500078056e+01
9.000000000000000000e+01 5.018374927694874543e+01
9.040000000000000568e+01 5.006815394190027746e+01
9.080000000000001137e+01 4.995332452168929649e+01
9.120000000000000284e+01 4.983925250361615866e+01
9.160000000000000853e+01 4.972592950772209264e+01
9.200000000000000000e+01 4.961334728413027051e+01
9.240000000000000568e+01 4.950149771045202129e+01
9.280000000000001137e+01 4.939037278925606955e+01
9.320000000000000284e+01 4.927996464559882384e+01
9.360000000000000853e+01 4.917026552461446443e+01
9.400000000000000000e+01 4.906126778916261344e+01
9.440000000000000568e+01 4.895296391753232967e+01
9.480000000000001137e+01 4.884534650120059496e+01
9.520000000000000284e+01 4.873815192990620915e+01
9.560000000000000853e+01 4.863156259544066984e+01
9.600000000000000000e+01 4.852564135324117700e+01
9.640000000000000568e+01 4.842038118131538482e+01
9.680000000000001137e+01 4.831577516123235227e+01
9.720000000000000284e+01 4.821181647616008092e+01
9.760000000000000853e+01 4.810849840894842799e+01
9.800000000000000000e+01 4.800581434025625072e+01
9.840000000000000568e+01 4.790375774672137510e+01
9.880000000000001137e+01 4.780232219917229486e+01
9.920000000000000284e+01 4.770150136088054182e+01
9.960000000000000853e+01 4.760128898585254831e+01
1.000000000000000000e+02 4.750167891716015589e+01
1.004000000000000057e+02 4.740266508530838507e+01
1.008000000000000114e+02 4.730424150663981209e+01
1.012000000000000028e+02 4.720640228177443021e+01
1.016000000000000085e+02 4.710914159408410740e+01
1.020000000000000000e+02 4.701245370820067393e+01
1.024000000000000057e+02 4.691633296855692947e+01
1.028000000000000114e+02 4.682077379795943273e+01
1.032000000000000028e+02 4.672577069619268997e+01
1.036000000000000085e+02 4.663131823865326453e+01
1.040000000000000000e+02 4.653741107501396357e+01
1.044000000000000057e+02 4.644404392791632574e+01
1.048000000000000114e+02 4.635121159169147376e+01
1.052000000000000028e+02 4.625890893110834412e+01
1.056000000000000085e+02 4.616713088014831357e+01
1.060000000000000000e+02 4.607587244080615108e+01
1.064000000000000057e+02 4.598512868191615155e+01
1.068000000000000114e+02 4.589489473800287556e+01
1.072000000000000028e+02 4.580516580815629624e+01
1.076000000000000085e+02 4.571593715493025911e+01
1.080000000000000000e+02 4.562720410326380005e+01
1.084000000000000057e+02 4.553896203942493059e+01
1.088000000000000114e+02 4.545120640997642170e+01
1.092000000000000028e+02 4.536393272076243477e+01
1.096000000000000085e+02 4.527713653591636245e+01
1.100000000000000000e+02 4.519081347688874217e+01
1.104000000000000057e+02 4.531125418091340862e+01
1.108000000000000114e+02 4.532320640671306933e+01
1.112000000000000028e+02 4.524679677142300704e+01
1.116000000000000085e+02 4.517077903051557541e+01
1.120000000000000000e+02 4.509514978153718801e+01
1.124000000000000057e+02 4.501990566361713064e+01
1.128000000000000114e+02 4.494504335681346419e+01
1.132000000000000028e+02 4.487055958147159629e+01
1.136000000000000085e+02 4.479645109759485422e+01
1.140000000000000000e+02 4.472271470422744954e+01
1.144000000000000057e+02 4.464934723884883994e+01
1.148000000000000114e+02 4.457634557677978648e+01
1.152000000000000028e+02 4.450370663059947418e+01
1.156000000000000085e+02 4.443142734957365292e+01
1.160000000000000000e+02 4.435950471909353610e+01
1.164000000000000057e+02 4.428793576012516553e+01
1.168000000000000114e+02 4.421671752866890870e+01
1.172000000000000028e+02 4.414584711522924465e+01
1.176000000000000085e+02 4.407532164429398591e+01
1.180000000000000000e+02 4.400513827382351906e+01
1.184000000000000057e+02 4.393529419474904074e+01
1.188000000000000114e+02 4.386578663048027238e+01
1.192000000000000028e+02 4.379661283642195713e+01
1.196000000000000085e+02 4.372777009949923865e+01
1.200000000000000000e+02 4.365925573769161616e+01
1.204000000000000057e+02 4.359106709957538328e+01
1.208000000000000114e+02 4.352320156387413164e+01
1.212000000000000028e+02 4.345565653901752512e+01
1.216000000000000085e+02 4.338842946270784751e+01
1.220000000000000000e+02 4.332151780149425235e+01
1.224000000000000057e+02 4.325491905035467255e+01
1.228000000000000114e+02 4.318863073228508398e+01
1.232000000000000028e+02 4.312265039789597409e+01
1.236000000000000085e+02 4.305697562501594433e+01
1.240000000000000000e+02 4.299160401830236111e+01
1.244000000000000057e+02 4.292653320885860069e+01
1.248000000000000114e+02 4.286176085385819334e+01
1.252000000000000028e+02 4.279728463617527723e+01
1.256000000000000085e+02 4.273310226402168155e+01
1.260000000000000000e+02 4.266921147059002806e+01
1.264000000000000057e+02 4.260558886814082769e+01
1.268000000000000114e+02 4.254224647428850403e+01
1.272000000000000028e+02 4.247918896991657789e+01
1.276000000000000085e+02 4.241641418686662490e+01
1.280000000000000000e+02 4.235391998021711402e+01
1.284000000000000057e+02 4.229170422796269690e+01
1.288000000000000114e+02 4.222976483069903963e+01
1.291999999999999886e+02 4.216809971131289103e+01
1.296000000000000227e+02 4.210670681467730958e+01
1.300000000000000000e+02 4.204558410735204177e+01
1.304000000000000057e+02 4.198472957728886001e+01
1.308000000000000114e+02 4.192414123354174649e+01
1.311999999999999886e+02 4.186381710598201522e+01
1.316000000000000227e+02 4.180375524501792484e+01
1.320000000000000000e+02 4.174395372131910165e+01
1.324000000000000057e+02 4.168441062554531129e+01
1.328000000000000114e+02 4.162512406807979914e+01
1.331999999999999886e+02 4.156609217876696505e+01
1.336000000000000227e+02 4.150731310665413787e+01
1.340000000000000000e+02 4.144878501973778384e+01
1.344000000000000057e+02 4.139050610471356606e+01
1.348000000000000114e+02 4.133247456673068143e+01
1.351999999999999886e+02 4.127468862914989955e+01
1.356000000000000227e+02 4.121682837672553035e+01
1.360000000000000000e+02 4.115849315775008677e+01
1.364000000000000057e+02 4.110040496556329259e+01
1.368000000000000114e+02 4.104256203163581063e+01
1.371999999999999886e+02 4.098496260527871016e+01
1.376000000000000227e+02 4.092760495341158844e+01
1.380000000000000000e+02 4.087048736033442253e+01
1.384000000000000057e+02 4.081360812750284595e+01
1.388000000000000114e+02 4.075696557330726222e+01
1.392000000000000171e+02 4.070055803285517015e+01
1.395999999999999943e+02 4.064438385775704887e+01
1.400000000000000000e+02 4.058844141591557531e+01
1.404000000000000057e+02 4.053272909131813151e+01
1.408000000000000114e+02 4.047724528383248810e+01
1.412000000000000171e+02 4.042198840900574908e+01
1.415999999999999943e+02 4.036695689786633068e+01
1.420000000000000000e+02 4.031214919672906660e+01
1.424000000000000057e+02 4.025756376700322647e+01
1.428000000000000114e+02 4.020319908500358963e+01
1.432000000000000171e+02 4.014905364176426161e+01
1.435999999999999943e+02 4.009512594285555309e+01
1.440000000000000000e+02 4.003994748334621079e+01
1.444000000000000057e+02 3.998542935357873773e+01
1.448000000000000114e+02 3.993113097302594383e+01
1.452000000000000171e+02 3.987705084653225640e+01
1.455999999999999943e+02 3.982318749327282603e+01
1.460000000000000000e+02 3.976953944657664408e+01
1.464000000000000057e+02 3.971610525375210443e+01
1.468000000000000114e+02 3.966288347591544294e+01
1.472000000000000171e+02 3.960987268782149329e+01
1.475999999999999943e+02 3.955707147769716414e+01
1.480000000000000000e+02 3.950447844707739620e+01
1.484000000000000057e+02 3.945209221064338578e+01
1.488000000000000114e+02 3.939991139606345172e+01
1.492000000000000171e+02 3.934793464383606221e+01
1.495999999999999943e+02 3.929616060713529180e+01
1.500000000000000000e+02 3.924458795165846681e+01
