1.000000000000000000e+01 1.146392875558676110e+02
1.040000000000000036e+01 1.116612705870180378e+02
1.080000000000000071e+01 1.089049514203344415e+02
1.119999999999999929e+01 1.063438302709450056e+02
1.159999999999999964e+01 1.039556719219370251e+02
1.200000000000000000e+01 1.017216568666830909e+02
1.240000000000000036e+01 9.962573123493201876e+01
1.280000000000000071e+01 9.765410251162408883e+01
1.319999999999999929e+01 9.579484376898111009e+01
1.359999999999999964e+01 9.403757975075855313e+01
1.400000000000000000e+01 9.237323545437187988e+01
1.440000000000000036e+01 9.079383296791787927e+01
1.480000000000000071e+01 8.929232594867494299e+01
1.519999999999999929e+01 8.786246374277887128e+01
1.560000000000000142e+01 8.649867905111361210e+01
1.600000000000000000e+01 8.519599445211453315e+01
1.639999999999999858e+01 8.394994414053752507e+01
1.680000000000000071e+01 8.276501668693640568e+01
1.719999999999999929e+01 8.189744272126561953e+01
1.760000000000000142e+01 8.106305251669476775e+01
1.800000000000000000e+01 8.025972056009311473e+01
1.839999999999999858e+01 7.948550850561248637e+01
1.880000000000000071e+01 7.873864442799703056e+01
1.920000000000000284e+01 7.801750482751779714e+01
1.960000000000000142e+01 7.732059896417617040e+01
2.000000000000000000e+01 7.664655517209438074e+01
2.039999999999999858e+01 7.599410886416693245e+01
2.080000000000000071e+01 7.536209198506686846e+01
2.120000000000000284e+01 7.474942370988100038e+01
2.160000000000000142e+01 7.415510221777230981e+01
2.200000000000000000e+01 7.357819739653037061e+01
2.239999999999999858e+01 7.301784435576645649e+01
2.280000000000000071e+01 7.247323764470192486e+01
2.320000000000000284e+01 7.194362608567809048e+01
2.360000000000000142e+01 7.142830814722758248e+01
2.400000000000000000e+01 7.092662779123288885e+01
2.439999999999999858e+01 7.043797073771440864e+01
2.480000000000000071e+01 6.996176109842026847e+01
2.520000000000000284e+01 6.949745833687231311e+01
2.560000000000000142e+01 6.904455451804398081e+01
2.600000000000000000e+01 6.860257181556356443e+01
2.640000000000000213e+01 6.817106024838132328e+01
2.680000000000000071e+01 6.774959562231231303e+01
2.719999999999999929e+01 6.734770695214055536e+01
2.760000000000000142e+01 6.699608560652916367e+01
2.800000000000000000e+01 6.665197959478199152e+01
2.840000000000000213e+01 6.635399481776840958e+01
2.880000000000000071e+01 6.607471644577555026e+01
2.920000000000000284e+01 6.580077171761523402e+01
2.960000000000000142e+01 6.553197326732171746e+01
3.000000000000000000e+01 6.526814314680720486e+01
3.040000000000000213e+01 6.500911221788618377e+01
3.080000000000000071e+01 6.475471959186671711e+01
3.120000000000000284e+01 6.450481211235958767e+01
3.160000000000000142e+01 5.826547315819046702e+01
3.200000000000000000e+01 5.795582956586918755e+01
3.240000000000000568e+01 5.765202273973850566e+01
3.279999999999999716e+01 5.735386193890134621e+01
3.320000000000000284e+01 5.706116518208881416e+01
3.360000000000000142e+01 5.677375873397870976e+01
3.400000000000000000e+01 5.649147662795672176e+01
3.440000000000000568e+01 5.621416022229931286e+01
3.479999999999999716e+01 5.594165778704270053e+01
3.520000000000000284e+01 5.567382411905811779e+01
3.560000000000000142e+01 5.541052018308191407e+01
3.600000000000000000e+01 5.515161277665389150e+01
3.640000000000000568e+01 5.489697421710190639e+01
3.679999999999999716e+01 5.464648204887618022e+01
3.720000000000000284e+01 5.440001876968502614e+01
3.760000000000000142e+01 5.415747157401966660e+01
3.800000000000000000e+01 5.391873211277529521e+01
3.840000000000000568e+01 5.368369626778662251e+01
3.879999999999999716e+01 5.345226394019445593e+01
3.920000000000000284e+01 5.322433885165015255e+01
3.960000000000000142e+01 5.299982835744594922e+01
4.000000000000000000e+01 5.277864327073353934e+01
4.040000000000000568e+01 5.256069769706023465e+01
4.079999999999999716e+01 5.234590887851339858e+01
4.120000000000000284e+01 5.213419704681939493e+01
4.160000000000000142e+01 5.192548528479440506e+01
4.200000000000000000e+01 5.171969939559070184e+01
4.239999999999999858e+01 5.151676777922421024e+01
4.280000000000000426e+01 5.131662131590818632e+01
4.320000000000000284e+01 5.111919325575325956e+01
4.360000000000000142e+01 5.092441911442647040e+01
4.400000000000000000e+01 5.073223657439177714e+01
4.439999999999999858e+01 5.054258539138216122e+01
4.480000000000000426e+01 5.035540730577785951e+01
4.520000000000000284e+01 5.017064595858936116e+01
4.560000000000000142e+01 4.998824681176410678e+01
4.600000000000000000e+01 4.980815707255596436e+01
4.639999999999999858e+01 4.962954263350010820e+01
4.680000000000000426e+01 4.944659101705993010e+01
4.720000000000000284e+01 4.926589331636276370e+01
4.760000000000000142e+01 4.908740128551445991e+01
4.800000000000000000e+01 4.891106814409612014e+01
4.840000000000000568e+01 4.873684851982878286e+01
4.880000000000000426e+01 4.856469839397070132e+01
4.920000000000000284e+01 4.839457504929416842e+01
4.960000000000000142e+01 4.822643702049860792e+01
5.000000000000000000e+01 4.806024404692601593e+01
5.040000000000000568e+01 4.789595702745276640e+01
5.080000000000000426e+01 4.773353797744057658e+01
5.120000000000000284e+01 4.757294998763528326e+01
5.160000000000000142e+01 4.741415718491069953e+01
5.200000000000000000e+01 4.529969444013265445e+01
5.240000000000000568e+01 4.513667845539501400e+01
5.280000000000000426e+01 4.497548803702345310e+01
5.320000000000000284e+01 4.282747363534672047e+01
5.360000000000000142e+01 4.266222200496296324e+01
5.400000000000000000e+01 4.249882278022813864e+01
5.440000000000000568e+01 4.233724119503557404e+01
5.480000000000000426e+01 4.217744339553804878e+01
5.520000000000000284e+01 4.201939640949046861e+01
5.560000000000000142e+01 4.186306811684524831e+01
5.600000000000000000e+01 4.170842722154095839e+01
5.640000000000000568e+01 4.155544322442676020e+01
5.680000000000000426e+01 4.140408639726905449e+01
5.720000000000000284e+01 4.125432775778963901e+01
5.760000000000000142e+01 4.110613904568693044e+01
5.800000000000000000e+01 4.095949269959496775e+01
5.840000000000000568e+01 4.081436183493707404e+01
5.880000000000000426e+01 4.067072022263322140e+01
5.920000000000000284e+01 4.052854226862228160e+01
5.960000000000000142e+01 4.038780299416298902e+01
6.000000000000000000e+01 4.024847801687808158e+01
6.040000000000000568e+01 4.011054353250928983e+01
6.080000000000000426e+01 3.997397629735147007e+01
6.120000000000000284e+01 3.983875361133607385e+01
6.160000000000000142e+01 3.970485330173620753e+01
6.200000000000000000e+01 3.957225370746571969e+01
6.240000000000000568e+01 3.944093366394753275e+01
6.280000000000000426e+01 3.931087248852642801e+01
6.320000000000000284e+01 3.918204996640353244e+01
6.360000000000000142e+01 3.905444633707038804e+01
6.400000000000000000e+01 3.892804228122192001e+01
6.440000000000000568e+01 3.880281890812818801e+01
6.480000000000001137e+01 3.867875774344623352e+01
6.520000000000000284e+01 3.855584071745368391e+01
6.559999999999999432e+01 3.843405015368734468e+01
6.600000000000000000e+01 3.831336875797000374e+01
6.640000000000000568e+01 3.832675737516203895e+01
6.680000000000001137e+01 3.821631069833745187e+01
6.720000000000000284e+01 3.810683357463547338e+01
6.759999999999999432e+01 3.799831164153887642e+01
6.800000000000000000e+01 3.789073083447300405e+01
6.840000000000000568e+01 3.778407737889057216e+01
6.880000000000001137e+01 3.767833778261207556e+01
6.920000000000000284e+01 3.757349882841235456e+01
6.959999999999999432e+01 3.746954756684356624e+01
7.000000000000000000e+01 3.736647130928621152e+01
7.040000000000000568e+01 3.726425762121930063e+01
7.080000000000001137e+01 3.716289431570179147e+01
7.120000000000000284e+01 3.706236944705727154e+01
7.159999999999999432e+01 3.696267130475467866e+01
7.200000000000000000e+01 3.686378840747776309e+01
7.240000000000000568e+01 3.676570949737637051e+01
7.280000000000001137e+01 3.666842353449327163e+01
7.320000000000000284e+01 3.657191969135992338e+01
7.359999999999999432e+01 3.647618734775527116e+01
7.400000000000000000e+01 3.638121608562193643e+01
7.440000000000000568e+01 3.628699568413397003e+01
7.479999999999999716e+01 3.619351611491109111e+01
7.520000000000000284e+01 3.610076753737412503e+01
7.560000000000000853e+01 3.600874029423691525e+01
7.600000000000000000e+01 3.591742490712981350e+01
7.640000000000000568e+01 3.582681207235031451e+01
7.679999999999999716e+01 3.573689265673662163e+01
7.720000000000000284e+01 3.564522542087215129e+01
7.760000000000000853e+01 3.555387803891936471e+01
7.800000000000000000e+01 3.546176340601286370e+01
7.840000000000000568e+01 3.536891866980201371e+01
7.879999999999999716e+01 3.527678170184434947e+01
7.920000000000000284e+01 3.518534343508203222e+01
7.960000000000000853e+01 3.509459496527131961e+01
8.000000000000000000e+01 3.500452754723351489e+01
8.040000000000000568e+01 3.491513259121069268e+01
8.079999999999999716e+01 3.482640165932323839e+01
8.120000000000000284e+01 3.473832646212559183e+01
8.160000000000000853e+01 3.465089885525711111e+01
8.200000000000000000e+01 3.456411083618482394e+01
8.240000000000000568e+01 3.447795454103524548e+01
8.279999999999999716e+01 3.439242224151242766e+01
8.320000000000000284e+01 3.430750634189926274e+01
8.360000000000000853e+01 3.422319937613961116e+01
8.400000000000000000e+01 3.413949400499862463e+01
8.440000000000000568e+01 3.405638301329873485e+01
8.479999999999999716e+01 3.397385930722902003e+01
8.520000000000000284e+01 3.389191591172564699e+01
8.560000000000000853e+01 3.381054596792107247e+01
8.600000000000000000e+01 3.372974273066014916e+01
8.640000000000000568e+01 3.364751679911688598e+01
8.680000000000001137e+01 3.356557888372777398e+01
8.720000000000000284e+01 3.348420938198584906e+01
8.760000000000000853e+01 3.340340167900413348e+01
8.800000000000000000e+01 3.332314926790778031e+01
8.840000000000000568e+01 3.324344574756901949e+01
8.880000000000001137e+01 3.316428482040006287e+01
8.920000000000000284e+01 3.308566029020215638e+01
8.960000000000000853e+01 3.300756606006897442e+01
9.000000000000000000e+01 3.292999613034312745e+01
9.040000000000000568e+01 3.285294459662353717e+01
9.080000000000001137e+01 3.277640564782288379e+01
9.120000000000000284e+01 3.270037356427321384e+01
9.160000000000000853e+01 3.262484271587840112e+01
9.200000000000000000e+01 3.254980756031217481e+01
9.240000000000000568e+01 3.247526264126032913e+01
9.280000000000001137e+01 3.240120258670580000e+01
9.320000000000000284e+01 3.232762210725546481e+01
9.360000000000000853e+01 3.225451599450741469e+01
9.400000000000000000e+01 3.218187911945758373e+01
9.440000000000000568e+01 3.210970643094452015e+01
9.480000000000001137e+01 3.203799295413140413e+01
9.520000000000000284e+01 3.196673378902405460e+01
9.560000000000000853e+01 3.189592410902414343e+01
9.600000000000000000e+01 3.182555915951632386e+01
9.640000000000000568e+01 3.175563425648872595e+01
9.680000000000001137e+01 3.168614478518555444e+01
9.720000000000000284e+01 3.161708619879112092e+01
9.760000000000000853e+01 3.154845401714425179e+01
9.800000000000000000e+01 3.148024382548253541e+01
9.840000000000000568e+01 3.141245127321525388e+01
9.880000000000001137e+01 3.134507207272450913e+01
9.920000000000000284e+01 3.127810199819361969e+01
9.960000000000000853e+01 3.121153688446202779e+01
1.000000000000000000e+02 3.114537262590629751e+01
1.004000000000000057e+02 3.107960517534599276e+01
1.008000000000000114e+02 3.101423054297438853e+01
1.012000000000000028e+02 3.094924479531278649e+01
1.016000000000000085e+02 3.088464405418824299e+01
1.020000000000000000e+02 3.082042449573383536e+01
1.024000000000000057e+02 3.075658234941107594e+01
1.028000000000000114e+02 3.069311389705363524e+01
1.032000000000000028e+02 3.063001547193219309e+01
1.036000000000000085e+02 3.056728345783939815e+01
1.040000000000000000e+02 3.050491428819497486e+01
1.044000000000000057e+02 3.044290444516992267e+01
1.048000000000000114e+02 3.038125045882974717e+01
1.052000000000000028e+02 3.031994890629593442e+01
1.056000000000000085e+02 3.025899641092541259e+01
1.060000000000000000e+02 3.019838964150749661e+01
1.064000000000000057e+02 3.013812531147774720e+01
1.068000000000000114e+02 3.007820017814847802e+01
1.072000000000000028e+02 3.001861104195552699e+01
1.076000000000000085e+02 2.995935474572067747e+01
1.080000000000000000e+02 2.990042817392958341e+01
1.084000000000000057e+02 2.984182825202456613e+01
1.088000000000000114e+02 2.978355194571226505e+01
1.092000000000000028e+02 2.972559626028534296e+01
1.096000000000000085e+02 2.966795823995833459e+01
1.100000000000000000e+02 2.961063496721697419e+01
1.104000000000000057e+02 2.965677104189094848e+01
1.108000000000000114e+02 2.965764026084313798e+01
1.112000000000000028e+02 2.960598492602710508e+01
1.116000000000000085e+02 2.966469775539690090e+01
1.120000000000000000e+02 2.961590898039587927e+01
1.124000000000000057e+02 2.956736555469039018e+01
1.128000000000000114e+02 2.951906538459612861e+01
1.132000000000000028e+02 2.947100640160682161e+01
1.136000000000000085e+02 2.942318656200429672e+01
1.140000000000000000e+02 2.937560384647612111e+01
1.144000000000000057e+02 2.932825625974019346e+01
1.148000000000000114e+02 2.928114183017661531e+01
1.152000000000000028e+02 2.923425860946632326e+01
1.156000000000000085e+02 2.918760467223646415e+01
1.160000000000000000e+02 2.914117811571244943e+01
1.164000000000000057e+02 2.909497705937634748e+01
1.168000000000000114e+02 2.904899964463166384e+01
1.172000000000000028e+02 2.900324403447426036e+01
1.176000000000000085e+02 2.895770841316926436e+01
1.180000000000000000e+02 2.891239098593398538e+01
1.184000000000000057e+02 2.886728997862648782e+01
1.188000000000000114e+02 2.882240363743993328e+01
1.192000000000000028e+02 2.877773022860236551e+01
1.196000000000000085e+02 2.873326803808192764e+01
1.200000000000000000e+02 2.868901537129740476e+01
1.204000000000000057e+02 2.864497055283396776e+01
1.208000000000000114e+02 2.860113192616389099e+01
1.212000000000000028e+02 2.855749785337236446e+01
1.216000000000000085e+02 2.851406671488813060e+01
1.220000000000000000e+02 2.847083690921881427e+01
1.224000000000000057e+02 2.842780685269099905e+01
1.228000000000000114e+02 2.838497497919485824e+01
1.232000000000000028e+02 2.834233973993323730e+01
1.236000000000000085e+02 2.829989960317506714e+01
1.240000000000000000e+02 2.825765305401321825e+01
1.244000000000000057e+02 2.821559859412635518e+01
1.248000000000000114e+02 2.817373474154509339e+01
1.252000000000000028e+02 2.813206003042205694e+01
1.256000000000000085e+02 2.809057301080592950e+01
1.260000000000000000e+02 2.804927224841938127e+01
1.264000000000000057e+02 2.800815632444080450e+01
1.268000000000000114e+02 2.796722383528970113e+01
1.272000000000000028e+02 2.792647339241578663e+01
1.276000000000000085e+02 2.788590362209158613e+01
1.280000000000000000e+02 2.784551316520860453e+01
1.284000000000000057e+02 2.780530067707685760e+01
1.288000000000000114e+02 2.776526482722776734e+01
1.291999999999999886e+02 2.772540429922043259e+01
1.296000000000000227e+02 2.768571779045096548e+01
1.300000000000000000e+02 2.764620401196521016e+01
1.304000000000000057e+02 2.760686168827430009e+01
1.308000000000000114e+02 2.756768955717350877e+01
1.311999999999999886e+02 2.752868636956394965e+01
1.316000000000000227e+02 2.748985088927715381e+01
1.320000000000000000e+02 2.745118189290267452e+01
1.324000000000000057e+02 2.741267816961832793e+01
1.328000000000000114e+02 2.737433852102333987e+01
1.331999999999999886e+02 2.733616176097410744e+01
1.336000000000000227e+02 2.729814671542261451e+01
1.340000000000000000e+02 2.726029222225751170e+01
1.344000000000000057e+02 2.722259713114769397e+01
1.348000000000000114e+02 2.718506030338840063e+01
1.351999999999999886e+02 2.714768061174977021e+01
1.356000000000000227e+02 2.711024483594107792e+01
1.360000000000000000e+02 2.707248593071663834e+01
1.364000000000000057e+02 2.703488528022440107e+01
1.368000000000000114e+02 2.699744176007094154e+01
1.371999999999999886e+02 2.696015425713671121e+01
1.376000000000000227e+02 2.692302166943029462e+01
1.380000000000000000e+02 2.688604290594494373e+01
1.384000000000000057e+02 2.684921688651731486e+01
1.388000000000000114e+02 2.681254254168855411e+01
1.392000000000000171e+02 2.677601881256742899e+01
1.395999999999999943e+02 2.673964465069569130e+01
1.400000000000000000e+02 2.670341901791546491e+01
1.404000000000000057e+02 2.666734088623878662e+01
1.408000000000000114e+02 2.663140923771905477e+01
1.412000000000000171e+02 2.659562306432458456e+01
1.415999999999999943e+02 2.655998136781397889e+01
1.420000000000000000e+02 2.652448315961355974e+01
1.424000000000000057e+02 2.648912746069655455e+01
1.428000000000000114e+02 2.645391330146421183e+01
1.432000000000000171e+02 2.641883972162863969e+01
1.435999999999999943e+02 2.638390577009756299e+01
1.440000000000000000e+02 2.634882490083782969e+01
1.444000000000000057e+02 2.631361581091518786e+01
1.448000000000000114e+02 2.627854685229370091e+01
1.452000000000000171e+02 2.624310244211446985e+01
1.455999999999999943e+02 2.620777207394623076e+01
1.460000000000000000e+02 2.617258223919456839e+01
1.464000000000000057e+02 2.613753199303457109e+01
1.468000000000000114e+02 2.610262039959834723e+01
1.472000000000000171e+02 2.606784653186551282e+01
1.475999999999999943e+02 2.603320947155538434e+01
1.480000000000000000e+02 2.599870830902078112e+01
1.484000000000000057e+02 2.596434214314335520e+01
1.488000000000000114e+02 2.593011008123053074e+01
1.492000000000000171e+02 2.589601123891391410e+01
1.495999999999999943e+02 2.586204474004922815e+01
1.500000000000000000e+02 2.582820971661769249e+01
