1.000000000000000000e+01 3.198251531115841999e+02
1.040000000000000036e+01 3.159867646748530774e+02
1.080000000000000071e+01 3.194789104342157771e+02
1.119999999999999929e+01 3.206405647073438558e+02
1.159999999999999964e+01 3.226884032564314566e+02
1.200000000000000000e+01 3.240099073075691081e+02
1.240000000000000036e+01 3.277499199784433586e+02
1.280000000000000071e+01 3.330502555332891461e+02
1.319999999999999929e+01 3.422039752958814915e+02
1.359999999999999964e+01 3.494825069610944865e+02
1.400000000000000000e+01 3.566971843103855235e+02
1.440000000000000036e+01 3.513524288500454418e+02
1.480000000000000071e+01 3.463194876823293953e+02
1.519999999999999929e+01 3.415652416521161854e+02
1.560000000000000142e+01 3.370616793794999921e+02
1.600000000000000000e+01 3.327848759014684106e+02
1.639999999999999858e+01 3.287142186693647545e+02
1.680000000000000071e+01 3.248318115041433316e+02
1.719999999999999929e+01 3.211220089908306363e+02
1.760000000000000142e+01 3.175710480871320556e+02
1.800000000000000000e+01 3.141667532757084018e+02
1.839999999999999858e+01 3.108982981094612796e+02
1.880000000000000071e+01 3.077560105317223815e+02
1.920000000000000284e+01 3.047312125579323379e+02
1.960000000000000142e+01 3.018160872064138402e+02
2.000000000000000000e+01 2.990035672414444434e+02
2.039999999999999858e+01 2.962872415279364304e+02
2.080000000000000071e+01 2.936612757198345776e+02
2.120000000000000284e+01 2.911203447009229421e+02
2.160000000000000142e+01 2.886595747279382067e+02
2.200000000000000000e+01 2.862744936348661327e+02
2.239999999999999858e+01 2.839609877749652469e+02
2.280000000000000071e+01 2.817152646258665527e+02
2.320000000000000284e+01 2.795338201794742190e+02
2.360000000000000142e+01 2.774134103945293646e+02
2.400000000000000000e+01 2.753510261146802804e+02
2.439999999999999858e+01 2.733438709556032222e+02
2.480000000000000071e+01 2.713893417463394258e+02
2.520000000000000284e+01 2.694850111765538827e+02
2.560000000000000142e+01 2.676286123559626731e+02
2.600000000000000000e+01 2.658180250371093507e+02
2.640000000000000213e+01 2.640512632898718266e+02
2.680000000000000071e+01 2.623264644470204416e+02
2.719999999999999929e+01 2.606418791659968974e+02
2.760000000000000142e+01 2.589958624737650439e+02
2.800000000000000000e+01 2.573868656798492793e+02
2.840000000000000213e+01 2.558134290581135701e+02
2.880000000000000071e+01 2.542741752109373579e+02
2.920000000000000284e+01 2.527678030406028427e+02
2.960000000000000142e+01 2.512930822622321898e+02
3.000000000000000000e+01 2.498488484007903594e+02
3.040000000000000213e+01 2.484339982216847034e+02
3.080000000000000071e+01 2.470474855505510163e+02
3.120000000000000284e+01 2.456883174430501526e+02
3.160000000000000142e+01 2.443555506700375304e+02
3.200000000000000000e+01 2.430482884874149931e+02
3.240000000000000568e+01 2.417656776634107700e+02
3.279999999999999716e+01 2.405069057390396097e+02
3.320000000000000284e+01 2.392711985001211303e+02
3.360000000000000142e+01 2.380578176415477003e+02
3.400000000000000000e+01 2.368660586065171287e+02
3.440000000000000568e+01 2.356952485852393124e+02
3.479999999999999716e+01 2.345447446592025358e+02
3.520000000000000284e+01 2.334139320784844642e+02
3.560000000000000142e+01 2.323022226608321148e+02
3.600000000000000000e+01 2.312090533023347803e+02
3.640000000000000568e+01 2.301338845904950290e+02
3.679999999999999716e+01 2.290761995113732894e+02
3.720000000000000284e+01 2.280355022432632381e+02
3.760000000000000142e+01 2.270113170300505772e+02
3.800000000000000000e+01 2.260031871280319251e+02
3.840000000000000568e+01 2.250106738205316219e+02
3.879999999999999716e+01 2.240333554951552628e+02
3.920000000000000284e+01 2.230708267789731849e+02
3.960000000000000142e+01 2.221226977273334739e+02
4.000000000000000000e+01 2.211885930623719503e+02
4.040000000000000568e+01 2.202681514576198083e+02
4.079999999999999716e+01 2.193610248654084955e+02
4.120000000000000284e+01 2.184668778840449477e+02
4.160000000000000142e+01 2.175853871619760298e+02
4.200000000000000000e+01 2.167162408363861914e+02
4.239999999999999858e+01 2.158591380038743921e+02
4.280000000000000426e+01 2.150137882210436260e+02
4.320000000000000284e+01 2.141799110330031226e+02
4.360000000000000142e+01 2.133572355279390251e+02
4.400000000000000000e+01 2.125454999160488683e+02
4.439999999999999858e+01 2.117444511312635882e+02
4.480000000000000426e+01 2.109538444542985474e+02
4.520000000000000284e+01 2.101734431556840832e+02
4.560000000000000142e+01 2.094030181575204494e+02
4.600000000000000000e+01 2.086423477127981698e+02
4.639999999999999858e+01 2.078912171012036652e+02
4.680000000000000426e+01 2.071494183404077489e+02
4.720000000000000284e+01 2.064167499119052422e+02
4.760000000000000142e+01 2.056930165005385902e+02
4.800000000000000000e+01 2.049780287468968538e+02
4.840000000000000568e+01 2.042716030118376125e+02
4.880000000000000426e+01 2.035735611524302726e+02
4.920000000000000284e+01 2.028837303086642692e+02
4.960000000000000142e+01 2.022019427003117471e+02
5.000000000000000000e+01 2.015280354333716559e+02
5.040000000000000568e+01 2.008618503155615826e+02
5.080000000000000426e+01 2.002032336803562771e+02
5.120000000000000284e+01 1.995520362191051618e+02
5.160000000000000142e+01 1.989081128207895119e+02
5.200000000000000000e+01 1.982713224190082428e+02
5.240000000000000568e+01 1.976415278458067633e+02
5.280000000000000426e+01 1.970185956919862065e+02
5.320000000000000284e+01 1.964023961735538819e+02
5.360000000000000142e+01 1.957928030039948339e+02
5.400000000000000000e+01 1.951896932720652558e+02
5.440000000000000568e+01 1.945929473248238537e+02
5.480000000000000426e+01 1.940024486556371812e+02
5.520000000000000284e+01 1.934180837969073821e+02
5.560000000000000142e+01 1.928397422172877498e+02
5.600000000000000000e+01 1.922673162231629931e+02
5.640000000000000568e+01 1.917007008641855350e+02
5.680000000000000426e+01 1.911397938426700591e+02
5.720000000000000284e+01 1.905844954266597142e+02
5.760000000000000142e+01 1.900347083664880472e+02
5.800000000000000000e+01 1.894903378146703972e+02
5.840000000000000568e+01 1.889512912489668111e+02
5.880000000000000426e+01 1.884174783984698820e+02
5.920000000000000284e+01 1.878888111725738099e+02
5.960000000000000142e+01 1.873652035926943142e+02
6.000000000000000000e+01 1.868465717266122965e+02
6.040000000000000568e+01 1.863328336253214275e+02
6.080000000000000426e+01 1.858239092622685575e+02
6.120000000000000284e+01 1.853197204748763056e+02
6.160000000000000142e+01 1.848201909082506234e+02
6.200000000000000000e+01 1.843252459609726657e+02
6.240000000000000568e+01 1.838348127328867747e+02
6.280000000000000426e+01 1.833488199747953615e+02
6.320000000000000284e+01 1.828671980399799111e+02
6.360000000000000142e+01 1.823898788374681601e+02
6.400000000000000000e+01 1.819167957869744043e+02
6.440000000000000568e+01 1.814478837754410563e+02
6.480000000000001137e+01 1.809830791151144354e+02
6.520000000000000284e+01 1.805223195030908130e+02
6.559999999999999432e+01 1.800655439822714925e+02
6.600000000000000000e+01 1.796126929036687159e+02
6.640000000000000568e+01 1.791637078900076858e+02
6.680000000000001137e+01 1.787185318005709576e+02
6.720000000000000284e+01 1.782771086972359456e+02
6.759999999999999432e+01 1.778393838116571999e+02
6.800000000000000000e+01 1.774053035135474943e+02
6.840000000000000568e+01 1.769748152800149228e+02
6.880000000000001137e+01 1.765478676659136283e+02
6.920000000000000284e+01 1.761244102751689979e+02
6.959999999999999432e+01 1.757043937330390122e+02
7.000000000000000000e+01 1.752877696592759662e+02
7.040000000000000568e+01 1.748744906421538303e+02
7.080000000000001137e+01 1.744645102133278840e+02
7.120000000000000284e+01 1.740577828234956712e+02
7.159999999999999432e+01 1.736542638188282979e+02
7.200000000000000000e+01 1.732539094181437633e+02
7.240000000000000568e+01 1.728566766907947567e+02
7.280000000000001137e+01 1.724625235352436334e+02
7.320000000000000284e+01 1.720714086583003564e+02
7.359999999999999432e+01 1.716832915549981919e+02
7.400000000000000000e+01 1.712981324890845940e+02
7.440000000000000568e+01 1.709158924741047372e+02
7.479999999999999716e+01 1.705365332550564119e+02
7.520000000000000284e+01 1.701600172905959312e+02
7.560000000000000853e+01 1.697863077357750399e+02
7.600000000000000000e+01 1.694153684252910921e+02
7.640000000000000568e+01 1.690471638572309132e+02
7.679999999999999716e+01 1.686816591772929144e+02
7.720000000000000284e+01 1.683188201634685868e+02
7.760000000000000853e+01 1.679586132111702454e+02
7.800000000000000000e+01 1.676010053187868607e+02
7.840000000000000568e+01 1.672459640736555002e+02
7.879999999999999716e+01 1.668934576384331478e+02
7.920000000000000284e+01 1.665434547378556545e+02
7.960000000000000853e+01 1.661959246458707753e+02
8.000000000000000000e+01 1.658508371731327884e+02
8.040000000000000568e+01 1.655081626548468421e+02
8.079999999999999716e+01 1.651678719389506966e+02
8.120000000000000284e+01 1.648299363746242534e+02
8.160000000000000853e+01 1.644943278011142240e+02
8.200000000000000000e+01 1.641610185368654697e+02
8.240000000000000568e+01 1.638299813689475570e+02
8.279999999999999716e+01 1.635011895427684294e+02
8.320000000000000284e+01 1.631746167520647077e+02
8.360000000000000853e+01 1.628502371291604618e+02
8.400000000000000000e+01 1.625280252354861261e+02
8.440000000000000568e+01 1.622079560523486066e+02
8.479999999999999716e+01 1.618900049719455012e+02
8.520000000000000284e+01 1.615741477886149937e+02
8.560000000000000853e+01 1.612603606903149966e+02
8.600000000000000000e+01 1.609486202503235290e+02
8.640000000000000568e+01 1.606389034191540759e+02
8.680000000000001137e+01 1.603311875166793072e+02
8.720000000000000284e+01 1.600254502244566766e+02
8.760000000000000853e+01 1.597216695782495606e+02
8.800000000000000000e+01 1.594198239607384266e+02
8.840000000000000568e+01 1.591198920944163149e+02
8.880000000000001137e+01 1.588218530346624959e+02
8.920000000000000284e+01 1.585256861629900413e+02
8.960000000000000853e+01 1.582313711804608545e+02
9.000000000000000000e+01 1.579388881012647516e+02
9.040000000000000568e+01 1.576482172464561700e+02
9.080000000000001137e+01 1.573593392378452052e+02
9.120000000000000284e+01 1.570722349920378917e+02
9.160000000000000853e+01 1.567868857146210644e+02
9.200000000000000000e+01 1.565032728944888163e+02
9.240000000000000568e+01 1.562213782983048418e+02
9.280000000000001137e+01 1.559411839650984177e+02
9.320000000000000284e+01 1.556626722009891068e+02
9.360000000000000853e+01 1.553858255740367724e+02
9.400000000000000000e+01 1.551106269092140337e+02
9.440000000000000568e+01 1.548370592834965009e+02
9.480000000000001137e+01 1.545651060210689138e+02
9.520000000000000284e+01 1.542947506886428641e+02
9.560000000000000853e+01 1.540259770908832309e+02
9.600000000000000000e+01 1.537587692659409413e+02
9.640000000000000568e+01 1.534931114810885617e+02
9.680000000000001137e+01 1.532289882284558473e+02
9.720000000000000284e+01 1.529663842208630626e+02
9.760000000000000853e+01 1.527052843877487192e+02
9.800000000000000000e+01 1.524456738711901380e+02
9.840000000000000568e+01 1.521875380220130580e+02
9.880000000000001137e+01 1.519308623959893225e+02
9.920000000000000284e+01 1.516756327501191777e+02
9.960000000000000853e+01 1.514218350389965337e+02
1.000000000000000000e+02 1.511694554112546882e+02
1.004000000000000057e+02 1.509184802060909192e+02
1.008000000000000114e+02 1.506688959498670499e+02
1.012000000000000028e+02 1.504206893527848194e+02
1.016000000000000085e+02 1.501738473056333874e+02
1.020000000000000000e+02 1.499283568766082340e+02
1.024000000000000057e+02 1.496842053081978747e+02
1.028000000000000114e+02 1.494413800141383319e+02
1.032000000000000028e+02 1.491998685764329764e+02
1.036000000000000085e+02 1.489596587424355505e+02
1.040000000000000000e+02 1.487207384219958044e+02
1.044000000000000057e+02 1.484830956846652725e+02
1.048000000000000114e+02 1.482467187569623945e+02
1.052000000000000028e+02 1.480115960196946219e+02
1.056000000000000085e+02 1.477777160053373393e+02
1.060000000000000000e+02 1.475450673954667877e+02
1.064000000000000057e+02 1.473136390182466755e+02
1.068000000000000114e+02 1.470834198459668585e+02
1.072000000000000028e+02 1.468543989926326105e+02
1.076000000000000085e+02 1.466265657116034049e+02
1.080000000000000000e+02 1.463999093932801543e+02
1.084000000000000057e+02 1.461744195628395460e+02
1.088000000000000114e+02 1.459500858780141357e+02
1.092000000000000028e+02 1.457268981269178312e+02
1.096000000000000085e+02 1.455048462259143776e+02
1.100000000000000000e+02 1.452839202175297828e+02
1.104000000000000057e+02 1.450641102684053863e+02
1.108000000000000114e+02 1.448454066672920817e+02
1.112000000000000028e+02 1.446277998230847857e+02
1.116000000000000085e+02 1.444112802628950760e+02
1.120000000000000000e+02 1.441958386301620862e+02
1.124000000000000057e+02 1.439814656828007742e+02
1.128000000000000114e+02 1.437681522913857464e+02
1.132000000000000028e+02 1.435558894373709506e+02
1.136000000000000085e+02 1.433446682113438442e+02
1.140000000000000000e+02 1.431344798113132697e+02
1.144000000000000057e+02 1.429253155410299883e+02
1.148000000000000114e+02 1.427171668083402665e+02
1.152000000000000028e+02 1.425100251235700739e+02
1.156000000000000085e+02 1.423038820979404591e+02
1.160000000000000000e+02 1.420987294420132514e+02
1.164000000000000057e+02 1.418945589641656397e+02
1.168000000000000114e+02 1.416913625690939398e+02
1.172000000000000028e+02 1.414891322563453855e+02
1.176000000000000085e+02 1.412878601188771768e+02
1.180000000000000000e+02 1.410875383416425564e+02
1.184000000000000057e+02 1.408881592002034608e+02
1.188000000000000114e+02 1.406897150593682682e+02
1.192000000000000028e+02 1.404921983718551814e+02
1.196000000000000085e+02 1.402956016769799703e+02
1.200000000000000000e+02 1.400999175993678705e+02
1.204000000000000057e+02 1.399051388476889599e+02
1.208000000000000114e+02 1.397112582134164995e+02
1.212000000000000028e+02 1.395182685696079830e+02
1.216000000000000085e+02 1.393261628697079004e+02
1.220000000000000000e+02 1.391349341463725580e+02
1.224000000000000057e+02 1.389445755103154454e+02
1.228000000000000114e+02 1.387550801491738071e+02
1.232000000000000028e+02 1.385664413263949655e+02
1.236000000000000085e+02 1.383786523801426824e+02
1.240000000000000000e+02 1.381917067222228752e+02
1.244000000000000057e+02 1.380055978370283185e+02
1.248000000000000114e+02 1.378203192805018489e+02
1.252000000000000028e+02 1.376358646791177591e+02
1.256000000000000085e+02 1.374522277288809846e+02
1.260000000000000000e+02 1.372694021943439964e+02
1.264000000000000057e+02 1.370873819076401787e+02
1.268000000000000114e+02 1.369061607675346011e+02
1.272000000000000028e+02 1.367257327384908194e+02
1.276000000000000085e+02 1.365460918497536795e+02
1.280000000000000000e+02 1.363672321944479506e+02
1.284000000000000057e+02 1.361891479286924778e+02
1.288000000000000114e+02 1.360118332707291415e+02
1.291999999999999886e+02 1.358352825000669668e+02
1.296000000000000227e+02 1.356594899566401864e+02
1.300000000000000000e+02 1.354844500399811693e+02
1.304000000000000057e+02 1.353101572084067925e+02
1.308000000000000114e+02 1.351366059782184266e+02
1.311999999999999886e+02 1.349637909229157628e+02
1.316000000000000227e+02 1.347917066724230608e+02
1.320000000000000000e+02 1.346203479123288673e+02
1.324000000000000057e+02 1.344497093831379573e+02
1.328000000000000114e+02 1.342797858795356660e+02
1.331999999999999886e+02 1.341105722496644432e+02
1.336000000000000227e+02 1.339420633944120880e+02
1.340000000000000000e+02 1.337742542667120063e+02
1.344000000000000057e+02 1.336071398708542404e+02
1.348000000000000114e+02 1.334407152618081795e+02
1.351999999999999886e+02 1.332749755445563835e+02
1.356000000000000227e+02 1.331099158734383536e+02
1.360000000000000000e+02 1.329455314515059285e+02
1.364000000000000057e+02 1.327818175298882295e+02
1.368000000000000114e+02 1.326187694071670933e+02
1.371999999999999886e+02 1.324563824287624811e+02
1.376000000000000227e+02 1.322946519863275512e+02
1.380000000000000000e+02 1.321335735171533941e+02
1.384000000000000057e+02 1.319731425035831478e+02
1.388000000000000114e+02 1.318133544724354635e+02
1.392000000000000171e+02 1.316542049944368387e+02
1.395999999999999943e+02 1.314956896836629028e+02
1.400000000000000000e+02 1.313378041969886851e+02
1.404000000000000057e+02 1.311805442335469820e+02
1.408000000000000114e+02 1.310239055341956487e+02
1.412000000000000171e+02 1.308678838809926219e+02
1.415999999999999943e+02 1.307124750966795830e+02
1.420000000000000000e+02 1.305576750441730951e+02
1.424000000000000057e+02 1.304034796260639268e+02
1.428000000000000114e+02 1.302498847841237080e+02
1.432000000000000171e+02 1.300968864988194298e+02
1.435999999999999943e+02 1.299444807888352216e+02
1.440000000000000000e+02 1.297926637106011754e+02
1.444000000000000057e+02 1.296414313578295889e+02
1.448000000000000114e+02 1.294907798610582574e+02
1.452000000000000171e+02 1.293407053872001313e+02
1.455999999999999943e+02 1.291912041391004777e+02
1.460000000000000000e+02 1.290422723550999820e+02
1.464000000000000057e+02 1.288939063086047270e+02
1.468000000000000114e+02 1.287461023076626816e+02
1.472000000000000171e+02 1.285988566945461002e+02
1.475999999999999943e+02 1.284521658453403177e+02
1.480000000000000000e+02 1.283060261695387680e+02
1.484000000000000057e+02 1.281604341096435178e+02
1.488000000000000114e+02 1.280153861407722218e+02
1.492000000000000171e+02 1.278708787702703091e+02
1.495999999999999943e+02 1.277269085373292228e+02
1.500000000000000000e+02 1.275834720126099882e+02
