1.000000000000000000e+01 6.337639163326333858e+01
1.040000000000000036e+01 6.210559924716308444e+01
1.080000000000000071e+01 5.888260105308664549e+01
1.119999999999999929e+01 5.725442908006499465e+01
1.159999999999999964e+01 5.575799380798574134e+01
1.200000000000000000e+01 5.437578104160337489e+01
1.240000000000000036e+01 5.309346365204170581e+01
1.280000000000000071e+01 5.189917657569925780e+01
1.319999999999999929e+01 5.078298706861043854e+01
1.359999999999999964e+01 4.973650016196846479e+01
1.400000000000000000e+01 4.875255983133887128e+01
1.440000000000000036e+01 4.782501926029214445e+01
1.480000000000000071e+01 4.694856185462107590e+01
1.519999999999999929e+01 4.611856011605297567e+01
1.560000000000000142e+01 4.535989411811787875e+01
1.600000000000000000e+01 4.468138151657151980e+01
1.639999999999999858e+01 4.403170756554233378e+01
1.680000000000000071e+01 4.340885208387186367e+01
1.719999999999999929e+01 4.281099071650582744e+01
1.760000000000000142e+01 4.223647080371647178e+01
1.800000000000000000e+01 4.168379084449273364e+01
1.839999999999999858e+01 4.115158292847709731e+01
1.880000000000000071e+01 4.063859763503158717e+01
1.920000000000000284e+01 4.014369099461154633e+01
1.960000000000000142e+01 3.966581318338784712e+01
2.000000000000000000e+01 3.920399868194185444e+01
2.039999999999999858e+01 3.875735767653662833e+01
2.080000000000000071e+01 3.832506851968817330e+01
2.120000000000000284e+01 3.790637109759362744e+01
2.160000000000000142e+01 3.662563275535720209e+01
2.200000000000000000e+01 3.623948378093139411e+01
2.239999999999999858e+01 3.586536080862357778e+01
2.280000000000000071e+01 3.550264069698623359e+01
2.320000000000000284e+01 3.515074520832481397e+01
2.360000000000000142e+01 3.480913688225048475e+01
2.400000000000000000e+01 3.447731536850811551e+01
2.439999999999999858e+01 3.415481415926969078e+01
2.480000000000000071e+01 3.384119766997342538e+01
2.520000000000000284e+01 3.353605862519695791e+01
2.560000000000000142e+01 3.323901571225498230e+01
2.600000000000000000e+01 3.294971147042308957e+01
2.640000000000000213e+01 3.266781038808483828e+01
2.680000000000000071e+01 3.239299718381938931e+01
2.719999999999999929e+01 3.213000919474728079e+01
2.760000000000000142e+01 3.190516664785297962e+01
2.800000000000000000e+01 3.168565853470102667e+01
2.840000000000000213e+01 3.147126792025785846e+01
2.880000000000000071e+01 3.126179021947939418e+01
2.920000000000000284e+01 3.105703230117694602e+01
2.960000000000000142e+01 3.085681167043564699e+01
3.000000000000000000e+01 3.066095572155102644e+01
3.040000000000000213e+01 3.046930105438544700e+01
3.080000000000000071e+01 3.028169284786002891e+01
3.120000000000000284e+01 3.009798428500644007e+01
3.160000000000000142e+01 2.991803602462352174e+01
3.200000000000000000e+01 2.974171571512594170e+01
3.240000000000000568e+01 2.956889754664866388e+01
3.279999999999999716e+01 2.939946183788925538e+01
3.320000000000000284e+01 2.923329465453933551e+01
3.360000000000000142e+01 2.907028745648172219e+01
3.400000000000000000e+01 2.891033677121784962e+01
3.440000000000000568e+01 2.875334389124463996e+01
3.479999999999999716e+01 2.859921459332694127e+01
3.520000000000000284e+01 2.863454289983403100e+01
3.560000000000000142e+01 2.849576796536784684e+01
3.600000000000000000e+01 2.835934280344182667e+01
3.640000000000000568e+01 2.822519846512200203e+01
3.679999999999999716e+01 2.809326885302427002e+01
3.720000000000000284e+01 2.796349057026656837e+01
3.760000000000000142e+01 2.783580277912633960e+01
3.800000000000000000e+01 2.771014706867274668e+01
3.840000000000000568e+01 2.758646733070621337e+01
3.879999999999999716e+01 2.746470964339449239e+01
3.920000000000000284e+01 2.734482216204573390e+01
3.960000000000000142e+01 2.722675501650574859e+01
4.000000000000000000e+01 2.711046021470841083e+01
4.040000000000000568e+01 2.699589155194690804e+01
4.079999999999999716e+01 2.688300452546785380e+01
4.120000000000000284e+01 2.677175625402243497e+01
4.160000000000000142e+01 2.666210540203679358e+01
4.200000000000000000e+01 2.655401210809114332e+01
4.239999999999999858e+01 2.644743791741998962e+01
4.280000000000000426e+01 2.634234571816865156e+01
4.320000000000000284e+01 2.623790687951244394e+01
4.360000000000000142e+01 2.613433688543125299e+01
4.400000000000000000e+01 2.603217006046855886e+01
4.439999999999999858e+01 2.593137330585568989e+01
4.480000000000000426e+01 2.583191463099667118e+01
4.520000000000000284e+01 2.573376310565555514e+01
4.560000000000000142e+01 2.563688881465883540e+01
4.600000000000000000e+01 2.554126281495733863e+01
4.639999999999999858e+01 2.544685709490297398e+01
4.680000000000000426e+01 2.535364453560603692e+01
4.720000000000000284e+01 2.526159887424775263e+01
4.760000000000000142e+01 2.517069466923197396e+01
4.800000000000000000e+01 2.508090726706725349e+01
4.840000000000000568e+01 2.499221277087834636e+01
4.880000000000000426e+01 2.490458801045264892e+01
4.920000000000000284e+01 2.481801051373368949e+01
4.960000000000000142e+01 2.473245847967912425e+01
5.000000000000000000e+01 2.464791075240666629e+01
5.040000000000000568e+01 2.456434679655562903e+01
5.080000000000000426e+01 2.448174667379715430e+01
5.120000000000000284e+01 2.440009102042980516e+01
5.160000000000000142e+01 2.431936102600153049e+01
5.200000000000000000e+01 2.228210815827394242e+01
5.240000000000000568e+01 2.219546526683161147e+01
5.280000000000000426e+01 2.210858930193158756e+01
5.320000000000000284e+01 2.202628057290009878e+01
5.360000000000000142e+01 2.194490087533982958e+01
5.400000000000000000e+01 2.186443258944973422e+01
5.440000000000000568e+01 2.178485856278634003e+01
5.480000000000000426e+01 2.170616209438539101e+01
5.520000000000000284e+01 2.162832691953983044e+01
5.560000000000000142e+01 2.155133719520227231e+01
5.600000000000000000e+01 2.147517748598178855e+01
5.640000000000000568e+01 2.139983275070659730e+01
5.680000000000000426e+01 2.132528832952562681e+01
5.720000000000000284e+01 2.125152993152375203e+01
5.760000000000000142e+01 2.117854362282634639e+01
5.800000000000000000e+01 2.110631581517070998e+01
5.840000000000000568e+01 2.103483325492256739e+01
5.880000000000000426e+01 2.096408301251740269e+01
5.920000000000000284e+01 2.089405247230725138e+01
5.960000000000000142e+01 2.082472932279458178e+01
6.000000000000000000e+01 2.075610154723597134e+01
6.040000000000000568e+01 2.068815741459908963e+01
6.080000000000000426e+01 2.062088547085735257e+01
6.120000000000000284e+01 2.055427453060735132e+01
6.160000000000000142e+01 2.048831366899509376e+01
6.200000000000000000e+01 2.042299221393761144e+01
6.240000000000000568e+01 2.035762789664785544e+01
6.280000000000000426e+01 2.029255308458412443e+01
6.320000000000000284e+01 2.022810112119739401e+01
6.360000000000000142e+01 2.016426199026046362e+01
6.400000000000000000e+01 2.010102590101150355e+01
6.440000000000000568e+01 2.003838328164923155e+01
6.480000000000001137e+01 1.997632477305658938e+01
6.520000000000000284e+01 1.991484122274329849e+01
6.559999999999999432e+01 1.985392367899848054e+01
6.600000000000000000e+01 1.979356338524469194e+01
6.640000000000000568e+01 1.973375177458517271e+01
6.680000000000001137e+01 1.967448046453662158e+01
6.720000000000000284e+01 1.961574125193998697e+01
6.759999999999999432e+01 1.955752610804230329e+01
6.800000000000000000e+01 1.949982717374261298e+01
6.840000000000000568e+01 1.944263675499581012e+01
6.880000000000001137e+01 1.938594731836792207e+01
6.920000000000000284e+01 1.932975148673725130e+01
6.959999999999999432e+01 1.927404203513550129e+01
7.000000000000000000e+01 1.921881188672369234e+01
7.040000000000000568e+01 1.916405410889765193e+01
7.080000000000001137e+01 1.910976190951815568e+01
7.120000000000000284e+01 1.905592863326106468e+01
7.159999999999999432e+01 1.900254775808296159e+01
7.200000000000000000e+01 1.894961289179790853e+01
7.240000000000000568e+01 1.889711776876137961e+01
7.280000000000001137e+01 1.884505624665721513e+01
7.320000000000000284e+01 1.879342230338397712e+01
7.359999999999999432e+01 1.875709263844901642e+01
7.400000000000000000e+01 1.870736902325047879e+01
7.440000000000000568e+01 1.865804362994872179e+01
7.479999999999999716e+01 1.860911108585827023e+01
7.520000000000000284e+01 1.856056611989724203e+01
7.560000000000000853e+01 1.851240356012277744e+01
7.600000000000000000e+01 1.846461833133928820e+01
7.640000000000000568e+01 1.841720545277694399e+01
7.679999999999999716e+01 1.837016003583801194e+01
7.720000000000000284e+01 1.832104500912155487e+01
7.760000000000000853e+01 1.827193214002449295e+01
7.800000000000000000e+01 1.822320119614097322e+01
7.840000000000000568e+01 1.817484720057646541e+01
7.879999999999999716e+01 1.812686526726460201e+01
7.920000000000000284e+01 1.807925059884133034e+01
7.960000000000000853e+01 1.803199848457970944e+01
8.000000000000000000e+01 1.798510429838323432e+01
8.040000000000000568e+01 1.793856349683568396e+01
8.079999999999999716e+01 1.789237161730578407e+01
8.120000000000000284e+01 1.784652427610471648e+01
8.160000000000000853e+01 1.780101716669477696e+01
8.200000000000000000e+01 1.775584605794762183e+01
8.240000000000000568e+01 1.771100679245025944e+01
8.279999999999999716e+01 1.766649528485754672e+01
8.320000000000000284e+01 1.762230752028936820e+01
8.360000000000000853e+01 1.757843955277135706e+01
8.400000000000000000e+01 1.753488750371755600e+01
8.440000000000000568e+01 1.749164756045381353e+01
8.479999999999999716e+01 1.744868630675995291e+01
8.520000000000000284e+01 1.740576678691720502e+01
8.560000000000000853e+01 1.736315077772002979e+01
8.600000000000000000e+01 1.732083468379926217e+01
8.640000000000000568e+01 1.727881496947649254e+01
8.680000000000001137e+01 1.723708815749209577e+01
8.720000000000000284e+01 1.719565082776617970e+01
8.760000000000000853e+01 1.715449961619158259e+01
8.800000000000000000e+01 1.711363121345801375e+01
8.840000000000000568e+01 1.707304236390612573e+01
8.880000000000001137e+01 1.703272986441094616e+01
8.920000000000000284e+01 1.699269056329351812e+01
8.960000000000000853e+01 1.695292135926008470e+01
9.000000000000000000e+01 1.691341920036790114e+01
9.040000000000000568e+01 1.687418108301691788e+01
9.080000000000001137e+01 1.683520405096658834e+01
9.120000000000000284e+01 1.679648519437701282e+01
9.160000000000000853e+01 1.675802164887381451e+01
9.200000000000000000e+01 1.671981059463588792e+01
9.240000000000000568e+01 1.668184925550553643e+01
9.280000000000001137e+01 1.664413489812026015e+01
9.320000000000000284e+01 1.660666483106553315e+01
9.360000000000000853e+01 1.656943640404810481e+01
9.400000000000000000e+01 1.653244700708912163e+01
9.440000000000000568e+01 1.649569406973652974e+01
9.480000000000001137e+01 1.645917506029628186e+01
9.520000000000000284e+01 1.642288748508174479e+01
9.560000000000000853e+01 1.638682888768081369e+01
9.600000000000000000e+01 1.635099684824032806e+01
9.640000000000000568e+01 1.631538898276711436e+01
9.680000000000001137e+01 1.628000294244545643e+01
9.720000000000000284e+01 1.624483641297030445e+01
9.760000000000000853e+01 1.620988711389594528e+01
9.800000000000000000e+01 1.617487289577371712e+01
9.840000000000000568e+01 1.614089698207288137e+01
9.880000000000001137e+01 1.610712707603752136e+01
9.920000000000000284e+01 1.607356108412725604e+01
9.960000000000000853e+01 1.604019694264074047e+01
1.000000000000000000e+02 1.600703261716939707e+01
1.004000000000000057e+02 1.597406610206324373e+01
1.008000000000000114e+02 1.594129541990872490e+01
1.012000000000000028e+02 1.590871862101798229e+01
1.016000000000000085e+02 1.587633378292950681e+01
1.020000000000000000e+02 1.584413900991962976e+01
1.024000000000000057e+02 1.581213243252483025e+01
1.028000000000000114e+02 1.578031220707436333e+01
1.032000000000000028e+02 1.574867651523306833e+01
1.036000000000000085e+02 1.571722356355402894e+01
1.040000000000000000e+02 1.568595158304092863e+01
1.044000000000000057e+02 1.565485882871970702e+01
1.048000000000000114e+02 1.562394357921944987e+01
1.052000000000000028e+02 1.559320413636213587e+01
1.056000000000000085e+02 1.556263882476111604e+01
1.060000000000000000e+02 1.553224599142804152e+01
1.064000000000000057e+02 1.550202400538812419e+01
1.068000000000000114e+02 1.547197125730333411e+01
1.072000000000000028e+02 1.544208615910363491e+01
1.076000000000000085e+02 1.541236714362572258e+01
1.080000000000000000e+02 1.538281266425933325e+01
1.084000000000000057e+02 1.535342119460086785e+01
1.088000000000000114e+02 1.532419122811407064e+01
1.092000000000000028e+02 1.529512127779771546e+01
1.096000000000000085e+02 1.526620987586004219e+01
1.100000000000000000e+02 1.523745557339982604e+01
1.104000000000000057e+02 1.531200441980322147e+01
1.108000000000000114e+02 1.528576125878218051e+01
1.112000000000000028e+02 1.525954540547024152e+01
1.116000000000000085e+02 1.523346561215635120e+01
1.120000000000000000e+02 1.520752068452200767e+01
1.124000000000000057e+02 1.518170944301010827e+01
1.128000000000000114e+02 1.515603072259004414e+01
1.132000000000000028e+02 1.513048337252723385e+01
1.136000000000000085e+02 1.510506625615719400e+01
1.140000000000000000e+02 1.507977825066396704e+01
1.144000000000000057e+02 1.505461824686279293e+01
1.148000000000000114e+02 1.502958514898696407e+01
1.152000000000000028e+02 1.500467787447874990e+01
1.156000000000000085e+02 1.497989535378430404e+01
1.160000000000000000e+02 1.495523653015247945e+01
1.164000000000000057e+02 1.493070035943739526e+01
1.168000000000000114e+02 1.490628580990478724e+01
1.172000000000000028e+02 1.488199186204198732e+01
1.176000000000000085e+02 1.485781750837139015e+01
1.180000000000000000e+02 1.483376175326748658e+01
1.184000000000000057e+02 1.480982361277726689e+01
1.188000000000000114e+02 1.478600211444390311e+01
1.192000000000000028e+02 1.476229629713376568e+01
1.196000000000000085e+02 1.473870521086656993e+01
1.200000000000000000e+02 1.471522791664865082e+01
1.204000000000000057e+02 1.469186348630928052e+01
1.208000000000000114e+02 1.466861100233997206e+01
1.212000000000000028e+02 1.464546955773670867e+01
1.216000000000000085e+02 1.462243825584497969e+01
1.220000000000000000e+02 1.459951621020770673e+01
1.224000000000000057e+02 1.457670254441577384e+01
1.228000000000000114e+02 1.455399639196135020e+01
1.232000000000000028e+02 1.453139689609377427e+01
1.236000000000000085e+02 1.450890320967798353e+01
1.240000000000000000e+02 1.448651449505553401e+01
1.244000000000000057e+02 1.446422992390796480e+01
1.248000000000000114e+02 1.444204867712266704e+01
1.252000000000000028e+02 1.442540140874444354e+01
1.256000000000000085e+02 1.440368019623965345e+01
1.260000000000000000e+02 1.438205816775820622e+01
1.264000000000000057e+02 1.436053455714094085e+01
1.268000000000000114e+02 1.433910860656465402e+01
1.272000000000000028e+02 1.431777956642526917e+01
1.276000000000000085e+02 1.429654669522296828e+01
1.280000000000000000e+02 1.427540925944935779e+01
1.284000000000000057e+02 1.425436653347647464e+01
1.288000000000000114e+02 1.423341779944774999e+01
1.291999999999999886e+02 1.421256234717077760e+01
1.296000000000000227e+02 1.419179947401186759e+01
1.300000000000000000e+02 1.417112848479244747e+01
1.304000000000000057e+02 1.415054869168712770e+01
1.308000000000000114e+02 1.413005941412348498e+01
1.311999999999999886e+02 1.410965997868357391e+01
1.316000000000000227e+02 1.408934971900698230e+01
1.320000000000000000e+02 1.406912797569555984e+01
1.324000000000000057e+02 1.404899409621969042e+01
1.328000000000000114e+02 1.402894743482611517e+01
1.331999999999999886e+02 1.400898735244727966e+01
1.336000000000000227e+02 1.398911321661210394e+01
1.340000000000000000e+02 1.396932440135832110e+01
1.344000000000000057e+02 1.394962028714611257e+01
1.348000000000000114e+02 1.393000026077324272e+01
1.351999999999999886e+02 1.391046371529151671e+01
1.356000000000000227e+02 1.389101004992458499e+01
1.360000000000000000e+02 1.387163866998708173e+01
1.364000000000000057e+02 1.385234898680507598e+01
1.368000000000000114e+02 1.383314041763772551e+01
1.371999999999999886e+02 1.381401238560028233e+01
1.376000000000000227e+02 1.379496431958821212e+01
1.380000000000000000e+02 1.377599565420259964e+01
1.384000000000000057e+02 1.375710582967667506e+01
1.388000000000000114e+02 1.373829429180354822e+01
1.392000000000000171e+02 1.371956049186500159e+01
1.395999999999999943e+02 1.370090388656149116e+01
1.400000000000000000e+02 1.368228584249565571e+01
1.404000000000000057e+02 1.366372405130164935e+01
1.408000000000000114e+02 1.364523816425775138e+01
1.412000000000000171e+02 1.362682765656617789e+01
1.415999999999999943e+02 1.360849200854128327e+01
1.420000000000000000e+02 1.359023070554537327e+01
1.424000000000000057e+02 1.357204323792552003e+01
1.428000000000000114e+02 1.355392910095135406e+01
1.432000000000000171e+02 1.353588779475376924e+01
1.435999999999999943e+02 1.351791882426459424e+01
1.440000000000000000e+02 1.349973609513434880e+01
1.444000000000000057e+02 1.348135875182529020e+01
1.448000000000000114e+02 1.346305558946340497e+01
1.452000000000000171e+02 1.344482610312764592e+01
1.455999999999999943e+02 1.342666979273448646e+01
1.460000000000000000e+02 1.340858616297827055e+01
1.464000000000000057e+02 1.339057472327239040e+01
1.468000000000000114e+02 1.337263498769141812e+01
1.472000000000000171e+02 1.335476647491402602e+01
1.475999999999999943e+02 1.333696870816683067e+01
1.480000000000000000e+02 1.331924121516903980e+01
1.484000000000000057e+02 1.330158352807792532e+01
1.488000000000000114e+02 1.328399518343509911e+01
1.492000000000000171e+02 1.326647572211362025e+01
1.495999999999999943e+02 1.324902468926582344e+01
1.500000000000000000e+02 1.323164163427195206e+01
