1.000000000000000000e+01 6.356325566245985783e+02
1.040000000000000036e+01 6.521352081850423019e+02
1.080000000000000071e+01 6.538141585347631235e+02
1.119999999999999929e+01 6.678161462484708863e+02
1.159999999999999964e+01 6.600317603252663048e+02
1.200000000000000000e+01 6.529338920396910453e+02
1.240000000000000036e+01 6.464437641639713092e+02
1.280000000000000071e+01 6.414827879592080535e+02
1.319999999999999929e+01 6.359813206291250935e+02
1.359999999999999964e+01 6.338703808815658931e+02
1.400000000000000000e+01 6.320481399987800160e+02
1.440000000000000036e+01 6.343127857937301997e+02
1.480000000000000071e+01 6.249835165372483061e+02
1.519999999999999929e+01 6.161470586695334077e+02
1.560000000000000142e+01 6.077575512469220484e+02
1.600000000000000000e+01 5.997753077922591274e+02
1.639999999999999858e+01 5.921657230359967343e+02
1.680000000000000071e+01 5.848984193741115405e+02
1.719999999999999929e+01 5.779465707257113536e+02
1.760000000000000142e+01 5.712863600498155847e+02
1.800000000000000000e+01 5.648965391691785953e+02
1.839999999999999858e+01 5.587580680073725716e+02
1.880000000000000071e+01 5.528538162428427540e+02
1.920000000000000284e+01 5.471683145736468532e+02
1.960000000000000142e+01 5.416875458142071693e+02
2.000000000000000000e+01 5.363987682667839181e+02
2.039999999999999858e+01 5.312903654629596986e+02
2.080000000000000071e+01 5.263517176154356321e+02
2.120000000000000284e+01 5.215730910692813040e+02
2.160000000000000142e+01 5.169455427725768004e+02
2.200000000000000000e+01 5.124608373547345082e+02
2.239999999999999858e+01 5.081113748467751066e+02
2.280000000000000071e+01 5.038901274307215772e+02
2.320000000000000284e+01 4.997905838866421391e+02
2.360000000000000142e+01 4.958067006318393624e+02
2.400000000000000000e+01 4.919328584293542690e+02
2.439999999999999858e+01 4.881638239915623103e+02
2.480000000000000071e+01 4.844947158262418156e+02
2.520000000000000284e+01 4.809209737725396963e+02
2.560000000000000142e+01 4.774383317570042209e+02
2.600000000000000000e+01 4.740427933686204369e+02
2.640000000000000213e+01 4.707306099091930491e+02
2.680000000000000071e+01 4.674982606235644198e+02
2.719999999999999929e+01 4.643424348546901115e+02
2.760000000000000142e+01 4.612600159028582993e+02
2.800000000000000000e+01 4.582480663974131403e+02
2.840000000000000213e+01 4.553038150140953348e+02
2.880000000000000071e+01 4.524246443922618255e+02
2.920000000000000284e+01 4.496080801243767269e+02
2.960000000000000142e+01 4.468517807057462505e+02
3.000000000000000000e+01 4.441535283459154471e+02
3.040000000000000213e+01 4.415112205547624171e+02
3.080000000000000071e+01 4.389228624264058567e+02
3.120000000000000284e+01 4.363865595528010317e+02
3.160000000000000142e+01 4.339005115065386917e+02
3.200000000000000000e+01 4.314630058390273462e+02
3.240000000000000568e+01 4.290724125460872074e+02
3.279999999999999716e+01 4.267271789581067196e+02
3.320000000000000284e+01 4.244258250164247102e+02
3.360000000000000142e+01 4.221669389015747811e+02
3.400000000000000000e+01 4.199491729825392099e+02
3.440000000000000568e+01 4.177712400592656650e+02
3.479999999999999716e+01 4.156319098734536510e+02
3.520000000000000284e+01 4.135300058650627193e+02
3.560000000000000142e+01 4.114644021541723191e+02
3.600000000000000000e+01 4.094340207297583447e+02
3.640000000000000568e+01 4.074378288286883958e+02
3.679999999999999716e+01 4.054748364897799888e+02
3.720000000000000284e+01 4.035440942691554937e+02
3.760000000000000142e+01 4.016446911043701675e+02
3.800000000000000000e+01 3.997757523159060042e+02
3.840000000000000568e+01 3.979364377356283171e+02
3.879999999999999716e+01 3.961259399527076539e+02
3.920000000000000284e+01 3.943434826683244410e+02
3.960000000000000142e+01 3.925883191512120334e+02
4.000000000000000000e+01 3.908597307867595418e+02
4.040000000000000568e+01 3.891570257129990296e+02
4.079999999999999716e+01 3.874795375373500406e+02
4.120000000000000284e+01 3.858266241284877651e+02
4.160000000000000142e+01 3.841976664781576574e+02
4.200000000000000000e+01 3.825920676281635906e+02
4.239999999999999858e+01 3.810092516581343034e+02
4.280000000000000426e+01 3.794486627300135524e+02
4.320000000000000284e+01 3.779097641855269671e+02
4.360000000000000142e+01 3.763920376931670830e+02
4.400000000000000000e+01 3.748949824414949035e+02
4.439999999999999858e+01 3.734181143757943460e+02
4.480000000000000426e+01 3.719609654753346035e+02
4.520000000000000284e+01 3.705230830686957688e+02
4.560000000000000142e+01 3.691040291847939443e+02
4.600000000000000000e+01 3.677033799374128762e+02
4.639999999999999858e+01 3.663207249412046167e+02
4.680000000000000426e+01 3.649556667572601896e+02
4.720000000000000284e+01 3.636078203664883404e+02
4.760000000000000142e+01 3.622768126691566977e+02
4.800000000000000000e+01 3.609622820090639834e+02
4.840000000000000568e+01 3.596638777209142859e+02
4.880000000000000426e+01 3.583812596995595072e+02
4.920000000000000284e+01 3.571140979898643764e+02
4.960000000000000142e+01 3.558620723960309533e+02
5.000000000000000000e+01 3.546248721092925962e+02
5.040000000000000568e+01 3.534021953529605753e+02
5.080000000000000426e+01 3.521937490438686496e+02
5.120000000000000284e+01 3.509992484693233337e+02
5.160000000000000142e+01 3.498184169787207338e+02
5.200000000000000000e+01 3.486509856890479000e+02
5.240000000000000568e+01 3.474966932035276272e+02
5.280000000000000426e+01 3.463552853427181049e+02
5.320000000000000284e+01 3.452265148874154193e+02
5.360000000000000142e+01 3.441101413327489809e+02
5.400000000000000000e+01 3.430059306528947900e+02
5.440000000000000568e+01 3.419136550758639714e+02
5.480000000000000426e+01 3.408330928678620921e+02
5.520000000000000284e+01 3.397640281267348996e+02
5.560000000000000142e+01 3.387062505840510767e+02
5.600000000000000000e+01 3.376595554153962553e+02
5.640000000000000568e+01 3.366237430584752133e+02
5.680000000000000426e+01 3.355986190386438466e+02
5.720000000000000284e+01 3.345839938015129178e+02
5.760000000000000142e+01 3.335796825522852487e+02
5.800000000000000000e+01 3.325855051015064419e+02
5.840000000000000568e+01 3.316012857169274071e+02
5.880000000000000426e+01 3.306268529811935650e+02
5.920000000000000284e+01 3.296620396550890177e+02
5.960000000000000142e+01 3.287066825460804580e+02
6.000000000000000000e+01 3.277606223819192337e+02
6.040000000000000568e+01 3.268237036890694753e+02
6.080000000000000426e+01 3.258957746757492941e+02
6.120000000000000284e+01 3.249766871193718316e+02
6.160000000000000142e+01 3.240662962581986903e+02
6.200000000000000000e+01 3.231644606870125358e+02
6.240000000000000568e+01 3.222710422566374859e+02
6.280000000000000426e+01 3.213859059771382363e+02
6.320000000000000284e+01 3.205089199245385316e+02
6.360000000000000142e+01 3.196399551509085200e+02
6.400000000000000000e+01 3.187788855976780837e+02
6.440000000000000568e+01 3.179255880120373945e+02
6.480000000000001137e+01 3.170799418662974745e+02
6.520000000000000284e+01 3.162418292800849144e+02
6.559999999999999432e+01 3.154111349452546165e+02
6.600000000000000000e+01 3.145877460534074999e+02
6.640000000000000568e+01 3.137715522259073282e+02
6.680000000000001137e+01 3.129624454462936001e+02
6.720000000000000284e+01 3.121603199949953478e+02
6.759999999999999432e+01 3.113650723862526775e+02
6.800000000000000000e+01 3.105766013071560110e+02
6.840000000000000568e+01 3.097948075587235053e+02
6.880000000000001137e+01 3.090195939989311000e+02
6.920000000000000284e+01 3.082508654876221499e+02
6.959999999999999432e+01 3.074885288332229152e+02
7.000000000000000000e+01 3.067324927411921749e+02
7.040000000000000568e+01 3.059826677641412971e+02
7.080000000000001137e+01 3.052389662535575212e+02
7.120000000000000284e+01 3.045013023130729266e+02
7.159999999999999432e+01 3.037695917532174690e+02
7.200000000000000000e+01 3.030437520476026521e+02
7.240000000000000568e+01 3.023237022904825722e+02
7.280000000000001137e+01 3.016093631556386185e+02
7.320000000000000284e+01 3.009006568565417865e+02
7.359999999999999432e+01 3.001975071077445136e+02
7.400000000000000000e+01 2.994998390874573033e+02
7.440000000000000568e+01 2.988075794012679580e+02
7.479999999999999716e+01 2.981206560469601641e+02
7.520000000000000284e+01 2.974389983803947644e+02
7.560000000000000853e+01 2.967625370824138145e+02
7.600000000000000000e+01 2.960912041267321229e+02
7.640000000000000568e+01 2.954249327487809182e+02
7.679999999999999716e+01 2.947636574154714140e+02
7.720000000000000284e+01 2.941073137958438224e+02
7.760000000000000853e+01 2.934558387325747617e+02
7.800000000000000000e+01 2.928091702143095745e+02
7.840000000000000568e+01 2.921672473487940351e+02
7.879999999999999716e+01 2.915300103367770816e+02
7.920000000000000284e+01 2.908974004466584233e+02
7.960000000000000853e+01 2.902693599898567527e+02
8.000000000000000000e+01 2.896458322968722996e+02
8.040000000000000568e+01 2.890267616940239463e+02
8.079999999999999716e+01 2.884120934808340735e+02
8.120000000000000284e+01 2.878017739080448791e+02
8.160000000000000853e+01 2.871957501562407060e+02
8.200000000000000000e+01 2.865939703150593232e+02
8.240000000000000568e+01 2.859963833629722103e+02
8.279999999999999716e+01 2.854029391476159390e+02
8.320000000000000284e+01 2.848135883666559494e+02
8.360000000000000853e+01 2.842282825491661811e+02
8.400000000000000000e+01 2.836469740375086985e+02
8.440000000000000568e+01 2.830696159696963150e+02
8.479999999999999716e+01 2.824961622622242885e+02
8.520000000000000284e+01 2.819265675933548323e+02
8.560000000000000853e+01 2.813607873868419347e+02
8.600000000000000000e+01 2.807987777960811400e+02
8.640000000000000568e+01 2.802404956886732066e+02
8.680000000000001137e+01 2.796858986313862943e+02
8.720000000000000284e+01 2.791349448755073581e+02
8.760000000000000853e+01 2.785875933425679705e+02
8.800000000000000000e+01 2.780438036104357593e+02
8.840000000000000568e+01 2.775035358997591288e+02
8.880000000000001137e+01 2.769667510607542340e+02
8.920000000000000284e+01 2.764334105603255125e+02
8.960000000000000853e+01 2.759034764695080639e+02
9.000000000000000000e+01 2.753769114512240321e+02
9.040000000000000568e+01 2.748536787483420198e+02
9.080000000000001137e+01 2.743337421720327143e+02
9.120000000000000284e+01 2.738170660904094120e+02
9.160000000000000853e+01 2.733036154174480998e+02
9.200000000000000000e+01 2.727933556021762911e+02
9.240000000000000568e+01 2.722862526181255021e+02
9.280000000000001137e+01 2.717822729530367383e+02
9.320000000000000284e+01 2.712813835988150686e+02
9.360000000000000853e+01 2.707835520417235102e+02
9.400000000000000000e+01 2.702887462528112223e+02
9.440000000000000568e+01 2.697969346785679363e+02
9.480000000000001137e+01 2.693080862318004733e+02
9.520000000000000284e+01 2.688221702827219701e+02
9.560000000000000853e+01 2.683391566502510273e+02
9.600000000000000000e+01 2.678590155935129928e+02
9.640000000000000568e+01 2.673817178035388338e+02
9.680000000000001137e+01 2.669072343951552284e+02
9.720000000000000284e+01 2.664355368990617308e+02
9.760000000000000853e+01 2.659665972540892653e+02
9.800000000000000000e+01 2.655003877996350070e+02
9.840000000000000568e+01 2.650368812682689281e+02
9.880000000000001137e+01 2.645760507785082609e+02
9.920000000000000284e+01 2.641178698277538501e+02
9.960000000000000853e+01 2.636623122853852124e+02
1.000000000000000000e+02 2.632093523860096411e+02
1.004000000000000057e+02 2.627589647228617196e+02
1.008000000000000114e+02 2.623111242413489208e+02
1.012000000000000028e+02 2.618658062327392031e+02
1.016000000000000085e+02 2.614229863279871893e+02
1.020000000000000000e+02 2.609826404916962588e+02
1.024000000000000057e+02 2.605447450162110954e+02
1.028000000000000114e+02 2.601092765158387579e+02
1.032000000000000028e+02 2.596762119211950335e+02
1.036000000000000085e+02 2.592455284736716976e+02
1.040000000000000000e+02 2.588172037200228601e+02
1.044000000000000057e+02 2.583912155070668177e+02
1.048000000000000114e+02 2.579675419765003426e+02
1.052000000000000028e+02 2.575461615598228491e+02
1.056000000000000085e+02 2.571270529733678245e+02
1.060000000000000000e+02 2.567101952134385101e+02
1.064000000000000057e+02 2.562955675515452185e+02
1.068000000000000114e+02 2.558831495297420702e+02
1.072000000000000028e+02 2.554729209560608751e+02
1.076000000000000085e+02 2.550648619000387498e+02
1.080000000000000000e+02 2.546589526883385588e+02
1.084000000000000057e+02 2.542551739004586864e+02
1.088000000000000114e+02 2.538535063645313130e+02
1.092000000000000028e+02 2.534539311532052466e+02
1.096000000000000085e+02 2.530564295796130523e+02
1.100000000000000000e+02 2.526609831934194403e+02
1.104000000000000057e+02 2.522675737769493480e+02
1.108000000000000114e+02 2.518761833413934141e+02
1.112000000000000028e+02 2.514867941230896804e+02
1.116000000000000085e+02 2.510993885798789051e+02
1.120000000000000000e+02 2.507139493875327787e+02
1.124000000000000057e+02 2.503304594362519708e+02
1.128000000000000114e+02 2.499489018272336978e+02
1.132000000000000028e+02 2.495692598693067339e+02
1.136000000000000085e+02 2.491915170756313103e+02
1.140000000000000000e+02 2.488156571604646103e+02
1.144000000000000057e+02 2.484416640359877420e+02
1.148000000000000114e+02 2.480695218091952086e+02
1.152000000000000028e+02 2.476992147788433272e+02
1.156000000000000085e+02 2.473307274324577349e+02
1.160000000000000000e+02 2.469640444433981656e+02
1.164000000000000057e+02 2.465991506679790746e+02
1.168000000000000114e+02 2.462360311426445492e+02
1.172000000000000028e+02 2.458746710811977323e+02
1.176000000000000085e+02 2.455150558720811489e+02
1.180000000000000000e+02 2.451571710757092433e+02
1.184000000000000057e+02 2.448010024218500860e+02
1.188000000000000114e+02 2.444465358070565912e+02
1.192000000000000028e+02 2.440937572921450851e+02
1.196000000000000085e+02 2.437426530997204850e+02
1.200000000000000000e+02 2.433932096117476078e+02
1.204000000000000057e+02 2.430454133671671002e+02
1.208000000000000114e+02 2.426992510595543990e+02
1.212000000000000028e+02 2.423547095348227174e+02
1.216000000000000085e+02 2.420117757889665882e+02
1.220000000000000000e+02 2.416704369658471876e+02
1.224000000000000057e+02 2.413306803550175346e+02
1.228000000000000114e+02 2.409924933895869685e+02
1.232000000000000028e+02 2.406558636441235137e+02
1.236000000000000085e+02 2.403207788325943568e+02
1.240000000000000000e+02 2.399872268063431306e+02
1.244000000000000057e+02 2.396551955521026116e+02
1.248000000000000114e+02 2.393246731900432849e+02
1.252000000000000028e+02 2.389956479718558739e+02
1.256000000000000085e+02 2.386681082788680328e+02
1.260000000000000000e+02 2.383420426201939790e+02
1.264000000000000057e+02 2.380174396309163569e+02
1.268000000000000114e+02 2.376942880702998764e+02
1.272000000000000028e+02 2.373725768200363291e+02
1.276000000000000085e+02 2.370522948825195044e+02
1.280000000000000000e+02 2.367334313791500335e+02
1.284000000000000057e+02 2.364159755486700760e+02
1.288000000000000114e+02 2.360999167455251779e+02
1.291999999999999886e+02 2.357852444382560577e+02
1.296000000000000227e+02 2.354719482079155455e+02
1.300000000000000000e+02 2.351600177465147681e+02
1.304000000000000057e+02 2.348494428554938622e+02
1.308000000000000114e+02 2.345402134442194324e+02
1.311999999999999886e+02 2.342323195285071336e+02
1.316000000000000227e+02 2.339257512291685543e+02
1.320000000000000000e+02 2.336204987705835663e+02
1.324000000000000057e+02 2.333165524792951828e+02
1.328000000000000114e+02 2.330139027826284632e+02
1.331999999999999886e+02 2.327125402073324381e+02
1.336000000000000227e+02 2.324124553782439762e+02
1.340000000000000000e+02 2.321136390169741048e+02
1.344000000000000057e+02 2.318160819406156747e+02
1.348000000000000114e+02 2.315197750604720568e+02
1.351999999999999886e+02 2.312247093808073259e+02
1.356000000000000227e+02 2.309308759976153738e+02
1.360000000000000000e+02 2.306382660974105363e+02
1.364000000000000057e+02 2.303468709560369518e+02
1.368000000000000114e+02 2.300566819374969327e+02
1.371999999999999886e+02 2.297676904927988630e+02
1.376000000000000227e+02 2.294798881588231438e+02
1.380000000000000000e+02 2.291932665572059022e+02
1.384000000000000057e+02 2.289078173932416007e+02
1.388000000000000114e+02 2.286235324548016479e+02
1.392000000000000171e+02 2.283404036112713982e+02
1.395999999999999943e+02 2.280584228125032666e+02
1.400000000000000000e+02 2.277775820877861861e+02
1.404000000000000057e+02 2.274978735448318901e+02
1.408000000000000114e+02 2.272192893687765149e+02
1.412000000000000171e+02 2.269418218211979763e+02
1.415999999999999943e+02 2.266654632391486643e+02
1.420000000000000000e+02 2.263902060342030893e+02
1.424000000000000057e+02 2.261160426915201924e+02
1.428000000000000114e+02 2.258429657689204930e+02
1.432000000000000171e+02 2.255709678959766507e+02
1.435999999999999943e+02 2.253000417731190623e+02
1.440000000000000000e+02 2.250301801707541358e+02
1.444000000000000057e+02 2.247613759283964043e+02
1.448000000000000114e+02 2.244936219538144542e+02
1.452000000000000171e+02 2.242269112221882779e+02
1.455999999999999943e+02 2.239612367752812077e+02
1.460000000000000000e+02 2.236965917206227061e+02
1.464000000000000057e+02 2.234329692307047139e+02
1.468000000000000114e+02 2.231703625421892241e+02
1.472000000000000171e+02 2.229087649551279640e+02
1.475999999999999943e+02 2.226481698321939291e+02
1.480000000000000000e+02 2.223885705979240015e+02
1.484000000000000057e+02 2.221299607379728798e+02
1.488000000000000114e+02 2.218723337983785768e+02
1.492000000000000171e+02 2.216156833848373253e+02
1.495999999999999943e+02 2.213600031619911874e+02
1.500000000000000000e+02 2.211052868527244755e+02
