1.000000000000000000e+01 5.653859760103865710e+02
1.040000000000000036e+01 5.570041643043336990e+02
1.080000000000000071e+01 5.570507467122669141e+02
1.119999999999999929e+01 5.527819229799531513e+02
1.159999999999999964e+01 5.497174379900523036e+02
1.200000000000000000e+01 5.477999740083714642e+02
1.240000000000000036e+01 5.469602475830754429e+02
1.280000000000000071e+01 5.479140800847660557e+02
1.319999999999999929e+01 5.529269687897586891e+02
1.359999999999999964e+01 5.578386760210961484e+02
1.400000000000000000e+01 5.620607498839571008e+02
1.440000000000000036e+01 5.538715658338931007e+02
1.480000000000000071e+01 5.461293877247723003e+02
1.519999999999999929e+01 5.387903507541141153e+02
1.560000000000000142e+01 5.318168673276185245e+02
1.600000000000000000e+01 5.251764473434853926e+02
1.639999999999999858e+01 5.188407909994263036e+02
1.680000000000000071e+01 5.127850802276110471e+02
1.719999999999999929e+01 5.069874176112794544e+02
1.760000000000000142e+01 5.014283766258353126e+02
1.800000000000000000e+01 4.960906371568784152e+02
1.839999999999999858e+01 4.909586872103931228e+02
1.880000000000000071e+01 4.860185766169605586e+02
1.920000000000000284e+01 4.812577120204239236e+02
1.960000000000000142e+01 4.766646849707985325e+02
2.000000000000000000e+01 4.722291268012236856e+02
2.039999999999999858e+01 4.679415853543437152e+02
2.080000000000000071e+01 4.637934196680238301e+02
2.120000000000000284e+01 4.597767095263706096e+02
2.160000000000000142e+01 4.558841773948977902e+02
2.200000000000000000e+01 4.521091207349548995e+02
2.239999999999999858e+01 4.484453530658860814e+02
2.280000000000000071e+01 4.448871524384364307e+02
2.320000000000000284e+01 4.414292162178562080e+02
2.360000000000000142e+01 4.380666212635452439e+02
2.400000000000000000e+01 4.347947887441529815e+02
2.439999999999999858e+01 4.316094529505600121e+02
2.480000000000000071e+01 4.285066335700889795e+02
2.520000000000000284e+01 4.254826109681803814e+02
2.560000000000000142e+01 4.225339040922259528e+02
2.600000000000000000e+01 4.196572506690573050e+02
2.640000000000000213e+01 4.168495894149392598e+02
2.680000000000000071e+01 4.141080440165737855e+02
2.719999999999999929e+01 4.114299086749620642e+02
2.760000000000000142e+01 4.088126350321193740e+02
2.800000000000000000e+01 4.062538203244933470e+02
2.840000000000000213e+01 4.037511966272177233e+02
2.880000000000000071e+01 4.013026210706504457e+02
2.920000000000000284e+01 3.989060669254652680e+02
2.960000000000000142e+01 3.965596154652940868e+02
3.000000000000000000e+01 3.942614485268935027e+02
3.040000000000000213e+01 3.920098416972737141e+02
3.080000000000000071e+01 3.898031580654489403e+02
3.120000000000000284e+01 3.876398424835906553e+02
3.160000000000000142e+01 3.855184162885826140e+02
3.200000000000000000e+01 3.834374724403945152e+02
3.240000000000000568e+01 3.813956710384401276e+02
3.279999999999999716e+01 3.793917351812439733e+02
3.320000000000000284e+01 3.774244471384038775e+02
3.360000000000000142e+01 3.754926448070548872e+02
3.400000000000000000e+01 3.735952184278880850e+02
3.440000000000000568e+01 3.717311075382939975e+02
3.479999999999999716e+01 3.698992981424285063e+02
3.520000000000000284e+01 3.680988200799791912e+02
3.560000000000000142e+01 3.663287445771730404e+02
3.600000000000000000e+01 3.645881819651308433e+02
3.640000000000000568e+01 3.628762795520772784e+02
3.679999999999999716e+01 3.611922196371651808e+02
3.720000000000000284e+01 3.595352176547929162e+02
3.760000000000000142e+01 3.579045204392994606e+02
3.800000000000000000e+01 3.562994046008219584e+02
3.840000000000000568e+01 3.547191750039145290e+02
3.879999999999999716e+01 3.531631633412553128e+02
3.920000000000000284e+01 3.516307267954289273e+02
3.960000000000000142e+01 3.501212467823659154e+02
4.000000000000000000e+01 3.486341277705611787e+02
4.040000000000000568e+01 3.471687961706755914e+02
4.079999999999999716e+01 3.457246992905721754e+02
4.120000000000000284e+01 3.443013043512343074e+02
4.160000000000000142e+01 3.428980975593819380e+02
4.200000000000000000e+01 3.415145832329275208e+02
4.239999999999999858e+01 3.401502829757210975e+02
4.280000000000000426e+01 3.388047348983045026e+02
4.320000000000000284e+01 3.374774928816470378e+02
4.360000000000000142e+01 3.361681258810640998e+02
4.400000000000000000e+01 3.348762172677320450e+02
4.439999999999999858e+01 3.336013642053995909e+02
4.480000000000000426e+01 3.323431770600763002e+02
4.520000000000000284e+01 3.311012788406399636e+02
4.560000000000000142e+01 3.298753046684477681e+02
4.600000000000000000e+01 3.286649012741792717e+02
4.639999999999999858e+01 3.274697265202587459e+02
4.680000000000000426e+01 3.262894489473214890e+02
4.720000000000000284e+01 3.251237473432963156e+02
4.760000000000000142e+01 3.239723103337712473e+02
4.800000000000000000e+01 3.228348359924018496e+02
4.840000000000000568e+01 3.217110314702048299e+02
4.880000000000000426e+01 3.206006126426544824e+02
4.920000000000000284e+01 3.195033037735739754e+02
4.960000000000000142e+01 3.184188371948771987e+02
5.000000000000000000e+01 3.173469530012775977e+02
5.040000000000000568e+01 3.162873987591393643e+02
5.080000000000000426e+01 3.152399292286960417e+02
5.120000000000000284e+01 3.142043060989129231e+02
5.160000000000000142e+01 3.131802977343119210e+02
5.200000000000000000e+01 3.121676789331243072e+02
5.240000000000000568e+01 3.111662306961684408e+02
5.280000000000000426e+01 3.101757400058953067e+02
5.320000000000000284e+01 3.091959996150699794e+02
5.360000000000000142e+01 3.082268078445948163e+02
5.400000000000000000e+01 3.072679683900064447e+02
5.440000000000000568e+01 3.063192901362057796e+02
5.480000000000000426e+01 3.053805869800105484e+02
5.520000000000000284e+01 3.044516776601361698e+02
5.560000000000000142e+01 3.035323855942406226e+02
5.600000000000000000e+01 3.026225387226851922e+02
5.640000000000000568e+01 3.017219693586841345e+02
5.680000000000000426e+01 3.008305140445353913e+02
5.720000000000000284e+01 2.999480134136398419e+02
5.760000000000000142e+01 2.990743120580342520e+02
5.800000000000000000e+01 2.982092584011776353e+02
5.840000000000000568e+01 2.973527045757443830e+02
5.880000000000000426e+01 2.965045063061920700e+02
5.920000000000000284e+01 2.956645227958830446e+02
5.960000000000000142e+01 2.948326166185506167e+02
6.000000000000000000e+01 2.940086536139136797e+02
6.040000000000000568e+01 2.931925027872505325e+02
6.080000000000000426e+01 2.923840362127569961e+02
6.120000000000000284e+01 2.915831289405162465e+02
6.160000000000000142e+01 2.907896589069260926e+02
6.200000000000000000e+01 2.900035068484270369e+02
6.240000000000000568e+01 2.892245562183904894e+02
6.280000000000000426e+01 2.884526931070288924e+02
6.320000000000000284e+01 2.876878061641980935e+02
6.360000000000000142e+01 2.869297865249688471e+02
6.400000000000000000e+01 2.861785277378500609e+02
6.440000000000000568e+01 2.854339256955513520e+02
6.480000000000001137e+01 2.846958785681799782e+02
6.520000000000000284e+01 2.839642867387694878e+02
6.559999999999999432e+01 2.832390527410454411e+02
6.600000000000000000e+01 2.825200811993350953e+02
6.640000000000000568e+01 2.818072787705349356e+02
6.680000000000001137e+01 2.811005540880510694e+02
6.720000000000000284e+01 2.803998177076352931e+02
6.759999999999999432e+01 2.797049820550400341e+02
6.800000000000000000e+01 2.790159613754184988e+02
6.840000000000000568e+01 2.783326716844046587e+02
6.880000000000001137e+01 2.776550307208037793e+02
6.920000000000000284e+01 2.769829579008323890e+02
6.959999999999999432e+01 2.763163742738480551e+02
7.000000000000000000e+01 2.756552024795103080e+02
7.040000000000000568e+01 2.749993667063193357e+02
7.080000000000001137e+01 2.743487926514788455e+02
7.120000000000000284e+01 2.737034074820345495e+02
7.159999999999999432e+01 2.730631397972386480e+02
7.200000000000000000e+01 2.724279195920952361e+02
7.240000000000000568e+01 2.717976782220448513e+02
7.280000000000001137e+01 2.711723483687417229e+02
7.320000000000000284e+01 2.705518640068877403e+02
7.359999999999999432e+01 2.699361603720827247e+02
7.400000000000000000e+01 2.693251739296542837e+02
7.440000000000000568e+01 2.687188423444326872e+02
7.479999999999999716e+01 2.681171044514356936e+02
7.520000000000000284e+01 2.675199002274320605e+02
7.560000000000000853e+01 2.669271707633519668e+02
7.600000000000000000e+01 2.663388582375143301e+02
7.640000000000000568e+01 2.657549058896437373e+02
7.679999999999999716e+01 2.651752579956476552e+02
7.720000000000000284e+01 2.645998598431277173e+02
7.760000000000000853e+01 2.640286577076028607e+02
7.800000000000000000e+01 2.634615988294150384e+02
7.840000000000000568e+01 2.628986313912977835e+02
7.879999999999999716e+01 2.623397044965846021e+02
7.920000000000000284e+01 2.617847681480342885e+02
7.960000000000000853e+01 2.612337732272537210e+02
8.000000000000000000e+01 2.606866714746979028e+02
8.040000000000000568e+01 2.601434154702281489e+02
8.079999999999999716e+01 2.596039586142088638e+02
8.120000000000000284e+01 2.590682551091277901e+02
8.160000000000000853e+01 2.585362599417200045e+02
8.200000000000000000e+01 2.580079288655804248e+02
8.240000000000000568e+01 2.574832183842492555e+02
8.279999999999999716e+01 2.569620857347550782e+02
8.320000000000000284e+01 2.564444888716000719e+02
8.360000000000000853e+01 2.559303864511744564e+02
8.400000000000000000e+01 2.554197378165861210e+02
8.440000000000000568e+01 2.549125029828918798e+02
8.479999999999999716e+01 2.544086426227187587e+02
8.520000000000000284e+01 2.539081180522618126e+02
8.560000000000000853e+01 2.534108912176485262e+02
8.600000000000000000e+01 2.529169246816564396e+02
8.640000000000000568e+01 2.524261816107750747e+02
8.680000000000001137e+01 2.519386257626000827e+02
8.720000000000000284e+01 2.514542214735510015e+02
8.760000000000000853e+01 2.509729336469005148e+02
8.800000000000000000e+01 2.504947277411089885e+02
8.840000000000000568e+01 2.500195697584524339e+02
8.880000000000001137e+01 2.495474262339360223e+02
8.920000000000000284e+01 2.490782642244856788e+02
8.960000000000000853e+01 2.486120512984071240e+02
9.000000000000000000e+01 2.481487555251078447e+02
9.040000000000000568e+01 2.476883454650705687e+02
9.080000000000001137e+01 2.472307901600742639e+02
9.120000000000000284e+01 2.467760591236529990e+02
9.160000000000000853e+01 2.463241223317871800e+02
9.200000000000000000e+01 2.458749502138199148e+02
9.240000000000000568e+01 2.454285136435925097e+02
9.280000000000001137e+01 2.449847839307920481e+02
9.320000000000000284e+01 2.445437328125059935e+02
9.360000000000000853e+01 2.441053324449769661e+02
9.400000000000000000e+01 2.436695553955534592e+02
9.440000000000000568e+01 2.432363746348291329e+02
9.480000000000001137e+01 2.428057635289673044e+02
9.520000000000000284e+01 2.423776958322042674e+02
9.560000000000000853e+01 2.419521456795264385e+02
9.600000000000000000e+01 2.415290875795179772e+02
9.640000000000000568e+01 2.411084964073723711e+02
9.680000000000001137e+01 2.406903473980648300e+02
9.720000000000000284e+01 2.402746161396800630e+02
9.760000000000000853e+01 2.398612785668928495e+02
9.800000000000000000e+01 2.394503109545950963e+02
9.840000000000000568e+01 2.390416899116673051e+02
9.880000000000001137e+01 2.386353923748899888e+02
9.920000000000000284e+01 2.382313956029908297e+02
9.960000000000000853e+01 2.378296771708246524e+02
1.000000000000000000e+02 2.374302149636822605e+02
1.004000000000000057e+02 2.370329871717252388e+02
1.008000000000000114e+02 2.366379722845430535e+02
1.012000000000000028e+02 2.362451490858291834e+02
1.016000000000000085e+02 2.358544966481732104e+02
1.020000000000000000e+02 2.354659943279668823e+02
1.024000000000000057e+02 2.350796217604192293e+02
1.028000000000000114e+02 2.346953588546799097e+02
1.032000000000000028e+02 2.343131857890667789e+02
1.036000000000000085e+02 2.339330830063957478e+02
1.040000000000000000e+02 2.335550312094095204e+02
1.044000000000000057e+02 2.331790113563041871e+02
1.048000000000000114e+02 2.328050046563490696e+02
1.052000000000000028e+02 2.324329925655996476e+02
1.056000000000000085e+02 2.320629567826999278e+02
1.060000000000000000e+02 2.316948792447724372e+02
1.064000000000000057e+02 2.313287421233933685e+02
1.068000000000000114e+02 2.309645278206518242e+02
1.072000000000000028e+02 2.306022189652893530e+02
1.076000000000000085e+02 2.302417984089195215e+02
1.080000000000000000e+02 2.298832492223245936e+02
1.084000000000000057e+02 2.295265546918273571e+02
1.088000000000000114e+02 2.291716983157376717e+02
1.092000000000000028e+02 2.288186638008695866e+02
1.096000000000000085e+02 2.284674350591293717e+02
1.100000000000000000e+02 2.281179962041722433e+02
1.104000000000000057e+02 2.277703315481255686e+02
1.108000000000000114e+02 2.274244255983771552e+02
1.112000000000000028e+02 2.270802630544279737e+02
1.116000000000000085e+02 2.267378288048066111e+02
1.120000000000000000e+02 2.263971079240446898e+02
1.124000000000000057e+02 2.260580856697117156e+02
1.128000000000000114e+02 2.257207474795076507e+02
1.132000000000000028e+02 2.253850789684126426e+02
1.136000000000000085e+02 2.250510659258914643e+02
1.140000000000000000e+02 2.247186943131526959e+02
1.144000000000000057e+02 2.243879502604601441e+02
1.148000000000000114e+02 2.240588200644964729e+02
1.152000000000000028e+02 2.237312901857766860e+02
1.156000000000000085e+02 2.234053472461112051e+02
1.160000000000000000e+02 2.230809780261174922e+02
1.164000000000000057e+02 2.227581694627781133e+02
1.168000000000000114e+02 2.224369086470452999e+02
1.172000000000000028e+02 2.221171828214905304e+02
1.176000000000000085e+02 2.217989793779981085e+02
1.180000000000000000e+02 2.214822858555014022e+02
1.184000000000000057e+02 2.211670899377618582e+02
1.188000000000000114e+02 2.208533794511887720e+02
1.192000000000000028e+02 2.205411423626993042e+02
1.196000000000000085e+02 2.202303667776181157e+02
1.200000000000000000e+02 2.199210409376151460e+02
1.204000000000000057e+02 2.196131532186818447e+02
1.208000000000000114e+02 2.193066921291431868e+02
1.212000000000000028e+02 2.190016463077068352e+02
1.216000000000000085e+02 2.186980045215467783e+02
1.220000000000000000e+02 2.183957556644221540e+02
1.224000000000000057e+02 2.180948887548293271e+02
1.228000000000000114e+02 2.177953929341877597e+02
1.232000000000000028e+02 2.174972574650574018e+02
1.236000000000000085e+02 2.172004717293883118e+02
1.240000000000000000e+02 2.169050252268015697e+02
1.244000000000000057e+02 2.166109075728998903e+02
1.248000000000000114e+02 2.163181084976084776e+02
1.252000000000000028e+02 2.160266178435448694e+02
1.256000000000000085e+02 2.157364255644172886e+02
1.260000000000000000e+02 2.154475217234509898e+02
1.264000000000000057e+02 2.151598964918418631e+02
1.268000000000000114e+02 2.148735401472368380e+02
1.272000000000000028e+02 2.145884430722407501e+02
1.276000000000000085e+02 2.143045957529486429e+02
1.280000000000000000e+02 2.140219887775032532e+02
1.284000000000000057e+02 2.137406128346774494e+02
1.288000000000000114e+02 2.134604587124804596e+02
1.291999999999999886e+02 2.131815172967883427e+02
1.296000000000000227e+02 2.129037795699967148e+02
1.300000000000000000e+02 2.126272366096973769e+02
1.304000000000000057e+02 2.123518795873763736e+02
1.308000000000000114e+02 2.120776997671341633e+02
1.311999999999999886e+02 2.118046885044273608e+02
1.316000000000000227e+02 2.115328372448310290e+02
1.320000000000000000e+02 2.112621375228222007e+02
1.324000000000000057e+02 2.109925809605830693e+02
1.328000000000000114e+02 2.107241592668236194e+02
1.331999999999999886e+02 2.104568642356248631e+02
1.336000000000000227e+02 2.101906877452995559e+02
1.340000000000000000e+02 2.099256217572728360e+02
1.344000000000000057e+02 2.096616583149804001e+02
1.348000000000000114e+02 2.093987895427844990e+02
1.351999999999999886e+02 2.091370076449084934e+02
1.356000000000000227e+02 2.088763049043870410e+02
1.360000000000000000e+02 2.086166736820349570e+02
1.364000000000000057e+02 2.083581064154313083e+02
1.368000000000000114e+02 2.081005956179203622e+02
1.371999999999999886e+02 2.078441338776285079e+02
1.376000000000000227e+02 2.075887138564966108e+02
1.380000000000000000e+02 2.073343282893279707e+02
1.384000000000000057e+02 2.070809699828510588e+02
1.388000000000000114e+02 2.068286318147973759e+02
1.392000000000000171e+02 2.065773067329936339e+02
1.395999999999999943e+02 2.063269877544682913e+02
1.400000000000000000e+02 2.060776679645716740e+02
1.404000000000000057e+02 2.058293405161105056e+02
1.408000000000000114e+02 2.055819986284955121e+02
1.412000000000000171e+02 2.053356355869018444e+02
1.415999999999999943e+02 2.050902447414434562e+02
1.420000000000000000e+02 2.048458195063593621e+02
1.424000000000000057e+02 2.046023533592126284e+02
1.428000000000000114e+02 2.043598398401019836e+02
1.432000000000000171e+02 2.041182725508849103e+02
1.435999999999999943e+02 2.038776451544132158e+02
1.440000000000000000e+02 2.036379513737795719e+02
1.444000000000000057e+02 2.033991849915758223e+02
1.448000000000000114e+02 2.031613398491628857e+02
1.452000000000000171e+02 2.029244098459505778e+02
1.455999999999999943e+02 2.026883889386895135e+02
1.460000000000000000e+02 2.024532711407724435e+02
1.464000000000000057e+02 2.022190505215471603e+02
1.468000000000000114e+02 2.019857212056388107e+02
1.472000000000000171e+02 2.017532773722824970e+02
1.475999999999999943e+02 2.015217132546659400e+02
1.480000000000000000e+02 2.012910231392818332e+02
1.484000000000000057e+02 2.010612013652892927e+02
1.488000000000000114e+02 2.008322423238856231e+02
1.492000000000000171e+02 2.006041404576859861e+02
1.495999999999999943e+02 2.003768902601134698e+02
1.500000000000000000e+02 2.001504862747972879e+02
