1.000000000000000000e+01 7.049771032385127683e+02
1.040000000000000036e+01 7.005532109207424583e+02
1.080000000000000071e+01 6.957320310707106046e+02
1.119999999999999929e+01 6.892479032894057127e+02
1.159999999999999964e+01 6.768113360727180634e+02
1.200000000000000000e+01 6.651581335032678908e+02
1.240000000000000036e+01 6.542048929344935004e+02
1.280000000000000071e+01 6.438804888813285743e+02
1.319999999999999929e+01 6.341237981694865766e+02
1.359999999999999964e+01 6.248819276476911000e+02
1.400000000000000000e+01 6.161088166689825130e+02
1.440000000000000036e+01 6.077641230395786351e+02
1.480000000000000071e+01 5.998123261348393953e+02
1.519999999999999929e+01 5.922219983267921180e+02
1.560000000000000142e+01 5.849652082421002888e+02
1.600000000000000000e+01 5.780170282787664746e+02
1.639999999999999858e+01 5.713551253119870807e+02
1.680000000000000071e+01 5.649594183240579923e+02
1.719999999999999929e+01 5.588117902839414910e+02
1.760000000000000142e+01 5.528958443140484178e+02
1.800000000000000000e+01 5.471966962500453064e+02
1.839999999999999858e+01 5.417007972911770821e+02
1.880000000000000071e+01 5.363957816738768543e+02
1.920000000000000284e+01 5.312703352676936674e+02
1.960000000000000142e+01 5.263140817540079297e+02
2.000000000000000000e+01 5.215174836521782709e+02
2.039999999999999858e+01 5.168717559403323776e+02
2.080000000000000071e+01 5.123687904057876494e+02
2.120000000000000284e+01 5.080010891735382188e+02
2.160000000000000142e+01 5.037617061159907053e+02
2.200000000000000000e+01 4.996441950552613207e+02
2.239999999999999858e+01 4.956425638402309346e+02
2.280000000000000071e+01 4.917512335215182020e+02
2.320000000000000284e+01 4.879650019643384553e+02
2.360000000000000142e+01 4.842790113364180229e+02
2.400000000000000000e+01 4.806887189893531058e+02
2.439999999999999858e+01 4.771898713199287840e+02
2.480000000000000071e+01 4.737784802552780548e+02
2.520000000000000284e+01 4.704508020542257896e+02
2.560000000000000142e+01 4.672033181582564794e+02
2.600000000000000000e+01 4.640327178605032259e+02
2.640000000000000213e+01 4.609358825909813504e+02
2.680000000000000071e+01 4.579098716418218942e+02
2.719999999999999929e+01 4.549519091781777433e+02
2.760000000000000142e+01 4.520593723993362119e+02
2.800000000000000000e+01 4.492297807308614779e+02
2.840000000000000213e+01 4.464607859426754430e+02
2.880000000000000071e+01 4.437501631002164117e+02
2.920000000000000284e+01 4.410958022664442524e+02
2.960000000000000142e+01 4.384957008817274300e+02
3.000000000000000000e+01 4.359479567567497611e+02
3.040000000000000213e+01 4.334507616206569764e+02
3.080000000000000071e+01 4.310023951728936709e+02
3.120000000000000284e+01 4.286012195926409731e+02
3.160000000000000142e+01 4.262456744645941171e+02
3.200000000000000000e+01 4.239342720840637071e+02
3.240000000000000568e+01 4.216655931081545532e+02
3.279999999999999716e+01 4.194382825231014067e+02
3.320000000000000284e+01 4.172510459008048542e+02
3.360000000000000142e+01 4.151026459202346359e+02
3.400000000000000000e+01 4.129918991317141490e+02
3.440000000000000568e+01 4.109176729441855400e+02
3.479999999999999716e+01 4.088788828174205605e+02
3.520000000000000284e+01 4.068744896428132733e+02
3.560000000000000142e+01 4.049034972978860765e+02
3.600000000000000000e+01 4.029649503609801968e+02
3.640000000000000568e+01 4.010579319738118329e+02
3.679999999999999716e+01 3.991815618406570252e+02
3.720000000000000284e+01 3.973349943539071205e+02
3.760000000000000142e+01 3.955174168366204412e+02
3.800000000000000000e+01 3.937280478934892471e+02
3.840000000000000568e+01 3.919661358623650358e+02
3.879999999999999716e+01 3.902309573591361413e+02
3.920000000000000284e+01 3.885218159093433314e+02
3.960000000000000142e+01 3.868380406604566133e+02
4.000000000000000000e+01 3.851789851692244611e+02
4.040000000000000568e+01 3.835440262589505096e+02
4.079999999999999716e+01 3.819325629419557799e+02
4.120000000000000284e+01 3.803440154028554048e+02
4.160000000000000142e+01 3.787778240386134598e+02
4.200000000000000000e+01 3.772334485516460632e+02
4.239999999999999858e+01 3.757103670925260417e+02
4.280000000000000426e+01 3.742080754490973504e+02
4.320000000000000284e+01 3.727260862790436704e+02
4.360000000000000142e+01 3.712639283831715034e+02
4.400000000000000000e+01 3.698211460168678286e+02
4.439999999999999858e+01 3.683972982373701370e+02
4.480000000000000426e+01 3.669919582846584944e+02
4.520000000000000284e+01 3.656047129939322531e+02
4.560000000000000142e+01 3.642351622377725562e+02
4.600000000000000000e+01 3.628829183962273532e+02
4.639999999999999858e+01 3.615476058531724561e+02
4.680000000000000426e+01 3.602288605174151712e+02
4.720000000000000284e+01 3.589263293671093606e+02
4.760000000000000142e+01 3.576396700161463400e+02
4.800000000000000000e+01 3.563685503012721938e+02
4.840000000000000568e+01 3.551126478887667872e+02
4.880000000000000426e+01 3.538716498995909205e+02
4.920000000000000284e+01 3.526452525519817982e+02
4.960000000000000142e+01 3.514331608205399107e+02
5.000000000000000000e+01 3.502350881109105671e+02
5.040000000000000568e+01 3.490507559492203882e+02
5.080000000000000426e+01 3.478798936854798853e+02
5.120000000000000284e+01 3.467222382102125380e+02
5.160000000000000142e+01 3.455775336836151155e+02
5.200000000000000000e+01 3.444455312765971939e+02
5.240000000000000568e+01 3.433259889230840258e+02
5.280000000000000426e+01 3.422186710830081324e+02
5.320000000000000284e+01 3.411233485154431833e+02
5.360000000000000142e+01 3.400397980613714708e+02
5.400000000000000000e+01 3.389678024356009018e+02
5.440000000000000568e+01 3.379071500273771562e+02
5.480000000000000426e+01 3.368576347092647438e+02
5.520000000000000284e+01 3.358190556538907572e+02
5.560000000000000142e+01 3.347912171581701841e+02
5.600000000000000000e+01 3.337739284746546105e+02
5.640000000000000568e+01 3.327670036496608645e+02
5.680000000000000426e+01 3.317702613678612806e+02
5.720000000000000284e+01 3.307835248030290813e+02
5.760000000000000142e+01 3.298066214746533547e+02
5.800000000000000000e+01 3.288393831101499245e+02
5.840000000000000568e+01 3.278816455124111258e+02
5.880000000000000426e+01 3.269332484324511370e+02
5.920000000000000284e+01 3.259940354469147223e+02
5.960000000000000142e+01 3.250638538402309337e+02
6.000000000000000000e+01 3.241425544912034979e+02
6.040000000000000568e+01 3.232299917638413262e+02
6.080000000000000426e+01 3.223260234022429813e+02
6.120000000000000284e+01 3.214305104293545128e+02
6.160000000000000142e+01 3.205433170494366095e+02
6.200000000000000000e+01 3.196643105540769625e+02
6.240000000000000568e+01 3.187933612315977712e+02
6.280000000000000426e+01 3.179303422797137841e+02
6.320000000000000284e+01 3.170751297213018915e+02
6.360000000000000142e+01 3.162276023231524391e+02
6.400000000000000000e+01 3.153876415175787997e+02
6.440000000000000568e+01 3.145551313267632736e+02
6.480000000000001137e+01 3.137299582897310302e+02
6.520000000000000284e+01 3.129120113918398829e+02
6.559999999999999432e+01 3.121011819966873873e+02
6.600000000000000000e+01 3.112973637803348197e+02
6.640000000000000568e+01 3.105004526677565195e+02
6.680000000000001137e+01 3.097103467714251224e+02
6.720000000000000284e+01 3.089269463319476472e+02
6.759999999999999432e+01 3.081501536606729701e+02
6.800000000000000000e+01 3.073798730841911038e+02
6.840000000000000568e+01 3.066160108906534560e+02
6.880000000000001137e+01 3.058584752778409097e+02
6.920000000000000284e+01 3.051071763029146382e+02
6.959999999999999432e+01 3.043620258337834912e+02
7.000000000000000000e+01 3.036229375020285488e+02
7.040000000000000568e+01 3.028898266573237947e+02
7.080000000000001137e+01 3.021626103232986793e+02
7.120000000000000284e+01 3.014412071547876053e+02
7.159999999999999432e+01 3.007255373964149499e+02
7.200000000000000000e+01 3.000155228424665665e+02
7.240000000000000568e+01 2.993110867980017247e+02
7.280000000000001137e+01 2.986121540411573392e+02
7.320000000000000284e+01 2.979186507866043030e+02
7.359999999999999432e+01 2.972305046501125503e+02
7.400000000000000000e+01 2.965476446141860833e+02
7.440000000000000568e+01 2.958700009947291392e+02
7.479999999999999716e+01 2.951975054087072294e+02
7.520000000000000284e+01 2.945300907427682091e+02
7.560000000000000853e+01 2.938676911227892106e+02
7.600000000000000000e+01 2.932102418843175542e+02
7.640000000000000568e+01 2.925576795438747695e+02
7.679999999999999716e+01 2.919099417710938269e+02
7.720000000000000284e+01 2.912669673616594537e+02
7.760000000000000853e+01 2.906286962110287391e+02
7.800000000000000000e+01 2.899950692888989465e+02
7.840000000000000568e+01 2.893660286144029783e+02
7.879999999999999716e+01 2.887415172320053784e+02
7.920000000000000284e+01 2.881214791880757389e+02
7.960000000000000853e+01 2.875058595081176236e+02
8.000000000000000000e+01 2.868946041746306719e+02
8.040000000000000568e+01 2.862876601055859851e+02
8.079999999999999716e+01 2.856849751334929692e+02
8.120000000000000284e+01 2.850864979850412624e+02
8.160000000000000853e+01 2.844921782612960897e+02
8.200000000000000000e+01 2.839019664184313001e+02
8.240000000000000568e+01 2.833158137489814408e+02
8.279999999999999716e+01 2.827336723635984299e+02
8.320000000000000284e+01 2.821554951732938434e+02
8.360000000000000853e+01 2.815812358721539681e+02
8.400000000000000000e+01 2.810108489205119326e+02
8.440000000000000568e+01 2.804442895285620239e+02
8.479999999999999716e+01 2.798815136404038526e+02
8.520000000000000284e+01 2.793224779185013062e+02
8.560000000000000853e+01 2.787671397285452031e+02
8.600000000000000000e+01 2.782154571247060062e+02
8.640000000000000568e+01 2.776673888352656832e+02
8.680000000000001137e+01 2.771228942486159781e+02
8.720000000000000284e+01 2.765819333996142291e+02
8.760000000000000853e+01 2.760444669562823492e+02
8.800000000000000000e+01 2.755104562068432301e+02
8.840000000000000568e+01 2.749798630470807552e+02
8.880000000000001137e+01 2.744526499680153506e+02
8.920000000000000284e+01 2.739287800438865474e+02
8.960000000000000853e+01 2.734082169204315846e+02
9.000000000000000000e+01 2.728909248034534585e+02
9.040000000000000568e+01 2.723768684476683006e+02
9.080000000000001137e+01 2.718660131458251499e+02
9.120000000000000284e+01 2.713583247180898752e+02
9.160000000000000853e+01 2.708537695016853490e+02
9.200000000000000000e+01 2.703523143407808789e+02
9.240000000000000568e+01 2.698539265766243034e+02
9.280000000000001137e+01 2.693585740379086246e+02
9.320000000000000284e+01 2.688662250313677760e+02
9.360000000000000853e+01 2.683768483325943066e+02
9.400000000000000000e+01 2.678904131770735830e+02
9.440000000000000568e+01 2.674068892514271738e+02
9.480000000000001137e+01 2.669262466848616668e+02
9.520000000000000284e+01 2.664484560408146194e+02
9.560000000000000853e+01 2.659734883087947424e+02
9.600000000000000000e+01 2.655013148964094398e+02
9.640000000000000568e+01 2.650319076215750442e+02
9.680000000000001137e+01 2.645652387049052550e+02
9.720000000000000284e+01 2.641012807622719833e+02
9.760000000000000853e+01 2.636400067975347952e+02
9.800000000000000000e+01 2.631813901954344033e+02
9.840000000000000568e+01 2.627254047146451512e+02
9.880000000000001137e+01 2.622720244809831343e+02
9.920000000000000284e+01 2.618212239807654100e+02
9.960000000000000853e+01 2.613729780543161496e+02
1.000000000000000000e+02 2.609272618896160338e+02
1.004000000000000057e+02 2.604840510160917120e+02
1.008000000000000114e+02 2.600433212985405476e+02
1.012000000000000028e+02 2.596050489311886054e+02
1.016000000000000085e+02 2.591692104318763086e+02
1.020000000000000000e+02 2.587357826363714821e+02
1.024000000000000057e+02 2.583047426928034156e+02
1.028000000000000114e+02 2.578760680562171501e+02
1.032000000000000028e+02 2.574497364832438393e+02
1.036000000000000085e+02 2.570257260268842856e+02
1.040000000000000000e+02 2.566040150314034918e+02
1.044000000000000057e+02 2.561845821273324191e+02
1.048000000000000114e+02 2.557674062265754742e+02
1.052000000000000028e+02 2.553524665176196891e+02
1.056000000000000085e+02 2.549397424608446840e+02
1.060000000000000000e+02 2.545292137839294924e+02
1.064000000000000057e+02 2.541208604773543414e+02
1.068000000000000114e+02 2.537146627899959981e+02
1.072000000000000028e+02 2.533106012248127001e+02
1.076000000000000085e+02 2.529086565346177622e+02
1.080000000000000000e+02 2.525088097179394140e+02
1.084000000000000057e+02 2.521110420149644540e+02
1.088000000000000114e+02 2.517153349035642123e+02
1.092000000000000028e+02 2.513216700954004921e+02
1.096000000000000085e+02 2.509300295321093870e+02
1.100000000000000000e+02 2.505403953815620639e+02
1.104000000000000057e+02 2.501527500341996699e+02
1.108000000000000114e+02 2.497670760994407715e+02
1.112000000000000028e+02 2.493833564021603593e+02
1.116000000000000085e+02 2.490015739792378895e+02
1.120000000000000000e+02 2.486217120761731962e+02
1.124000000000000057e+02 2.482437541437686832e+02
1.128000000000000114e+02 2.478676838348759475e+02
1.132000000000000028e+02 2.474934850012060679e+02
1.136000000000000085e+02 2.471211416902007159e+02
1.140000000000000000e+02 2.467506381419648847e+02
1.144000000000000057e+02 2.463819587862570586e+02
1.148000000000000114e+02 2.460150882395384428e+02
1.152000000000000028e+02 2.456500113020772176e+02
1.156000000000000085e+02 2.452867129551087260e+02
1.160000000000000000e+02 2.449251783580488677e+02
1.164000000000000057e+02 2.445653928457606412e+02
1.168000000000000114e+02 2.442073419258712192e+02
1.172000000000000028e+02 2.438510112761404685e+02
1.176000000000000085e+02 2.434963867418774726e+02
1.180000000000000000e+02 2.431434543334057707e+02
1.184000000000000057e+02 2.427922002235756622e+02
1.188000000000000114e+02 2.424426107453219288e+02
1.192000000000000028e+02 2.420946723892671457e+02
1.196000000000000085e+02 2.417483718013685063e+02
1.200000000000000000e+02 2.414036957806080750e+02
1.204000000000000057e+02 2.410606312767248482e+02
1.208000000000000114e+02 2.407191653879880562e+02
1.212000000000000028e+02 2.403792853590109928e+02
1.216000000000000085e+02 2.400409785786039549e+02
1.220000000000000000e+02 2.397042325776661187e+02
1.224000000000000057e+02 2.393690350271148475e+02
1.228000000000000114e+02 2.390353737358524882e+02
1.232000000000000028e+02 2.387032366487687227e+02
1.236000000000000085e+02 2.383726118447788735e+02
1.240000000000000000e+02 2.380434875348966841e+02
1.244000000000000057e+02 2.377158520603410921e+02
1.248000000000000114e+02 2.373896938906763410e+02
1.252000000000000028e+02 2.370650016219844645e+02
1.256000000000000085e+02 2.367417639750698868e+02
1.260000000000000000e+02 2.364199697936952020e+02
1.264000000000000057e+02 2.360996080428473647e+02
1.268000000000000114e+02 2.357806678070340354e+02
1.272000000000000028e+02 2.354631382886094002e+02
1.276000000000000085e+02 2.351470088061284116e+02
1.280000000000000000e+02 2.348322687927292804e+02
1.284000000000000057e+02 2.345189077945438214e+02
1.288000000000000114e+02 2.342069154691345432e+02
1.291999999999999886e+02 2.338962815839585971e+02
1.296000000000000227e+02 2.335869960148568794e+02
1.300000000000000000e+02 2.332790487445699057e+02
1.304000000000000057e+02 2.329724298612773055e+02
1.308000000000000114e+02 2.326671295571625251e+02
1.311999999999999886e+02 2.323631381270013776e+02
1.316000000000000227e+02 2.320604459667735284e+02
1.320000000000000000e+02 2.317590435722982534e+02
1.324000000000000057e+02 2.314589215378913991e+02
1.328000000000000114e+02 2.311600705550449675e+02
1.331999999999999886e+02 2.308624814111289254e+02
1.336000000000000227e+02 2.305661449881135354e+02
1.340000000000000000e+02 2.302710522613130024e+02
1.344000000000000057e+02 2.299771942981493567e+02
1.348000000000000114e+02 2.296845622569363741e+02
1.351999999999999886e+02 2.293931473856838181e+02
1.356000000000000227e+02 2.291029410209195021e+02
1.360000000000000000e+02 2.288139345865322696e+02
1.364000000000000057e+02 2.285261195926318294e+02
1.368000000000000114e+02 2.282394876344277179e+02
1.371999999999999886e+02 2.279540303911260253e+02
1.376000000000000227e+02 2.276697396248433165e+02
1.380000000000000000e+02 2.273866071795383164e+02
1.384000000000000057e+02 2.271046249799598229e+02
1.388000000000000114e+02 2.268237850306117593e+02
1.392000000000000171e+02 2.265440794147341990e+02
1.395999999999999943e+02 2.262655002933005903e+02
1.400000000000000000e+02 2.259880399040300176e+02
1.404000000000000057e+02 2.257116905604157751e+02
1.408000000000000114e+02 2.254364446507683510e+02
1.412000000000000171e+02 2.251622946372733338e+02
1.415999999999999943e+02 2.248892330550640963e+02
1.420000000000000000e+02 2.246172525113085499e+02
1.424000000000000057e+02 2.243463456843099095e+02
1.428000000000000114e+02 2.240765053226213865e+02
1.432000000000000171e+02 2.238077242441742385e+02
1.435999999999999943e+02 2.235399953354191496e+02
1.440000000000000000e+02 2.232733115504807131e+02
1.444000000000000057e+02 2.230076659103241923e+02
1.448000000000000114e+02 2.227430515019361792e+02
1.452000000000000171e+02 2.224794614775156560e+02
1.455999999999999943e+02 2.222168890536790684e+02
1.460000000000000000e+02 2.219553275106757724e+02
1.464000000000000057e+02 2.216947701916163851e+02
1.468000000000000114e+02 2.214352105017119641e+02
1.472000000000000171e+02 2.211766419075243562e+02
1.475999999999999943e+02 2.209190579362281710e+02
1.480000000000000000e+02 2.206624521748833558e+02
1.484000000000000057e+02 2.204068182697182010e+02
1.488000000000000114e+02 2.201521499254237426e+02
1.492000000000000171e+02 2.198984409044570043e+02
1.495999999999999943e+02 2.196456850263561762e+02
1.500000000000000000e+02 2.193938761670644908e+02
