1.000000000000000000e+01 3.834755713253758245e+02
1.040000000000000036e+01 3.947412540915990462e+02
1.080000000000000071e+01 4.060636246968911109e+02
1.119999999999999929e+01 4.082725422414530954e+02
1.159999999999999964e+01 3.997369494500448468e+02
1.200000000000000000e+01 3.917857969292045937e+02
1.240000000000000036e+01 3.843521785224099290e+02
1.280000000000000071e+01 3.773797446176656649e+02
1.319999999999999929e+01 3.708206096055515104e+02
1.359999999999999964e+01 3.646337528123567608e+02
1.400000000000000000e+01 3.587837793225916130e+02
1.440000000000000036e+01 3.532399475842485117e+02
1.480000000000000071e+01 3.479753976914743703e+02
1.519999999999999929e+01 3.429665326243306254e+02
1.560000000000000142e+01 3.381925174768547322e+02
1.600000000000000000e+01 3.336348706976868357e+02
1.639999999999999858e+01 3.292771278067778553e+02
1.680000000000000071e+01 3.251045627266159954e+02
1.719999999999999929e+01 3.211039553037497853e+02
1.760000000000000142e+01 3.172633961534685341e+02
1.800000000000000000e+01 3.135721218833681405e+02
1.839999999999999858e+01 3.100203752120254990e+02
1.880000000000000071e+01 3.065992856186554150e+02
1.920000000000000284e+01 3.033007670254502841e+02
1.960000000000000142e+01 3.001174296892889402e+02
2.000000000000000000e+01 2.970425040097145484e+02
2.039999999999999858e+01 2.940697743795471411e+02
2.080000000000000071e+01 2.911935215385894367e+02
2.120000000000000284e+01 2.884084721586447699e+02
2.160000000000000142e+01 2.857097546039681220e+02
2.200000000000000000e+01 2.830928599863311206e+02
2.239999999999999858e+01 2.805536077765871141e+02
2.280000000000000071e+01 2.780881153515487654e+02
2.320000000000000284e+01 2.756927709512533511e+02
2.360000000000000142e+01 2.733642096013073797e+02
2.400000000000000000e+01 2.710992916211383204e+02
2.439999999999999858e+01 2.688950833941512997e+02
2.480000000000000071e+01 2.667488401219895309e+02
2.520000000000000284e+01 2.646579903239399414e+02
2.560000000000000142e+01 2.626201218752963769e+02
2.600000000000000000e+01 2.606329694062407611e+02
2.640000000000000213e+01 2.586944029063741368e+02
2.680000000000000071e+01 2.568024174001200777e+02
2.719999999999999929e+01 2.549551235753928040e+02
2.760000000000000142e+01 2.531507392626528485e+02
2.800000000000000000e+01 2.513875816741299900e+02
2.840000000000000213e+01 2.496640603239108316e+02
2.880000000000000071e+01 2.479786705590296094e+02
2.920000000000000284e+01 2.463299876398752133e+02
2.960000000000000142e+01 2.447166613153386834e+02
3.000000000000000000e+01 2.431374108443130808e+02
3.040000000000000213e+01 2.415910204205601701e+02
3.080000000000000071e+01 2.400763349626872412e+02
3.120000000000000284e+01 2.385922562351185263e+02
3.160000000000000142e+01 2.371377392695892183e+02
3.200000000000000000e+01 2.357117890598925385e+02
3.240000000000000568e+01 2.343134575054407946e+02
3.279999999999999716e+01 2.329418405816949473e+02
3.320000000000000284e+01 2.315960757177335836e+02
3.360000000000000142e+01 2.302753393631905965e+02
3.400000000000000000e+01 2.289788447285348809e+02
3.440000000000000568e+01 2.277058396842164996e+02
3.479999999999999716e+01 2.264556048055853807e+02
3.520000000000000284e+01 2.252274515517231350e+02
3.560000000000000142e+01 2.240207205674330453e+02
3.600000000000000000e+01 2.228347800986199445e+02
3.640000000000000568e+01 2.216690245121793623e+02
3.679999999999999716e+01 2.205228729123105325e+02
3.720000000000000284e+01 2.193957678458836256e+02
3.760000000000000142e+01 2.182871740901373414e+02
3.800000000000000000e+01 2.171965775165620300e+02
3.840000000000000568e+01 2.161234840253504217e+02
3.879999999999999716e+01 2.150674185452722043e+02
3.920000000000000284e+01 2.140279240942555816e+02
3.960000000000000142e+01 2.130045608963524728e+02
4.000000000000000000e+01 2.119969055511127465e+02
4.040000000000000568e+01 2.110045502517158980e+02
4.079999999999999716e+01 2.100271020484998417e+02
4.120000000000000284e+01 2.090641821547904442e+02
4.160000000000000142e+01 2.081154252921798218e+02
4.200000000000000000e+01 2.071804790726191356e+02
4.239999999999999858e+01 2.062590034148944369e+02
4.280000000000000426e+01 2.053506699932388528e+02
4.320000000000000284e+01 2.044551617160008732e+02
4.360000000000000142e+01 2.035721722324447001e+02
4.400000000000000000e+01 2.027014054658976079e+02
4.439999999999999858e+01 2.018425751715924719e+02
4.480000000000000426e+01 2.009954045176673674e+02
4.520000000000000284e+01 2.001596256879005011e+02
4.560000000000000142e+01 1.993349795048514181e+02
4.600000000000000000e+01 1.985212150721795012e+02
4.639999999999999858e+01 1.977180894349905600e+02
4.680000000000000426e+01 1.969253672571438756e+02
4.720000000000000284e+01 1.961428205145250843e+02
4.760000000000000142e+01 1.953702282033538040e+02
4.800000000000000000e+01 1.946073760626615297e+02
4.840000000000000568e+01 1.938540563101294367e+02
4.880000000000000426e+01 1.931100673905293945e+02
4.920000000000000284e+01 1.923752137360619372e+02
4.960000000000000142e+01 1.916493055379287682e+02
5.000000000000000000e+01 1.909321585285201763e+02
5.040000000000000568e+01 1.902235937736380151e+02
5.080000000000000426e+01 1.895234374742092882e+02
5.120000000000000284e+01 1.888315207769811650e+02
5.160000000000000142e+01 1.881476795937181521e+02
5.200000000000000000e+01 1.874717544284526980e+02
5.240000000000000568e+01 1.868035902123667427e+02
5.280000000000000426e+01 1.861430361459078711e+02
5.320000000000000284e+01 1.854899455477667516e+02
5.360000000000000142e+01 1.848441757103649650e+02
5.400000000000000000e+01 1.842055877615236454e+02
5.440000000000000568e+01 1.835740465320005796e+02
5.480000000000000426e+01 1.829494204286036165e+02
5.520000000000000284e+01 1.823315813126040723e+02
5.560000000000000142e+01 1.817204043831887645e+02
5.600000000000000000e+01 1.811157680657059927e+02
5.640000000000000568e+01 1.805175539044724076e+02
5.680000000000000426e+01 1.799256464599220351e+02
5.720000000000000284e+01 1.793399332098904040e+02
5.760000000000000142e+01 1.787603044548376374e+02
5.800000000000000000e+01 1.781866532268263086e+02
5.840000000000000568e+01 1.776188752020775041e+02
5.880000000000000426e+01 1.770568686169412729e+02
5.920000000000000284e+01 1.765005341871226108e+02
5.960000000000000142e+01 1.759497750300157293e+02
6.000000000000000000e+01 1.754044965900054365e+02
6.040000000000000568e+01 1.748646065666014238e+02
6.080000000000000426e+01 1.743300148452803455e+02
6.120000000000000284e+01 1.738006334309139902e+02
6.160000000000000142e+01 1.732763763836705095e+02
6.200000000000000000e+01 1.727571597572807320e+02
6.240000000000000568e+01 1.722429015395653664e+02
6.280000000000000426e+01 1.717335215951277405e+02
6.320000000000000284e+01 1.712289416101169195e+02
6.360000000000000142e+01 1.707290850389745458e+02
6.400000000000000000e+01 1.702338770530813861e+02
6.440000000000000568e+01 1.697432444912225264e+02
6.480000000000001137e+01 1.692571158117972061e+02
6.520000000000000284e+01 1.687754210466990230e+02
6.559999999999999432e+01 1.682980917567990105e+02
6.600000000000000000e+01 1.678250609889657028e+02
6.640000000000000568e+01 1.673562632345586678e+02
6.680000000000001137e+01 1.668916343893377814e+02
6.720000000000000284e+01 1.664311117147295533e+02
6.759999999999999432e+01 1.659746338003973278e+02
6.800000000000000000e+01 1.655221405280637157e+02
6.840000000000000568e+01 1.650735730365353788e+02
6.880000000000001137e+01 1.646288736878830150e+02
6.920000000000000284e+01 1.641879860347324893e+02
6.959999999999999432e+01 1.637508547886229167e+02
7.000000000000000000e+01 1.633174257893913932e+02
7.040000000000000568e+01 1.628876459755447001e+02
7.080000000000001137e+01 1.624614633555813441e+02
7.120000000000000284e+01 1.620388269802262755e+02
7.159999999999999432e+01 1.616196869155461115e+02
7.200000000000000000e+01 1.612039942169102176e+02
7.240000000000000568e+01 1.607917009037675484e+02
7.280000000000001137e+01 1.603827599352080426e+02
7.320000000000000284e+01 1.599771251862808867e+02
7.359999999999999432e+01 1.595747514250408301e+02
7.400000000000000000e+01 1.591755942902971981e+02
7.440000000000000568e+01 1.587796102700398251e+02
7.479999999999999716e+01 1.583867566805173226e+02
7.520000000000000284e+01 1.579969916459448029e+02
7.560000000000000853e+01 1.576102740788189749e+02
7.600000000000000000e+01 1.572265636608182717e+02
7.640000000000000568e+01 1.568458208242686283e+02
7.679999999999999716e+01 1.564680067341542440e+02
7.720000000000000284e+01 1.560930832706546028e+02
7.760000000000000853e+01 1.557210130121905820e+02
7.800000000000000000e+01 1.553517592189603818e+02
7.840000000000000568e+01 1.549852858169501246e+02
7.879999999999999716e+01 1.546215573824023011e+02
7.920000000000000284e+01 1.542605391267264281e+02
7.960000000000000853e+01 1.539021968818379094e+02
8.000000000000000000e+01 1.535464970859094933e+02
8.040000000000000568e+01 1.531934067695229089e+02
8.079999999999999716e+01 1.528428935422066104e+02
8.120000000000000284e+01 1.524949255793470684e+02
8.160000000000000853e+01 1.521494716094617559e+02
8.200000000000000000e+01 1.518065009018216074e+02
8.240000000000000568e+01 1.514659832544116398e+02
8.279999999999999716e+01 1.511278889822193037e+02
8.320000000000000284e+01 1.507921889058395664e+02
8.360000000000000853e+01 1.504588543403867504e+02
8.400000000000000000e+01 1.501278570847032654e+02
8.440000000000000568e+01 1.497991694108565639e+02
8.479999999999999716e+01 1.494727640539138918e+02
8.520000000000000284e+01 1.491486142019874706e+02
8.560000000000000853e+01 1.488266934865412168e+02
8.600000000000000000e+01 1.485069759729503573e+02
8.640000000000000568e+01 1.481894361513069498e+02
8.680000000000001137e+01 1.478740489274636047e+02
8.720000000000000284e+01 1.475607896143074527e+02
8.760000000000000853e+01 1.472496339232581590e+02
8.800000000000000000e+01 1.469405579559830528e+02
8.840000000000000568e+01 1.466335381963222915e+02
8.880000000000001137e+01 1.463285515024185202e+02
8.920000000000000284e+01 1.460255750990443744e+02
8.960000000000000853e+01 1.457245865701221419e+02
9.000000000000000000e+01 1.454255638514299847e+02
9.040000000000000568e+01 1.451284852234892639e+02
9.080000000000001137e+01 1.448333293046270853e+02
9.120000000000000284e+01 1.445400750442100843e+02
9.160000000000000853e+01 1.442487017160431151e+02
9.200000000000000000e+01 1.439591889119297150e+02
9.240000000000000568e+01 1.436715165353875534e+02
9.280000000000001137e+01 1.433856647955167603e+02
9.320000000000000284e+01 1.431016142010149963e+02
9.360000000000000853e+01 1.428193455543359391e+02
9.400000000000000000e+01 1.425388399459872346e+02
9.440000000000000568e+01 1.422600787489628260e+02
9.480000000000001137e+01 1.419830436133081548e+02
9.520000000000000284e+01 1.417077164608119517e+02
9.560000000000000853e+01 1.414340794798227989e+02
9.600000000000000000e+01 1.411621151201867406e+02
9.640000000000000568e+01 1.408918060883018200e+02
9.680000000000001137e+01 1.406231353422874975e+02
9.720000000000000284e+01 1.403560860872649414e+02
9.760000000000000853e+01 1.400906417707454352e+02
9.800000000000000000e+01 1.398267860781242291e+02
9.840000000000000568e+01 1.395645029282765677e+02
9.880000000000001137e+01 1.393037764692533926e+02
9.920000000000000284e+01 1.390445910740743329e+02
9.960000000000000853e+01 1.387869313366144581e+02
1.000000000000000000e+02 1.385307820675837718e+02
1.004000000000000057e+02 1.382761282905954374e+02
1.008000000000000114e+02 1.380229552383215150e+02
1.012000000000000028e+02 1.377712483487336499e+02
1.016000000000000085e+02 1.375209932614258719e+02
1.020000000000000000e+02 1.372721758140186239e+02
1.024000000000000057e+02 1.370247820386405238e+02
1.028000000000000114e+02 1.367787981584868646e+02
1.032000000000000028e+02 1.365342105844528930e+02
1.036000000000000085e+02 1.362910059118384822e+02
1.040000000000000000e+02 1.360491709171249965e+02
1.044000000000000057e+02 1.358086925548196859e+02
1.048000000000000114e+02 1.355695579543684346e+02
1.052000000000000028e+02 1.353317544171328848e+02
1.056000000000000085e+02 1.350952694134322769e+02
1.060000000000000000e+02 1.348600905796469931e+02
1.064000000000000057e+02 1.346262057153829517e+02
1.068000000000000114e+02 1.343936027806953746e+02
1.072000000000000028e+02 1.341622698933700235e+02
1.076000000000000085e+02 1.339321953262607110e+02
1.080000000000000000e+02 1.337033675046822907e+02
1.084000000000000057e+02 1.334757750038562847e+02
1.088000000000000114e+02 1.332494065464100572e+02
1.092000000000000028e+02 1.330242509999257834e+02
1.096000000000000085e+02 1.328002973745399800e+02
1.100000000000000000e+02 1.325775348205915520e+02
1.104000000000000057e+02 1.323559526263169914e+02
1.108000000000000114e+02 1.321355402155923002e+02
1.112000000000000028e+02 1.319162871457196218e+02
1.116000000000000085e+02 1.316981831052586926e+02
1.120000000000000000e+02 1.314812179119006430e+02
1.124000000000000057e+02 1.312653815103846000e+02
1.128000000000000114e+02 1.310506639704547354e+02
1.132000000000000028e+02 1.308370554848581548e+02
1.136000000000000085e+02 1.306245463673814129e+02
1.140000000000000000e+02 1.304131270509257376e+02
1.144000000000000057e+02 1.302027880856193462e+02
1.148000000000000114e+02 1.299935201369669073e+02
1.152000000000000028e+02 1.297853139840338770e+02
1.156000000000000085e+02 1.295781605176665039e+02
1.160000000000000000e+02 1.293720507387457417e+02
1.164000000000000057e+02 1.291669757564742156e+02
1.168000000000000114e+02 1.289629267866963858e+02
1.172000000000000028e+02 1.287598951502498039e+02
1.176000000000000085e+02 1.285578722713484012e+02
1.180000000000000000e+02 1.283568496759953632e+02
1.184000000000000057e+02 1.281568189904265580e+02
1.188000000000000114e+02 1.279577719395825142e+02
1.192000000000000028e+02 1.277597003456091613e+02
1.196000000000000085e+02 1.275625961263863246e+02
1.200000000000000000e+02 1.273664512940836033e+02
1.204000000000000057e+02 1.271712579537426535e+02
1.208000000000000114e+02 1.269770083018857463e+02
1.212000000000000028e+02 1.267836946251495789e+02
1.216000000000000085e+02 1.265913092989444095e+02
1.220000000000000000e+02 1.263998447861372227e+02
1.224000000000000057e+02 1.262092936357590816e+02
1.228000000000000114e+02 1.260196484817355014e+02
1.232000000000000028e+02 1.258309020416399875e+02
1.236000000000000085e+02 1.256430471154699262e+02
1.240000000000000000e+02 1.254560765844443750e+02
1.244000000000000057e+02 1.252699834098229559e+02
1.248000000000000114e+02 1.250847606317463629e+02
1.252000000000000028e+02 1.249004013680969791e+02
1.256000000000000085e+02 1.247168988133796006e+02
1.260000000000000000e+02 1.245342462376223835e+02
1.264000000000000057e+02 1.243524369852961513e+02
1.268000000000000114e+02 1.241714644742535540e+02
1.272000000000000028e+02 1.239913221946863331e+02
1.276000000000000085e+02 1.238120037081003915e+02
1.280000000000000000e+02 1.236335026463092106e+02
1.284000000000000057e+02 1.234558127104442065e+02
1.288000000000000114e+02 1.232789276699823091e+02
1.291999999999999886e+02 1.231028413617903396e+02
1.296000000000000227e+02 1.229275476891852179e+02
1.300000000000000000e+02 1.227530406210110385e+02
1.304000000000000057e+02 1.225793141907309973e+02
1.308000000000000114e+02 1.224063624955351486e+02
1.311999999999999886e+02 1.222341796954632969e+02
1.316000000000000227e+02 1.220627600125422845e+02
1.320000000000000000e+02 1.218920977299381576e+02
1.324000000000000057e+02 1.217221871911222593e+02
1.328000000000000114e+02 1.215530227990512770e+02
1.331999999999999886e+02 1.213845990153611893e+02
1.336000000000000227e+02 1.212169103595739870e+02
1.340000000000000000e+02 1.210499514083181509e+02
1.344000000000000057e+02 1.208837167945616642e+02
1.348000000000000114e+02 1.207182012068575290e+02
1.351999999999999886e+02 1.205533993886019459e+02
1.356000000000000227e+02 1.203893061373041604e+02
1.360000000000000000e+02 1.202259163038688285e+02
1.364000000000000057e+02 1.200632247918893256e+02
1.368000000000000114e+02 1.199012265569529632e+02
1.371999999999999886e+02 1.197399166059573901e+02
1.376000000000000227e+02 1.195792899964376659e+02
1.380000000000000000e+02 1.194193418359044614e+02
1.384000000000000057e+02 1.192600672811926330e+02
1.388000000000000114e+02 1.191014615378206116e+02
1.392000000000000171e+02 1.189435198593590002e+02
1.395999999999999943e+02 1.187862375468104261e+02
1.400000000000000000e+02 1.186296099479981052e+02
1.404000000000000057e+02 1.184736324569649639e+02
1.408000000000000114e+02 1.183183005133812884e+02
1.412000000000000171e+02 1.181636096019624489e+02
1.415999999999999943e+02 1.180095552518952928e+02
1.420000000000000000e+02 1.178561330362734765e+02
1.424000000000000057e+02 1.177033385715417779e+02
1.428000000000000114e+02 1.175511675169487944e+02
1.432000000000000171e+02 1.173996155740081946e+02
1.435999999999999943e+02 1.172486784859684263e+02
1.440000000000000000e+02 1.170983520372900983e+02
1.444000000000000057e+02 1.169486320531320018e+02
1.448000000000000114e+02 1.167995143988442379e+02
1.452000000000000171e+02 1.166509949794699850e+02
1.455999999999999943e+02 1.165030697392537888e+02
1.460000000000000000e+02 1.163557346611581238e+02
1.464000000000000057e+02 1.162089857663869310e+02
1.468000000000000114e+02 1.160628191139161629e+02
1.472000000000000171e+02 1.159172308000318168e+02
1.475999999999999943e+02 1.157722169578743632e+02
1.480000000000000000e+02 1.156277737569904218e+02
1.484000000000000057e+02 1.154838974028908325e+02
1.488000000000000114e+02 1.153405841366154334e+02
1.492000000000000171e+02 1.151978302343042628e+02
1.495999999999999943e+02 1.150556320067748715e+02
1.500000000000000000e+02 1.149139857991062996e+02
