1.000000000000000000e+01 5.677370482017731490e+01
1.040000000000000036e+01 6.182263152696744157e+01
1.080000000000000071e+01 6.826946664216980309e+01
1.119999999999999929e+01 7.550607861532009224e+01
1.159999999999999964e+01 6.816235106451883041e+01
1.200000000000000000e+01 6.555178224229928219e+01
1.240000000000000036e+01 6.324817054220307710e+01
1.280000000000000071e+01 6.119135024941836321e+01
1.319999999999999929e+01 5.933706918084058657e+01
1.359999999999999964e+01 5.785801865399572819e+01
1.400000000000000000e+01 5.659941723363805011e+01
1.440000000000000036e+01 5.530875291892223800e+01
1.480000000000000071e+01 5.405136316015892106e+01
1.519999999999999929e+01 5.288295444440019821e+01
1.560000000000000142e+01 5.179322650189248378e+01
1.600000000000000000e+01 5.077351209884967886e+01
1.639999999999999858e+01 4.981645187865581192e+01
1.680000000000000071e+01 4.891574633686859386e+01
1.719999999999999929e+01 4.806596389360053934e+01
1.760000000000000142e+01 4.726239045632166125e+01
1.800000000000000000e+01 4.831010716932836146e+01
1.839999999999999858e+01 4.761180508817408708e+01
1.880000000000000071e+01 4.694822955368694295e+01
1.920000000000000284e+01 4.631652686521445617e+01
1.960000000000000142e+01 4.571416625779141896e+01
2.000000000000000000e+01 4.513889374943438071e+01
2.039999999999999858e+01 4.458869389530370597e+01
2.080000000000000071e+01 4.406175788086810741e+01
2.120000000000000284e+01 4.356331594373651228e+01
2.160000000000000142e+01 4.311608445611381057e+01
2.200000000000000000e+01 4.268493574506401700e+01
2.239999999999999858e+01 4.226886699294858829e+01
2.280000000000000071e+01 3.745558840495647246e+01
2.320000000000000284e+01 3.703844929650829698e+01
2.360000000000000142e+01 3.663446706939761555e+01
2.400000000000000000e+01 3.624292809870293297e+01
2.439999999999999858e+01 3.586317352475894893e+01
2.480000000000000071e+01 3.549459384713524202e+01
2.520000000000000284e+01 3.513662416701882307e+01
2.560000000000000142e+01 3.478873998700225911e+01
2.600000000000000000e+01 3.445045349183015304e+01
2.640000000000000213e+01 3.412131024560665793e+01
2.680000000000000071e+01 3.313606636937693395e+01
2.719999999999999929e+01 3.284080294022071200e+01
2.760000000000000142e+01 3.255323476499504665e+01
2.800000000000000000e+01 3.227302746836677727e+01
2.840000000000000213e+01 3.199986694460926984e+01
2.880000000000000071e+01 3.173345778633098746e+01
2.920000000000000284e+01 3.147352186106401817e+01
2.960000000000000142e+01 3.121979701939967100e+01
3.000000000000000000e+01 3.097203592041635289e+01
3.040000000000000213e+01 3.073000496191131248e+01
3.080000000000000071e+01 3.049348330446913380e+01
3.120000000000000284e+01 3.026226197971254805e+01
3.160000000000000142e+01 3.003614307421765517e+01
3.200000000000000000e+01 2.980159989557302325e+01
3.240000000000000568e+01 2.955608047234767355e+01
3.279999999999999716e+01 2.930699348028556983e+01
3.320000000000000284e+01 2.906350839296304045e+01
3.360000000000000142e+01 2.882541792100715128e+01
3.400000000000000000e+01 2.859252538860823023e+01
3.440000000000000568e+01 2.836464404256286898e+01
3.479999999999999716e+01 2.814159641570496717e+01
3.520000000000000284e+01 2.792321373971899590e+01
3.560000000000000142e+01 2.770933540285564334e+01
3.600000000000000000e+01 2.749980844853376283e+01
3.640000000000000568e+01 2.729448711122283555e+01
3.679999999999999716e+01 2.709323238636378761e+01
3.720000000000000284e+01 2.689591163140699948e+01
3.760000000000000142e+01 2.670239819533408365e+01
3.800000000000000000e+01 2.651257107428308402e+01
3.840000000000000568e+01 2.632631459112561600e+01
3.879999999999999716e+01 2.614351809704552210e+01
3.920000000000000284e+01 2.606933913367949884e+01
3.960000000000000142e+01 2.591306073590515524e+01
4.000000000000000000e+01 2.575939847287784090e+01
4.040000000000000568e+01 2.560827841836661634e+01
4.079999999999999716e+01 2.545962958656727437e+01
4.120000000000000284e+01 2.531338378180763726e+01
4.160000000000000142e+01 2.516947545760132243e+01
4.200000000000000000e+01 2.502784158436764983e+01
4.239999999999999858e+01 2.488842152519171691e+01
4.280000000000000426e+01 2.475115691905096327e+01
4.320000000000000284e+01 2.461599157098104484e+01
4.360000000000000142e+01 2.448287134869683257e+01
4.400000000000000000e+01 2.435174408522256684e+01
4.439999999999999858e+01 2.422255948712096441e+01
4.480000000000000426e+01 2.409526904794276803e+01
4.520000000000000284e+01 2.396982596654791564e+01
4.560000000000000142e+01 2.384618506997581733e+01
4.600000000000000000e+01 2.371900702659785409e+01
4.639999999999999858e+01 2.359243236031280944e+01
4.680000000000000426e+01 2.373564401843237093e+01
4.720000000000000284e+01 2.362965274566274942e+01
4.760000000000000142e+01 2.352505046630960805e+01
4.800000000000000000e+01 2.342180680341675014e+01
4.840000000000000568e+01 2.331989230660816759e+01
4.880000000000000426e+01 2.321927841594492747e+01
4.920000000000000284e+01 2.311993742749476866e+01
4.960000000000000142e+01 2.302184246051895400e+01
5.000000000000000000e+01 2.292496742618735794e+01
5.040000000000000568e+01 2.282928699773804482e+01
5.080000000000000426e+01 2.273477658200316043e+01
5.120000000000000284e+01 2.264141229222757090e+01
5.160000000000000142e+01 2.254917092211133323e+01
5.200000000000000000e+01 2.245802992101137363e+01
5.240000000000000568e+01 2.236796737024140924e+01
5.280000000000000426e+01 2.227896196041309551e+01
5.320000000000000284e+01 2.219099296976469304e+01
5.360000000000000142e+01 2.225827520040223817e+01
5.400000000000000000e+01 2.217335462571268323e+01
5.440000000000000568e+01 2.208939255330953699e+01
5.480000000000000426e+01 2.200637085996353193e+01
5.520000000000000284e+01 2.192427190061712139e+01
5.560000000000000142e+01 2.184307849224476072e+01
5.600000000000000000e+01 2.176277389837535736e+01
5.640000000000000568e+01 2.168334181424533824e+01
5.680000000000000426e+01 2.160476635255173505e+01
5.720000000000000284e+01 2.152703202977701835e+01
5.760000000000000142e+01 2.145012375305866215e+01
5.800000000000000000e+01 2.137402680757779194e+01
5.840000000000000568e+01 2.129872684444300290e+01
5.880000000000000426e+01 2.122420986904632656e+01
5.920000000000000284e+01 2.115046222986975977e+01
5.960000000000000142e+01 2.107747060772183900e+01
6.000000000000000000e+01 2.100522200538487283e+01
6.040000000000000568e+01 2.093370373765440462e+01
6.080000000000000426e+01 2.086290342175331602e+01
6.120000000000000284e+01 2.079280896810422519e+01
6.160000000000000142e+01 2.072316512133342314e+01
6.200000000000000000e+01 2.065203704938000584e+01
6.240000000000000568e+01 2.058160808860419166e+01
6.280000000000000426e+01 2.051186665156584610e+01
6.320000000000000284e+01 2.044280142153979085e+01
6.360000000000000142e+01 2.037440134435245298e+01
6.400000000000000000e+01 2.030665562051980189e+01
6.440000000000000568e+01 2.023955369767354284e+01
6.480000000000001137e+01 2.017308526326300466e+01
6.520000000000000284e+01 2.010724023752083411e+01
6.559999999999999432e+01 2.004200876668134157e+01
6.600000000000000000e+01 1.997738121644068698e+01
6.640000000000000568e+01 1.991334816564871346e+01
6.680000000000001137e+01 1.984990040022280766e+01
6.720000000000000284e+01 1.978702890727444341e+01
6.759999999999999432e+01 1.972472486943972569e+01
6.800000000000000000e+01 1.966297965940553638e+01
6.840000000000000568e+01 1.960178483462325971e+01
6.880000000000001137e+01 1.954113213220251311e+01
6.920000000000000284e+01 1.948101346397766065e+01
6.959999999999999432e+01 1.942142091174025609e+01
7.000000000000000000e+01 1.936234672263060475e+01
7.040000000000000568e+01 1.923949945206657830e+01
7.080000000000001137e+01 1.918160246990181150e+01
7.120000000000000284e+01 1.912420826455249312e+01
7.159999999999999432e+01 1.906730948571854256e+01
7.200000000000000000e+01 1.901089893411629106e+01
7.240000000000000568e+01 1.895496955748448187e+01
7.280000000000001137e+01 1.889951444671925529e+01
7.320000000000000284e+01 1.884452683213332591e+01
7.359999999999999432e+01 1.879000007983461273e+01
7.400000000000000000e+01 1.873592768821977117e+01
7.440000000000000568e+01 1.868230328457842404e+01
7.479999999999999716e+01 1.862912062180389938e+01
7.520000000000000284e+01 1.857637357520646759e+01
7.560000000000000853e+01 1.852405613942546836e+01
7.600000000000000000e+01 1.847216242543660769e+01
7.640000000000000568e+01 1.842068665765089008e+01
7.679999999999999716e+01 1.836962317110207721e+01
7.720000000000000284e+01 1.831896640871920567e+01
7.760000000000000853e+01 1.826871091868147090e+01
7.800000000000000000e+01 1.821885135185218374e+01
7.840000000000000568e+01 1.816938245928925966e+01
7.879999999999999716e+01 1.812029908982946580e+01
7.920000000000000284e+01 1.807159618774380050e+01
7.960000000000000853e+01 1.802235593832880767e+01
8.000000000000000000e+01 1.797334786711202526e+01
8.040000000000000568e+01 1.792471849160267539e+01
8.079999999999999716e+01 1.787646290548308770e+01
8.120000000000000284e+01 1.782857629136868027e+01
8.160000000000000853e+01 1.778105391874119334e+01
8.200000000000000000e+01 1.789045540874549189e+01
8.240000000000000568e+01 1.784584716996452514e+01
8.279999999999999716e+01 1.780156664403613220e+01
8.320000000000000284e+01 1.775760976115911660e+01
8.360000000000000853e+01 1.771397252256263499e+01
8.400000000000000000e+01 1.767065099891134139e+01
8.440000000000000568e+01 1.762764132875419421e+01
8.479999999999999716e+01 1.758493971701564362e+01
8.520000000000000284e+01 1.754254243352779241e+01
8.560000000000000853e+01 1.750044581160215884e+01
8.600000000000000000e+01 1.745864624663987286e+01
8.640000000000000568e+01 1.741714019477903008e+01
8.680000000000001137e+01 1.737592417157802061e+01
8.720000000000000284e+01 1.733499475073376317e+01
8.760000000000000853e+01 1.729434856283366528e+01
8.800000000000000000e+01 1.725398229414035711e+01
8.840000000000000568e+01 1.721389268540812267e+01
8.880000000000001137e+01 1.717407653073001228e+01
8.920000000000000284e+01 1.713453067641484751e+01
8.960000000000000853e+01 1.710767509603379466e+01
9.000000000000000000e+01 1.706996695969644406e+01
9.040000000000000568e+01 1.703250627270922024e+01
9.080000000000001137e+01 1.699529027325097275e+01
9.120000000000000284e+01 1.695831624312372554e+01
9.160000000000000853e+01 1.692158150686070428e+01
9.200000000000000000e+01 1.688508343085675989e+01
9.240000000000000568e+01 1.684881942252049924e+01
9.280000000000001137e+01 1.681278692944753317e+01
9.320000000000000284e+01 1.677698343861412411e+01
9.360000000000000853e+01 1.674140647559077877e+01
9.400000000000000000e+01 1.670605360377502535e+01
9.440000000000000568e+01 1.667092242364297761e+01
9.480000000000001137e+01 1.663601057201903899e+01
9.520000000000000284e+01 1.660131572136329936e+01
9.560000000000000853e+01 1.656683557907603443e+01
9.600000000000000000e+01 1.653256788681889944e+01
9.640000000000000568e+01 1.649851041985231603e+01
9.680000000000001137e+01 1.646466098638855868e+01
9.720000000000000284e+01 1.643101742696013901e+01
9.760000000000000853e+01 1.639757761380307244e+01
9.800000000000000000e+01 1.636433945025456893e+01
9.840000000000000568e+01 1.633130087016476395e+01
9.880000000000001137e+01 1.629845983732210613e+01
9.920000000000000284e+01 1.626581434489208178e+01
9.960000000000000853e+01 1.623304550349630304e+01
1.000000000000000000e+02 1.620037198689315261e+01
1.004000000000000057e+02 1.616789184435533500e+01
1.008000000000000114e+02 1.613560313717119854e+01
1.012000000000000028e+02 1.610350395403387935e+01
1.016000000000000085e+02 1.607159241054129950e+01
1.020000000000000000e+02 1.603986664870730294e+01
1.024000000000000057e+02 1.600832483648368054e+01
1.028000000000000114e+02 1.597687638768488583e+01
1.032000000000000028e+02 1.594558036129975420e+01
1.036000000000000085e+02 1.591446242735110417e+01
1.040000000000000000e+02 1.588352087542698854e+01
1.044000000000000057e+02 1.585275401820932295e+01
1.048000000000000114e+02 1.582216019107248783e+01
1.052000000000000028e+02 1.579173775169039473e+01
1.056000000000000085e+02 1.576148507965192458e+01
1.060000000000000000e+02 1.573140057608446085e+01
1.064000000000000057e+02 1.570148266328531506e+01
1.068000000000000114e+02 1.567172978436083497e+01
1.072000000000000028e+02 1.564214040287311391e+01
1.076000000000000085e+02 1.561271300249392624e+01
1.080000000000000000e+02 1.558344608666592634e+01
1.084000000000000057e+02 1.555433817827071152e+01
1.088000000000000114e+02 1.552538781930381973e+01
1.092000000000000028e+02 1.549659357055623587e+01
1.096000000000000085e+02 1.546795401130251335e+01
1.100000000000000000e+02 1.543946773899513225e+01
1.104000000000000057e+02 1.542152719090665869e+01
1.108000000000000114e+02 1.539365285233148128e+01
1.112000000000000028e+02 1.536592623588471085e+01
1.116000000000000085e+02 1.533834602131049252e+01
1.120000000000000000e+02 1.531091090493163165e+01
1.124000000000000057e+02 1.528361959938177606e+01
1.128000000000000114e+02 1.525647083334286691e+01
1.132000000000000028e+02 1.522946335128775175e+01
1.136000000000000085e+02 1.520259591322787429e+01
1.140000000000000000e+02 1.517586729446582261e+01
1.144000000000000057e+02 1.514927628535277293e+01
1.148000000000000114e+02 1.512282169105056084e+01
1.152000000000000028e+02 1.509650233129838881e+01
1.156000000000000085e+02 1.507031704018402252e+01
1.160000000000000000e+02 1.504426466591934286e+01
1.164000000000000057e+02 1.501834407062021626e+01
1.168000000000000114e+02 1.499255413009056781e+01
1.172000000000000028e+02 1.496689373361049746e+01
1.176000000000000085e+02 1.494136178372845691e+01
1.180000000000000000e+02 1.491595719605731318e+01
1.184000000000000057e+02 1.489067889907425091e+01
1.188000000000000114e+02 1.486552583392442806e+01
1.192000000000000028e+02 1.484049695422824122e+01
1.196000000000000085e+02 1.481559122589227329e+01
1.200000000000000000e+02 1.479080762692361262e+01
1.204000000000000057e+02 1.476614514724773741e+01
1.208000000000000114e+02 1.474160278852960460e+01
1.212000000000000028e+02 1.471717956399817595e+01
1.216000000000000085e+02 1.469287056792958701e+01
1.220000000000000000e+02 1.466867208659226307e+01
1.224000000000000057e+02 1.464458902087260661e+01
1.228000000000000114e+02 1.462062044020986384e+01
1.232000000000000028e+02 1.459676542461317084e+01
1.236000000000000085e+02 1.457302306450668006e+01
1.240000000000000000e+02 1.454939246057747937e+01
1.244000000000000057e+02 1.452587272362620041e+01
1.248000000000000114e+02 1.450246297442028443e+01
1.252000000000000028e+02 1.447916234354992326e+01
1.256000000000000085e+02 1.445596997128645711e+01
1.260000000000000000e+02 1.443288500744332836e+01
1.264000000000000057e+02 1.440990661123946559e+01
1.268000000000000114e+02 1.438703395116505845e+01
1.272000000000000028e+02 1.436426620484970584e+01
1.276000000000000085e+02 1.433233910684920076e+01
1.280000000000000000e+02 1.431023462735514329e+01
1.284000000000000057e+02 1.428823016782001432e+01
1.288000000000000114e+02 1.426632496025959718e+01
1.291999999999999886e+02 1.424451824501650243e+01
1.296000000000000227e+02 1.422280927064354472e+01
1.300000000000000000e+02 1.420119729378898121e+01
1.304000000000000057e+02 1.417968157908384441e+01
1.308000000000000114e+02 1.415826139903107084e+01
1.311999999999999886e+02 1.413693603389664588e+01
1.316000000000000227e+02 1.411570477160251613e+01
1.320000000000000000e+02 1.409456690762131359e+01
1.324000000000000057e+02 1.407352174487287932e+01
1.328000000000000114e+02 1.405256859362256350e+01
1.331999999999999886e+02 1.403170677138112943e+01
1.336000000000000227e+02 1.400692103802836819e+01
1.340000000000000000e+02 1.398644257764682663e+01
1.344000000000000057e+02 1.396605279342082184e+01
1.348000000000000114e+02 1.394575103432296714e+01
1.351999999999999886e+02 1.392553665607142399e+01
1.356000000000000227e+02 1.390540902103968435e+01
1.360000000000000000e+02 1.388536749816773153e+01
1.364000000000000057e+02 1.386541146287472515e+01
1.368000000000000114e+02 1.384554029697303967e+01
1.371999999999999886e+02 1.382575338858379510e+01
1.376000000000000227e+02 1.380605013205365594e+01
1.380000000000000000e+02 1.378642992787304067e+01
1.384000000000000057e+02 1.376689218259561898e+01
1.388000000000000114e+02 1.374743630875912359e+01
1.392000000000000171e+02 1.372806172480740372e+01
1.395999999999999943e+02 1.370876785501374151e+01
1.400000000000000000e+02 1.368955412940538707e+01
1.404000000000000057e+02 1.367041998368926414e+01
1.408000000000000114e+02 1.365136485917891207e+01
1.412000000000000171e+02 1.363238820272252383e+01
1.415999999999999943e+02 1.361348946663209958e+01
1.420000000000000000e+02 1.359466810861381703e+01
1.424000000000000057e+02 1.357592359169936458e+01
1.428000000000000114e+02 1.355725538417840070e+01
1.432000000000000171e+02 1.353866295953208976e+01
1.435999999999999943e+02 1.352014579636763081e+01
1.440000000000000000e+02 1.350170337835378831e+01
1.444000000000000057e+02 1.348333519415744242e+01
1.448000000000000114e+02 1.346504073738113938e+01
1.452000000000000171e+02 1.344681950650151236e+01
1.455999999999999943e+02 1.342864410652564544e+01
1.460000000000000000e+02 1.341042727011486235e+01
1.464000000000000057e+02 1.339228308575497195e+01
1.468000000000000114e+02 1.337421106288998018e+01
1.472000000000000171e+02 1.335621071563040374e+01
1.475999999999999943e+02 1.333828156269605358e+01
1.480000000000000000e+02 1.332042312735964984e+01
1.484000000000000057e+02 1.330263493739127334e+01
1.488000000000000114e+02 1.328491652500368403e+01
1.492000000000000171e+02 1.326726742679841919e+01
1.495999999999999943e+02 1.324968718371271947e+01
1.500000000000000000e+02 1.323217534096717785e+01
