1.000000000000000000e+01 1.475299638871555032e+02
1.040000000000000036e+01 1.453272122581055896e+02
1.080000000000000071e+01 1.432497692365611215e+02
1.119999999999999929e+01 1.412852768005408279e+02
1.159999999999999964e+01 1.394230771617135929e+02
1.200000000000000000e+01 1.376539173317142399e+02
1.240000000000000036e+01 1.359697149591565335e+02
1.280000000000000071e+01 1.343633708114180081e+02
1.319999999999999929e+01 1.328286171938550524e+02
1.359999999999999964e+01 1.313598943609007961e+02
1.400000000000000000e+01 1.299522489495163313e+02
1.440000000000000036e+01 1.286012498988649781e+02
1.480000000000000071e+01 1.273029183730737373e+02
1.519999999999999929e+01 1.260536689865436983e+02
1.560000000000000142e+01 1.248502602191992708e+02
1.600000000000000000e+01 1.236897523551739511e+02
1.639999999999999858e+01 1.225694716200882795e+02
1.680000000000000071e+01 1.214869794560142537e+02
1.719999999999999929e+01 1.204400460787759215e+02
1.760000000000000142e+01 1.194266276235445901e+02
1.800000000000000000e+01 1.184448463121781003e+02
1.839999999999999858e+01 1.174929731771967596e+02
1.880000000000000071e+01 1.165694129585172050e+02
1.920000000000000284e+01 1.156726908544991232e+02
1.960000000000000142e+01 1.148014408618689970e+02
2.000000000000000000e+01 1.139543954822595424e+02
2.039999999999999858e+01 1.131303766084481595e+02
2.080000000000000071e+01 1.123282874324532088e+02
2.120000000000000284e+01 1.115471052416738900e+02
2.160000000000000142e+01 1.107858749892057801e+02
2.200000000000000000e+01 1.100437035410872397e+02
2.239999999999999858e+01 1.093197545171465777e+02
2.280000000000000071e+01 1.086132436538069896e+02
2.320000000000000284e+01 1.079234346270630738e+02
2.360000000000000142e+01 1.072496352821810035e+02
2.400000000000000000e+01 1.065911942237556502e+02
2.439999999999999858e+01 1.059474977257875565e+02
2.480000000000000071e+01 1.053179669265968812e+02
2.520000000000000284e+01 1.047020552778052149e+02
2.560000000000000142e+01 1.040992462204130504e+02
2.600000000000000000e+01 1.035090510642702668e+02
2.640000000000000213e+01 1.029310070500633287e+02
2.680000000000000071e+01 1.023646755753920274e+02
2.719999999999999929e+01 1.018096405686346202e+02
2.760000000000000142e+01 1.012655069961517427e+02
2.800000000000000000e+01 1.007318994899952429e+02
2.840000000000000213e+01 1.002084610847005877e+02
2.880000000000000071e+01 9.969485205298013852e+01
2.920000000000000284e+01 9.919074883122250696e+01
2.960000000000000142e+01 9.869584302665967357e+01
3.000000000000000000e+01 9.820984049890847700e+01
3.040000000000000213e+01 9.773246050933855145e+01
3.080000000000000071e+01 9.726343493237902749e+01
3.120000000000000284e+01 9.680250752346105969e+01
3.160000000000000142e+01 9.634943323881492461e+01
3.200000000000000000e+01 9.590397760280080774e+01
3.240000000000000568e+01 9.546591611886660189e+01
3.279999999999999716e+01 9.503503372059350340e+01
3.320000000000000284e+01 9.461112425961889016e+01
3.360000000000000142e+01 9.419399002752174965e+01
3.400000000000000000e+01 9.378344130901864162e+01
3.440000000000000568e+01 9.337929596405757593e+01
3.479999999999999716e+01 9.298137903660818893e+01
3.520000000000000284e+01 9.258952238814126190e+01
3.560000000000000142e+01 9.220356435396165296e+01
3.600000000000000000e+01 9.182334942071719297e+01
3.640000000000000568e+01 9.144872792354593116e+01
3.679999999999999716e+01 9.107955576145322141e+01
3.720000000000000284e+01 9.071569412962548995e+01
3.760000000000000142e+01 9.035700926749345285e+01
3.800000000000000000e+01 9.000337222145236638e+01
3.840000000000000568e+01 8.965465862123460283e+01
3.879999999999999716e+01 8.931074846900833109e+01
3.920000000000000284e+01 8.897152594034878348e+01
3.960000000000000142e+01 8.863687919629398948e+01
4.000000000000000000e+01 8.830670020575708179e+01
4.040000000000000568e+01 8.798088457762219150e+01
4.079999999999999716e+01 8.765933140190111317e+01
4.120000000000000284e+01 8.734194309937423384e+01
4.160000000000000142e+01 8.702862527918091473e+01
4.200000000000000000e+01 8.671928660386373622e+01
4.239999999999999858e+01 8.641383866140620285e+01
4.280000000000000426e+01 8.611219584383627534e+01
4.320000000000000284e+01 8.581427523199823781e+01
4.360000000000000142e+01 8.551999648612311944e+01
4.400000000000000000e+01 8.522928174185312855e+01
4.439999999999999858e+01 8.494205551139931742e+01
4.480000000000000426e+01 8.465824458953333931e+01
4.520000000000000284e+01 8.437777796413436704e+01
4.560000000000000142e+01 8.410058673103014826e+01
4.600000000000000000e+01 8.382660401288944740e+01
4.639999999999999858e+01 8.355576488193776186e+01
4.680000000000000426e+01 8.328800628628366098e+01
4.720000000000000284e+01 8.302326697965675351e+01
4.760000000000000142e+01 8.276148745437039622e+01
4.800000000000000000e+01 8.250260987733460638e+01
4.840000000000000568e+01 8.224657802895492864e+01
4.880000000000000426e+01 8.199333724476406360e+01
4.920000000000000284e+01 8.174283435964096611e+01
4.960000000000000142e+01 8.149501765448306401e+01
5.000000000000000000e+01 8.124983680520301732e+01
5.040000000000000568e+01 8.100724283393121539e+01
5.080000000000000426e+01 8.076718806231056647e+01
5.120000000000000284e+01 8.052962606677812119e+01
5.160000000000000142e+01 8.029451163573331485e+01
5.200000000000000000e+01 8.006180072849892326e+01
5.240000000000000568e+01 7.983145043598599955e+01
5.280000000000000426e+01 7.960341894297914678e+01
5.320000000000000284e+01 7.937766549196334154e+01
5.360000000000000142e+01 7.915415034841760189e+01
5.400000000000000000e+01 7.893283476750553973e+01
5.440000000000000568e+01 7.871368096209593546e+01
5.480000000000000426e+01 7.849665207205086404e+01
5.520000000000000284e+01 7.828171213472180057e+01
5.560000000000000142e+01 7.806882605659754404e+01
5.600000000000000000e+01 7.785795958605100964e+01
5.640000000000000568e+01 7.764907928713400054e+01
5.680000000000000426e+01 7.744215251437303493e+01
5.720000000000000284e+01 7.723714738852044093e+01
5.760000000000000142e+01 7.703403277321791620e+01
5.800000000000000000e+01 7.683277825253259152e+01
5.840000000000000568e+01 7.663335410932586456e+01
5.880000000000000426e+01 7.643573130441994579e+01
5.920000000000000284e+01 7.623988145652577941e+01
5.960000000000000142e+01 7.604577682290081952e+01
6.000000000000000000e+01 7.585339028070411871e+01
6.040000000000000568e+01 7.566269530901993789e+01
6.080000000000000426e+01 7.547366597152083045e+01
6.120000000000000284e+01 7.528627689974359782e+01
6.160000000000000142e+01 7.510050327695250871e+01
6.200000000000000000e+01 7.491632082256519709e+01
6.240000000000000568e+01 7.473370577711831686e+01
6.280000000000000426e+01 7.455263488775042902e+01
6.320000000000000284e+01 7.437308539418143027e+01
6.360000000000000142e+01 7.419503501516828692e+01
6.400000000000000000e+01 7.401846193541769026e+01
6.440000000000000568e+01 7.384334479293801223e+01
6.480000000000001137e+01 7.366966266681231446e+01
6.520000000000000284e+01 7.349739506537650868e+01
6.559999999999999432e+01 7.332652191478628367e+01
6.600000000000000000e+01 7.315702354795811857e+01
6.640000000000000568e+01 7.298888069386948985e+01
6.680000000000001137e+01 7.282207446720457256e+01
6.720000000000000284e+01 7.265658635833248979e+01
6.759999999999999432e+01 7.249239822360515006e+01
6.800000000000000000e+01 7.232949227596270703e+01
6.840000000000000568e+01 7.216785107583518766e+01
6.880000000000001137e+01 7.200745752232917596e+01
6.920000000000000284e+01 7.184829484468876615e+01
6.959999999999999432e+01 7.169034659402127829e+01
7.000000000000000000e+01 7.153359663527716350e+01
7.040000000000000568e+01 7.137802913947567163e+01
7.080000000000001137e+01 7.122362857616688814e+01
7.120000000000000284e+01 7.107037970612168465e+01
7.159999999999999432e+01 7.091826757424153982e+01
7.200000000000000000e+01 7.076727750268040040e+01
7.240000000000000568e+01 7.061739508417096545e+01
7.280000000000001137e+01 7.046860617554830242e+01
7.320000000000000284e+01 7.032089689146383193e+01
7.359999999999999432e+01 7.017425359828297360e+01
7.400000000000000000e+01 7.002866290816035644e+01
7.440000000000000568e+01 6.988411167328621332e+01
7.479999999999999716e+01 6.974058698029824654e+01
7.520000000000000284e+01 6.959807614485313820e+01
7.560000000000000853e+01 6.945656670635270302e+01
7.600000000000000000e+01 6.931604642281902784e+01
7.640000000000000568e+01 6.917650326591376597e+01
7.679999999999999716e+01 6.903792541609703903e+01
7.720000000000000284e+01 6.890030125792078763e+01
7.760000000000000853e+01 6.876361937545271985e+01
7.800000000000000000e+01 6.862786854782612522e+01
7.840000000000000568e+01 6.849303774491167474e+01
7.879999999999999716e+01 6.835911612310724195e+01
7.920000000000000284e+01 6.822609302124173780e+01
7.960000000000000853e+01 6.809395795658971906e+01
8.000000000000000000e+01 6.796270062099262077e+01
8.040000000000000568e+01 6.783231087708387008e+01
8.079999999999999716e+01 6.770277875461403028e+01
8.120000000000000284e+01 6.757409444687331757e+01
8.160000000000000853e+01 6.744624830720795217e+01
8.200000000000000000e+01 6.731923084562798465e+01
8.240000000000000568e+01 6.719303272550311590e+01
8.279999999999999716e+01 6.706764476034442168e+01
8.320000000000000284e+01 6.694305791066888389e+01
8.360000000000000853e+01 6.681926328094439782e+01
8.400000000000000000e+01 6.669625211661286812e+01
8.440000000000000568e+01 6.657401580118880702e+01
8.479999999999999716e+01 6.645254585343144527e+01
8.520000000000000284e+01 6.633183392458788319e+01
8.560000000000000853e+01 6.621187179570539172e+01
8.600000000000000000e+01 6.609265137501063236e+01
8.640000000000000568e+01 6.597416469535389183e+01
8.680000000000001137e+01 6.585640391171656916e+01
8.720000000000000284e+01 6.573936129877972689e+01
8.760000000000000853e+01 6.562302924855214314e+01
8.800000000000000000e+01 6.550740026805634386e+01
8.840000000000000568e+01 6.539246697707039857e+01
8.880000000000001137e+01 6.527822210592444208e+01
8.920000000000000284e+01 6.516465849335000371e+01
8.960000000000000853e+01 6.505176908438068040e+01
9.000000000000000000e+01 6.493954692830291719e+01
9.040000000000000568e+01 6.482798517665538895e+01
9.080000000000001137e+01 6.471707708127516412e+01
9.120000000000000284e+01 6.460681599239029538e+01
9.160000000000000853e+01 6.449719535675653503e+01
9.200000000000000000e+01 6.438820871583769190e+01
9.240000000000000568e+01 6.427984970402798126e+01
9.280000000000001137e+01 6.417211204691550108e+01
9.320000000000000284e+01 6.406498955958544173e+01
9.360000000000000853e+01 6.395847614496227607e+01
9.400000000000000000e+01 6.385256579218955153e+01
9.440000000000000568e+01 6.374725257504640297e+01
9.480000000000001137e+01 6.364253065039994794e+01
9.520000000000000284e+01 6.353839425669231389e+01
9.560000000000000853e+01 6.343483771246154390e+01
9.600000000000000000e+01 6.333185541489558545e+01
9.640000000000000568e+01 6.322944183841818244e+01
9.680000000000001137e+01 6.312759153330614481e+01
9.720000000000000284e+01 6.302629912433708625e+01
9.760000000000000853e+01 6.292555930946650733e+01
9.800000000000000000e+01 6.282536685853418845e+01
9.840000000000000568e+01 6.272571661199824433e+01
9.880000000000001137e+01 6.262660347969692509e+01
9.920000000000000284e+01 6.252802243963692774e+01
9.960000000000000853e+01 6.242996853680773484e+01
1.000000000000000000e+02 6.233243688202130528e+01
1.004000000000000057e+02 6.223542265077649915e+01
1.008000000000000114e+02 6.213892108214758281e+01
1.012000000000000028e+02 6.204292747769616767e+01
1.016000000000000085e+02 6.194743720040602852e+01
1.020000000000000000e+02 6.185244567364034651e+01
1.024000000000000057e+02 6.175794838012053845e+01
1.028000000000000114e+02 6.166394086092651605e+01
1.032000000000000028e+02 6.157041871451741599e+01
1.036000000000000085e+02 6.147737759577273664e+01
1.040000000000000000e+02 6.138481321505307164e+01
1.044000000000000057e+02 6.129272133727999261e+01
1.048000000000000114e+02 6.120109778103490328e+01
1.052000000000000028e+02 6.110993841767592016e+01
1.056000000000000085e+02 6.101923917047282941e+01
1.060000000000000000e+02 6.092899601375938801e+01
1.064000000000000057e+02 6.083920497210257849e+01
1.068000000000000114e+02 6.074986211948865389e+01
1.072000000000000028e+02 6.066096357852521237e+01
1.076000000000000085e+02 6.057250551965915975e+01
1.080000000000000000e+02 6.048448416041021858e+01
1.084000000000000057e+02 6.039689576461942977e+01
1.088000000000000114e+02 6.030973664171245474e+01
1.092000000000000028e+02 6.022300314597727322e+01
1.096000000000000085e+02 6.013669167585589292e+01
1.100000000000000000e+02 6.005079867324993614e+01
1.104000000000000057e+02 5.996532062283951348e+01
1.108000000000000114e+02 5.988025405141524971e+01
1.112000000000000028e+02 5.979559552722326998e+01
1.116000000000000085e+02 5.971134165932245708e+01
1.120000000000000000e+02 5.962748909695419997e+01
1.124000000000000057e+02 5.954403452892401560e+01
1.128000000000000114e+02 5.946097468299473832e+01
1.132000000000000028e+02 5.937830632529140473e+01
1.136000000000000085e+02 5.929602625971713792e+01
1.140000000000000000e+02 5.921413132737995255e+01
1.144000000000000057e+02 5.913261840603038877e+01
1.148000000000000114e+02 5.905148440950945599e+01
1.152000000000000028e+02 5.897072628720692933e+01
1.156000000000000085e+02 5.889034102352943734e+01
1.160000000000000000e+02 5.881032563737863939e+01
1.164000000000000057e+02 5.873067718163864726e+01
1.168000000000000114e+02 5.865139274267299641e+01
1.172000000000000028e+02 5.857246943983081167e+01
1.176000000000000085e+02 5.849390442496166997e+01
1.180000000000000000e+02 5.841569488193956516e+01
1.184000000000000057e+02 5.833783802619524295e+01
1.188000000000000114e+02 5.826033110425692740e+01
1.192000000000000028e+02 5.818317139329933951e+01
1.196000000000000085e+02 5.810635620070078744e+01
1.200000000000000000e+02 5.802988286360795200e+01
1.204000000000000057e+02 5.795374874850864444e+01
1.208000000000000114e+02 5.787795125081181880e+01
1.212000000000000028e+02 5.780248779443513740e+01
1.216000000000000085e+02 5.772735583139986915e+01
1.220000000000000000e+02 5.765255284143255210e+01
1.224000000000000057e+02 5.757807633157390370e+01
1.228000000000000114e+02 5.750392383579436739e+01
1.232000000000000028e+02 5.743009291461629573e+01
1.236000000000000085e+02 5.735658115474280550e+01
1.240000000000000000e+02 5.728338616869271505e+01
1.244000000000000057e+02 5.721050559444213945e+01
1.248000000000000114e+02 5.713793709507183394e+01
1.252000000000000028e+02 5.706567835842074743e+01
1.256000000000000085e+02 5.699372709674538839e+01
1.260000000000000000e+02 5.692208104638504551e+01
1.264000000000000057e+02 5.685073796743242269e+01
1.268000000000000114e+02 5.677969564341009345e+01
1.272000000000000028e+02 5.670895188095220618e+01
1.276000000000000085e+02 5.663850450949151139e+01
1.280000000000000000e+02 5.656835138095163984e+01
1.284000000000000057e+02 5.649849036944452507e+01
1.288000000000000114e+02 5.642891937097270727e+01
1.291999999999999886e+02 5.635963630313669626e+01
1.296000000000000227e+02 5.629063910484696009e+01
1.300000000000000000e+02 5.622192573604090171e+01
1.304000000000000057e+02 5.615349417740419113e+01
1.308000000000000114e+02 5.608534243009673048e+01
1.311999999999999886e+02 5.601746851548318773e+01
1.316000000000000227e+02 5.594987047486766585e+01
1.320000000000000000e+02 5.588254636923291230e+01
1.324000000000000057e+02 5.581549427898346494e+01
1.328000000000000114e+02 5.574871230369309671e+01
1.331999999999999886e+02 5.568219856185628913e+01
1.336000000000000227e+02 5.561595119064351422e+01
1.340000000000000000e+02 5.554996834566061636e+01
1.344000000000000057e+02 5.548424820071186048e+01
1.348000000000000114e+02 5.541878894756675322e+01
1.351999999999999886e+02 5.535358879573061586e+01
1.356000000000000227e+02 5.528864597221861032e+01
1.360000000000000000e+02 5.522395872133343175e+01
1.364000000000000057e+02 5.515952530444646840e+01
1.368000000000000114e+02 5.509534399978230113e+01
1.371999999999999886e+02 5.503141310220654248e+01
1.376000000000000227e+02 5.496773092301701524e+01
1.380000000000000000e+02 5.490429578973817115e+01
1.384000000000000057e+02 5.484110604591857907e+01
1.388000000000000114e+02 5.477816005093159646e+01
1.392000000000000171e+02 5.471545617977903930e+01
1.395999999999999943e+02 5.465299282289792160e+01
1.400000000000000000e+02 5.459076838597005121e+01
1.404000000000000057e+02 5.452878128973455318e+01
1.408000000000000114e+02 5.446702996980320677e+01
1.412000000000000171e+02 5.440551287647862466e+01
1.415999999999999943e+02 5.434422847457506123e+01
1.420000000000000000e+02 5.428317524324202736e+01
1.424000000000000057e+02 5.422235167579043491e+01
1.428000000000000114e+02 5.416175627952139848e+01
1.432000000000000171e+02 5.410138757555758104e+01
1.435999999999999943e+02 5.404124409867702639e+01
1.440000000000000000e+02 5.398132439714936481e+01
1.444000000000000057e+02 5.392162703257461231e+01
1.448000000000000114e+02 5.386215057972421505e+01
1.452000000000000171e+02 5.380289362638438178e+01
1.455999999999999943e+02 5.374385477320187476e+01
1.460000000000000000e+02 5.368503263353186128e+01
1.464000000000000057e+02 5.362642583328809565e+01
1.468000000000000114e+02 5.356803301079527557e+01
1.472000000000000171e+02 5.350985281664340221e+01
1.475999999999999943e+02 5.345188391354444946e+01
1.480000000000000000e+02 5.339412497619088072e+01
1.484000000000000057e+02 5.333657469111635407e+01
1.488000000000000114e+02 5.327923175655837440e+01
1.492000000000000171e+02 5.322209488232279284e+01
1.495999999999999943e+02 5.316516278965042375e+01
1.500000000000000000e+02 5.310843421108545215e+01
