1.000000000000000000e+01 4.395620853076235335e+02
1.040000000000000036e+01 4.623556775053796173e+02
1.080000000000000071e+01 4.715204357716988284e+02
1.119999999999999929e+01 4.910030682524437111e+02
1.159999999999999964e+01 4.883670432862092525e+02
1.200000000000000000e+01 4.972108693303522386e+02
1.240000000000000036e+01 5.013506754386775128e+02
1.280000000000000071e+01 5.050142894700892384e+02
1.319999999999999929e+01 5.093779764833172976e+02
1.359999999999999964e+01 5.183753003861867228e+02
1.400000000000000000e+01 5.304758060196963925e+02
1.440000000000000036e+01 5.590387818478145618e+02
1.480000000000000071e+01 5.543187200541262882e+02
1.519999999999999929e+01 5.453390568802852840e+02
1.560000000000000142e+01 5.368941960344765221e+02
1.600000000000000000e+01 5.289276607059624666e+02
1.639999999999999858e+01 5.213915213097106971e+02
1.680000000000000071e+01 5.142447276792452158e+02
1.719999999999999929e+01 5.074518348228621107e+02
1.760000000000000142e+01 5.009820146057261923e+02
1.800000000000000000e+01 4.948082788413179287e+02
1.839999999999999858e+01 4.889068611733277976e+02
1.880000000000000071e+01 4.832567199253197714e+02
1.920000000000000284e+01 4.778391342913233757e+02
1.960000000000000142e+01 4.726373733920841573e+02
2.000000000000000000e+01 4.676364228195496935e+02
2.039999999999999858e+01 4.628227569799877301e+02
2.080000000000000071e+01 4.581841482501645828e+02
2.120000000000000284e+01 4.537095059684663170e+02
2.160000000000000142e+01 4.493887397903246210e+02
2.200000000000000000e+01 4.452126430813893876e+02
2.239999999999999858e+01 4.411727928987543237e+02
2.280000000000000071e+01 4.372614637887666049e+02
2.320000000000000284e+01 4.334715531590390469e+02
2.360000000000000142e+01 4.297965163983155890e+02
2.400000000000000000e+01 4.262303102474343177e+02
2.439999999999999858e+01 4.227673431875784900e+02
2.480000000000000071e+01 4.194024318231670350e+02
2.520000000000000284e+01 4.161307624073623401e+02
2.560000000000000142e+01 4.129478567968628226e+02
2.600000000000000000e+01 4.098495422359927716e+02
2.640000000000000213e+01 4.068319244632286882e+02
2.680000000000000071e+01 4.038913637101917402e+02
2.719999999999999929e+01 4.010244532269206275e+02
2.760000000000000142e+01 3.982280000203921873e+02
2.800000000000000000e+01 3.954990075377369294e+02
2.840000000000000213e+01 3.928346600629674867e+02
2.880000000000000071e+01 3.902323086275646347e+02
2.920000000000000284e+01 3.876894582619552807e+02
2.960000000000000142e+01 3.852037564375880834e+02
3.000000000000000000e+01 3.827729825686477056e+02
3.040000000000000213e+01 3.803950384589775808e+02
3.080000000000000071e+01 3.780679395939658889e+02
3.120000000000000284e+01 3.757898071893530414e+02
3.160000000000000142e+01 3.735588609194506944e+02
3.200000000000000000e+01 3.713734122563752749e+02
3.240000000000000568e+01 3.692318583598042778e+02
3.279999999999999716e+01 3.671326764636417579e+02
3.320000000000000284e+01 3.650744187119746016e+02
3.360000000000000142e+01 3.630557074019433799e+02
3.400000000000000000e+01 3.610752305957402086e+02
3.440000000000000568e+01 3.591317380679789721e+02
3.479999999999999716e+01 3.572240375582274510e+02
3.520000000000000284e+01 3.553509913016183077e+02
3.560000000000000142e+01 3.535115128132168820e+02
3.600000000000000000e+01 3.517045639042677294e+02
3.640000000000000568e+01 3.499291519106094484e+02
3.679999999999999716e+01 3.481843271154744457e+02
3.720000000000000284e+01 3.464691803505978669e+02
3.760000000000000142e+01 3.447828407610950308e+02
3.800000000000000000e+01 3.431244737209237883e+02
3.840000000000000568e+01 3.414932788869703018e+02
3.879999999999999716e+01 3.398884883808894983e+02
3.920000000000000284e+01 3.383093650888085335e+02
3.960000000000000142e+01 3.367552010698856293e+02
4.000000000000000000e+01 3.352253160655043303e+02
4.040000000000000568e+01 3.337190561015989942e+02
4.079999999999999716e+01 3.322357921772510849e+02
4.120000000000000284e+01 3.307749190332743865e+02
4.160000000000000142e+01 3.293358539950358477e+02
4.200000000000000000e+01 3.279180358842344276e+02
4.239999999999999858e+01 3.265209239947879496e+02
4.280000000000000426e+01 3.251439971283767250e+02
4.320000000000000284e+01 3.237867526855425240e+02
4.360000000000000142e+01 3.224487058085675812e+02
4.400000000000000000e+01 3.211293885726554436e+02
4.439999999999999858e+01 3.198283492222008135e+02
4.480000000000000426e+01 3.185451514491832086e+02
4.520000000000000284e+01 3.172793737109440144e+02
4.560000000000000142e+01 3.160306085848103521e+02
4.600000000000000000e+01 3.147984621572170454e+02
4.639999999999999858e+01 3.135825534451522003e+02
4.680000000000000426e+01 3.123825138479069210e+02
4.720000000000000284e+01 3.111979866272566824e+02
4.760000000000000142e+01 3.100286264143343260e+02
4.800000000000000000e+01 3.088740987415772565e+02
4.840000000000000568e+01 3.077340795982437953e+02
4.880000000000000426e+01 3.066082550080992633e+02
4.920000000000000284e+01 3.054963206279650194e+02
4.960000000000000142e+01 3.043979813659147453e+02
5.000000000000000000e+01 3.033129510179840054e+02
5.040000000000000568e+01 3.022409519223318739e+02
5.080000000000000426e+01 3.011817146298657235e+02
5.120000000000000284e+01 3.001349775904050716e+02
5.160000000000000142e+01 2.991004868535163723e+02
5.200000000000000000e+01 2.980779957832131117e+02
5.240000000000000568e+01 2.970672647857586526e+02
5.280000000000000426e+01 2.960680610498638998e+02
5.320000000000000284e+01 2.950801582986127869e+02
5.360000000000000142e+01 2.941033365524899637e+02
5.400000000000000000e+01 2.931373819029254264e+02
5.440000000000000568e+01 2.921820862958027192e+02
5.480000000000000426e+01 2.912372473244162734e+02
5.520000000000000284e+01 2.903026680313876113e+02
5.560000000000000142e+01 2.893781567190849842e+02
5.600000000000000000e+01 2.884635267681144910e+02
5.640000000000000568e+01 2.875585964634770448e+02
5.680000000000000426e+01 2.866631888280084581e+02
5.720000000000000284e+01 2.857771314627430570e+02
5.760000000000000142e+01 2.849002563938604453e+02
5.800000000000000000e+01 2.840323999258949357e+02
5.840000000000000568e+01 2.831734025009047286e+02
5.880000000000000426e+01 2.823231085633155999e+02
5.920000000000000284e+01 2.814813664301688050e+02
5.960000000000000142e+01 2.806480281665176335e+02
6.000000000000000000e+01 2.798229494657319947e+02
6.040000000000000568e+01 2.790059895344815004e+02
6.080000000000000426e+01 2.781970109821833148e+02
6.120000000000000284e+01 2.773958797147066093e+02
6.160000000000000142e+01 2.766024648321438235e+02
6.200000000000000000e+01 2.758166385304617734e+02
6.240000000000000568e+01 2.750382760068607695e+02
6.280000000000000426e+01 2.742672553686751371e+02
6.320000000000000284e+01 2.735034575456599555e+02
6.360000000000000142e+01 2.727467662055136088e+02
6.400000000000000000e+01 2.719970676724975647e+02
6.440000000000000568e+01 2.712542508490159321e+02
6.480000000000001137e+01 2.705182071400311656e+02
6.520000000000000284e+01 2.697888303801919392e+02
6.559999999999999432e+01 2.690660167635592757e+02
6.600000000000000000e+01 2.683496647758223048e+02
6.640000000000000568e+01 2.676396751288978066e+02
6.680000000000001137e+01 2.669359506978152581e+02
6.720000000000000284e+01 2.662383964597935915e+02
6.759999999999999432e+01 2.655469194354188289e+02
6.800000000000000000e+01 2.648614286318368158e+02
6.840000000000000568e+01 2.641818349878811318e+02
6.880000000000001137e+01 2.635080513210558593e+02
6.920000000000000284e+01 2.628399922763011887e+02
6.959999999999999432e+01 2.621775742764700112e+02
7.000000000000000000e+01 2.615207154744478544e+02
7.040000000000000568e+01 2.608693357068523255e+02
7.080000000000001137e+01 2.602233564492499909e+02
7.120000000000000284e+01 2.595827007728323679e+02
7.159999999999999432e+01 2.589472933024940744e+02
7.200000000000000000e+01 2.583170601762601564e+02
7.240000000000000568e+01 2.576919290060116623e+02
7.280000000000001137e+01 2.570718288394589877e+02
7.320000000000000284e+01 2.564566901233174576e+02
7.359999999999999432e+01 2.558464446676391901e+02
7.400000000000000000e+01 2.552410256112596016e+02
7.440000000000000568e+01 2.546403673883161787e+02
7.479999999999999716e+01 2.540444056958004921e+02
7.520000000000000284e+01 2.534530774621060516e+02
7.560000000000000853e+01 2.528663208165360743e+02
7.600000000000000000e+01 2.522840750597354429e+02
7.640000000000000568e+01 2.517062806350149344e+02
7.679999999999999716e+01 2.511328791005358028e+02
7.720000000000000284e+01 2.505638131023226549e+02
7.760000000000000853e+01 2.499990263480779902e+02
7.800000000000000000e+01 2.494384635817680191e+02
7.840000000000000568e+01 2.488820705589538989e+02
7.879999999999999716e+01 2.483297940228428615e+02
7.920000000000000284e+01 2.477815816810331171e+02
7.960000000000000853e+01 2.472373821829307019e+02
8.000000000000000000e+01 2.466971450978130633e+02
8.040000000000000568e+01 2.461608208935198263e+02
8.079999999999999716e+01 2.456283609157466685e+02
8.120000000000000284e+01 2.450997173679261039e+02
8.160000000000000853e+01 2.445748432916711295e+02
8.200000000000000000e+01 2.440536925477661896e+02
8.240000000000000568e+01 2.435362197976859875e+02
8.279999999999999716e+01 2.430223804856259164e+02
8.320000000000000284e+01 2.425121308210253801e+02
8.360000000000000853e+01 2.420054277615703029e+02
8.400000000000000000e+01 2.415022289966576921e+02
8.440000000000000568e+01 2.410024929313080975e+02
8.479999999999999716e+01 2.405061786705117584e+02
8.520000000000000284e+01 2.400132460039936859e+02
8.560000000000000853e+01 2.395236553913856881e+02
8.600000000000000000e+01 2.390373679477914095e+02
8.640000000000000568e+01 2.385543454297331323e+02
8.680000000000001137e+01 2.380745502214667511e+02
8.720000000000000284e+01 2.375979453216557999e+02
8.760000000000000853e+01 2.371244943303909736e+02
8.800000000000000000e+01 2.366541614365466728e+02
8.840000000000000568e+01 2.361869114054624958e+02
8.880000000000001137e+01 2.357227095669410915e+02
8.920000000000000284e+01 2.352615218035521139e+02
8.960000000000000853e+01 2.348033145392329004e+02
9.000000000000000000e+01 2.343480547281776865e+02
9.040000000000000568e+01 2.338957098440058928e+02
9.080000000000001137e+01 2.334462478692018692e+02
9.120000000000000284e+01 2.329996372848174531e+02
9.160000000000000853e+01 2.325558470604303523e+02
9.200000000000000000e+01 2.321148466443496545e+02
9.240000000000000568e+01 2.316766059540631204e+02
9.280000000000001137e+01 2.312410953669167668e+02
9.320000000000000284e+01 2.308082857110226200e+02
9.360000000000000853e+01 2.303781482563857708e+02
9.400000000000000000e+01 2.299506547062463540e+02
9.440000000000000568e+01 2.295257771886285241e+02
9.480000000000001137e+01 2.291034882480926456e+02
9.520000000000000284e+01 2.286837608376825983e+02
9.560000000000000853e+01 2.282665683110645034e+02
9.600000000000000000e+01 2.278518844148509572e+02
9.640000000000000568e+01 2.274396832811051468e+02
9.680000000000001137e+01 2.270299394200206109e+02
9.720000000000000284e+01 2.266226277127709636e+02
9.760000000000000853e+01 2.262177234045259695e+02
9.800000000000000000e+01 2.258152020976280312e+02
9.840000000000000568e+01 2.254150397449258776e+02
9.880000000000001137e+01 2.250172126432610753e+02
9.920000000000000284e+01 2.246216974271022480e+02
9.960000000000000853e+01 2.242284710623240187e+02
1.000000000000000000e+02 2.238375108401264129e+02
1.004000000000000057e+02 2.234487943710911964e+02
1.008000000000000114e+02 2.230622995793710288e+02
1.012000000000000028e+02 2.226780046970085891e+02
1.016000000000000085e+02 2.222958882583811260e+02
1.020000000000000000e+02 2.219159290947689556e+02
1.024000000000000057e+02 2.215381063290426482e+02
1.028000000000000114e+02 2.211623993704671420e+02
1.032000000000000028e+02 2.207887879096196002e+02
1.036000000000000085e+02 2.204172519134170898e+02
1.040000000000000000e+02 2.200477716202527176e+02
1.044000000000000057e+02 2.196803275352365006e+02
1.048000000000000114e+02 2.193149004255383261e+02
1.052000000000000028e+02 2.189514713158307018e+02
1.056000000000000085e+02 2.185900214838288207e+02
1.060000000000000000e+02 2.182305324559249868e+02
1.064000000000000057e+02 2.178729860029158090e+02
1.068000000000000114e+02 2.175173641358189229e+02
1.072000000000000028e+02 2.171636491017779349e+02
1.076000000000000085e+02 2.168118233800525729e+02
1.080000000000000000e+02 2.164618696780926257e+02
1.084000000000000057e+02 2.161137709276929115e+02
1.088000000000000114e+02 2.157675102812282830e+02
1.092000000000000028e+02 2.154230711079655123e+02
1.096000000000000085e+02 2.150804369904508349e+02
1.100000000000000000e+02 2.147395917209717595e+02
1.104000000000000057e+02 2.144005192980903303e+02
1.108000000000000114e+02 2.140632039232467889e+02
1.112000000000000028e+02 2.137276299974317624e+02
1.116000000000000085e+02 2.133937821179255820e+02
1.120000000000000000e+02 2.130616450751027457e+02
1.124000000000000057e+02 2.127312038493000443e+02
1.128000000000000114e+02 2.124024436077471307e+02
1.132000000000000028e+02 2.120753497015581672e+02
1.136000000000000085e+02 2.117499076627820500e+02
1.140000000000000000e+02 2.114261032015117223e+02
1.144000000000000057e+02 2.111039222030488816e+02
1.148000000000000114e+02 2.107833507251254161e+02
1.152000000000000028e+02 2.104643749951777068e+02
1.156000000000000085e+02 2.101469814076740761e+02
1.160000000000000000e+02 2.098311565214945347e+02
1.164000000000000057e+02 2.095168870573598099e+02
1.168000000000000114e+02 2.092041598953104540e+02
1.172000000000000028e+02 2.088929620722339280e+02
1.176000000000000085e+02 2.085832807794385531e+02
1.180000000000000000e+02 2.082751033602735902e+02
1.184000000000000057e+02 2.079684173077944820e+02
1.188000000000000114e+02 2.076632102624716651e+02
1.192000000000000028e+02 2.073594700099428110e+02
1.196000000000000085e+02 2.070571844788065050e+02
1.200000000000000000e+02 2.067563417384579338e+02
1.204000000000000057e+02 2.064569299969639360e+02
1.208000000000000114e+02 2.061589375989774169e+02
1.212000000000000028e+02 2.058623530236910710e+02
1.216000000000000085e+02 2.055671648828275124e+02
1.220000000000000000e+02 2.052733619186672058e+02
1.224000000000000057e+02 2.049809330021116693e+02
1.228000000000000114e+02 2.046898671307826874e+02
1.232000000000000028e+02 2.044001534271548906e+02
1.236000000000000085e+02 2.041117811367231525e+02
1.240000000000000000e+02 2.038247396262023585e+02
1.244000000000000057e+02 2.035390183817596608e+02
1.248000000000000114e+02 2.032546070072780253e+02
1.252000000000000028e+02 2.029714952226516402e+02
1.256000000000000085e+02 2.026896728621103136e+02
1.260000000000000000e+02 2.024091298725747095e+02
1.264000000000000057e+02 2.021298563120396352e+02
1.268000000000000114e+02 2.018518423479866897e+02
1.272000000000000028e+02 2.015750782558238825e+02
1.276000000000000085e+02 2.012995544173532210e+02
1.280000000000000000e+02 2.010252613192643310e+02
1.284000000000000057e+02 2.007521895516549364e+02
1.288000000000000114e+02 2.004803298065762078e+02
1.291999999999999886e+02 2.002096728766039746e+02
1.296000000000000227e+02 1.999402096534334135e+02
1.300000000000000000e+02 1.996719311264993735e+02
1.304000000000000057e+02 1.994048283816185290e+02
1.308000000000000114e+02 1.991388925996560033e+02
1.311999999999999886e+02 1.988741150552141335e+02
1.316000000000000227e+02 1.986104871153428917e+02
1.320000000000000000e+02 1.983480002382732437e+02
1.324000000000000057e+02 1.980866459721706860e+02
1.328000000000000114e+02 1.978264159539100717e+02
1.331999999999999886e+02 1.975673019078713253e+02
1.336000000000000227e+02 1.973092956447543429e+02
1.340000000000000000e+02 1.970523890604144981e+02
1.344000000000000057e+02 1.967965741347165931e+02
1.348000000000000114e+02 1.965418429304083929e+02
1.351999999999999886e+02 1.962881875920122638e+02
1.356000000000000227e+02 1.960356003447349451e+02
1.360000000000000000e+02 1.957840734933956526e+02
1.364000000000000057e+02 1.955335994213711501e+02
1.368000000000000114e+02 1.952841705895581299e+02
1.371999999999999886e+02 1.950357795353522476e+02
1.376000000000000227e+02 1.947884188716440690e+02
1.380000000000000000e+02 1.945420812858308182e+02
1.384000000000000057e+02 1.942967595388438156e+02
1.388000000000000114e+02 1.940524464641921725e+02
1.392000000000000171e+02 1.938091349670209524e+02
1.395999999999999943e+02 1.935668180231849931e+02
1.400000000000000000e+02 1.933254886783367965e+02
1.404000000000000057e+02 1.930851400470293413e+02
1.408000000000000114e+02 1.928457653118327926e+02
1.412000000000000171e+02 1.926073577224651956e+02
1.415999999999999943e+02 1.923699105949367834e+02
1.420000000000000000e+02 1.921334173107075003e+02
1.424000000000000057e+02 1.918978713158578842e+02
1.428000000000000114e+02 1.916632661202727661e+02
1.432000000000000171e+02 1.914295952968375047e+02
1.435999999999999943e+02 1.911968524806467826e+02
1.440000000000000000e+02 1.909650313682255103e+02
1.444000000000000057e+02 1.907341257167616106e+02
1.448000000000000114e+02 1.905041293433508827e+02
1.452000000000000171e+02 1.902750361242528925e+02
1.455999999999999943e+02 1.900468399941587734e+02
1.460000000000000000e+02 1.898195349454695418e+02
1.464000000000000057e+02 1.895931150275858386e+02
1.468000000000000114e+02 1.893675743462081300e+02
1.472000000000000171e+02 1.891429070626475664e+02
1.475999999999999943e+02 1.889191073931470441e+02
1.480000000000000000e+02 1.886961696082125854e+02
1.484000000000000057e+02 1.884740880319546079e+02
1.488000000000000114e+02 1.882528570414391709e+02
1.492000000000000171e+02 1.880324710660483731e+02
1.495999999999999943e+02 1.878129245868509543e+02
1.500000000000000000e+02 1.875942121359815644e+02
