1.000000000000000000e+01 7.004317927169427094e+01
1.040000000000000036e+01 6.880817984892317440e+01
1.080000000000000071e+01 6.695021755593764112e+01
1.119999999999999929e+01 6.522263298796399056e+01
1.159999999999999964e+01 6.326191263805028342e+01
1.200000000000000000e+01 6.146000509298849579e+01
1.240000000000000036e+01 5.979660050742553068e+01
1.280000000000000071e+01 5.825485228175629970e+01
1.319999999999999929e+01 5.682065120115112222e+01
1.359999999999999964e+01 5.548207780115093612e+01
1.400000000000000000e+01 5.422898328779395172e+01
1.440000000000000036e+01 5.305266470674951762e+01
1.480000000000000071e+01 5.194561023234851405e+01
1.519999999999999929e+01 5.092147802070061857e+01
1.560000000000000142e+01 5.001161362594431381e+01
1.600000000000000000e+01 4.917498651419134603e+01
1.639999999999999858e+01 4.842258320157639417e+01
1.680000000000000071e+01 4.770209673788406946e+01
1.719999999999999929e+01 4.701129431056153862e+01
1.760000000000000142e+01 4.634815897690030795e+01
1.800000000000000000e+01 4.571086321636639127e+01
1.839999999999999858e+01 4.509774638221286125e+01
1.880000000000000071e+01 4.450729538402771368e+01
1.920000000000000284e+01 4.393812806279842675e+01
1.960000000000000142e+01 4.338897882188329191e+01
2.000000000000000000e+01 4.285868615764505307e+01
2.039999999999999858e+01 4.234618179738555455e+01
2.080000000000000071e+01 4.185048120333117083e+01
2.120000000000000284e+01 4.137067524256574558e+01
2.160000000000000142e+01 3.981598200331319504e+01
2.200000000000000000e+01 3.937757501810203564e+01
2.239999999999999858e+01 3.791572702966523423e+01
2.280000000000000071e+01 3.751769592174661483e+01
2.320000000000000284e+01 3.713174648264103439e+01
2.360000000000000142e+01 3.675727151696973038e+01
2.400000000000000000e+01 3.639370617585016987e+01
2.439999999999999858e+01 3.604052419806831864e+01
2.480000000000000071e+01 3.569723455448342975e+01
2.520000000000000284e+01 3.536337844516687312e+01
2.560000000000000142e+01 3.503852660597756596e+01
2.600000000000000000e+01 3.472227688733052986e+01
2.640000000000000213e+01 3.441425207302305012e+01
2.680000000000000071e+01 3.411409791130621727e+01
2.719999999999999929e+01 3.382148133406364821e+01
2.760000000000000142e+01 3.353608884308913218e+01
2.800000000000000000e+01 3.324414330506861859e+01
2.840000000000000213e+01 3.295540466879751307e+01
2.880000000000000071e+01 3.266090163675609404e+01
2.920000000000000284e+01 3.236901946005002628e+01
2.960000000000000142e+01 3.208416526166091387e+01
3.000000000000000000e+01 3.180606166728489370e+01
3.040000000000000213e+01 3.153444637720888366e+01
3.080000000000000071e+01 3.126907113015674256e+01
3.120000000000000284e+01 3.100970075279735028e+01
3.160000000000000142e+01 3.075611228667447250e+01
3.200000000000000000e+01 3.050809418521865979e+01
3.240000000000000568e+01 3.026544557429324556e+01
3.279999999999999716e+01 3.002797557042109844e+01
3.320000000000000284e+01 2.979550265145290666e+01
3.360000000000000142e+01 2.956785407497856255e+01
3.400000000000000000e+01 2.934486534026211757e+01
3.440000000000000568e+01 2.912637968990537018e+01
3.479999999999999716e+01 2.891224764782135281e+01
3.520000000000000284e+01 2.870232659043413292e+01
3.560000000000000142e+01 2.849648034831928811e+01
3.600000000000000000e+01 2.829457883576534982e+01
3.640000000000000568e+01 2.809649770597402352e+01
3.679999999999999716e+01 2.812934389604730256e+01
3.720000000000000284e+01 2.795022631875323071e+01
3.760000000000000142e+01 2.799905853248825949e+01
3.800000000000000000e+01 2.783773527819994342e+01
3.840000000000000568e+01 2.767912978458066675e+01
3.879999999999999716e+01 2.752316626932881150e+01
3.920000000000000284e+01 2.736977188108655668e+01
3.960000000000000142e+01 2.721887655509325299e+01
4.000000000000000000e+01 2.707041287744473834e+01
4.040000000000000568e+01 2.692431595735802929e+01
4.079999999999999716e+01 2.678052330688856131e+01
4.120000000000000284e+01 2.663897472759094143e+01
4.160000000000000142e+01 2.649961220365374004e+01
4.200000000000000000e+01 2.636237980107537737e+01
4.239999999999999858e+01 2.622722357248110825e+01
4.280000000000000426e+01 2.609409146721128536e+01
4.320000000000000284e+01 2.596293324633925437e+01
4.360000000000000142e+01 2.583370040230190057e+01
4.400000000000000000e+01 2.570634608284982647e+01
4.439999999999999858e+01 2.558082501904500816e+01
4.480000000000000426e+01 2.545709345705351723e+01
4.520000000000000284e+01 2.533510909349899265e+01
4.560000000000000142e+01 2.521483101415893913e+01
4.600000000000000000e+01 2.509531880201569010e+01
4.639999999999999858e+01 2.497633158245303520e+01
4.680000000000000426e+01 2.485836416683152095e+01
4.720000000000000284e+01 2.474060725534712546e+01
4.760000000000000142e+01 2.462443227205822538e+01
4.800000000000000000e+01 2.450980393206799590e+01
4.840000000000000568e+01 2.439668804639899236e+01
4.880000000000000426e+01 2.428505147849652701e+01
4.920000000000000284e+01 2.417486210282863723e+01
4.960000000000000142e+01 2.406608876546396658e+01
5.000000000000000000e+01 2.395870124651677457e+01
5.040000000000000568e+01 2.385267022435490247e+01
5.080000000000000426e+01 2.374796724147385873e+01
5.120000000000000284e+01 2.364456467194561640e+01
5.160000000000000142e+01 2.354243569035707395e+01
5.200000000000000000e+01 2.344155424215787775e+01
5.240000000000000568e+01 2.334189501534261524e+01
5.280000000000000426e+01 2.324343341339685054e+01
5.320000000000000284e+01 2.314614552944067327e+01
5.360000000000000142e+01 2.305000812150756317e+01
5.400000000000000000e+01 2.295499858889996148e+01
5.440000000000000568e+01 2.286109494956650678e+01
5.480000000000000426e+01 2.276827581844907655e+01
5.520000000000000284e+01 2.267652038675066706e+01
5.560000000000000142e+01 2.258580840207827123e+01
5.600000000000000000e+01 2.249612014941725846e+01
5.640000000000000568e+01 2.240743643289646414e+01
5.680000000000000426e+01 2.231973855830512221e+01
5.720000000000000284e+01 2.222245867394876484e+01
5.760000000000000142e+01 2.214062092681823657e+01
5.800000000000000000e+01 2.204998196215443329e+01
5.840000000000000568e+01 2.197370746287484167e+01
5.880000000000000426e+01 2.189822043466332957e+01
5.920000000000000284e+01 2.182350730676807160e+01
5.960000000000000142e+01 2.174955483490840891e+01
6.000000000000000000e+01 2.167635009121747558e+01
6.040000000000000568e+01 2.160388045456186745e+01
6.080000000000000426e+01 2.153213360122185094e+01
6.120000000000000284e+01 2.146109749591598614e+01
6.160000000000000142e+01 2.139076038315562300e+01
6.200000000000000000e+01 2.132111077891461548e+01
6.240000000000000568e+01 2.125213746260091696e+01
6.280000000000000426e+01 2.118382946931723154e+01
6.320000000000000284e+01 2.111617608239832578e+01
6.360000000000000142e+01 2.104916682621342616e+01
6.400000000000000000e+01 2.098279145922272448e+01
6.440000000000000568e+01 2.091703996727724046e+01
6.480000000000001137e+01 2.085190255715215812e+01
6.520000000000000284e+01 2.078736965030400796e+01
6.559999999999999432e+01 2.072343187684257160e+01
6.600000000000000000e+01 2.066008006970877631e+01
6.640000000000000568e+01 2.059730525905046150e+01
6.680000000000001137e+01 2.053509866678783879e+01
6.720000000000000284e+01 2.047345170136136261e+01
6.759999999999999432e+01 2.041235595265464298e+01
6.800000000000000000e+01 2.035180318708566105e+01
6.840000000000000568e+01 2.029005614688344750e+01
6.880000000000001137e+01 2.022885274251184740e+01
6.920000000000000284e+01 2.016704649059750665e+01
6.959999999999999432e+01 2.010527066718270817e+01
7.000000000000000000e+01 2.004404327161996946e+01
7.040000000000000568e+01 1.998335619727621548e+01
7.080000000000001137e+01 1.992320150460064454e+01
7.120000000000000284e+01 1.986357141671975768e+01
7.159999999999999432e+01 1.980445831517355515e+01
7.200000000000000000e+01 1.974585473578764550e+01
7.240000000000000568e+01 1.968775336467601988e+01
7.280000000000001137e+01 1.963014703436983410e+01
7.320000000000000284e+01 1.957302872006732741e+01
7.359999999999999432e+01 1.951639153600055465e+01
7.400000000000000000e+01 1.946022873191465052e+01
7.440000000000000568e+01 1.940453368965543035e+01
7.479999999999999716e+01 1.934929991986152231e+01
7.520000000000000284e+01 1.929452105875715517e+01
7.560000000000000853e+01 1.924019086504218023e+01
7.600000000000000000e+01 1.918630321687558293e+01
7.640000000000000568e+01 1.913285210894947141e+01
7.679999999999999716e+01 1.907983164965017764e+01
7.720000000000000284e+01 1.902723605830342635e+01
7.760000000000000853e+01 1.897505966250073328e+01
7.800000000000000000e+01 1.892329689550415850e+01
7.840000000000000568e+01 1.887194229372669696e+01
7.879999999999999716e+01 1.882099049428575910e+01
7.920000000000000284e+01 1.877043623262723315e+01
7.960000000000000853e+01 1.872027434021767078e+01
8.000000000000000000e+01 1.867049974230248566e+01
8.040000000000000568e+01 1.862110745572768167e+01
8.079999999999999716e+01 1.857209258682318165e+01
8.120000000000000284e+01 1.852345032934569247e+01
8.160000000000000853e+01 1.851029703599682819e+01
8.200000000000000000e+01 1.846399045074583967e+01
8.240000000000000568e+01 1.845097477399023234e+01
8.279999999999999716e+01 1.840689874030307038e+01
8.320000000000000284e+01 1.836313737428942261e+01
8.360000000000000853e+01 1.831968691594057574e+01
8.400000000000000000e+01 1.827654366809524333e+01
8.440000000000000568e+01 1.823370399509224526e+01
8.479999999999999716e+01 1.819116432145830942e+01
8.520000000000000284e+01 1.814892113063006818e+01
8.560000000000000853e+01 1.810697096370904546e+01
8.600000000000000000e+01 1.806531041824881001e+01
8.640000000000000568e+01 1.802393614707314384e+01
8.680000000000001137e+01 1.798284485712438396e+01
8.720000000000000284e+01 1.794203330834099575e+01
8.760000000000000853e+01 1.790149831256356094e+01
8.800000000000000000e+01 1.786123673246825660e+01
8.840000000000000568e+01 1.782124548052703972e+01
8.880000000000001137e+01 1.778152151799376668e+01
8.920000000000000284e+01 1.774206185391550505e+01
8.960000000000000853e+01 1.770286354416816010e+01
9.000000000000000000e+01 1.766392369051598621e+01
9.040000000000000568e+01 1.762523943969394935e+01
9.080000000000001137e+01 1.758680798251259603e+01
9.120000000000000284e+01 1.754862655298452268e+01
9.160000000000000853e+01 1.751069242747205124e+01
9.200000000000000000e+01 1.747300292385529730e+01
9.240000000000000568e+01 1.743555540072028265e+01
9.280000000000001137e+01 1.739834725656626091e+01
9.320000000000000284e+01 1.736137592903196492e+01
9.360000000000000853e+01 1.732463889414009373e+01
9.400000000000000000e+01 1.728813366555958453e+01
9.440000000000000568e+01 1.725185779388516494e+01
9.480000000000001137e+01 1.721580886593372028e+01
9.520000000000000284e+01 1.717972819129731477e+01
9.560000000000000853e+01 1.714380300774665500e+01
9.600000000000000000e+01 1.710798085291675363e+01
9.640000000000000568e+01 1.707218207241877295e+01
9.680000000000001137e+01 1.703660492588161901e+01
9.720000000000000284e+01 1.700124711700881619e+01
9.760000000000000853e+01 1.696610638279283734e+01
9.800000000000000000e+01 1.693118049289607541e+01
9.840000000000000568e+01 1.689646724904576303e+01
9.880000000000001137e+01 1.686196448444263041e+01
9.920000000000000284e+01 1.682767006318285752e+01
9.960000000000000853e+01 1.679358187969285154e+01
1.000000000000000000e+02 1.675969785817675728e+01
1.004000000000000057e+02 1.672601595207619596e+01
1.008000000000000114e+02 1.669253414354190568e+01
1.012000000000000028e+02 1.665925044291703117e+01
1.016000000000000085e+02 1.662616288823183197e+01
1.020000000000000000e+02 1.659326954470931526e+01
1.024000000000000057e+02 1.656056850428168303e+01
1.028000000000000114e+02 1.652805788511727414e+01
1.032000000000000028e+02 1.649573583115767050e+01
1.036000000000000085e+02 1.646360051166480076e+01
1.040000000000000000e+02 1.643165012077773923e+01
1.044000000000000057e+02 1.639988287707892312e+01
1.048000000000000114e+02 1.636829702316964585e+01
1.052000000000000028e+02 1.633689082525449976e+01
1.056000000000000085e+02 1.630566257273457609e+01
1.060000000000000000e+02 1.627461057780924847e+01
1.064000000000000057e+02 1.624373317508626258e+01
1.068000000000000114e+02 1.621302872119995087e+01
1.072000000000000028e+02 1.618249559443740537e+01
1.076000000000000085e+02 1.615213219437232794e+01
1.080000000000000000e+02 1.612193694150651879e+01
1.084000000000000057e+02 1.609190827691864456e+01
1.088000000000000114e+02 1.606204466192021840e+01
1.092000000000000028e+02 1.603234457771858601e+01
1.096000000000000085e+02 1.600280652508679680e+01
1.100000000000000000e+02 1.597342902404009379e+01
1.104000000000000057e+02 1.594421061351895297e+01
1.108000000000000114e+02 1.592496648786335633e+01
1.112000000000000028e+02 1.589631134446135086e+01
1.116000000000000085e+02 1.587711236055467445e+01
1.120000000000000000e+02 1.584901446962490468e+01
1.124000000000000057e+02 1.582106514905366268e+01
1.128000000000000114e+02 1.579326308017656899e+01
1.132000000000000028e+02 1.576560696074492540e+01
1.136000000000000085e+02 1.573809550466295981e+01
1.140000000000000000e+02 1.571072744173025448e+01
1.144000000000000057e+02 1.568350151738916409e+01
1.148000000000000114e+02 1.565641649247715250e+01
1.152000000000000028e+02 1.562947114298393814e+01
1.156000000000000085e+02 1.560266425981324190e+01
1.160000000000000000e+02 1.557599464854920512e+01
1.164000000000000057e+02 1.554946112922719692e+01
1.168000000000000114e+02 1.552306253610906595e+01
1.172000000000000028e+02 1.549679771746257195e+01
1.176000000000000085e+02 1.547066553534506106e+01
1.180000000000000000e+02 1.544466486539123373e+01
1.184000000000000057e+02 1.541879459660481189e+01
1.188000000000000114e+02 1.539305363115422232e+01
1.192000000000000028e+02 1.536744088417199627e+01
1.196000000000000085e+02 1.534195528355796689e+01
1.200000000000000000e+02 1.531659576978609394e+01
1.204000000000000057e+02 1.529136129571484659e+01
1.208000000000000114e+02 1.526625082640110875e+01
1.212000000000000028e+02 1.524126333891744167e+01
1.216000000000000085e+02 1.521639782217277670e+01
1.220000000000000000e+02 1.519165327673628951e+01
1.224000000000000057e+02 1.516702871466451974e+01
1.228000000000000114e+02 1.514252315933163828e+01
1.232000000000000028e+02 1.511813564526270959e+01
1.236000000000000085e+02 1.509386521797003411e+01
1.240000000000000000e+02 1.506971093379236848e+01
1.244000000000000057e+02 1.504567185973704646e+01
1.248000000000000114e+02 1.502174707332488168e+01
1.252000000000000028e+02 1.499793566243788590e+01
1.256000000000000085e+02 1.497423672516959847e+01
1.260000000000000000e+02 1.495064936967812308e+01
1.264000000000000057e+02 1.492715156853039815e+01
1.268000000000000114e+02 1.490375668505414097e+01
1.272000000000000028e+02 1.488046190376561206e+01
1.276000000000000085e+02 1.485725177598280666e+01
1.280000000000000000e+02 1.483414889031530137e+01
1.284000000000000057e+02 1.481115241614280009e+01
1.288000000000000114e+02 1.478826153185986669e+01
1.291999999999999886e+02 1.476547542475028862e+01
1.296000000000000227e+02 1.474279329086350643e+01
1.300000000000000000e+02 1.472021433489324238e+01
1.304000000000000057e+02 1.469773777005805471e+01
1.308000000000000114e+02 1.467536281798400921e+01
1.311999999999999886e+02 1.465308870858927648e+01
1.316000000000000227e+02 1.463091467997063333e+01
1.320000000000000000e+02 1.460883997829194669e+01
1.324000000000000057e+02 1.458686385767439297e+01
1.328000000000000114e+02 1.456498558008862254e+01
1.331999999999999886e+02 1.454320441524861707e+01
1.336000000000000227e+02 1.452151964050733035e+01
1.340000000000000000e+02 1.449993054075406818e+01
1.344000000000000057e+02 1.447843640831350243e+01
1.348000000000000114e+02 1.445703654284636919e+01
1.351999999999999886e+02 1.443573025125178688e+01
1.356000000000000227e+02 1.441451684757113583e+01
1.360000000000000000e+02 1.439339565289352763e+01
1.364000000000000057e+02 1.437236599526276137e+01
1.368000000000000114e+02 1.435142720958582530e+01
1.371999999999999886e+02 1.433057863754283545e+01
1.376000000000000227e+02 1.430981962749841152e+01
1.380000000000000000e+02 1.428914953441449853e+01
1.384000000000000057e+02 1.426856771976455818e+01
1.388000000000000114e+02 1.424807355144910304e+01
1.392000000000000171e+02 1.422766640371260216e+01
1.395999999999999943e+02 1.420734565706167807e+01
1.400000000000000000e+02 1.418711069818460402e+01
1.404000000000000057e+02 1.416696091987202877e+01
1.408000000000000114e+02 1.414689572093900694e+01
1.412000000000000171e+02 1.412691450614816446e+01
1.415999999999999943e+02 1.410701668613412707e+01
1.420000000000000000e+02 1.408720167732910689e+01
1.424000000000000057e+02 1.406746890188957622e+01
1.428000000000000114e+02 1.404781778762419364e+01
1.432000000000000171e+02 1.402824776792271422e+01
1.435999999999999943e+02 1.400875828168608095e+01
1.440000000000000000e+02 1.398845295154780821e+01
1.444000000000000057e+02 1.396920453306995036e+01
1.448000000000000114e+02 1.394920676794873415e+01
1.452000000000000171e+02 1.393020102458532783e+01
1.455999999999999943e+02 1.391127264423694321e+01
1.460000000000000000e+02 1.389242109764862576e+01
1.464000000000000057e+02 1.387364586064933647e+01
1.468000000000000114e+02 1.385494641408919492e+01
1.472000000000000171e+02 1.383632224377752529e+01
1.475999999999999943e+02 1.381777284042193088e+01
1.480000000000000000e+02 1.379929769956823904e+01
1.484000000000000057e+02 1.378089632154136979e+01
1.488000000000000114e+02 1.376256821138706954e+01
1.492000000000000171e+02 1.374431287881450103e+01
1.495999999999999943e+02 1.372612983813974452e+01
1.500000000000000000e+02 1.370801860823006280e+01
