1.000000000000000000e+01 1.515518861930589480e+02
1.040000000000000036e+01 1.488110099246379150e+02
1.080000000000000071e+01 1.471789369528685540e+02
1.119999999999999929e+01 1.461866348594858778e+02
1.159999999999999964e+01 1.476572362616223870e+02
1.200000000000000000e+01 1.438240320644248982e+02
1.240000000000000036e+01 1.403163166015935701e+02
1.280000000000000071e+01 1.305645700952625532e+02
1.319999999999999929e+01 1.274453983880311938e+02
1.359999999999999964e+01 1.248786958666830742e+02
1.400000000000000000e+01 1.224671193189573586e+02
1.440000000000000036e+01 1.201948796622433520e+02
1.480000000000000071e+01 1.180484564727207442e+02
1.519999999999999929e+01 1.160161748176381877e+02
1.560000000000000142e+01 1.140842955619883128e+02
1.600000000000000000e+01 1.122135583816101274e+02
1.639999999999999858e+01 1.104326583938589295e+02
1.680000000000000071e+01 1.086648144575975437e+02
1.719999999999999929e+01 1.072083843745919864e+02
1.760000000000000142e+01 1.058186951326990481e+02
1.800000000000000000e+01 1.044905599849783187e+02
1.839999999999999858e+01 1.032193580808851721e+02
1.880000000000000071e+01 1.020009551280473090e+02
1.920000000000000284e+01 1.009441349834055899e+02
1.960000000000000142e+01 9.986615210588617231e+01
2.000000000000000000e+01 9.882808478121930307e+01
2.039999999999999858e+01 9.782741550126206675e+01
2.080000000000000071e+01 9.686185008739460045e+01
2.120000000000000284e+01 9.592929218744473019e+01
2.160000000000000142e+01 9.502782133030311229e+01
2.200000000000000000e+01 9.415567395306869969e+01
2.239999999999999858e+01 9.330859767791410775e+01
2.280000000000000071e+01 9.247582100328497745e+01
2.320000000000000284e+01 9.166870162731967753e+01
2.360000000000000142e+01 9.088589687143610263e+01
2.400000000000000000e+01 9.012616238807117952e+01
2.439999999999999858e+01 8.938834294233764410e+01
2.480000000000000071e+01 8.994647965833436842e+01
2.520000000000000284e+01 8.928502750218191863e+01
2.560000000000000142e+01 8.864070276781248481e+01
2.600000000000000000e+01 8.801275234878438880e+01
2.640000000000000213e+01 8.740046922586105893e+01
2.680000000000000071e+01 8.695443276349340067e+01
2.719999999999999929e+01 8.638625148975465606e+01
2.760000000000000142e+01 8.587265239271054895e+01
2.800000000000000000e+01 8.537069751321003253e+01
2.840000000000000213e+01 8.487992870989700123e+01
2.880000000000000071e+01 8.439991312006897317e+01
2.920000000000000284e+01 8.393024138287597680e+01
2.960000000000000142e+01 8.347052601315759546e+01
3.000000000000000000e+01 8.302039991105262118e+01
3.040000000000000213e+01 8.257951499417974617e+01
3.080000000000000071e+01 8.214754094064589651e+01
3.120000000000000284e+01 8.172418424001071457e+01
3.160000000000000142e+01 7.531698932831277205e+01
3.200000000000000000e+01 7.484321180501471815e+01
3.240000000000000568e+01 7.437886101322129662e+01
3.279999999999999716e+01 7.392362059147757236e+01
3.320000000000000284e+01 7.347668551216349897e+01
3.360000000000000142e+01 7.303741520598748593e+01
3.400000000000000000e+01 7.260643918699479116e+01
3.440000000000000568e+01 7.218349225294524274e+01
3.479999999999999716e+01 7.176832106689805357e+01
3.520000000000000284e+01 7.136068347870141793e+01
3.560000000000000142e+01 7.096034789353393535e+01
3.600000000000000000e+01 7.056709268367427512e+01
3.640000000000000568e+01 7.012460977070323054e+01
3.679999999999999716e+01 6.974793508843696088e+01
3.720000000000000284e+01 6.937764814235065103e+01
3.760000000000000142e+01 6.901356519565973713e+01
3.800000000000000000e+01 6.865550991799712222e+01
3.840000000000000568e+01 6.830331300340742473e+01
3.879999999999999716e+01 6.795681181225305068e+01
3.920000000000000284e+01 6.761585003527714832e+01
3.960000000000000142e+01 6.728027737821611254e+01
4.000000000000000000e+01 6.694994926548750414e+01
4.040000000000000568e+01 6.662472656160042561e+01
4.079999999999999716e+01 6.630447530904523035e+01
4.120000000000000284e+01 6.598906648151901777e+01
4.160000000000000142e+01 6.567795511564638389e+01
4.200000000000000000e+01 6.536935881437142370e+01
4.239999999999999858e+01 6.506532063894920270e+01
4.280000000000000426e+01 6.476572628445634905e+01
4.320000000000000284e+01 6.447046546884769214e+01
4.360000000000000142e+01 6.417943175157020619e+01
4.400000000000000000e+01 6.389252236211292768e+01
4.439999999999999858e+01 6.360963803785413972e+01
4.480000000000000426e+01 6.333068287061418289e+01
4.520000000000000284e+01 6.310853873219636512e+01
4.560000000000000142e+01 6.283638389077474073e+01
4.600000000000000000e+01 6.256793882996881706e+01
4.639999999999999858e+01 6.230233454220989131e+01
4.680000000000000426e+01 6.203372484875198722e+01
4.720000000000000284e+01 6.176866828791106911e+01
4.760000000000000142e+01 6.150708515567351498e+01
4.800000000000000000e+01 6.129737997839244912e+01
4.840000000000000568e+01 6.104283465796643071e+01
4.880000000000000426e+01 6.079152749692963198e+01
4.920000000000000284e+01 6.054338860573079728e+01
4.960000000000000142e+01 6.029835021779904736e+01
5.000000000000000000e+01 6.005634660665032243e+01
5.040000000000000568e+01 5.981731400693842460e+01
5.080000000000000426e+01 5.958119053923022790e+01
5.120000000000000284e+01 5.934791613829747092e+01
5.160000000000000142e+01 5.911743248473243995e+01
5.200000000000000000e+01 5.693225268507885062e+01
5.240000000000000568e+01 5.669947233265099840e+01
5.280000000000000426e+01 5.646944975536380440e+01
5.320000000000000284e+01 5.624213024173430142e+01
5.360000000000000142e+01 5.601746060052911247e+01
5.400000000000000000e+01 5.579554824976567318e+01
5.440000000000000568e+01 5.557689017068251047e+01
5.480000000000000426e+01 5.536071102195883498e+01
5.520000000000000284e+01 5.514696375354042601e+01
5.560000000000000142e+01 5.493560256609983128e+01
5.600000000000000000e+01 5.472658286836391284e+01
5.640000000000000568e+01 5.451986123621563962e+01
5.680000000000000426e+01 5.431544303700161436e+01
5.720000000000000284e+01 5.411360194358350384e+01
5.760000000000000142e+01 5.391391632619930618e+01
5.800000000000000000e+01 5.371634772926088175e+01
5.840000000000000568e+01 5.352085865656128050e+01
5.880000000000000426e+01 5.332741254060152869e+01
5.920000000000000284e+01 5.313597371311074369e+01
5.960000000000000142e+01 5.294650737670529850e+01
6.000000000000000000e+01 5.275897957763470458e+01
6.040000000000000568e+01 5.257335717956581789e+01
6.080000000000000426e+01 5.238960783835850066e+01
6.120000000000000284e+01 5.218939031492804759e+01
6.160000000000000142e+01 5.200907881500658902e+01
6.200000000000000000e+01 5.183055263501638876e+01
6.240000000000000568e+01 5.165378223271071079e+01
6.280000000000000426e+01 5.147873874980959386e+01
6.320000000000000284e+01 5.130539399169397541e+01
6.360000000000000142e+01 5.113372040783360006e+01
6.400000000000000000e+01 5.096369107291807410e+01
6.440000000000000568e+01 5.079527966866074706e+01
6.480000000000001137e+01 5.062846046624776619e+01
6.520000000000000284e+01 5.046320830940481983e+01
6.559999999999999432e+01 5.029949859805651613e+01
6.600000000000000000e+01 5.013730727255357067e+01
6.640000000000000568e+01 5.010958856579687648e+01
6.680000000000001137e+01 4.995843070795066865e+01
6.720000000000000284e+01 4.980863222798915757e+01
6.759999999999999432e+01 4.966017258582119354e+01
6.800000000000000000e+01 4.951290345864779141e+01
6.840000000000000568e+01 4.936679906709098731e+01
6.880000000000001137e+01 4.922197936433872911e+01
6.920000000000000284e+01 4.907842537070990829e+01
6.959999999999999432e+01 4.893611849914880452e+01
7.000000000000000000e+01 4.879504054481152764e+01
7.040000000000000568e+01 4.865517367498848955e+01
7.080000000000001137e+01 4.851650041935059221e+01
7.120000000000000284e+01 4.837900366050644152e+01
7.159999999999999432e+01 4.820568764223212099e+01
7.200000000000000000e+01 4.807151121760934132e+01
7.240000000000000568e+01 4.793845502520770196e+01
7.280000000000001137e+01 4.780650331658274865e+01
7.320000000000000284e+01 4.767564065375638904e+01
7.359999999999999432e+01 4.754585190135965433e+01
7.400000000000000000e+01 4.741712221901809698e+01
7.440000000000000568e+01 4.728943705397051644e+01
7.479999999999999716e+01 4.716278213391292695e+01
7.520000000000000284e+01 4.703714346005958902e+01
7.560000000000000853e+01 4.691250730041311101e+01
7.600000000000000000e+01 4.679875484564868771e+01
7.640000000000000568e+01 4.667592783544243673e+01
7.679999999999999716e+01 4.655406699293190798e+01
7.720000000000000284e+01 4.643072724139516083e+01
7.760000000000000853e+01 4.630797249314279185e+01
7.800000000000000000e+01 4.618617480729319169e+01
7.840000000000000568e+01 4.606532164157167131e+01
7.879999999999999716e+01 4.594540068421388668e+01
7.920000000000000284e+01 4.582639984852624337e+01
7.960000000000000853e+01 4.570830726760262053e+01
8.000000000000000000e+01 4.559111128919248301e+01
8.040000000000000568e+01 4.547480047071486808e+01
8.079999999999999716e+01 4.535936357441362787e+01
8.120000000000000284e+01 4.524478956264919560e+01
8.160000000000000853e+01 4.513106759332222140e+01
8.200000000000000000e+01 4.501818701542477186e+01
8.240000000000000568e+01 4.490613736471495798e+01
8.279999999999999716e+01 4.479490835951098404e+01
8.320000000000000284e+01 4.468448989660053172e+01
8.360000000000000853e+01 4.457495742620420032e+01
8.400000000000000000e+01 4.446636499590251645e+01
8.440000000000000568e+01 4.435854943857842159e+01
8.479999999999999716e+01 4.425150141279667793e+01
8.520000000000000284e+01 4.414521173468803283e+01
8.560000000000000853e+01 4.403967137453578573e+01
8.600000000000000000e+01 4.393476342931382561e+01
8.640000000000000568e+01 4.382801820204949195e+01
8.680000000000001137e+01 4.372173739629685940e+01
8.720000000000000284e+01 4.361619928293124104e+01
8.760000000000000853e+01 4.351139515636940303e+01
8.800000000000000000e+01 4.340731645418112805e+01
8.840000000000000568e+01 4.330395475406450601e+01
8.880000000000001137e+01 4.320130177089915691e+01
8.920000000000000284e+01 4.309934935387506982e+01
8.960000000000000853e+01 4.299808948369467743e+01
9.000000000000000000e+01 4.289751426984617666e+01
9.040000000000000568e+01 4.279761594794563706e+01
9.080000000000001137e+01 4.269838687714608483e+01
9.120000000000000284e+01 4.259981953761156603e+01
9.160000000000000853e+01 4.250190652805413549e+01
9.200000000000000000e+01 4.239612684548905719e+01
9.240000000000000568e+01 4.229956664145964851e+01
9.280000000000001137e+01 4.220363996388552863e+01
9.320000000000000284e+01 4.210833984080692716e+01
9.360000000000000853e+01 4.201365940793971987e+01
9.400000000000000000e+01 4.191959190653778933e+01
9.440000000000000568e+01 4.182613068130713430e+01
9.480000000000001137e+01 4.173326917837025718e+01
9.520000000000000284e+01 4.164100094327949364e+01
9.560000000000000853e+01 4.154931961907779936e+01
9.600000000000000000e+01 4.145821894440564392e+01
9.640000000000000568e+01 4.136769275165283943e+01
9.680000000000001137e+01 4.127773496515391116e+01
9.720000000000000284e+01 4.118833959942594447e+01
9.760000000000000853e+01 4.109950075744750109e+01
9.800000000000000000e+01 4.101121262897779474e+01
9.840000000000000568e+01 4.092346948891469793e+01
9.880000000000001137e+01 4.083626569569074150e+01
9.920000000000000284e+01 4.074959568970599832e+01
9.960000000000000853e+01 4.066345399179679276e+01
1.000000000000000000e+02 4.057783520173938996e+01
1.004000000000000057e+02 4.049273399678759233e+01
1.008000000000000114e+02 4.040800636862616102e+01
1.012000000000000028e+02 4.032374304000178711e+01
1.016000000000000085e+02 4.023998341877788221e+01
1.020000000000000000e+02 4.015672245663346018e+01
1.024000000000000057e+02 4.007395517625919723e+01
1.028000000000000114e+02 3.999167667007300508e+01
1.032000000000000028e+02 3.990988209896405436e+01
1.036000000000000085e+02 3.984293548618301628e+01
1.040000000000000000e+02 3.976285832276319354e+01
1.044000000000000057e+02 3.968324471919468976e+01
1.048000000000000114e+02 3.960409017335302906e+01
1.052000000000000028e+02 3.952539024449743010e+01
1.056000000000000085e+02 3.944714055219453996e+01
1.060000000000000000e+02 3.936933677526521080e+01
1.064000000000000057e+02 3.929197465075370843e+01
1.068000000000000114e+02 3.921504997291870609e+01
1.072000000000000028e+02 3.913855859224584322e+01
1.076000000000000085e+02 3.906249641448091836e+01
1.080000000000000000e+02 3.898685939968348180e+01
1.084000000000000057e+02 3.891164356130003199e+01
1.088000000000000114e+02 3.883684496525680174e+01
1.092000000000000028e+02 3.876245972907108950e+01
1.096000000000000085e+02 3.868848402098117134e+01
1.100000000000000000e+02 3.861879526095752624e+01
1.104000000000000057e+02 3.864891928817448274e+01
1.108000000000000114e+02 3.863386522280625002e+01
1.112000000000000028e+02 3.856637453853818442e+01
1.116000000000000085e+02 3.849923853352589731e+01
1.120000000000000000e+02 3.843245406009822318e+01
1.124000000000000057e+02 3.836601800988418631e+01
1.128000000000000114e+02 3.829992731318124299e+01
1.132000000000000028e+02 3.823417893833602932e+01
1.136000000000000085e+02 3.816876989113700347e+01
1.140000000000000000e+02 3.810369721421932354e+01
1.144000000000000057e+02 3.803895798648081694e+01
1.148000000000000114e+02 3.797454932250963111e+01
1.152000000000000028e+02 3.791046837202276976e+01
1.156000000000000085e+02 3.784671231931537250e+01
1.160000000000000000e+02 3.778327838272071659e+01
1.164000000000000057e+02 3.772016381408031549e+01
1.168000000000000114e+02 3.765736589822428471e+01
1.172000000000000028e+02 3.759488195246145636e+01
1.176000000000000085e+02 3.753270932607907184e+01
1.180000000000000000e+02 3.747084539985207385e+01
1.184000000000000057e+02 3.740928758556139400e+01
1.188000000000000114e+02 3.734803332552141342e+01
1.192000000000000028e+02 3.728707996035929995e+01
1.196000000000000085e+02 3.722641648917728929e+01
1.200000000000000000e+02 3.716604862269857534e+01
1.204000000000000057e+02 3.710597392875460088e+01
1.208000000000000114e+02 3.704619000333212142e+01
1.212000000000000028e+02 3.698653789316539786e+01
1.216000000000000085e+02 3.692711649392033735e+01
1.220000000000000000e+02 3.686798030529111259e+01
1.224000000000000057e+02 3.680912701644997753e+01
1.228000000000000114e+02 3.675055434291138567e+01
1.232000000000000028e+02 3.669226002614529847e+01
1.236000000000000085e+02 3.663424183319739313e+01
1.240000000000000000e+02 3.657649755631627642e+01
1.244000000000000057e+02 3.651902501258704348e+01
1.248000000000000114e+02 3.646182204357157275e+01
1.252000000000000028e+02 3.640488651495510908e+01
1.256000000000000085e+02 3.634821631619903570e+01
1.260000000000000000e+02 3.629180936019985637e+01
1.264000000000000057e+02 3.623566358295408918e+01
1.268000000000000114e+02 3.617977694322897975e+01
1.272000000000000028e+02 3.612414742223910480e+01
1.276000000000000085e+02 3.606877302332838298e+01
1.280000000000000000e+02 3.601365177165774867e+01
1.284000000000000057e+02 3.595878171389816202e+01
1.288000000000000114e+02 3.590416091792887698e+01
1.291999999999999886e+02 3.584978747254089626e+01
1.296000000000000227e+02 3.579307679357027894e+01
1.300000000000000000e+02 3.573934150271479382e+01
1.304000000000000057e+02 3.568584734512100454e+01
1.308000000000000114e+02 3.563259249447449406e+01
1.311999999999999886e+02 3.557957514392673914e+01
1.316000000000000227e+02 3.552679350582781836e+01
1.320000000000000000e+02 3.547424581146380262e+01
1.324000000000000057e+02 3.542193031079828103e+01
1.328000000000000114e+02 3.536984527221842711e+01
1.331999999999999886e+02 3.531798898228518624e+01
1.336000000000000227e+02 3.526635974548754149e+01
1.340000000000000000e+02 3.521495588400100019e+01
1.344000000000000057e+02 3.516377573744989604e+01
1.348000000000000114e+02 3.511281766267369875e+01
1.351999999999999886e+02 3.506208003349709657e+01
1.356000000000000227e+02 3.501134913611714694e+01
1.360000000000000000e+02 3.496035743713333943e+01
1.364000000000000057e+02 3.490958583782173008e+01
1.368000000000000114e+02 3.485903273612665743e+01
1.371999999999999886e+02 3.480869654640397926e+01
1.376000000000000227e+02 3.475857569920455603e+01
1.380000000000000000e+02 3.470866864106115912e+01
1.384000000000000057e+02 3.465897383427876832e+01
1.388000000000000114e+02 3.460948975672837946e+01
1.392000000000000171e+02 3.456021490164391707e+01
1.395999999999999943e+02 3.451106787141054610e+01
1.400000000000000000e+02 3.446209614089414686e+01
1.404000000000000057e+02 3.441332990199511244e+01
1.408000000000000114e+02 3.436476770084060206e+01
1.412000000000000171e+02 3.432063078120687294e+01
1.415999999999999943e+02 3.427273503903590779e+01
1.420000000000000000e+02 3.422503761101604880e+01
1.424000000000000057e+02 3.417753711183570431e+01
1.428000000000000114e+02 3.413023216980675301e+01
1.432000000000000171e+02 3.408312142669190337e+01
1.435999999999999943e+02 3.403620353753474603e+01
1.440000000000000000e+02 3.398919156646957873e+01
1.444000000000000057e+02 3.394210382470826204e+01
1.448000000000000114e+02 3.389520828228761218e+01
1.452000000000000171e+02 3.384850361725566614e+01
1.455999999999999943e+02 3.380198852045487712e+01
1.460000000000000000e+02 3.375566169536264738e+01
1.464000000000000057e+02 3.370952185793420597e+01
1.468000000000000114e+02 3.366356773644798750e+01
1.472000000000000171e+02 3.361779807135322784e+01
1.475999999999999943e+02 3.357221161511991880e+01
1.480000000000000000e+02 3.352680713209109342e+01
1.484000000000000057e+02 3.348158339833719310e+01
1.488000000000000114e+02 3.343653920151276537e+01
1.492000000000000171e+02 3.339167334071514404e+01
1.495999999999999943e+02 3.334698462634538174e+01
1.500000000000000000e+02 3.330247187997113656e+01
