1.000000000000000000e+01 9.710987901619876084e+01
1.040000000000000036e+01 9.605778667100392454e+01
1.080000000000000071e+01 9.289745328207794728e+01
1.119999999999999929e+01 8.429480051461436574e+01
1.159999999999999964e+01 8.392007340170485463e+01
1.200000000000000000e+01 8.189011746949547899e+01
1.240000000000000036e+01 8.001447271236619940e+01
1.280000000000000071e+01 7.827244639284451466e+01
1.319999999999999929e+01 7.664742330487990785e+01
1.359999999999999964e+01 7.512579547347966979e+01
1.400000000000000000e+01 7.341081380975236925e+01
1.440000000000000036e+01 7.179055913045827708e+01
1.480000000000000071e+01 7.026639974775780217e+01
1.519999999999999929e+01 6.882886042868967991e+01
1.560000000000000142e+01 6.749869907887594422e+01
1.600000000000000000e+01 6.628119807370948990e+01
1.639999999999999858e+01 6.512198773465533463e+01
1.680000000000000071e+01 6.401639018614847032e+01
1.719999999999999929e+01 6.296025491314568256e+01
1.760000000000000142e+01 6.535730960752995600e+01
1.800000000000000000e+01 6.435362979817028872e+01
1.839999999999999858e+01 6.339393157106839283e+01
1.880000000000000071e+01 6.247497279060181086e+01
1.920000000000000284e+01 6.159384924458515087e+01
1.960000000000000142e+01 6.074794901648311196e+01
2.000000000000000000e+01 5.993491440981304663e+01
2.039999999999999858e+01 5.915260995112124220e+01
2.080000000000000071e+01 5.839909532713681983e+01
2.120000000000000284e+01 5.767260235858108786e+01
2.160000000000000142e+01 5.615605343189928789e+01
2.200000000000000000e+01 5.557833669731971327e+01
2.239999999999999858e+01 5.501836749843750596e+01
2.280000000000000071e+01 5.447522949001194092e+01
2.320000000000000284e+01 5.394807274582596790e+01
2.360000000000000142e+01 5.343610757113308551e+01
2.400000000000000000e+01 5.293859901803346446e+01
2.439999999999999858e+01 5.245486200976002067e+01
2.480000000000000071e+01 5.198425699429189706e+01
2.520000000000000284e+01 5.152618605965143672e+01
2.560000000000000142e+01 5.108008945316403526e+01
2.600000000000000000e+01 5.064544245524319876e+01
2.640000000000000213e+01 5.022175256520753805e+01
2.680000000000000071e+01 4.980855696248244158e+01
2.719999999999999929e+01 4.793376185217603336e+01
2.760000000000000142e+01 4.758005746389849833e+01
2.800000000000000000e+01 4.723473712482220321e+01
2.840000000000000213e+01 4.689745960444249562e+01
2.880000000000000071e+01 4.656790324555528571e+01
2.920000000000000284e+01 4.624576452250839509e+01
2.960000000000000142e+01 4.593075672866079628e+01
3.000000000000000000e+01 4.562260877944815007e+01
3.040000000000000213e+01 4.532106411909421695e+01
3.080000000000000071e+01 4.502587972042535824e+01
3.120000000000000284e+01 4.473682516847429014e+01
3.160000000000000142e+01 4.445368181962732024e+01
3.200000000000000000e+01 4.417624202899844477e+01
3.240000000000000568e+01 4.390430843952673712e+01
3.279999999999999716e+01 4.361048609471143322e+01
3.320000000000000284e+01 4.332144999670772734e+01
3.360000000000000142e+01 4.303834493602355593e+01
3.400000000000000000e+01 4.276096543824031215e+01
3.440000000000000568e+01 4.248911595428062071e+01
3.479999999999999716e+01 4.222261024894632442e+01
3.520000000000000284e+01 4.214795485710811107e+01
3.560000000000000142e+01 4.190150568846231494e+01
3.600000000000000000e+01 4.165963649353454201e+01
3.640000000000000568e+01 4.142220280098401020e+01
3.679999999999999716e+01 4.118906650792210655e+01
3.720000000000000284e+01 4.096009552133441645e+01
3.760000000000000142e+01 4.073516342399409496e+01
3.800000000000000000e+01 4.051414916290396206e+01
3.840000000000000568e+01 4.029693675848599810e+01
3.879999999999999716e+01 4.008341503289743457e+01
3.920000000000000284e+01 4.015072003959409130e+01
3.960000000000000142e+01 3.996736668953852245e+01
4.000000000000000000e+01 3.978677634985382383e+01
4.040000000000000568e+01 3.960887711555127311e+01
4.079999999999999716e+01 3.943359972848926986e+01
4.120000000000000284e+01 3.926087745207062341e+01
4.160000000000000142e+01 3.909064595315789603e+01
4.200000000000000000e+01 3.892284319071858789e+01
4.239999999999999858e+01 3.875740931075035434e+01
4.280000000000000426e+01 3.859428654706987771e+01
4.320000000000000284e+01 3.843262632593340555e+01
4.360000000000000142e+01 3.827262486815290998e+01
4.400000000000000000e+01 3.811479788491758569e+01
4.439999999999999858e+01 3.795909428559206589e+01
4.480000000000000426e+01 3.780546468238404856e+01
4.520000000000000284e+01 3.765386131712874374e+01
4.560000000000000142e+01 3.750417153999929809e+01
4.600000000000000000e+01 3.735131585424994682e+01
4.639999999999999858e+01 3.720043474127742655e+01
4.680000000000000426e+01 3.705148416596847483e+01
4.720000000000000284e+01 3.690442148490672025e+01
4.760000000000000142e+01 3.675920538961017314e+01
4.800000000000000000e+01 3.661579585259801917e+01
4.840000000000000568e+01 3.647415407612042060e+01
4.880000000000000426e+01 3.633424244339616394e+01
4.920000000000000284e+01 3.619602447221350872e+01
4.960000000000000142e+01 3.605946477075929124e+01
5.000000000000000000e+01 3.592452899554989187e+01
5.040000000000000568e+01 3.579118381134615845e+01
5.080000000000000426e+01 3.565939685294204509e+01
5.120000000000000284e+01 3.552913668872341191e+01
5.160000000000000142e+01 3.540037278590040870e+01
5.200000000000000000e+01 3.331564522269610507e+01
5.240000000000000568e+01 3.318207577974868627e+01
5.280000000000000426e+01 3.304881064732160212e+01
5.320000000000000284e+01 3.292063967256146384e+01
5.360000000000000142e+01 3.291091934529524821e+01
5.400000000000000000e+01 3.278770613435617065e+01
5.440000000000000568e+01 3.266587587788059466e+01
5.480000000000000426e+01 3.254540256700702372e+01
5.520000000000000284e+01 3.242626087498592824e+01
5.560000000000000142e+01 3.230842613431610744e+01
5.600000000000000000e+01 3.219187431481212514e+01
5.640000000000000568e+01 3.207658200255817604e+01
5.680000000000000426e+01 3.196252637970616561e+01
5.720000000000000284e+01 3.184968520507850087e+01
5.760000000000000142e+01 3.173803679553758172e+01
5.800000000000000000e+01 3.162756000808666101e+01
5.840000000000000568e+01 3.151823422266823371e+01
5.880000000000000426e+01 3.141003932562798440e+01
5.920000000000000284e+01 3.130295569381401322e+01
5.960000000000000142e+01 3.119696417928283694e+01
6.000000000000000000e+01 3.109204609458470259e+01
6.040000000000000568e+01 3.098818319860261994e+01
6.080000000000000426e+01 3.088535768292050676e+01
6.120000000000000284e+01 3.078355215869735417e+01
6.160000000000000142e+01 3.068377203302042489e+01
6.200000000000000000e+01 3.058503488781315127e+01
6.240000000000000568e+01 3.048656994855454627e+01
6.280000000000000426e+01 3.038870454162998413e+01
6.320000000000000284e+01 3.029176708338145119e+01
6.360000000000000142e+01 3.019574274110527767e+01
6.400000000000000000e+01 3.010061701498381836e+01
6.440000000000000568e+01 3.000637572848282275e+01
6.480000000000001137e+01 2.991300501908698095e+01
6.520000000000000284e+01 2.982049132935917157e+01
6.559999999999999432e+01 2.972882139831047610e+01
6.600000000000000000e+01 2.963798225306776146e+01
6.640000000000000568e+01 2.954796120082730937e+01
6.680000000000001137e+01 2.945874582108238116e+01
6.720000000000000284e+01 2.937032395811403163e+01
6.759999999999999432e+01 2.928268371373462742e+01
6.800000000000000000e+01 2.919581344027393399e+01
6.840000000000000568e+01 2.910970173379838855e+01
6.880000000000001137e+01 2.902433742755417256e+01
6.920000000000000284e+01 2.893970958562567120e+01
6.959999999999999432e+01 2.885580749680072188e+01
7.000000000000000000e+01 2.877262066863487888e+01
7.040000000000000568e+01 2.863363787044102082e+01
7.080000000000001137e+01 2.855317501343431985e+01
7.120000000000000284e+01 2.847338496404509556e+01
7.159999999999999432e+01 2.839425821332550015e+01
7.200000000000000000e+01 2.831578544143797771e+01
7.240000000000000568e+01 2.823795751281303978e+01
7.280000000000001137e+01 2.816076547145846121e+01
7.320000000000000284e+01 2.808420053641443559e+01
7.359999999999999432e+01 2.802313670176137705e+01
7.400000000000000000e+01 2.794887308555760796e+01
7.440000000000000568e+01 2.787519925741050741e+01
7.479999999999999716e+01 2.780210729160564398e+01
7.520000000000000284e+01 2.772958941233326158e+01
7.560000000000000853e+01 2.765763799003756773e+01
7.600000000000000000e+01 2.758624553787480949e+01
7.640000000000000568e+01 2.751540470827593765e+01
7.679999999999999716e+01 2.744510828961063709e+01
7.720000000000000284e+01 2.737291693016137373e+01
7.760000000000000853e+01 2.730090015870626274e+01
7.800000000000000000e+01 2.722943554492745122e+01
7.840000000000000568e+01 2.715851595376577876e+01
7.879999999999999716e+01 2.708813437980466787e+01
7.920000000000000284e+01 2.701824829115096094e+01
7.960000000000000853e+01 2.694749436112761032e+01
8.000000000000000000e+01 2.687727733995471624e+01
8.040000000000000568e+01 2.680759039236078678e+01
8.079999999999999716e+01 2.673842680480834133e+01
8.120000000000000284e+01 2.666977998271675432e+01
8.160000000000000853e+01 2.660164344776218215e+01
8.200000000000000000e+01 2.653401083525199766e+01
8.240000000000000568e+01 2.646687589157135534e+01
8.279999999999999716e+01 2.640023247169962417e+01
8.320000000000000284e+01 2.633407453679427945e+01
8.360000000000000853e+01 2.626839615184027821e+01
8.400000000000000000e+01 2.620319148336267290e+01
8.440000000000000568e+01 2.613845479720057341e+01
8.479999999999999716e+01 2.607415078831985511e+01
8.520000000000000284e+01 2.601004064415047878e+01
8.560000000000000853e+01 2.594638431590691141e+01
8.600000000000000000e+01 2.588317641323807194e+01
8.640000000000000568e+01 2.582041163542608331e+01
8.680000000000001137e+01 2.575808476947572245e+01
8.720000000000000284e+01 2.569619068825333130e+01
8.760000000000000853e+01 2.563472434867388472e+01
8.800000000000000000e+01 2.557368078993458127e+01
8.840000000000000568e+01 2.551305513179367779e+01
8.880000000000001137e+01 2.545284257289306851e+01
8.920000000000000284e+01 2.539303838912348255e+01
8.960000000000000853e+01 2.536503043704580307e+01
9.000000000000000000e+01 2.530705128239423374e+01
9.040000000000000568e+01 2.524945501479399468e+01
9.080000000000001137e+01 2.519223737529946661e+01
9.120000000000000284e+01 2.513539417156022182e+01
9.160000000000000853e+01 2.507892127648099390e+01
9.200000000000000000e+01 2.502281462691465919e+01
9.240000000000000568e+01 2.496707022238712881e+01
9.280000000000001137e+01 2.491168412385329134e+01
9.320000000000000284e+01 2.485665245248314648e+01
9.360000000000000853e+01 2.480197138847718463e+01
9.400000000000000000e+01 2.474763716991026996e+01
9.440000000000000568e+01 2.469364609160314572e+01
9.480000000000001137e+01 2.463999450402083369e+01
9.520000000000000284e+01 2.458667881219710694e+01
9.560000000000000853e+01 2.453369547468442136e+01
9.600000000000000000e+01 2.448104100252848170e+01
9.640000000000000568e+01 2.442871195826677777e+01
9.680000000000001137e+01 2.437670495495051526e+01
9.720000000000000284e+01 2.432501665518923062e+01
9.760000000000000853e+01 2.427364377021738306e+01
9.800000000000000000e+01 2.422230315675676593e+01
9.840000000000000568e+01 2.417209705866763514e+01
9.880000000000001137e+01 2.412219221354326848e+01
9.920000000000000284e+01 2.407258557589309689e+01
9.960000000000000853e+01 2.402325902536349034e+01
1.000000000000000000e+02 2.397422039703454644e+01
1.004000000000000057e+02 2.392547064314200966e+01
1.008000000000000114e+02 2.387700689833000212e+01
1.012000000000000028e+02 2.382882633721106913e+01
1.016000000000000085e+02 2.378092617364826111e+01
1.020000000000000000e+02 2.373330366005290060e+01
1.024000000000000057e+02 2.368595608669776098e+01
1.028000000000000114e+02 2.363888078104517376e+01
1.032000000000000028e+02 2.359207510708972322e+01
1.036000000000000085e+02 2.354553646471513417e+01
1.040000000000000000e+02 2.349926228906498693e+01
1.044000000000000057e+02 2.345325004992692186e+01
1.048000000000000114e+02 2.340749725113004232e+01
1.052000000000000028e+02 2.336200142995503981e+01
1.056000000000000085e+02 2.331676015655684253e+01
1.060000000000000000e+02 2.327177103339950648e+01
1.064000000000000057e+02 2.322703169470291229e+01
1.068000000000000114e+02 2.318253980590102259e+01
1.072000000000000028e+02 2.313829306311155776e+01
1.076000000000000085e+02 2.309428919261651458e+01
1.080000000000000000e+02 2.305052595035360241e+01
1.084000000000000057e+02 2.300700112141804254e+01
1.088000000000000114e+02 2.296371251957463500e+01
1.092000000000000028e+02 2.292065798677983679e+01
1.096000000000000085e+02 2.287783539271353916e+01
1.100000000000000000e+02 2.283524263432035895e+01
1.104000000000000057e+02 2.289906444689999887e+01
1.108000000000000114e+02 2.285905573209387853e+01
1.112000000000000028e+02 2.281914644959506333e+01
1.116000000000000085e+02 2.277944470922230735e+01
1.120000000000000000e+02 2.273994868224991706e+01
1.124000000000000057e+02 2.270065656264624465e+01
1.128000000000000114e+02 2.266156656671088143e+01
1.132000000000000028e+02 2.262267693271890323e+01
1.136000000000000085e+02 2.258398592057209342e+01
1.140000000000000000e+02 2.254549181145691961e+01
1.144000000000000057e+02 2.250719290750906154e+01
1.148000000000000114e+02 2.246908753148451865e+01
1.152000000000000028e+02 2.243117402643695257e+01
1.156000000000000085e+02 2.239345075540117591e+01
1.160000000000000000e+02 2.235591610108281202e+01
1.164000000000000057e+02 2.231856846555365692e+01
1.168000000000000114e+02 2.228140626995296714e+01
1.172000000000000028e+02 2.224442795419430396e+01
1.176000000000000085e+02 2.220763197667791999e+01
1.180000000000000000e+02 2.217101681400850310e+01
1.184000000000000057e+02 2.213458096071821757e+01
1.188000000000000114e+02 2.209832292899489303e+01
1.192000000000000028e+02 2.206224124841522638e+01
1.196000000000000085e+02 2.202633446568293962e+01
1.200000000000000000e+02 2.199060114437176594e+01
1.204000000000000057e+02 2.195503986467312885e+01
1.208000000000000114e+02 2.191964922314843278e+01
1.212000000000000028e+02 2.188442783248588341e+01
1.216000000000000085e+02 2.184940315616416484e+01
1.220000000000000000e+02 2.181458924999289906e+01
1.224000000000000057e+02 2.177993976270014542e+01
1.228000000000000114e+02 2.174545337847155224e+01
1.232000000000000028e+02 2.171112879633734849e+01
1.236000000000000085e+02 2.167696472995639212e+01
1.240000000000000000e+02 2.164295990740406239e+01
1.244000000000000057e+02 2.160911307096387901e+01
1.248000000000000114e+02 2.157542297692283739e+01
1.252000000000000028e+02 2.154731985945377559e+01
1.256000000000000085e+02 2.151419538081129446e+01
1.260000000000000000e+02 2.148122225852718969e+01
1.264000000000000057e+02 2.144839932035204910e+01
1.268000000000000114e+02 2.141572540683574033e+01
1.272000000000000028e+02 2.138319937114725633e+01
1.276000000000000085e+02 2.135082007889755573e+01
1.280000000000000000e+02 2.131858640796552962e+01
1.284000000000000057e+02 2.128649724832690637e+01
1.288000000000000114e+02 2.125455150188606268e+01
1.291999999999999886e+02 2.122274808231073706e+01
1.296000000000000227e+02 2.119108591486949678e+01
1.300000000000000000e+02 2.115956393627202559e+01
1.304000000000000057e+02 2.112818109451200144e+01
1.308000000000000114e+02 2.109693634871269907e+01
1.311999999999999886e+02 2.106582866897515771e+01
1.316000000000000227e+02 2.103485703622883563e+01
1.320000000000000000e+02 2.100402044208483687e+01
1.324000000000000057e+02 2.097331788869148639e+01
1.328000000000000114e+02 2.094274838859233512e+01
1.331999999999999886e+02 2.091231096458652061e+01
1.336000000000000227e+02 2.087439683853159167e+01
1.340000000000000000e+02 2.084437502860285463e+01
1.344000000000000057e+02 2.081448167552149187e+01
1.348000000000000114e+02 2.078471584685406981e+01
1.351999999999999886e+02 2.075507661971783691e+01
1.356000000000000227e+02 2.072556308065448505e+01
1.360000000000000000e+02 2.069617432550595026e+01
1.364000000000000057e+02 2.066690945929219581e+01
1.368000000000000114e+02 2.063776759609099543e+01
1.371999999999999886e+02 2.060874785891959604e+01
1.376000000000000227e+02 2.057984937961830596e+01
1.380000000000000000e+02 2.055107129873596605e+01
1.384000000000000057e+02 2.052241276541715109e+01
1.388000000000000114e+02 2.049387293729128245e+01
1.392000000000000171e+02 2.046545098036336441e+01
1.395999999999999943e+02 2.043714606890656071e+01
1.400000000000000000e+02 2.040891928990885162e+01
1.404000000000000057e+02 2.038078805816612515e+01
1.408000000000000114e+02 2.035277175085912305e+01
1.412000000000000171e+02 2.032486957179811426e+01
1.415999999999999943e+02 2.029708073257652501e+01
1.420000000000000000e+02 2.026940445247276301e+01
1.424000000000000057e+02 2.024183995835353400e+01
1.428000000000000114e+02 2.021438648457862541e+01
1.432000000000000171e+02 2.018704327290722844e+01
1.435999999999999943e+02 2.015980957240557814e+01
1.440000000000000000e+02 2.013239903533330377e+01
1.444000000000000057e+02 2.010483055520551332e+01
1.448000000000000114e+02 2.007737267861423902e+01
1.452000000000000171e+02 2.005002465448763260e+01
1.455999999999999943e+02 2.002274247706972687e+01
1.460000000000000000e+02 1.999543784237945587e+01
1.464000000000000057e+02 1.996824184012391257e+01
1.468000000000000114e+02 1.994115373926003443e+01
1.472000000000000171e+02 1.991417281567305864e+01
1.475999999999999943e+02 1.988729835209192487e+01
1.480000000000000000e+02 1.986052963800595705e+01
1.484000000000000057e+02 1.983386596958277082e+01
1.488000000000000114e+02 1.980730664958739240e+01
1.492000000000000171e+02 1.978085098730259617e+01
1.495999999999999943e+02 1.975449829845039673e+01
1.500000000000000000e+02 1.972824790511470994e+01
