1.000000000000000000e+01 5.724539896174485420e+01
1.040000000000000036e+01 6.114141648026611620e+01
1.080000000000000071e+01 6.745624164162819625e+01
1.119999999999999929e+01 7.227004513634132365e+01
1.159999999999999964e+01 6.938656606792315529e+01
1.200000000000000000e+01 6.683714472778842719e+01
1.240000000000000036e+01 6.455751850829709326e+01
1.280000000000000071e+01 6.250032084498400309e+01
1.319999999999999929e+01 6.062958839779782494e+01
1.359999999999999964e+01 5.906290889677789124e+01
1.400000000000000000e+01 5.776776057646685558e+01
1.440000000000000036e+01 5.656822497943001338e+01
1.480000000000000071e+01 5.545260009690522196e+01
1.519999999999999929e+01 5.443134325960566855e+01
1.560000000000000142e+01 5.353332785803806360e+01
1.600000000000000000e+01 5.268750653023745656e+01
1.639999999999999858e+01 5.188869942595608364e+01
1.680000000000000071e+01 5.113244879824370059e+01
1.719999999999999929e+01 5.041489063938045234e+01
1.760000000000000142e+01 4.973265374746831924e+01
1.800000000000000000e+01 4.908277944871596787e+01
1.839999999999999858e+01 4.846265708184033372e+01
1.880000000000000071e+01 4.786997165665664511e+01
1.920000000000000284e+01 4.730266102008564388e+01
1.960000000000000142e+01 4.675888052255952942e+01
2.000000000000000000e+01 4.623697365690729555e+01
2.039999999999999858e+01 4.573544749416327448e+01
2.080000000000000071e+01 4.525295200295327902e+01
2.120000000000000284e+01 4.478826253637025445e+01
2.160000000000000142e+01 4.325032398934270361e+01
2.200000000000000000e+01 4.283007304486551448e+01
2.239999999999999858e+01 4.242456622073662942e+01
2.280000000000000071e+01 3.771788299158041724e+01
2.320000000000000284e+01 3.730815974403621738e+01
2.360000000000000142e+01 3.691153073125353501e+01
2.400000000000000000e+01 3.652729505562801648e+01
2.439999999999999858e+01 3.615480433979500674e+01
2.480000000000000071e+01 3.579345768468288469e+01
2.520000000000000284e+01 3.544269721538047691e+01
2.560000000000000142e+01 3.510200413453428325e+01
2.600000000000000000e+01 3.477089521550936979e+01
2.640000000000000213e+01 3.444891967788056064e+01
2.680000000000000071e+01 3.413565639638900961e+01
2.719999999999999929e+01 3.383071140163455937e+01
2.760000000000000142e+01 3.353371563674323852e+01
2.800000000000000000e+01 3.323084119981997020e+01
2.840000000000000213e+01 3.293180156989707541e+01
2.880000000000000071e+01 3.264032420951534164e+01
2.920000000000000284e+01 3.235609239932689718e+01
2.960000000000000142e+01 3.207880783909035927e+01
3.000000000000000000e+01 3.180818928286027614e+01
3.040000000000000213e+01 3.154397129661742838e+01
3.080000000000000071e+01 3.128590312548317343e+01
3.120000000000000284e+01 3.103374765920388256e+01
3.160000000000000142e+01 3.078728048592574140e+01
3.200000000000000000e+01 3.054389170174402324e+01
3.240000000000000568e+01 3.028830625300399504e+01
3.279999999999999716e+01 3.003840047381351397e+01
3.320000000000000284e+01 2.979396645648789743e+01
3.360000000000000142e+01 2.955480683457079749e+01
3.400000000000000000e+01 2.932073410313577000e+01
3.440000000000000568e+01 2.909156999207586836e+01
3.479999999999999716e+01 2.886714488755141161e+01
3.520000000000000284e+01 2.864729729726875718e+01
3.560000000000000142e+01 2.843187335570672758e+01
3.600000000000000000e+01 2.822072636580026028e+01
3.640000000000000568e+01 2.801371637393929959e+01
3.679999999999999716e+01 2.803793565498931173e+01
3.720000000000000284e+01 2.785047928505008130e+01
3.760000000000000142e+01 2.766648636019163376e+01
3.800000000000000000e+01 2.748585088686632361e+01
3.840000000000000568e+01 2.730847138557713549e+01
3.879999999999999716e+01 2.713425064533083741e+01
3.920000000000000284e+01 2.696309549430301900e+01
3.960000000000000142e+01 2.679491658545937582e+01
4.000000000000000000e+01 2.662962819598851283e+01
4.040000000000000568e+01 2.646714803950226980e+01
4.079999999999999716e+01 2.630739709004982529e+01
4.120000000000000284e+01 2.615029941707317462e+01
4.160000000000000142e+01 2.599578203050607073e+01
4.200000000000000000e+01 2.584377473528428482e+01
4.239999999999999858e+01 2.569420999459626742e+01
4.280000000000000426e+01 2.554702280125798097e+01
4.320000000000000284e+01 2.540215055664499744e+01
4.360000000000000142e+01 2.525953295666093368e+01
4.400000000000000000e+01 2.511911188426195451e+01
4.439999999999999858e+01 2.498083130809495600e+01
4.480000000000000426e+01 2.484463718684093436e+01
4.520000000000000284e+01 2.471047737888677176e+01
4.560000000000000142e+01 2.457830155697661212e+01
4.600000000000000000e+01 2.444716029373087096e+01
4.639999999999999858e+01 2.431680408546012728e+01
4.680000000000000426e+01 2.418832284745388250e+01
4.720000000000000284e+01 2.431381557964234474e+01
4.760000000000000142e+01 2.420570470732502244e+01
4.800000000000000000e+01 2.409899588540983473e+01
4.840000000000000568e+01 2.399365880637676796e+01
4.880000000000000426e+01 2.388966407662918812e+01
4.920000000000000284e+01 2.378698318123948496e+01
4.960000000000000142e+01 2.368558845034723603e+01
5.000000000000000000e+01 2.358545302711878122e+01
5.040000000000000568e+01 2.348655083718321634e+01
5.080000000000000426e+01 2.338885655946466002e+01
5.120000000000000284e+01 2.329234559833607321e+01
5.160000000000000142e+01 2.319699405702421302e+01
5.200000000000000000e+01 2.310277871219962975e+01
5.240000000000000568e+01 2.300967698968982234e+01
5.280000000000000426e+01 2.291766694125708881e+01
5.320000000000000284e+01 2.282672722238628893e+01
5.360000000000000142e+01 2.273683707103093354e+01
5.400000000000000000e+01 2.264797628726897472e+01
5.440000000000000568e+01 2.256012521382256963e+01
5.480000000000000426e+01 2.247326471739872034e+01
5.520000000000000284e+01 2.238737617081006448e+01
5.560000000000000142e+01 2.230244143583753313e+01
5.600000000000000000e+01 2.221844284679875869e+01
5.640000000000000568e+01 2.213536319478791725e+01
5.680000000000000426e+01 2.205318571255489246e+01
5.720000000000000284e+01 2.196134443371252587e+01
5.760000000000000142e+01 2.188486528624715532e+01
5.800000000000000000e+01 2.180918233332145206e+01
5.840000000000000568e+01 2.173428171954360266e+01
5.880000000000000426e+01 2.166014992637690284e+01
5.920000000000000284e+01 2.158677376164881068e+01
5.960000000000000142e+01 2.151414034945761600e+01
6.000000000000000000e+01 2.144223712045898367e+01
6.040000000000000568e+01 2.137105180251558778e+01
6.080000000000000426e+01 2.130057241169382820e+01
6.120000000000000284e+01 2.123078724359248071e+01
6.160000000000000142e+01 2.116168486498893131e+01
6.200000000000000000e+01 2.109007451461685889e+01
6.240000000000000568e+01 2.101785856020392629e+01
6.280000000000000426e+01 2.094636389133387411e+01
6.320000000000000284e+01 2.087557847515082088e+01
6.360000000000000142e+01 2.080549055965344607e+01
6.400000000000000000e+01 2.073608866528262240e+01
6.440000000000000568e+01 2.066736157681631170e+01
6.480000000000001137e+01 2.059929833555843004e+01
6.520000000000000284e+01 2.053188823180915534e+01
6.559999999999999432e+01 2.046512079760465497e+01
6.600000000000000000e+01 2.039898579971502102e+01
6.640000000000000568e+01 2.033347323288935371e+01
6.680000000000001137e+01 2.026857331333800971e+01
6.720000000000000284e+01 2.020427647244188307e+01
6.759999999999999432e+01 2.014057335067968069e+01
6.800000000000000000e+01 2.007745479176409731e+01
6.840000000000000568e+01 2.001318264196676466e+01
6.880000000000001137e+01 1.994949393812710525e+01
6.920000000000000284e+01 1.988638644814177070e+01
6.959999999999999432e+01 1.982385133471810690e+01
7.000000000000000000e+01 1.976187994826943850e+01
7.040000000000000568e+01 1.970046382180583677e+01
7.080000000000001137e+01 1.963959466599416004e+01
7.120000000000000284e+01 1.957926436438091855e+01
7.159999999999999432e+01 1.951946496877149784e+01
7.200000000000000000e+01 1.946018869475980750e+01
7.240000000000000568e+01 1.940142791740255035e+01
7.280000000000001137e+01 1.934317516703263351e+01
7.320000000000000284e+01 1.928542312520639967e+01
7.359999999999999432e+01 1.922816462077973654e+01
7.400000000000000000e+01 1.917139262610807293e+01
7.440000000000000568e+01 1.911510025336590601e+01
7.479999999999999716e+01 1.905928075098116636e+01
7.520000000000000284e+01 1.900392750018039223e+01
7.560000000000000853e+01 1.894903401164058110e+01
7.600000000000000000e+01 1.889459392224382484e+01
7.640000000000000568e+01 1.884060099193108329e+01
7.679999999999999716e+01 1.878704910065145484e+01
7.720000000000000284e+01 1.873393224540355817e+01
7.760000000000000853e+01 1.868124453736579937e+01
7.800000000000000000e+01 1.862898019911227721e+01
7.840000000000000568e+01 1.857713356191141685e+01
7.879999999999999716e+01 1.852569906310439052e+01
7.920000000000000284e+01 1.847467124356053603e+01
7.960000000000000853e+01 1.842404474520716917e+01
8.000000000000000000e+01 1.837381430863113962e+01
8.040000000000000568e+01 1.832397477074976422e+01
8.079999999999999716e+01 1.827452106254872177e+01
8.120000000000000284e+01 1.822544820688467127e+01
8.160000000000000853e+01 1.821187237824196359e+01
8.200000000000000000e+01 1.816515118132094386e+01
8.240000000000000568e+01 1.827916631857977592e+01
8.279999999999999716e+01 1.823532637875662843e+01
8.320000000000000284e+01 1.819180334311893432e+01
8.360000000000000853e+01 1.814859335568873178e+01
8.400000000000000000e+01 1.810569262645328337e+01
8.440000000000000568e+01 1.806309742991078693e+01
8.479999999999999716e+01 1.802080410365552865e+01
8.520000000000000284e+01 1.797880904700085125e+01
8.560000000000000853e+01 1.793710871963903131e+01
8.600000000000000000e+01 1.789569964033664462e+01
8.640000000000000568e+01 1.785457838566452793e+01
8.680000000000001137e+01 1.781374158876116809e+01
8.720000000000000284e+01 1.777318593812832859e+01
8.760000000000000853e+01 1.773290817645820994e+01
8.800000000000000000e+01 1.769290509949094314e+01
8.840000000000000568e+01 1.765317355490156359e+01
8.880000000000001137e+01 1.761371044121555585e+01
8.920000000000000284e+01 1.757451270675214516e+01
8.960000000000000853e+01 1.753557734859440131e+01
9.000000000000000000e+01 1.749690141158544776e+01
9.040000000000000568e+01 1.745848198734996259e+01
9.080000000000001137e+01 1.742031621334015412e+01
9.120000000000000284e+01 1.738240127190560713e+01
9.160000000000000853e+01 1.734473438938616852e+01
9.200000000000000000e+01 1.730731283522730735e+01
9.240000000000000568e+01 1.727013392111721046e+01
9.280000000000001137e+01 1.723319500014501671e+01
9.320000000000000284e+01 1.719649346597956097e+01
9.360000000000000853e+01 1.716002675206810579e+01
9.400000000000000000e+01 1.712379233085432872e+01
9.440000000000000568e+01 1.708778771301522426e+01
9.480000000000001137e+01 1.705201044671619215e+01
9.520000000000000284e+01 1.701620180414617067e+01
9.560000000000000853e+01 1.698054898673544955e+01
9.600000000000000000e+01 1.694511958814222297e+01
9.640000000000000568e+01 1.690991125453841093e+01
9.680000000000001137e+01 1.687492166693000684e+01
9.720000000000000284e+01 1.684014854049348031e+01
9.760000000000000853e+01 1.680558962392757749e+01
9.800000000000000000e+01 1.677124269882021679e+01
9.840000000000000568e+01 1.673710557902992235e+01
9.880000000000001137e+01 1.670317611008159275e+01
9.920000000000000284e+01 1.666945216857600087e+01
9.960000000000000853e+01 1.663593166161280834e+01
1.000000000000000000e+02 1.660261252622666817e+01
1.004000000000000057e+02 1.656949272883608160e+01
1.008000000000000114e+02 1.653657026470463620e+01
1.012000000000000028e+02 1.650384315741433028e+01
1.016000000000000085e+02 1.647130945835069582e+01
1.020000000000000000e+02 1.643896724619930438e+01
1.024000000000000057e+02 1.640681462645345334e+01
1.028000000000000114e+02 1.637484973093270924e+01
1.032000000000000028e+02 1.634298773387553894e+01
1.036000000000000085e+02 1.631129091207882809e+01
1.040000000000000000e+02 1.627977569526859725e+01
1.044000000000000057e+02 1.624844034049994690e+01
1.048000000000000114e+02 1.621728312825895912e+01
1.052000000000000028e+02 1.618630236205826023e+01
1.056000000000000085e+02 1.615549636804119515e+01
1.060000000000000000e+02 1.612486349459420154e+01
1.064000000000000057e+02 1.609440211196734438e+01
1.068000000000000114e+02 1.606411061190270217e+01
1.072000000000000028e+02 1.603398740727050154e+01
1.076000000000000085e+02 1.600403093171273028e+01
1.080000000000000000e+02 1.597423963929407620e+01
1.084000000000000057e+02 1.594461200416003521e+01
1.088000000000000114e+02 1.591514652020203258e+01
1.092000000000000028e+02 1.588584170072927293e+01
1.096000000000000085e+02 1.585669607814731030e+01
1.100000000000000000e+02 1.582770820364308584e+01
1.104000000000000057e+02 1.579887664687630888e+01
1.108000000000000114e+02 1.578001663123662190e+01
1.112000000000000028e+02 1.575174288654563526e+01
1.116000000000000085e+02 1.572361952556175524e+01
1.120000000000000000e+02 1.569564520658687634e+01
1.124000000000000057e+02 1.566781860470940835e+01
1.128000000000000114e+02 1.564013841153437845e+01
1.132000000000000028e+02 1.561260333491879315e+01
1.136000000000000085e+02 1.558521209871218360e+01
1.140000000000000000e+02 1.555796344250221175e+01
1.144000000000000057e+02 1.553085612136521831e+01
1.148000000000000114e+02 1.550388890562158295e+01
1.152000000000000028e+02 1.547706058059583256e+01
1.156000000000000085e+02 1.545036994638130778e+01
1.160000000000000000e+02 1.542381581760939468e+01
1.164000000000000057e+02 1.539739702322307657e+01
1.168000000000000114e+02 1.537111240625493380e+01
1.172000000000000028e+02 1.534496082360915281e+01
1.176000000000000085e+02 1.531894114584783750e+01
1.180000000000000000e+02 1.529305225698119841e+01
1.184000000000000057e+02 1.526729305426178129e+01
1.188000000000000114e+02 1.524166244798247050e+01
1.192000000000000028e+02 1.521615936127827595e+01
1.196000000000000085e+02 1.519078272993181855e+01
1.200000000000000000e+02 1.516553150218235757e+01
1.204000000000000057e+02 1.514040463853841700e+01
1.208000000000000114e+02 1.511540111159377986e+01
1.212000000000000028e+02 1.509051990584688951e+01
1.216000000000000085e+02 1.506576001752354443e+01
1.220000000000000000e+02 1.504112045440280276e+01
1.224000000000000057e+02 1.501660023564604529e+01
1.228000000000000114e+02 1.499219839162913814e+01
1.232000000000000028e+02 1.496791396377761174e+01
1.236000000000000085e+02 1.494374600440477963e+01
1.240000000000000000e+02 1.491969357655277761e+01
1.244000000000000057e+02 1.489575575383643979e+01
1.248000000000000114e+02 1.487193162028989946e+01
1.252000000000000028e+02 1.484822027021597890e+01
1.256000000000000085e+02 1.482462080803816917e+01
1.260000000000000000e+02 1.480113234815527967e+01
1.264000000000000057e+02 1.477773286923623530e+01
1.268000000000000114e+02 1.475443574071042896e+01
1.272000000000000028e+02 1.473124698088372497e+01
1.276000000000000085e+02 1.470816574482492811e+01
1.280000000000000000e+02 1.467490714976759847e+01
1.284000000000000057e+02 1.465249264383698247e+01
1.288000000000000114e+02 1.463018071245406482e+01
1.291999999999999886e+02 1.460797056588813803e+01
1.296000000000000227e+02 1.458586142295219723e+01
1.300000000000000000e+02 1.456385251088393318e+01
1.304000000000000057e+02 1.454194306522876978e+01
1.308000000000000114e+02 1.452013232972486101e+01
1.311999999999999886e+02 1.449841955619008971e+01
1.316000000000000227e+02 1.447680400441091564e+01
1.320000000000000000e+02 1.445528494203310999e+01
1.324000000000000057e+02 1.443386164445433906e+01
1.328000000000000114e+02 1.441253339471851547e+01
1.331999999999999886e+02 1.439129948341194165e+01
1.336000000000000227e+02 1.437015920856113382e+01
1.340000000000000000e+02 1.434911187553238854e+01
1.344000000000000057e+02 1.432815679693297639e+01
1.348000000000000114e+02 1.430729329251395399e+01
1.351999999999999886e+02 1.428652068907459594e+01
1.356000000000000227e+02 1.426583832036837940e+01
1.360000000000000000e+02 1.424524552701049984e+01
1.364000000000000057e+02 1.422474165638687182e+01
1.368000000000000114e+02 1.420432606256465924e+01
1.371999999999999886e+02 1.418399810620419288e+01
1.376000000000000227e+02 1.416375715447232686e+01
1.380000000000000000e+02 1.414360258095720368e+01
1.384000000000000057e+02 1.412353376558436224e+01
1.388000000000000114e+02 1.410355009453421893e+01
1.392000000000000171e+02 1.408365096016080109e+01
1.395999999999999943e+02 1.406383576091183230e+01
1.400000000000000000e+02 1.404410390125006103e+01
1.404000000000000057e+02 1.402445479157580088e+01
1.408000000000000114e+02 1.400488784815076215e+01
1.412000000000000171e+02 1.398540249302299543e+01
1.415999999999999943e+02 1.396599815395307864e+01
1.420000000000000000e+02 1.394667426434138946e+01
1.424000000000000057e+02 1.392743026315658383e+01
1.428000000000000114e+02 1.390826559486511371e+01
1.432000000000000171e+02 1.388917970936188340e+01
1.435999999999999943e+02 1.387017206190196639e+01
1.440000000000000000e+02 1.385034629622183644e+01
1.444000000000000057e+02 1.383157517412292137e+01
1.448000000000000114e+02 1.381288048561882320e+01
1.452000000000000171e+02 1.379426170659276352e+01
1.455999999999999943e+02 1.377571831798232083e+01
1.460000000000000000e+02 1.375724980571662570e+01
1.464000000000000057e+02 1.373885566065450980e+01
1.468000000000000114e+02 1.372053537852362659e+01
1.472000000000000171e+02 1.370228845986045130e+01
1.475999999999999943e+02 1.368411440995119399e+01
1.480000000000000000e+02 1.366601273877362388e+01
1.484000000000000057e+02 1.364798296093974628e+01
1.488000000000000114e+02 1.363002459563933400e+01
1.492000000000000171e+02 1.361213716658429895e+01
1.495999999999999943e+02 1.359432020195393243e+01
1.500000000000000000e+02 1.357657323434086294e+01
