1.000000000000000000e+01 4.579519286343517592e+01
1.040000000000000036e+01 5.623799698262953228e+01
1.080000000000000071e+01 7.036482509559837695e+01
1.119999999999999929e+01 8.155593045130797236e+01
1.159999999999999964e+01 7.758606564728236776e+01
1.200000000000000000e+01 7.414912947996094772e+01
1.240000000000000036e+01 7.113227065207412636e+01
1.280000000000000071e+01 6.845415954768213851e+01
1.319999999999999929e+01 6.605433828808537555e+01
1.359999999999999964e+01 6.403226945992985009e+01
1.400000000000000000e+01 6.234172766928175236e+01
1.440000000000000036e+01 6.079624205338403442e+01
1.480000000000000071e+01 5.937585500402519756e+01
1.519999999999999929e+01 5.806429436126293808e+01
1.560000000000000142e+01 5.684813426185633034e+01
1.600000000000000000e+01 5.571618004650414946e+01
1.639999999999999858e+01 5.465900935219514167e+01
1.680000000000000071e+01 5.366862430692742691e+01
1.719999999999999929e+01 5.273818419603712471e+01
1.760000000000000142e+01 5.186179736403926199e+01
1.800000000000000000e+01 5.106237130387469847e+01
1.839999999999999858e+01 5.045563457651257977e+01
1.880000000000000071e+01 4.987999442597923405e+01
1.920000000000000284e+01 4.933280320467424929e+01
1.960000000000000142e+01 4.881172023804727189e+01
2.000000000000000000e+01 4.831466736196728107e+01
2.039999999999999858e+01 4.783979211337171478e+01
2.080000000000000071e+01 4.738543705947003559e+01
2.120000000000000284e+01 4.695011408750419690e+01
2.160000000000000142e+01 4.653248273117461764e+01
2.200000000000000000e+01 4.613133180339993089e+01
2.239999999999999858e+01 4.574556375381391149e+01
2.280000000000000071e+01 4.105913263948758640e+01
2.320000000000000284e+01 4.067006637970305860e+01
2.360000000000000142e+01 4.029440531860392838e+01
2.400000000000000000e+01 3.993136718725058643e+01
2.439999999999999858e+01 3.958023306146398568e+01
2.480000000000000071e+01 3.924034086261012533e+01
2.520000000000000284e+01 3.891107965995372808e+01
2.560000000000000142e+01 3.859188465978145643e+01
2.600000000000000000e+01 3.828223278512625427e+01
2.640000000000000213e+01 3.798163876519072346e+01
2.680000000000000071e+01 3.768965166613621420e+01
2.719999999999999929e+01 3.740585180529811282e+01
2.760000000000000142e+01 3.712984799952065629e+01
2.800000000000000000e+01 3.686127510550354458e+01
2.840000000000000213e+01 3.659979181608029819e+01
2.880000000000000071e+01 3.634507868141258768e+01
2.920000000000000284e+01 3.609683632835735523e+01
2.960000000000000142e+01 3.585478385487824937e+01
3.000000000000000000e+01 3.561865737944241772e+01
3.040000000000000213e+01 3.206354447035004540e+01
3.080000000000000071e+01 3.179849244865652125e+01
3.120000000000000284e+01 3.153989654677826593e+01
3.160000000000000142e+01 3.128749564704050101e+01
3.200000000000000000e+01 3.103864596008710208e+01
3.240000000000000568e+01 3.077804111659965258e+01
3.279999999999999716e+01 3.052352847966822225e+01
3.320000000000000284e+01 3.027487331262685188e+01
3.360000000000000142e+01 3.003185337945899747e+01
3.400000000000000000e+01 2.979425810025648147e+01
3.440000000000000568e+01 2.956188777549249735e+01
3.479999999999999716e+01 2.933455287256888511e+01
3.520000000000000284e+01 2.911207336880571006e+01
3.560000000000000142e+01 2.889427814566319341e+01
3.600000000000000000e+01 2.868100442953420881e+01
3.640000000000000568e+01 2.847209727492854725e+01
3.679999999999999716e+01 2.826740908629793125e+01
3.720000000000000284e+01 2.806679917512850864e+01
3.760000000000000142e+01 2.787013334926390229e+01
3.800000000000000000e+01 2.767728353171951028e+01
3.840000000000000568e+01 2.748812740651454334e+01
3.879999999999999716e+01 2.730254808928495081e+01
3.920000000000000284e+01 2.712043382065118635e+01
3.960000000000000142e+01 2.694167768050445844e+01
4.000000000000000000e+01 2.676617732154341667e+01
4.040000000000000568e+01 2.659383472054553721e+01
4.079999999999999716e+01 2.642455594599361035e+01
4.120000000000000284e+01 2.625825094079981170e+01
4.160000000000000142e+01 2.609483331898087854e+01
4.200000000000000000e+01 2.593422017523663925e+01
4.239999999999999858e+01 2.577633190647449268e+01
4.280000000000000426e+01 2.562109204440326948e+01
4.320000000000000284e+01 2.546274881228108455e+01
4.360000000000000142e+01 2.530598906352762612e+01
4.400000000000000000e+01 2.515176921679754685e+01
4.439999999999999858e+01 2.500002142641541525e+01
4.480000000000000426e+01 2.485068036323306018e+01
4.520000000000000284e+01 2.470368309567821186e+01
4.560000000000000142e+01 2.455896897761144970e+01
4.600000000000000000e+01 2.441647954253529917e+01
4.639999999999999858e+01 2.427615840373442069e+01
4.680000000000000426e+01 2.413795115995716856e+01
4.720000000000000284e+01 2.425394898085841788e+01
4.760000000000000142e+01 2.413656679033178776e+01
4.800000000000000000e+01 2.402080305396610527e+01
4.840000000000000568e+01 2.390662057123110884e+01
4.880000000000000426e+01 2.379398333698680545e+01
4.920000000000000284e+01 2.368285649225932943e+01
4.960000000000000142e+01 2.357320627748303110e+01
5.000000000000000000e+01 2.346499998806332243e+01
5.040000000000000568e+01 2.335820593212498864e+01
5.080000000000000426e+01 2.325279339031963843e+01
5.120000000000000284e+01 2.314873257757420788e+01
5.160000000000000142e+01 2.304599460667041555e+01
5.200000000000000000e+01 2.294455145355208359e+01
5.240000000000000568e+01 2.284437592426393593e+01
5.280000000000000426e+01 2.274544162343160991e+01
5.320000000000000284e+01 2.264772292419854693e+01
5.360000000000000142e+01 2.255119493954035903e+01
5.400000000000000000e+01 2.245583349488263281e+01
5.440000000000000568e+01 2.236161510195241675e+01
5.480000000000000426e+01 2.226851693379801134e+01
5.520000000000000284e+01 2.217651680091568878e+01
5.560000000000000142e+01 2.208559312842570321e+01
5.600000000000000000e+01 2.199572493424321351e+01
5.640000000000000568e+01 2.190689180819322246e+01
5.680000000000000426e+01 2.181907389202136471e+01
5.720000000000000284e+01 2.173225186025557676e+01
5.760000000000000142e+01 2.164640690187570016e+01
5.800000000000000000e+01 2.156152070275119215e+01
5.840000000000000568e+01 2.147757542880888337e+01
5.880000000000000426e+01 2.139455370989519878e+01
5.920000000000000284e+01 2.131243862429897007e+01
5.960000000000000142e+01 2.123121368390324193e+01
6.000000000000000000e+01 2.118837934584031402e+01
6.040000000000000568e+01 2.111838757744832762e+01
6.080000000000000426e+01 2.104909474163623884e+01
6.120000000000000284e+01 2.098048913811915739e+01
6.160000000000000142e+01 2.091255934013783246e+01
6.200000000000000000e+01 2.084211459511075759e+01
6.240000000000000568e+01 2.077105728155194342e+01
6.280000000000000426e+01 2.070071430181867100e+01
6.320000000000000284e+01 2.063107363770673430e+01
6.360000000000000142e+01 2.056212355364044342e+01
6.400000000000000000e+01 2.049385258816106870e+01
6.440000000000000568e+01 2.042624954572695373e+01
6.480000000000001137e+01 2.035930348881211671e+01
6.520000000000000284e+01 2.029300373029033366e+01
6.559999999999999432e+01 2.022733982609271663e+01
6.600000000000000000e+01 2.016230156812729035e+01
6.640000000000000568e+01 2.009787897744933716e+01
6.680000000000001137e+01 2.003406229767236368e+01
6.720000000000000284e+01 1.997084198860946458e+01
6.759999999999999432e+01 1.990820872013578935e+01
6.800000000000000000e+01 1.984615336626295701e+01
6.840000000000000568e+01 1.978466699941689200e+01
6.880000000000001137e+01 1.972374088491077160e+01
6.920000000000000284e+01 1.966336647560538964e+01
6.959999999999999432e+01 1.960353540674933015e+01
7.000000000000000000e+01 1.954423949099190594e+01
7.040000000000000568e+01 1.948547071356205862e+01
7.080000000000001137e+01 1.942722122760668313e+01
7.120000000000000284e+01 1.936948334968219143e+01
7.159999999999999432e+01 1.931224955539343924e+01
7.200000000000000000e+01 1.925551247517423548e+01
7.240000000000000568e+01 1.919926489020417648e+01
7.280000000000001137e+01 1.914349972845645453e+01
7.320000000000000284e+01 1.908821006087190142e+01
7.359999999999999432e+01 1.903338909765427900e+01
7.400000000000000000e+01 1.897903018468252867e+01
7.440000000000000568e+01 1.892512680003550685e+01
7.479999999999999716e+01 1.887167255062503557e+01
7.520000000000000284e+01 1.881866116893342422e+01
7.560000000000000853e+01 1.876608650985149751e+01
7.600000000000000000e+01 1.871394254761359477e+01
7.640000000000000568e+01 1.866222337282599852e+01
7.679999999999999716e+01 1.860963856018395290e+01
7.720000000000000284e+01 1.855569559171469507e+01
7.760000000000000853e+01 1.850220094002763105e+01
7.800000000000000000e+01 1.844914838138627289e+01
7.840000000000000568e+01 1.839653181295449969e+01
7.879999999999999716e+01 1.834434524978492220e+01
7.920000000000000284e+01 1.829258282189861617e+01
7.960000000000000853e+01 1.824123877145297001e+01
8.000000000000000000e+01 1.819030744999444238e+01
8.040000000000000568e+01 1.813978331579333769e+01
8.079999999999999716e+01 1.808966093125759755e+01
8.120000000000000284e+01 1.803993496042297551e+01
8.160000000000000853e+01 1.799060016651684890e+01
8.200000000000000000e+01 1.794165140959317739e+01
8.240000000000000568e+01 1.805347172167134318e+01
8.279999999999999716e+01 1.800746907594003687e+01
8.320000000000000284e+01 1.796181485260511934e+01
8.360000000000000853e+01 1.791650460870525663e+01
8.400000000000000000e+01 1.787153398092617351e+01
8.440000000000000568e+01 1.782689868376317577e+01
8.479999999999999716e+01 1.778259450773553141e+01
8.520000000000000284e+01 1.773861731765081018e+01
8.560000000000000853e+01 1.769496305091765720e+01
8.600000000000000000e+01 1.765162771590536295e+01
8.640000000000000568e+01 1.760860739034870548e+01
8.680000000000001137e+01 1.756589821979657273e+01
8.720000000000000284e+01 1.752349641610296160e+01
8.760000000000000853e+01 1.748139825595899310e+01
8.800000000000000000e+01 1.743960007946463975e+01
8.840000000000000568e+01 1.739809828873886133e+01
8.880000000000001137e+01 1.735688934656695892e+01
8.920000000000000284e+01 1.731596977508392143e+01
8.960000000000000853e+01 1.727533615449276283e+01
9.000000000000000000e+01 1.723498512181661724e+01
9.040000000000000568e+01 1.719491336968354034e+01
9.080000000000001137e+01 1.715511764514316440e+01
9.120000000000000284e+01 1.711559474851402385e+01
9.160000000000000853e+01 1.707634153226074858e+01
9.200000000000000000e+01 1.703735489990017982e+01
9.240000000000000568e+01 1.699863180493542814e+01
9.280000000000001137e+01 1.696016924981728380e+01
9.320000000000000284e+01 1.692196428493179994e+01
9.360000000000000853e+01 1.688401400761359383e+01
9.400000000000000000e+01 1.684631556118390705e+01
9.440000000000000568e+01 1.680886613401274587e+01
9.480000000000001137e+01 1.677166295860438083e+01
9.520000000000000284e+01 1.673470331070556938e+01
9.560000000000000853e+01 1.669798450843572368e+01
9.600000000000000000e+01 1.666150391143853327e+01
9.640000000000000568e+01 1.662525892005424311e+01
9.680000000000001137e+01 1.658924697451220354e+01
9.720000000000000284e+01 1.655346555414289256e+01
9.760000000000000853e+01 1.651791217660901623e+01
9.800000000000000000e+01 1.648258439715508672e+01
9.840000000000000568e+01 1.644747980787486696e+01
9.880000000000001137e+01 1.641259603699637992e+01
9.920000000000000284e+01 1.649768946670515390e+01
9.960000000000000853e+01 1.646492762608960803e+01
1.000000000000000000e+02 1.643236379070502551e+01
1.004000000000000057e+02 1.639999593609564243e+01
1.008000000000000114e+02 1.636782206698150333e+01
1.012000000000000028e+02 1.633584021671608255e+01
1.016000000000000085e+02 1.630404844675635445e+01
1.020000000000000000e+02 1.627244484614475439e+01
1.024000000000000057e+02 1.624102753100287799e+01
1.028000000000000114e+02 1.620979464403657033e+01
1.032000000000000028e+02 1.617866137061560039e+01
1.036000000000000085e+02 1.614768999890070234e+01
1.040000000000000000e+02 1.611689697020224088e+01
1.044000000000000057e+02 1.608628055336865970e+01
1.048000000000000114e+02 1.605583904087717784e+01
1.052000000000000028e+02 1.602557074841867646e+01
1.056000000000000085e+02 1.599547401449153128e+01
1.060000000000000000e+02 1.596554720000405325e+01
1.064000000000000057e+02 1.593578868788546288e+01
1.068000000000000114e+02 1.590619688270508014e+01
1.072000000000000028e+02 1.587677021029956848e+01
1.076000000000000085e+02 1.584750711740802132e+01
1.080000000000000000e+02 1.581840607131471899e+01
1.084000000000000057e+02 1.578946555949930541e+01
1.088000000000000114e+02 1.576068408929428699e+01
1.092000000000000028e+02 1.573206018754960311e+01
1.096000000000000085e+02 1.570359240030411208e+01
1.100000000000000000e+02 1.567527929246388041e+01
1.104000000000000057e+02 1.564711944748699146e+01
1.108000000000000114e+02 1.561911146707485898e+01
1.112000000000000028e+02 1.559125397086975440e+01
1.116000000000000085e+02 1.556354559615851230e+01
1.120000000000000000e+02 1.553598499758220797e+01
1.124000000000000057e+02 1.550857084685160636e+01
1.128000000000000114e+02 1.548130183246841263e+01
1.132000000000000028e+02 1.545417665945201513e+01
1.136000000000000085e+02 1.542719404907169078e+01
1.140000000000000000e+02 1.540035273858408971e+01
1.144000000000000057e+02 1.537365148097594236e+01
1.148000000000000114e+02 1.534708904471179025e+01
1.152000000000000028e+02 1.532066421348668150e+01
1.156000000000000085e+02 1.529437578598367331e+01
1.160000000000000000e+02 1.526822257563609142e+01
1.164000000000000057e+02 1.524220341039432469e+01
1.168000000000000114e+02 1.521631713249724882e+01
1.172000000000000028e+02 1.519056259824788668e+01
1.176000000000000085e+02 1.516493867779351845e+01
1.180000000000000000e+02 1.513944425490990753e+01
1.184000000000000057e+02 1.511407822678965474e+01
1.188000000000000114e+02 1.508883950383460260e+01
1.192000000000000028e+02 1.506372700945210141e+01
1.196000000000000085e+02 1.503873967985518334e+01
1.200000000000000000e+02 1.501387646386642416e+01
1.204000000000000057e+02 1.498913632272553542e+01
1.208000000000000114e+02 1.496451822990050395e+01
1.212000000000000028e+02 1.493995890244729807e+01
1.216000000000000085e+02 1.491547338998774208e+01
1.220000000000000000e+02 1.489110706003601692e+01
1.224000000000000057e+02 1.486685893725038277e+01
1.228000000000000114e+02 1.484272805750065416e+01
1.232000000000000028e+02 1.481871346770252273e+01
1.236000000000000085e+02 1.479481422565476656e+01
1.240000000000000000e+02 1.477102939987949171e+01
1.244000000000000057e+02 1.474735806946516092e+01
1.248000000000000114e+02 1.472379932391247337e+01
1.252000000000000028e+02 1.470035226298295683e+01
1.256000000000000085e+02 1.467701599655025468e+01
1.260000000000000000e+02 1.465378964445407384e+01
1.264000000000000057e+02 1.463067233635665687e+01
1.268000000000000114e+02 1.460766321160181747e+01
1.272000000000000028e+02 1.458476141907640766e+01
1.276000000000000085e+02 1.456196611707425959e+01
1.280000000000000000e+02 1.452899242609133523e+01
1.284000000000000057e+02 1.450686179755096816e+01
1.288000000000000114e+02 1.448483272020628299e+01
1.291999999999999886e+02 1.446290440769117502e+01
1.296000000000000227e+02 1.444107608221417927e+01
1.300000000000000000e+02 1.441934697443794278e+01
1.304000000000000057e+02 1.439771632336084650e+01
1.308000000000000114e+02 1.437618337620056863e+01
1.311999999999999886e+02 1.435474738827972097e+01
1.316000000000000227e+02 1.433340762291337889e+01
1.320000000000000000e+02 1.431216335129853334e+01
1.324000000000000057e+02 1.429101385240540978e+01
1.328000000000000114e+02 1.426995841287063804e+01
1.331999999999999886e+02 1.424899632689219331e+01
1.336000000000000227e+02 1.422812689612608850e+01
1.340000000000000000e+02 1.420734942958484481e+01
1.344000000000000057e+02 1.418666324353761077e+01
1.348000000000000114e+02 1.416606766141191542e+01
1.351999999999999886e+02 1.414556201369712518e+01
1.356000000000000227e+02 1.412514563784941402e+01
1.360000000000000000e+02 1.410481787819836441e+01
1.364000000000000057e+02 1.408457808585502491e+01
1.368000000000000114e+02 1.406442561862155927e+01
1.371999999999999886e+02 1.404435984090227763e+01
1.376000000000000227e+02 1.402438012361619712e+01
1.380000000000000000e+02 1.400448584411096675e+01
1.384000000000000057e+02 1.398467638607816887e+01
1.388000000000000114e+02 1.396495113947006672e+01
1.392000000000000171e+02 1.394530950041760242e+01
1.395999999999999943e+02 1.392575087114973442e+01
1.400000000000000000e+02 1.390627465991409117e+01
1.404000000000000057e+02 1.388688028089884519e+01
1.408000000000000114e+02 1.386756715415586427e+01
1.412000000000000171e+02 1.384833470552505119e+01
1.415999999999999943e+02 1.382918236655990185e+01
1.420000000000000000e+02 1.381010957445419685e+01
1.424000000000000057e+02 1.379111577196989735e+01
1.428000000000000114e+02 1.377220040736611040e+01
1.432000000000000171e+02 1.375336293432920698e+01
1.435999999999999943e+02 1.373460281190402021e+01
1.440000000000000000e+02 1.371591950442606311e+01
1.444000000000000057e+02 1.369731248145487790e+01
1.448000000000000114e+02 1.367878121770833388e+01
1.452000000000000171e+02 1.366032519299797521e+01
1.455999999999999943e+02 1.364194389216537751e+01
1.460000000000000000e+02 1.362363680501941410e+01
1.464000000000000057e+02 1.360540342627454180e+01
1.468000000000000114e+02 1.358724325549000511e+01
1.472000000000000171e+02 1.356915579700994456e+01
1.475999999999999943e+02 1.354493204965477204e+01
1.480000000000000000e+02 1.352732279090148282e+01
1.484000000000000057e+02 1.350978302613236437e+01
1.488000000000000114e+02 1.349231229167396506e+01
1.492000000000000171e+02 1.347491012821530276e+01
1.495999999999999943e+02 1.345757608075495426e+01
1.500000000000000000e+02 1.344030969854881619e+01
