1.000000000000000000e+01 1.502481769618065357e+02
1.040000000000000036e+01 1.476941316535134092e+02
1.080000000000000071e+01 1.462069806111849175e+02
1.119999999999999929e+01 1.453301184027388331e+02
1.159999999999999964e+01 1.469054387944422331e+02
1.200000000000000000e+01 1.431678315840469224e+02
1.240000000000000036e+01 1.397478549194441086e+02
1.280000000000000071e+01 1.300770075630475446e+02
1.319999999999999929e+01 1.273340467748030989e+02
1.359999999999999964e+01 1.247752815658378722e+02
1.400000000000000000e+01 1.223876142462349037e+02
1.440000000000000036e+01 1.201338147115673536e+02
1.480000000000000071e+01 1.180012989630549498e+02
1.519999999999999929e+01 1.159791522995012087e+02
1.560000000000000142e+01 1.140578410812539403e+02
1.600000000000000000e+01 1.122289862480000551e+02
1.639999999999999858e+01 1.104851827289020036e+02
1.680000000000000071e+01 1.087502456149628642e+02
1.719999999999999929e+01 1.073230416745373077e+02
1.760000000000000142e+01 1.059593344268245829e+02
1.800000000000000000e+01 1.046543131815464562e+02
1.839999999999999858e+01 1.034036823822357718e+02
1.880000000000000071e+01 1.022035902046161198e+02
1.920000000000000284e+01 1.010505692970827312e+02
1.960000000000000142e+01 9.945329300404145556e+01
2.000000000000000000e+01 9.841790223783858949e+01
2.039999999999999858e+01 9.741983249712001225e+01
2.080000000000000071e+01 9.645679298944200752e+01
2.120000000000000284e+01 9.552669058469493280e+01
2.160000000000000142e+01 9.462760787643414062e+01
2.200000000000000000e+01 9.375778421557285469e+01
2.239999999999999858e+01 9.291559924190850950e+01
2.280000000000000071e+01 9.209955852594251269e+01
2.320000000000000284e+01 9.130828100249522095e+01
2.360000000000000142e+01 9.054048793281123153e+01
2.400000000000000000e+01 8.979499317627363553e+01
2.439999999999999858e+01 8.907069458883131574e+01
2.480000000000000071e+01 8.964168180890864335e+01
2.520000000000000284e+01 8.898477476525053476e+01
2.560000000000000142e+01 8.833574828459056505e+01
2.600000000000000000e+01 8.770321211205072132e+01
2.640000000000000213e+01 8.708645571860513712e+01
2.680000000000000071e+01 8.648481115039872691e+01
2.719999999999999929e+01 8.590757908850196145e+01
2.760000000000000142e+01 8.538523676348607694e+01
2.800000000000000000e+01 8.487483112911714045e+01
2.840000000000000213e+01 8.437588993531146286e+01
2.880000000000000071e+01 8.388796711040988896e+01
2.920000000000000284e+01 8.341064091329405983e+01
2.960000000000000142e+01 8.294351224281575696e+01
3.000000000000000000e+01 8.248620308894933828e+01
3.040000000000000213e+01 8.203835511183085316e+01
3.080000000000000071e+01 8.159962833638159907e+01
3.120000000000000284e+01 8.116969995155915285e+01
3.160000000000000142e+01 7.475449248524115831e+01
3.200000000000000000e+01 7.427298014895396250e+01
3.240000000000000568e+01 7.380115941588759654e+01
3.279999999999999716e+01 7.333870181710948088e+01
3.320000000000000284e+01 7.288479092520137215e+01
3.360000000000000142e+01 7.263702360610187725e+01
3.400000000000000000e+01 7.221022998475415022e+01
3.440000000000000568e+01 7.179137711523428322e+01
3.479999999999999716e+01 7.138021469587813783e+01
3.520000000000000284e+01 7.097650346885900774e+01
3.560000000000000142e+01 7.058001459729173632e+01
3.600000000000000000e+01 7.019052908494228404e+01
3.640000000000000568e+01 6.980783723512881522e+01
3.679999999999999716e+01 6.943173814571224511e+01
3.720000000000000284e+01 6.906203923735530736e+01
3.760000000000000142e+01 6.869855581248194198e+01
3.800000000000000000e+01 6.834111064259464285e+01
3.840000000000000568e+01 6.798953358181269380e+01
3.879999999999999716e+01 6.764366120467798282e+01
3.920000000000000284e+01 6.730333646644199064e+01
3.960000000000000142e+01 6.696840838419726083e+01
4.000000000000000000e+01 6.663873173735419186e+01
4.040000000000000568e+01 6.631416678608607640e+01
4.079999999999999716e+01 6.599457900647890085e+01
4.120000000000000284e+01 6.567983884122249094e+01
4.160000000000000142e+01 6.536982146477399169e+01
4.200000000000000000e+01 6.506440656200774697e+01
4.239999999999999858e+01 6.476216760229350200e+01
4.280000000000000426e+01 6.446374371640179390e+01
4.320000000000000284e+01 6.416962047128984636e+01
4.360000000000000142e+01 6.387969268762879693e+01
4.400000000000000000e+01 6.359385879709900280e+01
4.439999999999999858e+01 6.331202068350593493e+01
4.480000000000000426e+01 6.303408353239274220e+01
4.520000000000000284e+01 6.281293025944726338e+01
4.560000000000000142e+01 6.254174012957619766e+01
4.600000000000000000e+01 6.227423457849891975e+01
4.639999999999999858e+01 6.200954550847774271e+01
4.680000000000000426e+01 6.174182761054827040e+01
4.720000000000000284e+01 6.147764025484357120e+01
4.760000000000000142e+01 6.121690453316236358e+01
4.800000000000000000e+01 6.095954401821914104e+01
4.840000000000000568e+01 6.070548466340787286e+01
4.880000000000000426e+01 6.045465470750106363e+01
4.920000000000000284e+01 6.020698458399816388e+01
4.960000000000000142e+01 5.996240683485633838e+01
5.000000000000000000e+01 5.972085602835427665e+01
5.040000000000000568e+01 5.948226868085565400e+01
5.080000000000000426e+01 5.924658318225502995e+01
5.120000000000000284e+01 5.901373972490111441e+01
5.160000000000000142e+01 5.878368023580739532e+01
5.200000000000000000e+01 5.659891805734375225e+01
5.240000000000000568e+01 5.636654900858432882e+01
5.280000000000000426e+01 5.613693163363635819e+01
5.320000000000000284e+01 5.591363715168574089e+01
5.360000000000000142e+01 5.569233698122138776e+01
5.400000000000000000e+01 5.547358320041039548e+01
5.440000000000000568e+01 5.525732673774984249e+01
5.480000000000000426e+01 5.504351984670857689e+01
5.520000000000000284e+01 5.483211605979735737e+01
5.560000000000000142e+01 5.462307014457987719e+01
5.600000000000000000e+01 5.441633806152814401e+01
5.640000000000000568e+01 5.421187692363101007e+01
5.680000000000000426e+01 5.400969262118812964e+01
5.720000000000000284e+01 5.381005933632871319e+01
5.760000000000000142e+01 5.361255593532155928e+01
5.800000000000000000e+01 5.341714444580390619e+01
5.840000000000000568e+01 5.322378784240328287e+01
5.880000000000000426e+01 5.303245001646283185e+01
5.920000000000000284e+01 5.284309574694457723e+01
5.960000000000000142e+01 5.265569067245722579e+01
6.000000000000000000e+01 5.247020126435664622e+01
6.040000000000000568e+01 5.228659480087131328e+01
6.080000000000000426e+01 5.210483934220638957e+01
6.120000000000000284e+01 5.192490370658291710e+01
6.160000000000000142e+01 5.174675744717104919e+01
6.200000000000000000e+01 5.157037082987775278e+01
6.240000000000000568e+01 5.139571481195198999e+01
6.280000000000000426e+01 5.122276102137188047e+01
6.320000000000000284e+01 5.105148173698018610e+01
6.360000000000000142e+01 5.088184986933617893e+01
6.400000000000000000e+01 5.071269835659009573e+01
6.440000000000000568e+01 5.054509231506826694e+01
6.480000000000001137e+01 5.037907198808173348e+01
6.520000000000000284e+01 5.021461232317926004e+01
6.559999999999999432e+01 5.005168882166460520e+01
6.600000000000000000e+01 4.989027752289998574e+01
6.640000000000000568e+01 4.986333275650351027e+01
6.680000000000001137e+01 4.971294284713279410e+01
6.720000000000000284e+01 4.956390641609951331e+01
6.759999999999999432e+01 4.941620301355918343e+01
6.800000000000000000e+01 4.926981262216443724e+01
6.840000000000000568e+01 4.912471564534072144e+01
6.880000000000001137e+01 4.898089289594877727e+01
6.920000000000000284e+01 4.883832558531918266e+01
6.959999999999999432e+01 4.869699531264411974e+01
7.000000000000000000e+01 4.855688405471308045e+01
7.040000000000000568e+01 4.841797415597920917e+01
7.080000000000001137e+01 4.828024831894380497e+01
7.120000000000000284e+01 4.814368959484679067e+01
7.159999999999999432e+01 4.797130239202482471e+01
7.200000000000000000e+01 4.783804572417308520e+01
7.240000000000000568e+01 4.770590038664663268e+01
7.280000000000001137e+01 4.757485078407331258e+01
7.320000000000000284e+01 4.744488162794484509e+01
7.359999999999999432e+01 4.731597792886624632e+01
7.400000000000000000e+01 4.718812498904428310e+01
7.440000000000000568e+01 4.706130839500534790e+01
7.479999999999999716e+01 4.693551401053534278e+01
7.520000000000000284e+01 4.681072796983307427e+01
7.560000000000000853e+01 4.668693667086967025e+01
7.600000000000000000e+01 4.656412676894692737e+01
7.640000000000000568e+01 4.644228517044721372e+01
7.679999999999999716e+01 4.634482671302156120e+01
7.720000000000000284e+01 4.622358435267779697e+01
7.760000000000000853e+01 4.610290423584946495e+01
7.800000000000000000e+01 4.598315880496788566e+01
7.840000000000000568e+01 4.586433589248558462e+01
7.879999999999999716e+01 4.574642355301853769e+01
7.920000000000000284e+01 4.562941005813748063e+01
7.960000000000000853e+01 4.551328389130796381e+01
8.000000000000000000e+01 4.539803374297448357e+01
8.040000000000000568e+01 4.528364850578334710e+01
8.079999999999999716e+01 4.517011726994018517e+01
8.120000000000000284e+01 4.505742931869732359e+01
8.160000000000000853e+01 4.494557412396679297e+01
8.200000000000000000e+01 4.483454134205491215e+01
8.240000000000000568e+01 4.472432080951441691e+01
8.279999999999999716e+01 4.461490253911038906e+01
8.320000000000000284e+01 4.450627671589622025e+01
8.360000000000000853e+01 4.439843369339614298e+01
8.400000000000000000e+01 4.429136398989086842e+01
8.440000000000000568e+01 4.418505828480308395e+01
8.479999999999999716e+01 4.407950741517969107e+01
8.520000000000000284e+01 4.397470237226756495e+01
8.560000000000000853e+01 4.387063429818012139e+01
8.600000000000000000e+01 4.376718645851314449e+01
8.640000000000000568e+01 4.366188932178310012e+01
8.680000000000001137e+01 4.355704475397382680e+01
8.720000000000000284e+01 4.345293118540235611e+01
8.760000000000000853e+01 4.334954006700843365e+01
8.800000000000000000e+01 4.324686299003341361e+01
8.840000000000000568e+01 4.314489168306108979e+01
8.880000000000001137e+01 4.304361800913461877e+01
8.920000000000000284e+01 4.294303396294722575e+01
8.960000000000000853e+01 4.284313166810457574e+01
9.000000000000000000e+01 4.274372586146553488e+01
9.040000000000000568e+01 4.264492353851723294e+01
9.080000000000001137e+01 4.254678224107352946e+01
9.120000000000000284e+01 4.244929455414627739e+01
9.160000000000000853e+01 4.235245317946267818e+01
9.200000000000000000e+01 4.225625093310407010e+01
9.240000000000000568e+01 4.216068074320283188e+01
9.280000000000001137e+01 4.206573564769612261e+01
9.320000000000000284e+01 4.197140879213436904e+01
9.360000000000000853e+01 4.187769342754319979e+01
9.400000000000000000e+01 4.178458290833717115e+01
9.440000000000000568e+01 4.169207069028392709e+01
9.480000000000001137e+01 4.160015032851716654e+01
9.520000000000000284e+01 4.150881547559717433e+01
9.560000000000000853e+01 4.141805987961761559e+01
9.600000000000000000e+01 4.132787738235712283e+01
9.640000000000000568e+01 4.123826191747454573e+01
9.680000000000001137e+01 4.114920750874671285e+01
9.720000000000000284e+01 4.106070826834733367e+01
9.760000000000000853e+01 4.097275839516599660e+01
9.800000000000000000e+01 4.088535217316632497e+01
9.840000000000000568e+01 4.079848396978194103e+01
9.880000000000001137e+01 4.071214823434931418e+01
9.920000000000000284e+01 4.062633949657666221e+01
9.960000000000000853e+01 4.054105236504763354e+01
1.000000000000000000e+02 4.045628152575909553e+01
1.004000000000000057e+02 4.037202174069190619e+01
1.008000000000000114e+02 4.028826784641402980e+01
1.012000000000000028e+02 4.020501475271483116e+01
1.016000000000000085e+02 4.012225744127000837e+01
1.020000000000000000e+02 4.003999096433616245e+01
1.024000000000000057e+02 3.995821044347445650e+01
1.028000000000000114e+02 3.987691106830216370e+01
1.032000000000000028e+02 3.979608809527197621e+01
1.036000000000000085e+02 3.973010564159649505e+01
1.040000000000000000e+02 3.965098529070284172e+01
1.044000000000000057e+02 3.957232124393941319e+01
1.048000000000000114e+02 3.949410908853631952e+01
1.052000000000000028e+02 3.942228498719349972e+01
1.056000000000000085e+02 3.934519628990080520e+01
1.060000000000000000e+02 3.926854514605613389e+01
1.064000000000000057e+02 3.919232738896317869e+01
1.068000000000000114e+02 3.911653890765143160e+01
1.072000000000000028e+02 3.904117564591750522e+01
1.076000000000000085e+02 3.896623360138647740e+01
1.080000000000000000e+02 3.889170882459299605e+01
1.084000000000000057e+02 3.881759741808132702e+01
1.088000000000000114e+02 3.874389553552437349e+01
1.092000000000000028e+02 3.867059938086065785e+01
1.096000000000000085e+02 3.859770520744930167e+01
1.100000000000000000e+02 3.852520931724218656e+01
1.104000000000000057e+02 3.855625553968330621e+01
1.108000000000000114e+02 3.854211691122801398e+01
1.112000000000000028e+02 3.847553498323413379e+01
1.116000000000000085e+02 3.840930113034162474e+01
1.120000000000000000e+02 3.834341228019809478e+01
1.124000000000000057e+02 3.827786539860792914e+01
1.128000000000000114e+02 3.821265748892214020e+01
1.132000000000000028e+02 3.814778559144015446e+01
1.136000000000000085e+02 3.808324678282318132e+01
1.140000000000000000e+02 3.801903817551922060e+01
1.144000000000000057e+02 3.795515691719875662e+01
1.148000000000000114e+02 3.789160019020172143e+01
1.152000000000000028e+02 3.782836521099488891e+01
1.156000000000000085e+02 3.776544922963957873e+01
1.160000000000000000e+02 3.770284952926971300e+01
1.164000000000000057e+02 3.764056342557959312e+01
1.168000000000000114e+02 3.757858826632144655e+01
1.172000000000000028e+02 3.751692143081250208e+01
1.176000000000000085e+02 3.745556032945116698e+01
1.180000000000000000e+02 3.739450240324248398e+01
1.184000000000000057e+02 3.733374512333225681e+01
1.188000000000000114e+02 3.727328599054992964e+01
1.192000000000000028e+02 3.721312253495994327e+01
1.196000000000000085e+02 3.715325231542134787e+01
1.200000000000000000e+02 3.709367291915550169e+01
1.204000000000000057e+02 3.703433358077705861e+01
1.208000000000000114e+02 3.697527585979646148e+01
1.212000000000000028e+02 3.691634546359212266e+01
1.216000000000000085e+02 3.685764133372623519e+01
1.220000000000000000e+02 3.679921801515635593e+01
1.224000000000000057e+02 3.674107324169617073e+01
1.228000000000000114e+02 3.668320477289034898e+01
1.232000000000000028e+02 3.662561039363830417e+01
1.236000000000000085e+02 3.656828791382474009e+01
1.240000000000000000e+02 3.651123516795683344e+01
1.244000000000000057e+02 3.645445001480772618e+01
1.248000000000000114e+02 3.639793033706645531e+01
1.252000000000000028e+02 3.634167404099396492e+01
1.256000000000000085e+02 3.628567905608522892e+01
1.260000000000000000e+02 3.622994333473721440e+01
1.264000000000000057e+02 3.617446485192272831e+01
1.268000000000000114e+02 3.611924160486987745e+01
1.272000000000000028e+02 3.606427161274714877e+01
1.276000000000000085e+02 3.600955291635386146e+01
1.280000000000000000e+02 3.595508357781603337e+01
1.284000000000000057e+02 3.590086168028740587e+01
1.288000000000000114e+02 3.584688532765563451e+01
1.291999999999999886e+02 3.579315264425351018e+01
1.296000000000000227e+02 3.573966177457501203e+01
1.300000000000000000e+02 3.568641088299632713e+01
1.304000000000000057e+02 3.563339815350138196e+01
1.308000000000000114e+02 3.558062178941220566e+01
1.311999999999999886e+02 3.552808001312376263e+01
1.316000000000000227e+02 3.547577106584310513e+01
1.320000000000000000e+02 3.542369320733310900e+01
1.324000000000000057e+02 3.537184471566023092e+01
1.328000000000000114e+02 3.532022388694669957e+01
1.331999999999999886e+02 3.526882903512660761e+01
1.336000000000000227e+02 3.521765849170614615e+01
1.340000000000000000e+02 3.516671060552774719e+01
1.344000000000000057e+02 3.511598374253808430e+01
1.348000000000000114e+02 3.506547628555990315e+01
1.351999999999999886e+02 3.501518663406753262e+01
1.356000000000000227e+02 3.496490109957932191e+01
1.360000000000000000e+02 3.491435217369298982e+01
1.364000000000000057e+02 3.486402078236483959e+01
1.368000000000000114e+02 3.481390534790649838e+01
1.371999999999999886e+02 3.476313087057512519e+01
1.376000000000000227e+02 3.471356647295590392e+01
1.380000000000000000e+02 3.466421286323557638e+01
1.384000000000000057e+02 3.461506852988836158e+01
1.388000000000000114e+02 3.456613197664785275e+01
1.392000000000000171e+02 3.451740172230852721e+01
1.395999999999999943e+02 3.446887630053038265e+01
1.400000000000000000e+02 3.442055425964670690e+01
1.404000000000000057e+02 3.437243416247491012e+01
1.408000000000000114e+02 3.432451458613025608e+01
1.412000000000000171e+02 3.428101680501451654e+01
1.415999999999999943e+02 3.423375674533791369e+01
1.420000000000000000e+02 3.418669157370495526e+01
1.424000000000000057e+02 3.413981993437327134e+01
1.428000000000000114e+02 3.409314048488207760e+01
1.432000000000000171e+02 3.404665189588439489e+01
1.435999999999999943e+02 3.400035285098203985e+01
1.440000000000000000e+02 3.395395644254018208e+01
1.444000000000000057e+02 3.390748100967888945e+01
1.448000000000000114e+02 3.386119455002516787e+01
1.452000000000000171e+02 3.381509576890368862e+01
1.455999999999999943e+02 3.376918338412452414e+01
1.460000000000000000e+02 3.372345612582796548e+01
1.464000000000000057e+02 3.367791273633179117e+01
1.468000000000000114e+02 3.363255196998081686e+01
1.472000000000000171e+02 3.358737259299866196e+01
1.475999999999999943e+02 3.354237338334182539e+01
1.480000000000000000e+02 3.349755313055594286e+01
1.484000000000000057e+02 3.345291063563414014e+01
1.488000000000000114e+02 3.340844471087760326e+01
1.492000000000000171e+02 3.336415417975810982e+01
1.495999999999999943e+02 3.332003787678267059e+01
1.500000000000000000e+02 3.327609464736015354e+01
