1.000000000000000000e+01 1.018033409555072808e+02
1.040000000000000036e+01 1.051636708026231020e+02
1.080000000000000071e+01 1.146942592580644487e+02
1.119999999999999929e+01 1.208097716180349721e+02
1.159999999999999964e+01 1.361537538632639439e+02
1.200000000000000000e+01 1.510464047069476692e+02
1.240000000000000036e+01 1.616099311252458506e+02
1.280000000000000071e+01 1.773568903813769566e+02
1.319999999999999929e+01 1.973839867248659061e+02
1.359999999999999964e+01 2.183323152862229222e+02
1.400000000000000000e+01 2.537264664022332568e+02
1.440000000000000036e+01 2.482554183221260473e+02
1.480000000000000071e+01 2.432020879077756490e+02
1.519999999999999929e+01 2.385127424481104299e+02
1.560000000000000142e+01 2.341431170248191620e+02
1.600000000000000000e+01 2.300563374315731267e+02
1.639999999999999858e+01 2.262213803462931878e+02
1.680000000000000071e+01 2.226119125576308875e+02
1.719999999999999929e+01 2.192054028052438639e+02
1.760000000000000142e+01 2.159824330666845924e+02
1.800000000000000000e+01 2.129261580225005730e+02
1.839999999999999858e+01 2.100218761506312148e+02
1.880000000000000071e+01 2.072566859846736804e+02
1.920000000000000284e+01 2.046192080980958963e+02
1.960000000000000142e+01 2.020993583515142973e+02
2.000000000000000000e+01 1.996881615130180592e+02
2.039999999999999858e+01 1.973775969613967050e+02
2.080000000000000071e+01 1.951604700970771091e+02
2.120000000000000284e+01 1.930303045119543697e+02
2.160000000000000142e+01 1.909812510428789665e+02
2.200000000000000000e+01 1.890080106494563097e+02
2.239999999999999858e+01 1.871057686825112683e+02
2.280000000000000071e+01 1.852701385934638267e+02
2.320000000000000284e+01 1.834971135120750887e+02
2.360000000000000142e+01 1.817830244162593658e+02
2.400000000000000000e+01 1.801245038519398349e+02
2.439999999999999858e+01 1.785184543474313159e+02
2.480000000000000071e+01 1.769620208162386632e+02
2.520000000000000284e+01 1.754525663625441609e+02
2.560000000000000142e+01 1.739876510012106507e+02
2.600000000000000000e+01 1.725650128835897590e+02
2.640000000000000213e+01 1.711825516854845546e+02
2.680000000000000071e+01 1.698383138671363213e+02
2.719999999999999929e+01 1.685304795593350775e+02
2.760000000000000142e+01 1.672573508664624455e+02
2.800000000000000000e+01 1.660173414078761596e+02
2.840000000000000213e+01 1.648089669446438279e+02
2.880000000000000071e+01 1.636308369601438528e+02
2.920000000000000284e+01 1.624816470811769022e+02
2.960000000000000142e+01 1.613601722415723998e+02
3.000000000000000000e+01 1.602652605032889710e+02
3.040000000000000213e+01 1.591958274610973092e+02
3.080000000000000071e+01 1.581508511663996615e+02
3.120000000000000284e+01 1.571293675138545041e+02
3.160000000000000142e+01 1.561304660414445209e+02
3.200000000000000000e+01 1.551532861006295718e+02
3.240000000000000568e+01 1.541970133584156315e+02
3.279999999999999716e+01 1.532608765976613654e+02
3.320000000000000284e+01 1.523441447858446622e+02
3.360000000000000142e+01 1.514461243859068418e+02
3.400000000000000000e+01 1.505661568857508996e+02
3.440000000000000568e+01 1.497036165255613582e+02
3.479999999999999716e+01 1.488579082043779636e+02
3.520000000000000284e+01 1.480284655493501873e+02
3.560000000000000142e+01 1.472147491328472597e+02
3.600000000000000000e+01 1.464162448241452807e+02
3.640000000000000568e+01 1.456324622637757784e+02
3.679999999999999716e+01 1.448629334498260732e+02
3.720000000000000284e+01 1.441072114265512596e+02
3.760000000000000142e+01 1.433648690666085486e+02
3.800000000000000000e+01 1.426354979390668518e+02
3.840000000000000568e+01 1.419187072560992533e+02
3.879999999999999716e+01 1.412141228919362277e+02
3.920000000000000284e+01 1.405213864682567078e+02
3.960000000000000142e+01 1.398401545007336892e+02
4.000000000000000000e+01 1.391700976019289442e+02
4.040000000000000568e+01 1.385108997361670049e+02
4.079999999999999716e+01 1.378622575224044340e+02
4.120000000000000284e+01 1.372238795814608352e+02
4.160000000000000142e+01 1.365954859242945076e+02
4.200000000000000000e+01 1.359768073782875035e+02
4.239999999999999858e+01 1.353675850487639423e+02
4.280000000000000426e+01 1.347675698131975253e+02
4.320000000000000284e+01 1.341765218457736069e+02
4.360000000000000142e+01 1.335942101701640183e+02
4.400000000000000000e+01 1.330204122385448500e+02
4.439999999999999858e+01 1.324549135350457050e+02
4.480000000000000426e+01 1.318975072019619006e+02
4.520000000000000284e+01 1.313479936871928828e+02
4.560000000000000142e+01 1.308061804114867925e+02
4.600000000000000000e+01 1.302718814541835286e+02
4.639999999999999858e+01 1.297449172562442641e+02
4.680000000000000426e+01 1.292251143394487372e+02
4.720000000000000284e+01 1.287123050407241749e+02
4.760000000000000142e+01 1.282063272606449402e+02
4.800000000000000000e+01 1.277070242252141412e+02
4.840000000000000568e+01 1.272142442600998891e+02
4.880000000000000426e+01 1.267278405765599132e+02
4.920000000000000284e+01 1.262476710683419014e+02
4.960000000000000142e+01 1.257735981188963592e+02
5.000000000000000000e+01 1.253054884182850373e+02
5.040000000000000568e+01 1.248432127892109946e+02
5.080000000000000426e+01 1.243866460216341920e+02
5.120000000000000284e+01 1.239356667154737579e+02
5.160000000000000142e+01 1.234901571309309531e+02
5.200000000000000000e+01 1.230500030459973146e+02
5.240000000000000568e+01 1.226150936207420585e+02
5.280000000000000426e+01 1.221853212679979350e+02
5.320000000000000284e+01 1.217605815300904624e+02
5.360000000000000142e+01 1.213407729612772386e+02
5.400000000000000000e+01 1.209257970155856015e+02
5.440000000000000568e+01 1.205155579397563201e+02
5.480000000000000426e+01 1.201099626710195594e+02
5.520000000000000284e+01 1.197089207394450625e+02
5.560000000000000142e+01 1.193123441746264035e+02
5.600000000000000000e+01 1.189201474164712806e+02
5.640000000000000568e+01 1.185322472298855985e+02
5.680000000000000426e+01 1.181485626231500703e+02
5.720000000000000284e+01 1.177690147698019985e+02
5.760000000000000142e+01 1.173935269338433045e+02
5.800000000000000000e+01 1.170220243981085559e+02
5.840000000000000568e+01 1.166544343956357181e+02
5.880000000000000426e+01 1.162906860438900765e+02
5.920000000000000284e+01 1.159307102817023605e+02
5.960000000000000142e+01 1.155744398087884690e+02
6.000000000000000000e+01 1.152218090277263229e+02
6.040000000000000568e+01 1.148727539882713558e+02
6.080000000000000426e+01 1.145272123339007351e+02
6.120000000000000284e+01 1.141851232504795348e+02
6.160000000000000142e+01 1.138464274169504478e+02
6.200000000000000000e+01 1.135110669579524654e+02
6.240000000000000568e+01 1.131789853982797069e+02
6.280000000000000426e+01 1.128501276190956446e+02
6.320000000000000284e+01 1.125244398158232570e+02
6.360000000000000142e+01 1.122018694576353539e+02
6.400000000000000000e+01 1.118823652484726949e+02
6.440000000000000568e+01 1.115658770895227860e+02
6.480000000000001137e+01 1.112523560430939256e+02
6.520000000000000284e+01 1.109417542978239197e+02
6.559999999999999432e+01 1.106340251351645350e+02
6.600000000000000000e+01 1.103291228970869753e+02
6.640000000000000568e+01 1.100270029549557194e+02
6.680000000000001137e+01 1.097276216795208086e+02
6.720000000000000284e+01 1.094309364119808521e+02
6.759999999999999432e+01 1.091369054360720838e+02
6.800000000000000000e+01 1.088454879511402140e+02
6.840000000000000568e+01 1.085566440461541333e+02
6.880000000000001137e+01 1.082703346746228874e+02
6.920000000000000284e+01 1.079865216303784905e+02
6.959999999999999432e+01 1.077051675241893776e+02
7.000000000000000000e+01 1.074262357611709007e+02
7.040000000000000568e+01 1.071496905189610231e+02
7.080000000000001137e+01 1.068754967266297768e+02
7.120000000000000284e+01 1.066036200442943453e+02
7.159999999999999432e+01 1.063340268434110953e+02
7.200000000000000000e+01 1.060666841877186073e+02
7.240000000000000568e+01 1.058015598148057137e+02
7.280000000000001137e+01 1.055386221182808129e+02
7.320000000000000284e+01 1.052778401305188396e+02
7.359999999999999432e+01 1.050191835059644063e+02
7.400000000000000000e+01 1.047626225049690447e+02
7.440000000000000568e+01 1.045081279781433494e+02
7.479999999999999716e+01 1.042556713512037305e+02
7.520000000000000284e+01 1.040052246102958691e+02
7.560000000000000853e+01 1.037567602877772117e+02
7.600000000000000000e+01 1.035102514484407550e+02
7.640000000000000568e+01 1.032656716761651978e+02
7.679999999999999716e+01 1.030229950609745231e+02
7.720000000000000284e+01 1.027821961864931950e+02
7.760000000000000853e+01 1.025432501177821791e+02
7.800000000000000000e+01 1.023061323895421708e+02
7.840000000000000568e+01 1.020708189946709297e+02
7.879999999999999716e+01 1.018372863731624989e+02
7.920000000000000284e+01 1.016055114013355194e+02
7.960000000000000853e+01 1.013754713813798958e+02
8.000000000000000000e+01 1.011471440312101038e+02
8.040000000000000568e+01 1.009205074746147659e+02
8.079999999999999716e+01 1.006955402316923482e+02
8.120000000000000284e+01 1.004722212095627469e+02
8.160000000000000853e+01 1.002505296933460670e+02
8.200000000000000000e+01 1.000304453373986462e+02
8.240000000000000568e+01 9.981194815679832288e+01
8.279999999999999716e+01 9.959501851907032233e+01
8.320000000000000284e+01 9.937963713614561811e+01
8.360000000000000853e+01 9.916578505654420894e+01
8.400000000000000000e+01 9.895344365777592088e+01
8.440000000000000568e+01 9.874259463895111821e+01
8.479999999999999716e+01 9.853322001359545368e+01
8.520000000000000284e+01 9.832530210266064330e+01
8.560000000000000853e+01 9.811882352772610716e+01
8.600000000000000000e+01 9.791376720438479708e+01
8.640000000000000568e+01 9.771011633580732791e+01
8.680000000000001137e+01 9.750785440647879909e+01
8.720000000000000284e+01 9.730696517610266483e+01
8.760000000000000853e+01 9.710743267366683540e+01
8.800000000000000000e+01 9.690924119166629680e+01
8.840000000000000568e+01 9.671237528047780074e+01
8.880000000000001137e+01 9.651681974288175070e+01
8.920000000000000284e+01 9.632255962872676491e+01
8.960000000000000853e+01 9.612958022973219840e+01
9.000000000000000000e+01 9.593786707442521333e+01
9.040000000000000568e+01 9.574740592320725341e+01
9.080000000000001137e+01 9.555818276354688123e+01
9.120000000000000284e+01 9.537018380529443107e+01
9.160000000000000853e+01 9.518339547611557805e+01
9.200000000000000000e+01 9.499780441703948952e+01
9.240000000000000568e+01 9.481339747811884422e+01
9.280000000000001137e+01 9.463016171419769762e+01
9.320000000000000284e+01 9.444808438078476343e+01
9.360000000000000853e+01 9.426715293002837370e+01
9.400000000000000000e+01 9.408735500679065922e+01
9.440000000000000568e+01 9.390867844481749671e+01
9.480000000000001137e+01 9.373111126300210572e+01
9.520000000000000284e+01 9.355464166173899798e+01
9.560000000000000853e+01 9.337925801936617631e+01
9.600000000000000000e+01 9.320494888869271222e+01
9.640000000000000568e+01 9.303170299360922968e+01
9.680000000000001137e+01 9.285950922577964661e+01
9.720000000000000284e+01 9.268835664141064967e+01
9.760000000000000853e+01 9.251823445809807822e+01
9.800000000000000000e+01 9.234913205174697737e+01
9.840000000000000568e+01 9.218103895356392741e+01
9.880000000000001137e+01 9.201394484711934751e+01
9.920000000000000284e+01 9.184783956547801154e+01
9.960000000000000853e+01 9.168271308839574374e+01
1.000000000000000000e+02 9.151855553958056078e+01
1.004000000000000057e+02 9.135535718401666827e+01
1.008000000000000114e+02 9.119310842534926564e+01
1.012000000000000028e+02 9.103179980332876653e+01
1.016000000000000085e+02 9.087142199131284315e+01
1.020000000000000000e+02 9.071196579382461778e+01
1.024000000000000057e+02 9.055342214416562285e+01
1.028000000000000114e+02 9.039578210208196651e+01
1.032000000000000028e+02 9.023903685148243881e+01
1.036000000000000085e+02 9.008317769820698118e+01
1.040000000000000000e+02 8.992819606784459552e+01
1.044000000000000057e+02 8.977408350359880274e+01
1.048000000000000114e+02 8.962083166420002556e+01
1.052000000000000028e+02 8.946843232186327555e+01
1.056000000000000085e+02 8.931687736029007851e+01
1.060000000000000000e+02 8.916615877271377144e+01
1.064000000000000057e+02 8.901626865998653670e+01
1.068000000000000114e+02 8.886719922870751986e+01
1.072000000000000028e+02 8.871894278939097944e+01
1.076000000000000085e+02 8.857149175467318969e+01
1.080000000000000000e+02 8.842483863755737161e+01
1.084000000000000057e+02 8.827897604969555800e+01
1.088000000000000114e+02 8.813389669970663931e+01
1.092000000000000028e+02 8.798959339152945347e+01
1.096000000000000085e+02 8.784605902281023759e+01
1.100000000000000000e+02 8.770328658332354621e+01
1.104000000000000057e+02 8.756126915342566974e+01
1.108000000000000114e+02 8.741999990254015529e+01
1.112000000000000028e+02 8.727947208767416498e+01
1.116000000000000085e+02 8.713967905196514607e+01
1.120000000000000000e+02 8.700061422325721594e+01
1.124000000000000057e+02 8.686227111270629564e+01
1.128000000000000114e+02 8.672464331341345201e+01
1.132000000000000028e+02 8.658772449908565250e+01
1.136000000000000085e+02 8.645150842272357750e+01
1.140000000000000000e+02 8.631598891533535323e+01
1.144000000000000057e+02 8.618115988467604893e+01
1.148000000000000114e+02 8.604701531401212833e+01
1.152000000000000028e+02 8.591354926091025845e+01
1.156000000000000085e+02 8.578075585605003539e+01
1.160000000000000000e+02 8.564862930205981684e+01
1.164000000000000057e+02 8.551716387237536310e+01
1.168000000000000114e+02 8.538635391012081755e+01
1.172000000000000028e+02 8.525619382701121651e+01
1.176000000000000085e+02 8.512667810227618759e+01
1.180000000000000000e+02 8.499780128160449522e+01
1.184000000000000057e+02 8.486955797610862362e+01
1.188000000000000114e+02 8.474194286130943965e+01
1.192000000000000028e+02 8.461495067613989818e+01
1.196000000000000085e+02 8.448857622196773320e+01
1.200000000000000000e+02 8.436281436163670833e+01
1.204000000000000057e+02 8.423766001852584395e+01
1.208000000000000114e+02 8.411310817562633702e+01
1.212000000000000028e+02 8.398915387463571847e+01
1.216000000000000085e+02 8.386579221506886483e+01
1.220000000000000000e+02 8.374301835338566491e+01
1.224000000000000057e+02 8.362082750213457416e+01
1.228000000000000114e+02 8.349921492911231269e+01
1.232000000000000028e+02 8.337817595653859826e+01
1.236000000000000085e+02 8.325770596024636916e+01
1.240000000000000000e+02 8.313780036888658742e+01
1.244000000000000057e+02 8.301845466314752287e+01
1.248000000000000114e+02 8.289966437498820540e+01
1.252000000000000028e+02 8.278142508688580392e+01
1.256000000000000085e+02 8.266373243109640612e+01
1.260000000000000000e+02 8.254658208892929849e+01
1.264000000000000057e+02 8.242996979003387992e+01
1.268000000000000114e+02 8.231389131169962070e+01
1.272000000000000028e+02 8.219834247816825723e+01
1.276000000000000085e+02 8.208331915995833583e+01
1.280000000000000000e+02 8.196881727320140953e+01
1.284000000000000057e+02 8.185483277899024301e+01
1.288000000000000114e+02 8.174136168273811620e+01
1.291999999999999886e+02 8.162840003354963869e+01
1.296000000000000227e+02 8.151594392360217967e+01
1.300000000000000000e+02 8.140398948753848174e+01
1.304000000000000057e+02 8.129253290186929348e+01
1.308000000000000114e+02 8.118157038438660322e+01
1.311999999999999886e+02 8.107109819358700520e+01
1.316000000000000227e+02 8.096111262810467224e+01
1.320000000000000000e+02 8.085161002615434711e+01
1.324000000000000057e+02 8.074258676498351406e+01
1.328000000000000114e+02 8.063403926033409164e+01
1.331999999999999886e+02 8.052596396591309258e+01
1.336000000000000227e+02 8.041835737287233599e+01
1.340000000000000000e+02 8.031121600929678550e+01
1.344000000000000057e+02 8.020453643970152768e+01
1.348000000000000114e+02 8.009831526453712058e+01
1.351999999999999886e+02 7.999254911970325566e+01
1.356000000000000227e+02 7.988723467607040618e+01
1.360000000000000000e+02 7.978236863900943376e+01
1.364000000000000057e+02 7.967794774792892554e+01
1.368000000000000114e+02 7.957396877582021943e+01
1.371999999999999886e+02 7.947042852880977648e+01
1.376000000000000227e+02 7.936732384571899956e+01
1.380000000000000000e+02 7.926465159763104396e+01
1.384000000000000057e+02 7.916240868746493220e+01
1.388000000000000114e+02 7.906059204955630548e+01
1.392000000000000171e+02 7.895919864924508147e+01
1.395999999999999943e+02 7.885822548246970598e+01
1.400000000000000000e+02 7.875766957536805535e+01
1.404000000000000057e+02 7.865752798388439260e+01
1.408000000000000114e+02 7.855779779338304536e+01
1.412000000000000171e+02 7.845847611826779655e+01
1.415999999999999943e+02 7.835956010160765572e+01
1.420000000000000000e+02 7.826104691476828634e+01
1.424000000000000057e+02 7.816293375704948687e+01
1.428000000000000114e+02 7.806521785532814306e+01
1.432000000000000171e+02 7.796789646370686455e+01
1.435999999999999943e+02 7.787096686316829164e+01
1.440000000000000000e+02 7.777442636123439001e+01
1.444000000000000057e+02 7.767827229163144409e+01
1.448000000000000114e+02 7.758250201396003831e+01
1.452000000000000171e+02 7.748711291337009754e+01
1.455999999999999943e+02 7.739210240024108600e+01
1.460000000000000000e+02 7.729746790986700944e+01
1.464000000000000057e+02 7.720320690214617798e+01
1.468000000000000114e+02 7.710931686127598539e+01
1.472000000000000171e+02 7.701579529545200842e+01
1.475999999999999943e+02 7.692263973657176734e+01
1.480000000000000000e+02 7.682984773994317607e+01
1.484000000000000057e+02 7.673741688399709915e+01
1.488000000000000114e+02 7.664534477000441370e+01
1.492000000000000171e+02 7.655362902179734874e+01
1.495999999999999943e+02 7.646226728549473250e+01
1.500000000000000000e+02 7.637125722923177307e+01
