1.000000000000000000e+01 4.351578570138502755e+02
1.040000000000000036e+01 4.437729759616171918e+02
1.080000000000000071e+01 4.529056599604430744e+02
1.119999999999999929e+01 4.645548633901062772e+02
1.159999999999999964e+01 4.881712508336380552e+02
1.200000000000000000e+01 4.882255780165203305e+02
1.240000000000000036e+01 4.854658269388086751e+02
1.280000000000000071e+01 4.861977111587158902e+02
1.319999999999999929e+01 4.855904810163674483e+02
1.359999999999999964e+01 4.899065737233992195e+02
1.400000000000000000e+01 5.076561048420032307e+02
1.440000000000000036e+01 4.999116973842503739e+02
1.480000000000000071e+01 4.918863616093252631e+02
1.519999999999999929e+01 4.843193035599850305e+02
1.560000000000000142e+01 4.771645033358508954e+02
1.600000000000000000e+01 4.703825732033471354e+02
1.639999999999999858e+01 4.639395175797483262e+02
1.680000000000000071e+01 4.578057756219146768e+02
1.719999999999999929e+01 4.519554711934737838e+02
1.760000000000000142e+01 4.463658176648397102e+02
1.800000000000000000e+01 4.410166401097979474e+02
1.839999999999999858e+01 4.358899877513298406e+02
1.880000000000000071e+01 4.309698166551484064e+02
1.920000000000000284e+01 4.262417277212074396e+02
1.960000000000000142e+01 4.216927486528019244e+02
2.000000000000000000e+01 4.173111512287748610e+02
2.039999999999999858e+01 4.130862971592521831e+02
2.080000000000000071e+01 4.090085072675153697e+02
2.120000000000000284e+01 4.050689498466829832e+02
2.160000000000000142e+01 4.012595448853008406e+02
2.200000000000000000e+01 3.975728815083974723e+02
2.239999999999999858e+01 3.940021464886287959e+02
2.280000000000000071e+01 3.905410620810491196e+02
2.320000000000000284e+01 3.871838317507205147e+02
2.360000000000000142e+01 3.839250926139715148e+02
2.400000000000000000e+01 3.807598736160304043e+02
2.439999999999999858e+01 3.776835586308252459e+02
2.480000000000000071e+01 3.746918538012333215e+02
2.520000000000000284e+01 3.717807585463198166e+02
2.560000000000000142e+01 3.689465397510344360e+02
2.600000000000000000e+01 3.661857087272585431e+02
2.640000000000000213e+01 3.634950005959988744e+02
2.680000000000000071e+01 3.608713557912885790e+02
2.719999999999999929e+01 3.583119034288328066e+02
2.760000000000000142e+01 3.558139463181374254e+02
2.800000000000000000e+01 3.533749474269808388e+02
2.840000000000000213e+01 3.509925176325895677e+02
2.880000000000000071e+01 3.486644046155562364e+02
2.920000000000000284e+01 3.463884827710173795e+02
2.960000000000000142e+01 3.441627440274237415e+02
3.000000000000000000e+01 3.419852894767964244e+02
3.040000000000000213e+01 3.398543217320477652e+02
3.080000000000000071e+01 3.377681379370214927e+02
3.120000000000000284e+01 3.357251233636319512e+02
3.160000000000000142e+01 3.337237455380547999e+02
3.200000000000000000e+01 3.317625488445087854e+02
3.240000000000000568e+01 3.298401495609144831e+02
3.279999999999999716e+01 3.279552312857364882e+02
3.320000000000000284e+01 3.261065407197201012e+02
3.360000000000000142e+01 3.242928837700976601e+02
3.400000000000000000e+01 3.225131219482371989e+02
3.440000000000000568e+01 3.207661690347126182e+02
3.479999999999999716e+01 3.190509879884170914e+02
3.520000000000000284e+01 3.173665880786924731e+02
3.560000000000000142e+01 3.157120222215267518e+02
3.600000000000000000e+01 3.140863845027188290e+02
3.640000000000000568e+01 3.124888078725570040e+02
3.679999999999999716e+01 3.109184619980253501e+02
3.720000000000000284e+01 3.093745512598575829e+02
3.760000000000000142e+01 3.078563128829374591e+02
3.800000000000000000e+01 3.063630151895850986e+02
3.840000000000000568e+01 3.048939559662194370e+02
3.879999999999999716e+01 3.034484609347258584e+02
3.920000000000000284e+01 3.020258823206236229e+02
3.960000000000000142e+01 3.006255975108117582e+02
4.000000000000000000e+01 2.992470077942923012e+02
4.040000000000000568e+01 2.978895371798257088e+02
4.079999999999999716e+01 2.965526312849837609e+02
4.120000000000000284e+01 2.952357562915181006e+02
4.160000000000000142e+01 2.939383979623818277e+02
4.200000000000000000e+01 2.926600607161160497e+02
4.239999999999999858e+01 2.914002667546560588e+02
4.280000000000000426e+01 2.901585552409262618e+02
4.320000000000000284e+01 2.889344815228723746e+02
4.360000000000000142e+01 2.877276164008415549e+02
4.400000000000000000e+01 2.865375454354578437e+02
4.439999999999999858e+01 2.853638682933534483e+02
4.480000000000000426e+01 2.842061981283155205e+02
4.520000000000000284e+01 2.830641609955902140e+02
4.560000000000000142e+01 2.819373952972488837e+02
4.600000000000000000e+01 2.808255512566748848e+02
4.639999999999999858e+01 2.797282904203694898e+02
4.680000000000000426e+01 2.786452851854009509e+02
4.720000000000000284e+01 2.775762183509426677e+02
4.760000000000000142e+01 2.765207826924521441e+02
4.800000000000000000e+01 2.754786805571417858e+02
4.840000000000000568e+01 2.744496234794888210e+02
4.880000000000000426e+01 2.734333318156122345e+02
4.920000000000000284e+01 2.724295343954249233e+02
4.960000000000000142e+01 2.714379681915432911e+02
5.000000000000000000e+01 2.704583780040021566e+02
5.040000000000000568e+01 2.694905161598836685e+02
5.080000000000000426e+01 2.685341422270308840e+02
5.120000000000000284e+01 2.675890227410652074e+02
5.160000000000000142e+01 2.666549309449785028e+02
5.200000000000000000e+01 2.657316465406189536e+02
5.240000000000000568e+01 2.648189554514269730e+02
5.280000000000000426e+01 2.639166495958229461e+02
5.320000000000000284e+01 2.630245266706809844e+02
5.360000000000000142e+01 2.621423899443609571e+02
5.400000000000000000e+01 2.612700480587993752e+02
5.440000000000000568e+01 2.604073148401922708e+02
5.480000000000000426e+01 2.595540091178305033e+02
5.520000000000000284e+01 2.587099545506721938e+02
5.560000000000000142e+01 2.578749794612633650e+02
5.600000000000000000e+01 2.570489166766394078e+02
5.640000000000000568e+01 2.562316033758604590e+02
5.680000000000000426e+01 2.554228809438554606e+02
5.720000000000000284e+01 2.546225948312659568e+02
5.760000000000000142e+01 2.538305944199993576e+02
5.800000000000000000e+01 2.530467328942177687e+02
5.840000000000000568e+01 2.522708671165016767e+02
5.880000000000000426e+01 2.515028575089457377e+02
5.920000000000000284e+01 2.507425679389521065e+02
5.960000000000000142e+01 2.499898656095053298e+02
6.000000000000000000e+01 2.492446209537184245e+02
6.040000000000000568e+01 2.485067075334562219e+02
6.080000000000000426e+01 2.477760019418485911e+02
6.120000000000000284e+01 2.470523837095171586e+02
6.160000000000000142e+01 2.463357352143506773e+02
6.200000000000000000e+01 2.456259415946673244e+02
6.240000000000000568e+01 2.449228906656168192e+02
6.280000000000000426e+01 2.442264728386780632e+02
6.320000000000000284e+01 2.435365810441172698e+02
6.360000000000000142e+01 2.428531106562779769e+02
6.400000000000000000e+01 2.421759594215821210e+02
6.440000000000000568e+01 2.415050273891237964e+02
6.480000000000001137e+01 2.408402168437473279e+02
6.520000000000000284e+01 2.401814322415040124e+02
6.559999999999999432e+01 2.395285801473876006e+02
6.600000000000000000e+01 2.388815691752539010e+02
6.640000000000000568e+01 2.382403099298336997e+02
6.680000000000001137e+01 2.376047149507530492e+02
6.720000000000000284e+01 2.369746986584791273e+02
6.759999999999999432e+01 2.363501773021127974e+02
6.800000000000000000e+01 2.357310689089540006e+02
6.840000000000000568e+01 2.351172932357689831e+02
6.880000000000001137e+01 2.345087717216906640e+02
6.920000000000000284e+01 2.339054274426886764e+02
6.959999999999999432e+01 2.333071850675465555e+02
7.000000000000000000e+01 2.327139708152870980e+02
7.040000000000000568e+01 2.321257124139903851e+02
7.080000000000001137e+01 2.315423390609498711e+02
7.120000000000000284e+01 2.309637813841155207e+02
7.159999999999999432e+01 2.303899714047752241e+02
7.200000000000000000e+01 2.298208425014263980e+02
7.240000000000000568e+01 2.292563293747949160e+02
7.280000000000001137e+01 2.286963680139562882e+02
7.320000000000000284e+01 2.281408956635189611e+02
7.359999999999999432e+01 2.275898507918309406e+02
7.400000000000000000e+01 2.270431730601708864e+02
7.440000000000000568e+01 2.265008032928889463e+02
7.479999999999999716e+01 2.259626834484614335e+02
7.520000000000000284e+01 2.254287565914275149e+02
7.560000000000000853e+01 2.248989668651750264e+02
7.600000000000000000e+01 2.243732594655464823e+02
7.640000000000000568e+01 2.238515806152344396e+02
7.679999999999999716e+01 2.233338775389397881e+02
7.720000000000000284e+01 2.228200984392648536e+02
7.760000000000000853e+01 2.223101924733170165e+02
7.800000000000000000e+01 2.218041097299967248e+02
7.840000000000000568e+01 2.213018012079471646e+02
7.879999999999999716e+01 2.208032187941424240e+02
7.920000000000000284e+01 2.203083152430925793e+02
7.960000000000000853e+01 2.198170441566443003e+02
8.000000000000000000e+01 2.193293599643574794e+02
8.040000000000000568e+01 2.188452179044374475e+02
8.079999999999999716e+01 2.183645740052052702e+02
8.120000000000000284e+01 2.178873850670878483e+02
8.160000000000000853e+01 2.174136086451099459e+02
8.200000000000000000e+01 2.169432030318726561e+02
8.240000000000000568e+01 2.164761272410013362e+02
8.279999999999999716e+01 2.160123409910488306e+02
8.320000000000000284e+01 2.155518046898379509e+02
8.360000000000000853e+01 2.150944794192300549e+02
8.400000000000000000e+01 2.146403269203053981e+02
8.440000000000000568e+01 2.141893095789423000e+02
8.479999999999999716e+01 2.137413904117829020e+02
8.520000000000000284e+01 2.132965330525721299e+02
8.560000000000000853e+01 2.128547017388595748e+02
8.600000000000000000e+01 2.124158612990515849e+02
8.640000000000000568e+01 2.119799771398035659e+02
8.680000000000001137e+01 2.115470152337416039e+02
8.720000000000000284e+01 2.111169421075031778e+02
8.760000000000000853e+01 2.106897248300871013e+02
8.800000000000000000e+01 2.102653310015037960e+02
8.840000000000000568e+01 2.098437287417158927e+02
8.880000000000001137e+01 2.094248866798609470e+02
8.920000000000000284e+01 2.090087739437479684e+02
8.960000000000000853e+01 2.085953601496186138e+02
9.000000000000000000e+01 2.081846153921662790e+02
9.040000000000000568e+01 2.077765102348047321e+02
9.080000000000001137e+01 2.073710157001789867e+02
9.120000000000000284e+01 2.069681032609113913e+02
9.160000000000000853e+01 2.065677448305761175e+02
9.200000000000000000e+01 2.061699127548954493e+02
9.240000000000000568e+01 2.057745798031507718e+02
9.280000000000001137e+01 2.053817191598031400e+02
9.320000000000000284e+01 2.049913044163165807e+02
9.360000000000000853e+01 2.046033095631783851e+02
9.400000000000000000e+01 2.042177089821113896e+02
9.440000000000000568e+01 2.038344774384718221e+02
9.480000000000001137e+01 2.034535900738288206e+02
9.520000000000000284e+01 2.030750223987186303e+02
9.560000000000000853e+01 2.026987502855708101e+02
9.600000000000000000e+01 2.023247499617996255e+02
9.640000000000000568e+01 2.019529980030572460e+02
9.680000000000001137e+01 2.015834713266443430e+02
9.720000000000000284e+01 2.012161471850726855e+02
9.760000000000000853e+01 2.008510031597766670e+02
9.800000000000000000e+01 2.004880171549694694e+02
9.840000000000000568e+01 2.001271673916391478e+02
9.880000000000001137e+01 1.997684324016821620e+02
9.920000000000000284e+01 1.994117910221694956e+02
9.960000000000000853e+01 1.990572223897424635e+02
1.000000000000000000e+02 1.987047059351345411e+02
1.004000000000000057e+02 1.983542213778157191e+02
1.008000000000000114e+02 1.980057487207565714e+02
1.012000000000000028e+02 1.976592682453083683e+02
1.016000000000000085e+02 1.973147605061965351e+02
1.020000000000000000e+02 1.969722063266243879e+02
1.024000000000000057e+02 1.966315867934841322e+02
1.028000000000000114e+02 1.962928832526728229e+02
1.032000000000000028e+02 1.959560773045097903e+02
1.036000000000000085e+02 1.956211507992534564e+02
1.040000000000000000e+02 1.952880858327154385e+02
1.044000000000000057e+02 1.949568647419681042e+02
1.048000000000000114e+02 1.946274701011446950e+02
1.052000000000000028e+02 1.942998847173282684e+02
1.056000000000000085e+02 1.939740916265291162e+02
1.060000000000000000e+02 1.936500740897459139e+02
1.064000000000000057e+02 1.933278155891106849e+02
1.068000000000000114e+02 1.930072998241147673e+02
1.072000000000000028e+02 1.926885107079130250e+02
1.076000000000000085e+02 1.923714323637056509e+02
1.080000000000000000e+02 1.920560491211946328e+02
1.084000000000000057e+02 1.917423455131136620e+02
1.088000000000000114e+02 1.914303062718292381e+02
1.092000000000000028e+02 1.911199163260120031e+02
1.096000000000000085e+02 1.908111607973749813e+02
1.100000000000000000e+02 1.905040249974796325e+02
1.104000000000000057e+02 1.901984944246053146e+02
1.108000000000000114e+02 1.898945547606830360e+02
1.112000000000000028e+02 1.895921918682899729e+02
1.116000000000000085e+02 1.892913917877048391e+02
1.120000000000000000e+02 1.889921407340220867e+02
1.124000000000000057e+02 1.886944250943230372e+02
1.128000000000000114e+02 1.883982314249033720e+02
1.132000000000000028e+02 1.881035464485555337e+02
1.136000000000000085e+02 1.878103570519043046e+02
1.140000000000000000e+02 1.875186502827946242e+02
1.144000000000000057e+02 1.872284133477306796e+02
1.148000000000000114e+02 1.869396336093648188e+02
1.152000000000000028e+02 1.866522985840344973e+02
1.156000000000000085e+02 1.863663959393479388e+02
1.160000000000000000e+02 1.860819134918151576e+02
1.164000000000000057e+02 1.857988392045252226e+02
1.168000000000000114e+02 1.855171611848674615e+02
1.172000000000000028e+02 1.852368676822962641e+02
1.176000000000000085e+02 1.849579470861381765e+02
1.180000000000000000e+02 1.846803879234406338e+02
1.184000000000000057e+02 1.844041788568610798e+02
1.188000000000000114e+02 1.841293086825956493e+02
1.192000000000000028e+02 1.838557663283469594e+02
1.196000000000000085e+02 1.835835408513293316e+02
1.200000000000000000e+02 1.833126214363114173e+02
1.204000000000000057e+02 1.830429973936950319e+02
1.208000000000000114e+02 1.827746581576290055e+02
1.212000000000000028e+02 1.825075932841586734e+02
1.216000000000000085e+02 1.822417924494081092e+02
1.220000000000000000e+02 1.819772454477964061e+02
1.224000000000000057e+02 1.817139421902861045e+02
1.228000000000000114e+02 1.814518727026635361e+02
1.232000000000000028e+02 1.811910271238499206e+02
1.236000000000000085e+02 1.809313957042433287e+02
1.240000000000000000e+02 1.806729688040902033e+02
1.244000000000000057e+02 1.804157368918859561e+02
1.248000000000000114e+02 1.801596905428042703e+02
1.252000000000000028e+02 1.799048204371541431e+02
1.256000000000000085e+02 1.796511173588644965e+02
1.260000000000000000e+02 1.793985721939952782e+02
1.264000000000000057e+02 1.791471759292750789e+02
1.268000000000000114e+02 1.788969196506639889e+02
1.272000000000000028e+02 1.786477945419421758e+02
1.276000000000000085e+02 1.783997918833225356e+02
1.280000000000000000e+02 1.781529030500875592e+02
1.284000000000000057e+02 1.779071195112500732e+02
1.288000000000000114e+02 1.776624328282368879e+02
1.291999999999999886e+02 1.774188346535950132e+02
1.296000000000000227e+02 1.771763167297202131e+02
1.300000000000000000e+02 1.769348708876075023e+02
1.304000000000000057e+02 1.766944890456221628e+02
1.308000000000000114e+02 1.764551632082928165e+02
1.311999999999999886e+02 1.762168854651238235e+02
1.316000000000000227e+02 1.759796479894283721e+02
1.320000000000000000e+02 1.757434430371811516e+02
1.324000000000000057e+02 1.755082629458899532e+02
1.328000000000000114e+02 1.752741001334862574e+02
1.331999999999999886e+02 1.750409470972348629e+02
1.336000000000000227e+02 1.748087964126607119e+02
1.340000000000000000e+02 1.745776407324941886e+02
1.344000000000000057e+02 1.743474727856335562e+02
1.348000000000000114e+02 1.741182853761244473e+02
1.351999999999999886e+02 1.738900713821565205e+02
1.356000000000000227e+02 1.736628237550756921e+02
1.360000000000000000e+02 1.734365355184135069e+02
1.364000000000000057e+02 1.732111997669314292e+02
1.368000000000000114e+02 1.729868096656812213e+02
1.371999999999999886e+02 1.727633584490802150e+02
1.376000000000000227e+02 1.725408394200014754e+02
1.380000000000000000e+02 1.723192459488788870e+02
1.384000000000000057e+02 1.720985714728261655e+02
1.388000000000000114e+02 1.718788094947701666e+02
1.392000000000000171e+02 1.716599535825981775e+02
1.395999999999999943e+02 1.714419973683182832e+02
1.400000000000000000e+02 1.712249345472333744e+02
1.404000000000000057e+02 1.710087588771283436e+02
1.408000000000000114e+02 1.707934641774695024e+02
1.412000000000000171e+02 1.705790443286171865e+02
1.415999999999999943e+02 1.703654932710500987e+02
1.420000000000000000e+02 1.701528050046023850e+02
1.424000000000000057e+02 1.699409735877121648e+02
1.428000000000000114e+02 1.697299931366815997e+02
1.432000000000000171e+02 1.695198578249488719e+02
1.435999999999999943e+02 1.693105618823711325e+02
1.440000000000000000e+02 1.691020995945181085e+02
1.444000000000000057e+02 1.688944653019774478e+02
1.448000000000000114e+02 1.686876533996697844e+02
1.452000000000000171e+02 1.684816583361748314e+02
1.455999999999999943e+02 1.682764746130672791e+02
1.460000000000000000e+02 1.680720967842631808e+02
1.464000000000000057e+02 1.678685194553758890e+02
1.468000000000000114e+02 1.676657372830820805e+02
1.472000000000000171e+02 1.674637449744967626e+02
1.475999999999999943e+02 1.672625372865580289e+02
1.480000000000000000e+02 1.670621090254212504e+02
1.484000000000000057e+02 1.668624550458615090e+02
1.488000000000000114e+02 1.666635702506858934e+02
1.492000000000000171e+02 1.664654495901534972e+02
1.495999999999999943e+02 1.662680880614049670e+02
1.500000000000000000e+02 1.660714807078998660e+02
