1.000000000000000000e+01 5.821843448713119642e+02
1.040000000000000036e+01 5.804434143834735096e+02
1.080000000000000071e+01 5.792349233326435751e+02
1.119999999999999929e+01 5.739154392343336895e+02
1.159999999999999964e+01 5.636203660861283424e+02
1.200000000000000000e+01 5.539725568515771101e+02
1.240000000000000036e+01 5.449029668093299961e+02
1.280000000000000071e+01 5.363527642410504086e+02
1.319999999999999929e+01 5.282714246036217673e+02
1.359999999999999964e+01 5.206152494337989083e+02
1.400000000000000000e+01 5.133462009079885320e+02
1.440000000000000036e+01 5.064309744609529957e+02
1.480000000000000071e+01 4.998402533249785620e+02
1.519999999999999929e+01 4.935481037563741893e+02
1.560000000000000142e+01 4.875314802473807276e+02
1.600000000000000000e+01 4.817698175774228275e+02
1.639999999999999858e+01 4.762446920548841263e+02
1.680000000000000071e+01 4.709395383514040532e+02
1.719999999999999929e+01 4.658394113507483780e+02
1.760000000000000142e+01 4.609307847102835467e+02
1.800000000000000000e+01 4.562013795654695514e+02
1.839999999999999858e+01 4.516400181386717350e+02
1.880000000000000071e+01 4.472364980448521692e+02
1.920000000000000284e+01 4.429814838922479794e+02
1.960000000000000142e+01 4.388664134101220498e+02
2.000000000000000000e+01 4.348834158381580437e+02
2.039999999999999858e+01 4.310252407129848962e+02
2.080000000000000071e+01 4.272851955091979335e+02
2.120000000000000284e+01 4.236570908521991896e+02
2.160000000000000142e+01 4.201351922312975944e+02
2.200000000000000000e+01 4.167141773138741883e+02
2.239999999999999858e+01 4.133890981028505962e+02
2.280000000000000071e+01 4.101553472963028639e+02
2.320000000000000284e+01 4.070086283046326798e+02
2.360000000000000142e+01 4.039449284610398081e+02
2.400000000000000000e+01 4.009604950281245692e+02
2.439999999999999858e+01 3.980518136597099783e+02
2.480000000000000071e+01 3.952155890243196836e+02
2.520000000000000284e+01 3.924487273367440139e+02
2.560000000000000142e+01 3.897483205780296203e+02
2.600000000000000000e+01 3.871116322130552589e+02
2.640000000000000213e+01 3.845360842394571250e+02
2.680000000000000071e+01 3.820192454227121743e+02
2.719999999999999929e+01 3.795588205902524805e+02
2.760000000000000142e+01 3.771526408730336470e+02
2.800000000000000000e+01 3.747986547963959083e+02
2.840000000000000213e+01 3.724949201336669375e+02
2.880000000000000071e+01 3.702395964460287132e+02
2.920000000000000284e+01 3.680309382409272416e+02
2.960000000000000142e+01 3.658672886889370375e+02
3.000000000000000000e+01 3.637470738456640902e+02
3.040000000000000213e+01 3.616687973311057931e+02
3.080000000000000071e+01 3.596310354240139304e+02
3.120000000000000284e+01 3.576324325333076786e+02
3.160000000000000142e+01 3.556716970125527268e+02
3.200000000000000000e+01 3.537475972870259966e+02
3.240000000000000568e+01 3.518589582659822099e+02
3.279999999999999716e+01 3.500046580154818798e+02
3.320000000000000284e+01 3.481836246695769432e+02
3.360000000000000142e+01 3.463948335598149129e+02
3.400000000000000000e+01 3.446373045449487904e+02
3.440000000000000568e+01 3.429100995244638739e+02
3.479999999999999716e+01 3.412123201210633852e+02
3.520000000000000284e+01 3.395431055186325011e+02
3.560000000000000142e+01 3.379016304434335325e+02
3.600000000000000000e+01 3.362871032773846309e+02
3.640000000000000568e+01 3.346987642932737117e+02
3.679999999999999716e+01 3.331358840026488224e+02
3.720000000000000284e+01 3.315977616079319432e+02
3.760000000000000142e+01 3.300837235510322785e+02
3.800000000000000000e+01 3.285931221513867513e+02
3.840000000000000568e+01 3.271253343269538050e+02
3.879999999999999716e+01 3.256797603922203166e+02
3.920000000000000284e+01 3.242558229277709643e+02
3.960000000000000142e+01 3.228529657164107221e+02
4.000000000000000000e+01 3.214706527412336072e+02
4.040000000000000568e+01 3.201083672413960812e+02
4.079999999999999716e+01 3.187656108216872894e+02
4.120000000000000284e+01 3.174419026122891410e+02
4.160000000000000142e+01 3.161367784754023660e+02
4.200000000000000000e+01 3.148497902556601389e+02
4.239999999999999858e+01 3.135805050714868116e+02
4.280000000000000426e+01 3.123285046447723516e+02
4.320000000000000284e+01 3.110933846664220255e+02
4.360000000000000142e+01 3.098747541955233942e+02
4.400000000000000000e+01 3.086722350900349738e+02
4.439999999999999858e+01 3.074854614670481965e+02
4.480000000000000426e+01 3.063140791908157894e+02
4.520000000000000284e+01 3.051577453868662246e+02
4.560000000000000142e+01 3.040161279806366679e+02
4.600000000000000000e+01 3.028889052591700306e+02
4.639999999999999858e+01 3.017757654545185346e+02
4.680000000000000426e+01 3.006764063475861803e+02
4.720000000000000284e+01 2.995905348912320960e+02
4.760000000000000142e+01 2.985178668515289360e+02
4.800000000000000000e+01 2.974581264661485989e+02
4.840000000000000568e+01 2.964110461189115995e+02
4.880000000000000426e+01 2.953763660295982163e+02
4.920000000000000284e+01 2.943538339581799619e+02
4.960000000000000142e+01 2.933432049226803997e+02
5.000000000000000000e+01 2.923442409299260021e+02
5.040000000000000568e+01 2.913567107184931047e+02
5.080000000000000426e+01 2.903803895131996455e+02
5.120000000000000284e+01 2.894150587905315888e+02
5.160000000000000142e+01 2.884605060544287198e+02
5.200000000000000000e+01 2.875165246218928132e+02
5.240000000000000568e+01 2.865829134179081166e+02
5.280000000000000426e+01 2.856594767792007588e+02
5.320000000000000284e+01 2.847460242663847794e+02
5.360000000000000142e+01 2.838423704840751043e+02
5.400000000000000000e+01 2.829483349085675741e+02
5.440000000000000568e+01 2.820637417227106312e+02
5.480000000000000426e+01 2.811884196576160662e+02
5.520000000000000284e+01 2.803222018408739586e+02
5.560000000000000142e+01 2.794649256509563884e+02
5.600000000000000000e+01 2.786164325775139332e+02
5.640000000000000568e+01 2.777765680872815892e+02
5.680000000000000426e+01 2.769451814953304165e+02
5.720000000000000284e+01 2.761221258414123554e+02
5.760000000000000142e+01 2.753072577711611189e+02
5.800000000000000000e+01 2.745004374219246870e+02
5.840000000000000568e+01 2.737015283130145917e+02
5.880000000000000426e+01 2.729103972401737224e+02
5.920000000000000284e+01 2.721269141740675650e+02
5.960000000000000142e+01 2.713509521626210130e+02
6.000000000000000000e+01 2.705823872370273762e+02
6.040000000000000568e+01 2.698210983212664473e+02
6.080000000000000426e+01 2.690669671449791167e+02
6.120000000000000284e+01 2.683198781595480682e+02
6.160000000000000142e+01 2.675797184572494416e+02
6.200000000000000000e+01 2.668463776933397185e+02
6.240000000000000568e+01 2.661197480109534581e+02
6.280000000000000426e+01 2.653997239686922285e+02
6.320000000000000284e+01 2.646862024707909313e+02
6.360000000000000142e+01 2.639790826997519844e+02
6.400000000000000000e+01 2.632782660513473161e+02
6.440000000000000568e+01 2.625836560718861392e+02
6.480000000000001137e+01 2.618951583976592019e+02
6.520000000000000284e+01 2.612126806964666912e+02
6.559999999999999432e+01 2.605361326111489575e+02
6.600000000000000000e+01 2.598654257050349656e+02
6.640000000000000568e+01 2.592004734092358262e+02
6.680000000000001137e+01 2.585411909717057029e+02
6.720000000000000284e+01 2.578874954080038151e+02
6.759999999999999432e+01 2.572393054536876207e+02
6.800000000000000000e+01 2.565965415182748757e+02
6.840000000000000568e+01 2.559591256407134381e+02
6.880000000000001137e+01 2.553269814462996692e+02
6.920000000000000284e+01 2.547000341049910617e+02
6.959999999999999432e+01 2.540782102910586389e+02
7.000000000000000000e+01 2.534614381440290742e+02
7.040000000000000568e+01 2.528496472308673901e+02
7.080000000000001137e+01 2.522427685093541072e+02
7.120000000000000284e+01 2.516407342926120236e+02
7.159999999999999432e+01 2.510434782147397641e+02
7.200000000000000000e+01 2.504509351975119671e+02
7.240000000000000568e+01 2.498630414181069455e+02
7.280000000000001137e+01 2.492797342778233656e+02
7.320000000000000284e+01 2.487009523717514696e+02
7.359999999999999432e+01 2.481266354593636265e+02
7.400000000000000000e+01 2.475567244359916117e+02
7.440000000000000568e+01 2.469911613051592099e+02
7.479999999999999716e+01 2.464298891517391894e+02
7.520000000000000284e+01 2.458728521159062552e+02
7.560000000000000853e+01 2.453199953678579277e+02
7.600000000000000000e+01 2.447712650832766883e+02
7.640000000000000568e+01 2.442266084195071869e+02
7.679999999999999716e+01 2.436859734924251768e+02
7.720000000000000284e+01 2.431493093539721144e+02
7.760000000000000853e+01 2.426165659703362394e+02
7.800000000000000000e+01 2.420876942007544130e+02
7.840000000000000568e+01 2.415626457769166109e+02
7.879999999999999716e+01 2.410413732829516107e+02
7.920000000000000284e+01 2.405238301359746629e+02
7.960000000000000853e+01 2.400099705671786978e+02
8.000000000000000000e+01 2.394997496034508515e+02
8.040000000000000568e+01 2.389931230494976262e+02
8.079999999999999716e+01 2.384900474704607518e+02
8.120000000000000284e+01 2.379904801750098500e+02
8.160000000000000853e+01 2.374943791988945918e+02
8.200000000000000000e+01 2.370017032889425366e+02
8.240000000000000568e+01 2.365124118874880423e+02
8.279999999999999716e+01 2.360264651172191464e+02
8.320000000000000284e+01 2.355438237664279484e+02
8.360000000000000853e+01 2.350644492746532137e+02
8.400000000000000000e+01 2.345883037187015248e+02
8.440000000000000568e+01 2.341153497990365224e+02
8.479999999999999716e+01 2.336455508265235324e+02
8.520000000000000284e+01 2.331788707095194582e+02
8.560000000000000853e+01 2.327152739412971414e+02
8.600000000000000000e+01 2.322547255877935299e+02
8.640000000000000568e+01 2.317971912756721906e+02
8.680000000000001137e+01 2.313426371806909572e+02
8.720000000000000284e+01 2.308910300163645388e+02
8.760000000000000853e+01 2.304423370229141312e+02
8.800000000000000000e+01 2.299965259564948497e+02
8.840000000000000568e+01 2.295535650786936230e+02
8.880000000000001137e+01 2.291134231462878290e+02
8.920000000000000284e+01 2.286760694012594115e+02
8.960000000000000853e+01 2.282414735610541925e+02
9.000000000000000000e+01 2.278096058090820293e+02
9.040000000000000568e+01 2.273804367854484383e+02
9.080000000000001137e+01 2.269539375779125976e+02
9.120000000000000284e+01 2.265300797130643673e+02
9.160000000000000853e+01 2.261088351477142737e+02
9.200000000000000000e+01 2.256901762604906594e+02
9.240000000000000568e+01 2.252740758436376041e+02
9.280000000000001137e+01 2.248605070950082450e+02
9.320000000000000284e+01 2.244494436102481245e+02
9.360000000000000853e+01 2.240408593751627109e+02
9.400000000000000000e+01 2.236347287582647709e+02
9.440000000000000568e+01 2.232310265034955421e+02
9.480000000000001137e+01 2.228297277231162923e+02
9.520000000000000284e+01 2.224308078907637878e+02
9.560000000000000853e+01 2.220342428346668839e+02
9.600000000000000000e+01 2.216400087310188098e+02
9.640000000000000568e+01 2.212480820975013103e+02
9.680000000000001137e+01 2.208584397869563247e+02
9.720000000000000284e+01 2.204710589812014803e+02
9.760000000000000853e+01 2.200859171849850213e+02
9.800000000000000000e+01 2.197029922200775900e+02
9.840000000000000568e+01 2.193222622194953999e+02
9.880000000000001137e+01 2.189437056218533257e+02
9.920000000000000284e+01 2.185673011658429630e+02
9.960000000000000853e+01 2.181930278848330431e+02
1.000000000000000000e+02 2.178208651015889359e+02
1.004000000000000057e+02 2.174507924231080551e+02
1.008000000000000114e+02 2.170827897355681841e+02
1.012000000000000028e+02 2.167168371993860205e+02
1.016000000000000085e+02 2.163529152443822738e+02
1.020000000000000000e+02 2.159910045650520090e+02
1.024000000000000057e+02 2.156310861159360286e+02
1.028000000000000114e+02 2.152731411070919592e+02
1.032000000000000028e+02 2.149171509996616294e+02
1.036000000000000085e+02 2.145630975015327522e+02
1.040000000000000000e+02 2.142109625630926928e+02
1.044000000000000057e+02 2.138607283730713391e+02
1.048000000000000114e+02 2.135123773544717096e+02
1.052000000000000028e+02 2.131658921605853720e+02
1.056000000000000085e+02 2.128212556710912224e+02
1.060000000000000000e+02 2.124784509882350108e+02
1.064000000000000057e+02 2.121374614330877648e+02
1.068000000000000114e+02 2.117982705418817773e+02
1.072000000000000028e+02 2.114608620624213415e+02
1.076000000000000085e+02 2.111252199505667591e+02
1.080000000000000000e+02 2.107913283667905375e+02
1.084000000000000057e+02 2.104591716728027109e+02
1.088000000000000114e+02 2.101287344282450817e+02
1.092000000000000028e+02 2.098000013874514593e+02
1.096000000000000085e+02 2.094729574962728975e+02
1.100000000000000000e+02 2.091475878889670241e+02
1.104000000000000057e+02 2.088238778851484767e+02
1.108000000000000114e+02 2.085018129868001893e+02
1.112000000000000028e+02 2.081813788753438530e+02
1.116000000000000085e+02 2.078625614087679594e+02
1.120000000000000000e+02 2.075453466188118909e+02
1.124000000000000057e+02 2.072297207082055763e+02
1.128000000000000114e+02 2.069156700479624078e+02
1.132000000000000028e+02 2.066031811747249662e+02
1.136000000000000085e+02 2.062922407881620472e+02
1.140000000000000000e+02 2.059828357484156527e+02
1.144000000000000057e+02 2.056749530735969529e+02
1.148000000000000114e+02 2.053685799373306793e+02
1.152000000000000028e+02 2.050637036663454751e+02
1.156000000000000085e+02 2.047603117381106017e+02
1.160000000000000000e+02 2.044583917785171252e+02
1.164000000000000057e+02 2.041579315596029005e+02
1.168000000000000114e+02 2.038589189973202451e+02
1.172000000000000028e+02 2.035613421493455064e+02
1.176000000000000085e+02 2.032651892129292435e+02
1.180000000000000000e+02 2.029704485227866542e+02
1.184000000000000057e+02 2.026771085490270821e+02
1.188000000000000114e+02 2.023851578951213526e+02
1.192000000000000028e+02 2.020945852959071090e+02
1.196000000000000085e+02 2.018053796156302440e+02
1.200000000000000000e+02 2.015175298460222848e+02
1.204000000000000057e+02 2.012310251044129643e+02
1.208000000000000114e+02 2.009458546318766139e+02
1.212000000000000028e+02 2.006620077914125488e+02
1.216000000000000085e+02 2.003794740661579397e+02
1.220000000000000000e+02 2.000982430576330557e+02
1.224000000000000057e+02 1.998183044840174887e+02
1.228000000000000114e+02 1.995396481784578668e+02
1.232000000000000028e+02 1.992622640874047875e+02
1.236000000000000085e+02 1.989861422689799042e+02
1.240000000000000000e+02 1.987112728913715785e+02
1.244000000000000057e+02 1.984376462312589240e+02
1.248000000000000114e+02 1.981652526722632501e+02
1.252000000000000028e+02 1.978940827034269319e+02
1.256000000000000085e+02 1.976241269177186268e+02
1.260000000000000000e+02 1.973553760105644699e+02
1.264000000000000057e+02 1.970878207784046765e+02
1.268000000000000114e+02 1.968214521172751574e+02
1.272000000000000028e+02 1.965562610214138033e+02
1.276000000000000085e+02 1.962922385818899329e+02
1.280000000000000000e+02 1.960293759852580138e+02
1.284000000000000057e+02 1.957676645122338073e+02
1.288000000000000114e+02 1.955070955363933081e+02
1.291999999999999886e+02 1.952476605228935966e+02
1.296000000000000227e+02 1.949893510272149229e+02
1.300000000000000000e+02 1.947321586939250153e+02
1.304000000000000057e+02 1.944760752554628880e+02
1.308000000000000114e+02 1.942210925309437357e+02
1.311999999999999886e+02 1.939672024249836682e+02
1.316000000000000227e+02 1.937143969265436567e+02
1.320000000000000000e+02 1.934626681077931778e+02
1.324000000000000057e+02 1.932120081229921595e+02
1.328000000000000114e+02 1.929624092073913459e+02
1.331999999999999886e+02 1.927138636761513055e+02
1.336000000000000227e+02 1.924663639232782089e+02
1.340000000000000000e+02 1.922199024205779949e+02
1.344000000000000057e+02 1.919744717166265389e+02
1.348000000000000114e+02 1.917300644357573276e+02
1.351999999999999886e+02 1.914866732770652789e+02
1.356000000000000227e+02 1.912442910134260501e+02
1.360000000000000000e+02 1.910029104905322868e+02
1.364000000000000057e+02 1.907625246259440814e+02
1.368000000000000114e+02 1.905231264081554912e+02
1.371999999999999886e+02 1.902847088956753794e+02
1.376000000000000227e+02 1.900472652161231508e+02
1.380000000000000000e+02 1.898107885653387541e+02
1.384000000000000057e+02 1.895752722065066393e+02
1.388000000000000114e+02 1.893407094692937278e+02
1.392000000000000171e+02 1.891070937490005122e+02
1.395999999999999943e+02 1.888744185057259415e+02
1.400000000000000000e+02 1.886426772635448685e+02
1.404000000000000057e+02 1.884118636096987416e+02
1.408000000000000114e+02 1.881819711937984039e+02
1.412000000000000171e+02 1.879529937270395976e+02
1.415999999999999943e+02 1.877249249814304051e+02
1.420000000000000000e+02 1.874977587890305415e+02
1.424000000000000057e+02 1.872714890412022442e+02
1.428000000000000114e+02 1.870461096878731553e+02
1.432000000000000171e+02 1.868216147368093800e+02
1.435999999999999943e+02 1.865979982529009078e+02
1.440000000000000000e+02 1.863752543574566971e+02
1.444000000000000057e+02 1.861533772275111005e+02
1.448000000000000114e+02 1.859323610951407488e+02
1.452000000000000171e+02 1.857122002467912409e+02
1.455999999999999943e+02 1.854928890226143778e+02
1.460000000000000000e+02 1.852744218158150602e+02
1.464000000000000057e+02 1.850567930720081051e+02
1.468000000000000114e+02 1.848399972885844136e+02
1.472000000000000171e+02 1.846240290140867160e+02
1.475999999999999943e+02 1.844088828475945263e+02
1.480000000000000000e+02 1.841945534381179641e+02
1.484000000000000057e+02 1.839810354840007847e+02
1.488000000000000114e+02 1.837683237323320213e+02
1.492000000000000171e+02 1.835564129783660974e+02
1.495999999999999943e+02 1.833452980649515780e+02
1.500000000000000000e+02 1.831349738819684489e+02
