1.000000000000000000e+01 1.996607911560288926e+02
1.040000000000000036e+01 2.459188641624657521e+02
1.080000000000000071e+01 2.748769257785344280e+02
1.119999999999999929e+01 2.783377909705859565e+02
1.159999999999999964e+01 2.794397770632969014e+02
1.200000000000000000e+01 2.799542756650724300e+02
1.240000000000000036e+01 2.830034831950746366e+02
1.280000000000000071e+01 2.877110456430955878e+02
1.319999999999999929e+01 2.963552919133188652e+02
1.359999999999999964e+01 3.031955879897157047e+02
1.400000000000000000e+01 3.100333064684177771e+02
1.440000000000000036e+01 3.043645774157671440e+02
1.480000000000000071e+01 2.990536967019249346e+02
1.519999999999999929e+01 2.940616791854657208e+02
1.560000000000000142e+01 2.893555334285314302e+02
1.600000000000000000e+01 2.849070830328216744e+02
1.639999999999999858e+01 2.806920673957538384e+02
1.680000000000000071e+01 2.766894451424086014e+02
1.719999999999999929e+01 2.728808472283590163e+02
1.760000000000000142e+01 2.692501423486075396e+02
1.800000000000000000e+01 2.657830878284368055e+02
1.839999999999999858e+01 2.624670464213975265e+02
1.880000000000000071e+01 2.592907545174298889e+02
1.920000000000000284e+01 2.562441308799889725e+02
1.960000000000000142e+01 2.533181176448383667e+02
2.000000000000000000e+01 2.505045472286337258e+02
2.039999999999999858e+01 2.477960302168424960e+02
2.080000000000000071e+01 2.451858603675813981e+02
2.120000000000000284e+01 2.426679336775334832e+02
2.160000000000000142e+01 2.402366790764179711e+02
2.200000000000000000e+01 2.378869987961496690e+02
2.239999999999999858e+01 2.356142168348896462e+02
2.280000000000000071e+01 2.334140342302347619e+02
2.320000000000000284e+01 2.312824900886525370e+02
2.360000000000000142e+01 2.292159275039666682e+02
2.400000000000000000e+01 2.272109636467529583e+02
2.439999999999999858e+01 2.252644634268868913e+02
2.480000000000000071e+01 2.233735162292772713e+02
2.520000000000000284e+01 2.215354153026935933e+02
2.560000000000000142e+01 2.197476394471761409e+02
2.600000000000000000e+01 2.180078366996278305e+02
2.640000000000000213e+01 2.163138097620395683e+02
2.680000000000000071e+01 2.146635029541483561e+02
2.719999999999999929e+01 2.130549905035520624e+02
2.760000000000000142e+01 2.114864660125216460e+02
2.800000000000000000e+01 2.099562329628417956e+02
2.840000000000000213e+01 2.084626961386995845e+02
2.880000000000000071e+01 2.070043538634976414e+02
2.920000000000000284e+01 2.055797909599793911e+02
2.960000000000000142e+01 2.041876723545929622e+02
3.000000000000000000e+01 2.028267372569095528e+02
3.040000000000000213e+01 2.014957938534163873e+02
3.080000000000000071e+01 2.001937144623294103e+02
3.120000000000000284e+01 1.989194311024077422e+02
3.160000000000000142e+01 1.976719314342392977e+02
3.200000000000000000e+01 1.964502550372384064e+02
3.240000000000000568e+01 1.952534899897479761e+02
3.279999999999999716e+01 1.940807697232679061e+02
3.320000000000000284e+01 1.929312701250015039e+02
3.360000000000000142e+01 1.918042068656980064e+02
3.400000000000000000e+01 1.906988329322106210e+02
3.440000000000000568e+01 1.896144363463464231e+02
3.479999999999999716e+01 1.885503380534818234e+02
3.520000000000000284e+01 1.875058899660990051e+02
3.560000000000000142e+01 1.864804731488844993e+02
3.600000000000000000e+01 1.854734961333525121e+02
3.640000000000000568e+01 1.844843933511284604e+02
3.679999999999999716e+01 1.835126236760724794e+02
3.720000000000000284e+01 1.825576690663543786e+02
3.760000000000000142e+01 1.816190332984241991e+02
3.800000000000000000e+01 1.806962407855666584e+02
3.840000000000000568e+01 1.797888354743942330e+02
3.879999999999999716e+01 1.788963798132337502e+02
3.920000000000000284e+01 1.780184537868976520e+02
3.960000000000000142e+01 1.771546540128159677e+02
4.000000000000000000e+01 1.763045928939414182e+02
4.040000000000000568e+01 1.754678978242318408e+02
4.079999999999999716e+01 1.746442104428732591e+02
4.120000000000000284e+01 1.738331859337235130e+02
4.160000000000000142e+01 1.730344923667525165e+02
4.200000000000000000e+01 1.722478100785157267e+02
4.239999999999999858e+01 1.714728310889390741e+02
4.280000000000000426e+01 1.707092585519109775e+02
4.320000000000000284e+01 1.699568062373749058e+02
4.360000000000000142e+01 1.692151980427971694e+02
4.400000000000000000e+01 1.684841675320487013e+02
4.439999999999999858e+01 1.677634574998903076e+02
4.480000000000000426e+01 1.670528195603878885e+02
4.520000000000000284e+01 1.663520137577102105e+02
4.560000000000000142e+01 1.656608081978748999e+02
4.600000000000000000e+01 1.649789787001171817e+02
4.639999999999999858e+01 1.643063084666485736e+02
4.680000000000000426e+01 1.636425877696644591e+02
4.720000000000000284e+01 1.629876136545387340e+02
4.760000000000000142e+01 1.623411896582205429e+02
4.800000000000000000e+01 1.617031255419156537e+02
4.840000000000000568e+01 1.610732370371990498e+02
4.880000000000000426e+01 1.604513456047643842e+02
4.920000000000000284e+01 1.598372782050686567e+02
4.960000000000000142e+01 1.592308670801822643e+02
5.000000000000000000e+01 1.586319495461985980e+02
5.040000000000000568e+01 1.580403677956016111e+02
5.080000000000000426e+01 1.574559687090285252e+02
5.120000000000000284e+01 1.568786036759013314e+02
5.160000000000000142e+01 1.563081284234349368e+02
5.200000000000000000e+01 1.557444028535609277e+02
5.240000000000000568e+01 1.551872908873351093e+02
5.280000000000000426e+01 1.546366603164244111e+02
5.320000000000000284e+01 1.540923826612931862e+02
5.360000000000000142e+01 1.535543330357331229e+02
5.400000000000000000e+01 1.530223900174021878e+02
5.440000000000000568e+01 1.524964355240581710e+02
5.480000000000000426e+01 1.519763546951924695e+02
5.520000000000000284e+01 1.514620357787850935e+02
5.560000000000000142e+01 1.509533700229210922e+02
5.600000000000000000e+01 1.504502515720212728e+02
5.640000000000000568e+01 1.499525773674563141e+02
5.680000000000000426e+01 1.494602470523258262e+02
5.720000000000000284e+01 1.489731628801963552e+02
5.760000000000000142e+01 1.484912296276046391e+02
5.800000000000000000e+01 1.480143545101426810e+02
5.840000000000000568e+01 1.475424471019518364e+02
5.880000000000000426e+01 1.470754192584630005e+02
5.920000000000000284e+01 1.466131850422275988e+02
5.960000000000000142e+01 1.461556606516948023e+02
6.000000000000000000e+01 1.457027643527958958e+02
6.040000000000000568e+01 1.452544164132060587e+02
6.080000000000000426e+01 1.448105390391596359e+02
6.120000000000000284e+01 1.443710563147019172e+02
6.160000000000000142e+01 1.439358941432668075e+02
6.200000000000000000e+01 1.435049801914751697e+02
6.240000000000000568e+01 1.430782438350543941e+02
6.280000000000000426e+01 1.426556161067847484e+02
6.320000000000000284e+01 1.422370296463828936e+02
6.360000000000000142e+01 1.418224186522374453e+02
6.400000000000000000e+01 1.414117188349159164e+02
6.440000000000000568e+01 1.410048673723666184e+02
6.480000000000001137e+01 1.406018028667419344e+02
6.520000000000000284e+01 1.402024653027746126e+02
6.559999999999999432e+01 1.398067960076403153e+02
6.600000000000000000e+01 1.394147376122446360e+02
6.640000000000000568e+01 1.390262340138740740e+02
6.680000000000001137e+01 1.386412303401552890e+02
6.720000000000000284e+01 1.382596729142673553e+02
6.759999999999999432e+01 1.378815092213568221e+02
6.800000000000000000e+01 1.375066878761056728e+02
6.840000000000000568e+01 1.371351585914057409e+02
6.880000000000001137e+01 1.367668721480951035e+02
6.920000000000000284e+01 1.364017803657139893e+02
6.959999999999999432e+01 1.360398360742394175e+02
7.000000000000000000e+01 1.356809930867603953e+02
7.040000000000000568e+01 1.353252061730559888e+02
7.080000000000001137e+01 1.349724310340420175e+02
7.120000000000000284e+01 1.346226242770516706e+02
7.159999999999999432e+01 1.342757433919188372e+02
7.200000000000000000e+01 1.339317467278325466e+02
7.240000000000000568e+01 1.335905934709340102e+02
7.280000000000001137e+01 1.332522436226273044e+02
7.320000000000000284e+01 1.329166579785777458e+02
7.359999999999999432e+01 1.325837981083711270e+02
7.400000000000000000e+01 1.322536263358105089e+02
7.440000000000000568e+01 1.319261057198260119e+02
7.479999999999999716e+01 1.316012000359755518e+02
7.520000000000000284e+01 1.312788737585148056e+02
7.560000000000000853e+01 1.309590920430154597e+02
7.600000000000000000e+01 1.306418207095130697e+02
7.640000000000000568e+01 1.303270262261633547e+02
7.679999999999999716e+01 1.300146756933914389e+02
7.720000000000000284e+01 1.297047368285139726e+02
7.760000000000000853e+01 1.293971779508196960e+02
7.800000000000000000e+01 1.290919679670903122e+02
7.840000000000000568e+01 1.287890763575480548e+02
7.879999999999999716e+01 1.284884731622138077e+02
7.920000000000000284e+01 1.281901289676624458e+02
7.960000000000000853e+01 1.278940148941611881e+02
8.000000000000000000e+01 1.276001025831785114e+02
8.040000000000000568e+01 1.273083641852500705e+02
8.079999999999999716e+01 1.270187723481905380e+02
8.120000000000000284e+01 1.267313002056392861e+02
8.160000000000000853e+01 1.264459213659287400e+02
8.200000000000000000e+01 1.261626099012645454e+02
8.240000000000000568e+01 1.258813403372075186e+02
8.279999999999999716e+01 1.256020876424474864e+02
8.320000000000000284e+01 1.253248272188590136e+02
8.360000000000000853e+01 1.250495348918301630e+02
8.400000000000000000e+01 1.247761869008556062e+02
8.440000000000000568e+01 1.245047598903849178e+02
8.479999999999999716e+01 1.242352309009187081e+02
8.520000000000000284e+01 1.239675773603438529e+02
8.560000000000000853e+01 1.237017770755010417e+02
8.600000000000000000e+01 1.234378082239764467e+02
8.640000000000000568e+01 1.231756493461112427e+02
8.680000000000001137e+01 1.229152793372216195e+02
8.720000000000000284e+01 1.226566774400229605e+02
8.760000000000000853e+01 1.223998232372518942e+02
8.800000000000000000e+01 1.221446966444798932e+02
8.840000000000000568e+01 1.218912779031129361e+02
8.880000000000001137e+01 1.216395475735710647e+02
8.920000000000000284e+01 1.213894865286427205e+02
8.960000000000000853e+01 1.211410759470084741e+02
9.000000000000000000e+01 1.208942973069290758e+02
9.040000000000000568e+01 1.206491323800925670e+02
9.080000000000001137e+01 1.204055632256166035e+02
9.120000000000000284e+01 1.201635721842001487e+02
9.160000000000000853e+01 1.199231418724210982e+02
9.200000000000000000e+01 1.196842551771752596e+02
9.240000000000000568e+01 1.194468952502521688e+02
9.280000000000001137e+01 1.192110455030444314e+02
9.320000000000000284e+01 1.189766896013861981e+02
9.360000000000000853e+01 1.187438114605172643e+02
9.400000000000000000e+01 1.185123952401690417e+02
9.440000000000000568e+01 1.182824253397691052e+02
9.480000000000001137e+01 1.180538863937607630e+02
9.520000000000000284e+01 1.178267632670346359e+02
9.560000000000000853e+01 1.176010410504685950e+02
9.600000000000000000e+01 1.173767050565735843e+02
9.640000000000000568e+01 1.171537408152420312e+02
9.680000000000001137e+01 1.169321340695961453e+02
9.720000000000000284e+01 1.167118707719330217e+02
9.760000000000000853e+01 1.164929370797643173e+02
9.800000000000000000e+01 1.162753193519477009e+02
9.840000000000000568e+01 1.160590041449072913e+02
9.880000000000001137e+01 1.158439782089413654e+02
9.920000000000000284e+01 1.156302284846140367e+02
9.960000000000000853e+01 1.154177420992294856e+02
1.000000000000000000e+02 1.152065063633858699e+02
1.004000000000000057e+02 1.149965087676073381e+02
1.008000000000000114e+02 1.147877369790516298e+02
1.012000000000000028e+02 1.145801788382913458e+02
1.016000000000000085e+02 1.143738223561671390e+02
1.020000000000000000e+02 1.141686557107107660e+02
1.024000000000000057e+02 1.139646672441360948e+02
1.028000000000000114e+02 1.137618454598965911e+02
1.032000000000000028e+02 1.135601790198070375e+02
1.036000000000000085e+02 1.133596567412285196e+02
1.040000000000000000e+02 1.131602675943143907e+02
1.044000000000000057e+02 1.129620006993159507e+02
1.048000000000000114e+02 1.127648453239462754e+02
1.052000000000000028e+02 1.125687908808010604e+02
1.056000000000000085e+02 1.123738269248339634e+02
1.060000000000000000e+02 1.121799431508864444e+02
1.064000000000000057e+02 1.119871293912699457e+02
1.068000000000000114e+02 1.117953756133987326e+02
1.072000000000000028e+02 1.116046719174735244e+02
1.076000000000000085e+02 1.114150085342127312e+02
1.080000000000000000e+02 1.112263758226319226e+02
1.084000000000000057e+02 1.110387642678691975e+02
1.088000000000000114e+02 1.108521644790556877e+02
1.092000000000000028e+02 1.106665671872301147e+02
1.096000000000000085e+02 1.104819632432962919e+02
1.100000000000000000e+02 1.102983436160224642e+02
1.104000000000000057e+02 1.101156993900817156e+02
1.108000000000000114e+02 1.099340217641317849e+02
1.112000000000000028e+02 1.097533020489344722e+02
1.116000000000000085e+02 1.095735316655125757e+02
1.120000000000000000e+02 1.093947021433440057e+02
1.124000000000000057e+02 1.092168051185921627e+02
1.128000000000000114e+02 1.090398323323716454e+02
1.132000000000000028e+02 1.088637756290484333e+02
1.136000000000000085e+02 1.086886269545739765e+02
1.140000000000000000e+02 1.085143783548518286e+02
1.144000000000000057e+02 1.083410219741366518e+02
1.148000000000000114e+02 1.081685500534646707e+02
1.152000000000000028e+02 1.079969549291146365e+02
1.156000000000000085e+02 1.078262290310988760e+02
1.160000000000000000e+02 1.076563648816835155e+02
1.164000000000000057e+02 1.074873550939373104e+02
1.168000000000000114e+02 1.073191923703085422e+02
1.172000000000000028e+02 1.071518695012290436e+02
1.176000000000000085e+02 1.069853793637450963e+02
1.180000000000000000e+02 1.068197149201742491e+02
1.184000000000000057e+02 1.066548692167876311e+02
1.188000000000000114e+02 1.064908353825175595e+02
1.192000000000000028e+02 1.063276066276888514e+02
1.196000000000000085e+02 1.061651762427745780e+02
1.200000000000000000e+02 1.060035375971747698e+02
1.204000000000000057e+02 1.058426841380180434e+02
1.208000000000000114e+02 1.056826093889854405e+02
1.212000000000000028e+02 1.055233069491561366e+02
1.216000000000000085e+02 1.053647704918742960e+02
1.220000000000000000e+02 1.052069937636369588e+02
1.224000000000000057e+02 1.050499705830022634e+02
1.228000000000000114e+02 1.048936948395175506e+02
1.232000000000000028e+02 1.047381604926670207e+02
1.236000000000000085e+02 1.045833615708386048e+02
1.240000000000000000e+02 1.044292921703092816e+02
1.244000000000000057e+02 1.042759464542489809e+02
1.248000000000000114e+02 1.041233186517420961e+02
1.252000000000000028e+02 1.039714030568268299e+02
1.256000000000000085e+02 1.038201940275512527e+02
1.260000000000000000e+02 1.036696859850466979e+02
1.264000000000000057e+02 1.035198734126171161e+02
1.268000000000000114e+02 1.033707508548447436e+02
1.272000000000000028e+02 1.032223129167115445e+02
1.276000000000000085e+02 1.030745542627359157e+02
1.280000000000000000e+02 1.029274696161247533e+02
1.284000000000000057e+02 1.027810537579399579e+02
1.288000000000000114e+02 1.026353015262797896e+02
1.291999999999999886e+02 1.024902078154741787e+02
1.296000000000000227e+02 1.023457675752940190e+02
1.300000000000000000e+02 1.022019758101740763e+02
1.304000000000000057e+02 1.020588275784491969e+02
1.308000000000000114e+02 1.019163179916035915e+02
1.311999999999999886e+02 1.017744422135330638e+02
1.316000000000000227e+02 1.016331954598193903e+02
1.320000000000000000e+02 1.014925729970175894e+02
1.324000000000000057e+02 1.013525701419546010e+02
1.328000000000000114e+02 1.012131822610403304e+02
1.331999999999999886e+02 1.010744047695898473e+02
1.336000000000000227e+02 1.009362331311570529e+02
1.340000000000000000e+02 1.007986628568797016e+02
1.344000000000000057e+02 1.006616895048349249e+02
1.348000000000000114e+02 1.005253086794056685e+02
1.351999999999999886e+02 1.003895160306575747e+02
1.356000000000000227e+02 1.002543072537261537e+02
1.360000000000000000e+02 1.001196780882139024e+02
1.364000000000000057e+02 9.998562431759752656e+01
1.368000000000000114e+02 9.985214176864448632e+01
1.371999999999999886e+02 9.971922631083944566e+01
1.376000000000000227e+02 9.958687385581968954e+01
1.380000000000000000e+02 9.945508035681999104e+01
1.384000000000000057e+02 9.932384180812600505e+01
1.388000000000000114e+02 9.919315424453704111e+01
1.392000000000000171e+02 9.906301374083682276e+01
1.395999999999999943e+02 9.893341641127318553e+01
1.400000000000000000e+02 9.880435840904584666e+01
1.404000000000000057e+02 9.867583592580228924e+01
1.408000000000000114e+02 9.854784519114187447e+01
1.412000000000000171e+02 9.842038247212741453e+01
1.415999999999999943e+02 9.829344407280487417e+01
1.420000000000000000e+02 9.816702633373006393e+01
1.424000000000000057e+02 9.804112563150346205e+01
1.428000000000000114e+02 9.791573837831165861e+01
1.432000000000000171e+02 9.779086102147617510e+01
1.435999999999999943e+02 9.766649004300944625e+01
1.440000000000000000e+02 9.754262195917745260e+01
1.444000000000000057e+02 9.741925332006915994e+01
1.448000000000000114e+02 9.729638070917272330e+01
1.452000000000000171e+02 9.717400074295792933e+01
1.455999999999999943e+02 9.705211007046528948e+01
1.460000000000000000e+02 9.693070537290130062e+01
1.464000000000000057e+02 9.680978336323975952e+01
1.468000000000000114e+02 9.668934078582940117e+01
1.472000000000000171e+02 9.656937441600713612e+01
1.475999999999999943e+02 9.644988105971739856e+01
1.480000000000000000e+02 9.633085755313706500e+01
1.484000000000000057e+02 9.621230076230608574e+01
1.488000000000000114e+02 9.609420758276357333e+01
1.492000000000000171e+02 9.597657493918939053e+01
1.495999999999999943e+02 9.585939978505103909e+01
1.500000000000000000e+02 9.574267910225577793e+01
