1.000000000000000000e+01 1.172528921151633483e+02
1.040000000000000036e+01 1.149076575341925945e+02
1.080000000000000071e+01 1.125250417044064051e+02
1.119999999999999929e+01 1.102425016946310734e+02
1.159999999999999964e+01 1.038200053035472763e+02
1.200000000000000000e+01 1.016319704821052454e+02
1.240000000000000036e+01 9.957711011614088648e+01
1.280000000000000071e+01 9.764247298168879752e+01
1.319999999999999929e+01 9.581674636872506312e+01
1.359999999999999964e+01 9.409002490045203615e+01
1.400000000000000000e+01 9.243236887448378525e+01
1.440000000000000036e+01 9.075113635304796844e+01
1.480000000000000071e+01 8.915655276826848308e+01
1.519999999999999929e+01 8.764124960939541609e+01
1.560000000000000142e+01 8.619872811996394546e+01
1.600000000000000000e+01 8.482322804000324368e+01
1.639999999999999858e+01 8.350962051411116249e+01
1.680000000000000071e+01 8.225757422497224525e+01
1.719999999999999929e+01 8.119290389268240915e+01
1.760000000000000142e+01 8.017146153399332320e+01
1.800000000000000000e+01 7.919032744080311659e+01
1.839999999999999858e+01 7.824685536169208433e+01
1.880000000000000071e+01 7.733863990250496556e+01
1.920000000000000284e+01 7.816063157730438604e+01
1.960000000000000142e+01 7.729590322920580547e+01
2.000000000000000000e+01 7.646252161231318212e+01
2.039999999999999858e+01 7.565857586648249367e+01
2.080000000000000071e+01 7.488231815497725563e+01
2.120000000000000284e+01 7.413214578761802898e+01
2.160000000000000142e+01 7.340658574012799420e+01
2.200000000000000000e+01 7.270428119024033720e+01
2.239999999999999858e+01 7.202397976034359317e+01
2.280000000000000071e+01 7.136452321139336163e+01
2.320000000000000284e+01 7.072483837677924612e+01
2.360000000000000142e+01 7.010392916024775900e+01
2.400000000000000000e+01 6.951114091112984283e+01
2.439999999999999858e+01 6.895793581406758221e+01
2.480000000000000071e+01 6.841909456964179981e+01
2.520000000000000284e+01 6.789399167689454373e+01
2.560000000000000142e+01 6.738203941157973986e+01
2.600000000000000000e+01 6.688268493107929658e+01
2.640000000000000213e+01 6.639540764666929817e+01
2.680000000000000071e+01 6.591971683438303842e+01
2.719999999999999929e+01 6.546507875651043662e+01
2.760000000000000142e+01 6.506212553278172095e+01
2.800000000000000000e+01 6.466804917746945591e+01
2.840000000000000213e+01 6.432140262224261562e+01
2.880000000000000071e+01 6.399472088536415981e+01
2.920000000000000284e+01 6.367458367959213206e+01
2.960000000000000142e+01 6.336075856345178181e+01
3.000000000000000000e+01 6.232969692088416025e+01
3.040000000000000213e+01 6.204332505783342810e+01
3.080000000000000071e+01 6.176232541551905797e+01
3.120000000000000284e+01 6.148651264960381013e+01
3.160000000000000142e+01 5.821882537960877357e+01
3.200000000000000000e+01 5.791872925709524367e+01
3.240000000000000568e+01 5.762420216117386929e+01
3.279999999999999716e+01 5.733506051251291069e+01
3.320000000000000284e+01 5.705112942344150184e+01
3.360000000000000142e+01 5.677224216325727468e+01
3.400000000000000000e+01 5.649823966388616725e+01
3.440000000000000568e+01 5.622897006229482741e+01
3.479999999999999716e+01 5.596428827642547077e+01
3.520000000000000284e+01 5.570405561175063269e+01
3.560000000000000142e+01 5.544813939583409734e+01
3.600000000000000000e+01 5.519328348581591115e+01
3.640000000000000568e+01 5.492658753279996375e+01
3.679999999999999716e+01 5.466439409632631197e+01
3.720000000000000284e+01 5.440657126556250489e+01
3.760000000000000142e+01 5.415299258240281688e+01
3.800000000000000000e+01 5.390353675234798914e+01
3.840000000000000568e+01 5.365808737401715689e+01
3.879999999999999716e+01 5.341653268588260062e+01
3.920000000000000284e+01 5.317876532893954078e+01
3.960000000000000142e+01 5.294468212413407571e+01
4.000000000000000000e+01 5.271418386347134799e+01
4.040000000000000568e+01 5.248717511381708789e+01
4.079999999999999716e+01 5.226356403248639992e+01
4.120000000000000284e+01 5.204326219378823737e+01
4.160000000000000142e+01 5.182618442576129780e+01
4.200000000000000000e+01 5.161224865639798054e+01
4.239999999999999858e+01 5.140137576870876046e+01
4.280000000000000426e+01 5.119348946403002287e+01
4.320000000000000284e+01 5.133828203577665761e+01
4.360000000000000142e+01 5.114216368463725360e+01
4.400000000000000000e+01 5.094868208526226283e+01
4.439999999999999858e+01 5.075777509365003226e+01
4.480000000000000426e+01 5.056938264879834577e+01
4.520000000000000284e+01 5.038344668264922888e+01
4.560000000000000142e+01 5.019991103478493244e+01
4.600000000000000000e+01 5.001872137157992881e+01
4.639999999999999858e+01 4.983943361542768002e+01
4.680000000000000426e+01 4.965911537843366830e+01
4.720000000000000284e+01 4.948103689615197709e+01
4.760000000000000142e+01 4.930514953798802935e+01
4.800000000000000000e+01 4.913140617645580477e+01
4.840000000000000568e+01 4.895976112717683293e+01
4.880000000000000426e+01 4.879017009180479647e+01
4.920000000000000284e+01 4.862259010370779322e+01
4.960000000000000142e+01 4.845697947625110658e+01
5.000000000000000000e+01 4.829515603381879174e+01
5.040000000000000568e+01 4.813681731124742669e+01
5.080000000000000426e+01 4.798023715003203904e+01
5.120000000000000284e+01 4.782538125523332440e+01
5.160000000000000142e+01 4.767221629202776967e+01
5.200000000000000000e+01 4.556327959609023992e+01
5.240000000000000568e+01 4.540569026326031832e+01
5.280000000000000426e+01 4.524982942489092608e+01
5.320000000000000284e+01 4.310704978988123770e+01
5.360000000000000142e+01 4.294694030712751953e+01
5.400000000000000000e+01 4.278859274311339789e+01
5.440000000000000568e+01 4.263197440372211133e+01
5.480000000000000426e+01 4.247705344891662804e+01
5.520000000000000284e+01 4.232379886397124125e+01
5.560000000000000142e+01 4.217218043188921683e+01
5.600000000000000000e+01 4.202216870694867623e+01
5.640000000000000568e+01 4.187373498932227278e+01
5.680000000000000426e+01 4.172685130071886306e+01
5.720000000000000284e+01 4.158149036099889173e+01
5.760000000000000142e+01 4.143762556571701339e+01
5.800000000000000000e+01 4.120756796925384435e+01
5.840000000000000568e+01 4.106643821129934935e+01
5.880000000000000426e+01 4.092674714510863510e+01
5.920000000000000284e+01 4.078847011166980963e+01
5.960000000000000142e+01 4.065158304410424961e+01
6.000000000000000000e+01 4.051606244942668411e+01
6.040000000000000568e+01 4.038188539099002128e+01
6.080000000000000426e+01 4.024902947158426514e+01
6.120000000000000284e+01 4.011747281716097291e+01
6.160000000000000142e+01 3.998719406115596087e+01
6.200000000000000000e+01 3.985817232938430266e+01
6.240000000000000568e+01 3.973038722548315604e+01
6.280000000000000426e+01 3.960381881687891337e+01
6.320000000000000284e+01 3.947844762125637175e+01
6.360000000000000142e+01 3.935425459350898336e+01
6.400000000000000000e+01 3.923122111314987137e+01
6.440000000000000568e+01 3.910932897216443394e+01
6.480000000000001137e+01 3.898856036328645303e+01
6.520000000000000284e+01 3.886889786868016472e+01
6.559999999999999432e+01 3.875032444901184192e+01
6.600000000000000000e+01 3.863282343289498044e+01
6.640000000000000568e+01 3.858200058923451081e+01
6.680000000000001137e+01 3.846935268916366368e+01
6.720000000000000284e+01 3.835770501786166875e+01
6.759999999999999432e+01 3.824704257878484981e+01
6.800000000000000000e+01 3.813735069081518958e+01
6.840000000000000568e+01 3.802861497974634375e+01
6.880000000000001137e+01 3.792082137004965148e+01
6.920000000000000284e+01 3.781395607690942740e+01
6.959999999999999432e+01 3.770800559851689115e+01
7.000000000000000000e+01 3.760295670861312090e+01
7.040000000000000568e+01 3.749879644927139566e+01
7.080000000000001137e+01 3.739551212390993840e+01
7.120000000000000284e+01 3.729309129052627014e+01
7.159999999999999432e+01 3.719152175514514624e+01
7.200000000000000000e+01 3.709079156547186784e+01
7.240000000000000568e+01 3.699088900474353636e+01
7.280000000000001137e+01 3.689180258577095373e+01
7.320000000000000284e+01 3.679352104516416233e+01
7.359999999999999432e+01 3.669603333773504517e+01
7.400000000000000000e+01 3.659932863107043488e+01
7.440000000000000568e+01 3.650339630026984139e+01
7.479999999999999716e+01 3.640822592284168024e+01
7.520000000000000284e+01 3.631380727375254480e+01
7.560000000000000853e+01 3.622254855481865832e+01
7.600000000000000000e+01 3.613167524609517045e+01
7.640000000000000568e+01 3.604149570824097992e+01
7.679999999999999716e+01 3.595200095995200229e+01
7.720000000000000284e+01 3.586074991093132525e+01
7.760000000000000853e+01 3.576981038177083150e+01
7.800000000000000000e+01 3.567809541139205720e+01
7.840000000000000568e+01 3.558564228863443901e+01
7.879999999999999716e+01 3.549388902369668841e+01
7.920000000000000284e+01 3.540282668565770052e+01
7.960000000000000853e+01 3.531244650395144902e+01
8.000000000000000000e+01 3.522273986466221629e+01
8.040000000000000568e+01 3.513369830692420948e+01
8.079999999999999716e+01 3.504531351942222273e+01
8.120000000000000284e+01 3.495757733698991387e+01
8.160000000000000853e+01 3.487048173730254064e+01
8.200000000000000000e+01 3.478401883766098734e+01
8.240000000000000568e+01 3.469818089186412635e+01
8.279999999999999716e+01 3.461296028716684248e+01
8.320000000000000284e+01 3.452834954132067935e+01
8.360000000000000853e+01 3.444434129969456393e+01
8.400000000000000000e+01 3.436092833247320755e+01
8.440000000000000568e+01 3.427810353193042658e+01
8.479999999999999716e+01 3.419560522401817337e+01
8.520000000000000284e+01 3.411306090036589467e+01
8.560000000000000853e+01 3.403109490584581209e+01
8.600000000000000000e+01 3.394970043159316475e+01
8.640000000000000568e+01 3.386787939776721146e+01
8.680000000000001137e+01 3.378648383580869563e+01
8.720000000000000284e+01 3.370565067515899926e+01
8.760000000000000853e+01 3.362537339239442247e+01
8.800000000000000000e+01 3.354564557030425931e+01
8.840000000000000568e+01 3.346646089566888804e+01
8.880000000000001137e+01 3.338781315709464792e+01
8.920000000000000284e+01 3.330969624290346331e+01
8.960000000000000853e+01 3.323210413907599303e+01
9.000000000000000000e+01 3.315503092724648582e+01
9.040000000000000568e+01 3.307847078274774333e+01
9.080000000000001137e+01 3.300241797270481214e+01
9.120000000000000284e+01 3.292686685417610448e+01
9.160000000000000853e+01 3.285181187234027789e+01
9.200000000000000000e+01 3.277724755872772278e+01
9.240000000000000568e+01 3.270316852949540021e+01
9.280000000000001137e+01 3.262956948374365140e+01
9.320000000000000284e+01 3.255644520187382795e+01
9.360000000000000853e+01 3.248379054398562005e+01
9.400000000000000000e+01 3.241160044831288189e+01
9.440000000000000568e+01 3.233986992969698093e+01
9.480000000000001137e+01 3.226859407809637048e+01
9.520000000000000284e+01 3.222309381523521665e+01
9.560000000000000853e+01 3.215310295291855169e+01
9.600000000000000000e+01 3.208354839613236464e+01
9.640000000000000568e+01 3.201442557881271256e+01
9.680000000000001137e+01 3.194573000200538360e+01
9.720000000000000284e+01 3.187745723259789088e+01
9.760000000000000853e+01 3.180960290208066965e+01
9.800000000000000000e+01 3.174216270533671747e+01
9.840000000000000568e+01 3.167513239945893844e+01
9.880000000000001137e+01 3.160850780259432469e+01
9.920000000000000284e+01 3.154228479281442077e+01
9.960000000000000853e+01 3.147645930701118289e+01
1.000000000000000000e+02 3.141102733981779593e+01
1.004000000000000057e+02 3.134598494255349266e+01
1.008000000000000114e+02 3.128132822219203035e+01
1.012000000000000028e+02 3.121705334035300794e+01
1.016000000000000085e+02 3.115315651231546212e+01
1.020000000000000000e+02 3.108963400605327365e+01
1.024000000000000057e+02 3.102648214129165183e+01
1.028000000000000114e+02 3.096369728858425674e+01
1.032000000000000028e+02 3.090127586841049379e+01
1.036000000000000085e+02 3.083921435029213853e+01
1.040000000000000000e+02 3.077750925192934517e+01
1.044000000000000057e+02 3.071615713835496564e+01
1.048000000000000114e+02 3.065515462110717593e+01
1.052000000000000028e+02 3.059449835741956036e+01
1.056000000000000085e+02 3.053430908762447160e+01
1.060000000000000000e+02 3.047451404065916236e+01
1.064000000000000057e+02 3.041505318092041321e+01
1.068000000000000114e+02 3.035592337134147911e+01
1.072000000000000028e+02 3.029712151630121042e+01
1.076000000000000085e+02 3.023864456091828146e+01
1.080000000000000000e+02 3.018048949036029427e+01
1.084000000000000057e+02 3.012265332916699379e+01
1.088000000000000114e+02 3.006513314058769026e+01
1.092000000000000028e+02 3.000792602593212166e+01
1.096000000000000085e+02 2.995102912393476657e+01
1.100000000000000000e+02 2.989443961013208906e+01
1.104000000000000057e+02 2.994130217596253729e+01
1.108000000000000114e+02 2.991527281892685508e+01
1.112000000000000028e+02 2.986311841818406876e+01
1.116000000000000085e+02 2.992133443121904435e+01
1.120000000000000000e+02 2.987205107213721789e+01
1.124000000000000057e+02 2.982301527750679426e+01
1.128000000000000114e+02 2.977422493677995874e+01
1.132000000000000028e+02 2.972567796481629188e+01
1.136000000000000085e+02 2.967737230148783567e+01
1.140000000000000000e+02 2.962930591129180158e+01
1.144000000000000057e+02 2.958147678297041594e+01
1.148000000000000114e+02 2.953388292913816571e+01
1.152000000000000028e+02 2.948652238591593289e+01
1.156000000000000085e+02 2.943939321257201414e+01
1.160000000000000000e+02 2.939249349116993670e+01
1.164000000000000057e+02 2.934582132622271189e+01
1.168000000000000114e+02 2.929204231958733118e+01
1.172000000000000028e+02 2.924581285775542483e+01
1.176000000000000085e+02 2.919980612152836841e+01
1.180000000000000000e+02 2.915402028943809398e+01
1.184000000000000057e+02 2.910845356104090342e+01
1.188000000000000114e+02 2.906310415660435353e+01
1.192000000000000028e+02 2.901797031679999250e+01
1.196000000000000085e+02 2.897305030240157464e+01
1.200000000000000000e+02 2.892834239398874985e+01
1.204000000000000057e+02 2.888384489165619584e+01
1.208000000000000114e+02 2.883955611472780944e+01
1.212000000000000028e+02 2.879547440147616300e+01
1.216000000000000085e+02 2.875159810884689904e+01
1.220000000000000000e+02 2.870792561218804906e+01
1.224000000000000057e+02 2.866445530498413063e+01
1.228000000000000114e+02 2.862118559859500877e+01
1.232000000000000028e+02 2.857811492199927272e+01
1.236000000000000085e+02 2.853524172154217808e+01
1.240000000000000000e+02 2.849256446068797999e+01
1.244000000000000057e+02 2.845008161977660421e+01
1.248000000000000114e+02 2.840779169578453534e+01
1.252000000000000028e+02 2.836569320208986511e+01
1.256000000000000085e+02 2.832378466824135899e+01
1.260000000000000000e+02 2.828206463973155138e+01
1.264000000000000057e+02 2.824053167777373829e+01
1.268000000000000114e+02 2.819918435908274645e+01
1.272000000000000028e+02 2.815802127565946833e+01
1.276000000000000085e+02 2.811704103457902448e+01
1.280000000000000000e+02 2.807624225778263494e+01
1.284000000000000057e+02 2.803553070511326695e+01
1.288000000000000114e+02 2.799499558593113591e+01
1.291999999999999886e+02 2.795463855355184535e+01
1.296000000000000227e+02 2.791445828145183228e+01
1.300000000000000000e+02 2.787445345704443866e+01
1.304000000000000057e+02 2.783462278149108826e+01
1.308000000000000114e+02 2.779496496951567508e+01
1.311999999999999886e+02 2.775547874922205693e+01
1.316000000000000227e+02 2.771616286191441603e+01
1.320000000000000000e+02 2.767701606192070685e+01
1.324000000000000057e+02 2.763803711641893202e+01
1.328000000000000114e+02 2.759922480526622834e+01
1.331999999999999886e+02 2.756057792083080216e+01
1.336000000000000227e+02 2.752209526782648652e+01
1.340000000000000000e+02 2.748377566315009801e+01
1.344000000000000057e+02 2.744561793572129815e+01
1.348000000000000114e+02 2.740762092632509805e+01
1.351999999999999886e+02 2.736978348745686418e+01
1.356000000000000227e+02 2.733199843097642301e+01
1.360000000000000000e+02 2.729413166208429331e+01
1.364000000000000057e+02 2.725642330642039113e+01
1.368000000000000114e+02 2.721887224102225744e+01
1.371999999999999886e+02 2.718147735415946897e+01
1.376000000000000227e+02 2.714423754518881537e+01
1.380000000000000000e+02 2.710715172441165777e+01
1.384000000000000057e+02 2.707021881293358234e+01
1.388000000000000114e+02 2.703343774252623888e+01
1.392000000000000171e+02 2.699680745549133221e+01
1.395999999999999943e+02 2.696032690452677016e+01
1.400000000000000000e+02 2.692399505259484727e+01
1.404000000000000057e+02 2.688852576255443694e+01
1.408000000000000114e+02 2.685263462666910073e+01
1.412000000000000171e+02 2.681688830724317540e+01
1.415999999999999943e+02 2.678128581315279888e+01
1.420000000000000000e+02 2.674582616285829673e+01
1.424000000000000057e+02 2.671050838428445218e+01
1.428000000000000114e+02 2.667533151470265906e+01
1.432000000000000171e+02 2.664029460061486887e+01
1.435999999999999943e+02 2.660539669763922532e+01
1.440000000000000000e+02 2.657035126637474320e+01
1.444000000000000057e+02 2.653517701044199484e+01
1.448000000000000114e+02 2.650014228828354490e+01
1.452000000000000171e+02 2.646473152344361068e+01
1.455999999999999943e+02 2.642943421581962227e+01
1.460000000000000000e+02 2.639427686307242382e+01
1.464000000000000057e+02 2.635925852655983448e+01
1.468000000000000114e+02 2.632437827652507778e+01
1.472000000000000171e+02 2.628963519198818233e+01
1.475999999999999943e+02 2.625502836063908063e+01
1.480000000000000000e+02 2.622055687873228180e+01
1.484000000000000057e+02 2.618621985098309679e+01
1.488000000000000114e+02 2.615201639046540549e+01
1.492000000000000171e+02 2.611794561851092311e+01
1.495999999999999943e+02 2.608400666460999773e+01
1.500000000000000000e+02 2.605019866631381120e+01
