1.000000000000000000e+01 9.562875825216012515e+01
1.040000000000000036e+01 9.337423614912947301e+01
1.080000000000000071e+01 8.963871242635224235e+01
1.119999999999999929e+01 8.718222940330295501e+01
1.159999999999999964e+01 8.491880595360242978e+01
1.200000000000000000e+01 8.282364578039761227e+01
1.240000000000000036e+01 8.087630623749862480e+01
1.280000000000000071e+01 7.905974123872205439e+01
1.319999999999999929e+01 7.735959406326043108e+01
1.359999999999999964e+01 7.580494684457227095e+01
1.400000000000000000e+01 7.448583378698509705e+01
1.440000000000000036e+01 7.324161169430486495e+01
1.480000000000000071e+01 7.206529428554753736e+01
1.519999999999999929e+01 7.095078851057395752e+01
1.560000000000000142e+01 6.995250898289037877e+01
1.600000000000000000e+01 6.901713615779137001e+01
1.639999999999999858e+01 6.812238639370528404e+01
1.680000000000000071e+01 6.726534618793405684e+01
1.719999999999999929e+01 6.644338978274119256e+01
1.760000000000000142e+01 6.565414323021110476e+01
1.800000000000000000e+01 6.489545385350804452e+01
1.839999999999999858e+01 6.416536416212163374e+01
1.880000000000000071e+01 6.346208946555664454e+01
1.920000000000000284e+01 6.278399857547347551e+01
1.960000000000000142e+01 6.212959710055864093e+01
2.000000000000000000e+01 6.149751292879616926e+01
2.039999999999999858e+01 6.088648356380907956e+01
2.080000000000000071e+01 6.029534503966445413e+01
2.120000000000000284e+01 5.879619678647038938e+01
2.160000000000000142e+01 5.825111142534417752e+01
2.200000000000000000e+01 5.772325681508243633e+01
2.239999999999999858e+01 5.721172252568165106e+01
2.280000000000000071e+01 5.671566477726798894e+01
2.320000000000000284e+01 5.623430024069811139e+01
2.360000000000000142e+01 5.576690053452704632e+01
2.400000000000000000e+01 5.531278732701703404e+01
2.439999999999999858e+01 5.487132796550937996e+01
2.480000000000000071e+01 5.444193156684826818e+01
2.520000000000000284e+01 5.402404551205029293e+01
2.560000000000000142e+01 5.361715229639353453e+01
2.600000000000000000e+01 5.322076669282488126e+01
2.640000000000000213e+01 5.283443319227217216e+01
2.680000000000000071e+01 4.888252687791076312e+01
2.719999999999999929e+01 4.846809853390897160e+01
2.760000000000000142e+01 4.810517637099368216e+01
2.800000000000000000e+01 4.775093585502136762e+01
2.840000000000000213e+01 4.740502631810356604e+01
2.880000000000000071e+01 4.706711681639008305e+01
2.920000000000000284e+01 4.673689471864210532e+01
2.960000000000000142e+01 4.641406441675054850e+01
3.000000000000000000e+01 4.609834614590645430e+01
3.040000000000000213e+01 4.578947490354175187e+01
3.080000000000000071e+01 4.548719945738903903e+01
3.120000000000000284e+01 4.519128143408313747e+01
3.160000000000000142e+01 4.490149448066847526e+01
3.200000000000000000e+01 4.461762349220082058e+01
3.240000000000000568e+01 4.433946389935800880e+01
3.279999999999999716e+01 4.406682101061257839e+01
3.320000000000000284e+01 4.379950940408342319e+01
3.360000000000000142e+01 4.353735236468180858e+01
3.400000000000000000e+01 4.328018136260853765e+01
3.440000000000000568e+01 4.302783556965074041e+01
3.479999999999999716e+01 4.298818295900706232e+01
3.520000000000000284e+01 4.275529197771460588e+01
3.560000000000000142e+01 4.252651792494252447e+01
3.600000000000000000e+01 4.230173703139481489e+01
3.640000000000000568e+01 4.208083073261529705e+01
3.679999999999999716e+01 4.186368538960345376e+01
3.720000000000000284e+01 4.165019202758967509e+01
3.760000000000000142e+01 4.144024609158922345e+01
3.800000000000000000e+01 4.123374721747322269e+01
3.840000000000000568e+01 4.103059901740442683e+01
3.879999999999999716e+01 4.083070887858229980e+01
3.920000000000000284e+01 4.063398777433120301e+01
3.960000000000000142e+01 4.043646148139642804e+01
4.000000000000000000e+01 4.023981724217890132e+01
4.040000000000000568e+01 4.004619450273495573e+01
4.079999999999999716e+01 3.985551429198168449e+01
4.120000000000000284e+01 3.966770053344298219e+01
4.160000000000000142e+01 3.948267990953127793e+01
4.200000000000000000e+01 3.930038173354763131e+01
4.239999999999999858e+01 3.912073782888501938e+01
4.280000000000000426e+01 3.894308787198794874e+01
4.320000000000000284e+01 3.876736107052403923e+01
4.360000000000000142e+01 3.859411823874567915e+01
4.400000000000000000e+01 3.842329955312131773e+01
4.439999999999999858e+01 3.825484721632525975e+01
4.480000000000000426e+01 3.808870536922111683e+01
4.520000000000000284e+01 3.792482000749339477e+01
4.560000000000000142e+01 3.776313890263871542e+01
4.600000000000000000e+01 3.760361152704931698e+01
4.639999999999999858e+01 3.744618898293970943e+01
4.680000000000000426e+01 3.729082393488516090e+01
4.720000000000000284e+01 3.713747054575626549e+01
4.760000000000000142e+01 3.698608441584897122e+01
4.800000000000000000e+01 3.683662252502275436e+01
4.840000000000000568e+01 3.668904317767238865e+01
4.880000000000000426e+01 3.654330595037018270e+01
4.920000000000000284e+01 3.639937164202660824e+01
4.960000000000000142e+01 3.625720222642675594e+01
5.000000000000000000e+01 3.611676080700983960e+01
5.040000000000000568e+01 3.597801157376688508e+01
5.080000000000000426e+01 3.584091976214026687e+01
5.120000000000000284e+01 3.570545161381561172e+01
5.160000000000000142e+01 3.557157433930376556e+01
5.200000000000000000e+01 3.348182582758796855e+01
5.240000000000000568e+01 3.333846773661604601e+01
5.280000000000000426e+01 3.320394381618451973e+01
5.320000000000000284e+01 3.307098229787924026e+01
5.360000000000000142e+01 3.293955288069132337e+01
5.400000000000000000e+01 3.280962608412332315e+01
5.440000000000000568e+01 3.268117321975472578e+01
5.480000000000000426e+01 3.255416636400532582e+01
5.520000000000000284e+01 3.242857833203722606e+01
5.560000000000000142e+01 3.230438265273953391e+01
5.600000000000000000e+01 3.218155354474299656e+01
5.640000000000000568e+01 3.206006589341473045e+01
5.680000000000000426e+01 3.193989522878577958e+01
5.720000000000000284e+01 3.182101770436749533e+01
5.760000000000000142e+01 3.170341007681403767e+01
5.800000000000000000e+01 3.165990417381070898e+01
5.840000000000000568e+01 3.155187736182037384e+01
5.880000000000000426e+01 3.144495742240425074e+01
5.920000000000000284e+01 3.133912532139947871e+01
5.960000000000000142e+01 3.123436248215337940e+01
6.000000000000000000e+01 3.113065077144251092e+01
6.040000000000000568e+01 3.102797248591906509e+01
6.080000000000000426e+01 3.092631033906114268e+01
6.120000000000000284e+01 3.082564744860497186e+01
6.160000000000000142e+01 3.072596732443808065e+01
6.200000000000000000e+01 3.062637009063658411e+01
6.240000000000000568e+01 3.052755940148013636e+01
6.280000000000000426e+01 3.042969879674538447e+01
6.320000000000000284e+01 3.033277295061657952e+01
6.360000000000000142e+01 3.023676688292416515e+01
6.400000000000000000e+01 3.014166594916117248e+01
6.440000000000000568e+01 3.004745583085028926e+01
6.480000000000001137e+01 2.995412252624727500e+01
6.520000000000000284e+01 2.986165234136692348e+01
6.559999999999999432e+01 2.977003188131831379e+01
6.600000000000000000e+01 2.967924804193697952e+01
6.640000000000000568e+01 2.958928800170176743e+01
6.680000000000001137e+01 2.950013921392527294e+01
6.720000000000000284e+01 2.941178939920676427e+01
6.759999999999999432e+01 2.932422653813733504e+01
6.800000000000000000e+01 2.923743886424724181e+01
6.840000000000000568e+01 2.915141485718615399e+01
6.880000000000001137e+01 2.906614323612708262e+01
6.920000000000000284e+01 2.898161295338547205e+01
6.959999999999999432e+01 2.889781318824509526e+01
7.000000000000000000e+01 2.881473334098306083e+01
7.040000000000000568e+01 2.873236302708614787e+01
7.080000000000001137e+01 2.865069207165137044e+01
7.120000000000000284e+01 2.856971050396388989e+01
7.159999999999999432e+01 2.848940855224567059e+01
7.200000000000000000e+01 2.840977663856837410e+01
7.240000000000000568e+01 2.833080537392481801e+01
7.280000000000001137e+01 2.825248555345276102e+01
7.320000000000000284e+01 2.818867035447135549e+01
7.359999999999999432e+01 2.811283817394760121e+01
7.400000000000000000e+01 2.803761746872209315e+01
7.440000000000000568e+01 2.796299994782066989e+01
7.479999999999999716e+01 2.788897747765440727e+01
7.520000000000000284e+01 2.781554207819035440e+01
7.560000000000000853e+01 2.774268591923569005e+01
7.600000000000000000e+01 2.767022283271302285e+01
7.640000000000000568e+01 2.759632647891817570e+01
7.679999999999999716e+01 2.752301155947316147e+01
7.720000000000000284e+01 2.744783812090371100e+01
7.760000000000000853e+01 2.737287510273504409e+01
7.800000000000000000e+01 2.729849949758643390e+01
7.840000000000000568e+01 2.722470360521862887e+01
7.879999999999999716e+01 2.715147986662094581e+01
7.920000000000000284e+01 2.707882086069125194e+01
7.960000000000000853e+01 2.700671930101110974e+01
8.000000000000000000e+01 2.693516803271250382e+01
8.040000000000000568e+01 2.686416002943342818e+01
8.079999999999999716e+01 2.679368839035914007e+01
8.120000000000000284e+01 2.672374633734643368e+01
8.160000000000000853e+01 2.665432721212794576e+01
8.200000000000000000e+01 2.658542447359418759e+01
8.240000000000000568e+01 2.651703169515043967e+01
8.279999999999999716e+01 2.644914256214634918e+01
8.320000000000000284e+01 2.638175086937568636e+01
8.360000000000000853e+01 2.631485051864416391e+01
8.400000000000000000e+01 2.624843551640297434e+01
8.440000000000000568e+01 2.618228389937149103e+01
8.479999999999999716e+01 2.611644970062306470e+01
8.520000000000000284e+01 2.605108661776200307e+01
8.560000000000000853e+01 2.598618901077909271e+01
8.600000000000000000e+01 2.592175133420290223e+01
8.640000000000000568e+01 2.585776813506704386e+01
8.680000000000001137e+01 2.579423405093077548e+01
8.720000000000000284e+01 2.573114380795105660e+01
8.760000000000000853e+01 2.566849221900468336e+01
8.800000000000000000e+01 2.560627418185890747e+01
8.840000000000000568e+01 2.554448467738904327e+01
8.880000000000001137e+01 2.548311876784166685e+01
8.920000000000000284e+01 2.542217159514199665e+01
8.960000000000000853e+01 2.536163837924422637e+01
9.000000000000000000e+01 2.530151441652343181e+01
9.040000000000000568e+01 2.524179507820780444e+01
9.080000000000001137e+01 2.518247580885017101e+01
9.120000000000000284e+01 2.512355212483742761e+01
9.160000000000000853e+01 2.506501961293699310e+01
9.200000000000000000e+01 2.500687392887898142e+01
9.240000000000000568e+01 2.494911079597329717e+01
9.280000000000001137e+01 2.489172600376041800e+01
9.320000000000000284e+01 2.483471540669508215e+01
9.360000000000000853e+01 2.477807492286175517e+01
9.400000000000000000e+01 2.472180053272118627e+01
9.440000000000000568e+01 2.466588827788694971e+01
9.480000000000001137e+01 2.461033425993127821e+01
9.520000000000000284e+01 2.455513463921932527e+01
9.560000000000000853e+01 2.450028563377102842e+01
9.600000000000000000e+01 2.444578351814978845e+01
9.640000000000000568e+01 2.439162462237733564e+01
9.680000000000001137e+01 2.433780533087389841e+01
9.720000000000000284e+01 2.428477299398711153e+01
9.760000000000000853e+01 2.423228298071581222e+01
9.800000000000000000e+01 2.418011655579769581e+01
9.840000000000000568e+01 2.412827038120012446e+01
9.880000000000001137e+01 2.407674116713815948e+01
9.920000000000000284e+01 2.402552567117933080e+01
9.960000000000000853e+01 2.403656588086005286e+01
1.000000000000000000e+02 2.398790428402578812e+01
1.004000000000000057e+02 2.393953036585804739e+01
1.008000000000000114e+02 2.389144127062829881e+01
1.012000000000000028e+02 2.384363418237732901e+01
1.016000000000000085e+02 2.379610632420368432e+01
1.020000000000000000e+02 2.374885495756766574e+01
1.024000000000000057e+02 2.370187738161039448e+01
1.028000000000000114e+02 2.365517093248772440e+01
1.032000000000000028e+02 2.360873298271839360e+01
1.036000000000000085e+02 2.356256094054625549e+01
1.040000000000000000e+02 2.351665224931617004e+01
1.044000000000000057e+02 2.347100438686312174e+01
1.048000000000000114e+02 2.342561486491435829e+01
1.052000000000000028e+02 2.338048122850419475e+01
1.056000000000000085e+02 2.333560105540104246e+01
1.060000000000000000e+02 2.329097195554660260e+01
1.064000000000000057e+02 2.324659157050666280e+01
1.068000000000000114e+02 2.320245757293336908e+01
1.072000000000000028e+02 2.315856766603871009e+01
1.076000000000000085e+02 2.311491958307879813e+01
1.080000000000000000e+02 2.307151108684876206e+01
1.084000000000000057e+02 2.302833996918812787e+01
1.088000000000000114e+02 2.298540405049612545e+01
1.092000000000000028e+02 2.294270117925702124e+01
1.096000000000000085e+02 2.290022923157496137e+01
1.100000000000000000e+02 2.285789178982159342e+01
1.104000000000000057e+02 2.291874079814829912e+01
1.108000000000000114e+02 2.287900511014684213e+01
1.112000000000000028e+02 2.283947676648684677e+01
1.116000000000000085e+02 2.280015393890126418e+01
1.120000000000000000e+02 2.276103482179965809e+01
1.124000000000000057e+02 2.272211763190620104e+01
1.128000000000000114e+02 2.268340060790475832e+01
1.132000000000000028e+02 2.264488201009087476e+01
1.136000000000000085e+02 2.260656012003040871e+01
1.140000000000000000e+02 2.256843324022494812e+01
1.144000000000000057e+02 2.253049969378341189e+01
1.148000000000000114e+02 2.249275782410013846e+01
1.152000000000000028e+02 2.245520599453902122e+01
1.156000000000000085e+02 2.241784258812366559e+01
1.160000000000000000e+02 2.238066600723344379e+01
1.164000000000000057e+02 2.234367467330527290e+01
1.168000000000000114e+02 2.230686702654097786e+01
1.172000000000000028e+02 2.227024152562024639e+01
1.176000000000000085e+02 2.223379664741878869e+01
1.180000000000000000e+02 2.219753088673186170e+01
1.184000000000000057e+02 2.216144275600295543e+01
1.188000000000000114e+02 2.212553078505735726e+01
1.192000000000000028e+02 2.208979352084076098e+01
1.196000000000000085e+02 2.205422952716264717e+01
1.200000000000000000e+02 2.201883738444427507e+01
1.204000000000000057e+02 2.198361568947143496e+01
1.208000000000000114e+02 2.194856305515155981e+01
1.212000000000000028e+02 2.191367811027526713e+01
1.216000000000000085e+02 2.187895949928229911e+01
1.220000000000000000e+02 2.184440588203155542e+01
1.224000000000000057e+02 2.181001593357533608e+01
1.228000000000000114e+02 2.177578834393757390e+01
1.232000000000000028e+02 2.174147826565476294e+01
1.236000000000000085e+02 2.170710313280647696e+01
1.240000000000000000e+02 2.167288968172408659e+01
1.244000000000000057e+02 2.164521223034076414e+01
1.248000000000000114e+02 2.161161295909689528e+01
1.252000000000000028e+02 2.157816962218188195e+01
1.256000000000000085e+02 2.154488099801583445e+01
1.260000000000000000e+02 2.151174587847977904e+01
1.264000000000000057e+02 2.147876306872474927e+01
1.268000000000000114e+02 2.144593138698422052e+01
1.272000000000000028e+02 2.141324966438975963e+01
1.276000000000000085e+02 2.138071674478981521e+01
1.280000000000000000e+02 2.134833148457173380e+01
1.284000000000000057e+02 2.131609275248663948e+01
1.288000000000000114e+02 2.128399942947747547e+01
1.291999999999999886e+02 2.125205040850987359e+01
1.296000000000000227e+02 2.122024459440588373e+01
1.300000000000000000e+02 2.118858090368053837e+01
1.304000000000000057e+02 2.115705826438121306e+01
1.308000000000000114e+02 2.112567561592954490e+01
1.311999999999999886e+02 2.109443190896620735e+01
1.316000000000000227e+02 2.106332610519801918e+01
1.320000000000000000e+02 2.103235717724786014e+01
1.324000000000000057e+02 2.100152410850684248e+01
1.328000000000000114e+02 2.097082589298909738e+01
1.331999999999999886e+02 2.094026153518885991e+01
1.336000000000000227e+02 2.090983004993992012e+01
1.340000000000000000e+02 2.087953046227741183e+01
1.344000000000000057e+02 2.084936180730181832e+01
1.348000000000000114e+02 2.081932313004519131e+01
1.351999999999999886e+02 2.078941348533960110e+01
1.356000000000000227e+02 2.075963193768760817e+01
1.360000000000000000e+02 2.072997756113496592e+01
1.364000000000000057e+02 2.070044943914520985e+01
1.368000000000000114e+02 2.067104666447642103e+01
1.371999999999999886e+02 2.064176833905982988e+01
1.376000000000000227e+02 2.061261357388043791e+01
1.380000000000000000e+02 2.058358148885950811e+01
1.384000000000000057e+02 2.055467121273888864e+01
1.388000000000000114e+02 2.052588188296725491e+01
1.392000000000000171e+02 2.049716607252855738e+01
1.395999999999999943e+02 2.046855062832093353e+01
1.400000000000000000e+02 2.044005391349180201e+01
1.404000000000000057e+02 2.041167509671636537e+01
1.408000000000000114e+02 2.038341335486080297e+01
1.412000000000000171e+02 2.035526787287835049e+01
1.415999999999999943e+02 2.032723784370701026e+01
1.420000000000000000e+02 2.029932246816883534e+01
1.424000000000000057e+02 2.027152095487074490e+01
1.428000000000000114e+02 2.024383252010690626e+01
1.432000000000000171e+02 2.021625638776256295e+01
1.435999999999999943e+02 2.018879178921940110e+01
1.440000000000000000e+02 2.016115235923943061e+01
1.444000000000000057e+02 2.013335697402479241e+01
1.448000000000000114e+02 2.010567416303696575e+01
1.452000000000000171e+02 2.007810315825368264e+01
1.455999999999999943e+02 2.005064319902172798e+01
1.460000000000000000e+02 2.002329353196594042e+01
1.464000000000000057e+02 1.999605341089958443e+01
1.468000000000000114e+02 1.996892209673607255e+01
1.472000000000000171e+02 1.994189885740198775e+01
1.475999999999999943e+02 1.991498296775143828e+01
1.480000000000000000e+02 1.988817370948168417e+01
1.484000000000000057e+02 1.986147037105001090e+01
1.488000000000000114e+02 1.983487224759181089e+01
1.492000000000000171e+02 1.980837864083995470e+01
1.495999999999999943e+02 1.978198885904524928e+01
1.500000000000000000e+02 1.975570221689814687e+01
