1.000000000000000000e+01 8.869880309256568296e+01
1.040000000000000036e+01 9.354188608204259481e+01
1.080000000000000071e+01 9.479390511590281676e+01
1.119999999999999929e+01 9.611177535875702915e+01
1.159999999999999964e+01 9.279725790719697898e+01
1.200000000000000000e+01 8.982639560991736971e+01
1.240000000000000036e+01 8.713809737902614927e+01
1.280000000000000071e+01 8.468646260949313387e+01
1.319999999999999929e+01 8.243603228122736937e+01
1.359999999999999964e+01 8.062280318756543807e+01
1.400000000000000000e+01 7.916451350175623247e+01
1.440000000000000036e+01 7.780059786634404873e+01
1.480000000000000071e+01 7.652051152805513823e+01
1.519999999999999929e+01 7.533090301663165178e+01
1.560000000000000142e+01 7.427304963250516323e+01
1.600000000000000000e+01 7.326816955243276652e+01
1.639999999999999858e+01 7.231158575192866067e+01
1.680000000000000071e+01 7.139921523300151307e+01
1.719999999999999929e+01 7.052747074115387704e+01
1.760000000000000142e+01 6.559365025802526361e+01
1.800000000000000000e+01 6.461390140413212180e+01
1.839999999999999858e+01 6.367769419064920555e+01
1.880000000000000071e+01 6.278175173615150584e+01
1.920000000000000284e+01 6.192314474090250087e+01
1.960000000000000142e+01 6.109924406949774323e+01
2.000000000000000000e+01 6.030768119755451551e+01
2.039999999999999858e+01 5.954631499679984330e+01
2.080000000000000071e+01 5.786131611991462620e+01
2.120000000000000284e+01 5.715302472573537784e+01
2.160000000000000142e+01 5.643716497759466932e+01
2.200000000000000000e+01 5.574630681882091210e+01
2.239999999999999858e+01 5.507899667075854211e+01
2.280000000000000071e+01 5.443389909333833998e+01
2.320000000000000284e+01 5.380978449391898266e+01
2.360000000000000142e+01 5.320551838777523557e+01
2.400000000000000000e+01 5.262005198097890002e+01
2.439999999999999858e+01 5.205241388504605027e+01
2.480000000000000071e+01 5.150170280407175483e+01
2.520000000000000284e+01 5.096708106065499067e+01
2.560000000000000142e+01 5.044776884789803972e+01
2.600000000000000000e+01 4.994303911206063162e+01
2.640000000000000213e+01 4.945016416078151167e+01
2.680000000000000071e+01 4.895682648463089492e+01
2.719999999999999929e+01 4.885027624067669194e+01
2.760000000000000142e+01 4.847652562085831107e+01
2.800000000000000000e+01 4.811202046016115474e+01
2.840000000000000213e+01 4.775637021765516010e+01
2.880000000000000071e+01 4.740920754992988151e+01
2.920000000000000284e+01 4.707018654500190280e+01
2.960000000000000142e+01 4.673898111950082068e+01
3.000000000000000000e+01 4.641528356143940215e+01
3.040000000000000213e+01 4.609880320306557877e+01
3.080000000000000071e+01 4.578926521018183848e+01
3.120000000000000284e+01 4.548640947594655159e+01
3.160000000000000142e+01 4.518998960858291269e+01
3.200000000000000000e+01 4.489977200364504739e+01
3.240000000000000568e+01 4.461553499255606425e+01
3.279999999999999716e+01 4.433706806006159695e+01
3.320000000000000284e+01 4.406017561837234098e+01
3.360000000000000142e+01 4.378528697027840622e+01
3.400000000000000000e+01 4.351591277343633379e+01
3.440000000000000568e+01 4.344078697663832855e+01
3.479999999999999716e+01 4.319361080250430973e+01
3.520000000000000284e+01 4.295108687424770721e+01
3.560000000000000142e+01 4.271306464106349665e+01
3.600000000000000000e+01 4.247940040751289814e+01
3.640000000000000568e+01 4.224995693352665427e+01
3.679999999999999716e+01 4.202460306275522584e+01
3.720000000000000284e+01 4.180321337690906347e+01
3.760000000000000142e+01 4.158566787395695030e+01
3.800000000000000000e+01 4.137185166825000948e+01
3.840000000000000568e+01 4.116165471081885130e+01
3.879999999999999716e+01 4.095497152825103626e+01
3.920000000000000284e+01 4.075170097870051222e+01
3.960000000000000142e+01 4.055174602371005221e+01
4.000000000000000000e+01 4.035501351464333197e+01
4.040000000000000568e+01 4.023009377079565496e+01
4.079999999999999716e+01 4.004484557098802355e+01
4.120000000000000284e+01 3.986243193491834802e+01
4.160000000000000142e+01 3.968277811680666645e+01
4.200000000000000000e+01 3.950493327860959170e+01
4.239999999999999858e+01 3.932858819324422939e+01
4.280000000000000426e+01 3.915483920094847292e+01
4.320000000000000284e+01 3.898362038667215046e+01
4.360000000000000142e+01 3.881486820168499463e+01
4.400000000000000000e+01 3.864852135426922786e+01
4.439999999999999858e+01 3.848452070656502144e+01
4.480000000000000426e+01 3.832280917716150270e+01
4.520000000000000284e+01 3.816333164905689301e+01
4.560000000000000142e+01 3.800603488263958241e+01
4.600000000000000000e+01 3.785086743336789539e+01
4.639999999999999858e+01 3.769777957385009870e+01
4.680000000000000426e+01 3.754672322004797280e+01
4.720000000000000284e+01 3.739765186134695796e+01
4.760000000000000142e+01 3.725038315092708530e+01
4.800000000000000000e+01 3.710352063282940094e+01
4.840000000000000568e+01 3.695852312945822860e+01
4.880000000000000426e+01 3.681535002626111464e+01
4.920000000000000284e+01 3.667396196031225486e+01
4.960000000000000142e+01 3.653432077055929739e+01
5.000000000000000000e+01 3.639638945048628216e+01
5.040000000000000568e+01 3.626013210305458045e+01
5.080000000000000426e+01 3.612551389779250854e+01
5.120000000000000284e+01 3.599250102991271660e+01
5.160000000000000142e+01 3.586709785670269213e+01
5.200000000000000000e+01 3.378276315122779039e+01
5.240000000000000568e+01 3.364960545276708359e+01
5.280000000000000426e+01 3.351800786070893423e+01
5.320000000000000284e+01 3.338793973289761396e+01
5.360000000000000142e+01 3.325937127076934985e+01
5.400000000000000000e+01 3.313227348950559303e+01
5.440000000000000568e+01 3.300661818947526172e+01
5.480000000000000426e+01 3.288237792890039657e+01
5.520000000000000284e+01 3.275952599768336171e+01
5.560000000000000142e+01 3.263803639233753273e+01
5.600000000000000000e+01 3.251965810906125398e+01
5.640000000000000568e+01 3.240392960274511580e+01
5.680000000000000426e+01 3.228944547741313897e+01
5.720000000000000284e+01 3.217618319728812537e+01
5.760000000000000142e+01 3.206412079989150499e+01
5.800000000000000000e+01 3.195323687728209094e+01
5.840000000000000568e+01 3.184351055804465958e+01
5.880000000000000426e+01 3.173492148999287110e+01
5.920000000000000284e+01 3.162744982355322065e+01
5.960000000000000142e+01 3.152107619579832942e+01
6.000000000000000000e+01 3.141578171509963369e+01
6.040000000000000568e+01 3.131154794637117078e+01
6.080000000000000426e+01 3.120797167763885227e+01
6.120000000000000284e+01 3.110462114700803937e+01
6.160000000000000142e+01 3.100229690166374041e+01
6.200000000000000000e+01 3.090098179687861091e+01
6.240000000000000568e+01 3.080065909004435554e+01
6.280000000000000426e+01 3.070131242854472475e+01
6.320000000000000284e+01 3.060292583807501998e+01
6.360000000000000142e+01 3.050548371138858528e+01
6.400000000000000000e+01 3.040897079745188947e+01
6.440000000000000568e+01 3.031264575362808955e+01
6.480000000000001137e+01 3.021672752117070715e+01
6.520000000000000284e+01 3.012171328560580008e+01
6.559999999999999432e+01 3.002758868732707853e+01
6.600000000000000000e+01 2.993433968692645664e+01
6.640000000000000568e+01 2.984195255602179486e+01
6.680000000000001137e+01 2.975041386840504387e+01
6.720000000000000284e+01 2.965971049149761996e+01
6.759999999999999432e+01 2.956982957810043899e+01
6.800000000000000000e+01 2.948075855842652970e+01
6.840000000000000568e+01 2.939248513240507066e+01
6.880000000000001137e+01 2.930499726224562096e+01
6.920000000000000284e+01 2.921828316525246194e+01
6.959999999999999432e+01 2.913233130687898864e+01
7.000000000000000000e+01 2.904713039401275054e+01
7.040000000000000568e+01 2.896266936848206797e+01
7.080000000000001137e+01 2.887893740077572602e+01
7.120000000000000284e+01 2.879592388396730129e+01
7.159999999999999432e+01 2.871361842783650076e+01
7.200000000000000000e+01 2.865445057309364429e+01
7.240000000000000568e+01 2.857453309725809731e+01
7.280000000000001137e+01 2.849528199198158873e+01
7.320000000000000284e+01 2.841668788041037175e+01
7.359999999999999432e+01 2.833874157108192549e+01
7.400000000000000000e+01 2.826143405321306545e+01
7.440000000000000568e+01 2.819179536537998132e+01
7.479999999999999716e+01 2.811753149759801573e+01
7.520000000000000284e+01 2.804385923251826185e+01
7.560000000000000853e+01 2.797077060362717305e+01
7.600000000000000000e+01 2.789825779513795823e+01
7.640000000000000568e+01 2.782631313832741426e+01
7.679999999999999716e+01 2.775492910798131163e+01
7.720000000000000284e+01 2.768166604615726101e+01
7.760000000000000853e+01 2.760859318256186867e+01
7.800000000000000000e+01 2.753608779476270030e+01
7.840000000000000568e+01 2.746414246235011092e+01
7.879999999999999716e+01 2.739274990113585417e+01
7.920000000000000284e+01 2.732190295994178442e+01
7.960000000000000853e+01 2.725159461748089740e+01
8.000000000000000000e+01 2.718181797932741262e+01
8.040000000000000568e+01 2.711256627497301253e+01
8.079999999999999716e+01 2.704383285496632539e+01
8.120000000000000284e+01 2.697561118813289127e+01
8.160000000000000853e+01 2.690789485887287924e+01
8.200000000000000000e+01 2.684067756453411846e+01
8.240000000000000568e+01 2.677395311285784985e+01
8.279999999999999716e+01 2.670771541949488537e+01
8.320000000000000284e+01 2.664191121027315035e+01
8.360000000000000853e+01 2.657645503798149278e+01
8.400000000000000000e+01 2.651125156842838493e+01
8.440000000000000568e+01 2.644601651405752918e+01
8.479999999999999716e+01 2.638124801594346280e+01
8.520000000000000284e+01 2.631694048283124587e+01
8.560000000000000853e+01 2.625308841748681843e+01
8.600000000000000000e+01 2.618968641466408442e+01
8.640000000000000568e+01 2.612672915912556704e+01
8.680000000000001137e+01 2.606421142371522848e+01
8.720000000000000284e+01 2.600212806748149319e+01
8.760000000000000853e+01 2.594047403384916350e+01
8.800000000000000000e+01 2.587924434883873914e+01
8.840000000000000568e+01 2.581843411933144949e+01
8.880000000000001137e+01 2.575803853137893284e+01
8.920000000000000284e+01 2.569805284855598160e+01
8.960000000000000853e+01 2.563847241035511360e+01
9.000000000000000000e+01 2.557929263062181491e+01
9.040000000000000568e+01 2.552050899602902945e+01
9.080000000000001137e+01 2.546211706459000368e+01
9.120000000000000284e+01 2.540411246420811864e+01
9.160000000000000853e+01 2.534649089126273935e+01
9.200000000000000000e+01 2.528924810922998745e+01
9.240000000000000568e+01 2.523237994733744927e+01
9.280000000000001137e+01 2.517588229925183185e+01
9.320000000000000284e+01 2.511975112179853653e+01
9.360000000000000853e+01 2.506398243371239687e+01
9.400000000000000000e+01 2.500857231441849393e+01
9.440000000000000568e+01 2.495351690284233825e+01
9.480000000000001137e+01 2.491843661844550439e+01
9.520000000000000284e+01 2.486449760539774445e+01
9.560000000000000853e+01 2.481089860429373317e+01
9.600000000000000000e+01 2.475476591837978191e+01
9.640000000000000568e+01 2.470226698390798958e+01
9.680000000000001137e+01 2.465009399658711686e+01
9.720000000000000284e+01 2.459824356049684724e+01
9.760000000000000853e+01 2.454671232941392489e+01
9.800000000000000000e+01 2.449549700587602530e+01
9.840000000000000568e+01 2.444459434026734357e+01
9.880000000000001137e+01 2.439400112992499814e+01
9.920000000000000284e+01 2.434371421826588389e+01
9.960000000000000853e+01 2.429373049393332451e+01
1.000000000000000000e+02 2.424404688996314405e+01
1.004000000000000057e+02 2.419466038296833688e+01
1.008000000000000114e+02 2.414556799234224371e+01
1.012000000000000028e+02 2.409676677947933143e+01
1.016000000000000085e+02 2.404825384701351609e+01
1.020000000000000000e+02 2.400002633807316244e+01
1.024000000000000057e+02 2.395208143555269586e+01
1.028000000000000114e+02 2.390441636140011994e+01
1.032000000000000028e+02 2.385702837592018000e+01
1.036000000000000085e+02 2.380991477709267912e+01
1.040000000000000000e+02 2.376307289990567284e+01
1.044000000000000057e+02 2.371650011570299554e+01
1.048000000000000114e+02 2.367019383154588752e+01
1.052000000000000028e+02 2.362415148958834266e+01
1.056000000000000085e+02 2.357840507157581555e+01
1.060000000000000000e+02 2.353295553974657395e+01
1.064000000000000057e+02 2.348776098812050606e+01
1.068000000000000114e+02 2.344281900938840124e+01
1.072000000000000028e+02 2.339812722820891011e+01
1.076000000000000085e+02 2.335368330066224019e+01
1.080000000000000000e+02 2.330948491371510656e+01
1.084000000000000057e+02 2.326552978469697308e+01
1.088000000000000114e+02 2.322174838629471694e+01
1.092000000000000028e+02 2.317805442924895942e+01
1.096000000000000085e+02 2.313459880555119241e+01
1.100000000000000000e+02 2.309137932868262766e+01
1.104000000000000057e+02 2.315154132004642307e+01
1.108000000000000114e+02 2.311112350970473273e+01
1.112000000000000028e+02 2.307091787960889917e+01
1.116000000000000085e+02 2.303092254375940229e+01
1.120000000000000000e+02 2.299113563979861041e+01
1.124000000000000057e+02 2.295155532862856518e+01
1.128000000000000114e+02 2.291217979403657523e+01
1.132000000000000028e+02 2.287300724232798643e+01
1.136000000000000085e+02 2.283403590196624222e+01
1.140000000000000000e+02 2.279526402321998546e+01
1.144000000000000057e+02 2.275668987781699926e+01
1.148000000000000114e+02 2.271831175860487306e+01
1.152000000000000028e+02 2.268012797921824486e+01
1.156000000000000085e+02 2.264213687375244888e+01
1.160000000000000000e+02 2.260433679644340543e+01
1.164000000000000057e+02 2.256672612135370315e+01
1.168000000000000114e+02 2.252930324206452894e+01
1.172000000000000028e+02 2.249206657137365539e+01
1.176000000000000085e+02 2.244590347904326677e+01
1.180000000000000000e+02 2.240928031468220638e+01
1.184000000000000057e+02 2.237283745807985014e+01
1.188000000000000114e+02 2.233657340531617308e+01
1.192000000000000028e+02 2.230048667016834685e+01
1.196000000000000085e+02 2.226457578384206926e+01
1.200000000000000000e+02 2.222883929470799202e+01
1.204000000000000057e+02 2.219327576804298019e+01
1.208000000000000114e+02 2.215788378577618545e+01
1.212000000000000028e+02 2.212266194623972382e+01
1.216000000000000085e+02 2.208760886392396827e+01
1.220000000000000000e+02 2.205272316923729292e+01
1.224000000000000057e+02 2.201800350827019059e+01
1.228000000000000114e+02 2.198344854256365366e+01
1.232000000000000028e+02 2.195414267664250474e+01
1.236000000000000085e+02 2.192013655826314178e+01
1.240000000000000000e+02 2.188628975385678288e+01
1.244000000000000057e+02 2.185260099859579341e+01
1.248000000000000114e+02 2.181906904182365281e+01
1.252000000000000028e+02 2.178569264685006246e+01
1.256000000000000085e+02 2.175247059074976974e+01
1.260000000000000000e+02 2.171940166416488083e+01
1.264000000000000057e+02 2.168648467111071199e+01
1.268000000000000114e+02 2.165371842878496977e+01
1.272000000000000028e+02 2.162110176738033829e+01
1.276000000000000085e+02 2.158863352990025675e+01
1.280000000000000000e+02 2.155631257197791228e+01
1.284000000000000057e+02 2.152413776169842308e+01
1.288000000000000114e+02 2.149210797942397733e+01
1.291999999999999886e+02 2.146022211762206311e+01
1.296000000000000227e+02 2.142847908069660789e+01
1.300000000000000000e+02 2.139669539483409011e+01
1.304000000000000057e+02 2.136501862637461358e+01
1.308000000000000114e+02 2.133348324756682146e+01
1.311999999999999886e+02 2.130208819384093744e+01
1.316000000000000227e+02 2.127083241191048302e+01
1.320000000000000000e+02 2.123971485961813599e+01
1.324000000000000057e+02 2.120873450578413966e+01
1.328000000000000114e+02 2.117789033005723809e+01
1.331999999999999886e+02 2.114718132276813733e+01
1.336000000000000227e+02 2.111660648478532565e+01
1.340000000000000000e+02 2.108616482737331310e+01
1.344000000000000057e+02 2.105585537205320179e+01
1.348000000000000114e+02 2.102567715046553687e+01
1.351999999999999886e+02 2.099562920423539936e+01
1.356000000000000227e+02 2.096571058483973360e+01
1.360000000000000000e+02 2.093592035347676017e+01
1.364000000000000057e+02 2.090625758093758435e+01
1.368000000000000114e+02 2.087672134747982966e+01
1.371999999999999886e+02 2.084731074270334261e+01
1.376000000000000227e+02 2.081802200012178972e+01
1.380000000000000000e+02 2.078881204215296918e+01
1.384000000000000057e+02 2.075972525319784978e+01
1.388000000000000114e+02 2.073076075756608461e+01
1.392000000000000171e+02 2.070191768833031176e+01
1.395999999999999943e+02 2.067319518721318516e+01
1.400000000000000000e+02 2.064459240447611421e+01
1.404000000000000057e+02 2.061610849880975849e+01
1.408000000000000114e+02 2.058774263722626685e+01
1.412000000000000171e+02 2.055949399495316854e+01
1.415999999999999943e+02 2.053136175532895180e+01
1.420000000000000000e+02 2.050334510970025903e+01
1.424000000000000057e+02 2.047544325732064507e+01
1.428000000000000114e+02 2.045370337031300068e+01
1.432000000000000171e+02 2.042619625336349998e+01
1.435999999999999943e+02 2.039880061377571252e+01
1.440000000000000000e+02 2.037123008525944812e+01
1.444000000000000057e+02 2.034350354299297337e+01
1.448000000000000114e+02 2.031588951544150845e+01
1.452000000000000171e+02 2.028838723361346652e+01
1.455999999999999943e+02 2.026099593591258952e+01
1.460000000000000000e+02 2.023371486804633435e+01
1.464000000000000057e+02 2.020654328293557001e+01
1.468000000000000114e+02 2.017948044062573842e+01
1.472000000000000171e+02 2.015252560819924810e+01
1.475999999999999943e+02 2.012567805968928170e+01
1.480000000000000000e+02 2.009893707599483292e+01
1.484000000000000057e+02 2.007230194479702234e+01
1.488000000000000114e+02 2.004577196047669929e+01
1.492000000000000171e+02 2.001934642403320197e+01
1.495999999999999943e+02 1.999302464300441429e+01
1.500000000000000000e+02 1.996680593138787785e+01
