1.000000000000000000e+01 2.442709230743871558e+02
1.040000000000000036e+01 2.532765465173862367e+02
1.080000000000000071e+01 2.961421914399298885e+02
1.119999999999999929e+01 3.313993206251706169e+02
1.159999999999999964e+01 3.619144162126614219e+02
1.200000000000000000e+01 3.686373920868365985e+02
1.240000000000000036e+01 3.836737859978887855e+02
1.280000000000000071e+01 4.185587771531025396e+02
1.319999999999999929e+01 4.243947377935706982e+02
1.359999999999999964e+01 4.357720591953924441e+02
1.400000000000000000e+01 4.389886313865437160e+02
1.440000000000000036e+01 4.436306135982131877e+02
1.480000000000000071e+01 4.349974072295470933e+02
1.519999999999999929e+01 4.269198458108948557e+02
1.560000000000000142e+01 4.193372144274373454e+02
1.600000000000000000e+01 4.121980646742797489e+02
1.639999999999999858e+01 4.054584186392909260e+02
1.680000000000000071e+01 3.990803905244571297e+02
1.719999999999999929e+01 3.930311137056295365e+02
1.760000000000000142e+01 3.872818949357661040e+02
1.800000000000000000e+01 3.818075400036711926e+02
1.839999999999999858e+01 3.765858105582045710e+02
1.880000000000000071e+01 3.715969824976282325e+02
1.920000000000000284e+01 3.668234838733659444e+02
1.960000000000000142e+01 3.622495956729221120e+02
2.000000000000000000e+01 3.578612027867100664e+02
2.039999999999999858e+01 3.536455853673862748e+02
2.080000000000000071e+01 3.495912429560561918e+02
2.120000000000000284e+01 3.456877453827679574e+02
2.160000000000000142e+01 3.419256056926154770e+02
2.200000000000000000e+01 3.382961713051778361e+02
2.239999999999999858e+01 3.347915303568396439e+02
2.280000000000000071e+01 3.314044307556046078e+02
2.320000000000000284e+01 3.281282099350810313e+02
2.360000000000000142e+01 3.249567336570244152e+02
2.400000000000000000e+01 3.218843425016069091e+02
2.439999999999999858e+01 3.189058049175540646e+02
2.480000000000000071e+01 3.160162758927092455e+02
2.520000000000000284e+01 3.132112604588365912e+02
2.560000000000000142e+01 3.104865813697721819e+02
2.600000000000000000e+01 3.078383503950126965e+02
2.640000000000000213e+01 3.052629427558521229e+02
2.680000000000000071e+01 3.027569743017137398e+02
2.719999999999999929e+01 3.003172810830762955e+02
2.760000000000000142e+01 2.979409010265494544e+02
2.800000000000000000e+01 2.956250574589333837e+02
2.840000000000000213e+01 2.933671442618927472e+02
2.880000000000000071e+01 2.911647124683202037e+02
2.920000000000000284e+01 2.890154581364529349e+02
2.960000000000000142e+01 2.869172113590983599e+02
3.000000000000000000e+01 2.848679262835104282e+02
3.040000000000000213e+01 2.828656720330495773e+02
3.080000000000000071e+01 2.809086244351585719e+02
3.120000000000000284e+01 2.789950584717345237e+02
3.160000000000000142e+01 2.771233413779630155e+02
3.200000000000000000e+01 2.752919263243274486e+02
3.240000000000000568e+01 2.734993466240241560e+02
3.279999999999999716e+01 2.717442104145546296e+02
3.320000000000000284e+01 2.700251957679819270e+02
3.360000000000000142e+01 2.683410461893323031e+02
3.400000000000000000e+01 2.666905664670049418e+02
3.440000000000000568e+01 2.650726188429033527e+02
3.479999999999999716e+01 2.634861194733870207e+02
3.520000000000000284e+01 2.619300351551369204e+02
3.560000000000000142e+01 2.604033802926625754e+02
3.600000000000000000e+01 2.589052140865263141e+02
3.640000000000000568e+01 2.574346379234277720e+02
3.679999999999999716e+01 2.559907929511400084e+02
3.720000000000000284e+01 2.545728578229285120e+02
3.760000000000000142e+01 2.531800465975479142e+02
3.800000000000000000e+01 2.518116067822155344e+02
3.840000000000000568e+01 2.504668175071345502e+02
3.879999999999999716e+01 2.491449878211800524e+02
3.920000000000000284e+01 2.478454550993046155e+02
3.960000000000000142e+01 2.465675835530628888e+02
4.000000000000000000e+01 2.453107628364109019e+02
4.040000000000000568e+01 2.440744067396219634e+02
4.079999999999999716e+01 2.428579519647768166e+02
4.120000000000000284e+01 2.416608569768415009e+02
4.160000000000000142e+01 2.404826009248504874e+02
4.200000000000000000e+01 2.393226826281693889e+02
4.239999999999999858e+01 2.381806196232219577e+02
4.280000000000000426e+01 2.370559472664452301e+02
4.320000000000000284e+01 2.359482178895723337e+02
4.360000000000000142e+01 2.348570000036568217e+02
4.400000000000000000e+01 2.337818775485320657e+02
4.439999999999999858e+01 2.327224491846560568e+02
4.480000000000000426e+01 2.316783276245287766e+02
4.520000000000000284e+01 2.306491390010813234e+02
4.560000000000000142e+01 2.296345222706328286e+02
4.600000000000000000e+01 2.286341286481912789e+02
4.639999999999999858e+01 2.276476210730368734e+02
4.680000000000000426e+01 2.266746737026788878e+02
4.720000000000000284e+01 2.257149714334133250e+02
4.760000000000000142e+01 2.247682094458382380e+02
4.800000000000000000e+01 2.238340927737968968e+02
4.840000000000000568e+01 2.229123358953293064e+02
4.880000000000000426e+01 2.220026623443103801e+02
4.920000000000000284e+01 2.211048043415424331e+02
4.960000000000000142e+01 2.202185024441576502e+02
5.000000000000000000e+01 2.193435052122598847e+02
5.040000000000000568e+01 2.184795688918080714e+02
5.080000000000000426e+01 2.176264571128118064e+02
5.120000000000000284e+01 2.167839406019670605e+02
5.160000000000000142e+01 2.159517969089206417e+02
5.200000000000000000e+01 2.151298101454013363e+02
5.240000000000000568e+01 2.143177707365072138e+02
5.280000000000000426e+01 2.135154751834811009e+02
5.320000000000000284e+01 2.127227258373509642e+02
5.360000000000000142e+01 2.119393306828481514e+02
5.400000000000000000e+01 2.111651031320550942e+02
5.440000000000000568e+01 2.103998618272668182e+02
5.480000000000000426e+01 2.096434304525805601e+02
5.520000000000000284e+01 2.088956375537607073e+02
5.560000000000000142e+01 2.081563163659491238e+02
5.600000000000000000e+01 2.074253046488196617e+02
5.640000000000000568e+01 2.067024445287982530e+02
5.680000000000000426e+01 2.059875823479910650e+02
5.720000000000000284e+01 2.052805685194854277e+02
5.760000000000000142e+01 2.045812573887076837e+02
5.800000000000000000e+01 2.038895071005376280e+02
5.840000000000000568e+01 2.032051794718998963e+02
5.880000000000000426e+01 2.025281398695652797e+02
5.920000000000000284e+01 2.018582570929112876e+02
5.960000000000000142e+01 2.011954032614053745e+02
6.000000000000000000e+01 2.005394537065859595e+02
6.040000000000000568e+01 1.998902868683300653e+02
6.080000000000000426e+01 1.992477841952072595e+02
6.120000000000000284e+01 1.986118300487295301e+02
6.160000000000000142e+01 1.979823116113183801e+02
6.200000000000000000e+01 1.973591187978190646e+02
6.240000000000000568e+01 1.967421441704004224e+02
6.280000000000000426e+01 1.961312828566882729e+02
6.320000000000000284e+01 1.955264324709868902e+02
6.360000000000000142e+01 1.949274930384524964e+02
6.400000000000000000e+01 1.943343669220867582e+02
6.440000000000000568e+01 1.937469587524284691e+02
6.480000000000001137e+01 1.931651753598246160e+02
6.520000000000000284e+01 1.925889257091700415e+02
6.559999999999999432e+01 1.920181208370089507e+02
6.600000000000000000e+01 1.914526737908983307e+02
6.640000000000000568e+01 1.908924995709376162e+02
6.680000000000001137e+01 1.903375150733716055e+02
6.720000000000000284e+01 1.897876390361822700e+02
6.759999999999999432e+01 1.892427919865853028e+02
6.800000000000000000e+01 1.887028961903535844e+02
6.840000000000000568e+01 1.881678756028918542e+02
6.880000000000001137e+01 1.876376558219919843e+02
6.920000000000000284e+01 1.871121640422009023e+02
6.959999999999999432e+01 1.865913290107351372e+02
7.000000000000000000e+01 1.860750809848815379e+02
7.040000000000000568e+01 1.855633516908244758e+02
7.080000000000001137e+01 1.850560742838431736e+02
7.120000000000000284e+01 1.845531833098254708e+02
7.159999999999999432e+01 1.840546146680469519e+02
7.200000000000000000e+01 1.835603055751659269e+02
7.240000000000000568e+01 1.830701945303878801e+02
7.280000000000001137e+01 1.825842212817544237e+02
7.320000000000000284e+01 1.821023267935138392e+02
7.359999999999999432e+01 1.816244532145321671e+02
7.400000000000000000e+01 1.811505438477067287e+02
7.440000000000000568e+01 1.806805431203428611e+02
7.479999999999999716e+01 1.802143965554595866e+02
7.520000000000000284e+01 1.797520507439892299e+02
7.560000000000000853e+01 1.792934533178379297e+02
7.600000000000000000e+01 1.788385529237764899e+02
7.640000000000000568e+01 1.783872991981299378e+02
7.679999999999999716e+01 1.779396427422387319e+02
7.720000000000000284e+01 1.774955350986623728e+02
7.760000000000000853e+01 1.770549287280997532e+02
7.800000000000000000e+01 1.766177769870004681e+02
7.840000000000000568e+01 1.761840341058427839e+02
7.879999999999999716e+01 1.757536551680553316e+02
7.920000000000000284e+01 1.753265960895582793e+02
7.960000000000000853e+01 1.749028135989054817e+02
8.000000000000000000e+01 1.744822652180037608e+02
8.040000000000000568e+01 1.740649092433913268e+02
8.079999999999999716e+01 1.736507047280557003e+02
8.120000000000000284e+01 1.732396114637729738e+02
8.160000000000000853e+01 1.728315899639504210e+02
8.200000000000000000e+01 1.724266014469558286e+02
8.240000000000000568e+01 1.720246078199171222e+02
8.279999999999999716e+01 1.716255716629767960e+02
8.320000000000000284e+01 1.712294562139860545e+02
8.360000000000000853e+01 1.708362253536237745e+02
8.400000000000000000e+01 1.704458435909272112e+02
8.440000000000000568e+01 1.700582760492198986e+02
8.479999999999999716e+01 1.696734884524250617e+02
8.520000000000000284e+01 1.692914471117512107e+02
8.560000000000000853e+01 1.689121189127382650e+02
8.600000000000000000e+01 1.685354713026527520e+02
8.640000000000000568e+01 1.681614722782210833e+02
8.680000000000001137e+01 1.677900903736897078e+02
8.720000000000000284e+01 1.674212946492025367e+02
8.760000000000000853e+01 1.670550546794851243e+02
8.800000000000000000e+01 1.666913405428266515e+02
8.840000000000000568e+01 1.663301228103493372e+02
8.880000000000001137e+01 1.659713725355584870e+02
8.920000000000000284e+01 1.656150612441616090e+02
8.960000000000000853e+01 1.652611609241516248e+02
9.000000000000000000e+01 1.649096440161433179e+02
9.040000000000000568e+01 1.645604834039571926e+02
9.080000000000001137e+01 1.642136524054426161e+02
9.120000000000000284e+01 1.638691247635327670e+02
9.160000000000000853e+01 1.635268746375252249e+02
9.200000000000000000e+01 1.631868765945808946e+02
9.240000000000000568e+01 1.628491056014348715e+02
9.280000000000001137e+01 1.625135370163134780e+02
9.320000000000000284e+01 1.621801465810507068e+02
9.360000000000000853e+01 1.618489104133989258e+02
9.400000000000000000e+01 1.615198049995277643e+02
9.440000000000000568e+01 1.611928071867058918e+02
9.480000000000001137e+01 1.608678941761605188e+02
9.520000000000000284e+01 1.605450435161091605e+02
9.560000000000000853e+01 1.602242330949596010e+02
9.600000000000000000e+01 1.599054411346719746e+02
9.640000000000000568e+01 1.595886461842795541e+02
9.680000000000001137e+01 1.592738271135633283e+02
9.720000000000000284e+01 1.589609631068759938e+02
9.760000000000000853e+01 1.586500336571110665e+02
9.800000000000000000e+01 1.583410185598136763e+02
9.840000000000000568e+01 1.580338979074284680e+02
9.880000000000001137e+01 1.577286520836810837e+02
9.920000000000000284e+01 1.574252617580897322e+02
9.960000000000000853e+01 1.571237078806030922e+02
1.000000000000000000e+02 1.568239716763610829e+02
1.004000000000000057e+02 1.565260346405752045e+02
1.008000000000000114e+02 1.562298785335256071e+02
1.012000000000000028e+02 1.559354853756710781e+02
1.016000000000000085e+02 1.556428374428693644e+02
1.020000000000000000e+02 1.553519172617048980e+02
1.024000000000000057e+02 1.550627076049210018e+02
1.028000000000000114e+02 1.547751914869535597e+02
1.032000000000000028e+02 1.544893521595640777e+02
1.036000000000000085e+02 1.542051731075688394e+02
1.040000000000000000e+02 1.539226380446625058e+02
1.044000000000000057e+02 1.536417309093322956e+02
1.048000000000000114e+02 1.533624358608624334e+02
1.052000000000000028e+02 1.530847372754244020e+02
1.056000000000000085e+02 1.528086197422525458e+02
1.060000000000000000e+02 1.525340680599016707e+02
1.064000000000000057e+02 1.522610672325850487e+02
1.068000000000000114e+02 1.519896024665909238e+02
1.072000000000000028e+02 1.517196591667752443e+02
1.076000000000000085e+02 1.514512229331286335e+02
1.080000000000000000e+02 1.511842795574161471e+02
1.084000000000000057e+02 1.509188150198876883e+02
1.088000000000000114e+02 1.506548154860573163e+02
1.092000000000000028e+02 1.503922673035498860e+02
1.096000000000000085e+02 1.501311569990133137e+02
1.100000000000000000e+02 1.498714712750948479e+02
1.104000000000000057e+02 1.496131970074797550e+02
1.108000000000000114e+02 1.493563212419907984e+02
1.112000000000000028e+02 1.491008311917473463e+02
1.116000000000000085e+02 1.488467142343823184e+02
1.120000000000000000e+02 1.485939579093159182e+02
1.124000000000000057e+02 1.483425499150843052e+02
1.128000000000000114e+02 1.480924781067223250e+02
1.132000000000000028e+02 1.478437304931990752e+02
1.136000000000000085e+02 1.475962952349044883e+02
1.140000000000000000e+02 1.473501606411863065e+02
1.144000000000000057e+02 1.471053151679359701e+02
1.148000000000000114e+02 1.468617474152224531e+02
1.152000000000000028e+02 1.466194461249723417e+02
1.156000000000000085e+02 1.463784001786964666e+02
1.160000000000000000e+02 1.461385985952600208e+02
1.164000000000000057e+02 1.459000305286969024e+02
1.168000000000000114e+02 1.456626852660665463e+02
1.172000000000000028e+02 1.454265522253517702e+02
1.176000000000000085e+02 1.451916209533981146e+02
1.180000000000000000e+02 1.449578811238918661e+02
1.184000000000000057e+02 1.447253225353776429e+02
1.188000000000000114e+02 1.444939351093134974e+02
1.192000000000000028e+02 1.442637088881629381e+02
1.196000000000000085e+02 1.440346340335236448e+02
1.200000000000000000e+02 1.438067008242910276e+02
1.204000000000000057e+02 1.435798996548567175e+02
1.208000000000000114e+02 1.433542210333408207e+02
1.212000000000000028e+02 1.431296555798572001e+02
1.216000000000000085e+02 1.429061940248112137e+02
1.220000000000000000e+02 1.426838272072288589e+02
1.224000000000000057e+02 1.424625460731171813e+02
1.228000000000000114e+02 1.422423416738548099e+02
1.232000000000000028e+02 1.420232051646119089e+02
1.236000000000000085e+02 1.418051278027993476e+02
1.240000000000000000e+02 1.415881009465462341e+02
1.244000000000000057e+02 1.413721160532049339e+02
1.248000000000000114e+02 1.411571646778833440e+02
1.252000000000000028e+02 1.409432384720037987e+02
1.256000000000000085e+02 1.407303291818877824e+02
1.260000000000000000e+02 1.405184286473661643e+02
1.264000000000000057e+02 1.403075288004144454e+02
1.268000000000000114e+02 1.400976216638121059e+02
1.272000000000000028e+02 1.398886993498258562e+02
1.276000000000000085e+02 1.396807540589165626e+02
1.280000000000000000e+02 1.394737780784685128e+02
1.284000000000000057e+02 1.392677637815414187e+02
1.288000000000000114e+02 1.390627036256443319e+02
1.291999999999999886e+02 1.388585901515307626e+02
1.296000000000000227e+02 1.386554159820150289e+02
1.300000000000000000e+02 1.384531738208091838e+02
1.304000000000000057e+02 1.382518564513799220e+02
1.308000000000000114e+02 1.380514567358256102e+02
1.311999999999999886e+02 1.378519676137721319e+02
1.316000000000000227e+02 1.376533821012881447e+02
1.320000000000000000e+02 1.374556932898186119e+02
1.324000000000000057e+02 1.372588943451368095e+02
1.328000000000000114e+02 1.370629785063137263e+02
1.331999999999999886e+02 1.368679390847054265e+02
1.336000000000000227e+02 1.366737694629572104e+02
1.340000000000000000e+02 1.364804630940245147e+02
1.344000000000000057e+02 1.362880135002106101e+02
1.348000000000000114e+02 1.360964142722199313e+02
1.351999999999999886e+02 1.359056590682276067e+02
1.356000000000000227e+02 1.357157416129641945e+02
1.360000000000000000e+02 1.355266556968158511e+02
1.364000000000000057e+02 1.353383951749390803e+02
1.368000000000000114e+02 1.351509539663904320e+02
1.371999999999999886e+02 1.349643260532700992e+02
1.376000000000000227e+02 1.347785054798799536e+02
1.380000000000000000e+02 1.345934863518950237e+02
1.384000000000000057e+02 1.344092628355486454e+02
1.388000000000000114e+02 1.342258291568307982e+02
1.392000000000000171e+02 1.340431796006993466e+02
1.395999999999999943e+02 1.338613085103041556e+02
1.400000000000000000e+02 1.336802102862235699e+02
1.404000000000000057e+02 1.334998793857131716e+02
1.408000000000000114e+02 1.333203103219666446e+02
1.412000000000000171e+02 1.331414976633883498e+02
1.415999999999999943e+02 1.329634360328774108e+02
1.420000000000000000e+02 1.327861201071231960e+02
1.424000000000000057e+02 1.326095446159120854e+02
1.428000000000000114e+02 1.324337043414449795e+02
1.432000000000000171e+02 1.322585941176656092e+02
1.435999999999999943e+02 1.320842088295994472e+02
1.440000000000000000e+02 1.319105434127026228e+02
1.444000000000000057e+02 1.317375928522213826e+02
1.448000000000000114e+02 1.315653521825616394e+02
1.452000000000000171e+02 1.313938164866673901e+02
1.455999999999999943e+02 1.312229808954098758e+02
1.460000000000000000e+02 1.310528405869854396e+02
1.464000000000000057e+02 1.308833907863226216e+02
1.468000000000000114e+02 1.307146267644989734e+02
1.472000000000000171e+02 1.305465438381658601e+02
1.475999999999999943e+02 1.303791373689829527e+02
1.480000000000000000e+02 1.302124027630604530e+02
1.484000000000000057e+02 1.300463354704104688e+02
1.488000000000000114e+02 1.298809309844062909e+02
1.492000000000000171e+02 1.297161848412497704e+02
1.495999999999999943e+02 1.295520926194471372e+02
1.500000000000000000e+02 1.293886499392920655e+02
