1.000000000000000000e+01 1.471567707514953440e+02
1.040000000000000036e+01 1.437014383275117098e+02
1.080000000000000071e+01 1.399835609488798980e+02
1.119999999999999929e+01 1.365408751380826970e+02
1.159999999999999964e+01 1.333404619900124146e+02
1.200000000000000000e+01 1.303547389034588662e+02
1.240000000000000036e+01 1.275603829415170480e+02
1.280000000000000071e+01 1.249375112681291995e+02
1.319999999999999929e+01 1.224690483906744873e+02
1.359999999999999964e+01 1.201402314157750197e+02
1.400000000000000000e+01 1.179382187899581851e+02
1.440000000000000036e+01 1.158517776745860601e+02
1.480000000000000071e+01 1.138710317960117493e+02
1.519999999999999929e+01 1.120233377543462581e+02
1.560000000000000142e+01 1.103020913843271273e+02
1.600000000000000000e+01 1.086566504342159050e+02
1.639999999999999858e+01 1.070815450816691907e+02
1.680000000000000071e+01 1.055803553994444997e+02
1.719999999999999929e+01 1.044084874153054869e+02
1.760000000000000142e+01 1.032810207907213851e+02
1.800000000000000000e+01 1.021951449066904303e+02
1.839999999999999858e+01 1.011482945141285228e+02
1.880000000000000071e+01 1.001381226724541591e+02
1.920000000000000284e+01 9.916247727133389844e+01
1.960000000000000142e+01 9.821938058480174050e+01
2.000000000000000000e+01 9.730701140293489004e+01
2.039999999999999858e+01 9.642368936361593512e+01
2.080000000000000071e+01 9.556786116961092148e+01
2.120000000000000284e+01 9.473808842728786317e+01
2.160000000000000142e+01 9.286985871060295494e+01
2.200000000000000000e+01 9.210128368053209158e+01
2.239999999999999858e+01 9.135496447456858959e+01
2.280000000000000071e+01 9.062981258665797668e+01
2.320000000000000284e+01 8.992481342394145827e+01
2.360000000000000142e+01 8.923901993231714869e+01
2.400000000000000000e+01 8.857154688530641806e+01
2.439999999999999858e+01 8.792156575570615473e+01
2.480000000000000071e+01 8.728830010063900602e+01
2.520000000000000284e+01 8.667102140002616295e+01
2.560000000000000142e+01 8.606904529648878110e+01
2.600000000000000000e+01 8.548172819147782775e+01
2.640000000000000213e+01 8.490846415823381221e+01
2.680000000000000071e+01 8.434868213714285901e+01
2.719999999999999929e+01 8.382170197787806387e+01
2.760000000000000142e+01 8.338915382433101797e+01
2.800000000000000000e+01 8.294984036233579161e+01
2.840000000000000213e+01 8.251851083523166608e+01
2.880000000000000071e+01 8.209625859414734350e+01
2.920000000000000284e+01 8.168274519096760855e+01
2.960000000000000142e+01 8.127764998711063527e+01
3.000000000000000000e+01 8.088066895647145316e+01
3.040000000000000213e+01 8.049151358563436531e+01
3.080000000000000071e+01 8.010990986212789267e+01
3.120000000000000284e+01 7.973559734249364794e+01
3.160000000000000142e+01 7.337455757359856534e+01
3.200000000000000000e+01 7.294582066355980032e+01
3.240000000000000568e+01 7.252543606764604078e+01
3.279999999999999716e+01 7.211312557578457927e+01
3.320000000000000284e+01 7.170862394062011447e+01
3.360000000000000142e+01 7.131167810764496551e+01
3.400000000000000000e+01 7.092204650060126880e+01
3.440000000000000568e+01 7.053949835752041508e+01
3.479999999999999716e+01 7.016381311320773762e+01
3.520000000000000284e+01 6.979477982437647654e+01
3.560000000000000142e+01 6.943219663398883768e+01
3.600000000000000000e+01 6.907587027167826932e+01
3.640000000000000568e+01 6.872561558741281829e+01
3.679999999999999716e+01 6.861516671288585201e+01
3.720000000000000284e+01 6.828765552884212298e+01
3.760000000000000142e+01 6.796543094279239483e+01
3.800000000000000000e+01 6.764834620615796723e+01
3.840000000000000568e+01 6.733626029478290320e+01
3.879999999999999716e+01 6.702903762328863024e+01
3.920000000000000284e+01 6.672654777670864235e+01
3.960000000000000142e+01 6.642866525817962042e+01
4.000000000000000000e+01 6.613526925156338621e+01
4.040000000000000568e+01 6.584624339796543779e+01
4.079999999999999716e+01 6.556147558519641905e+01
4.120000000000000284e+01 6.528085774929891727e+01
4.160000000000000142e+01 6.500428568732894519e+01
4.200000000000000000e+01 6.473165888064471574e+01
4.239999999999999858e+01 6.446288032801113843e+01
4.280000000000000426e+01 6.419785638788134463e+01
4.320000000000000284e+01 6.393649662926357280e+01
4.360000000000000142e+01 6.367871369062550002e+01
4.400000000000000000e+01 6.342442314632822331e+01
4.439999999999999858e+01 6.317354338011869430e+01
4.480000000000000426e+01 6.292599546524308352e+01
4.520000000000000284e+01 6.268170305077482141e+01
4.560000000000000142e+01 6.244059225377942113e+01
4.600000000000000000e+01 6.220168853719516733e+01
4.639999999999999858e+01 6.196415884704050114e+01
4.680000000000000426e+01 6.172308297217617223e+01
4.720000000000000284e+01 6.148503435536677841e+01
4.760000000000000142e+01 6.124994764927322421e+01
4.800000000000000000e+01 6.101775949911888119e+01
4.840000000000000568e+01 6.078840846457893576e+01
4.880000000000000426e+01 6.056183494539731527e+01
4.920000000000000284e+01 6.033798111052254853e+01
4.960000000000000142e+01 6.011679083056645112e+01
5.000000000000000000e+01 5.989820961340303995e+01
5.040000000000000568e+01 5.968218454273543472e+01
5.080000000000000426e+01 5.946866421947080994e+01
5.120000000000000284e+01 5.925759870575155475e+01
5.160000000000000142e+01 5.904893947150184630e+01
5.200000000000000000e+01 5.492777883410087725e+01
5.240000000000000568e+01 5.470837215575542700e+01
5.280000000000000426e+01 5.449149841138853390e+01
5.320000000000000284e+01 5.427710870959453615e+01
5.360000000000000142e+01 5.406515547775629216e+01
5.400000000000000000e+01 5.385559241649085038e+01
5.440000000000000568e+01 5.364837445600908694e+01
5.480000000000000426e+01 5.344345771429468073e+01
5.520000000000000284e+01 5.324079945701343775e+01
5.560000000000000142e+01 5.304035805906853085e+01
5.600000000000000000e+01 5.284209296772252173e+01
5.640000000000000568e+01 5.264596466721086898e+01
5.680000000000000426e+01 5.245193464477586076e+01
5.720000000000000284e+01 5.224366058678818092e+01
5.760000000000000142e+01 5.205761992789266657e+01
5.800000000000000000e+01 5.187351086261479338e+01
5.840000000000000568e+01 5.169129981962183251e+01
5.880000000000000426e+01 5.151095404358279950e+01
5.920000000000000284e+01 5.133244156975261774e+01
5.960000000000000142e+01 5.115573119952021131e+01
6.000000000000000000e+01 5.098079247687648063e+01
6.040000000000000568e+01 5.080759566576234931e+01
6.080000000000000426e+01 5.063611172825771689e+01
6.120000000000000284e+01 5.046631230357452580e+01
6.160000000000000142e+01 5.029816968781941000e+01
6.200000000000000000e+01 5.013165681449250144e+01
6.240000000000000568e+01 4.996674723569084620e+01
6.280000000000000426e+01 4.980341510398680782e+01
6.320000000000000284e+01 4.964163515495243928e+01
6.360000000000000142e+01 4.948138269030317105e+01
6.400000000000000000e+01 4.932263356163485923e+01
6.440000000000000568e+01 4.916536415472941002e+01
6.480000000000001137e+01 4.900955137440593745e+01
6.520000000000000284e+01 4.885517262989478127e+01
6.559999999999999432e+01 4.870220582071352311e+01
6.600000000000000000e+01 4.855062932302440259e+01
6.640000000000000568e+01 4.853339974380597965e+01
6.680000000000001137e+01 4.839260762753518463e+01
6.720000000000000284e+01 4.825305375962744847e+01
6.759999999999999432e+01 4.811471980038297147e+01
6.800000000000000000e+01 4.797741793010186484e+01
6.840000000000000568e+01 4.783968758345763206e+01
6.880000000000001137e+01 4.770314839724274947e+01
6.920000000000000284e+01 4.756778303080584891e+01
6.959999999999999432e+01 4.743357449683514915e+01
7.000000000000000000e+01 4.730050615213671961e+01
7.040000000000000568e+01 4.716856168870530297e+01
7.080000000000001137e+01 4.703772512507705983e+01
7.120000000000000284e+01 4.690798079795358433e+01
7.159999999999999432e+01 4.677931335408735691e+01
7.200000000000000000e+01 4.665170774241880736e+01
7.240000000000000568e+01 4.652514920645613472e+01
7.280000000000001137e+01 4.639962327688867560e+01
7.320000000000000284e+01 4.627511576442580576e+01
7.359999999999999432e+01 4.615161275285293385e+01
7.400000000000000000e+01 4.602910059229714079e+01
7.440000000000000568e+01 4.590756589269474830e+01
7.479999999999999716e+01 4.578699551745386032e+01
7.520000000000000284e+01 4.566737657730510591e+01
7.560000000000000853e+01 4.554869642433373400e+01
7.600000000000000000e+01 4.543094264618708422e+01
7.640000000000000568e+01 4.531410306045111014e+01
7.679999999999999716e+01 4.519816570919040544e+01
7.720000000000000284e+01 4.507825430807118039e+01
7.760000000000000853e+01 4.495851028866445631e+01
7.800000000000000000e+01 4.483969112036814408e+01
7.840000000000000568e+01 4.472178482018541956e+01
7.879999999999999716e+01 4.460477962253069251e+01
7.920000000000000284e+01 4.448866397417327789e+01
7.960000000000000853e+01 4.437342652932409948e+01
8.000000000000000000e+01 4.425905614486086392e+01
8.040000000000000568e+01 4.414554187568683119e+01
8.079999999999999716e+01 4.403287297021900315e+01
8.120000000000000284e+01 4.392103886600150986e+01
8.160000000000000853e+01 4.384616825382992999e+01
8.200000000000000000e+01 4.373762711919378887e+01
8.240000000000000568e+01 4.362987136098082885e+01
8.279999999999999716e+01 4.352289143570114049e+01
8.320000000000000284e+01 4.341667796241343780e+01
8.360000000000000853e+01 4.331122171917309061e+01
8.400000000000000000e+01 4.320651363957469471e+01
8.440000000000000568e+01 4.310254480938611010e+01
8.479999999999999716e+01 4.299930646327139527e+01
8.520000000000000284e+01 4.289678998159946843e+01
8.560000000000000853e+01 4.279498688733622913e+01
8.600000000000000000e+01 4.269388884301743303e+01
8.640000000000000568e+01 4.259150488083584207e+01
8.680000000000001137e+01 4.248954416905836950e+01
8.720000000000000284e+01 4.238828558731641039e+01
8.760000000000000853e+01 4.228772102667829813e+01
8.800000000000000000e+01 4.218784250956245785e+01
8.840000000000000568e+01 4.208864218700495030e+01
8.880000000000001137e+01 4.199011233599669879e+01
8.920000000000000284e+01 4.189224535688749285e+01
8.960000000000000853e+01 4.179503377085552529e+01
9.000000000000000000e+01 4.169847021744011784e+01
9.040000000000000568e+01 4.160254745213573813e+01
9.080000000000001137e+01 4.150725834404577341e+01
9.120000000000000284e+01 4.141259587359410688e+01
9.160000000000000853e+01 4.131855313029295473e+01
9.200000000000000000e+01 4.122512331056515222e+01
9.240000000000000568e+01 4.113229971561955978e+01
9.280000000000001137e+01 4.104007574937786273e+01
9.320000000000000284e+01 4.094844491645140039e+01
9.360000000000000853e+01 4.085740082016663877e+01
9.400000000000000000e+01 4.076693716063775241e+01
9.440000000000000568e+01 4.067704773288517117e+01
9.480000000000001137e+01 4.058772642499869221e+01
9.520000000000000284e+01 4.049866086982149938e+01
9.560000000000000853e+01 4.041012334975525988e+01
9.600000000000000000e+01 4.032213951971327504e+01
9.640000000000000568e+01 4.023470357503535411e+01
9.680000000000001137e+01 4.014780979644079650e+01
9.720000000000000284e+01 4.006145254841482028e+01
9.760000000000000853e+01 3.997562627763219467e+01
9.800000000000000000e+01 3.989032551141720973e+01
9.840000000000000568e+01 3.980554485623861183e+01
9.880000000000001137e+01 3.972127899623897918e+01
9.920000000000000284e+01 3.963752269179725829e+01
9.960000000000000853e+01 3.955427077812383629e+01
1.000000000000000000e+02 3.947151816388728207e+01
1.004000000000000057e+02 3.938925982987154839e+01
1.008000000000000114e+02 3.930749082766344316e+01
1.012000000000000028e+02 3.922620627836894158e+01
1.016000000000000085e+02 3.914540137135814746e+01
1.020000000000000000e+02 3.906507136303761740e+01
1.024000000000000057e+02 3.898521157564989892e+01
1.028000000000000114e+02 3.890581739609905298e+01
1.032000000000000028e+02 3.882688427480191962e+01
1.036000000000000085e+02 3.874840772456406768e+01
1.040000000000000000e+02 3.867038331948029395e+01
1.044000000000000057e+02 3.859280669385847773e+01
1.048000000000000114e+02 3.851567354116666309e+01
1.052000000000000028e+02 3.843897961300255162e+01
1.056000000000000085e+02 3.836272071808485862e+01
1.060000000000000000e+02 3.828689272126612053e+01
1.064000000000000057e+02 3.821149154256622893e+01
1.068000000000000114e+02 3.813651315622620075e+01
1.072000000000000028e+02 3.806195358978200716e+01
1.076000000000000085e+02 3.798780892315740232e+01
1.080000000000000000e+02 3.791407528777581604e+01
1.084000000000000057e+02 3.784074886569044338e+01
1.088000000000000114e+02 3.776782588873244606e+01
1.092000000000000028e+02 3.769530263767644840e+01
1.096000000000000085e+02 3.762317544142330661e+01
1.100000000000000000e+02 3.755144067619934845e+01
1.104000000000000057e+02 3.768638972419142874e+01
1.108000000000000114e+02 3.768588235862186053e+01
1.112000000000000028e+02 3.762260865971938983e+01
1.116000000000000085e+02 3.755965834376372214e+01
1.120000000000000000e+02 3.749702861214075966e+01
1.124000000000000057e+02 3.743471670033720500e+01
1.128000000000000114e+02 3.737271987740561485e+01
1.132000000000000028e+02 3.731103544543975659e+01
1.136000000000000085e+02 3.724966073905986264e+01
1.140000000000000000e+02 3.718859312490796043e+01
1.144000000000000057e+02 3.712783000115241805e+01
1.148000000000000114e+02 3.706736879700210352e+01
1.152000000000000028e+02 3.700720697222959643e+01
1.156000000000000085e+02 3.694734201670335239e+01
1.160000000000000000e+02 3.688777144992863555e+01
1.164000000000000057e+02 3.682849282059697771e+01
1.168000000000000114e+02 3.676950370614403596e+01
1.172000000000000028e+02 3.671080171231562872e+01
1.176000000000000085e+02 3.665238447274173694e+01
1.180000000000000000e+02 3.659424964851837103e+01
1.184000000000000057e+02 3.653639492779710451e+01
1.188000000000000114e+02 3.647881802538209683e+01
1.192000000000000028e+02 3.642151668233443473e+01
1.196000000000000085e+02 3.636448866558363591e+01
1.200000000000000000e+02 3.630773176754620835e+01
1.204000000000000057e+02 3.625124380575112326e+01
1.208000000000000114e+02 3.619502262247185342e+01
1.212000000000000028e+02 3.613906608436520429e+01
1.216000000000000085e+02 3.608337208211641212e+01
1.220000000000000000e+02 3.602793853009070801e+01
1.224000000000000057e+02 3.597276336599086477e+01
1.228000000000000114e+02 3.591784455052101777e+01
1.232000000000000028e+02 3.586318006705622707e+01
1.236000000000000085e+02 3.580876792131787312e+01
1.240000000000000000e+02 3.575460614105487878e+01
1.244000000000000057e+02 3.570069277573020372e+01
1.248000000000000114e+02 3.564702589621312256e+01
1.252000000000000028e+02 3.559360359447654076e+01
1.256000000000000085e+02 3.554042398329973906e+01
1.260000000000000000e+02 3.548748519597612017e+01
1.264000000000000057e+02 3.543476761660691210e+01
1.268000000000000114e+02 3.538228405927895892e+01
1.272000000000000028e+02 3.533003575042106803e+01
1.276000000000000085e+02 3.527802090541515412e+01
1.280000000000000000e+02 3.522623775870993512e+01
1.284000000000000057e+02 3.517468456355855011e+01
1.288000000000000114e+02 3.512335959176068911e+01
1.291999999999999886e+02 3.507226113340905727e+01
1.296000000000000227e+02 3.502138749663998851e+01
1.300000000000000000e+02 3.497073700738835811e+01
1.304000000000000057e+02 3.492030800914634625e+01
1.308000000000000114e+02 3.487009886272639392e+01
1.311999999999999886e+02 3.482010794602802406e+01
1.316000000000000227e+02 3.477033365380836472e+01
1.320000000000000000e+02 3.472077439745663696e+01
1.324000000000000057e+02 3.467142860477217425e+01
1.328000000000000114e+02 3.462229471974615791e+01
1.331999999999999886e+02 3.457337120234683425e+01
1.336000000000000227e+02 3.452465652830820630e+01
1.340000000000000000e+02 3.447614918892227820e+01
1.344000000000000057e+02 3.442784769083439755e+01
1.348000000000000114e+02 3.437975055584215056e+01
1.351999999999999886e+02 3.433185632069727689e+01
1.356000000000000227e+02 3.428395143252409838e+01
1.360000000000000000e+02 3.423576851688037692e+01
1.364000000000000057e+02 3.418778863206154028e+01
1.368000000000000114e+02 3.414001033112199224e+01
1.371999999999999886e+02 3.409243218164746736e+01
1.376000000000000227e+02 3.404505276556697879e+01
1.380000000000000000e+02 3.399787067896774317e+01
1.384000000000000057e+02 3.395088453191302591e+01
1.388000000000000114e+02 3.390409294826287834e+01
1.392000000000000171e+02 3.385749456549761760e+01
1.395999999999999943e+02 3.381108803454414868e+01
1.400000000000000000e+02 3.376487201960492257e+01
1.404000000000000057e+02 3.371884519798961577e+01
1.408000000000000114e+02 3.367300625994935359e+01
1.412000000000000171e+02 3.362735390851357664e+01
1.415999999999999943e+02 3.358188685932933026e+01
1.420000000000000000e+02 3.353660384050309062e+01
1.424000000000000057e+02 3.349150359244500663e+01
1.428000000000000114e+02 3.344658486771550088e+01
1.432000000000000171e+02 3.340184643087420113e+01
1.435999999999999943e+02 3.335728705833120955e+01
1.440000000000000000e+02 3.331105614641965929e+01
1.444000000000000057e+02 3.326582785403680020e+01
1.448000000000000114e+02 3.322078144572663660e+01
1.452000000000000171e+02 3.317591568656793299e+01
1.455999999999999943e+02 3.313122935345186448e+01
1.460000000000000000e+02 3.308672123493639106e+01
1.464000000000000057e+02 3.304239013110282031e+01
1.468000000000000114e+02 3.299823485341465812e+01
1.472000000000000171e+02 3.295425422457837783e+01
1.475999999999999943e+02 3.291044707840640626e+01
1.480000000000000000e+02 3.286681225968212772e+01
1.484000000000000057e+02 3.282334862402685616e+01
1.488000000000000114e+02 3.278005503776883245e+01
1.492000000000000171e+02 3.273693037781406900e+01
1.495999999999999943e+02 3.269397353151923369e+01
1.500000000000000000e+02 3.265118339656623903e+01
