1.000000000000000000e+01 5.579812834885130997e+02
1.040000000000000036e+01 5.639295677152742883e+02
1.080000000000000071e+01 5.705930523257379718e+02
1.119999999999999929e+01 5.799465336517479273e+02
1.159999999999999964e+01 6.014205196052718065e+02
1.200000000000000000e+01 5.994687893690064584e+02
1.240000000000000036e+01 5.948249081456767726e+02
1.280000000000000071e+01 5.937822518041186868e+02
1.319999999999999929e+01 5.914994391226974813e+02
1.359999999999999964e+01 5.942296876895140940e+02
1.400000000000000000e+01 6.104750711976603270e+02
1.440000000000000036e+01 6.013011603734041728e+02
1.480000000000000071e+01 5.919147502651215973e+02
1.519999999999999929e+01 5.830495441868857824e+02
1.560000000000000142e+01 5.746546294505262722e+02
1.600000000000000000e+01 5.666862505021705374e+02
1.639999999999999858e+01 5.591064980394241957e+02
1.680000000000000071e+01 5.518822921440306573e+02
1.719999999999999929e+01 5.449845820868662258e+02
1.760000000000000142e+01 5.383877085843935220e+02
1.800000000000000000e+01 5.320688897349087938e+02
1.839999999999999858e+01 5.260078024154906871e+02
1.880000000000000071e+01 5.201862382724231111e+02
1.920000000000000284e+01 5.145878186518539223e+02
1.960000000000000142e+01 5.091977565753386443e+02
2.000000000000000000e+01 5.040026566133223582e+02
2.039999999999999858e+01 4.989903455467559183e+02
2.080000000000000071e+01 4.941497282355796870e+02
2.120000000000000284e+01 4.894706642726951031e+02
2.160000000000000142e+01 4.849438618913629284e+02
2.200000000000000000e+01 4.805607862823821961e+02
2.239999999999999858e+01 4.763135800150728301e+02
2.280000000000000071e+01 4.721949936794809446e+02
2.320000000000000284e+01 4.681983252032176779e+02
2.360000000000000142e+01 4.643173665648949964e+02
2.400000000000000000e+01 4.605463568422167100e+02
2.439999999999999858e+01 4.568799407077657975e+02
2.480000000000000071e+01 4.533131316280673104e+02
2.520000000000000284e+01 4.498412791382643832e+02
2.560000000000000142e+01 4.464600396608847177e+02
2.600000000000000000e+01 4.431653504167443884e+02
2.640000000000000213e+01 4.399534060421866002e+02
2.680000000000000071e+01 4.368206375821095548e+02
2.719999999999999929e+01 4.337636935745749724e+02
2.760000000000000142e+01 4.307794229818190388e+02
2.800000000000000000e+01 4.278648597554750950e+02
2.840000000000000213e+01 4.250172088518087889e+02
2.880000000000000071e+01 4.222338335366002866e+02
2.920000000000000284e+01 4.195122438396663256e+02
2.960000000000000142e+01 4.168500860364621303e+02
3.000000000000000000e+01 4.142451330492031047e+02
3.040000000000000213e+01 4.116952756728753684e+02
3.080000000000000071e+01 4.091985145426867234e+02
3.120000000000000284e+01 4.067529527691962699e+02
3.160000000000000142e+01 4.043567891757909365e+02
3.200000000000000000e+01 4.020083120805105636e+02
3.240000000000000568e+01 3.997058935706393754e+02
3.279999999999999716e+01 3.974479842240892822e+02
3.320000000000000284e+01 3.952331082365279826e+02
3.360000000000000142e+01 3.930598589175339157e+02
3.400000000000000000e+01 3.909268945228735106e+02
3.440000000000000568e+01 3.888329343933679070e+02
3.479999999999999716e+01 3.867767553737933213e+02
3.520000000000000284e+01 3.847571884879009758e+02
3.560000000000000142e+01 3.827731158479904821e+02
3.600000000000000000e+01 3.808234677795494463e+02
3.640000000000000568e+01 3.789072201433394866e+02
3.679999999999999716e+01 3.770233918389598102e+02
3.720000000000000284e+01 3.751710424754058977e+02
3.760000000000000142e+01 3.733492701954694439e+02
3.800000000000000000e+01 3.715572096420114576e+02
3.840000000000000568e+01 3.697940300552147050e+02
3.879999999999999716e+01 3.680589334908784735e+02
3.920000000000000284e+01 3.663511531506880488e+02
3.960000000000000142e+01 3.646699518161681226e+02
4.000000000000000000e+01 3.630146203787373338e+02
4.040000000000000568e+01 3.613844764589171632e+02
4.079999999999999716e+01 3.597788631083254245e+02
4.120000000000000284e+01 3.581971475886055032e+02
4.160000000000000142e+01 3.566387202219227675e+02
4.200000000000000000e+01 3.551029933080824890e+02
4.239999999999999858e+01 3.535894001037221415e+02
4.280000000000000426e+01 3.520973938593859884e+02
4.320000000000000284e+01 3.506264469106133674e+02
4.360000000000000142e+01 3.491760498194709044e+02
4.400000000000000000e+01 3.477457105632312846e+02
4.439999999999999858e+01 3.463349537671450662e+02
4.480000000000000426e+01 3.449433199784830890e+02
4.520000000000000284e+01 3.435703649792325223e+02
4.560000000000000142e+01 3.422156591350218946e+02
4.600000000000000000e+01 3.408787867780223451e+02
4.639999999999999858e+01 3.395593456217384301e+02
4.680000000000000426e+01 3.382569462057423948e+02
4.720000000000000284e+01 3.369712113685497457e+02
4.760000000000000142e+01 3.357017757469512844e+02
4.800000000000000000e+01 3.344482853002399452e+02
4.840000000000000568e+01 3.332103968578695117e+02
4.880000000000000426e+01 3.319877776891881922e+02
4.920000000000000284e+01 3.307801050939743277e+02
4.960000000000000142e+01 3.295870660125900713e+02
5.000000000000000000e+01 3.284083566546441944e+02
5.040000000000000568e+01 3.272436821451279343e+02
5.080000000000000426e+01 3.260927561870547038e+02
5.120000000000000284e+01 3.249553007396960993e+02
5.160000000000000142e+01 3.238310457115628651e+02
5.200000000000000000e+01 3.227197286673360850e+02
5.240000000000000568e+01 3.216210945479989505e+02
5.280000000000000426e+01 3.205348954034696476e+02
5.320000000000000284e+01 3.194608901370750118e+02
5.360000000000000142e+01 3.183988442612486551e+02
5.400000000000000000e+01 3.173485296638703517e+02
5.440000000000000568e+01 3.163097243847001323e+02
5.480000000000000426e+01 3.152822124013936786e+02
5.520000000000000284e+01 3.142657834246140851e+02
5.560000000000000142e+01 3.132602327017831385e+02
5.600000000000000000e+01 3.122653608290438569e+02
5.640000000000000568e+01 3.112809735710276868e+02
5.680000000000000426e+01 3.103068816880451095e+02
5.720000000000000284e+01 3.093429007703381899e+02
5.760000000000000142e+01 3.083888510790550868e+02
5.800000000000000000e+01 3.074445573936251321e+02
5.840000000000000568e+01 3.065098488652294009e+02
5.880000000000000426e+01 3.055845588760813598e+02
5.920000000000000284e+01 3.046685249042436112e+02
5.960000000000000142e+01 3.037615883937256172e+02
6.000000000000000000e+01 3.028635946296180919e+02
6.040000000000000568e+01 3.019743926180332210e+02
6.080000000000000426e+01 3.010938349706340205e+02
6.120000000000000284e+01 3.002217777935430831e+02
6.160000000000000142e+01 2.993580805804383544e+02
6.200000000000000000e+01 2.985026061096460239e+02
6.240000000000000568e+01 2.976552203450567617e+02
6.280000000000000426e+01 2.968157923406967598e+02
6.320000000000000284e+01 2.959841941487939039e+02
6.360000000000000142e+01 2.951603007311884994e+02
6.400000000000000000e+01 2.943439898739461569e+02
6.440000000000000568e+01 2.935351421050332874e+02
6.480000000000001137e+01 2.927336406149284471e+02
6.520000000000000284e+01 2.919393711800445317e+02
6.559999999999999432e+01 2.911522220888441552e+02
6.600000000000000000e+01 2.903720840705374826e+02
6.640000000000000568e+01 2.895988502262549105e+02
6.680000000000001137e+01 2.888324159625935295e+02
6.720000000000000284e+01 2.880726789274409612e+02
6.759999999999999432e+01 2.873195389479843698e+02
6.800000000000000000e+01 2.865728979708159727e+02
6.840000000000000568e+01 2.858326600040531957e+02
6.880000000000001137e+01 2.850987310613912200e+02
6.920000000000000284e+01 2.843710191080133427e+02
6.959999999999999432e+01 2.836494340082858798e+02
7.000000000000000000e+01 2.829338874751677508e+02
7.040000000000000568e+01 2.822242930212688634e+02
7.080000000000001137e+01 2.815205659114933496e+02
7.120000000000000284e+01 2.808226231172077973e+02
7.159999999999999432e+01 2.801303832718753597e+02
7.200000000000000000e+01 2.794437666281013435e+02
7.240000000000000568e+01 2.787626950160376964e+02
7.280000000000001137e+01 2.780870918030930170e+02
7.320000000000000284e+01 2.774168818549036359e+02
7.359999999999999432e+01 2.767519914975152915e+02
7.400000000000000000e+01 2.760923484807341310e+02
7.440000000000000568e+01 2.754378819426023028e+02
7.479999999999999716e+01 2.747885223749583474e+02
7.520000000000000284e+01 2.741442015900428260e+02
7.560000000000000853e+01 2.735048526881122370e+02
7.600000000000000000e+01 2.728704100260245013e+02
7.640000000000000568e+01 2.722408091867625330e+02
7.679999999999999716e+01 2.716159869498621333e+02
7.720000000000000284e+01 2.709958812627118050e+02
7.760000000000000853e+01 2.703804312126968625e+02
7.800000000000000000e+01 2.697695770001549818e+02
7.840000000000000568e+01 2.691632599121172120e+02
7.879999999999999716e+01 2.685614222968079616e+02
7.920000000000000284e+01 2.679640075388765013e+02
7.960000000000000853e+01 2.673709600353363953e+02
8.000000000000000000e+01 2.667822251721882481e+02
8.040000000000000568e+01 2.661977493017035385e+02
8.079999999999999716e+01 2.656174797203464664e+02
8.120000000000000284e+01 2.650413646473139124e+02
8.160000000000000853e+01 2.644693532036718011e+02
8.200000000000000000e+01 2.639013953920691620e+02
8.240000000000000568e+01 2.633374420770103370e+02
8.279999999999999716e+01 2.627774449656686784e+02
8.320000000000000284e+01 2.622213565892209317e+02
8.360000000000000853e+01 2.616691302846900271e+02
8.400000000000000000e+01 2.611207201772760982e+02
8.440000000000000568e+01 2.605760811631619163e+02
8.479999999999999716e+01 2.600351688927784721e+02
8.520000000000000284e+01 2.594979397545135953e+02
8.560000000000000853e+01 2.589643508588529812e+02
8.600000000000000000e+01 2.584343600229372555e+02
8.640000000000000568e+01 2.579079257555235358e+02
8.680000000000001137e+01 2.573850072423393271e+02
8.720000000000000284e+01 2.568655643318157900e+02
8.760000000000000853e+01 2.563495575211886148e+02
8.800000000000000000e+01 2.558369479429566127e+02
8.840000000000000568e+01 2.553276973516856572e+02
8.880000000000001137e+01 2.548217681111486002e+02
8.920000000000000284e+01 2.543191231817905305e+02
8.960000000000000853e+01 2.538197261085096841e+02
9.000000000000000000e+01 2.533235410087448543e+02
9.040000000000000568e+01 2.528305325608601777e+02
9.080000000000001137e+01 2.523406659928181739e+02
9.120000000000000284e+01 2.518539070711329941e+02
9.160000000000000853e+01 2.513702220900954103e+02
9.200000000000000000e+01 2.508895778612620688e+02
9.240000000000000568e+01 2.504119417032004833e+02
9.280000000000001137e+01 2.499372814314835978e+02
9.320000000000000284e+01 2.494655653489255087e+02
9.360000000000000853e+01 2.489967622360527173e+02
9.400000000000000000e+01 2.485308413418028408e+02
9.440000000000000568e+01 2.480677723744456102e+02
9.480000000000001137e+01 2.476075254927193896e+02
9.520000000000000284e+01 2.471500712971766518e+02
9.560000000000000853e+01 2.466953808217333233e+02
9.600000000000000000e+01 2.462434255254162849e+02
9.640000000000000568e+01 2.457941772843028900e+02
9.680000000000001137e+01 2.453476083836480370e+02
9.720000000000000284e+01 2.449036915101929139e+02
9.760000000000000853e+01 2.444623997446508099e+02
9.800000000000000000e+01 2.440237065543656456e+02
9.840000000000000568e+01 2.435875857861370832e+02
9.880000000000001137e+01 2.431540116592097434e+02
9.920000000000000284e+01 2.427229587584204182e+02
9.960000000000000853e+01 2.422944020274998138e+02
1.000000000000000000e+02 2.418683167625245005e+02
1.004000000000000057e+02 2.414446786055154064e+02
1.008000000000000114e+02 2.410234635381788166e+02
1.012000000000000028e+02 2.406046478757855880e+02
1.016000000000000085e+02 2.401882082611857072e+02
1.020000000000000000e+02 2.397741216589547548e+02
1.024000000000000057e+02 2.393623653496677832e+02
1.028000000000000114e+02 2.389529169242985063e+02
1.032000000000000028e+02 2.385457542787398779e+02
1.036000000000000085e+02 2.381408556084432178e+02
1.040000000000000000e+02 2.377381994031726435e+02
1.044000000000000057e+02 2.373377644418723662e+02
1.048000000000000114e+02 2.369395297876429538e+02
1.052000000000000028e+02 2.365434747828251716e+02
1.056000000000000085e+02 2.361495790441878171e+02
1.060000000000000000e+02 2.357578224582166229e+02
1.064000000000000057e+02 2.353681851765030615e+02
1.068000000000000114e+02 2.349806476112290170e+02
1.072000000000000028e+02 2.345951904307460723e+02
1.076000000000000085e+02 2.342117945552464278e+02
1.080000000000000000e+02 2.338304411525234627e+02
1.084000000000000057e+02 2.334511116338198633e+02
1.088000000000000114e+02 2.330737876497608454e+02
1.092000000000000028e+02 2.326984510863707953e+02
1.096000000000000085e+02 2.323250840611706565e+02
1.100000000000000000e+02 2.319536689193554366e+02
1.104000000000000057e+02 2.315841882300479426e+02
1.108000000000000114e+02 2.312166247826287986e+02
1.112000000000000028e+02 2.308509615831401334e+02
1.116000000000000085e+02 2.304871818507604644e+02
1.120000000000000000e+02 2.301252690143510051e+02
1.124000000000000057e+02 2.297652067090692469e+02
1.128000000000000114e+02 2.294069787730506107e+02
1.132000000000000028e+02 2.290505692441548149e+02
1.136000000000000085e+02 2.286959623567765618e+02
1.140000000000000000e+02 2.283431425387182969e+02
1.144000000000000057e+02 2.279920944081238474e+02
1.148000000000000114e+02 2.276428027704723718e+02
1.152000000000000028e+02 2.272952526156293516e+02
1.156000000000000085e+02 2.269494291149554215e+02
1.160000000000000000e+02 2.266053176184699112e+02
1.164000000000000057e+02 2.262629036520696673e+02
1.168000000000000114e+02 2.259221729147997735e+02
1.172000000000000028e+02 2.255831112761774193e+02
1.176000000000000085e+02 2.252457047735649951e+02
1.180000000000000000e+02 2.249099396095942609e+02
1.184000000000000057e+02 2.245758021496378092e+02
1.188000000000000114e+02 2.242432789193285885e+02
1.192000000000000028e+02 2.239123566021253851e+02
1.196000000000000085e+02 2.235830220369236940e+02
1.200000000000000000e+02 2.232552622157110989e+02
1.204000000000000057e+02 2.229290642812658803e+02
1.208000000000000114e+02 2.226044155248977177e+02
1.212000000000000028e+02 2.222813033842303128e+02
1.216000000000000085e+02 2.219597154410242013e+02
1.220000000000000000e+02 2.216396394190397530e+02
1.224000000000000057e+02 2.213210631819380581e+02
1.228000000000000114e+02 2.210039747312212910e+02
1.232000000000000028e+02 2.206883622042084880e+02
1.236000000000000085e+02 2.203742138720493244e+02
1.240000000000000000e+02 2.200615181377723388e+02
1.244000000000000057e+02 2.197502635343687416e+02
1.248000000000000114e+02 2.194404387229098177e+02
1.252000000000000028e+02 2.191320324906984922e+02
1.256000000000000085e+02 2.188250337494525013e+02
1.260000000000000000e+02 2.185194315335206170e+02
1.264000000000000057e+02 2.182152149981295679e+02
1.268000000000000114e+02 2.179123734176619109e+02
1.272000000000000028e+02 2.176108961839641722e+02
1.276000000000000085e+02 2.173107728046838929e+02
1.280000000000000000e+02 2.170119929016359777e+02
1.284000000000000057e+02 2.167145462091970387e+02
1.288000000000000114e+02 2.164184225727276214e+02
1.291999999999999886e+02 2.161236119470214021e+02
1.296000000000000227e+02 2.158301043947805908e+02
1.300000000000000000e+02 2.155378900851184198e+02
1.304000000000000057e+02 2.152469592920856485e+02
1.308000000000000114e+02 2.149573023932232729e+02
1.311999999999999886e+02 2.146689098681391386e+02
1.316000000000000227e+02 2.143817722971083981e+02
1.320000000000000000e+02 2.140958803596981852e+02
1.324000000000000057e+02 2.138112248334145420e+02
1.328000000000000114e+02 2.135277965923720274e+02
1.331999999999999886e+02 2.132455866059864320e+02
1.336000000000000227e+02 2.129645859376876160e+02
1.340000000000000000e+02 2.126847857436549702e+02
1.344000000000000057e+02 2.124061772715730854e+02
1.348000000000000114e+02 2.121287518594079700e+02
1.351999999999999886e+02 2.118525009342034480e+02
1.356000000000000227e+02 2.115774160108969681e+02
1.360000000000000000e+02 2.113034886911552235e+02
1.364000000000000057e+02 2.110307106622279036e+02
1.368000000000000114e+02 2.107590736958207458e+02
1.371999999999999886e+02 2.104885696469862921e+02
1.376000000000000227e+02 2.102191904530327804e+02
1.380000000000000000e+02 2.099509281324502012e+02
1.384000000000000057e+02 2.096837747838542327e+02
1.388000000000000114e+02 2.094177225849459205e+02
1.392000000000000171e+02 2.091527637914891216e+02
1.395999999999999943e+02 2.088888907363030398e+02
1.400000000000000000e+02 2.086260958282717013e+02
1.404000000000000057e+02 2.083643715513681798e+02
1.408000000000000114e+02 2.081037104636946822e+02
1.412000000000000171e+02 2.078441051965375834e+02
1.415999999999999943e+02 2.075855484534370134e+02
1.420000000000000000e+02 2.073280330092711949e+02
1.424000000000000057e+02 2.070715517093548499e+02
1.428000000000000114e+02 2.068160974685517601e+02
1.432000000000000171e+02 2.065616632704005440e+02
1.435999999999999943e+02 2.063082421662547006e+02
1.440000000000000000e+02 2.060558272744350745e+02
1.444000000000000057e+02 2.058044117793955365e+02
1.448000000000000114e+02 2.055539889309021078e+02
1.452000000000000171e+02 2.053045520432230262e+02
1.455999999999999943e+02 2.050560944943329389e+02
1.460000000000000000e+02 2.048086097251275532e+02
1.464000000000000057e+02 2.045620912386513055e+02
1.468000000000000114e+02 2.043165325993359147e+02
1.472000000000000171e+02 2.040719274322508454e+02
1.475999999999999943e+02 2.038282694223644285e+02
1.480000000000000000e+02 2.035855523138168905e+02
1.484000000000000057e+02 2.033437699092031039e+02
1.488000000000000114e+02 2.031029160688671880e+02
1.492000000000000171e+02 2.028629847102062911e+02
1.495999999999999943e+02 2.026239698069855422e+02
1.500000000000000000e+02 2.023858653886631487e+02
