1.000000000000000000e+01 2.335118189152465789e+02
1.040000000000000036e+01 2.715321105578549918e+02
1.080000000000000071e+01 2.826695879330229673e+02
1.119999999999999929e+01 2.897551600497114919e+02
1.159999999999999964e+01 2.991603578335216298e+02
1.200000000000000000e+01 3.060991454031616854e+02
1.240000000000000036e+01 3.153534430492131833e+02
1.280000000000000071e+01 3.244927167155352663e+02
1.319999999999999929e+01 3.389989125431949901e+02
1.359999999999999964e+01 3.515296468877431835e+02
1.400000000000000000e+01 3.670359366686902831e+02
1.440000000000000036e+01 3.696755029741948988e+02
1.480000000000000071e+01 3.631285496318326977e+02
1.519999999999999929e+01 3.570010309073202279e+02
1.560000000000000142e+01 3.512462321371423286e+02
1.600000000000000000e+01 3.458247561918484507e+02
1.639999999999999858e+01 3.407030662146070199e+02
1.680000000000000071e+01 3.358523760637291389e+02
1.719999999999999929e+01 3.312477928499573636e+02
1.760000000000000142e+01 3.268676454442231716e+02
1.800000000000000000e+01 3.226929523191871567e+02
1.839999999999999858e+01 3.187069952496445921e+02
1.880000000000000071e+01 3.148949744607365915e+02
1.920000000000000284e+01 3.112437271653116113e+02
1.960000000000000142e+01 3.077414959554361076e+02
2.000000000000000000e+01 3.043777367816066430e+02
2.039999999999999858e+01 3.011429586465657735e+02
2.080000000000000071e+01 2.980285889147080525e+02
2.120000000000000284e+01 2.950268594680427441e+02
2.160000000000000142e+01 2.921307099472045365e+02
2.200000000000000000e+01 2.893337050866880418e+02
2.239999999999999858e+01 2.866299637483487004e+02
2.280000000000000071e+01 2.840140977202458430e+02
2.320000000000000284e+01 2.814811587111792619e+02
2.360000000000000142e+01 2.790265922583824931e+02
2.400000000000000000e+01 2.766461974943392192e+02
2.439999999999999858e+01 2.743360919017270589e+02
2.480000000000000071e+01 2.720926803330305574e+02
2.520000000000000284e+01 2.699126276909648823e+02
2.560000000000000142e+01 2.677928347633503563e+02
2.600000000000000000e+01 2.657304167859664972e+02
2.640000000000000213e+01 2.637226843727020764e+02
2.680000000000000071e+01 2.617671265067471040e+02
2.719999999999999929e+01 2.598613953318021004e+02
2.760000000000000142e+01 2.580032925200356431e+02
2.800000000000000000e+01 2.561907570251499351e+02
2.840000000000000213e+01 2.544218540555297636e+02
2.880000000000000071e+01 2.526947651249188596e+02
2.920000000000000284e+01 2.510077790571055232e+02
2.960000000000000142e+01 2.493592838372891833e+02
3.000000000000000000e+01 2.477477592166068803e+02
3.040000000000000213e+01 2.461717699881143631e+02
3.080000000000000071e+01 2.446299598626552552e+02
3.120000000000000284e+01 2.431210458817806170e+02
3.160000000000000142e+01 2.416438133124142951e+02
3.200000000000000000e+01 2.401971109744766864e+02
3.240000000000000568e+01 2.387798469583370320e+02
3.279999999999999716e+01 2.373909846938834676e+02
3.320000000000000284e+01 2.360295393372884121e+02
3.360000000000000142e+01 2.346945744452963254e+02
3.400000000000000000e+01 2.333851989101420088e+02
3.440000000000000568e+01 2.321005641310910050e+02
3.479999999999999716e+01 2.308398614011260008e+02
3.520000000000000284e+01 2.296023194895371375e+02
3.560000000000000142e+01 2.283872024031484784e+02
3.600000000000000000e+01 2.271938073106541367e+02
3.640000000000000568e+01 2.260214626160882290e+02
3.679999999999999716e+01 2.248695261688229152e+02
3.720000000000000284e+01 2.237373835987126540e+02
3.760000000000000142e+01 2.226244467660892496e+02
3.800000000000000000e+01 2.215301523172857401e+02
3.840000000000000568e+01 2.204539603372326724e+02
3.879999999999999716e+01 2.193953530914500902e+02
3.920000000000000284e+01 2.183538338504520766e+02
3.960000000000000142e+01 2.173289257902114571e+02
4.000000000000000000e+01 2.163201709628875449e+02
4.040000000000000568e+01 2.153271293325332749e+02
4.079999999999999716e+01 2.143493778709498940e+02
4.120000000000000284e+01 2.133865097092713938e+02
4.160000000000000142e+01 2.124381333412333106e+02
4.200000000000000000e+01 2.115038718744176265e+02
4.239999999999999858e+01 2.105833623260704428e+02
4.280000000000000426e+01 2.096762549603668617e+02
4.320000000000000284e+01 2.087822126642496414e+02
4.360000000000000142e+01 2.079009103591951941e+02
4.400000000000000000e+01 2.070320344464714140e+02
4.439999999999999858e+01 2.061752822836398309e+02
4.480000000000000426e+01 2.053303616902279316e+02
4.520000000000000284e+01 2.044969904806566774e+02
4.560000000000000142e+01 2.036748960226513248e+02
4.600000000000000000e+01 2.028638148194977759e+02
4.639999999999999858e+01 2.020634921146250917e+02
4.680000000000000426e+01 2.012736815171090257e+02
4.720000000000000284e+01 2.004941446467903461e+02
4.760000000000000142e+01 1.997246507977976648e+02
4.800000000000000000e+01 1.989649766193488176e+02
4.840000000000000568e+01 1.982149058127839965e+02
4.880000000000000426e+01 1.974742288438591231e+02
4.920000000000000284e+01 1.967427426693902248e+02
4.960000000000000142e+01 1.960202504774073304e+02
5.000000000000000000e+01 1.953065614400284744e+02
5.040000000000000568e+01 1.946014904783198745e+02
5.080000000000000426e+01 1.939048580384573199e+02
5.120000000000000284e+01 1.932164898785465539e+02
5.160000000000000142e+01 1.925362168655051107e+02
5.200000000000000000e+01 1.918638747814447356e+02
5.240000000000000568e+01 1.911993041390301187e+02
5.280000000000000426e+01 1.905423500053232715e+02
5.320000000000000284e+01 1.898928618336527734e+02
5.360000000000000142e+01 1.892506933030771563e+02
5.400000000000000000e+01 1.886157021650370780e+02
5.440000000000000568e+01 1.879877500968167396e+02
5.480000000000000426e+01 1.873667025614575437e+02
5.520000000000000284e+01 1.867524286737886428e+02
5.560000000000000142e+01 1.861448010722592699e+02
5.600000000000000000e+01 1.855436957962760971e+02
5.640000000000000568e+01 1.849489921687665230e+02
5.680000000000000426e+01 1.843605726837052998e+02
5.720000000000000284e+01 1.837783228983566630e+02
5.760000000000000142e+01 1.832021313299980534e+02
5.800000000000000000e+01 1.826318893569066972e+02
5.840000000000000568e+01 1.820674911233999751e+02
5.880000000000000426e+01 1.815088334487341513e+02
5.920000000000000284e+01 1.809558157396762681e+02
5.960000000000000142e+01 1.804083399065746960e+02
6.000000000000000000e+01 1.798663102827622424e+02
6.040000000000000568e+01 1.793296335471362966e+02
6.080000000000000426e+01 1.787982186497675627e+02
6.120000000000000284e+01 1.782719767403978040e+02
6.160000000000000142e+01 1.777508210996941216e+02
6.200000000000000000e+01 1.772346670731335507e+02
6.240000000000000568e+01 1.767234320074003620e+02
6.280000000000000426e+01 1.762170351891820417e+02
6.320000000000000284e+01 1.757153977862577108e+02
6.360000000000000142e+01 1.752184427907776580e+02
6.400000000000000000e+01 1.747260949646371273e+02
6.440000000000000568e+01 1.742382807868535792e+02
6.480000000000001137e+01 1.737549284028606280e+02
6.520000000000000284e+01 1.732759675756354909e+02
6.559999999999999432e+01 1.728013296385823594e+02
6.600000000000000000e+01 1.723309474500968861e+02
6.640000000000000568e+01 1.718647553497410172e+02
6.680000000000001137e+01 1.714026891159601291e+02
6.720000000000000284e+01 1.709446859252794297e+02
6.759999999999999432e+01 1.704906843129174661e+02
6.800000000000000000e+01 1.700406241347590992e+02
6.840000000000000568e+01 1.695944465306324673e+02
6.880000000000001137e+01 1.691520938888366459e+02
6.920000000000000284e+01 1.687135098118705514e+02
6.959999999999999432e+01 1.682786390833140047e+02
7.000000000000000000e+01 1.678474276358156771e+02
7.040000000000000568e+01 1.674198225201444927e+02
7.080000000000001137e+01 1.669957718752621361e+02
7.120000000000000284e+01 1.665752248993770763e+02
7.159999999999999432e+01 1.661581318219422201e+02
7.200000000000000000e+01 1.657444438765595294e+02
7.240000000000000568e+01 1.653341132747571862e+02
7.280000000000001137e+01 1.649270931806059650e+02
7.320000000000000284e+01 1.645233376861429235e+02
7.359999999999999432e+01 1.641228017875720298e+02
7.400000000000000000e+01 1.637254413622133882e+02
7.440000000000000568e+01 1.633312131461719900e+02
7.479999999999999716e+01 1.629400747127005502e+02
7.520000000000000284e+01 1.625519844512305099e+02
7.560000000000000853e+01 1.621669015470463364e+02
7.600000000000000000e+01 1.617847859615809227e+02
7.640000000000000568e+01 1.614055984133082688e+02
7.679999999999999716e+01 1.610293003592133800e+02
7.720000000000000284e+01 1.606558539768173546e+02
7.760000000000000853e+01 1.602852221467397555e+02
7.800000000000000000e+01 1.599173684357771776e+02
7.840000000000000568e+01 1.595522570804818940e+02
7.879999999999999716e+01 1.591898529712216543e+02
7.920000000000000284e+01 1.588301216367050301e+02
7.960000000000000853e+01 1.584730292289553972e+02
8.000000000000000000e+01 1.581185425087187184e+02
8.040000000000000568e+01 1.577666288312900065e+02
8.079999999999999716e+01 1.574172561327443418e+02
8.120000000000000284e+01 1.570703929165590580e+02
8.160000000000000853e+01 1.567260082406135950e+02
8.200000000000000000e+01 1.563840717045542306e+02
8.240000000000000568e+01 1.560445534375123486e+02
8.279999999999999716e+01 1.557074240861637691e+02
8.320000000000000284e+01 1.553726548031184791e+02
8.360000000000000853e+01 1.550402172356293704e+02
8.400000000000000000e+01 1.547100835146102895e+02
8.440000000000000568e+01 1.543822262439527151e+02
8.479999999999999716e+01 1.540566184901322799e+02
8.520000000000000284e+01 1.537332337720946498e+02
8.560000000000000853e+01 1.534120460514132844e+02
8.600000000000000000e+01 1.530930297227090762e+02
8.640000000000000568e+01 1.527761596043249313e+02
8.680000000000001137e+01 1.524614109292458295e+02
8.720000000000000284e+01 1.521487593362583084e+02
8.760000000000000853e+01 1.518381808613402484e+02
8.800000000000000000e+01 1.515296519292754454e+02
8.840000000000000568e+01 1.512231493454848703e+02
8.880000000000001137e+01 1.509186502880683634e+02
8.920000000000000284e+01 1.506161323000507082e+02
8.960000000000000853e+01 1.503155732818250954e+02
9.000000000000000000e+01 1.500169514837890006e+02
9.040000000000000568e+01 1.497202454991656850e+02
9.080000000000001137e+01 1.494254342570067138e+02
9.120000000000000284e+01 1.491324970153691254e+02
9.160000000000000853e+01 1.488414133546631035e+02
9.200000000000000000e+01 1.485521631711644091e+02
9.240000000000000568e+01 1.482647266706867413e+02
9.280000000000001137e+01 1.479790843624100489e+02
9.320000000000000284e+01 1.476952170528593911e+02
9.360000000000000853e+01 1.474131058400302550e+02
9.400000000000000000e+01 1.471327321076569490e+02
9.440000000000000568e+01 1.468540775196182722e+02
9.480000000000001137e+01 1.465771240144782723e+02
9.520000000000000284e+01 1.463018538001571471e+02
9.560000000000000853e+01 1.460282493487290196e+02
9.600000000000000000e+01 1.457562933913431493e+02
9.640000000000000568e+01 1.454859689132644860e+02
9.680000000000001137e+01 1.452172591490311504e+02
9.720000000000000284e+01 1.449501475777248629e+02
9.760000000000000853e+01 1.446846179183513641e+02
9.800000000000000000e+01 1.444206541253282410e+02
9.840000000000000568e+01 1.441582403840764357e+02
9.880000000000001137e+01 1.438973611067132765e+02
9.920000000000000284e+01 1.436380009278439616e+02
9.960000000000000853e+01 1.433801447004488807e+02
1.000000000000000000e+02 1.431237774918639616e+02
1.004000000000000057e+02 1.428688845798525335e+02
1.008000000000000114e+02 1.426154514487644178e+02
1.012000000000000028e+02 1.423634637857820167e+02
1.016000000000000085e+02 1.421129074772492231e+02
1.020000000000000000e+02 1.418637686050827256e+02
1.024000000000000057e+02 1.416160334432618129e+02
1.028000000000000114e+02 1.413696884543961687e+02
1.032000000000000028e+02 1.411247202863683583e+02
1.036000000000000085e+02 1.408811157690498703e+02
1.040000000000000000e+02 1.406388619110887817e+02
1.044000000000000057e+02 1.403979458967664868e+02
1.048000000000000114e+02 1.401583550829228102e+02
1.052000000000000028e+02 1.399200769959466299e+02
1.056000000000000085e+02 1.396830993288312754e+02
1.060000000000000000e+02 1.394474099382924237e+02
1.064000000000000057e+02 1.392129968419474437e+02
1.068000000000000114e+02 1.389798482155539432e+02
1.072000000000000028e+02 1.387479523903069492e+02
1.076000000000000085e+02 1.385172978501923353e+02
1.080000000000000000e+02 1.382878732293958990e+02
1.084000000000000057e+02 1.380596673097660130e+02
1.088000000000000114e+02 1.378326690183291419e+02
1.092000000000000028e+02 1.376068674248565458e+02
1.096000000000000085e+02 1.373822517394808926e+02
1.100000000000000000e+02 1.371588113103619833e+02
1.104000000000000057e+02 1.369365356213998268e+02
1.108000000000000114e+02 1.367154142899943849e+02
1.112000000000000028e+02 1.364954370648505915e+02
1.116000000000000085e+02 1.362765938238277954e+02
1.120000000000000000e+02 1.360588745718321491e+02
1.124000000000000057e+02 1.358422694387515435e+02
1.128000000000000114e+02 1.356267686774314427e+02
1.132000000000000028e+02 1.354123626616910485e+02
1.136000000000000085e+02 1.351990418843788007e+02
1.140000000000000000e+02 1.349867969554662466e+02
1.144000000000000057e+02 1.347756186001790297e+02
1.148000000000000114e+02 1.345654976571651389e+02
1.152000000000000028e+02 1.343564250766981161e+02
1.156000000000000085e+02 1.341483919189158200e+02
1.160000000000000000e+02 1.339413893520928980e+02
1.164000000000000057e+02 1.337354086509466811e+02
1.168000000000000114e+02 1.335304411949758787e+02
1.172000000000000028e+02 1.333264784668307357e+02
1.176000000000000085e+02 1.331235120507145950e+02
1.180000000000000000e+02 1.329215336308155031e+02
1.184000000000000057e+02 1.327205349897680264e+02
1.188000000000000114e+02 1.325205080071436896e+02
1.192000000000000028e+02 1.323214446579700905e+02
1.196000000000000085e+02 1.321233370112774423e+02
1.200000000000000000e+02 1.319261772286727705e+02
1.204000000000000057e+02 1.317299575629401431e+02
1.208000000000000114e+02 1.315346703566671920e+02
1.212000000000000028e+02 1.313403080408969572e+02
1.216000000000000085e+02 1.311468631338045725e+02
1.220000000000000000e+02 1.309543282393980235e+02
1.224000000000000057e+02 1.307626960462430930e+02
1.228000000000000114e+02 1.305719593262112994e+02
1.232000000000000028e+02 1.303821109332504307e+02
1.236000000000000085e+02 1.301931438021777865e+02
1.240000000000000000e+02 1.300050509474947376e+02
1.244000000000000057e+02 1.298178254622229701e+02
1.248000000000000114e+02 1.296314605167613934e+02
1.252000000000000028e+02 1.294459493577634248e+02
1.256000000000000085e+02 1.292612853070344272e+02
1.260000000000000000e+02 1.290774617604486139e+02
1.264000000000000057e+02 1.288944721868851389e+02
1.268000000000000114e+02 1.287123101271829739e+02
1.272000000000000028e+02 1.285309691931140321e+02
1.276000000000000085e+02 1.283504430663744245e+02
1.280000000000000000e+02 1.281707254975931676e+02
1.284000000000000057e+02 1.279918103053582712e+02
1.288000000000000114e+02 1.278136913752596655e+02
1.291999999999999886e+02 1.276363626589487694e+02
1.296000000000000227e+02 1.274598181732138045e+02
1.300000000000000000e+02 1.272840519990718349e+02
1.304000000000000057e+02 1.271090582808753879e+02
1.308000000000000114e+02 1.269348312254351612e+02
1.311999999999999886e+02 1.267613651011570681e+02
1.316000000000000227e+02 1.265886542371940777e+02
1.320000000000000000e+02 1.264166930226126340e+02
1.324000000000000057e+02 1.262454759055726186e+02
1.328000000000000114e+02 1.260749973925217802e+02
1.331999999999999886e+02 1.259052520474027972e+02
1.336000000000000227e+02 1.257362344908742955e+02
1.340000000000000000e+02 1.255679393995445281e+02
1.344000000000000057e+02 1.254003615052176599e+02
1.348000000000000114e+02 1.252334955941527994e+02
1.351999999999999886e+02 1.250673365063348967e+02
1.356000000000000227e+02 1.249018791347579338e+02
1.360000000000000000e+02 1.247371184247196538e+02
1.364000000000000057e+02 1.245730493731279296e+02
1.368000000000000114e+02 1.244096670278183154e+02
1.371999999999999886e+02 1.242469664868826840e+02
1.376000000000000227e+02 1.240849428980088760e+02
1.380000000000000000e+02 1.239235914578308950e+02
1.384000000000000057e+02 1.237629074112893193e+02
1.388000000000000114e+02 1.236028860510024856e+02
1.392000000000000171e+02 1.234435227166472515e+02
1.395999999999999943e+02 1.232848127943499605e+02
1.400000000000000000e+02 1.231267517160866873e+02
1.404000000000000057e+02 1.229693349590934446e+02
1.408000000000000114e+02 1.228125580452854990e+02
1.412000000000000171e+02 1.226564165406855977e+02
1.415999999999999943e+02 1.225009060548616873e+02
1.420000000000000000e+02 1.223460222403728466e+02
1.424000000000000057e+02 1.221917607922243860e+02
1.428000000000000114e+02 1.220381174473311603e+02
1.432000000000000171e+02 1.218850879839892229e+02
1.435999999999999943e+02 1.217326682213556097e+02
1.440000000000000000e+02 1.215808540189364066e+02
1.444000000000000057e+02 1.214296412760822932e+02
1.448000000000000114e+02 1.212790259314922992e+02
1.452000000000000171e+02 1.211290039627246244e+02
1.455999999999999943e+02 1.209795713857153885e+02
1.460000000000000000e+02 1.208307242543044424e+02
1.464000000000000057e+02 1.206824586597682583e+02
1.468000000000000114e+02 1.205347707303604352e+02
1.472000000000000171e+02 1.203876566308583165e+02
1.475999999999999943e+02 1.202411125621171522e+02
1.480000000000000000e+02 1.200951347606304864e+02
1.484000000000000057e+02 1.199497194980973660e+02
1.488000000000000114e+02 1.198048630809959150e+02
1.492000000000000171e+02 1.196605618501631625e+02
1.495999999999999943e+02 1.195168121803813079e+02
1.500000000000000000e+02 1.193736104799698552e+02
