1.000000000000000000e+01 2.516063140544065391e+02
1.040000000000000036e+01 2.511431549685566154e+02
1.080000000000000071e+01 2.678889213323298009e+02
1.119999999999999929e+01 2.764505747667557216e+02
1.159999999999999964e+01 2.848195686382437088e+02
1.200000000000000000e+01 2.977507312116557614e+02
1.240000000000000036e+01 3.056786242203612574e+02
1.280000000000000071e+01 3.196494660957768588e+02
1.319999999999999929e+01 3.426775853990801011e+02
1.359999999999999964e+01 3.633161597832717007e+02
1.400000000000000000e+01 3.804563423697041458e+02
1.440000000000000036e+01 3.738714774645630996e+02
1.480000000000000071e+01 3.677268489828946940e+02
1.519999999999999929e+01 3.619704006827456624e+02
1.560000000000000142e+01 3.565587419971765826e+02
1.600000000000000000e+01 3.514553237363772951e+02
1.639999999999999858e+01 3.466290707433918783e+02
1.680000000000000071e+01 3.420533404748299517e+02
1.719999999999999929e+01 3.377051183738499276e+02
1.760000000000000142e+01 3.335643881394526602e+02
1.800000000000000000e+01 3.296136331081430626e+02
1.839999999999999858e+01 3.258374372554463889e+02
1.880000000000000071e+01 3.222221628206446553e+02
1.920000000000000284e+01 3.187556875291624010e+02
1.960000000000000142e+01 3.154271886478666147e+02
2.000000000000000000e+01 3.122269641916519163e+02
2.039999999999999858e+01 3.091462838593341189e+02
2.080000000000000071e+01 3.061772639526996613e+02
2.120000000000000284e+01 3.033127617890824013e+02
2.160000000000000142e+01 3.005462860695794802e+02
2.200000000000000000e+01 2.978719203927777812e+02
2.239999999999999858e+01 2.952842576652712978e+02
2.280000000000000071e+01 2.927783435969374750e+02
2.320000000000000284e+01 2.903496278112563687e+02
2.360000000000000142e+01 2.879939213712476658e+02
2.400000000000000000e+01 2.857073597365067030e+02
2.439999999999999858e+01 2.834863703387771920e+02
2.480000000000000071e+01 2.813276441019527851e+02
2.520000000000000284e+01 2.792281103445128565e+02
2.560000000000000142e+01 2.771849145936810146e+02
2.600000000000000000e+01 2.751953989153130351e+02
2.640000000000000213e+01 2.732570844249727315e+02
2.680000000000000071e+01 2.713676556964438191e+02
2.719999999999999929e+01 2.695249468260792014e+02
2.760000000000000142e+01 2.677269289465386919e+02
2.800000000000000000e+01 2.659716990128841871e+02
2.840000000000000213e+01 2.642574697087213167e+02
2.880000000000000071e+01 2.625825603409315363e+02
2.920000000000000284e+01 2.609453886091893082e+02
2.960000000000000142e+01 2.593444631514508956e+02
3.000000000000000000e+01 2.577783767793802099e+02
3.040000000000000213e+01 2.562458003285980794e+02
3.080000000000000071e+01 2.547454770580089018e+02
3.120000000000000284e+01 2.532762175405112828e+02
3.160000000000000142e+01 2.518368949943490236e+02
3.200000000000000000e+01 2.504264410103600369e+02
3.240000000000000568e+01 2.490438416355946458e+02
3.279999999999999716e+01 2.476881337782957360e+02
3.320000000000000284e+01 2.463584019031794128e+02
3.360000000000000142e+01 2.450537749893998978e+02
3.400000000000000000e+01 2.437734237265925969e+02
3.440000000000000568e+01 2.425165579270397984e+02
3.479999999999999716e+01 2.412824241343216727e+02
3.520000000000000284e+01 2.400703034108682061e+02
3.560000000000000142e+01 2.388795092886308566e+02
3.600000000000000000e+01 2.377093858686940564e+02
3.640000000000000568e+01 2.365593060570599846e+02
3.679999999999999716e+01 2.354286699250994843e+02
3.720000000000000284e+01 2.343169031842756738e+02
3.760000000000000142e+01 2.332234557657463938e+02
3.800000000000000000e+01 2.321478004963356057e+02
3.840000000000000568e+01 2.310894318631591773e+02
3.879999999999999716e+01 2.300478648599001588e+02
3.920000000000000284e+01 2.290226339083631331e+02
3.960000000000000142e+01 2.280132918495128820e+02
4.000000000000000000e+01 2.270194089987091104e+02
4.040000000000000568e+01 2.260405722603185268e+02
4.079999999999999716e+01 2.250763842972958457e+02
4.120000000000000284e+01 2.241264627517061285e+02
4.160000000000000142e+01 2.231904395124964253e+02
4.200000000000000000e+01 2.222679600271369509e+02
4.239999999999999858e+01 2.213586826540243635e+02
4.280000000000000426e+01 2.204622780527996042e+02
4.320000000000000284e+01 2.195784286099558926e+02
4.360000000000000142e+01 2.187068278973244162e+02
4.400000000000000000e+01 2.178471801612159311e+02
4.439999999999999858e+01 2.169991998401651472e+02
4.480000000000000426e+01 2.161626111093888198e+02
4.520000000000000284e+01 2.153371474502067144e+02
4.560000000000000142e+01 2.145225512428101808e+02
4.600000000000000000e+01 2.137185733808816224e+02
4.639999999999999858e+01 2.129249729066800683e+02
4.680000000000000426e+01 2.121415166653076199e+02
4.720000000000000284e+01 2.113679789769650483e+02
4.760000000000000142e+01 2.106041413260906552e+02
4.800000000000000000e+01 2.098497920663542686e+02
4.840000000000000568e+01 2.091047261405497579e+02
4.880000000000000426e+01 2.083687448144978021e+02
4.920000000000000284e+01 2.076416554241288850e+02
4.960000000000000142e+01 2.069232711349760905e+02
5.000000000000000000e+01 2.062134107133570069e+02
5.040000000000000568e+01 2.055118983085728814e+02
5.080000000000000426e+01 2.048185632454983534e+02
5.120000000000000284e+01 2.041332398269751423e+02
5.160000000000000142e+01 2.034557671454615502e+02
5.200000000000000000e+01 2.027859889034256753e+02
5.240000000000000568e+01 2.021237532420015555e+02
5.280000000000000426e+01 2.014689125774593208e+02
5.320000000000000284e+01 2.008213234450670654e+02
5.360000000000000142e+01 2.001808463499504001e+02
5.400000000000000000e+01 1.995473456245771899e+02
5.440000000000000568e+01 1.989206892925211037e+02
5.480000000000000426e+01 1.983007489381751611e+02
5.520000000000000284e+01 1.976873995821086680e+02
5.560000000000000142e+01 1.970805195617784307e+02
5.600000000000000000e+01 1.964799904173220284e+02
5.640000000000000568e+01 1.958856967821763533e+02
5.680000000000000426e+01 1.952975262782813388e+02
5.720000000000000284e+01 1.947153694156405663e+02
5.760000000000000142e+01 1.941391194960248185e+02
5.800000000000000000e+01 1.935686725206163032e+02
5.840000000000000568e+01 1.930039271014027804e+02
5.880000000000000426e+01 1.924447843761411718e+02
5.920000000000000284e+01 1.918911479267209472e+02
5.960000000000000142e+01 1.913429237007659651e+02
6.000000000000000000e+01 1.908000199363231673e+02
6.040000000000000568e+01 1.902623470894934030e+02
6.080000000000000426e+01 1.897298177648704325e+02
6.120000000000000284e+01 1.892023466486560039e+02
6.160000000000000142e+01 1.886798504443321463e+02
6.200000000000000000e+01 1.881622478107730103e+02
6.240000000000000568e+01 1.876494593026881148e+02
6.280000000000000426e+01 1.871414073132913813e+02
6.320000000000000284e+01 1.866380160190994388e+02
6.360000000000000142e+01 1.861392113267642401e+02
6.400000000000000000e+01 1.856449208218512581e+02
6.440000000000000568e+01 1.851550737194802991e+02
6.480000000000001137e+01 1.846696008167469358e+02
6.520000000000000284e+01 1.841884344468497261e+02
6.559999999999999432e+01 1.837115084348506855e+02
6.600000000000000000e+01 1.832387580549996642e+02
6.640000000000000568e+01 1.827701199895577702e+02
6.680000000000001137e+01 1.823055322890571688e+02
6.720000000000000284e+01 1.818449343339377151e+02
6.759999999999999432e+01 1.813882667975044569e+02
6.800000000000000000e+01 1.809354716101522627e+02
6.840000000000000568e+01 1.804864919248052217e+02
6.880000000000001137e+01 1.800412720835230971e+02
6.920000000000000284e+01 1.795997575852278487e+02
6.959999999999999432e+01 1.791618950545052371e+02
7.000000000000000000e+01 1.787276322114399250e+02
7.040000000000000568e+01 1.782969178424430083e+02
7.080000000000001137e+01 1.778697017720330678e+02
7.120000000000000284e+01 1.774459348355348709e+02
7.159999999999999432e+01 1.770255688526592053e+02
7.200000000000000000e+01 1.766085566019305020e+02
7.240000000000000568e+01 1.761948517959310152e+02
7.280000000000001137e+01 1.757844090573290430e+02
7.320000000000000284e+01 1.753771838956630518e+02
7.359999999999999432e+01 1.749731326848528852e+02
7.400000000000000000e+01 1.745722126414112836e+02
7.440000000000000568e+01 1.741743818033298226e+02
7.479999999999999716e+01 1.737795990096146284e+02
7.520000000000000284e+01 1.733878238804480816e+02
7.560000000000000853e+01 1.729990167979539137e+02
7.600000000000000000e+01 1.726131388875436699e+02
7.640000000000000568e+01 1.722301519998247272e+02
7.679999999999999716e+01 1.718500186930480140e+02
7.720000000000000284e+01 1.714727022160782610e+02
7.760000000000000853e+01 1.710981664918674028e+02
7.800000000000000000e+01 1.707263761014134502e+02
7.840000000000000568e+01 1.703572962681882927e+02
7.879999999999999716e+01 1.699908928430180310e+02
7.920000000000000284e+01 1.696271322894002651e+02
7.960000000000000853e+01 1.692659816692436152e+02
8.000000000000000000e+01 1.689074086290144692e+02
8.040000000000000568e+01 1.685513813862780808e+02
8.079999999999999716e+01 1.681978687166197801e+02
8.120000000000000284e+01 1.678468399409344727e+02
8.160000000000000853e+01 1.674982649130712389e+02
8.200000000000000000e+01 1.671521140078222061e+02
8.240000000000000568e+01 1.668083581092436134e+02
8.279999999999999716e+01 1.664669685992983830e+02
8.320000000000000284e+01 1.661279173468101362e+02
8.360000000000000853e+01 1.657911766967176277e+02
8.400000000000000000e+01 1.654567194596210413e+02
8.440000000000000568e+01 1.651245189016096901e+02
8.479999999999999716e+01 1.647945487343631044e+02
8.520000000000000284e+01 1.644667831055157876e+02
8.560000000000000853e+01 1.641411965892784224e+02
8.600000000000000000e+01 1.638177641773067137e+02
8.640000000000000568e+01 1.634964612698097994e+02
8.680000000000001137e+01 1.631772636668922587e+02
8.720000000000000284e+01 1.628601475601204243e+02
8.760000000000000853e+01 1.625450895243080822e+02
8.800000000000000000e+01 1.622320665095131176e+02
8.840000000000000568e+01 1.619210558332398762e+02
8.880000000000001137e+01 1.616120351728405353e+02
8.920000000000000284e+01 1.613049825581093728e+02
8.960000000000000853e+01 1.609998763640638799e+02
9.000000000000000000e+01 1.606966953039085411e+02
9.040000000000000568e+01 1.603954184221734067e+02
9.080000000000001137e+01 1.600960250880247315e+02
9.120000000000000284e+01 1.597984949887408845e+02
9.160000000000000853e+01 1.595028081233495527e+02
9.200000000000000000e+01 1.592089447964212923e+02
9.240000000000000568e+01 1.589168856120146529e+02
9.280000000000001137e+01 1.586266114677688392e+02
9.320000000000000284e+01 1.583381035491395323e+02
9.360000000000000853e+01 1.580513433237733807e+02
9.400000000000000000e+01 1.577663125360183187e+02
9.440000000000000568e+01 1.574829932015639145e+02
9.480000000000001137e+01 1.572013676022103823e+02
9.520000000000000284e+01 1.569214182807606903e+02
9.560000000000000853e+01 1.566431280360334313e+02
9.600000000000000000e+01 1.563664799179927059e+02
9.640000000000000568e+01 1.560914572229916928e+02
9.680000000000001137e+01 1.558180434891270068e+02
9.720000000000000284e+01 1.555462224917005187e+02
9.760000000000000853e+01 1.552759782387859104e+02
9.800000000000000000e+01 1.550072949668971205e+02
9.840000000000000568e+01 1.547401571367553004e+02
9.880000000000001137e+01 1.544745494291529440e+02
9.920000000000000284e+01 1.542104567409108995e+02
9.960000000000000853e+01 1.539478641809272972e+02
1.000000000000000000e+02 1.536867570663146125e+02
1.004000000000000057e+02 1.534271209186236717e+02
1.008000000000000114e+02 1.531689414601516148e+02
1.012000000000000028e+02 1.529122046103315711e+02
1.016000000000000085e+02 1.526568964822023418e+02
1.020000000000000000e+02 1.524030033789556455e+02
1.024000000000000057e+02 1.521505117905588804e+02
1.028000000000000114e+02 1.518994083904518675e+02
1.032000000000000028e+02 1.516496800323150183e+02
1.036000000000000085e+02 1.514013137469075900e+02
1.040000000000000000e+02 1.511542967389742103e+02
1.044000000000000057e+02 1.509086163842173960e+02
1.048000000000000114e+02 1.506642602263351876e+02
1.052000000000000028e+02 1.504212159741216794e+02
1.056000000000000085e+02 1.501794714986288568e+02
1.060000000000000000e+02 1.499390148303886576e+02
1.064000000000000057e+02 1.496998341566932993e+02
1.068000000000000114e+02 1.494619178189325055e+02
1.072000000000000028e+02 1.492252543099865534e+02
1.076000000000000085e+02 1.489898322716730945e+02
1.080000000000000000e+02 1.487556404922472666e+02
1.084000000000000057e+02 1.485226679039529643e+02
1.088000000000000114e+02 1.482909035806247857e+02
1.092000000000000028e+02 1.480603367353386943e+02
1.096000000000000085e+02 1.478309567181107127e+02
1.100000000000000000e+02 1.476027530136423707e+02
1.104000000000000057e+02 1.473757152391118268e+02
1.108000000000000114e+02 1.471498331420091006e+02
1.112000000000000028e+02 1.469250965980153296e+02
1.116000000000000085e+02 1.467014956089238922e+02
1.120000000000000000e+02 1.464790203006033096e+02
1.124000000000000057e+02 1.462576609210003937e+02
1.128000000000000114e+02 1.460374078381828724e+02
1.132000000000000028e+02 1.458182515384207250e+02
1.136000000000000085e+02 1.456001826243048640e+02
1.140000000000000000e+02 1.453831918129029077e+02
1.144000000000000057e+02 1.451672699339507062e+02
1.148000000000000114e+02 1.449524079280789977e+02
1.152000000000000028e+02 1.447385968450743121e+02
1.156000000000000085e+02 1.445258278421734985e+02
1.160000000000000000e+02 1.443140921823907945e+02
1.164000000000000057e+02 1.441033812328770694e+02
1.168000000000000114e+02 1.438936864633102175e+02
1.172000000000000028e+02 1.436849994443161904e+02
1.176000000000000085e+02 1.434773118459197576e+02
1.180000000000000000e+02 1.432706154360247126e+02
1.184000000000000057e+02 1.430649020789223869e+02
1.188000000000000114e+02 1.428601637338282728e+02
1.192000000000000028e+02 1.426563924534457044e+02
1.196000000000000085e+02 1.424535803825565097e+02
1.200000000000000000e+02 1.422517197566376126e+02
1.204000000000000057e+02 1.420508029005030153e+02
1.208000000000000114e+02 1.418508222269712746e+02
1.212000000000000028e+02 1.416517702355565120e+02
1.216000000000000085e+02 1.414536395111844627e+02
1.220000000000000000e+02 1.412564227229308642e+02
1.224000000000000057e+02 1.410601126227833220e+02
1.228000000000000114e+02 1.408647020444254849e+02
1.232000000000000028e+02 1.406701839020427087e+02
1.236000000000000085e+02 1.404765511891499159e+02
1.240000000000000000e+02 1.402837969774395788e+02
1.244000000000000057e+02 1.400919144156510470e+02
1.248000000000000114e+02 1.399008967284592870e+02
1.252000000000000028e+02 1.397107372153837161e+02
1.256000000000000085e+02 1.395214292497161921e+02
1.260000000000000000e+02 1.393329662774679321e+02
1.264000000000000057e+02 1.391453418163345930e+02
1.268000000000000114e+02 1.389585494546798827e+02
1.272000000000000028e+02 1.387725828505365939e+02
1.276000000000000085e+02 1.385874357306250886e+02
1.280000000000000000e+02 1.384031018893886085e+02
1.284000000000000057e+02 1.382195751880455532e+02
1.288000000000000114e+02 1.380368495536576461e+02
1.291999999999999886e+02 1.378549189782144424e+02
1.296000000000000227e+02 1.376737775177331287e+02
1.300000000000000000e+02 1.374934192913740389e+02
1.304000000000000057e+02 1.373138384805708370e+02
1.308000000000000114e+02 1.371350293281755626e+02
1.311999999999999886e+02 1.369569861376181734e+02
1.316000000000000227e+02 1.367797032720799280e+02
1.320000000000000000e+02 1.366031751536810930e+02
1.324000000000000057e+02 1.364273962626817820e+02
1.328000000000000114e+02 1.362523611366962086e+02
1.331999999999999886e+02 1.360780643699201846e+02
1.336000000000000227e+02 1.359045006123712369e+02
1.340000000000000000e+02 1.357316645691411168e+02
1.344000000000000057e+02 1.355595509996610417e+02
1.348000000000000114e+02 1.353881547169783630e+02
1.351999999999999886e+02 1.352174705870458524e+02
1.356000000000000227e+02 1.350474935280215618e+02
1.360000000000000000e+02 1.348782185095810746e+02
1.364000000000000057e+02 1.347096405522402165e+02
1.368000000000000114e+02 1.345417547266888505e+02
1.371999999999999886e+02 1.343745561531356998e+02
1.376000000000000227e+02 1.342080400006631464e+02
1.380000000000000000e+02 1.340422014865928588e+02
1.384000000000000057e+02 1.338770358758611394e+02
1.388000000000000114e+02 1.337125384804045893e+02
1.392000000000000171e+02 1.335487046585551809e+02
1.395999999999999943e+02 1.333855298144450217e+02
1.400000000000000000e+02 1.332230093974205545e+02
1.404000000000000057e+02 1.330611389014658812e+02
1.408000000000000114e+02 1.328999138646350389e+02
1.412000000000000171e+02 1.327393298684934564e+02
1.415999999999999943e+02 1.325793825375677955e+02
1.420000000000000000e+02 1.324200675388043464e+02
1.424000000000000057e+02 1.322613805810361214e+02
1.428000000000000114e+02 1.321033174144576492e+02
1.432000000000000171e+02 1.319458738301085816e+02
1.435999999999999943e+02 1.317890456593644046e+02
1.440000000000000000e+02 1.316328287734355342e+02
1.444000000000000057e+02 1.314772190828739156e+02
1.448000000000000114e+02 1.313222125370868980e+02
1.452000000000000171e+02 1.311678051238588978e+02
1.455999999999999943e+02 1.310139928688798818e+02
1.460000000000000000e+02 1.308607718352812412e+02
1.464000000000000057e+02 1.307081381231784576e+02
1.468000000000000114e+02 1.305560878692209315e+02
1.472000000000000171e+02 1.304046172461481774e+02
1.475999999999999943e+02 1.302537224623526981e+02
1.480000000000000000e+02 1.301033997614498219e+02
1.484000000000000057e+02 1.299536454218531958e+02
1.488000000000000114e+02 1.298044557563571004e+02
1.492000000000000171e+02 1.296558271117247614e+02
1.495999999999999943e+02 1.295077558682826009e+02
1.500000000000000000e+02 1.293602384395206570e+02
