1.000000000000000000e+01 5.719547435302277449e+01
1.040000000000000036e+01 6.136767616460854669e+01
1.080000000000000071e+01 6.579477567271618454e+01
1.119999999999999929e+01 7.201088419968237986e+01
1.159999999999999964e+01 6.913005202547424233e+01
1.200000000000000000e+01 6.658767326480571569e+01
1.240000000000000036e+01 6.431715240985178639e+01
1.280000000000000071e+01 6.226988977345254739e+01
1.319999999999999929e+01 6.040925679803373072e+01
1.359999999999999964e+01 5.892399860036637449e+01
1.400000000000000000e+01 5.763984780906044136e+01
1.440000000000000036e+01 5.645045348601966140e+01
1.480000000000000071e+01 5.534417485855991004e+01
1.519999999999999929e+01 5.434743518780273774e+01
1.560000000000000142e+01 5.345326896410089290e+01
1.600000000000000000e+01 5.261106631953904866e+01
1.639999999999999858e+01 5.181565936655844240e+01
1.680000000000000071e+01 5.106260363632021892e+01
1.719999999999999929e+01 5.034804872854216740e+01
1.760000000000000142e+01 4.966863680106314405e+01
1.800000000000000000e+01 4.902142196709759503e+01
1.839999999999999858e+01 4.840380561017313710e+01
1.880000000000000071e+01 4.781348396893424990e+01
1.920000000000000284e+01 4.724840528752228863e+01
1.960000000000000142e+01 4.670673450087772949e+01
2.000000000000000000e+01 4.618682391212485072e+01
2.039999999999999858e+01 4.568718867708365394e+01
2.080000000000000071e+01 4.520648617668857128e+01
2.120000000000000284e+01 4.474349855760952011e+01
2.160000000000000142e+01 4.323393969817219329e+01
2.200000000000000000e+01 4.281615016469597634e+01
2.239999999999999858e+01 4.241296016890660070e+01
2.280000000000000071e+01 3.762008973955805402e+01
2.320000000000000284e+01 3.721458630743664742e+01
2.360000000000000142e+01 3.682192497682187593e+01
2.400000000000000000e+01 3.644142521321975181e+01
2.439999999999999858e+01 3.607245692293898287e+01
2.480000000000000071e+01 3.571443566687682392e+01
2.520000000000000284e+01 3.536681842551875832e+01
2.560000000000000142e+01 3.502909984081426842e+01
2.600000000000000000e+01 3.470080887203248921e+01
2.640000000000000213e+01 3.438150581217206536e+01
2.680000000000000071e+01 3.407077961937257271e+01
2.719999999999999929e+01 3.376824552434921856e+01
2.760000000000000142e+01 3.347354288038266645e+01
2.800000000000000000e+01 3.317040589872897272e+01
2.840000000000000213e+01 3.287361083445290433e+01
2.880000000000000071e+01 3.258427851719069679e+01
2.920000000000000284e+01 3.230209826796185268e+01
2.960000000000000142e+01 3.202677735998496189e+01
3.000000000000000000e+01 3.175803969761352619e+01
3.040000000000000213e+01 3.149562461291357351e+01
3.080000000000000071e+01 3.123928576762774156e+01
3.120000000000000284e+01 3.098879014972791879e+01
3.160000000000000142e+01 3.074391715502265043e+01
3.200000000000000000e+01 3.049124466661831079e+01
3.240000000000000568e+01 3.023663873241390476e+01
3.279999999999999716e+01 2.998768105688073859e+01
3.320000000000000284e+01 2.974416517920206005e+01
3.360000000000000142e+01 2.950589509458347592e+01
3.400000000000000000e+01 2.927268458058436096e+01
3.440000000000000568e+01 2.904435657594395082e+01
3.479999999999999716e+01 2.882074260711753055e+01
3.520000000000000284e+01 2.860168225823632682e+01
3.560000000000000142e+01 2.838702268064484713e+01
3.600000000000000000e+01 2.817661813855780295e+01
3.640000000000000568e+01 2.797032958772480526e+01
3.679999999999999716e+01 2.800193588136962930e+01
3.720000000000000284e+01 2.781461228143459152e+01
3.760000000000000142e+01 2.763074977944211597e+01
3.800000000000000000e+01 2.745024245590443712e+01
3.840000000000000568e+01 2.727298890213396376e+01
3.879999999999999716e+01 2.709889197486456425e+01
3.920000000000000284e+01 2.692785856707592274e+01
3.960000000000000142e+01 2.675979939376531291e+01
4.000000000000000000e+01 2.659462879152282255e+01
4.040000000000000568e+01 2.643226453086618832e+01
4.079999999999999716e+01 2.627262764038180620e+01
4.120000000000000284e+01 2.611564224180050786e+01
4.160000000000000142e+01 2.596123539520953472e+01
4.200000000000000000e+01 2.580933695366997682e+01
4.239999999999999858e+01 2.565987942656850862e+01
4.280000000000000426e+01 2.551279785108749465e+01
4.320000000000000284e+01 2.536802967122736874e+01
4.360000000000000142e+01 2.522551462386002896e+01
4.400000000000000000e+01 2.508519463133390559e+01
4.439999999999999858e+01 2.494701370018791664e+01
4.480000000000000426e+01 2.481091782556678993e+01
4.520000000000000284e+01 2.467685490096049961e+01
4.560000000000000142e+01 2.454477463291996031e+01
4.600000000000000000e+01 2.441372544065731631e+01
4.639999999999999858e+01 2.428367960238531964e+01
4.680000000000000426e+01 2.441798503056780589e+01
4.720000000000000284e+01 2.430863668779350917e+01
4.760000000000000142e+01 2.420071636644256685e+01
4.800000000000000000e+01 2.409419298207829385e+01
4.840000000000000568e+01 2.398903639414986699e+01
4.880000000000000426e+01 2.388521736932816353e+01
4.920000000000000284e+01 2.378270754657215846e+01
4.960000000000000142e+01 2.368147940383003203e+01
5.000000000000000000e+01 2.358150622628508586e+01
5.040000000000000568e+01 2.348276207606225796e+01
5.080000000000000426e+01 2.338522176331648694e+01
5.120000000000000284e+01 2.328886081862863122e+01
5.160000000000000142e+01 2.319365546663973987e+01
5.200000000000000000e+01 2.309958260085813464e+01
5.240000000000000568e+01 2.300661975957828531e+01
5.280000000000000426e+01 2.291474510285362953e+01
5.320000000000000284e+01 2.282393739046920800e+01
5.360000000000000142e+01 2.273417596086312642e+01
5.400000000000000000e+01 2.264544071094874766e+01
5.440000000000000568e+01 2.255771207679245549e+01
5.480000000000000426e+01 2.247097101510437156e+01
5.520000000000000284e+01 2.238519898550163134e+01
5.560000000000000142e+01 2.230037793350661346e+01
5.600000000000000000e+01 2.221649027424410860e+01
5.640000000000000568e+01 2.213351887680372343e+01
5.680000000000000426e+01 2.205144704923561960e+01
5.720000000000000284e+01 2.195395375288311612e+01
5.760000000000000142e+01 2.187753716902448531e+01
5.800000000000000000e+01 2.180191572729280836e+01
5.840000000000000568e+01 2.172707559609946415e+01
5.880000000000000426e+01 2.165300328003492325e+01
5.920000000000000284e+01 2.157968560940075520e+01
5.960000000000000142e+01 2.150710973013829630e+01
6.000000000000000000e+01 2.143526309413639552e+01
6.040000000000000568e+01 2.136413344990140217e+01
6.080000000000000426e+01 2.129370883357346855e+01
6.120000000000000284e+01 2.122397756027402238e+01
6.160000000000000142e+01 2.115307142039436883e+01
6.200000000000000000e+01 2.108025065180289204e+01
6.240000000000000568e+01 2.100816103405371393e+01
6.280000000000000426e+01 2.093679030696062426e+01
6.320000000000000284e+01 2.086612649794894025e+01
6.360000000000000142e+01 2.079615791339787734e+01
6.400000000000000000e+01 2.072687313030044720e+01
6.440000000000000568e+01 2.065826098822752144e+01
6.480000000000001137e+01 2.059031058158268479e+01
6.520000000000000284e+01 2.052301125213565669e+01
6.559999999999999432e+01 2.045635258182242922e+01
6.600000000000000000e+01 2.039032438580087714e+01
6.640000000000000568e+01 2.032491670575114995e+01
6.680000000000001137e+01 2.026011980341073127e+01
6.720000000000000284e+01 2.019592415433443477e+01
6.759999999999999432e+01 2.013232044187007475e+01
6.800000000000000000e+01 2.006912969111315093e+01
6.840000000000000568e+01 2.000490000775921828e+01
6.880000000000001137e+01 1.994125953019275244e+01
6.920000000000000284e+01 1.987819925413671740e+01
6.959999999999999432e+01 1.981571036752225723e+01
7.000000000000000000e+01 1.975378424523116294e+01
7.040000000000000568e+01 1.969241244401340651e+01
7.080000000000001137e+01 1.963158669757296337e+01
7.120000000000000284e+01 1.957129891181525849e+01
7.159999999999999432e+01 1.951154116025007923e+01
7.200000000000000000e+01 1.945230567954386913e+01
7.240000000000000568e+01 1.939358486521582137e+01
7.280000000000001137e+01 1.933537126747213364e+01
7.320000000000000284e+01 1.927765758717335842e+01
7.359999999999999432e+01 1.922043667192971128e+01
7.400000000000000000e+01 1.916370151231967611e+01
7.440000000000000568e+01 1.910744523822724261e+01
7.479999999999999716e+01 1.905166111529340256e+01
7.520000000000000284e+01 1.899634254147777312e+01
7.560000000000000853e+01 1.894148304372620117e+01
7.600000000000000000e+01 1.888707627474067507e+01
7.640000000000000568e+01 1.883311600984763245e+01
7.679999999999999716e+01 1.877959614396137766e+01
7.720000000000000284e+01 1.872651068863895318e+01
7.760000000000000853e+01 1.867385376922346651e+01
7.800000000000000000e+01 1.862161962207253652e+01
7.840000000000000568e+01 1.856980259186902771e+01
7.879999999999999716e+01 1.851839712901106338e+01
7.920000000000000284e+01 1.846739778707872048e+01
7.960000000000000853e+01 1.841679922037461381e+01
8.000000000000000000e+01 1.836659618153587914e+01
8.040000000000000568e+01 1.831678351921514292e+01
8.079999999999999716e+01 1.826735617582810534e+01
8.120000000000000284e+01 1.821830918536550215e+01
8.160000000000000853e+01 1.820577673965725296e+01
8.200000000000000000e+01 1.831771340801918768e+01
8.240000000000000568e+01 1.827360766992497787e+01
8.279999999999999716e+01 1.822982199159730499e+01
8.320000000000000284e+01 1.818635246354226354e+01
8.360000000000000853e+01 1.814319524340886858e+01
8.400000000000000000e+01 1.810034655450306573e+01
8.440000000000000568e+01 1.805780268434192237e+01
8.479999999999999716e+01 1.801555998324690222e+01
8.520000000000000284e+01 1.797361486297475608e+01
8.560000000000000853e+01 1.793196379538500196e+01
8.600000000000000000e+01 1.789060331114272984e+01
8.640000000000000568e+01 1.784952999845571497e+01
8.680000000000001137e+01 1.780874050184473134e+01
8.720000000000000284e+01 1.776823152094594604e+01
8.760000000000000853e+01 1.772799980934457409e+01
8.800000000000000000e+01 1.768804217343868856e+01
8.840000000000000568e+01 1.764835547133231586e+01
8.880000000000001137e+01 1.760893661175691349e+01
8.920000000000000284e+01 1.756978255302044545e+01
8.960000000000000853e+01 1.753089030198301401e+01
9.000000000000000000e+01 1.749225691305853658e+01
9.040000000000000568e+01 1.745387948724144778e+01
9.080000000000001137e+01 1.741575517115780514e+01
9.120000000000000284e+01 1.737788115614005591e+01
9.160000000000000853e+01 1.734025467732472592e+01
9.200000000000000000e+01 1.730287301277241596e+01
9.240000000000000568e+01 1.726573348260944840e+01
9.280000000000001137e+01 1.722883344819044993e+01
9.320000000000000284e+01 1.719217031128138018e+01
9.360000000000000853e+01 1.715574151326238805e+01
9.400000000000000000e+01 1.711954453434979939e+01
9.440000000000000568e+01 1.708357689283694469e+01
9.480000000000001137e+01 1.704783614435302752e+01
9.520000000000000284e+01 1.701201353461725674e+01
9.560000000000000853e+01 1.697638490528898103e+01
9.600000000000000000e+01 1.694097941794170481e+01
9.640000000000000568e+01 1.690579472297503827e+01
9.680000000000001137e+01 1.687082850554179458e+01
9.720000000000000284e+01 1.683607848488622594e+01
9.760000000000000853e+01 1.680154241369762502e+01
9.800000000000000000e+01 1.676721807747903270e+01
9.840000000000000568e+01 1.673310329393039098e+01
9.880000000000001137e+01 1.669919591234595302e+01
9.920000000000000284e+01 1.666549381302545285e+01
9.960000000000000853e+01 1.663199490669869007e+01
1.000000000000000000e+02 1.659869713396319924e+01
1.004000000000000057e+02 1.656559846473456332e+01
1.008000000000000114e+02 1.653269689770917239e+01
1.012000000000000028e+02 1.649999045983895485e+01
1.016000000000000085e+02 1.646747720581789309e+01
1.020000000000000000e+02 1.643515521757986164e+01
1.024000000000000057e+02 1.640302260380766342e+01
1.028000000000000114e+02 1.637099631081092355e+01
1.032000000000000028e+02 1.633913030974320790e+01
1.036000000000000085e+02 1.630744753630347788e+01
1.040000000000000000e+02 1.627594622564485149e+01
1.044000000000000057e+02 1.624462463673172152e+01
1.048000000000000114e+02 1.621348105192731026e+01
1.052000000000000028e+02 1.618251377658991430e+01
1.056000000000000085e+02 1.615172113867767223e+01
1.060000000000000000e+02 1.612110148836160306e+01
1.064000000000000057e+02 1.609065319764671287e+01
1.068000000000000114e+02 1.606037466000099911e+01
1.072000000000000028e+02 1.603026428999216790e+01
1.076000000000000085e+02 1.600032052293175866e+01
1.080000000000000000e+02 1.597054181452671529e+01
1.084000000000000057e+02 1.594092664053798813e+01
1.088000000000000114e+02 1.591147349644616149e+01
1.092000000000000028e+02 1.588218089712387737e+01
1.096000000000000085e+02 1.585304737651486562e+01
1.100000000000000000e+02 1.582407148731947544e+01
1.104000000000000057e+02 1.579525180068655033e+01
1.108000000000000114e+02 1.577713271023568353e+01
1.112000000000000028e+02 1.574886719612690911e+01
1.116000000000000085e+02 1.572075196480122017e+01
1.120000000000000000e+02 1.569278567596872342e+01
1.124000000000000057e+02 1.566496700610232118e+01
1.128000000000000114e+02 1.563729464816826642e+01
1.132000000000000028e+02 1.560976731136199902e+01
1.136000000000000085e+02 1.558238372084914047e+01
1.140000000000000000e+02 1.555514261751155658e+01
1.144000000000000057e+02 1.552804275769831932e+01
1.148000000000000114e+02 1.550108291298150398e+01
1.152000000000000028e+02 1.547426186991668118e+01
1.156000000000000085e+02 1.544757842980804874e+01
1.160000000000000000e+02 1.542103140847799025e+01
1.164000000000000057e+02 1.539461963604107098e+01
1.168000000000000114e+02 1.536834195668234671e+01
1.172000000000000028e+02 1.534219722843982225e+01
1.176000000000000085e+02 1.531618432299105592e+01
1.180000000000000000e+02 1.529030212544373413e+01
1.184000000000000057e+02 1.526454953413023929e+01
1.188000000000000114e+02 1.523892546040598361e+01
1.192000000000000028e+02 1.521342882845152289e+01
1.196000000000000085e+02 1.518805857507836876e+01
1.200000000000000000e+02 1.516281364953836075e+01
1.204000000000000057e+02 1.513769301333652706e+01
1.208000000000000114e+02 1.511269564004745547e+01
1.212000000000000028e+02 1.508782051513494693e+01
1.216000000000000085e+02 1.506306663577499982e+01
1.220000000000000000e+02 1.503843301068201299e+01
1.224000000000000057e+02 1.501391865993812402e+01
1.228000000000000114e+02 1.498952261482562776e+01
1.232000000000000028e+02 1.496524391766243056e+01
1.236000000000000085e+02 1.494108162164040898e+01
1.240000000000000000e+02 1.491703479066673665e+01
1.244000000000000057e+02 1.489310249920795926e+01
1.248000000000000114e+02 1.486928383213689386e+01
1.252000000000000028e+02 1.484557788458220173e+01
1.256000000000000085e+02 1.482198376178065047e+01
1.260000000000000000e+02 1.479850057893194304e+01
1.264000000000000057e+02 1.477510969163699528e+01
1.268000000000000114e+02 1.475182487521789199e+01
1.272000000000000028e+02 1.472864830721401219e+01
1.276000000000000085e+02 1.469552291364484375e+01
1.280000000000000000e+02 1.467301784959236244e+01
1.284000000000000057e+02 1.465061603861151873e+01
1.288000000000000114e+02 1.462831668370448313e+01
1.291999999999999886e+02 1.460611899651804357e+01
1.296000000000000227e+02 1.458402219722294113e+01
1.300000000000000000e+02 1.456202551439519688e+01
1.304000000000000057e+02 1.454012818489945857e+01
1.308000000000000114e+02 1.451832945377436879e+01
1.311999999999999886e+02 1.449662857411983552e+01
1.316000000000000227e+02 1.447502480698622307e+01
1.320000000000000000e+02 1.445351742126539207e+01
1.324000000000000057e+02 1.443210569358357631e+01
1.328000000000000114e+02 1.441078890819603942e+01
1.331999999999999886e+02 1.438956635688349373e+01
1.336000000000000227e+02 1.436843733885021734e+01
1.340000000000000000e+02 1.434740116062391380e+01
1.344000000000000057e+02 1.432645713595712600e+01
1.348000000000000114e+02 1.430560458573039639e+01
1.351999999999999886e+02 1.428484283785689080e+01
1.356000000000000227e+02 1.426417122718866892e+01
1.360000000000000000e+02 1.424358909542445062e+01
1.364000000000000057e+02 1.422309579101887955e+01
1.368000000000000114e+02 1.420269066909325950e+01
1.371999999999999886e+02 1.418237309134772772e+01
1.376000000000000227e+02 1.416214242597486894e+01
1.380000000000000000e+02 1.414199804757467760e+01
1.384000000000000057e+02 1.412193933707091453e+01
1.388000000000000114e+02 1.410196568162874797e+01
1.392000000000000171e+02 1.408207647457380318e+01
1.395999999999999943e+02 1.406227111531239338e+01
1.400000000000000000e+02 1.404254900925303851e+01
1.404000000000000057e+02 1.402290956772928965e+01
1.408000000000000114e+02 1.400335220792367785e+01
1.412000000000000171e+02 1.398387635279290464e+01
1.415999999999999943e+02 1.396448143099418715e+01
1.420000000000000000e+02 1.394516687681276323e+01
1.424000000000000057e+02 1.392593213009051567e+01
1.428000000000000114e+02 1.390677663615570481e+01
1.432000000000000171e+02 1.388769984575377059e+01
1.435999999999999943e+02 1.386870121497925190e+01
1.440000000000000000e+02 1.384850202147339004e+01
1.444000000000000057e+02 1.382973783084034203e+01
1.448000000000000114e+02 1.381105001598761817e+01
1.452000000000000171e+02 1.379243805339804041e+01
1.455999999999999943e+02 1.377390142460114753e+01
1.460000000000000000e+02 1.375543961611053589e+01
1.464000000000000057e+02 1.373705211936209380e+01
1.468000000000000114e+02 1.371873843065323584e+01
1.472000000000000171e+02 1.370049805108303076e+01
1.475999999999999943e+02 1.368233048649319272e+01
1.480000000000000000e+02 1.366423524741004769e+01
1.484000000000000057e+02 1.364621184898729922e+01
1.488000000000000114e+02 1.362825981094963979e+01
1.492000000000000171e+02 1.361037865753727338e+01
1.495999999999999943e+02 1.359256791745119131e+01
1.500000000000000000e+02 1.357482712379930234e+01
