1.000000000000000000e+01 1.735433185142299521e+02
1.040000000000000036e+01 1.736624386678101359e+02
1.080000000000000071e+01 1.696199913292212500e+02
1.119999999999999929e+01 1.711029502349044549e+02
1.159999999999999964e+01 1.750184210810115246e+02
1.200000000000000000e+01 1.780423060028574014e+02
1.240000000000000036e+01 1.728793083965556718e+02
1.280000000000000071e+01 1.681949156836187456e+02
1.319999999999999929e+01 1.639095799872480086e+02
1.359999999999999964e+01 1.599629370277171176e+02
1.400000000000000000e+01 1.563078625934957131e+02
1.440000000000000036e+01 1.529067212200255028e+02
1.480000000000000071e+01 1.497288896378754544e+02
1.519999999999999929e+01 1.467645926529157521e+02
1.560000000000000142e+01 1.440414733802076626e+02
1.600000000000000000e+01 1.414692894179791836e+02
1.639999999999999858e+01 1.390336247901984734e+02
1.680000000000000071e+01 1.367527018059630564e+02
1.719999999999999929e+01 1.351907469702429978e+02
1.760000000000000142e+01 1.336999287936762641e+02
1.800000000000000000e+01 1.322745706029570272e+02
1.839999999999999858e+01 1.309096449910519482e+02
1.880000000000000071e+01 1.296006769138948016e+02
1.920000000000000284e+01 1.283436645828435019e+02
1.960000000000000142e+01 1.271350142965654584e+02
2.000000000000000000e+01 1.259714863117227281e+02
2.039999999999999858e+01 1.248501495430211747e+02
2.080000000000000071e+01 1.228164557645170447e+02
2.120000000000000284e+01 1.217784140333195637e+02
2.160000000000000142e+01 1.207757976649780574e+02
2.200000000000000000e+01 1.198065077592644343e+02
2.239999999999999858e+01 1.188686208778086666e+02
2.280000000000000071e+01 1.179603701602268018e+02
2.320000000000000284e+01 1.170801289209020126e+02
2.360000000000000142e+01 1.162263963427059537e+02
2.400000000000000000e+01 1.153977849520220786e+02
2.439999999999999858e+01 1.145930096139348535e+02
2.480000000000000071e+01 1.138108778303668487e+02
2.520000000000000284e+01 1.130502811595593329e+02
2.560000000000000142e+01 1.123101876043368890e+02
2.600000000000000000e+01 1.115896348404122875e+02
2.640000000000000213e+01 1.108856753390388121e+02
2.680000000000000071e+01 1.101857859388153713e+02
2.719999999999999929e+01 1.095133938854158231e+02
2.760000000000000142e+01 1.088988028429897099e+02
2.800000000000000000e+01 1.045802067323938047e+02
2.840000000000000213e+01 1.039479825256539698e+02
2.880000000000000071e+01 1.033307754144723845e+02
2.920000000000000284e+01 1.027279624089666612e+02
2.960000000000000142e+01 1.021389569536945601e+02
3.000000000000000000e+01 1.015632061950225449e+02
3.040000000000000213e+01 1.010001884976962430e+02
3.080000000000000071e+01 1.004494111839203185e+02
3.120000000000000284e+01 9.991040847153210791e+01
3.160000000000000142e+01 9.039208351185121160e+01
3.200000000000000000e+01 8.977291771347809402e+01
3.240000000000000568e+01 8.916692644290235137e+01
3.279999999999999716e+01 8.857363807561176827e+01
3.320000000000000284e+01 8.799260455067133080e+01
3.360000000000000142e+01 8.742339986628745407e+01
3.400000000000000000e+01 8.686561869198824581e+01
3.440000000000000568e+01 8.650779768200828812e+01
3.479999999999999716e+01 8.598345120892028604e+01
3.520000000000000284e+01 8.546910226938970823e+01
3.560000000000000142e+01 8.496442921401720128e+01
3.600000000000000000e+01 8.446912485726252839e+01
3.640000000000000568e+01 8.398289564554656295e+01
3.679999999999999716e+01 8.350546088348903595e+01
3.720000000000000284e+01 8.303655201350805726e+01
3.760000000000000142e+01 8.257591194445865312e+01
3.800000000000000000e+01 8.212329442538816693e+01
3.840000000000000568e+01 8.167846346084671438e+01
3.879999999999999716e+01 8.124119276451354210e+01
3.920000000000000284e+01 8.080397299533071021e+01
3.960000000000000142e+01 8.037221012799476227e+01
4.000000000000000000e+01 7.994755015639273665e+01
4.040000000000000568e+01 7.952979596891435676e+01
4.079999999999999716e+01 7.911875810589238256e+01
4.120000000000000284e+01 7.871425437956735038e+01
4.160000000000000142e+01 7.831610951697889789e+01
4.200000000000000000e+01 7.792327593636160543e+01
4.239999999999999858e+01 7.753535130697129318e+01
4.280000000000000426e+01 7.715334229019065049e+01
4.320000000000000284e+01 7.677709657262668941e+01
4.360000000000000142e+01 7.640646733311776018e+01
4.400000000000000000e+01 7.604131298916564674e+01
4.439999999999999858e+01 7.568149695759504425e+01
4.480000000000000426e+01 7.532688742850220365e+01
4.520000000000000284e+01 7.497735715162673387e+01
4.560000000000000142e+01 7.463278323434404626e+01
4.600000000000000000e+01 7.429304695053608043e+01
4.639999999999999858e+01 7.395685907733073350e+01
4.680000000000000426e+01 7.361546424301116076e+01
4.720000000000000284e+01 7.327871377294438560e+01
4.760000000000000142e+01 7.294650126350927621e+01
4.800000000000000000e+01 7.261872373069266473e+01
4.840000000000000568e+01 7.229528146911434305e+01
4.880000000000000426e+01 7.197607791812505695e+01
4.920000000000000284e+01 7.166101953456048079e+01
4.960000000000000142e+01 7.135001567176186654e+01
5.000000000000000000e+01 7.104297846450103293e+01
5.040000000000000568e+01 7.073982271947005529e+01
5.080000000000000426e+01 7.044046581102006144e+01
5.120000000000000284e+01 7.014482758185243938e+01
5.160000000000000142e+01 6.985886779712990347e+01
5.200000000000000000e+01 6.761600084672255662e+01
5.240000000000000568e+01 6.732629330002649226e+01
5.280000000000000426e+01 6.704008714330726093e+01
5.320000000000000284e+01 6.675731181031717654e+01
5.360000000000000142e+01 6.647789872346184836e+01
5.400000000000000000e+01 6.620178122195683557e+01
5.440000000000000568e+01 6.592889449314402839e+01
5.480000000000000426e+01 6.570485386497550451e+01
5.520000000000000284e+01 6.545094474546249330e+01
5.560000000000000142e+01 6.519986506098757673e+01
5.600000000000000000e+01 6.495156220328476593e+01
5.640000000000000568e+01 6.470598492943430813e+01
5.680000000000000426e+01 6.446308331654046242e+01
5.720000000000000284e+01 6.422280871823673465e+01
5.760000000000000142e+01 6.398511372293156541e+01
5.800000000000000000e+01 6.374995211371322057e+01
5.840000000000000568e+01 6.351727882983632156e+01
5.880000000000000426e+01 6.328704992971672993e+01
5.920000000000000284e+01 6.305922255536524546e+01
5.960000000000000142e+01 6.283375489819503912e+01
6.000000000000000000e+01 6.261060616613967511e+01
6.040000000000000568e+01 6.238973655202349278e+01
6.080000000000000426e+01 6.217072198583785791e+01
6.120000000000000284e+01 6.195311034436492292e+01
6.160000000000000142e+01 6.173768228842389760e+01
6.200000000000000000e+01 6.152440125808819715e+01
6.240000000000000568e+01 6.131323154847538603e+01
6.280000000000000426e+01 6.110413828414917958e+01
6.320000000000000284e+01 6.089708739445306662e+01
6.360000000000000142e+01 6.069204558973566321e+01
6.400000000000000000e+01 6.048898033842984745e+01
6.440000000000000568e+01 6.028785984494975025e+01
6.480000000000001137e+01 6.008865302837122613e+01
6.520000000000000284e+01 5.989132950186318283e+01
6.559999999999999432e+01 5.969585955283881873e+01
6.600000000000000000e+01 5.950221412379701746e+01
6.640000000000000568e+01 5.950983144485378062e+01
6.680000000000001137e+01 5.933185059500856084e+01
6.720000000000000284e+01 5.915547595851809604e+01
6.759999999999999432e+01 5.898068317700015939e+01
6.800000000000000000e+01 5.880744840860448619e+01
6.840000000000000568e+01 5.863574831399463960e+01
6.880000000000001137e+01 5.846556004279217689e+01
6.920000000000000284e+01 5.829686122046547325e+01
6.959999999999999432e+01 5.812962993564541847e+01
7.000000000000000000e+01 5.796363164065110141e+01
7.040000000000000568e+01 5.779513548572621318e+01
7.080000000000001137e+01 5.762810496667207616e+01
7.120000000000000284e+01 5.746251864229058270e+01
7.159999999999999432e+01 5.729835551086242873e+01
7.200000000000000000e+01 5.715803447107840896e+01
7.240000000000000568e+01 5.699765861332981842e+01
7.280000000000001137e+01 5.683863370282992378e+01
7.320000000000000284e+01 5.668094058551723435e+01
7.359999999999999432e+01 5.652456048798135413e+01
7.400000000000000000e+01 5.636947500775813324e+01
7.440000000000000568e+01 5.621566610392599017e+01
7.479999999999999716e+01 5.606311608799277479e+01
7.520000000000000284e+01 5.591180761506247165e+01
7.560000000000000853e+01 5.576172367527161811e+01
7.600000000000000000e+01 5.561284758548572427e+01
7.640000000000000568e+01 5.546516298124633693e+01
7.679999999999999716e+01 5.531865380896020667e+01
7.720000000000000284e+01 5.517087204553384083e+01
7.760000000000000853e+01 5.502387871474789449e+01
7.800000000000000000e+01 5.487804304358320451e+01
7.840000000000000568e+01 5.473334971261471082e+01
7.879999999999999716e+01 5.458978368655216684e+01
7.920000000000000284e+01 5.444733020747870000e+01
7.960000000000000853e+01 5.430597478828541114e+01
8.000000000000000000e+01 5.416570320629529078e+01
8.040000000000000568e+01 5.402650149706990135e+01
8.079999999999999716e+01 5.388835594839289911e+01
8.120000000000000284e+01 5.375125309442422861e+01
8.160000000000000853e+01 5.361517971001947558e+01
8.200000000000000000e+01 5.348012280520861594e+01
8.240000000000000568e+01 5.334606961982920836e+01
8.279999999999999716e+01 5.321300761830874393e+01
8.320000000000000284e+01 5.308087718770563868e+01
8.360000000000000853e+01 5.294958665490478467e+01
8.400000000000000000e+01 5.281925209167198432e+01
8.440000000000000568e+01 5.268986180211578585e+01
8.479999999999999716e+01 5.256140429100761224e+01
8.520000000000000284e+01 5.243386825936251228e+01
8.560000000000000853e+01 5.230724260013857929e+01
8.600000000000000000e+01 5.218151639405117237e+01
8.640000000000000568e+01 5.205370475505282002e+01
8.680000000000001137e+01 5.192637298030118842e+01
8.720000000000000284e+01 5.179994091343179718e+01
8.760000000000000853e+01 5.167439789499734815e+01
8.800000000000000000e+01 5.154973344266252155e+01
8.840000000000000568e+01 5.142593724742474848e+01
8.880000000000001137e+01 5.130299916993359943e+01
8.920000000000000284e+01 5.118090923690520810e+01
8.960000000000000853e+01 5.105965763762912957e+01
9.000000000000000000e+01 5.093923472056491875e+01
9.040000000000000568e+01 5.081963099002531692e+01
9.080000000000001137e+01 5.084874484279561102e+01
9.120000000000000284e+01 5.073298303977118451e+01
9.160000000000000853e+01 5.061798967865652799e+01
9.200000000000000000e+01 5.050375619140729100e+01
9.240000000000000568e+01 5.039027414408181471e+01
9.280000000000001137e+01 5.027753523414379799e+01
9.320000000000000284e+01 5.016553128783112214e+01
9.360000000000000853e+01 5.005425425758886604e+01
9.400000000000000000e+01 4.994369621956486327e+01
9.440000000000000568e+01 4.983384937116576197e+01
9.480000000000001137e+01 4.972470602867212364e+01
9.520000000000000284e+01 4.961625862491052885e+01
9.560000000000000853e+01 4.950849970698156000e+01
9.600000000000000000e+01 4.939855198280123005e+01
9.640000000000000568e+01 4.929257889566326867e+01
9.680000000000001137e+01 4.918726915811744504e+01
9.720000000000000284e+01 4.908261579393930418e+01
9.760000000000000853e+01 4.897861192992881740e+01
9.800000000000000000e+01 4.887525079395449978e+01
9.840000000000000568e+01 4.877252571304271100e+01
9.880000000000001137e+01 4.867043011151112353e+01
9.920000000000000284e+01 4.856895750914500098e+01
9.960000000000000853e+01 4.846810151941516409e+01
1.000000000000000000e+02 4.836785584773664937e+01
1.004000000000000057e+02 4.826821428976676032e+01
1.008000000000000114e+02 4.816917072974164427e+01
1.012000000000000028e+02 4.807071913885020109e+01
1.016000000000000085e+02 4.797285357364447123e+01
1.020000000000000000e+02 4.787556817448545132e+01
1.024000000000000057e+02 4.777885716402357730e+01
1.028000000000000114e+02 4.768271484571256025e+01
1.032000000000000028e+02 4.758713560235628393e+01
1.036000000000000085e+02 4.749211389468729294e+01
1.040000000000000000e+02 4.739764425997666564e+01
1.044000000000000057e+02 4.730372131067390740e+01
1.048000000000000114e+02 4.721033973307643805e+01
1.052000000000000028e+02 4.711749428602786338e+01
1.056000000000000085e+02 4.702517979964412831e+01
1.060000000000000000e+02 4.693339117406713257e+01
1.064000000000000057e+02 4.684212337824480699e+01
1.068000000000000114e+02 4.675137144873717432e+01
1.072000000000000028e+02 4.666113048854774092e+01
1.076000000000000085e+02 4.657139566597951585e+01
1.080000000000000000e+02 4.648216221351510313e+01
1.084000000000000057e+02 4.639342542672005010e+01
1.088000000000000114e+02 4.630511338905677832e+01
1.092000000000000028e+02 4.621713745419688735e+01
1.096000000000000085e+02 4.612964618589125365e+01
1.100000000000000000e+02 4.604263510124822290e+01
1.104000000000000057e+02 4.605924725533036934e+01
1.108000000000000114e+02 4.605837281005041461e+01
1.112000000000000028e+02 4.597872807437454412e+01
1.116000000000000085e+02 4.589950102679824795e+01
1.120000000000000000e+02 4.582055059968673305e+01
1.124000000000000057e+02 4.574200873283824365e+01
1.128000000000000114e+02 4.566387378187444313e+01
1.132000000000000028e+02 4.558614218661502093e+01
1.136000000000000085e+02 4.550881043068190479e+01
1.140000000000000000e+02 4.543187504080634653e+01
1.144000000000000057e+02 4.535533258614900376e+01
1.148000000000000114e+02 4.527917967763335128e+01
1.152000000000000028e+02 4.520341296729179703e+01
1.156000000000000085e+02 4.512802914762425388e+01
1.160000000000000000e+02 4.505302495096900373e+01
1.164000000000000057e+02 4.497839714888543483e+01
1.168000000000000114e+02 4.490414255154851730e+01
1.172000000000000028e+02 4.483025800715464015e+01
1.176000000000000085e+02 4.475674040133853282e+01
1.180000000000000000e+02 4.468358665660135642e+01
1.184000000000000057e+02 4.461079373174911211e+01
1.188000000000000114e+02 4.453835862134182122e+01
1.192000000000000028e+02 4.446627835515263882e+01
1.196000000000000085e+02 4.439454999763716359e+01
1.200000000000000000e+02 4.432317064741231860e+01
1.204000000000000057e+02 4.425213743674499511e+01
1.208000000000000114e+02 4.418144753104986222e+01
1.212000000000000028e+02 4.411109812839643496e+01
1.216000000000000085e+02 4.404108645902508101e+01
1.220000000000000000e+02 4.397140978487166763e+01
1.224000000000000057e+02 4.390206539910096950e+01
1.228000000000000114e+02 4.383305062564832610e+01
1.232000000000000028e+02 4.376944846237351783e+01
1.236000000000000085e+02 4.370130841753499595e+01
1.240000000000000000e+02 4.363348868062608688e+01
1.244000000000000057e+02 4.356598670830611297e+01
1.248000000000000114e+02 4.349879998565088357e+01
1.252000000000000028e+02 4.343192602574407601e+01
1.256000000000000085e+02 4.336536236927574350e+01
1.260000000000000000e+02 4.329910658414804203e+01
1.264000000000000057e+02 4.323315626508765774e+01
1.268000000000000114e+02 4.316750903326505551e+01
1.272000000000000028e+02 4.310216253592033553e+01
1.276000000000000085e+02 4.303711444599549196e+01
1.280000000000000000e+02 4.297236246177308772e+01
1.284000000000000057e+02 4.290790430652107545e+01
1.288000000000000114e+02 4.284373772814365822e+01
1.291999999999999886e+02 4.277986049883825359e+01
1.296000000000000227e+02 4.271627041475810671e+01
1.300000000000000000e+02 4.265296529568083628e+01
1.304000000000000057e+02 4.258994298468228124e+01
1.308000000000000114e+02 4.252720134781620231e+01
1.311999999999999886e+02 4.246473827379912080e+01
1.316000000000000227e+02 4.240255167370042955e+01
1.320000000000000000e+02 4.234063948063792537e+01
1.324000000000000057e+02 4.227899964947800981e+01
1.328000000000000114e+02 4.221763015654126150e+01
1.331999999999999886e+02 4.215652899931266973e+01
1.336000000000000227e+02 4.209569419615660024e+01
1.340000000000000000e+02 4.203512378603664246e+01
1.344000000000000057e+02 4.197481582823988333e+01
1.348000000000000114e+02 4.191476840210573584e+01
1.351999999999999886e+02 4.185497960675923679e+01
1.356000000000000227e+02 4.179512940426847933e+01
1.360000000000000000e+02 4.173481702176535180e+01
1.364000000000000057e+02 4.167476433293093407e+01
1.368000000000000114e+02 4.160860262043306790e+01
1.371999999999999886e+02 4.154947039243329954e+01
1.376000000000000227e+02 4.149058708909011983e+01
1.380000000000000000e+02 4.143190871355882621e+01
1.384000000000000057e+02 4.137347874138640691e+01
1.388000000000000114e+02 4.131529539665893935e+01
1.392000000000000171e+02 4.125735692134777821e+01
1.395999999999999943e+02 4.119966157507752058e+01
1.400000000000000000e+02 4.114220763489751675e+01
1.404000000000000057e+02 4.108499339505716819e+01
1.408000000000000114e+02 4.102801716678454369e+01
1.412000000000000171e+02 4.097127727806871178e+01
1.415999999999999943e+02 4.091477207344532729e+01
1.420000000000000000e+02 4.085849991378557888e+01
1.424000000000000057e+02 4.080245917608854711e+01
1.428000000000000114e+02 4.074664825327667472e+01
1.432000000000000171e+02 4.069106555399439884e+01
1.435999999999999943e+02 4.063570950241003743e+01
1.440000000000000000e+02 4.058029293399768278e+01
1.444000000000000057e+02 4.052483393349675111e+01
1.448000000000000114e+02 4.046960024663231081e+01
1.452000000000000171e+02 4.041459032927477324e+01
1.455999999999999943e+02 4.035980265219695440e+01
1.460000000000000000e+02 4.030523570088875829e+01
1.464000000000000057e+02 4.025088797537468110e+01
1.468000000000000114e+02 4.019675799003414340e+01
1.472000000000000171e+02 4.014284427342440864e+01
1.475999999999999943e+02 4.008914536810632967e+01
1.480000000000000000e+02 4.003565983047259635e+01
1.484000000000000057e+02 3.998238623057857666e+01
1.488000000000000114e+02 3.992932315197580095e+01
1.492000000000000171e+02 3.987646919154769876e+01
1.495999999999999943e+02 3.982382295934802841e+01
1.500000000000000000e+02 3.977138307844150233e+01
