1.000000000000000000e+01 5.625334350588560284e+01
1.040000000000000036e+01 5.918499736427452262e+01
1.080000000000000071e+01 6.291940026806430097e+01
1.119999999999999929e+01 7.011699932347244157e+01
1.159999999999999964e+01 7.296635701189404699e+01
1.200000000000000000e+01 6.749487499333312712e+01
1.240000000000000036e+01 6.512979861989686015e+01
1.280000000000000071e+01 6.300926162830357669e+01
1.319999999999999929e+01 6.109093128329823230e+01
1.359999999999999964e+01 5.934256215085144248e+01
1.400000000000000000e+01 5.791151098178711720e+01
1.440000000000000036e+01 5.670618984034857846e+01
1.480000000000000071e+01 5.558784581489350529e+01
1.519999999999999929e+01 5.454595722019648463e+01
1.560000000000000142e+01 5.357177178828384001e+01
1.600000000000000000e+01 5.265792994791994630e+01
1.639999999999999858e+01 5.179818394765987932e+01
1.680000000000000071e+01 5.098718479737968323e+01
1.719999999999999929e+01 5.022031816606646970e+01
1.760000000000000142e+01 4.949357625316291376e+01
1.800000000000000000e+01 4.883677905713638268e+01
1.839999999999999858e+01 4.821482858474599453e+01
1.880000000000000071e+01 4.762097051442992779e+01
1.920000000000000284e+01 4.705303845503225801e+01
1.960000000000000142e+01 4.650910131483559695e+01
2.000000000000000000e+01 4.598743053722478180e+01
2.039999999999999858e+01 4.548647285955546948e+01
2.080000000000000071e+01 4.500482751074514454e+01
2.120000000000000284e+01 4.454122700440106541e+01
2.160000000000000142e+01 4.409452086598336962e+01
2.200000000000000000e+01 4.366366177067187948e+01
2.239999999999999858e+01 4.324769367466929282e+01
2.280000000000000071e+01 4.284574160480242710e+01
2.320000000000000284e+01 3.822428539983094709e+01
2.360000000000000142e+01 3.781294498703082496e+01
2.400000000000000000e+01 3.741439378516453473e+01
2.439999999999999858e+01 3.702796142133553303e+01
2.480000000000000071e+01 3.665302710220084492e+01
2.520000000000000284e+01 3.570538417807333076e+01
2.560000000000000142e+01 3.535756871545505220e+01
2.600000000000000000e+01 3.501978808597375092e+01
2.640000000000000213e+01 3.469155762977362656e+01
2.680000000000000071e+01 3.437242542642783150e+01
2.719999999999999929e+01 3.406196946302708994e+01
2.760000000000000142e+01 3.375979509977318571e+01
2.800000000000000000e+01 3.346553279643993051e+01
2.840000000000000213e+01 3.317883606821959575e+01
2.880000000000000071e+01 3.289937964381597624e+01
2.920000000000000284e+01 3.262685780231632293e+01
2.960000000000000142e+01 3.236098286848799432e+01
3.000000000000000000e+01 3.210148384879641270e+01
3.040000000000000213e+01 3.184810519270351747e+01
3.080000000000000071e+01 3.160060566574514951e+01
3.120000000000000284e+01 3.135875732254974935e+01
3.160000000000000142e+01 3.112234456939651750e+01
3.200000000000000000e+01 3.089116330714971781e+01
3.240000000000000568e+01 3.066502014647966234e+01
3.279999999999999716e+01 3.041787854962782234e+01
3.320000000000000284e+01 3.017498308519841643e+01
3.360000000000000142e+01 2.993733408438352228e+01
3.400000000000000000e+01 2.970474457187200912e+01
3.440000000000000568e+01 2.947703682063021091e+01
3.479999999999999716e+01 2.925404176911630572e+01
3.520000000000000284e+01 2.903559848296123036e+01
3.560000000000000142e+01 2.882155365714446660e+01
3.600000000000000000e+01 2.861176115509803708e+01
3.640000000000000568e+01 2.840608158153162677e+01
3.679999999999999716e+01 2.820438188608968488e+01
3.720000000000000284e+01 2.800653499523448176e+01
3.760000000000000142e+01 2.781241947000118486e+01
3.800000000000000000e+01 2.762191918749492103e+01
3.840000000000000568e+01 2.743492304420089312e+01
3.879999999999999716e+01 2.725132467935748792e+01
3.920000000000000284e+01 2.707102221680285936e+01
3.960000000000000142e+01 2.689391802384992047e+01
4.000000000000000000e+01 2.671991848587339291e+01
4.040000000000000568e+01 2.654893379540926901e+01
4.079999999999999716e+01 2.638087775467210960e+01
4.120000000000000284e+01 2.621566759048929285e+01
4.160000000000000142e+01 2.605322378073757505e+01
4.200000000000000000e+01 2.589346989144389255e+01
4.239999999999999858e+01 2.586663463838538846e+01
4.280000000000000426e+01 2.571811650065783184e+01
4.320000000000000284e+01 2.557196081684058697e+01
4.360000000000000142e+01 2.542810528852531604e+01
4.400000000000000000e+01 2.528648990420276021e+01
4.439999999999999858e+01 2.514705683203946052e+01
4.480000000000000426e+01 2.500975031875612586e+01
4.520000000000000284e+01 2.487451659420030126e+01
4.560000000000000142e+01 2.474130378123678042e+01
4.600000000000000000e+01 2.461006181060840703e+01
4.639999999999999858e+01 2.448074234044521091e+01
4.680000000000000426e+01 2.435329868012404475e+01
4.720000000000000284e+01 2.422768571820300210e+01
4.760000000000000142e+01 2.431733388756917691e+01
4.800000000000000000e+01 2.421213325382660742e+01
4.840000000000000568e+01 2.410829260300342725e+01
4.880000000000000426e+01 2.400578259660927216e+01
4.920000000000000284e+01 2.390457477854799606e+01
4.960000000000000142e+01 2.380464154120835474e+01
5.000000000000000000e+01 2.370595609313588170e+01
5.040000000000000568e+01 2.360849242819951144e+01
5.080000000000000426e+01 2.351222529617189139e+01
5.120000000000000284e+01 2.341713017464733326e+01
5.160000000000000142e+01 2.332318324222616823e+01
5.200000000000000000e+01 2.323036135289841297e+01
5.240000000000000568e+01 2.313814644034567891e+01
5.280000000000000426e+01 2.304651370389886011e+01
5.320000000000000284e+01 2.295595166034065215e+01
5.360000000000000142e+01 2.286643942576278121e+01
5.400000000000000000e+01 2.277795668513947547e+01
5.440000000000000568e+01 2.269048367249094156e+01
5.480000000000000426e+01 2.260400115188764048e+01
5.520000000000000284e+01 2.251849039925350127e+01
5.560000000000000142e+01 2.243393318492863742e+01
5.600000000000000000e+01 2.235031175695430505e+01
5.640000000000000568e+01 2.226760882504491690e+01
5.680000000000000426e+01 2.218580754521400422e+01
5.720000000000000284e+01 2.210489150502274569e+01
5.760000000000000142e+01 2.202484470942138728e+01
5.800000000000000000e+01 2.194565156715562182e+01
5.840000000000000568e+01 2.186729687771141784e+01
5.880000000000000426e+01 2.178976581877324037e+01
5.920000000000000284e+01 2.171304393417177891e+01
5.960000000000000142e+01 2.163711712229908102e+01
6.000000000000000000e+01 2.156197162496938802e+01
6.040000000000000568e+01 2.148759401670574221e+01
6.080000000000000426e+01 2.141397119443321628e+01
6.120000000000000284e+01 2.134109036756052546e+01
6.160000000000000142e+01 2.126893904843297634e+01
6.200000000000000000e+01 2.119750504314017903e+01
6.240000000000000568e+01 2.112296922469264615e+01
6.280000000000000426e+01 2.104828763968600569e+01
6.320000000000000284e+01 2.097436332230619271e+01
6.360000000000000142e+01 2.090118347282580658e+01
6.400000000000000000e+01 2.082873559403883945e+01
6.440000000000000568e+01 2.074615766535870165e+01
6.480000000000001137e+01 2.067741050102802802e+01
6.520000000000000284e+01 2.060933119582064421e+01
6.559999999999999432e+01 2.054190890153139648e+01
6.600000000000000000e+01 2.047513301655251894e+01
6.640000000000000568e+01 2.040899317868247209e+01
6.680000000000001137e+01 2.034347925819031389e+01
6.720000000000000284e+01 2.027858135112486337e+01
6.759999999999999432e+01 2.021428977285862771e+01
6.800000000000000000e+01 2.015059505185657684e+01
6.840000000000000568e+01 2.008748792366075619e+01
6.880000000000001137e+01 2.002495932508176324e+01
6.920000000000000284e+01 1.996300038858881720e+01
6.959999999999999432e+01 1.990160243689035724e+01
7.000000000000000000e+01 1.984075697769758051e+01
7.040000000000000568e+01 1.978045569866368680e+01
7.080000000000001137e+01 1.972069046249173851e+01
7.120000000000000284e+01 1.966145330220471266e+01
7.159999999999999432e+01 1.960273641657124699e+01
7.200000000000000000e+01 1.954453216568116147e+01
7.240000000000000568e+01 1.948683306666488591e+01
7.280000000000001137e+01 1.942963178955135106e+01
7.320000000000000284e+01 1.937292115325900710e+01
7.359999999999999432e+01 1.931669412171499545e+01
7.400000000000000000e+01 1.926094380009756435e+01
7.440000000000000568e+01 1.920566343119723385e+01
7.479999999999999716e+01 1.915084639189210947e+01
7.520000000000000284e+01 1.909648618973337619e+01
7.560000000000000853e+01 1.904257645963662071e+01
7.600000000000000000e+01 1.898860055617532794e+01
7.640000000000000568e+01 1.893450834034911168e+01
7.679999999999999716e+01 1.888086075503381522e+01
7.720000000000000284e+01 1.882765170317245307e+01
7.760000000000000853e+01 1.877487520464973159e+01
7.800000000000000000e+01 1.872252539341529598e+01
7.840000000000000568e+01 1.867059651469328330e+01
7.879999999999999716e+01 1.861908292227493433e+01
7.920000000000000284e+01 1.856797907589155727e+01
7.960000000000000853e+01 1.851727953866489074e+01
8.000000000000000000e+01 1.846697897463218396e+01
8.040000000000000568e+01 1.841707214634357825e+01
8.079999999999999716e+01 1.836755391252904701e+01
8.120000000000000284e+01 1.831841922583277338e+01
8.160000000000000853e+01 1.826966313061247860e+01
8.200000000000000000e+01 1.822128076080162629e+01
8.240000000000000568e+01 1.817326733783232839e+01
8.279999999999999716e+01 1.829259319630432401e+01
8.320000000000000284e+01 1.824761435394410114e+01
8.360000000000000853e+01 1.820296604989952982e+01
8.400000000000000000e+01 1.815864420270985491e+01
8.440000000000000568e+01 1.811464480170229763e+01
8.479999999999999716e+01 1.807096390541203235e+01
8.520000000000000284e+01 1.802759764004527199e+01
8.560000000000000853e+01 1.798454219798408360e+01
8.600000000000000000e+01 1.794179383633152725e+01
8.640000000000000568e+01 1.789934887549588893e+01
8.680000000000001137e+01 1.785720369781280681e+01
8.720000000000000284e+01 1.781535474620398674e+01
8.760000000000000853e+01 1.777379852287141304e+01
8.800000000000000000e+01 1.773253158802599572e+01
8.840000000000000568e+01 1.769155055864950654e+01
8.880000000000001137e+01 1.765085210728878096e+01
8.920000000000000284e+01 1.761043296088126908e+01
8.960000000000000853e+01 1.757028989961086296e+01
9.000000000000000000e+01 1.754817735061698158e+01
9.040000000000000568e+01 1.750977639772897732e+01
9.080000000000001137e+01 1.747162978670554878e+01
9.120000000000000284e+01 1.743373468047295560e+01
9.160000000000000853e+01 1.739608828645422989e+01
9.200000000000000000e+01 1.735868785567030770e+01
9.240000000000000568e+01 1.732153068186342182e+01
9.280000000000001137e+01 1.728461410064197068e+01
9.320000000000000284e+01 1.724793548864634829e+01
9.360000000000000853e+01 1.721149226273512056e+01
9.400000000000000000e+01 1.717528187919094051e+01
9.440000000000000568e+01 1.713930183294561260e+01
9.480000000000001137e+01 1.710354965682378747e+01
9.520000000000000284e+01 1.706802292080478622e+01
9.560000000000000853e+01 1.703271923130196086e+01
9.600000000000000000e+01 1.699763623045920014e+01
9.640000000000000568e+01 1.696277159546401947e+01
9.680000000000001137e+01 1.692812303787678729e+01
9.720000000000000284e+01 1.689368830297568280e+01
9.760000000000000853e+01 1.685946516911688775e+01
9.800000000000000000e+01 1.682545144710966412e+01
9.840000000000000568e+01 1.679164497960579894e+01
9.880000000000001137e+01 1.675804364050318185e+01
9.920000000000000284e+01 1.672464533436299661e+01
9.960000000000000853e+01 1.669144799584018912e+01
1.000000000000000000e+02 1.665844958912689577e+01
1.004000000000000057e+02 1.662564810740848031e+01
1.008000000000000114e+02 1.659304157233175658e+01
1.012000000000000028e+02 1.656062803348520163e+01
1.016000000000000085e+02 1.652840556789075421e+01
1.020000000000000000e+02 1.649637227950687191e+01
1.024000000000000057e+02 1.646452629874268681e+01
1.028000000000000114e+02 1.643286578198279102e+01
1.032000000000000028e+02 1.640138891112250263e+01
1.036000000000000085e+02 1.636998302967105445e+01
1.040000000000000000e+02 1.633856016998031890e+01
1.044000000000000057e+02 1.630717821169364612e+01
1.048000000000000114e+02 1.627597555473997204e+01
1.052000000000000028e+02 1.624495048129259089e+01
1.056000000000000085e+02 1.621410129660010568e+01
1.060000000000000000e+02 1.618342632858819030e+01
1.064000000000000057e+02 1.615292392746984973e+01
1.068000000000000114e+02 1.612259246536380175e+01
1.072000000000000028e+02 1.609243033592084515e+01
1.076000000000000085e+02 1.606243595395798351e+01
1.080000000000000000e+02 1.603260775510016600e+01
1.084000000000000057e+02 1.600294419542936453e+01
1.088000000000000114e+02 1.597344375114093040e+01
1.092000000000000028e+02 1.594410491820700138e+01
1.096000000000000085e+02 1.591492621204667302e+01
1.100000000000000000e+02 1.588590616720302862e+01
1.104000000000000057e+02 1.585704333702659952e+01
1.108000000000000114e+02 1.582833629336526293e+01
1.112000000000000028e+02 1.579978362626037125e+01
1.116000000000000085e+02 1.577138394364898311e+01
1.120000000000000000e+02 1.574313587107200263e+01
1.124000000000000057e+02 1.571503805138818421e+01
1.128000000000000114e+02 1.568708914449371505e+01
1.132000000000000028e+02 1.565928782704747491e+01
1.136000000000000085e+02 1.563163279220153967e+01
1.140000000000000000e+02 1.560412274933710464e+01
1.144000000000000057e+02 1.557675642380547210e+01
1.148000000000000114e+02 1.554953255667419398e+01
1.152000000000000028e+02 1.552244990447795381e+01
1.156000000000000085e+02 1.549550723897448812e+01
1.160000000000000000e+02 1.546870334690504833e+01
1.164000000000000057e+02 1.544203702975950421e+01
1.168000000000000114e+02 1.541550710354596987e+01
1.172000000000000028e+02 1.538911239856479796e+01
1.176000000000000085e+02 1.536285175918686008e+01
1.180000000000000000e+02 1.533672404363601416e+01
1.184000000000000057e+02 1.531072812377572845e+01
1.188000000000000114e+02 1.528486288489967038e+01
1.192000000000000028e+02 1.525912722552620160e+01
1.196000000000000085e+02 1.523352005719677393e+01
1.200000000000000000e+02 1.521720207389252977e+01
1.204000000000000057e+02 1.519214302453899990e+01
1.208000000000000114e+02 1.516720703129599457e+01
1.212000000000000028e+02 1.514239308008383667e+01
1.216000000000000085e+02 1.511770016854885057e+01
1.220000000000000000e+02 1.509312730588909623e+01
1.224000000000000057e+02 1.506867351268316746e+01
1.228000000000000114e+02 1.504433782072223735e+01
1.232000000000000028e+02 1.502011927284496196e+01
1.236000000000000085e+02 1.499601692277548537e+01
1.240000000000000000e+02 1.497202983496427819e+01
1.244000000000000057e+02 1.494815708443180924e+01
1.248000000000000114e+02 1.492439775661505230e+01
1.252000000000000028e+02 1.490075094721665749e+01
1.256000000000000085e+02 1.487721576205682084e+01
1.260000000000000000e+02 1.485379131692775090e+01
1.264000000000000057e+02 1.483047673745068273e+01
1.268000000000000114e+02 1.480727115893544266e+01
1.272000000000000028e+02 1.478417372624236847e+01
1.276000000000000085e+02 1.476118359364673260e+01
1.280000000000000000e+02 1.473829992470545136e+01
1.284000000000000057e+02 1.470787537353165675e+01
1.288000000000000114e+02 1.468561333814398928e+01
1.291999999999999886e+02 1.466345320384278494e+01
1.296000000000000227e+02 1.464139418489349609e+01
1.300000000000000000e+02 1.461943550408529191e+01
1.304000000000000057e+02 1.459757639261190576e+01
1.308000000000000114e+02 1.457581608995455724e+01
1.311999999999999886e+02 1.455415384376679810e+01
1.316000000000000227e+02 1.453258890976141515e+01
1.320000000000000000e+02 1.451112055159915215e+01
1.324000000000000057e+02 1.448974804077937151e+01
1.328000000000000114e+02 1.446847065653252251e+01
1.331999999999999886e+02 1.444728768571446231e+01
1.336000000000000227e+02 1.442619842270246977e+01
1.340000000000000000e+02 1.440520216929305164e+01
1.344000000000000057e+02 1.438429823460142742e+01
1.348000000000000114e+02 1.436348593496269466e+01
1.351999999999999886e+02 1.434276459383460001e+01
1.356000000000000227e+02 1.432213354170192865e+01
1.360000000000000000e+02 1.430159141742830897e+01
1.364000000000000057e+02 1.428108944788996304e+01
1.368000000000000114e+02 1.426067605151190776e+01
1.371999999999999886e+02 1.424035058413120325e+01
1.376000000000000227e+02 1.422011240817421651e+01
1.380000000000000000e+02 1.419996089256977001e+01
1.384000000000000057e+02 1.417989541266369713e+01
1.388000000000000114e+02 1.415991535013481339e+01
1.392000000000000171e+02 1.414002009291217199e+01
1.395999999999999943e+02 1.412020903509369418e+01
1.400000000000000000e+02 1.410048157686605208e+01
1.404000000000000057e+02 1.408083712442585522e+01
1.408000000000000114e+02 1.406127508990209662e+01
1.412000000000000171e+02 1.404179489127975700e+01
1.415999999999999943e+02 1.402239595232469682e+01
1.420000000000000000e+02 1.400307770250964978e+01
1.424000000000000057e+02 1.398383957694145252e+01
1.428000000000000114e+02 1.396468101628931890e+01
1.432000000000000171e+02 1.394560146671431689e+01
1.435999999999999943e+02 1.392660037979989340e+01
1.440000000000000000e+02 1.390767721248346334e+01
1.444000000000000057e+02 1.388883142698909978e+01
1.448000000000000114e+02 1.387006249076122621e+01
1.452000000000000171e+02 1.385136987639930695e+01
1.455999999999999943e+02 1.383275306159359630e+01
1.460000000000000000e+02 1.381421152906181860e+01
1.464000000000000057e+02 1.379574476648681447e+01
1.468000000000000114e+02 1.377735226645516953e+01
1.472000000000000171e+02 1.375903352639672406e+01
1.475999999999999943e+02 1.374078804852502245e+01
1.480000000000000000e+02 1.372261533977865611e+01
1.484000000000000057e+02 1.370451491176347680e+01
1.488000000000000114e+02 1.368648628069569639e+01
1.492000000000000171e+02 1.366852896734578771e+01
1.495999999999999943e+02 1.365064249698327892e+01
1.500000000000000000e+02 1.363282639932232243e+01
