1.000000000000000000e+01 4.502384748814208706e+02
1.040000000000000036e+01 4.715616837965642389e+02
1.080000000000000071e+01 4.799773701480064574e+02
1.119999999999999929e+01 4.775600192621186579e+02
1.159999999999999964e+01 4.786546416814425129e+02
1.200000000000000000e+01 4.784072973018481889e+02
1.240000000000000036e+01 4.768460079345685472e+02
1.280000000000000071e+01 4.739701237300754428e+02
1.319999999999999929e+01 4.729457014180372880e+02
1.359999999999999964e+01 4.721329797142660709e+02
1.400000000000000000e+01 4.746499764108581303e+02
1.440000000000000036e+01 4.771199495327321074e+02
1.480000000000000071e+01 4.703193781908861979e+02
1.519999999999999929e+01 4.638824518273179365e+02
1.560000000000000142e+01 4.577741606406971755e+02
1.600000000000000000e+01 4.519644090972956292e+02
1.639999999999999858e+01 4.464271095653826933e+02
1.680000000000000071e+01 4.411394817608745029e+02
1.719999999999999929e+01 4.360815030185503929e+02
1.760000000000000142e+01 4.312354711248046897e+02
1.800000000000000000e+01 4.265856525215593820e+02
1.839999999999999858e+01 4.221179961967545751e+02
1.880000000000000071e+01 4.178198987711419932e+02
1.920000000000000284e+01 4.136800099535903428e+02
1.960000000000000142e+01 4.096880701634725028e+02
2.000000000000000000e+01 4.058347740311103280e+02
2.039999999999999858e+01 4.021116548993463766e+02
2.080000000000000071e+01 3.985109865053376552e+02
2.120000000000000284e+01 3.950256988207090103e+02
2.160000000000000142e+01 3.916493056393097163e+02
2.200000000000000000e+01 3.883758419738719567e+02
2.239999999999999858e+01 3.851998096908603770e+02
2.280000000000000071e+01 3.821161301021249983e+02
2.320000000000000284e+01 3.791201024612595347e+02
2.360000000000000142e+01 3.762073674956183140e+02
2.400000000000000000e+01 3.733738752520987418e+02
2.439999999999999858e+01 3.706158566538624086e+02
2.480000000000000071e+01 3.679297982620873881e+02
2.520000000000000284e+01 3.653124198161964387e+02
2.560000000000000142e+01 3.627606541913175988e+02
2.600000000000000000e+01 3.602716294657675462e+02
2.640000000000000213e+01 3.578426528362671206e+02
2.680000000000000071e+01 3.554711961561054068e+02
2.719999999999999929e+01 3.531548829029275680e+02
2.760000000000000142e+01 3.508914764093137251e+02
2.800000000000000000e+01 3.486788692117104915e+02
2.840000000000000213e+01 3.465150733922820336e+02
2.880000000000000071e+01 3.443982118044292520e+02
2.920000000000000284e+01 3.423265100865542081e+02
2.960000000000000142e+01 3.402982893804986588e+02
3.000000000000000000e+01 3.383119596812767895e+02
3.040000000000000213e+01 3.363660137535121066e+02
3.080000000000000071e+01 3.344590215575894945e+02
3.120000000000000284e+01 3.325896251351242654e+02
3.160000000000000142e+01 3.307565339090841690e+02
3.200000000000000000e+01 3.289585203588917466e+02
3.240000000000000568e+01 3.271944160352052222e+02
3.279999999999999716e+01 3.254631078828950308e+02
3.320000000000000284e+01 3.237635348440896905e+02
3.360000000000000142e+01 3.220946847161214350e+02
3.400000000000000000e+01 3.204555912417968102e+02
3.440000000000000568e+01 3.188453314117240325e+02
3.479999999999999716e+01 3.172630229604579881e+02
3.520000000000000284e+01 3.157078220400309192e+02
3.560000000000000142e+01 3.141789210560388028e+02
3.600000000000000000e+01 3.126755466528784382e+02
3.640000000000000568e+01 3.111969578360037758e+02
3.679999999999999716e+01 3.097424442202045611e+02
3.720000000000000284e+01 3.083113243939241102e+02
3.760000000000000142e+01 3.069029443905455423e+02
3.800000000000000000e+01 3.055166762583893387e+02
3.840000000000000568e+01 3.041519167218999655e+02
3.879999999999999716e+01 3.028080859271573786e+02
3.920000000000000284e+01 3.014846262654447742e+02
3.960000000000000142e+01 3.001810012691402108e+02
4.000000000000000000e+01 2.988966945746825559e+02
4.040000000000000568e+01 2.976312089478036569e+02
4.079999999999999716e+01 2.963840653666114235e+02
4.120000000000000284e+01 2.951548021584718526e+02
4.160000000000000142e+01 2.939429741869635677e+02
4.200000000000000000e+01 2.927481520854754535e+02
4.239999999999999858e+01 2.915699215342868911e+02
4.280000000000000426e+01 2.904078825782206650e+02
4.320000000000000284e+01 2.892616489821768937e+02
4.360000000000000142e+01 2.881308476220675630e+02
4.400000000000000000e+01 2.870151179088539948e+02
4.439999999999999858e+01 2.859141112435634682e+02
4.480000000000000426e+01 2.848274905013170155e+02
4.520000000000000284e+01 2.837549295425457103e+02
4.560000000000000142e+01 2.826961127497020243e+02
4.600000000000000000e+01 2.816507345878967499e+02
4.639999999999999858e+01 2.806184991880031703e+02
4.680000000000000426e+01 2.795991199508690670e+02
4.720000000000000284e+01 2.785923191713770848e+02
4.760000000000000142e+01 2.775978276811761134e+02
4.800000000000000000e+01 2.766153845089891661e+02
4.840000000000000568e+01 2.756447365574759942e+02
4.880000000000000426e+01 2.746856382956977995e+02
4.920000000000000284e+01 2.737378514662937050e+02
4.960000000000000142e+01 2.728011448065382183e+02
5.000000000000000000e+01 2.718752937825021263e+02
5.040000000000000568e+01 2.709600803355891117e+02
5.080000000000000426e+01 2.700552926407685845e+02
5.120000000000000284e+01 2.691607248758657533e+02
5.160000000000000142e+01 2.682761770013125897e+02
5.200000000000000000e+01 2.674014545497985296e+02
5.240000000000000568e+01 2.665363684252957341e+02
5.280000000000000426e+01 2.656807347109645434e+02
5.320000000000000284e+01 2.648343744854760189e+02
5.360000000000000142e+01 2.639971136473160414e+02
5.400000000000000000e+01 2.631687827466599288e+02
5.440000000000000568e+01 2.623492168244337108e+02
5.480000000000000426e+01 2.615382552581975233e+02
5.520000000000000284e+01 2.607357416145101183e+02
5.560000000000000142e+01 2.599415235074528709e+02
5.600000000000000000e+01 2.591554524630081460e+02
5.640000000000000568e+01 2.583773837890069558e+02
5.680000000000000426e+01 2.576071764503755048e+02
5.720000000000000284e+01 2.568446929494242568e+02
5.760000000000000142e+01 2.560897992109403276e+02
5.800000000000000000e+01 2.553423644718539549e+02
5.840000000000000568e+01 2.546022611752645730e+02
5.880000000000000426e+01 2.538693648686228244e+02
5.920000000000000284e+01 2.531435541058756087e+02
5.960000000000000142e+01 2.524247103533916174e+02
6.000000000000000000e+01 2.517127178994954306e+02
6.040000000000000568e+01 2.510074637674458131e+02
6.080000000000000426e+01 2.503088376317037955e+02
6.120000000000000284e+01 2.496167317373422918e+02
6.160000000000000142e+01 2.489310408224600053e+02
6.200000000000000000e+01 2.482516620434651031e+02
6.240000000000000568e+01 2.475784949031041720e+02
6.280000000000000426e+01 2.469114411811172261e+02
6.320000000000000284e+01 2.462504048674052513e+02
6.360000000000000142e+01 2.455952920976025098e+02
6.400000000000000000e+01 2.449460110909514583e+02
6.440000000000000568e+01 2.443024720903831906e+02
6.480000000000001137e+01 2.436645873047103237e+02
6.520000000000000284e+01 2.430322708528445617e+02
6.559999999999999432e+01 2.424054387099551491e+02
6.600000000000000000e+01 2.417840086554879804e+02
6.640000000000000568e+01 2.411679002229699336e+02
6.680000000000001137e+01 2.405570346515249298e+02
6.720000000000000284e+01 2.399513348390341889e+02
6.759999999999999432e+01 2.393507252968728380e+02
6.800000000000000000e+01 2.387551321061618523e+02
6.840000000000000568e+01 2.381644828754743344e+02
6.880000000000001137e+01 2.375787066999392891e+02
6.920000000000000284e+01 2.369977341216880120e+02
6.959999999999999432e+01 2.364214970915914478e+02
7.000000000000000000e+01 2.358499289322379013e+02
7.040000000000000568e+01 2.352829643021047445e+02
7.080000000000001137e+01 2.347205391608769673e+02
7.120000000000000284e+01 2.341625907358706797e+02
7.159999999999999432e+01 2.336090574895187046e+02
7.200000000000000000e+01 2.330598790878796081e+02
7.240000000000000568e+01 2.325149963701312572e+02
7.280000000000001137e+01 2.319743513190124418e+02
7.320000000000000284e+01 2.314378870321785371e+02
7.359999999999999432e+01 2.309055476944367911e+02
7.400000000000000000e+01 2.303772785508299989e+02
7.440000000000000568e+01 2.298530258805376434e+02
7.479999999999999716e+01 2.293327369715645432e+02
7.520000000000000284e+01 2.288163600961903228e+02
7.560000000000000853e+01 2.283038444871511388e+02
7.600000000000000000e+01 2.277951403145284246e+02
7.640000000000000568e+01 2.272901986633203251e+02
7.679999999999999716e+01 2.267889715116710931e+02
7.720000000000000284e+01 2.262914117097359394e+02
7.760000000000000853e+01 2.257974729591598475e+02
7.800000000000000000e+01 2.253071097931484132e+02
7.840000000000000568e+01 2.248202775571110408e+02
7.879999999999999716e+01 2.243369323898572247e+02
7.920000000000000284e+01 2.238570312053264502e+02
7.960000000000000853e+01 2.233805316748345717e+02
8.000000000000000000e+01 2.229073922098189655e+02
8.040000000000000568e+01 2.224375719450661677e+02
8.079999999999999716e+01 2.219710307224054873e+02
8.120000000000000284e+01 2.215077290748538132e+02
8.160000000000000853e+01 2.210476282111970647e+02
8.200000000000000000e+01 2.205906900009929359e+02
8.240000000000000568e+01 2.201368769599822883e+02
8.279999999999999716e+01 2.196861522358962588e+02
8.320000000000000284e+01 2.192384795946450708e+02
8.360000000000000853e+01 2.187938234068776922e+02
8.400000000000000000e+01 2.183521486348998337e+02
8.440000000000000568e+01 2.179134208199395459e+02
8.479999999999999716e+01 2.174776060697485889e+02
8.520000000000000284e+01 2.170446710465300839e+02
8.560000000000000853e+01 2.166145829551816746e+02
8.600000000000000000e+01 2.161873095318447326e+02
8.640000000000000568e+01 2.157628190327498601e+02
8.680000000000001137e+01 2.153410802233499624e+02
8.720000000000000284e+01 2.149220623677318258e+02
8.760000000000000853e+01 2.145057352182979855e+02
8.800000000000000000e+01 2.140920690057105844e+02
8.840000000000000568e+01 2.136810344290894932e+02
8.880000000000001137e+01 2.132726026464564484e+02
8.920000000000000284e+01 2.128667452654195813e+02
8.960000000000000853e+01 2.124634343340881912e+02
9.000000000000000000e+01 2.120626423322148639e+02
9.040000000000000568e+01 2.116643421625545614e+02
9.080000000000001137e+01 2.112685071424370165e+02
9.120000000000000284e+01 2.108751109955446736e+02
9.160000000000000853e+01 2.104841278438910308e+02
9.200000000000000000e+01 2.100955321999931584e+02
9.240000000000000568e+01 2.097092989592329673e+02
9.280000000000001137e+01 2.093254033924023361e+02
9.320000000000000284e+01 2.089438211384256192e+02
9.360000000000000853e+01 2.085645281972559815e+02
9.400000000000000000e+01 2.081875009229395914e+02
9.440000000000000568e+01 2.078127160168435523e+02
9.480000000000001137e+01 2.074401505210428525e+02
9.520000000000000284e+01 2.070697818118614464e+02
9.560000000000000853e+01 2.067015875935641702e+02
9.600000000000000000e+01 2.063355458921944887e+02
9.640000000000000568e+01 2.059716350495545498e+02
9.680000000000001137e+01 2.056098337173229424e+02
9.720000000000000284e+01 2.052501208513079405e+02
9.760000000000000853e+01 2.048924757058305204e+02
9.800000000000000000e+01 2.045368778282355322e+02
9.840000000000000568e+01 2.041833070535261072e+02
9.880000000000001137e+01 2.038317434991193409e+02
9.920000000000000284e+01 2.034821675597187323e+02
9.960000000000000853e+01 2.031345599023011346e+02
1.000000000000000000e+02 2.027889014612150618e+02
1.004000000000000057e+02 2.024451734333873105e+02
1.008000000000000114e+02 2.021033572736347992e+02
1.012000000000000028e+02 2.017634346900795208e+02
1.016000000000000085e+02 2.014253876396631995e+02
1.020000000000000000e+02 2.010891983237600584e+02
1.024000000000000057e+02 2.007548491838833797e+02
1.028000000000000114e+02 2.004223228974863105e+02
1.032000000000000028e+02 2.000916023738512024e+02
1.036000000000000085e+02 1.997626707500678833e+02
1.040000000000000000e+02 1.994355113870971650e+02
1.044000000000000057e+02 1.991101078659180246e+02
1.048000000000000114e+02 1.987864439837560155e+02
1.052000000000000028e+02 1.984645037503912590e+02
1.056000000000000085e+02 1.981442713845436288e+02
1.060000000000000000e+02 1.978257313103335377e+02
1.064000000000000057e+02 1.975088681538162803e+02
1.068000000000000114e+02 1.971936667395880818e+02
1.072000000000000028e+02 1.968801120874624360e+02
1.076000000000000085e+02 1.965681894092144262e+02
1.080000000000000000e+02 1.962578841053917813e+02
1.084000000000000057e+02 1.959491817621912446e+02
1.088000000000000114e+02 1.956420681483981525e+02
1.092000000000000028e+02 1.953365292123878589e+02
1.096000000000000085e+02 1.950325510791878401e+02
1.100000000000000000e+02 1.947301200475988026e+02
1.104000000000000057e+02 1.944292225873732605e+02
1.108000000000000114e+02 1.941298453364503303e+02
1.112000000000000028e+02 1.938319750982456071e+02
1.116000000000000085e+02 1.935355988389945594e+02
1.120000000000000000e+02 1.932407036851483895e+02
1.124000000000000057e+02 1.929472769208207126e+02
1.128000000000000114e+02 1.926553059852846275e+02
1.132000000000000028e+02 1.923647784705184449e+02
1.136000000000000085e+02 1.920756821187985963e+02
1.140000000000000000e+02 1.917880048203401202e+02
1.144000000000000057e+02 1.915017346109815719e+02
1.148000000000000114e+02 1.912168596699152374e+02
1.152000000000000028e+02 1.909333683174601219e+02
1.156000000000000085e+02 1.906512490128781110e+02
1.160000000000000000e+02 1.903704903522308314e+02
1.164000000000000057e+02 1.900910810662779227e+02
1.168000000000000114e+02 1.898130100184142748e+02
1.172000000000000028e+02 1.895362662026465443e+02
1.176000000000000085e+02 1.892608387416071594e+02
1.180000000000000000e+02 1.889867168846056984e+02
1.184000000000000057e+02 1.887138900057165642e+02
1.188000000000000114e+02 1.884423476019017301e+02
1.192000000000000028e+02 1.881720792911685578e+02
1.196000000000000085e+02 1.879030748107613249e+02
1.200000000000000000e+02 1.876353240153858906e+02
1.204000000000000057e+02 1.873688168754672461e+02
1.208000000000000114e+02 1.871035434754380162e+02
1.212000000000000028e+02 1.868394940120587648e+02
1.216000000000000085e+02 1.865766587927683418e+02
1.220000000000000000e+02 1.863150282340640160e+02
1.224000000000000057e+02 1.860545928599107697e+02
1.228000000000000114e+02 1.857953433001792121e+02
1.232000000000000028e+02 1.855372702891110066e+02
1.236000000000000085e+02 1.852803646638118948e+02
1.240000000000000000e+02 1.850246173627714654e+02
1.244000000000000057e+02 1.847700194244089289e+02
1.248000000000000114e+02 1.845165619856444437e+02
1.252000000000000028e+02 1.842642362804957656e+02
1.256000000000000085e+02 1.840130336386995111e+02
1.260000000000000000e+02 1.837629454843557824e+02
1.264000000000000057e+02 1.835139633345972356e+02
1.268000000000000114e+02 1.832660787982806880e+02
1.272000000000000028e+02 1.830192835747015465e+02
1.276000000000000085e+02 1.827735694523301504e+02
1.280000000000000000e+02 1.825289283075698847e+02
1.284000000000000057e+02 1.822853521035366384e+02
1.288000000000000114e+02 1.820428328888590670e+02
1.291999999999999886e+02 1.818013627964989496e+02
1.296000000000000227e+02 1.815609340425917253e+02
1.300000000000000000e+02 1.813215389253070668e+02
1.304000000000000057e+02 1.810831698237274736e+02
1.308000000000000114e+02 1.808458191967469588e+02
1.311999999999999886e+02 1.806094795819873582e+02
1.316000000000000227e+02 1.803741435947327147e+02
1.320000000000000000e+02 1.801398039268820810e+02
1.324000000000000057e+02 1.799064533459187203e+02
1.328000000000000114e+02 1.796740846938969582e+02
1.331999999999999886e+02 1.794426908864455186e+02
1.336000000000000227e+02 1.792122649117873152e+02
1.340000000000000000e+02 1.789827998297749900e+02
1.344000000000000057e+02 1.787542887709427077e+02
1.348000000000000114e+02 1.785267249355726449e+02
1.351999999999999886e+02 1.783001015927775086e+02
1.356000000000000227e+02 1.780744120795969252e+02
1.360000000000000000e+02 1.778496498001093471e+02
1.364000000000000057e+02 1.776258082245572041e+02
1.368000000000000114e+02 1.774028808884871751e+02
1.371999999999999886e+02 1.771808613919030790e+02
1.376000000000000227e+02 1.769597433984332326e+02
1.380000000000000000e+02 1.767395206345103134e+02
1.384000000000000057e+02 1.765201868885645524e+02
1.388000000000000114e+02 1.763017360102296607e+02
1.392000000000000171e+02 1.760841619095609474e+02
1.395999999999999943e+02 1.758674585562661719e+02
1.400000000000000000e+02 1.756516199789479344e+02
1.404000000000000057e+02 1.754366402643583172e+02
1.408000000000000114e+02 1.752225135566647793e+02
1.412000000000000171e+02 1.750092340567275357e+02
1.415999999999999943e+02 1.747967960213883032e+02
1.420000000000000000e+02 1.745851937627695918e+02
1.424000000000000057e+02 1.743744216475851658e+02
1.428000000000000114e+02 1.741644740964609639e+02
1.432000000000000171e+02 1.739553455832660802e+02
1.435999999999999943e+02 1.737470306344546316e+02
1.440000000000000000e+02 1.735395238284166339e+02
1.444000000000000057e+02 1.733328197948396792e+02
1.448000000000000114e+02 1.731269132140797637e+02
1.452000000000000171e+02 1.729217988165414681e+02
1.455999999999999943e+02 1.727174713820679983e+02
1.460000000000000000e+02 1.725139257393396122e+02
1.464000000000000057e+02 1.723111567652816802e+02
1.468000000000000114e+02 1.721091593844813303e+02
1.472000000000000171e+02 1.719079285686124763e+02
1.475999999999999943e+02 1.717074593358698849e+02
1.480000000000000000e+02 1.715077467504112860e+02
1.484000000000000057e+02 1.713087859218074982e+02
1.488000000000000114e+02 1.711105720045012504e+02
1.492000000000000171e+02 1.709131001972733088e+02
1.495999999999999943e+02 1.707163657427166186e+02
1.500000000000000000e+02 1.705203639267184599e+02
