1.000000000000000000e+01 8.489157709873134650e+01
1.040000000000000036e+01 8.264561303737367837e+01
1.080000000000000071e+01 8.060921064099629518e+01
1.119999999999999929e+01 7.874724836794015914e+01
1.159999999999999964e+01 7.702249414554880502e+01
1.200000000000000000e+01 7.541811789647478292e+01
1.240000000000000036e+01 7.392015166251806590e+01
1.280000000000000071e+01 7.251687306193623783e+01
1.319999999999999929e+01 7.089703089425900373e+01
1.359999999999999964e+01 6.972842483197503327e+01
1.400000000000000000e+01 6.862517312612851583e+01
1.440000000000000036e+01 6.758110877171691300e+01
1.480000000000000071e+01 6.659087986836996720e+01
1.519999999999999929e+01 6.564981189127152561e+01
1.560000000000000142e+01 6.475021414527836328e+01
1.600000000000000000e+01 6.385808965098166112e+01
1.639999999999999858e+01 6.300674272412918242e+01
1.680000000000000071e+01 6.219305949191208072e+01
1.719999999999999929e+01 6.141425648640329626e+01
1.760000000000000142e+01 6.066783605240278376e+01
1.800000000000000000e+01 5.995154901320265139e+01
1.839999999999999858e+01 5.926336321978656940e+01
1.880000000000000071e+01 5.860143690413217143e+01
1.920000000000000284e+01 5.807659335696534697e+01
1.960000000000000142e+01 5.750790890132182653e+01
2.000000000000000000e+01 5.695809562046590457e+01
2.039999999999999858e+01 5.642610641083848577e+01
2.080000000000000071e+01 5.591097487131777655e+01
2.120000000000000284e+01 5.541180738000014827e+01
2.160000000000000142e+01 5.492777611281620409e+01
2.200000000000000000e+01 5.445811287290219838e+01
2.239999999999999858e+01 5.399947437229450031e+01
2.280000000000000071e+01 5.354192142502824936e+01
2.320000000000000284e+01 5.309757550906270751e+01
2.360000000000000142e+01 5.266579636104020778e+01
2.400000000000000000e+01 5.224598694926714870e+01
2.439999999999999858e+01 5.183758974827738086e+01
2.480000000000000071e+01 5.144008340251898659e+01
2.520000000000000284e+01 5.105297973156308444e+01
2.560000000000000142e+01 5.067582103588648579e+01
2.600000000000000000e+01 5.030817766789209600e+01
2.640000000000000213e+01 4.671573293013699413e+01
2.680000000000000071e+01 4.650122144653175837e+01
2.719999999999999929e+01 4.615877349062053980e+01
2.760000000000000142e+01 4.586536528660406020e+01
2.800000000000000000e+01 4.557829331816431306e+01
2.840000000000000213e+01 4.529732019742695570e+01
2.880000000000000071e+01 4.502222113140958015e+01
2.920000000000000284e+01 4.475278306256089422e+01
2.960000000000000142e+01 4.448880388063417968e+01
3.000000000000000000e+01 4.423009169895090054e+01
3.040000000000000213e+01 4.397646418888348308e+01
3.080000000000000071e+01 4.372774796706266898e+01
3.120000000000000284e+01 4.348379823800107147e+01
3.160000000000000142e+01 4.324607119241826325e+01
3.200000000000000000e+01 4.301269036060683248e+01
3.240000000000000568e+01 4.278351813489454969e+01
3.279999999999999716e+01 4.255842308113690109e+01
3.320000000000000284e+01 4.233727958192130814e+01
3.360000000000000142e+01 4.211996750490879293e+01
3.400000000000000000e+01 4.190637189423006248e+01
3.440000000000000568e+01 4.169638268305176609e+01
3.479999999999999716e+01 4.148989442560421281e+01
3.520000000000000284e+01 4.128680604712109670e+01
3.560000000000000142e+01 4.108702061028225927e+01
3.600000000000000000e+01 4.089044509687852269e+01
3.640000000000000568e+01 4.064089433420388531e+01
3.679999999999999716e+01 4.045352177855205866e+01
3.720000000000000284e+01 4.026901937348585392e+01
3.760000000000000142e+01 4.008731101474363356e+01
3.800000000000000000e+01 3.990832345930164138e+01
3.840000000000000568e+01 3.973198618673179539e+01
3.879999999999999716e+01 3.955823126874949480e+01
3.920000000000000284e+01 3.938699324638270127e+01
3.960000000000000142e+01 3.921820901423913597e+01
4.000000000000000000e+01 3.905181771138855851e+01
4.040000000000000568e+01 3.888776061841598874e+01
4.079999999999999716e+01 3.872598106023514219e+01
4.120000000000000284e+01 3.856642431428292639e+01
4.160000000000000142e+01 3.840861688795628481e+01
4.200000000000000000e+01 3.825084515911302674e+01
4.239999999999999858e+01 3.809521839715878144e+01
4.280000000000000426e+01 3.794168606018741485e+01
4.320000000000000284e+01 3.778940301860298234e+01
4.360000000000000142e+01 3.763303865017087446e+01
4.400000000000000000e+01 3.747874217210508618e+01
4.439999999999999858e+01 3.732646645272249941e+01
4.480000000000000426e+01 3.717616588395079447e+01
4.520000000000000284e+01 3.702779631775985791e+01
4.560000000000000142e+01 3.688131500583251210e+01
4.600000000000000000e+01 3.673668054228002688e+01
4.639999999999999858e+01 3.659385280922150230e+01
4.680000000000000426e+01 3.645279292505837532e+01
4.720000000000000284e+01 3.631346319528660871e+01
4.760000000000000142e+01 3.617582706570023987e+01
4.800000000000000000e+01 3.608833079313701120e+01
4.840000000000000568e+01 3.595429665021472942e+01
4.880000000000000426e+01 3.582184200693988885e+01
4.920000000000000284e+01 3.569093479166417637e+01
4.960000000000000142e+01 3.556154385714251731e+01
5.000000000000000000e+01 3.543363894610863696e+01
5.040000000000000568e+01 3.530719065841789472e+01
5.080000000000000426e+01 3.518217041967343306e+01
5.120000000000000284e+01 3.505855045125650804e+01
5.160000000000000142e+01 3.493630374168689201e+01
5.200000000000000000e+01 3.285797376461503916e+01
5.240000000000000568e+01 3.273068557573522952e+01
5.280000000000000426e+01 3.260482609501028861e+01
5.320000000000000284e+01 3.248036836550012652e+01
5.360000000000000142e+01 3.235728614432474615e+01
5.400000000000000000e+01 3.223571302156173601e+01
5.440000000000000568e+01 3.211617140276772631e+01
5.480000000000000426e+01 3.199791065047464400e+01
5.520000000000000284e+01 3.188090772408475004e+01
5.560000000000000142e+01 3.176514016425517895e+01
5.600000000000000000e+01 3.165058607406399460e+01
5.640000000000000568e+01 3.153722410092022699e+01
5.680000000000000426e+01 3.142503341918336446e+01
5.720000000000000284e+01 3.131399371345946037e+01
5.760000000000000142e+01 3.120408516254301290e+01
5.800000000000000000e+01 3.109528842397486770e+01
5.840000000000000568e+01 3.098758461918867724e+01
5.880000000000000426e+01 3.088095531921920767e+01
5.920000000000000284e+01 3.077538253094762766e+01
5.960000000000000142e+01 3.067084868385990859e+01
6.000000000000000000e+01 3.056733661729583318e+01
6.040000000000000568e+01 3.046482956816717191e+01
6.080000000000000426e+01 3.036331115912471290e+01
6.120000000000000284e+01 3.024445572429494788e+01
6.160000000000000142e+01 3.014465266141799304e+01
6.200000000000000000e+01 3.004579608963138782e+01
6.240000000000000568e+01 2.994787093156445223e+01
6.280000000000000426e+01 2.985086244699947855e+01
6.320000000000000284e+01 2.975475622317866708e+01
6.360000000000000142e+01 2.965953816545102839e+01
6.400000000000000000e+01 2.956519448824543872e+01
6.440000000000000568e+01 2.947171170635625259e+01
6.480000000000001137e+01 2.937907662652889940e+01
6.520000000000000284e+01 2.928727633933305441e+01
6.559999999999999432e+01 2.919629821131199421e+01
6.600000000000000000e+01 2.910612987739699520e+01
6.640000000000000568e+01 2.901675923357620590e+01
6.680000000000001137e+01 2.892817442980793885e+01
6.720000000000000284e+01 2.884036386316874001e+01
6.759999999999999432e+01 2.875331617122725447e+01
6.800000000000000000e+01 2.866689200840185237e+01
6.840000000000000568e+01 2.858107437767343129e+01
6.880000000000001137e+01 2.849599182512559992e+01
6.920000000000000284e+01 2.841163377972375059e+01
6.959999999999999432e+01 2.832798988384982763e+01
7.000000000000000000e+01 2.824504998776161102e+01
7.040000000000000568e+01 2.816280414422759293e+01
7.080000000000001137e+01 2.808124260333096345e+01
7.120000000000000284e+01 2.800035580743626440e+01
7.159999999999999432e+01 2.815337404191621573e+01
7.200000000000000000e+01 2.807788630508269634e+01
7.240000000000000568e+01 2.800300608764441535e+01
7.280000000000001137e+01 2.792872512017599362e+01
7.320000000000000284e+01 2.785503529168470394e+01
7.359999999999999432e+01 2.778192864570186060e+01
7.400000000000000000e+01 2.770939737649191414e+01
7.440000000000000568e+01 2.763743382537523274e+01
7.479999999999999716e+01 2.756603047716048138e+01
7.520000000000000284e+01 2.749517995668276171e+01
7.560000000000000853e+01 2.742487502544383915e+01
7.600000000000000000e+01 2.736500324076242308e+01
7.640000000000000568e+01 2.729561258527132850e+01
7.679999999999999716e+01 2.722674990444634346e+01
7.720000000000000284e+01 2.715597612626572044e+01
7.760000000000000853e+01 2.708536105298966135e+01
7.800000000000000000e+01 2.701528252174005829e+01
7.840000000000000568e+01 2.694573365901818462e+01
7.879999999999999716e+01 2.687670771524788904e+01
7.920000000000000284e+01 2.680819806189774823e+01
7.960000000000000853e+01 2.674019818868512743e+01
8.000000000000000000e+01 2.667270170085895842e+01
8.040000000000000568e+01 2.660570231655893636e+01
8.079999999999999716e+01 2.653919386424843907e+01
8.120000000000000284e+01 2.647317028021881669e+01
8.160000000000000853e+01 2.640762560616260402e+01
8.200000000000000000e+01 2.634255398681359139e+01
8.240000000000000568e+01 2.627794966765134177e+01
8.279999999999999716e+01 2.621380699266835279e+01
8.320000000000000284e+01 2.615012040219752976e+01
8.360000000000000853e+01 2.608696980974050206e+01
8.400000000000000000e+01 2.602441364770812626e+01
8.440000000000000568e+01 2.596229305712660107e+01
8.479999999999999716e+01 2.590060292973231171e+01
8.520000000000000284e+01 2.583933824152485670e+01
8.560000000000000853e+01 2.577849405097728663e+01
8.600000000000000000e+01 2.571806549729269165e+01
8.640000000000000568e+01 2.565804779870589414e+01
8.680000000000001137e+01 2.559843625082879726e+01
8.720000000000000284e+01 2.553922622503800355e+01
8.760000000000000853e+01 2.548041316690351721e+01
8.800000000000000000e+01 2.542199259465733974e+01
8.840000000000000568e+01 2.536396009770054860e+01
8.880000000000001137e+01 2.530631133514796716e+01
8.920000000000000284e+01 2.524904203440917172e+01
8.960000000000000853e+01 2.519214798980478065e+01
9.000000000000000000e+01 2.513562506121701290e+01
9.040000000000000568e+01 2.507946917277351417e+01
9.080000000000001137e+01 2.502367631156344885e+01
9.120000000000000284e+01 2.496824252638496588e+01
9.160000000000000853e+01 2.491316392652313283e+01
9.200000000000000000e+01 2.484992296271470735e+01
9.240000000000000568e+01 2.479560918455037211e+01
9.280000000000001137e+01 2.474163998347394511e+01
9.320000000000000284e+01 2.468801167764546278e+01
9.360000000000000853e+01 2.463472064058868227e+01
9.400000000000000000e+01 2.458176330011843547e+01
9.440000000000000568e+01 2.452913613729325704e+01
9.480000000000001137e+01 2.447683568539287791e+01
9.520000000000000284e+01 2.442485852891960008e+01
9.560000000000000853e+01 2.437320130262308382e+01
9.600000000000000000e+01 2.432186069054783673e+01
9.640000000000000568e+01 2.427083342510272601e+01
9.680000000000001137e+01 2.422011628615207357e+01
9.720000000000000284e+01 2.416970610012751308e+01
9.760000000000000853e+01 2.411959973916025746e+01
9.800000000000000000e+01 2.406979412023310516e+01
9.840000000000000568e+01 2.402028620435169870e+01
9.880000000000001137e+01 2.397107299573451655e+01
9.920000000000000284e+01 2.392215154102103369e+01
9.960000000000000853e+01 2.387288938771506253e+01
1.000000000000000000e+02 2.382371062623631275e+01
1.004000000000000057e+02 2.377482040195933877e+01
1.008000000000000114e+02 2.372607711113550977e+01
1.012000000000000028e+02 2.367757384577883784e+01
1.016000000000000085e+02 2.362935234838479914e+01
1.020000000000000000e+02 2.358140987127810462e+01
1.024000000000000057e+02 2.353374370444275598e+01
1.028000000000000114e+02 2.348635117485739698e+01
1.032000000000000028e+02 2.343922964584494650e+01
1.036000000000000085e+02 2.339237651643612992e+01
1.040000000000000000e+02 2.334578922074683049e+01
1.044000000000000057e+02 2.329946522736851122e+01
1.048000000000000114e+02 2.325340203877169287e+01
1.052000000000000028e+02 2.320759719072205485e+01
1.056000000000000085e+02 2.316204825170876447e+01
1.060000000000000000e+02 2.311675282238487839e+01
1.064000000000000057e+02 2.307170853501941821e+01
1.068000000000000114e+02 2.302691305296082902e+01
1.072000000000000028e+02 2.298236407011162186e+01
1.076000000000000085e+02 2.293805931041383772e+01
1.080000000000000000e+02 2.289399652734508805e+01
1.084000000000000057e+02 2.285017350342500464e+01
1.088000000000000114e+02 2.280658804973165488e+01
1.092000000000000028e+02 2.276323800542795084e+01
1.096000000000000085e+02 2.272012123729749788e+01
1.100000000000000000e+02 2.268111684115321935e+01
1.104000000000000057e+02 2.274175230969846950e+01
1.108000000000000114e+02 2.270180261559455204e+01
1.112000000000000028e+02 2.266205981936617775e+01
1.116000000000000085e+02 2.262252211219335862e+01
1.120000000000000000e+02 2.258318770753303184e+01
1.124000000000000057e+02 2.254405484076513488e+01
1.128000000000000114e+02 2.250512176884566173e+01
1.132000000000000028e+02 2.246638676996636974e+01
1.136000000000000085e+02 2.242784814322110520e+01
1.140000000000000000e+02 2.238950420827853094e+01
1.144000000000000057e+02 2.235135330506109597e+01
1.148000000000000114e+02 2.231339379343022244e+01
1.152000000000000028e+02 2.227562405287736880e+01
1.156000000000000085e+02 2.223804248222106494e+01
1.160000000000000000e+02 2.220064749930957504e+01
1.164000000000000057e+02 2.216343754072923034e+01
1.168000000000000114e+02 2.212641106151821191e+01
1.172000000000000028e+02 2.208956653488566602e+01
1.176000000000000085e+02 2.205290245193607745e+01
1.180000000000000000e+02 2.201641732139875174e+01
1.184000000000000057e+02 2.198010966936232435e+01
1.188000000000000114e+02 2.194397803901411947e+01
1.192000000000000028e+02 2.190802085862752335e+01
1.196000000000000085e+02 2.187222820192833694e+01
1.200000000000000000e+02 2.183660684144089004e+01
1.204000000000000057e+02 2.180115539417173665e+01
1.208000000000000114e+02 2.176587249284961700e+01
1.212000000000000028e+02 2.173075678569499303e+01
1.216000000000000085e+02 2.169580693619375467e+01
1.220000000000000000e+02 2.166102162287490884e+01
1.224000000000000057e+02 2.162639953909233270e+01
1.228000000000000114e+02 2.159193939281030694e+01
1.232000000000000028e+02 2.155763990639290739e+01
1.236000000000000085e+02 2.152349981639702037e+01
1.240000000000000000e+02 2.148951787336917718e+01
1.244000000000000057e+02 2.145569284164574952e+01
1.248000000000000114e+02 2.142202349915676152e+01
1.252000000000000028e+02 2.138850863723307327e+01
1.256000000000000085e+02 2.135514706041693955e+01
1.260000000000000000e+02 2.132193758627578006e+01
1.264000000000000057e+02 2.128887904521926444e+01
1.268000000000000114e+02 2.125597028031945612e+01
1.272000000000000028e+02 2.122321014713406839e+01
1.276000000000000085e+02 2.119059751353274379e+01
1.280000000000000000e+02 2.115813125952630713e+01
1.284000000000000057e+02 2.112581027709886428e+01
1.288000000000000114e+02 2.109363347004278211e+01
1.291999999999999886e+02 2.106159975379648586e+01
1.296000000000000227e+02 2.102712536170975355e+01
1.300000000000000000e+02 2.099552372398962063e+01
1.304000000000000057e+02 2.096406138541559727e+01
1.308000000000000114e+02 2.093273731055460019e+01
1.311999999999999886e+02 2.090155047481104233e+01
1.316000000000000227e+02 2.087049986428050730e+01
1.320000000000000000e+02 2.083958447560598159e+01
1.324000000000000057e+02 2.080880331583631815e+01
1.328000000000000114e+02 2.077815540228711555e+01
1.331999999999999886e+02 2.074763976240384267e+01
1.336000000000000227e+02 2.071725543362720501e+01
1.340000000000000000e+02 2.068700146326064981e+01
1.344000000000000057e+02 2.065687690834013068e+01
1.348000000000000114e+02 2.062688083550585105e+01
1.351999999999999886e+02 2.059701232087617484e+01
1.356000000000000227e+02 2.056727044992350883e+01
1.360000000000000000e+02 2.056257871935089909e+01
1.364000000000000057e+02 2.053405438347116529e+01
1.368000000000000114e+02 2.050564867913190525e+01
1.371999999999999886e+02 2.047736077069675176e+01
1.376000000000000227e+02 2.044918983083412911e+01
1.380000000000000000e+02 2.042113504041072147e+01
1.384000000000000057e+02 2.039319558838656832e+01
1.388000000000000114e+02 2.036537067171186521e+01
1.392000000000000171e+02 2.033765949522530292e+01
1.395999999999999943e+02 2.030998136554206468e+01
1.400000000000000000e+02 2.028238445448145910e+01
1.404000000000000057e+02 2.025489964371709561e+01
1.408000000000000114e+02 2.022752616206424037e+01
1.412000000000000171e+02 2.020026324582353894e+01
1.415999999999999943e+02 2.017311013868725666e+01
1.420000000000000000e+02 2.014606609164689388e+01
1.424000000000000057e+02 2.011913036290222578e+01
1.428000000000000114e+02 2.009230221777175984e+01
1.432000000000000171e+02 2.006558092860453257e+01
1.435999999999999943e+02 2.003896577469325990e+01
1.440000000000000000e+02 2.001217043816594909e+01
1.444000000000000057e+02 1.998521384205321993e+01
1.448000000000000114e+02 1.995836456211500831e+01
1.452000000000000171e+02 1.993162187610474945e+01
1.455999999999999943e+02 1.990498506862942207e+01
1.460000000000000000e+02 1.987845343106560492e+01
1.464000000000000057e+02 1.985202626147681571e+01
1.468000000000000114e+02 1.982570286453211850e+01
1.472000000000000171e+02 1.979948255142586788e+01
1.475999999999999943e+02 1.977336463979872150e+01
1.480000000000000000e+02 1.974734845365977165e+01
1.484000000000000057e+02 1.972143332330987064e+01
1.488000000000000114e+02 1.969561858526603970e+01
1.492000000000000171e+02 1.966990358218705381e+01
1.495999999999999943e+02 1.964428766280003558e+01
1.500000000000000000e+02 1.961877018182818944e+01
