1.000000000000000000e+01 3.713912383271441513e+02
1.040000000000000036e+01 3.976291279158903649e+02
1.080000000000000071e+01 4.255345462493759783e+02
1.119999999999999929e+01 4.569459472397168156e+02
1.159999999999999964e+01 4.658164385158009964e+02
1.200000000000000000e+01 4.794338680638145433e+02
1.240000000000000036e+01 4.882053113038697347e+02
1.280000000000000071e+01 5.041424744390166097e+02
1.319999999999999929e+01 5.282281755762063540e+02
1.359999999999999964e+01 5.529798043042092104e+02
1.400000000000000000e+01 5.742157423986484446e+02
1.440000000000000036e+01 5.755330914117962493e+02
1.480000000000000071e+01 5.654389420884356241e+02
1.519999999999999929e+01 5.559880444343766612e+02
1.560000000000000142e+01 5.471090548563486209e+02
1.600000000000000000e+01 5.387417704136628345e+02
1.639999999999999858e+01 5.308349164473398787e+02
1.680000000000000071e+01 5.233444605217645176e+02
1.719999999999999929e+01 5.162323084269655737e+02
1.760000000000000142e+01 5.094652823185356851e+02
1.800000000000000000e+01 5.030143104269014884e+02
1.839999999999999858e+01 4.968537776260969281e+02
1.880000000000000071e+01 4.909609998469827588e+02
1.920000000000000284e+01 4.853157949294942455e+02
1.960000000000000142e+01 4.799001293588288490e+02
2.000000000000000000e+01 4.746978252846746500e+02
2.039999999999999858e+01 4.696943158530539222e+02
2.080000000000000071e+01 4.648764395733137462e+02
2.120000000000000284e+01 4.602322664628470079e+02
2.160000000000000142e+01 4.557509502432103545e+02
2.200000000000000000e+01 4.514226020330349911e+02
2.239999999999999858e+01 4.472381818879046591e+02
2.280000000000000071e+01 4.431894052419133914e+02
2.320000000000000284e+01 4.392686618585368024e+02
2.360000000000000142e+01 4.354689453355864543e+02
2.400000000000000000e+01 4.317837915570053156e+02
2.439999999999999858e+01 4.282072247630956667e+02
2.480000000000000071e+01 4.247337101355562936e+02
2.520000000000000284e+01 4.213581119759833200e+02
2.560000000000000142e+01 4.180756567051008687e+02
2.600000000000000000e+01 4.148819000317871541e+02
2.640000000000000213e+01 4.117726977412752376e+02
2.680000000000000071e+01 4.087441796349219203e+02
2.719999999999999929e+01 4.057927262229295593e+02
2.760000000000000142e+01 4.029149478290021875e+02
2.800000000000000000e+01 4.001076658141852249e+02
2.840000000000000213e+01 3.973678956677485417e+02
2.880000000000000071e+01 3.946928317472680305e+02
2.920000000000000284e+01 3.920798334791290358e+02
2.960000000000000142e+01 3.895264128553827732e+02
3.000000000000000000e+01 3.870302230839778304e+02
3.040000000000000213e+01 3.845890482674289501e+02
3.080000000000000071e+01 3.822007940004751845e+02
3.120000000000000284e+01 3.798634787906094061e+02
3.160000000000000142e+01 3.775752262168737161e+02
3.200000000000000000e+01 3.753342577522713555e+02
3.240000000000000568e+01 3.731388861837948525e+02
3.279999999999999716e+01 3.709875095715843258e+02
3.320000000000000284e+01 3.688786056952887975e+02
3.360000000000000142e+01 3.668107269414360871e+02
3.400000000000000000e+01 3.647824955906297646e+02
3.440000000000000568e+01 3.627925994678062125e+02
3.479999999999999716e+01 3.608397879226547502e+02
3.520000000000000284e+01 3.589228681107232433e+02
3.560000000000000142e+01 3.570407015487497802e+02
3.600000000000000000e+01 3.551922009204284905e+02
3.640000000000000568e+01 3.533763271111863560e+02
3.679999999999999716e+01 3.515920864526514151e+02
3.720000000000000284e+01 3.498385281593568834e+02
3.760000000000000142e+01 3.481147419419002631e+02
3.800000000000000000e+01 3.464198557822555244e+02
3.840000000000000568e+01 3.447530338582716922e+02
3.879999999999999716e+01 3.431134746055789719e+02
3.920000000000000284e+01 3.415004089061897048e+02
3.960000000000000142e+01 3.399130983940436295e+02
4.000000000000000000e+01 3.383508338686043544e+02
4.040000000000000568e+01 3.368129338083930406e+02
4.079999999999999716e+01 3.352987429770435028e+02
4.120000000000000284e+01 3.338076311150953188e+02
4.160000000000000142e+01 3.323389917113121328e+02
4.200000000000000000e+01 3.308922408478309762e+02
4.239999999999999858e+01 3.294668161139132962e+02
4.280000000000000426e+01 3.280621755834978330e+02
4.320000000000000284e+01 3.266777968521386128e+02
4.360000000000000142e+01 3.253131761292622741e+02
4.400000000000000000e+01 3.239678273820024970e+02
4.439999999999999858e+01 3.226412815271535237e+02
4.480000000000000426e+01 3.213330856680588568e+02
4.520000000000000284e+01 3.200428023734870067e+02
4.560000000000000142e+01 3.187700089957716045e+02
4.600000000000000000e+01 3.175142970256955550e+02
4.639999999999999858e+01 3.162752714817850119e+02
4.680000000000000426e+01 3.150525503318477831e+02
4.720000000000000284e+01 3.138457639447509564e+02
4.760000000000000142e+01 3.126545545705706672e+02
4.800000000000000000e+01 3.114785758473854003e+02
4.840000000000000568e+01 3.103174923331000628e+02
4.880000000000000426e+01 3.091709790608042567e+02
4.920000000000000284e+01 3.080387211162676522e+02
4.960000000000000142e+01 3.069204132362743849e+02
5.000000000000000000e+01 3.058157594265820762e+02
5.040000000000000568e+01 3.047244725983762237e+02
5.080000000000000426e+01 3.036462742221618782e+02
5.120000000000000284e+01 3.025808939981077401e+02
5.160000000000000142e+01 3.015280695419176027e+02
5.200000000000000000e+01 3.004875460853687059e+02
5.240000000000000568e+01 2.994590761907071510e+02
5.280000000000000426e+01 2.984424194781445294e+02
5.320000000000000284e+01 2.974373423657459625e+02
5.360000000000000142e+01 2.964436178210455637e+02
5.400000000000000000e+01 2.954610251237647844e+02
5.440000000000000568e+01 2.944893496390470204e+02
5.480000000000000426e+01 2.935283826006600520e+02
5.520000000000000284e+01 2.925779209036480779e+02
5.560000000000000142e+01 2.916377669059469326e+02
5.600000000000000000e+01 2.907077282385066610e+02
5.640000000000000568e+01 2.897876176234881882e+02
5.680000000000000426e+01 2.888772527001319759e+02
5.720000000000000284e+01 2.879764558579131517e+02
5.760000000000000142e+01 2.870850540766259655e+02
5.800000000000000000e+01 2.862028787730561135e+02
5.840000000000000568e+01 2.853297656539207310e+02
5.880000000000000426e+01 2.844655545747745578e+02
5.920000000000000284e+01 2.836100894045945893e+02
5.960000000000000142e+01 2.827632178957754832e+02
6.000000000000000000e+01 2.819247915592790150e+02
6.040000000000000568e+01 2.810946655446959426e+02
6.080000000000000426e+01 2.802726985249942118e+02
6.120000000000000284e+01 2.794587525857346577e+02
6.160000000000000142e+01 2.786526931185507578e+02
6.200000000000000000e+01 2.778543887186996244e+02
6.240000000000000568e+01 2.770637110864982446e+02
6.280000000000000426e+01 2.762805349324730173e+02
6.320000000000000284e+01 2.755047378860562048e+02
6.360000000000000142e+01 2.747362004076728681e+02
6.400000000000000000e+01 2.739748057040692970e+02
6.440000000000000568e+01 2.732204396467430456e+02
6.480000000000001137e+01 2.724729906933381471e+02
6.520000000000000284e+01 2.717323498118800558e+02
6.559999999999999432e+01 2.709984104077284428e+02
6.600000000000000000e+01 2.702710682531325119e+02
6.640000000000000568e+01 2.695502214192791826e+02
6.680000000000001137e+01 2.688357702107311411e+02
6.720000000000000284e+01 2.681276171021530672e+02
6.759999999999999432e+01 2.674256666772344033e+02
6.800000000000000000e+01 2.667298255697161267e+02
6.840000000000000568e+01 2.660400024064383615e+02
6.880000000000001137e+01 2.653561077523240783e+02
6.920000000000000284e+01 2.646780540572239033e+02
6.959999999999999432e+01 2.640057556045460387e+02
7.000000000000000000e+01 2.633391284616003531e+02
7.040000000000000568e+01 2.626780904315905900e+02
7.080000000000001137e+01 2.620225610071877895e+02
7.120000000000000284e+01 2.613724613256254088e+02
7.159999999999999432e+01 2.607277141252560568e+02
7.200000000000000000e+01 2.600882437035134558e+02
7.240000000000000568e+01 2.594539758762276733e+02
7.280000000000001137e+01 2.588248379382392272e+02
7.320000000000000284e+01 2.582007586252657916e+02
7.359999999999999432e+01 2.575816680769725053e+02
7.400000000000000000e+01 2.569674978012025122e+02
7.440000000000000568e+01 2.563581806393233364e+02
7.479999999999999716e+01 2.557536507326484809e+02
7.520000000000000284e+01 2.551538434898952801e+02
7.560000000000000853e+01 2.545586955556402131e+02
7.600000000000000000e+01 2.539681447797363205e+02
7.640000000000000568e+01 2.533821301876579355e+02
7.679999999999999716e+01 2.528005919517391931e+02
7.720000000000000284e+01 2.522234713632741716e+02
7.760000000000000853e+01 2.516507108054495916e+02
7.800000000000000000e+01 2.510822537270789496e+02
7.840000000000000568e+01 2.505180446171107747e+02
7.879999999999999716e+01 2.499580289798844319e+02
7.920000000000000284e+01 2.494021533111069289e+02
7.960000000000000853e+01 2.488503650745262803e+02
8.000000000000000000e+01 2.483026126792771606e+02
8.040000000000000568e+01 2.477588454578764754e+02
8.079999999999999716e+01 2.472190136448458588e+02
8.120000000000000284e+01 2.466830683559418844e+02
8.160000000000000853e+01 2.461509615679707395e+02
8.200000000000000000e+01 2.456226460991707086e+02
8.240000000000000568e+01 2.450980755901414909e+02
8.279999999999999716e+01 2.445772044853039233e+02
8.320000000000000284e+01 2.440599880148712941e+02
8.360000000000000853e+01 2.435463821773165591e+02
8.400000000000000000e+01 2.430363437223186338e+02
8.440000000000000568e+01 2.425298301341729825e+02
8.479999999999999716e+01 2.420267996156509298e+02
8.520000000000000284e+01 2.415272110722933974e+02
8.560000000000000853e+01 2.410310240971259930e+02
8.600000000000000000e+01 2.405381989557809561e+02
8.640000000000000568e+01 2.400486965720137960e+02
8.680000000000001137e+01 2.395624785136025707e+02
8.720000000000000284e+01 2.390795069786168199e+02
8.760000000000000853e+01 2.385997447820458319e+02
8.800000000000000000e+01 2.381231553427741119e+02
8.840000000000000568e+01 2.376497026708944418e+02
8.880000000000001137e+01 2.371793513553470234e+02
8.920000000000000284e+01 2.367120665518758642e+02
8.960000000000000853e+01 2.362478139712915777e+02
9.000000000000000000e+01 2.357865598680332937e+02
9.040000000000000568e+01 2.353282710290181967e+02
9.080000000000001137e+01 2.348729147627720977e+02
9.120000000000000284e+01 2.344204588888319449e+02
9.160000000000000853e+01 2.339708717274117475e+02
9.200000000000000000e+01 2.335241220893252887e+02
9.240000000000000568e+01 2.330801792661572449e+02
9.280000000000001137e+01 2.326390130206752929e+02
9.320000000000000284e+01 2.322005935774771501e+02
9.360000000000000853e+01 2.317648916138647621e+02
9.400000000000000000e+01 2.313318782509400080e+02
9.440000000000000568e+01 2.309015250449144219e+02
9.480000000000001137e+01 2.304738039786281263e+02
9.520000000000000284e+01 2.300486874532712136e+02
9.560000000000000853e+01 2.296261482803017486e+02
9.600000000000000000e+01 2.292061596735557032e+02
9.640000000000000568e+01 2.287886952415424844e+02
9.680000000000001137e+01 2.283737289799215091e+02
9.720000000000000284e+01 2.279612352641542543e+02
9.760000000000000853e+01 2.275511888423280311e+02
9.800000000000000000e+01 2.271435648281451449e+02
9.840000000000000568e+01 2.267383386940739456e+02
9.880000000000001137e+01 2.263354862646577885e+02
9.920000000000000284e+01 2.259349837099761658e+02
9.960000000000000853e+01 2.255368075392551646e+02
1.000000000000000000e+02 2.251409345946225358e+02
1.004000000000000057e+02 2.247473420450042454e+02
1.008000000000000114e+02 2.243560073801573367e+02
1.012000000000000028e+02 2.239669084048373691e+02
1.016000000000000085e+02 2.235800232330948347e+02
1.020000000000000000e+02 2.231953302826993308e+02
1.024000000000000057e+02 2.228128082696856609e+02
1.028000000000000114e+02 2.224324362030212683e+02
1.032000000000000028e+02 2.220541933793897726e+02
1.036000000000000085e+02 2.216780593780884203e+02
1.040000000000000000e+02 2.213040140560369764e+02
1.044000000000000057e+02 2.209320375428941361e+02
1.048000000000000114e+02 2.205621102362797501e+02
1.052000000000000028e+02 2.201942127970990839e+02
1.056000000000000085e+02 2.198283261449678321e+02
1.060000000000000000e+02 2.194644314537338232e+02
1.064000000000000057e+02 2.191025101470945060e+02
1.068000000000000114e+02 2.187425438943064933e+02
1.072000000000000028e+02 2.183845146059858280e+02
1.076000000000000085e+02 2.180284044299960442e+02
1.080000000000000000e+02 2.176741957474222318e+02
1.084000000000000057e+02 2.173218711686289453e+02
1.088000000000000114e+02 2.169714135293996264e+02
1.092000000000000028e+02 2.166228058871561188e+02
1.096000000000000085e+02 2.162760315172552623e+02
1.100000000000000000e+02 2.159310739093618565e+02
1.104000000000000057e+02 2.155879167638958904e+02
1.108000000000000114e+02 2.152465439885510250e+02
1.112000000000000028e+02 2.149069396948847555e+02
1.116000000000000085e+02 2.145690881949764446e+02
1.120000000000000000e+02 2.142329739981529428e+02
1.124000000000000057e+02 2.138985818077800332e+02
1.128000000000000114e+02 2.135658965181170288e+02
1.132000000000000028e+02 2.132349032112348368e+02
1.136000000000000085e+02 2.129055871539945031e+02
1.140000000000000000e+02 2.125779337950854142e+02
1.144000000000000057e+02 2.122519287621217359e+02
1.148000000000000114e+02 2.119275578587960922e+02
1.152000000000000028e+02 2.116048070620879571e+02
1.156000000000000085e+02 2.112836625195269846e+02
1.160000000000000000e+02 2.109641105465092323e+02
1.164000000000000057e+02 2.106461376236649699e+02
1.168000000000000114e+02 2.103297303942771350e+02
1.172000000000000028e+02 2.100148756617495565e+02
1.176000000000000085e+02 2.097015603871229246e+02
1.180000000000000000e+02 2.093897716866387668e+02
1.184000000000000057e+02 2.090794968293486988e+02
1.188000000000000114e+02 2.087707232347697754e+02
1.192000000000000028e+02 2.084634384705831849e+02
1.196000000000000085e+02 2.081576302503766556e+02
1.200000000000000000e+02 2.078532864314284438e+02
1.204000000000000057e+02 2.075503950125334995e+02
1.208000000000000114e+02 2.072489441318689956e+02
1.212000000000000028e+02 2.069489220648998469e+02
1.216000000000000085e+02 2.066503172223228262e+02
1.220000000000000000e+02 2.063531181480483951e+02
1.224000000000000057e+02 2.060573135172192565e+02
1.228000000000000114e+02 2.057628921342654280e+02
1.232000000000000028e+02 2.054698429309943606e+02
1.236000000000000085e+02 2.051781549647156453e+02
1.240000000000000000e+02 2.048878174163998551e+02
1.244000000000000057e+02 2.045988195888703558e+02
1.248000000000000114e+02 2.043111509050274321e+02
1.252000000000000028e+02 2.040248009061041898e+02
1.256000000000000085e+02 2.037397592499538632e+02
1.260000000000000000e+02 2.034560157093669659e+02
1.264000000000000057e+02 2.031735601704186251e+02
1.268000000000000114e+02 2.028923826308449350e+02
1.272000000000000028e+02 2.026124731984478728e+02
1.276000000000000085e+02 2.023338220895280983e+02
1.280000000000000000e+02 2.020564196273451216e+02
1.284000000000000057e+02 2.017802562406045581e+02
1.288000000000000114e+02 2.015053224619709340e+02
1.291999999999999886e+02 2.012316089266072368e+02
1.296000000000000227e+02 2.009591063707383398e+02
1.300000000000000000e+02 2.006878056302406321e+02
1.304000000000000057e+02 2.004176976392543565e+02
1.308000000000000114e+02 2.001487734288204479e+02
1.311999999999999886e+02 1.998810241255407618e+02
1.316000000000000227e+02 1.996144409502599046e+02
1.320000000000000000e+02 1.993490152167709084e+02
1.324000000000000057e+02 1.990847383305414837e+02
1.328000000000000114e+02 1.988216017874619865e+02
1.331999999999999886e+02 1.985595971726149287e+02
1.336000000000000227e+02 1.982987161590640710e+02
1.340000000000000000e+02 1.980389505066646336e+02
1.344000000000000057e+02 1.977802920608925206e+02
1.348000000000000114e+02 1.975227327516931268e+02
1.351999999999999886e+02 1.972662645923495575e+02
1.356000000000000227e+02 1.970108796783685534e+02
1.360000000000000000e+02 1.967565701863856020e+02
1.364000000000000057e+02 1.965033283730873848e+02
1.368000000000000114e+02 1.962511465741519601e+02
1.371999999999999886e+02 1.960000172032060846e+02
1.376000000000000227e+02 1.957499327507993883e+02
1.380000000000000000e+02 1.955008857833954039e+02
1.384000000000000057e+02 1.952528689423781714e+02
1.388000000000000114e+02 1.950058749430757530e+02
1.392000000000000171e+02 1.947598965737983576e+02
1.395999999999999943e+02 1.945149266948924378e+02
1.400000000000000000e+02 1.942709582378097650e+02
1.404000000000000057e+02 1.940279842041908864e+02
1.408000000000000114e+02 1.937859976649635882e+02
1.412000000000000171e+02 1.935449917594550584e+02
1.415999999999999943e+02 1.933049596945186295e+02
1.420000000000000000e+02 1.930658947436733683e+02
1.424000000000000057e+02 1.928277902462578197e+02
1.428000000000000114e+02 1.925906396065966533e+02
1.432000000000000171e+02 1.923544362931802709e+02
1.435999999999999943e+02 1.921191738378569767e+02
1.440000000000000000e+02 1.918848458350379360e+02
1.444000000000000057e+02 1.916514459409140727e+02
1.448000000000000114e+02 1.914189678726852151e+02
1.452000000000000171e+02 1.911874054078007248e+02
1.455999999999999943e+02 1.909567523832122049e+02
1.460000000000000000e+02 1.907270026946371502e+02
1.464000000000000057e+02 1.904981502958338524e+02
1.468000000000000114e+02 1.902701891978875324e+02
1.472000000000000171e+02 1.900431134685068741e+02
1.475999999999999943e+02 1.898169172313315016e+02
1.480000000000000000e+02 1.895915946652495734e+02
1.484000000000000057e+02 1.893671400037255808e+02
1.488000000000000114e+02 1.891435475341386336e+02
1.492000000000000171e+02 1.889208115971298696e+02
1.495999999999999943e+02 1.886989265859600664e+02
1.500000000000000000e+02 1.884778869458767758e+02
