1.000000000000000000e+01 4.503910879508425751e+02
1.040000000000000036e+01 4.717094380364574135e+02
1.080000000000000071e+01 4.801207846870662479e+02
1.119999999999999929e+01 4.776995347769409932e+02
1.159999999999999964e+01 4.787906352839694364e+02
1.200000000000000000e+01 4.785400940804561287e+02
1.240000000000000036e+01 4.769758900083691060e+02
1.280000000000000071e+01 4.740973374297718692e+02
1.319999999999999929e+01 4.730704630377322246e+02
1.359999999999999964e+01 4.722554801607187756e+02
1.400000000000000000e+01 4.747703849931540390e+02
1.440000000000000036e+01 4.772384170752990258e+02
1.480000000000000071e+01 4.704360396090908694e+02
1.519999999999999929e+01 4.639974282726830097e+02
1.560000000000000142e+01 4.578875612987991417e+02
1.600000000000000000e+01 4.520763327033547512e+02
1.639999999999999858e+01 4.465376456888438952e+02
1.680000000000000071e+01 4.412487118997642028e+02
1.719999999999999929e+01 4.361895015362663344e+02
1.760000000000000142e+01 4.313423060556613677e+02
1.800000000000000000e+01 4.266913862664420094e+02
1.839999999999999858e+01 4.222226861263035858e+02
1.880000000000000071e+01 4.179235977507619282e+02
1.920000000000000284e+01 4.137827668020760257e+02
1.960000000000000142e+01 4.097899300550279236e+02
2.000000000000000000e+01 4.059357788489024870e+02
2.039999999999999858e+01 4.022118435474072839e+02
2.080000000000000071e+01 3.986103951845420852e+02
2.120000000000000284e+01 3.951243612736569730e+02
2.160000000000000142e+01 3.917472533682082485e+02
2.200000000000000000e+01 3.884731044348961859e+02
2.239999999999999858e+01 3.852964144679630181e+02
2.280000000000000071e+01 3.822121030628382528e+02
2.320000000000000284e+01 3.792154678966724646e+02
2.360000000000000142e+01 3.763021482464139353e+02
2.400000000000000000e+01 3.734680928222770717e+02
2.439999999999999858e+01 3.707095313135602055e+02
2.480000000000000071e+01 3.680229491407213231e+02
2.520000000000000284e+01 3.654050649869986387e+02
2.560000000000000142e+01 3.628528107481968163e+02
2.600000000000000000e+01 3.603633135933151266e+02
2.640000000000000213e+01 3.579338798736262106e+02
2.680000000000000071e+01 3.555619806553355602e+02
2.719999999999999929e+01 3.532452386824231212e+02
2.760000000000000142e+01 3.509814166027686042e+02
2.800000000000000000e+01 3.487684063130674872e+02
2.840000000000000213e+01 3.466042192970531914e+02
2.880000000000000071e+01 3.444869778477336695e+02
2.920000000000000284e+01 3.424149070781793966e+02
2.960000000000000142e+01 3.403863276372612745e+02
3.000000000000000000e+01 3.383996490569269326e+02
3.040000000000000213e+01 3.364533636664017422e+02
3.080000000000000071e+01 3.345460410163020697e+02
3.120000000000000284e+01 3.326763227622436716e+02
3.160000000000000142e+01 3.308429179632609021e+02
3.200000000000000000e+01 3.290445987553523537e+02
3.240000000000000568e+01 3.272801963648332162e+02
3.279999999999999716e+01 3.255485974300014504e+02
3.320000000000000284e+01 3.238487406029804561e+02
3.360000000000000142e+01 3.221796134065567685e+02
3.400000000000000000e+01 3.205402493234305439e+02
3.440000000000000568e+01 3.189297250976031819e+02
3.479999999999999716e+01 3.173471582296546671e+02
3.520000000000000284e+01 3.157917046494720807e+02
3.560000000000000142e+01 3.142625565515947983e+02
3.600000000000000000e+01 3.127589403797653631e+02
3.640000000000000568e+01 3.112801149485497945e+02
3.679999999999999716e+01 3.098253696910261397e+02
3.720000000000000284e+01 3.083940230225545633e+02
3.760000000000000142e+01 3.069854208115552865e+02
3.800000000000000000e+01 3.055989349490321842e+02
3.840000000000000568e+01 3.042339620093193844e+02
3.879999999999999716e+01 3.028899219951819646e+02
3.920000000000000284e+01 3.015662571610015448e+02
3.960000000000000142e+01 3.002624309083103071e+02
4.000000000000000000e+01 2.989779267484242382e+02
4.040000000000000568e+01 2.977122473273627747e+02
4.079999999999999716e+01 2.964649135086411889e+02
4.120000000000000284e+01 2.952354635098796507e+02
4.160000000000000142e+01 2.940234520895022001e+02
4.200000000000000000e+01 2.928284497800946156e+02
4.239999999999999858e+01 2.916500421652607429e+02
4.280000000000000426e+01 2.904878291970638884e+02
4.320000000000000284e+01 2.893414245513632181e+02
4.360000000000000142e+01 2.882104550185619019e+02
4.400000000000000000e+01 2.870945599274699589e+02
4.439999999999999858e+01 2.859933906001556352e+02
4.480000000000000426e+01 2.849066098358189265e+02
4.520000000000000284e+01 2.838338914218610967e+02
4.560000000000000142e+01 2.827749196704587007e+02
4.600000000000000000e+01 2.817293889790706771e+02
4.639999999999999858e+01 2.806970034134196794e+02
4.680000000000000426e+01 2.796774763115885207e+02
4.720000000000000284e+01 2.786705299079711722e+02
4.760000000000000142e+01 2.776758949759009170e+02
4.800000000000000000e+01 2.766933104878599465e+02
4.840000000000000568e+01 2.757225232922499458e+02
4.880000000000000426e+01 2.747632878057692665e+02
4.920000000000000284e+01 2.738153657205058380e+02
4.960000000000000142e+01 2.728785257249166989e+02
5.000000000000000000e+01 2.719525432379139147e+02
5.040000000000000568e+01 2.710372001553305381e+02
5.080000000000000426e+01 2.701322846080863087e+02
5.120000000000000284e+01 2.692375907314141159e+02
5.160000000000000142e+01 2.683529184445502551e+02
5.200000000000000000e+01 2.674780732403277170e+02
5.240000000000000568e+01 2.666128659841467652e+02
5.280000000000000426e+01 2.657571127218284346e+02
5.320000000000000284e+01 2.649106344958869954e+02
5.360000000000000142e+01 2.640732571697878370e+02
5.400000000000000000e+01 2.632448112597766112e+02
5.440000000000000568e+01 2.624251317738978742e+02
5.480000000000000426e+01 2.616140580578376102e+02
5.520000000000000284e+01 2.608114336472493733e+02
5.560000000000000142e+01 2.600171061262404919e+02
5.600000000000000000e+01 2.592309269917158190e+02
5.640000000000000568e+01 2.584527515232910559e+02
5.680000000000000426e+01 2.576824386585074649e+02
5.720000000000000284e+01 2.569198508730899562e+02
5.760000000000000142e+01 2.561648540660099798e+02
5.800000000000000000e+01 2.554173174491240843e+02
5.840000000000000568e+01 2.546771134411731339e+02
5.880000000000000426e+01 2.539441175659383703e+02
5.920000000000000284e+01 2.532182083543618489e+02
5.960000000000000142e+01 2.524992672504487814e+02
6.000000000000000000e+01 2.517871785207787525e+02
6.040000000000000568e+01 2.510818291674623310e+02
6.080000000000000426e+01 2.503831088443888575e+02
6.120000000000000284e+01 2.496909097766158538e+02
6.160000000000000142e+01 2.490051266827641427e+02
6.200000000000000000e+01 2.483256567002830479e+02
6.240000000000000568e+01 2.476523993134620980e+02
6.280000000000000426e+01 2.469852562840691803e+02
6.320000000000000284e+01 2.463241315845019699e+02
6.360000000000000142e+01 2.456689313333445739e+02
6.400000000000000000e+01 2.450195637332279830e+02
6.440000000000000568e+01 2.443759390108959622e+02
6.480000000000001137e+01 2.437379693593842376e+02
6.520000000000000284e+01 2.431055688822250715e+02
6.559999999999999432e+01 2.424786535395928126e+02
6.600000000000000000e+01 2.418571410963108974e+02
6.640000000000000568e+01 2.412409510716445880e+02
6.680000000000001137e+01 2.406300046908057766e+02
6.720000000000000284e+01 2.400242248381018726e+02
6.759999999999999432e+01 2.394235360116629181e+02
6.800000000000000000e+01 2.388278642796823874e+02
6.840000000000000568e+01 2.382371372381147978e+02
6.880000000000001137e+01 2.376512839697693380e+02
6.920000000000000284e+01 2.370702350047476159e+02
6.959999999999999432e+01 2.364939222821725480e+02
7.000000000000000000e+01 2.359222791131573729e+02
7.040000000000000568e+01 2.353552401449693150e+02
7.080000000000001137e+01 2.347927413263404901e+02
7.120000000000000284e+01 2.342347198738841882e+02
7.159999999999999432e+01 2.336811142395726506e+02
7.200000000000000000e+01 2.331318640792395342e+02
7.240000000000000568e+01 2.325869102220664217e+02
7.280000000000001137e+01 2.320461946410184737e+02
7.320000000000000284e+01 2.315096604241931573e+02
7.359999999999999432e+01 2.309772517470499338e+02
7.400000000000000000e+01 2.304489138454878230e+02
7.440000000000000568e+01 2.299245929897409724e+02
7.479999999999999716e+01 2.294042364590618206e+02
7.520000000000000284e+01 2.288877925171653942e+02
7.560000000000000853e+01 2.283752103884055202e+02
7.600000000000000000e+01 2.278664402346591089e+02
7.640000000000000568e+01 2.273614331328925573e+02
7.679999999999999716e+01 2.268601410533865135e+02
7.720000000000000284e+01 2.263625168385961501e+02
7.760000000000000853e+01 2.258685141826260292e+02
7.800000000000000000e+01 2.253780876112961664e+02
7.840000000000000568e+01 2.248911924627817598e+02
7.879999999999999716e+01 2.244077848688049244e+02
7.920000000000000284e+01 2.239278217363614942e+02
7.960000000000000853e+01 2.234512607299629394e+02
8.000000000000000000e+01 2.229780602543785335e+02
8.040000000000000568e+01 2.225081794378592122e+02
8.079999999999999716e+01 2.220415781158278605e+02
8.120000000000000284e+01 2.215782168150211362e+02
8.160000000000000853e+01 2.211180567380673097e+02
8.200000000000000000e+01 2.206610597484862524e+02
8.240000000000000568e+01 2.202071883560978449e+02
8.279999999999999716e+01 2.197564057028261004e+02
8.320000000000000284e+01 2.193086755488851054e+02
8.360000000000000853e+01 2.188639622593362333e+02
8.400000000000000000e+01 2.184222307910033578e+02
8.440000000000000568e+01 2.179834466797357493e+02
8.479999999999999716e+01 2.175475760280071995e+02
8.520000000000000284e+01 2.171145854928411723e+02
8.560000000000000853e+01 2.166844422740517189e+02
8.600000000000000000e+01 2.162571141027900978e+02
8.640000000000000568e+01 2.158325692303884580e+02
8.680000000000001137e+01 2.154107764174905242e+02
8.720000000000000284e+01 2.149917049234612705e+02
8.760000000000000853e+01 2.145753244960665143e+02
8.800000000000000000e+01 2.141616053614150701e+02
8.840000000000000568e+01 2.137505182141547380e+02
8.880000000000001137e+01 2.133420342079149634e+02
8.920000000000000284e+01 2.129361249459888086e+02
8.960000000000000853e+01 2.125327624722469295e+02
9.000000000000000000e+01 2.121319192622771084e+02
9.040000000000000568e+01 2.117335682147423199e+02
9.080000000000001137e+01 2.113376826429511652e+02
9.120000000000000284e+01 2.109442362666343911e+02
9.160000000000000853e+01 2.105532032039214414e+02
9.200000000000000000e+01 2.101645579635119248e+02
9.240000000000000568e+01 2.097782754370351768e+02
9.280000000000001137e+01 2.093943308915937109e+02
9.320000000000000284e+01 2.090126999624849873e+02
9.360000000000000853e+01 2.086333586460957576e+02
9.400000000000000000e+01 2.082562832929654348e+02
9.440000000000000568e+01 2.078814506010124319e+02
9.480000000000001137e+01 2.075088376089201176e+02
9.520000000000000284e+01 2.071384216896765338e+02
9.560000000000000853e+01 2.067701805442650880e+02
9.600000000000000000e+01 2.064040921955015051e+02
9.640000000000000568e+01 2.060401349820121482e+02
9.680000000000001137e+01 2.056782875523513781e+02
9.720000000000000284e+01 2.053185288592532345e+02
9.760000000000000853e+01 2.049608381540136293e+02
9.800000000000000000e+01 2.046051949810005510e+02
9.840000000000000568e+01 2.042515791722873075e+02
9.880000000000001137e+01 2.038999708424074129e+02
9.920000000000000284e+01 2.035503503832260606e+02
9.960000000000000853e+01 2.032026984589261076e+02
1.000000000000000000e+02 2.028569960011055286e+02
1.004000000000000057e+02 2.025132242039832136e+02
1.008000000000000114e+02 2.021713645197098685e+02
1.012000000000000028e+02 2.018313986537821734e+02
1.016000000000000085e+02 2.014933085605567271e+02
1.020000000000000000e+02 2.011570764388617931e+02
1.024000000000000057e+02 2.008226847277034608e+02
1.028000000000000114e+02 2.004901161020653149e+02
1.032000000000000028e+02 2.001593534687972920e+02
1.036000000000000085e+02 1.998303799625931276e+02
1.040000000000000000e+02 1.995031789420532391e+02
1.044000000000000057e+02 1.991777339858311393e+02
1.048000000000000114e+02 1.988540288888612508e+02
1.052000000000000028e+02 1.985320476586662721e+02
1.056000000000000085e+02 1.982117745117415666e+02
1.060000000000000000e+02 1.978931938700155513e+02
1.064000000000000057e+02 1.975762903573832148e+02
1.068000000000000114e+02 1.972610487963117407e+02
1.072000000000000028e+02 1.969474542045162480e+02
1.076000000000000085e+02 1.966354917917033163e+02
1.080000000000000000e+02 1.963251469563819569e+02
1.084000000000000057e+02 1.960164052827389582e+02
1.088000000000000114e+02 1.957092525375780667e+02
1.092000000000000028e+02 1.954036746673211837e+02
1.096000000000000085e+02 1.950996577950696178e+02
1.100000000000000000e+02 1.947971882177248233e+02
1.104000000000000057e+02 1.944962524031664088e+02
1.108000000000000114e+02 1.941968369874867903e+02
1.112000000000000028e+02 1.938989287722800441e+02
1.116000000000000085e+02 1.936025147219853864e+02
1.120000000000000000e+02 1.933075819612822670e+02
1.124000000000000057e+02 1.930141177725367356e+02
1.128000000000000114e+02 1.927221095932980575e+02
1.132000000000000028e+02 1.924315450138439019e+02
1.136000000000000085e+02 1.921424117747733362e+02
1.140000000000000000e+02 1.918546977646461755e+02
1.144000000000000057e+02 1.915683910176679774e+02
1.148000000000000114e+02 1.912834797114199148e+02
1.152000000000000028e+02 1.909999521646311678e+02
1.156000000000000085e+02 1.907177968349946866e+02
1.160000000000000000e+02 1.904370023170240529e+02
1.164000000000000057e+02 1.901575573399509551e+02
1.168000000000000114e+02 1.898794507656624262e+02
1.172000000000000028e+02 1.896026715866767347e+02
1.176000000000000085e+02 1.893272089241573326e+02
1.180000000000000000e+02 1.890530520259638365e+02
1.184000000000000057e+02 1.887801902647391898e+02
1.188000000000000114e+02 1.885086131360322952e+02
1.192000000000000028e+02 1.882383102564555770e+02
1.196000000000000085e+02 1.879692713618760536e+02
1.200000000000000000e+02 1.877014863056397758e+02
1.204000000000000057e+02 1.874349450568290649e+02
1.208000000000000114e+02 1.871696376985507868e+02
1.212000000000000028e+02 1.869055544262564013e+02
1.216000000000000085e+02 1.866426855460918830e+02
1.220000000000000000e+02 1.863810214732779116e+02
1.224000000000000057e+02 1.861205527305184546e+02
1.228000000000000114e+02 1.858612699464388811e+02
1.232000000000000028e+02 1.856031638540507629e+02
1.236000000000000085e+02 1.853462252892450124e+02
1.240000000000000000e+02 1.850904451893110831e+02
1.244000000000000057e+02 1.848358145914826878e+02
1.248000000000000114e+02 1.845823246315088113e+02
1.252000000000000028e+02 1.843299665422504745e+02
1.256000000000000085e+02 1.840787316523009167e+02
1.260000000000000000e+02 1.838286113846311878e+02
1.264000000000000057e+02 1.835795972552580793e+02
1.268000000000000114e+02 1.833316808719358164e+02
1.272000000000000028e+02 1.830848539328704021e+02
1.276000000000000085e+02 1.828391082254555613e+02
1.280000000000000000e+02 1.825944356250308829e+02
1.284000000000000057e+02 1.823508280936608799e+02
1.288000000000000114e+02 1.821082776789351101e+02
1.291999999999999886e+02 1.818667765127883627e+02
1.296000000000000227e+02 1.816263168103411658e+02
1.300000000000000000e+02 1.813868908687598491e+02
1.304000000000000057e+02 1.811484910661352785e+02
1.308000000000000114e+02 1.809111098603812025e+02
1.311999999999999886e+02 1.806747397881504185e+02
1.316000000000000227e+02 1.804393734637689874e+02
1.320000000000000000e+02 1.802050035781889505e+02
1.324000000000000057e+02 1.799716228979573032e+02
1.328000000000000114e+02 1.797392242642025622e+02
1.331999999999999886e+02 1.795078005916383290e+02
1.336000000000000227e+02 1.792773448675823147e+02
1.340000000000000000e+02 1.790478501509924740e+02
1.344000000000000057e+02 1.788193095715179766e+02
1.348000000000000114e+02 1.785917163285661218e+02
1.351999999999999886e+02 1.783650636903841189e+02
1.356000000000000227e+02 1.781393449931559019e+02
1.360000000000000000e+02 1.779145536401135246e+02
1.364000000000000057e+02 1.776906831006624259e+02
1.368000000000000114e+02 1.774677269095212750e+02
1.371999999999999886e+02 1.772456786658751753e+02
1.376000000000000227e+02 1.770245320325423108e+02
1.380000000000000000e+02 1.768042807351542649e+02
1.384000000000000057e+02 1.765849185613486725e+02
1.388000000000000114e+02 1.763664393599752316e+02
1.392000000000000171e+02 1.761488370403136514e+02
1.395999999999999943e+02 1.759321055713044188e+02
1.400000000000000000e+02 1.757162389807909619e+02
1.404000000000000057e+02 1.755012313547742906e+02
1.408000000000000114e+02 1.752870768366787786e+02
1.412000000000000171e+02 1.750737696266293710e+02
1.415999999999999943e+02 1.748613039807402743e+02
1.420000000000000000e+02 1.746496742104141049e+02
1.424000000000000057e+02 1.744388746816522939e+02
1.428000000000000114e+02 1.742288998143758363e+02
1.432000000000000171e+02 1.740197440817562438e+02
1.435999999999999943e+02 1.738114020095570993e+02
1.440000000000000000e+02 1.736038681754853883e+02
1.444000000000000057e+02 1.733971372085524081e+02
1.448000000000000114e+02 1.731912037884449092e+02
1.452000000000000171e+02 1.729860626449050471e+02
1.455999999999999943e+02 1.727817085571203393e+02
1.460000000000000000e+02 1.725781363531221473e+02
1.464000000000000057e+02 1.723753409091933122e+02
1.468000000000000114e+02 1.721733171492851397e+02
1.472000000000000171e+02 1.719720600444420029e+02
1.475999999999999943e+02 1.717715646122355224e+02
1.480000000000000000e+02 1.715718259162064214e+02
1.484000000000000057e+02 1.713728390653148494e+02
1.488000000000000114e+02 1.711745992133988068e+02
1.492000000000000171e+02 1.709771015586402996e+02
1.495999999999999943e+02 1.707803413430396517e+02
1.500000000000000000e+02 1.705843138518971500e+02
