1.000000000000000000e+01 8.544486758585600228e+01
1.040000000000000036e+01 8.705568771479973122e+01
1.080000000000000071e+01 8.667562038550138936e+01
1.119999999999999929e+01 9.137642766110633374e+01
1.159999999999999964e+01 9.255562192628329399e+01
1.200000000000000000e+01 8.986105142380920086e+01
1.240000000000000036e+01 8.746529124060614890e+01
1.280000000000000071e+01 8.529189653223502887e+01
1.319999999999999929e+01 8.330521524482385587e+01
1.359999999999999964e+01 8.147764999727428403e+01
1.400000000000000000e+01 7.978735300525761431e+01
1.440000000000000036e+01 7.821670375897484462e+01
1.480000000000000071e+01 7.675126717419605882e+01
1.519999999999999929e+01 7.539459142765348076e+01
1.560000000000000142e+01 7.418544688675181931e+01
1.600000000000000000e+01 7.304299868220985559e+01
1.639999999999999858e+01 7.196086946123554640e+01
1.680000000000000071e+01 7.093355387971416803e+01
1.719999999999999929e+01 6.995626418676948788e+01
1.760000000000000142e+01 6.902480906259967242e+01
1.800000000000000000e+01 6.813549736772060328e+01
1.839999999999999858e+01 6.728506082630391916e+01
1.880000000000000071e+01 6.647059129005529599e+01
1.920000000000000284e+01 6.568948936438280839e+01
1.960000000000000142e+01 6.493942198549245859e+01
2.000000000000000000e+01 5.987844133886469677e+01
2.039999999999999858e+01 5.915138992485001523e+01
2.080000000000000071e+01 5.749850324488817677e+01
2.120000000000000284e+01 5.682862841354777572e+01
2.160000000000000142e+01 5.618230299265605510e+01
2.200000000000000000e+01 5.555812679882831162e+01
2.239999999999999858e+01 5.495481685376554992e+01
2.280000000000000071e+01 5.437119476532781448e+01
2.320000000000000284e+01 5.380617576320577911e+01
2.360000000000000142e+01 5.325875913455411137e+01
2.400000000000000000e+01 5.272801984973385458e+01
2.439999999999999858e+01 5.221310120427281021e+01
2.480000000000000071e+01 5.171320833220922708e+01
2.520000000000000284e+01 5.122760246959821728e+01
2.560000000000000142e+01 5.075559586625623609e+01
2.600000000000000000e+01 5.029654725966997830e+01
2.640000000000000213e+01 4.984780901408980469e+01
2.680000000000000071e+01 4.939713841961574303e+01
2.719999999999999929e+01 4.896822546174709601e+01
2.760000000000000142e+01 4.859162018076447964e+01
2.800000000000000000e+01 4.822444050004679639e+01
2.840000000000000213e+01 4.785822239248374643e+01
2.880000000000000071e+01 4.748695437523632279e+01
2.920000000000000284e+01 4.712470625988556350e+01
2.960000000000000142e+01 4.677110617765644207e+01
3.000000000000000000e+01 4.642580373418290662e+01
3.040000000000000213e+01 4.608846842413671396e+01
3.080000000000000071e+01 4.575878818774071277e+01
3.120000000000000284e+01 4.543646809429990441e+01
3.160000000000000142e+01 4.512122913966361182e+01
3.200000000000000000e+01 4.481280714607164839e+01
3.240000000000000568e+01 4.451095175417518135e+01
3.279999999999999716e+01 4.421542549818603618e+01
3.320000000000000284e+01 4.392600295612275119e+01
3.360000000000000142e+01 4.364246996800912370e+01
3.400000000000000000e+01 4.336462291565737814e+01
3.440000000000000568e+01 4.328119109295708711e+01
3.479999999999999716e+01 4.302587123847110462e+01
3.520000000000000284e+01 4.277536165385618006e+01
3.560000000000000142e+01 4.252950762144760688e+01
3.600000000000000000e+01 4.228816142633561981e+01
3.640000000000000568e+01 4.205118194951435839e+01
3.679999999999999716e+01 4.181843428979520638e+01
3.720000000000000284e+01 4.158978941209418423e+01
3.760000000000000142e+01 4.136512381993194509e+01
3.800000000000000000e+01 4.114431925018703140e+01
3.840000000000000568e+01 4.092726238832558039e+01
3.879999999999999716e+01 4.071384460249284132e+01
3.920000000000000284e+01 4.050396169499793331e+01
3.960000000000000142e+01 4.029751366985490790e+01
4.000000000000000000e+01 4.009440451516005055e+01
4.040000000000000568e+01 3.989454199919267552e+01
4.079999999999999716e+01 3.969783747922178918e+01
4.120000000000000284e+01 3.950420572208771830e+01
4.160000000000000142e+01 3.931356473570606624e+01
4.200000000000000000e+01 3.912495673537037533e+01
4.239999999999999858e+01 3.893806583124288778e+01
4.280000000000000426e+01 3.908068589671840698e+01
4.320000000000000284e+01 3.891409475912995219e+01
4.360000000000000142e+01 3.874984754783154273e+01
4.400000000000000000e+01 3.858788744413745064e+01
4.439999999999999858e+01 3.842815957864797127e+01
4.480000000000000426e+01 3.827061094508605521e+01
4.520000000000000284e+01 3.811519031878074060e+01
4.560000000000000142e+01 3.796184817950219070e+01
4.600000000000000000e+01 3.781053663837484180e+01
4.639999999999999858e+01 3.766120936861496205e+01
4.680000000000000426e+01 3.751382153985697698e+01
4.720000000000000284e+01 3.736832975584925975e+01
4.760000000000000142e+01 3.722469199531640527e+01
4.800000000000000000e+01 3.708286755579768368e+01
4.840000000000000568e+01 3.694281700028594173e+01
4.880000000000000426e+01 3.680450210650201370e+01
4.920000000000000284e+01 3.666788581865144891e+01
4.960000000000000142e+01 3.653293220152056620e+01
5.000000000000000000e+01 3.639960639677785537e+01
5.040000000000000568e+01 3.626787458135637365e+01
5.080000000000000426e+01 3.613770392779993301e+01
5.120000000000000284e+01 3.600906256646410952e+01
5.160000000000000142e+01 3.588795672482798693e+01
5.200000000000000000e+01 3.380784698396819721e+01
5.240000000000000568e+01 3.367884363161256545e+01
5.280000000000000426e+01 3.355133145853943688e+01
5.320000000000000284e+01 3.342528145928135785e+01
5.360000000000000142e+01 3.330066541950972692e+01
5.400000000000000000e+01 3.317745588832261916e+01
5.440000000000000568e+01 3.305562615171629659e+01
5.480000000000000426e+01 3.293515020718105291e+01
5.520000000000000284e+01 3.281600273936498979e+01
5.560000000000000142e+01 3.269815909675300247e+01
5.600000000000000000e+01 3.258159526931096650e+01
5.640000000000000568e+01 3.246628786704809499e+01
5.680000000000000426e+01 3.235221409945287974e+01
5.720000000000000284e+01 3.223687937210959831e+01
5.760000000000000142e+01 3.212183403152427275e+01
5.800000000000000000e+01 3.200801040547960241e+01
5.840000000000000568e+01 3.189538668432388846e+01
5.880000000000000426e+01 3.178394160473926178e+01
5.920000000000000284e+01 3.167365443215047804e+01
5.960000000000000142e+01 3.156450494382507799e+01
6.000000000000000000e+01 3.145647341263281049e+01
6.040000000000000568e+01 3.134954059143402816e+01
6.080000000000000426e+01 3.124330247882961231e+01
6.120000000000000284e+01 3.113732654534345556e+01
6.160000000000000142e+01 3.103241259167015542e+01
6.200000000000000000e+01 3.092854274696148664e+01
6.240000000000000568e+01 3.082569956216580920e+01
6.280000000000000426e+01 3.072386599723730072e+01
6.320000000000000284e+01 3.062302540881823631e+01
6.360000000000000142e+01 3.052316153837401203e+01
6.400000000000000000e+01 3.042425850076106997e+01
6.440000000000000568e+01 3.032630077320900241e+01
6.480000000000001137e+01 3.022927318469952951e+01
6.520000000000000284e+01 3.013316090572511285e+01
6.559999999999999432e+01 3.003794943841138121e+01
6.600000000000000000e+01 2.994362460698808803e+01
6.640000000000000568e+01 2.985017254859422309e+01
6.680000000000001137e+01 2.975757970440320221e+01
6.720000000000000284e+01 2.966583281105523540e+01
6.759999999999999432e+01 2.957491889238425742e+01
6.800000000000000000e+01 2.948482525142750887e+01
6.840000000000000568e+01 2.939553946270624252e+01
6.880000000000001137e+01 2.930704936476692524e+01
6.920000000000000284e+01 2.921934305297241252e+01
6.959999999999999432e+01 2.913240887253329703e+01
7.000000000000000000e+01 2.904623541176990642e+01
7.040000000000000568e+01 2.896081149559610424e+01
7.080000000000001137e+01 2.887612617921610436e+01
7.120000000000000284e+01 2.879216874202623089e+01
7.159999999999999432e+01 2.870892868171367951e+01
7.200000000000000000e+01 2.864883542845870323e+01
7.240000000000000568e+01 2.856800165079079790e+01
7.280000000000001137e+01 2.848784323289005371e+01
7.320000000000000284e+01 2.840835069192749529e+01
7.359999999999999432e+01 2.832951473194017211e+01
7.400000000000000000e+01 2.825132623909782836e+01
7.440000000000000568e+01 2.817377627711610089e+01
7.479999999999999716e+01 2.809685608281052538e+01
7.520000000000000284e+01 2.802055706178654759e+01
7.560000000000000853e+01 2.794487078426037385e+01
7.600000000000000000e+01 2.786978898100629820e+01
7.640000000000000568e+01 2.779530353942565313e+01
7.679999999999999716e+01 2.782922423002216306e+01
7.720000000000000284e+01 2.775552447393130961e+01
7.760000000000000853e+01 2.768202104115350082e+01
7.800000000000000000e+01 2.760909110271489197e+01
7.840000000000000568e+01 2.753672713422655605e+01
7.879999999999999716e+01 2.746492175000179969e+01
7.920000000000000284e+01 2.739366769976695082e+01
7.960000000000000853e+01 2.732295786546741567e+01
8.000000000000000000e+01 2.725278525816575836e+01
8.040000000000000568e+01 2.718314301502860175e+01
8.079999999999999716e+01 2.711402439639935835e+01
8.120000000000000284e+01 2.704542278295405566e+01
8.160000000000000853e+01 2.697733167293720413e+01
8.200000000000000000e+01 2.690974467947532744e+01
8.240000000000000568e+01 2.684265552796535204e+01
8.279999999999999716e+01 2.677605805353557145e+01
8.320000000000000284e+01 2.670989890325993343e+01
8.360000000000000853e+01 2.664409255289054101e+01
8.400000000000000000e+01 2.657876111390313056e+01
8.440000000000000568e+01 2.651389882701078449e+01
8.479999999999999716e+01 2.644950003105756053e+01
8.520000000000000284e+01 2.638555916086711051e+01
8.560000000000000853e+01 2.632207074514887069e+01
8.600000000000000000e+01 2.625902940446015066e+01
8.640000000000000568e+01 2.619642984922202089e+01
8.680000000000001137e+01 2.613426687778785151e+01
8.720000000000000284e+01 2.607253537456226766e+01
8.760000000000000853e+01 2.601123030816941295e+01
8.800000000000000000e+01 2.595034672966882283e+01
8.840000000000000568e+01 2.588987977081740155e+01
8.880000000000001137e+01 2.582982464237620590e+01
8.920000000000000284e+01 2.577017663246059698e+01
8.960000000000000853e+01 2.571093110493245959e+01
9.000000000000000000e+01 2.565208349783333830e+01
9.040000000000000568e+01 2.559362932185695882e+01
9.080000000000001137e+01 2.553556415886041719e+01
9.120000000000000284e+01 2.547788366041246633e+01
9.160000000000000853e+01 2.542058354637796569e+01
9.200000000000000000e+01 2.536365960353758453e+01
9.240000000000000568e+01 2.530710768424142643e+01
9.280000000000001137e+01 2.525092370509586814e+01
9.320000000000000284e+01 2.519510364568239780e+01
9.360000000000000853e+01 2.513964354730779505e+01
9.400000000000000000e+01 2.508453951178447383e+01
9.440000000000000568e+01 2.502978770024037658e+01
9.480000000000001137e+01 2.497538433195740737e+01
9.520000000000000284e+01 2.492132568323762953e+01
9.560000000000000853e+01 2.486760808629656339e+01
9.600000000000000000e+01 2.481135782561862158e+01
9.640000000000000568e+01 2.475874231911830137e+01
9.680000000000001137e+01 2.470619392668480074e+01
9.720000000000000284e+01 2.465396892945586416e+01
9.760000000000000853e+01 2.460206527299724399e+01
9.800000000000000000e+01 2.455047964129367344e+01
9.840000000000000568e+01 2.449920876635860267e+01
9.880000000000001137e+01 2.444824942733983875e+01
9.920000000000000284e+01 2.439759844964538615e+01
9.960000000000000853e+01 2.434725270408918618e+01
1.000000000000000000e+02 2.429720910605604445e+01
1.004000000000000057e+02 2.424746461468533809e+01
1.008000000000000114e+02 2.419801623207298036e+01
1.012000000000000028e+02 2.414886100249108480e+01
1.016000000000000085e+02 2.409999601162504845e+01
1.020000000000000000e+02 2.405141838582733982e+01
1.024000000000000057e+02 2.400312529138786743e+01
1.028000000000000114e+02 2.395511393382012955e+01
1.032000000000000028e+02 2.390738155716315561e+01
1.036000000000000085e+02 2.385992544329841536e+01
1.040000000000000000e+02 2.381274291128165999e+01
1.044000000000000057e+02 2.376583131668908067e+01
1.048000000000000114e+02 2.371918805097755367e+01
1.052000000000000028e+02 2.367281054085853498e+01
1.056000000000000085e+02 2.362669624768530241e+01
1.060000000000000000e+02 2.358084266685323271e+01
1.064000000000000057e+02 2.353524732721269430e+01
1.068000000000000114e+02 2.348990779049434607e+01
1.072000000000000028e+02 2.344482165074648705e+01
1.076000000000000085e+02 2.339998653378412641e+01
1.080000000000000000e+02 2.335540009664958205e+01
1.084000000000000057e+02 2.331106002708418856e+01
1.088000000000000114e+02 2.326689676851868427e+01
1.092000000000000028e+02 2.322282400276518999e+01
1.096000000000000085e+02 2.317899259321013261e+01
1.100000000000000000e+02 2.313540032504893773e+01
1.104000000000000057e+02 2.319519249171493414e+01
1.108000000000000114e+02 2.315440779560911366e+01
1.112000000000000028e+02 2.311383819133118322e+01
1.116000000000000085e+02 2.307348176583236921e+01
1.120000000000000000e+02 2.303333663000503151e+01
1.124000000000000057e+02 2.299340091829669319e+01
1.128000000000000114e+02 2.295367278833183633e+01
1.132000000000000028e+02 2.291415042054090634e+01
1.136000000000000085e+02 2.287483201779676989e+01
1.140000000000000000e+02 2.283571580505820009e+01
1.144000000000000057e+02 2.279680002902018643e+01
1.148000000000000114e+02 2.275808295777116541e+01
1.152000000000000028e+02 2.271956288045676686e+01
1.156000000000000085e+02 2.268123810695003328e+01
1.160000000000000000e+02 2.264310696752799856e+01
1.164000000000000057e+02 2.260516781255435248e+01
1.168000000000000114e+02 2.256741901216823010e+01
1.172000000000000028e+02 2.252985895597884536e+01
1.176000000000000085e+02 2.249248605276587298e+01
1.180000000000000000e+02 2.245529873018553602e+01
1.184000000000000057e+02 2.241829543448215745e+01
1.188000000000000114e+02 2.238147463020504446e+01
1.192000000000000028e+02 2.234483479993077992e+01
1.196000000000000085e+02 2.230837444399055158e+01
1.200000000000000000e+02 2.227209208020256170e+01
1.204000000000000057e+02 2.223598624360936782e+01
1.208000000000000114e+02 2.219901078464051380e+01
1.212000000000000028e+02 2.216374614205744464e+01
1.216000000000000085e+02 2.212865083975359681e+01
1.220000000000000000e+02 2.209372350340494506e+01
1.224000000000000057e+02 2.205896277440544395e+01
1.228000000000000114e+02 2.202436730963518841e+01
1.232000000000000028e+02 2.199502150899352770e+01
1.236000000000000085e+02 2.196097601564660096e+01
1.240000000000000000e+02 2.192709039147034389e+01
1.244000000000000057e+02 2.189336336711663122e+01
1.248000000000000114e+02 2.185979368744298768e+01
1.252000000000000028e+02 2.182638011130751465e+01
1.256000000000000085e+02 2.179312141136746561e+01
1.260000000000000000e+02 2.176001637388134569e+01
1.264000000000000057e+02 2.172706379851456404e+01
1.268000000000000114e+02 2.169426249814839025e+01
1.272000000000000028e+02 2.166161129869229995e+01
1.276000000000000085e+02 2.162910903889955705e+01
1.280000000000000000e+02 2.159675457018597911e+01
1.284000000000000057e+02 2.156454675645192864e+01
1.288000000000000114e+02 2.153248447390718212e+01
1.291999999999999886e+02 2.150056661089900700e+01
1.296000000000000227e+02 2.146879206774303128e+01
1.300000000000000000e+02 2.143715975655708306e+01
1.304000000000000057e+02 2.140566860109780478e+01
1.308000000000000114e+02 2.137431753660004574e+01
1.311999999999999886e+02 2.134310550961901853e+01
1.316000000000000227e+02 2.131203147787501706e+01
1.320000000000000000e+02 2.128109441010082037e+01
1.324000000000000057e+02 2.125029328589161537e+01
1.328000000000000114e+02 2.121962709555743487e+01
1.331999999999999886e+02 2.118909483997803278e+01
1.336000000000000227e+02 2.115869553046019647e+01
1.340000000000000000e+02 2.112842818859737548e+01
1.344000000000000057e+02 2.109829184613165509e+01
1.348000000000000114e+02 2.106828554481797156e+01
1.351999999999999886e+02 2.103840833629059048e+01
1.356000000000000227e+02 2.100865928193170973e+01
1.360000000000000000e+02 2.097903745274226850e+01
1.364000000000000057e+02 2.094954192921476377e+01
1.368000000000000114e+02 2.092017180120821251e+01
1.371999999999999886e+02 2.089092616782509282e+01
1.376000000000000227e+02 2.086180127198418077e+01
1.380000000000000000e+02 2.083275404541207010e+01
1.384000000000000057e+02 2.080382888172342604e+01
1.388000000000000114e+02 2.077502491434766085e+01
1.392000000000000171e+02 2.074634128538442468e+01
1.395999999999999943e+02 2.071777714549176252e+01
1.400000000000000000e+02 2.068933165377598371e+01
1.404000000000000057e+02 2.066100397768327923e+01
1.408000000000000114e+02 2.063279329289305508e+01
1.412000000000000171e+02 2.060469878321290338e+01
1.415999999999999943e+02 2.057671964047524682e+01
1.420000000000000000e+02 2.054885506443556764e+01
1.424000000000000057e+02 2.052110426267224241e+01
1.428000000000000114e+02 2.049346645048788673e+01
1.432000000000000171e+02 2.046594085081225955e+01
1.435999999999999943e+02 2.043852669410665968e+01
1.440000000000000000e+02 2.041093761424691522e+01
1.444000000000000057e+02 2.038319248658231331e+01
1.448000000000000114e+02 2.035555983975388017e+01
1.452000000000000171e+02 2.032787448524301155e+01
1.455999999999999943e+02 2.030025983880120677e+01
1.460000000000000000e+02 2.027275653001878553e+01
1.464000000000000057e+02 2.024536380276331826e+01
1.468000000000000114e+02 2.021808090813124181e+01
1.472000000000000171e+02 2.019090710435871117e+01
1.475999999999999943e+02 2.016384165673393980e+01
1.480000000000000000e+02 2.013688383751074795e+01
1.484000000000000057e+02 2.011003292582348223e+01
1.488000000000000114e+02 2.008328820760316091e+01
1.492000000000000171e+02 2.005664897549487335e+01
1.495999999999999943e+02 2.003011452877647258e+01
1.500000000000000000e+02 2.000368417327832660e+01
