1.000000000000000000e+01 1.818584154386299758e+02
1.040000000000000036e+01 1.840508546484994099e+02
1.080000000000000071e+01 1.828639983887815674e+02
1.119999999999999929e+01 1.819279227737870883e+02
1.159999999999999964e+01 1.765220821466054417e+02
1.200000000000000000e+01 1.716038062735154313e+02
1.240000000000000036e+01 1.670961731623485775e+02
1.280000000000000071e+01 1.629397868960963081e+02
1.319999999999999929e+01 1.590876037086209465e+02
1.359999999999999964e+01 1.557656120368034465e+02
1.400000000000000000e+01 1.528828526689671889e+02
1.440000000000000036e+01 1.501711610581433547e+02
1.480000000000000071e+01 1.476133194136577060e+02
1.519999999999999929e+01 1.452100891645726506e+02
1.560000000000000142e+01 1.429975313281672982e+02
1.600000000000000000e+01 1.408922234519150720e+02
1.639999999999999858e+01 1.388853443649680912e+02
1.680000000000000071e+01 1.369818601297243674e+02
1.719999999999999929e+01 1.355646351919348831e+02
1.760000000000000142e+01 1.301066322551097301e+02
1.800000000000000000e+01 1.286225642736336283e+02
1.839999999999999858e+01 1.272005996135284960e+02
1.880000000000000071e+01 1.258362772953987729e+02
1.920000000000000284e+01 1.245255881400825047e+02
1.960000000000000142e+01 1.232649158249826939e+02
2.000000000000000000e+01 1.220509873256416142e+02
2.039999999999999858e+01 1.208808309851941800e+02
2.080000000000000071e+01 1.187998532811390646e+02
2.120000000000000284e+01 1.177076898703251828e+02
2.160000000000000142e+01 1.166194142114716641e+02
2.200000000000000000e+01 1.155669941572029131e+02
2.239999999999999858e+01 1.145484180665691696e+02
2.280000000000000071e+01 1.135618323982235438e+02
2.320000000000000284e+01 1.126055258021795140e+02
2.360000000000000142e+01 1.116779151557619230e+02
2.400000000000000000e+01 1.107775332651179383e+02
2.439999999999999858e+01 1.099030179993138177e+02
2.480000000000000071e+01 1.090531026613084862e+02
2.520000000000000284e+01 1.082266074306731269e+02
2.560000000000000142e+01 1.074224317381433877e+02
2.600000000000000000e+01 1.066395474529845444e+02
2.640000000000000213e+01 1.058749439575533984e+02
2.680000000000000071e+01 1.051160375789144297e+02
2.719999999999999929e+01 1.047498278105362601e+02
2.760000000000000142e+01 1.041220905331453395e+02
2.800000000000000000e+01 1.035090485776761113e+02
2.840000000000000213e+01 1.029101007527726637e+02
2.880000000000000071e+01 1.023246805470149496e+02
2.920000000000000284e+01 1.017522535656712535e+02
2.960000000000000142e+01 1.011923151974536808e+02
3.000000000000000000e+01 1.006443884870781744e+02
3.040000000000000213e+01 1.001080221923425881e+02
3.080000000000000071e+01 9.958278900695648872e+01
3.120000000000000284e+01 9.906828393253991294e+01
3.160000000000000142e+01 8.957346670628085405e+01
3.200000000000000000e+01 8.897687147564576549e+01
3.240000000000000568e+01 8.839256281545461036e+01
3.279999999999999716e+01 8.782011506488859709e+01
3.320000000000000284e+01 8.725512763510451464e+01
3.360000000000000142e+01 8.669783436605041516e+01
3.400000000000000000e+01 8.615155942812364742e+01
3.440000000000000568e+01 8.580485873581267242e+01
3.479999999999999716e+01 8.529126344445340635e+01
3.520000000000000284e+01 8.478731362473155286e+01
3.560000000000000142e+01 8.429270326677838909e+01
3.600000000000000000e+01 8.380713991674522845e+01
3.640000000000000568e+01 8.333034391023781495e+01
3.679999999999999716e+01 8.286204765829283758e+01
3.720000000000000284e+01 8.240199498167530123e+01
3.760000000000000142e+01 8.194994048966569267e+01
3.800000000000000000e+01 8.150564899985093348e+01
3.840000000000000568e+01 8.106889499574826630e+01
3.879999999999999716e+01 8.063946211936963948e+01
3.920000000000000284e+01 8.021714269608871462e+01
3.960000000000000142e+01 7.980173728939983846e+01
4.000000000000000000e+01 7.939305428336442105e+01
4.040000000000000568e+01 7.905958926889277905e+01
4.079999999999999716e+01 7.866910985482023477e+01
4.120000000000000284e+01 7.828469127927115778e+01
4.160000000000000142e+01 7.790617424313101935e+01
4.200000000000000000e+01 7.753252643223832763e+01
4.239999999999999858e+01 7.716336007812643061e+01
4.280000000000000426e+01 7.679969577987723994e+01
4.320000000000000284e+01 7.644139455445920817e+01
4.360000000000000142e+01 7.608832233825313551e+01
4.400000000000000000e+01 7.574034976418565179e+01
4.439999999999999858e+01 7.539735195112511690e+01
4.480000000000000426e+01 7.505920830474717320e+01
4.520000000000000284e+01 7.472580232913765030e+01
4.560000000000000142e+01 7.439702144845297482e+01
4.600000000000000000e+01 7.407275683800753541e+01
4.639999999999999858e+01 7.375172878188183745e+01
4.680000000000000426e+01 7.342519104044787071e+01
4.720000000000000284e+01 7.310300371474755821e+01
4.760000000000000142e+01 7.278493149445770882e+01
4.800000000000000000e+01 7.246952661280081998e+01
4.840000000000000568e+01 7.215819816817649723e+01
4.880000000000000426e+01 7.185085734615472575e+01
4.920000000000000284e+01 7.154741804837679808e+01
4.960000000000000142e+01 7.124779678595413657e+01
5.000000000000000000e+01 7.095191257796102491e+01
5.040000000000000568e+01 7.065968685473430355e+01
5.080000000000000426e+01 7.037104336571286467e+01
5.120000000000000284e+01 7.008590809156588364e+01
5.160000000000000142e+01 6.981024633573406390e+01
5.200000000000000000e+01 6.757747893530623173e+01
5.240000000000000568e+01 6.729767757055101640e+01
5.280000000000000426e+01 6.702118951972120442e+01
5.320000000000000284e+01 6.674794932003331382e+01
5.360000000000000142e+01 6.647789331707004123e+01
5.400000000000000000e+01 6.621095960074922004e+01
5.440000000000000568e+01 6.594708794405256924e+01
5.480000000000000426e+01 6.568621974437448330e+01
5.520000000000000284e+01 6.542829796735892955e+01
5.560000000000000142e+01 6.517326709310017918e+01
5.600000000000000000e+01 6.492284738168562797e+01
5.640000000000000568e+01 6.467654930581132078e+01
5.680000000000000426e+01 6.443294021591589171e+01
5.720000000000000284e+01 6.419197102697086166e+01
5.760000000000000142e+01 6.395359390828770785e+01
5.800000000000000000e+01 6.371776224240016973e+01
5.840000000000000568e+01 6.348443058558794405e+01
5.880000000000000426e+01 6.325355462996479616e+01
5.920000000000000284e+01 6.302509116705815728e+01
5.960000000000000142e+01 6.279899805281124259e+01
6.000000000000000000e+01 6.257523417394197907e+01
6.040000000000000568e+01 6.235375941559730251e+01
6.080000000000000426e+01 6.213414941100509026e+01
6.120000000000000284e+01 6.191595175216631475e+01
6.160000000000000142e+01 6.169994683319346507e+01
6.200000000000000000e+01 6.148609783424275577e+01
6.240000000000000568e+01 6.127436880103055472e+01
6.280000000000000426e+01 6.106472461872709800e+01
6.320000000000000284e+01 6.085713098680966482e+01
6.360000000000000142e+01 6.065155439483321231e+01
6.400000000000000000e+01 6.044796209907934781e+01
6.440000000000000568e+01 6.024559566268347766e+01
6.480000000000001137e+01 6.004465731950266161e+01
6.520000000000000284e+01 5.984562792328442526e+01
6.559999999999999432e+01 5.964847714744422547e+01
6.600000000000000000e+01 5.945317533995694959e+01
6.640000000000000568e+01 5.945916015513734720e+01
6.680000000000001137e+01 5.927957011418895661e+01
6.720000000000000284e+01 5.910160906089260635e+01
6.759999999999999432e+01 5.892525211305544275e+01
6.800000000000000000e+01 5.875047492105565539e+01
6.840000000000000568e+01 5.857725365322601618e+01
6.880000000000001137e+01 5.840556498172545474e+01
6.920000000000000284e+01 5.823538606888018876e+01
6.959999999999999432e+01 5.806669455397531010e+01
7.000000000000000000e+01 5.789946854048015012e+01
7.040000000000000568e+01 5.773368658368991646e+01
7.080000000000001137e+01 5.756932767876810431e+01
7.120000000000000284e+01 5.740637124917421374e+01
7.159999999999999432e+01 5.724479713546222115e+01
7.200000000000000000e+01 5.710702530434963364e+01
7.240000000000000568e+01 5.694915914960141379e+01
7.280000000000001137e+01 5.679260546451465075e+01
7.320000000000000284e+01 5.663734585459113902e+01
7.359999999999999432e+01 5.648336228688872751e+01
7.400000000000000000e+01 5.633063708090335808e+01
7.440000000000000568e+01 5.618619177297662048e+01
7.479999999999999716e+01 5.603772401423245242e+01
7.520000000000000284e+01 5.589044240775520223e+01
7.560000000000000853e+01 5.574433096289085654e+01
7.600000000000000000e+01 5.559937399135604608e+01
7.640000000000000568e+01 5.545555609990442747e+01
7.679999999999999716e+01 5.531286218320954617e+01
7.720000000000000284e+01 5.516884514416956620e+01
7.760000000000000853e+01 5.502556691092691210e+01
7.800000000000000000e+01 5.488339759381999272e+01
7.840000000000000568e+01 5.474232273637877455e+01
7.879999999999999716e+01 5.460232814644783161e+01
7.920000000000000284e+01 5.446339988998717274e+01
7.960000000000000853e+01 5.432552428505022135e+01
8.000000000000000000e+01 5.418868789593280155e+01
8.040000000000000568e+01 5.405287752748733965e+01
8.079999999999999716e+01 5.391808021959711539e+01
8.120000000000000284e+01 5.378428324180491416e+01
8.160000000000000853e+01 5.365147408809123419e+01
8.200000000000000000e+01 5.351964047179696848e+01
8.240000000000000568e+01 5.338877032068607775e+01
8.279999999999999716e+01 5.325885177214350108e+01
8.320000000000000284e+01 5.312982587318727923e+01
8.360000000000000853e+01 5.300160159505789181e+01
8.400000000000000000e+01 5.287407811714133032e+01
8.440000000000000568e+01 5.274696575850612135e+01
8.479999999999999716e+01 5.262075735787564668e+01
8.520000000000000284e+01 5.249544211069810018e+01
8.560000000000000853e+01 5.237100939357894447e+01
8.600000000000000000e+01 5.224744876038035102e+01
8.640000000000000568e+01 5.212177578797737709e+01
8.680000000000001137e+01 5.199655622649392228e+01
8.720000000000000284e+01 5.187221036283480657e+01
8.760000000000000853e+01 5.174872797137679470e+01
8.800000000000000000e+01 5.162609899440739269e+01
8.840000000000000568e+01 5.150431353858205341e+01
8.880000000000001137e+01 5.138336187147302780e+01
8.920000000000000284e+01 5.126323441820629512e+01
8.960000000000000853e+01 5.114392175818426267e+01
9.000000000000000000e+01 5.102541462189172705e+01
9.040000000000000568e+01 5.090770388778233979e+01
9.080000000000001137e+01 5.079078057924334644e+01
9.120000000000000284e+01 5.067463586163631106e+01
9.160000000000000853e+01 5.055926103941163774e+01
9.200000000000000000e+01 5.044464755329431682e+01
9.240000000000000568e+01 5.033078697753947495e+01
9.280000000000001137e+01 5.021767101725509974e+01
9.320000000000000284e+01 5.010529150579035473e+01
9.360000000000000853e+01 4.999364040218740968e+01
9.400000000000000000e+01 4.988270978869518046e+01
9.440000000000000568e+01 4.977249186834281858e+01
9.480000000000001137e+01 4.968260318476872328e+01
9.520000000000000284e+01 4.957420606521483109e+01
9.560000000000000853e+01 4.946649549109374533e+01
9.600000000000000000e+01 4.935659406309317632e+01
9.640000000000000568e+01 4.925066557043444249e+01
9.680000000000001137e+01 4.914539861625346617e+01
9.720000000000000284e+01 4.904078626547034503e+01
9.760000000000000853e+01 4.893682168509512564e+01
9.800000000000000000e+01 4.883349814229526942e+01
9.840000000000000568e+01 4.873080900250774761e+01
9.880000000000001137e+01 4.862874772759453634e+01
9.920000000000000284e+01 4.852730787404036050e+01
9.960000000000000853e+01 4.842648309119157091e+01
1.000000000000000000e+02 4.832626711953509613e+01
1.004000000000000057e+02 4.822665378901618283e+01
1.008000000000000114e+02 4.812763701739416433e+01
1.012000000000000028e+02 4.802921080863502112e+01
1.016000000000000085e+02 4.793136925133995163e+01
1.020000000000000000e+02 4.783410651720880225e+01
1.024000000000000057e+02 4.773741685953766023e+01
1.028000000000000114e+02 4.764129461174951530e+01
1.032000000000000028e+02 4.754573418595730061e+01
1.036000000000000085e+02 4.745073007155826872e+01
1.040000000000000000e+02 4.735627683385916953e+01
1.044000000000000057e+02 4.726236911273120000e+01
1.048000000000000114e+02 4.716900162129402929e+01
1.052000000000000028e+02 4.707616914462825264e+01
1.056000000000000085e+02 4.698390104362544406e+01
1.060000000000000000e+02 4.689219569525487685e+01
1.064000000000000057e+02 4.680100864323109988e+01
1.068000000000000114e+02 4.671033496429534893e+01
1.072000000000000028e+02 4.662016980091750185e+01
1.076000000000000085e+02 4.653050836016726777e+01
1.080000000000000000e+02 4.644134591260905154e+01
1.084000000000000057e+02 4.635267779121977583e+01
1.088000000000000114e+02 4.626443211583725201e+01
1.092000000000000028e+02 4.617652027532097492e+01
1.096000000000000085e+02 4.608909087022539097e+01
1.100000000000000000e+02 4.600213945252540526e+01
1.104000000000000057e+02 4.601880911154576381e+01
1.108000000000000114e+02 4.601799004287271089e+01
1.112000000000000028e+02 4.593839858856448899e+01
1.116000000000000085e+02 4.585922275964222905e+01
1.120000000000000000e+02 4.578045888487734771e+01
1.124000000000000057e+02 4.570210333870286945e+01
1.128000000000000114e+02 4.562415254048233493e+01
1.132000000000000028e+02 4.554660295379296997e+01
1.136000000000000085e+02 4.546945108572275274e+01
1.140000000000000000e+02 4.539269348618131517e+01
1.144000000000000057e+02 4.531632674722398235e+01
1.148000000000000114e+02 4.524034750238894986e+01
1.152000000000000028e+02 4.516475242604716556e+01
1.156000000000000085e+02 4.508953823276463169e+01
1.160000000000000000e+02 4.501470167667691413e+01
1.164000000000000057e+02 4.494023955087556033e+01
1.168000000000000114e+02 4.486614868680599244e+01
1.172000000000000028e+02 4.479242595367703927e+01
1.176000000000000085e+02 4.470995719592550444e+01
1.180000000000000000e+02 4.463720725582080462e+01
1.184000000000000057e+02 4.456481502352594504e+01
1.188000000000000114e+02 4.449277752294005239e+01
1.192000000000000028e+02 4.442109181284222785e+01
1.196000000000000085e+02 4.434975498636499935e+01
1.200000000000000000e+02 4.427876417047759361e+01
1.204000000000000057e+02 4.420811652547865833e+01
1.208000000000000114e+02 4.413780924449826415e+01
1.212000000000000028e+02 4.406783955300905831e+01
1.216000000000000085e+02 4.399820470834623620e+01
1.220000000000000000e+02 4.392890199923632366e+01
1.224000000000000057e+02 4.385992874533426544e+01
1.228000000000000114e+02 4.379128229676913975e+01
1.232000000000000028e+02 4.372804576145843214e+01
1.236000000000000085e+02 4.366026850514132462e+01
1.240000000000000000e+02 4.359280882661003886e+01
1.244000000000000057e+02 4.352566420756924259e+01
1.248000000000000114e+02 4.345883215786213327e+01
1.252000000000000028e+02 4.339231021506530794e+01
1.256000000000000085e+02 4.332609594409093745e+01
1.260000000000000000e+02 4.326018693679578320e+01
1.264000000000000057e+02 4.319458081159714880e+01
1.268000000000000114e+02 4.312927521309543977e+01
1.272000000000000028e+02 4.306426781170334550e+01
1.276000000000000085e+02 4.299955630328140899e+01
1.280000000000000000e+02 4.293513840877987064e+01
1.284000000000000057e+02 4.287101187388669388e+01
1.288000000000000114e+02 4.280717446868159470e+01
1.291999999999999886e+02 4.274362398729606127e+01
1.296000000000000227e+02 4.268035824757904351e+01
1.300000000000000000e+02 4.261719270078054222e+01
1.304000000000000057e+02 4.255427384976279370e+01
1.308000000000000114e+02 4.249163511459800446e+01
1.311999999999999886e+02 4.242927438968693821e+01
1.316000000000000227e+02 4.236718959170856635e+01
1.320000000000000000e+02 4.230537865931660946e+01
1.324000000000000057e+02 4.224383955284086767e+01
1.328000000000000114e+02 4.218257025399378790e+01
1.331999999999999886e+02 4.212156876558170637e+01
1.336000000000000227e+02 4.206083311122083757e+01
1.340000000000000000e+02 4.200036133505808777e+01
1.344000000000000057e+02 4.194015150149633797e+01
1.348000000000000114e+02 4.188020169492421019e+01
1.351999999999999886e+02 4.182051001945029611e+01
1.356000000000000227e+02 4.176075644206157733e+01
1.360000000000000000e+02 4.170054019474503804e+01
1.364000000000000057e+02 4.164058315597402782e+01
1.368000000000000114e+02 4.158088344376979251e+01
1.371999999999999886e+02 4.152143919538913508e+01
1.376000000000000227e+02 4.146224570176509161e+01
1.380000000000000000e+02 4.140325895236836118e+01
1.384000000000000057e+02 4.134452240815955548e+01
1.388000000000000114e+02 4.128603427939003012e+01
1.392000000000000171e+02 4.122779279433338928e+01
1.395999999999999943e+02 4.116979619905174559e+01
1.400000000000000000e+02 4.111204275716557532e+01
1.404000000000000057e+02 4.105453074962736792e+01
1.408000000000000114e+02 4.099725847449856531e+01
1.412000000000000171e+02 4.094022424673032390e+01
1.415999999999999943e+02 4.088342639794745281e+01
1.420000000000000000e+02 4.082686327623594735e+01
1.424000000000000057e+02 4.077053324593362760e+01
1.428000000000000114e+02 4.072048265248626819e+01
1.432000000000000171e+02 4.066478148203678700e+01
1.435999999999999943e+02 4.060930763137631772e+01
1.440000000000000000e+02 4.055377393163157507e+01
1.444000000000000057e+02 4.049819846322714056e+01
1.448000000000000114e+02 4.044284896760560599e+01
1.452000000000000171e+02 4.038772389638693028e+01
1.455999999999999943e+02 4.033282171612517431e+01
1.460000000000000000e+02 4.027814090812303505e+01
1.464000000000000057e+02 4.022367996824894476e+01
1.468000000000000114e+02 4.016943740675725394e+01
1.472000000000000171e+02 4.011541174811078037e+01
1.475999999999999943e+02 4.006160153080635666e+01
1.480000000000000000e+02 4.000800530720280790e+01
1.484000000000000057e+02 3.995462164335152266e+01
1.488000000000000114e+02 3.990144911882966028e+01
1.492000000000000171e+02 3.984848632657569567e+01
1.495999999999999943e+02 3.979573187272755774e+01
1.500000000000000000e+02 3.974318437646296331e+01
