1.000000000000000000e+01 5.211599032709968782e+01
1.040000000000000036e+01 5.377478521300259473e+01
1.080000000000000071e+01 6.316024336277386908e+01
1.119999999999999929e+01 6.761108460470427417e+01
1.159999999999999964e+01 7.271627819875764942e+01
1.200000000000000000e+01 7.847710457719503552e+01
1.240000000000000036e+01 8.487428910824668549e+01
1.280000000000000071e+01 9.266664776321927377e+01
1.319999999999999929e+01 1.041568911178304546e+02
1.359999999999999964e+01 1.152171892444601724e+02
1.400000000000000000e+01 1.252874724827771900e+02
1.440000000000000036e+01 1.226711023630081598e+02
1.480000000000000071e+01 1.202484447643274876e+02
1.519999999999999929e+01 1.179952728464259621e+02
1.560000000000000142e+01 1.158915198573823204e+02
1.600000000000000000e+01 1.139203879604315262e+02
1.639999999999999858e+01 1.120676825244157442e+02
1.680000000000000071e+01 1.103213068461167410e+02
1.719999999999999929e+01 1.086708731409429021e+02
1.760000000000000142e+01 1.071073991884494774e+02
1.800000000000000000e+01 1.056230690179974374e+02
1.839999999999999858e+01 1.042110421183402735e+02
1.880000000000000071e+01 1.028652998640842213e+02
1.920000000000000284e+01 1.015805208056953290e+02
1.960000000000000142e+01 1.003519785740683119e+02
2.000000000000000000e+01 9.917545767079599273e+01
2.039999999999999858e+01 9.804718352745076970e+01
2.080000000000000071e+01 9.696376404052038822e+01
2.120000000000000284e+01 9.592214040480595827e+01
2.160000000000000142e+01 9.491954553390557692e+01
2.200000000000000000e+01 9.395346871188613136e+01
2.239999999999999858e+01 9.302162539391700591e+01
2.280000000000000071e+01 9.212193128606834591e+01
2.320000000000000284e+01 9.125248000064577525e+01
2.360000000000000142e+01 9.041152371435839541e+01
2.400000000000000000e+01 8.959745636048317863e+01
2.439999999999999858e+01 8.880879896911675075e+01
2.480000000000000071e+01 8.804418683622378694e+01
2.520000000000000284e+01 8.730235825601222643e+01
2.560000000000000142e+01 8.658214459488976900e+01
2.600000000000000000e+01 8.588246152095909736e+01
2.640000000000000213e+01 8.520230123230723507e+01
2.680000000000000071e+01 8.454072555150131052e+01
2.719999999999999929e+01 8.389685977370589853e+01
2.760000000000000142e+01 8.326988717247652971e+01
2.800000000000000000e+01 8.265904408117643243e+01
2.840000000000000213e+01 8.206361547961236624e+01
2.880000000000000071e+01 8.148293102528640475e+01
2.920000000000000284e+01 8.091636147693763803e+01
2.960000000000000142e+01 8.036331546506154666e+01
3.000000000000000000e+01 7.982323657005825623e+01
3.040000000000000213e+01 7.929560067374526966e+01
3.080000000000000071e+01 7.877991355432237697e+01
3.120000000000000284e+01 7.827570869860717551e+01
3.160000000000000142e+01 7.778254530857198290e+01
3.200000000000000000e+01 7.730000648198337387e+01
3.240000000000000568e+01 7.682769754934095374e+01
3.279999999999999716e+01 7.636524455139048939e+01
3.320000000000000284e+01 7.591229284329337190e+01
3.360000000000000142e+01 7.546850581310648920e+01
3.400000000000000000e+01 7.503356370360270944e+01
3.440000000000000568e+01 7.460716252766377465e+01
3.479999999999999716e+01 7.418901306853324229e+01
3.520000000000000284e+01 7.377883995714367416e+01
3.560000000000000142e+01 7.337638081954906966e+01
3.600000000000000000e+01 7.298138548821448524e+01
3.640000000000000568e+01 7.259361527155044769e+01
3.679999999999999716e+01 7.221284227664537525e+01
3.720000000000000284e+01 7.183884878064812085e+01
3.760000000000000142e+01 7.147142664669907219e+01
3.800000000000000000e+01 7.111037678070213985e+01
3.840000000000000568e+01 7.075550862558503695e+01
3.879999999999999716e+01 7.040663969000897282e+01
3.920000000000000284e+01 7.006359510877135222e+01
3.960000000000000142e+01 6.972620723239802487e+01
4.000000000000000000e+01 6.939431524364715642e+01
4.040000000000000568e+01 6.906776479885137121e+01
4.079999999999999716e+01 6.874640769220744119e+01
4.120000000000000284e+01 6.843010154128714362e+01
4.160000000000000142e+01 6.811870949219307647e+01
4.200000000000000000e+01 6.781209994291573651e+01
4.239999999999999858e+01 6.751014628357117431e+01
4.280000000000000426e+01 6.721272665230758037e+01
4.320000000000000284e+01 6.691972370576922913e+01
4.360000000000000142e+01 6.663102440309619112e+01
4.400000000000000000e+01 6.634651980252127146e+01
4.439999999999999858e+01 6.606610486969917417e+01
4.480000000000000426e+01 6.578967829697205616e+01
4.520000000000000284e+01 6.551714233283678368e+01
4.560000000000000142e+01 6.524840262093607635e+01
4.600000000000000000e+01 6.498336804794799093e+01
4.639999999999999858e+01 6.472195059979398479e+01
4.680000000000000426e+01 6.446406522563059127e+01
4.720000000000000284e+01 6.420962970912842138e+01
4.760000000000000142e+01 6.395856454657864987e+01
4.800000000000000000e+01 6.371079283140039706e+01
4.840000000000000568e+01 6.346624014465349006e+01
4.880000000000000426e+01 6.322483445118834311e+01
4.920000000000000284e+01 6.298650600109144193e+01
4.960000000000000142e+01 6.275118723610805205e+01
5.000000000000000000e+01 6.251881270074603947e+01
5.040000000000000568e+01 6.228931895778504924e+01
5.080000000000000426e+01 6.206264450793365484e+01
5.120000000000000284e+01 6.183872971339432922e+01
5.160000000000000142e+01 6.161751672511266520e+01
5.200000000000000000e+01 6.139894941350115687e+01
5.240000000000000568e+01 6.118297330244197241e+01
5.280000000000000426e+01 6.096953550638597363e+01
5.320000000000000284e+01 6.075858467037660660e+01
5.360000000000000142e+01 6.055007091283819420e+01
5.400000000000000000e+01 6.034394577097866375e+01
5.440000000000000568e+01 6.014016214866553867e+01
5.480000000000000426e+01 5.993867426664343157e+01
5.520000000000000284e+01 5.973943761496855132e+01
5.560000000000000142e+01 5.954240890754417137e+01
5.600000000000000000e+01 5.934754603864742961e+01
5.640000000000000568e+01 5.915480804134455894e+01
5.680000000000000426e+01 5.896415504769788640e+01
5.720000000000000284e+01 5.877554825067347366e+01
5.760000000000000142e+01 5.858894986766352275e+01
5.800000000000000000e+01 5.840432310554316331e+01
5.840000000000000568e+01 5.822163212718499636e+01
5.880000000000000426e+01 5.804084201936003495e+01
5.920000000000000284e+01 5.786191876195700701e+01
5.960000000000000142e+01 5.768482919845641987e+01
6.000000000000000000e+01 5.750954100759863508e+01
6.040000000000000568e+01 5.733602267618945802e+01
6.080000000000000426e+01 5.716424347298892883e+01
6.120000000000000284e+01 5.699417342363249617e+01
6.160000000000000142e+01 5.682578328653658417e+01
6.200000000000000000e+01 5.665904452974267258e+01
6.240000000000000568e+01 5.649392930865692364e+01
6.280000000000000426e+01 5.633041044464438585e+01
6.320000000000000284e+01 5.616846140443902158e+01
6.360000000000000142e+01 5.600805628033297978e+01
6.400000000000000000e+01 5.584916977111011249e+01
6.440000000000000568e+01 5.569177716369086539e+01
6.480000000000001137e+01 5.553585431545710094e+01
6.520000000000000284e+01 5.538137763722730966e+01
6.559999999999999432e+01 5.522832407685348954e+01
6.600000000000000000e+01 5.507667110341358097e+01
6.640000000000000568e+01 5.492639669197323826e+01
6.680000000000001137e+01 5.477747930889319150e+01
6.720000000000000284e+01 5.462989789765886428e+01
6.759999999999999432e+01 5.448363186521043389e+01
6.800000000000000000e+01 5.433866106875243673e+01
6.840000000000000568e+01 5.419496580302313760e+01
6.880000000000001137e+01 5.405252678800439980e+01
6.920000000000000284e+01 5.391132515705463391e+01
6.959999999999999432e+01 5.377134244544696173e+01
7.000000000000000000e+01 5.363256057929673659e+01
7.040000000000000568e+01 5.349496186486267391e+01
7.080000000000001137e+01 5.335852897820643648e+01
7.120000000000000284e+01 5.322324495519691823e+01
7.159999999999999432e+01 5.308909318184537796e+01
7.200000000000000000e+01 5.295605738495831361e+01
7.240000000000000568e+01 5.282412162309643122e+01
7.280000000000001137e+01 5.269327027782681228e+01
7.320000000000000284e+01 5.256348804525807594e+01
7.359999999999999432e+01 5.243475992784710371e+01
7.400000000000000000e+01 5.230707122646700924e+01
7.440000000000000568e+01 5.218040753272708088e+01
7.479999999999999716e+01 5.205475472153447214e+01
7.520000000000000284e+01 5.193009894388923442e+01
7.560000000000000853e+01 5.180642661990376752e+01
7.600000000000000000e+01 5.168372443203838884e+01
7.640000000000000568e+01 5.156197931854548244e+01
7.679999999999999716e+01 5.144117846711400688e+01
7.720000000000000284e+01 5.132130930870766861e+01
7.760000000000000853e+01 5.120235951158962706e+01
7.800000000000000000e+01 5.108431697552690309e+01
7.840000000000000568e+01 5.096716982616816694e+01
7.879999999999999716e+01 5.085090640958907215e+01
7.920000000000000284e+01 5.073551528699869806e+01
7.960000000000000853e+01 5.062098522960187097e+01
8.000000000000000000e+01 5.050730521361192871e+01
8.040000000000000568e+01 5.039446441540848554e+01
8.079999999999999716e+01 5.028245220683535166e+01
8.120000000000000284e+01 5.017125815063383953e+01
8.160000000000000853e+01 5.006087199600692372e+01
8.200000000000000000e+01 4.995128367430947236e+01
8.240000000000000568e+01 4.984248329486070617e+01
8.279999999999999716e+01 4.973446114087469283e+01
8.320000000000000284e+01 4.962720766550471296e+01
8.360000000000000853e+01 4.952071348799800887e+01
8.400000000000000000e+01 4.941496938995716448e+01
8.440000000000000568e+01 4.930996631170456368e+01
8.479999999999999716e+01 4.920569534874670836e+01
8.520000000000000284e+01 4.910214774833489315e+01
8.560000000000000853e+01 4.899931490611957230e+01
8.600000000000000000e+01 4.889718836289490866e+01
8.640000000000000568e+01 4.879575980143090419e+01
8.680000000000001137e+01 4.869502104339036919e+01
8.720000000000000284e+01 4.859496404632785982e+01
8.760000000000000853e+01 4.849558090076807559e+01
8.800000000000000000e+01 4.839686382736131520e+01
8.840000000000000568e+01 4.829880517411353935e+01
8.880000000000001137e+01 4.820139741368857500e+01
8.920000000000000284e+01 4.810463314078059227e+01
8.960000000000000853e+01 4.800850506955416108e+01
9.000000000000000000e+01 4.791300603115045220e+01
9.040000000000000568e+01 4.781812897125706741e+01
9.080000000000001137e+01 4.772386694773979343e+01
9.120000000000000284e+01 4.763021312833433996e+01
9.160000000000000853e+01 4.753716078839642734e+01
9.200000000000000000e+01 4.744470330870822039e+01
9.240000000000000568e+01 4.735283417333964451e+01
9.280000000000001137e+01 4.726154696756283613e+01
9.320000000000000284e+01 4.717083537581832786e+01
9.360000000000000853e+01 4.708069317973114210e+01
9.400000000000000000e+01 4.699111425617579130e+01
9.440000000000000568e+01 4.690209257538830911e+01
9.480000000000001137e+01 4.681362219912422518e+01
9.520000000000000284e+01 4.672569727886117619e+01
9.560000000000000853e+01 4.663831205404463276e+01
9.600000000000000000e+01 4.655146085037585379e+01
9.640000000000000568e+01 4.646513807814054786e+01
9.680000000000001137e+01 4.637933823057731786e+01
9.720000000000000284e+01 4.629405588228469526e+01
9.760000000000000853e+01 4.620928568766563416e+01
9.800000000000000000e+01 4.612502237940847039e+01
9.840000000000000568e+01 4.604126076700342907e+01
9.880000000000001137e+01 4.595799573529343007e+01
9.920000000000000284e+01 4.587522224305858032e+01
9.960000000000000853e+01 4.579293532163320890e+01
1.000000000000000000e+02 4.571113007355454272e+01
1.004000000000000057e+02 4.562980167124240438e+01
1.008000000000000114e+02 4.554894535570880265e+01
1.012000000000000028e+02 4.546855643529676172e+01
1.016000000000000085e+02 4.538863028444760062e+01
1.020000000000000000e+02 4.530916234249593089e+01
1.024000000000000057e+02 4.523014811249149147e+01
1.028000000000000114e+02 4.515158316004725947e+01
1.032000000000000028e+02 4.507346311221319723e+01
1.036000000000000085e+02 4.499578365637462696e+01
1.040000000000000000e+02 4.491854053917504785e+01
1.044000000000000057e+02 4.484172956546247946e+01
1.048000000000000114e+02 4.476534659725867016e+01
1.052000000000000028e+02 4.468938755275084418e+01
1.056000000000000085e+02 4.461384840530512719e+01
1.060000000000000000e+02 4.453872518250135215e+01
1.064000000000000057e+02 4.446401396518840698e+01
1.068000000000000114e+02 4.438971088655990371e+01
1.072000000000000028e+02 4.431581213124944441e+01
1.076000000000000085e+02 4.424231393444512150e+01
1.080000000000000000e+02 4.416921258102265568e+01
1.084000000000000057e+02 4.409650440469671651e+01
1.088000000000000114e+02 4.402418578719023401e+01
1.092000000000000028e+02 4.395225315742074912e+01
1.096000000000000085e+02 4.388070299070384550e+01
1.100000000000000000e+02 4.380953180797309443e+01
1.104000000000000057e+02 4.373873617501600108e+01
1.108000000000000114e+02 4.366831270172558987e+01
1.112000000000000028e+02 4.359825804136751515e+01
1.116000000000000085e+02 4.352856888986185879e+01
1.120000000000000000e+02 4.345924198507974268e+01
1.124000000000000057e+02 4.339027410615393876e+01
1.128000000000000114e+02 4.332166207280357639e+01
1.132000000000000028e+02 4.325340274467225044e+01
1.136000000000000085e+02 4.318549302067948759e+01
1.140000000000000000e+02 4.311792983838503801e+01
1.144000000000000057e+02 4.305071017336585015e+01
1.148000000000000114e+02 4.298383103860530952e+01
1.152000000000000028e+02 4.291728948389457798e+01
1.156000000000000085e+02 4.285108259524564289e+01
1.160000000000000000e+02 4.278520749431581294e+01
1.164000000000000057e+02 4.271966133784352593e+01
1.168000000000000114e+02 4.265444131709499231e+01
1.172000000000000028e+02 4.258954465732163186e+01
1.176000000000000085e+02 4.252496861722794819e+01
1.180000000000000000e+02 4.246071048844957829e+01
1.184000000000000057e+02 4.239676759504137493e+01
1.188000000000000114e+02 4.233313729297524475e+01
1.192000000000000028e+02 4.226981696964752189e+01
1.196000000000000085e+02 4.220680404339562841e+01
1.200000000000000000e+02 4.214409596302390781e+01
1.204000000000000057e+02 4.208169020733839716e+01
1.208000000000000114e+02 4.201958428469016837e+01
1.212000000000000028e+02 4.195777573252735948e+01
1.216000000000000085e+02 4.189626211695549074e+01
1.220000000000000000e+02 4.183504103230581705e+01
1.224000000000000057e+02 4.177411010071183028e+01
1.228000000000000114e+02 4.171346697169345674e+01
1.232000000000000028e+02 4.165310932174886460e+01
1.236000000000000085e+02 4.159303485395376754e+01
1.240000000000000000e+02 4.153324129756806826e+01
1.244000000000000057e+02 4.147372640764954355e+01
1.248000000000000114e+02 4.141448796467460625e+01
1.252000000000000028e+02 4.135552377416590986e+01
1.256000000000000085e+02 4.129683166632654689e+01
1.260000000000000000e+02 4.123840949568089087e+01
1.264000000000000057e+02 4.118025514072181892e+01
1.268000000000000114e+02 4.112236650356423695e+01
1.272000000000000028e+02 4.106474150960469416e+01
1.276000000000000085e+02 4.100737810718705845e+01
1.280000000000000000e+02 4.095027426727406805e+01
1.284000000000000057e+02 4.089342798312463856e+01
1.288000000000000114e+02 4.083683726997682584e+01
1.291999999999999886e+02 4.078050016473634543e+01
1.296000000000000227e+02 4.072441472567044940e+01
1.300000000000000000e+02 4.066857903210713943e+01
1.304000000000000057e+02 4.061299118413960940e+01
1.308000000000000114e+02 4.055764930233569032e+01
1.311999999999999886e+02 4.050255152745236842e+01
1.316000000000000227e+02 4.044769602015514209e+01
1.320000000000000000e+02 4.039308096074214660e+01
1.324000000000000057e+02 4.033870454887303936e+01
1.328000000000000114e+02 4.028456500330237589e+01
1.331999999999999886e+02 4.023066056161760429e+01
1.336000000000000227e+02 4.017698947998135139e+01
1.340000000000000000e+02 4.012355003287812139e+01
1.344000000000000057e+02 4.007034051286523635e+01
1.348000000000000114e+02 4.001735923032783404e+01
1.351999999999999886e+02 3.996460451323800811e+01
1.356000000000000227e+02 3.991207470691799841e+01
1.360000000000000000e+02 3.985976817380714010e+01
1.364000000000000057e+02 3.980768329323282728e+01
1.368000000000000114e+02 3.975581846118508622e+01
1.371999999999999886e+02 3.970417209009492865e+01
1.376000000000000227e+02 3.965274260861627909e+01
1.380000000000000000e+02 3.960152846141149041e+01
1.384000000000000057e+02 3.955052810894027004e+01
1.388000000000000114e+02 3.949974002725215882e+01
1.392000000000000171e+02 3.944916270778211498e+01
1.395999999999999943e+02 3.939879465714969342e+01
1.400000000000000000e+02 3.934863439696111698e+01
1.404000000000000057e+02 3.929868046361477951e+01
1.408000000000000114e+02 3.924893140810973335e+01
1.412000000000000171e+02 3.919938579585715388e+01
1.415999999999999943e+02 3.915004220649493050e+01
1.420000000000000000e+02 3.910089923370507137e+01
1.424000000000000057e+02 3.905195548503403558e+01
1.428000000000000114e+02 3.900320958171589325e+01
1.432000000000000171e+02 3.895466015849819286e+01
1.435999999999999943e+02 3.890630586347062803e+01
1.440000000000000000e+02 3.885814535789628366e+01
1.444000000000000057e+02 3.881017731604558207e+01
1.448000000000000114e+02 3.876240042503273031e+01
1.452000000000000171e+02 3.871481338465473954e+01
1.455999999999999943e+02 3.866741490723289587e+01
1.460000000000000000e+02 3.862020371745662572e+01
1.464000000000000057e+02 3.857317855222985514e+01
1.468000000000000114e+02 3.852633816051955762e+01
1.472000000000000171e+02 3.847968130320677460e+01
1.475999999999999943e+02 3.843320675293975341e+01
1.480000000000000000e+02 3.838691329398939445e+01
1.484000000000000057e+02 3.834079972210681575e+01
1.488000000000000114e+02 3.829486484438307770e+01
1.492000000000000171e+02 3.824910747911106768e+01
1.495999999999999943e+02 3.820352645564936012e+01
1.500000000000000000e+02 3.815812061428814417e+01
