1.000000000000000000e+01 6.770639652205748007e+02
1.040000000000000036e+01 6.834428188497902283e+02
1.080000000000000071e+01 6.904833159028158889e+02
1.119999999999999929e+01 7.038149529868057925e+02
1.159999999999999964e+01 7.093808938545741967e+02
1.200000000000000000e+01 7.041270116472079508e+02
1.240000000000000036e+01 6.994809300792981048e+02
1.280000000000000071e+01 6.937753884211210789e+02
1.319999999999999929e+01 6.901474271433253307e+02
1.359999999999999964e+01 6.885202874749470539e+02
1.400000000000000000e+01 6.903941530741039969e+02
1.440000000000000036e+01 7.036592612656521624e+02
1.480000000000000071e+01 6.990208788802289064e+02
1.519999999999999929e+01 6.885253939759436435e+02
1.560000000000000142e+01 6.785944883175621953e+02
1.600000000000000000e+01 6.691742476582178369e+02
1.639999999999999858e+01 6.602182419288151323e+02
1.680000000000000071e+01 6.516861594008238399e+02
1.719999999999999929e+01 6.435427481183685359e+02
1.760000000000000142e+01 6.357569831929070006e+02
1.800000000000000000e+01 6.283014031141788109e+02
1.839999999999999858e+01 6.211515745612452974e+02
1.880000000000000071e+01 6.142856563040678566e+02
1.920000000000000284e+01 6.076840404951441315e+02
1.960000000000000142e+01 6.013290551005627549e+02
2.000000000000000000e+01 5.952047151370021538e+02
2.039999999999999858e+01 5.892965132395502224e+02
2.080000000000000071e+01 5.835912421998430091e+02
2.120000000000000284e+01 5.780768436982893945e+02
2.160000000000000142e+01 5.727422786548706881e+02
2.200000000000000000e+01 5.675774155428034646e+02
2.239999999999999858e+01 5.625729337209064624e+02
2.280000000000000071e+01 5.577202393960258178e+02
2.320000000000000284e+01 5.530113922642337911e+02
2.360000000000000142e+01 5.484390412265852319e+02
2.400000000000000000e+01 5.439963678526702324e+02
2.439999999999999858e+01 5.396770364885109075e+02
2.480000000000000071e+01 5.354751500862727198e+02
2.520000000000000284e+01 5.313852109806941826e+02
2.560000000000000142e+01 5.274020859579987928e+02
2.600000000000000000e+01 5.235209750626332834e+02
2.640000000000000213e+01 5.197373836696611988e+02
2.680000000000000071e+01 5.160470974192719495e+02
2.719999999999999929e+01 5.124461596672445012e+02
2.760000000000000142e+01 5.089308511533748742e+02
2.800000000000000000e+01 5.054976716304768729e+02
2.840000000000000213e+01 5.021433232309282744e+02
2.880000000000000071e+01 4.988646953769168704e+02
2.920000000000000284e+01 4.956588510654148649e+02
2.960000000000000142e+01 4.925230143801787790e+02
3.000000000000000000e+01 4.894545591013283570e+02
3.040000000000000213e+01 4.864509982987526655e+02
3.080000000000000071e+01 4.835099748091581660e+02
3.120000000000000284e+01 4.806292525082937459e+02
3.160000000000000142e+01 4.778067083000815956e+02
3.200000000000000000e+01 4.750403247532291857e+02
3.240000000000000568e+01 4.723281833236389957e+02
3.279999999999999716e+01 4.696684581076772815e+02
3.320000000000000284e+01 4.670594100772956381e+02
3.360000000000000142e+01 4.644993817531938589e+02
3.400000000000000000e+01 4.619867922767938353e+02
3.440000000000000568e+01 4.595201328458344392e+02
3.479999999999999716e+01 4.570979624819640890e+02
3.520000000000000284e+01 4.547189041018706348e+02
3.560000000000000142e+01 4.523816408662929121e+02
3.600000000000000000e+01 4.500849127837500419e+02
3.640000000000000568e+01 4.478275135480447489e+02
3.679999999999999716e+01 4.456082875905759693e+02
3.720000000000000284e+01 4.434261273302646487e+02
3.760000000000000142e+01 4.412799706054805711e+02
3.800000000000000000e+01 4.391687982737719267e+02
3.840000000000000568e+01 4.370916319664776779e+02
3.879999999999999716e+01 4.350475319864418111e+02
3.920000000000000284e+01 4.330355953380812934e+02
3.960000000000000142e+01 4.310549538799871243e+02
4.000000000000000000e+01 4.291047725910738677e+02
4.040000000000000568e+01 4.271842479420536733e+02
4.079999999999999716e+01 4.252926063646914940e+02
4.120000000000000284e+01 4.234291028119227462e+02
4.160000000000000142e+01 4.215930194024753064e+02
4.200000000000000000e+01 4.197836641441502366e+02
4.239999999999999858e+01 4.180003697303805552e+02
4.280000000000000426e+01 4.162424924051094877e+02
4.320000000000000284e+01 4.145094108914167919e+02
4.360000000000000142e+01 4.128005253796717398e+02
4.400000000000000000e+01 4.111152565713167064e+02
4.439999999999999858e+01 4.094530447746703885e+02
4.480000000000000426e+01 4.078133490494201396e+02
4.520000000000000284e+01 4.061956463967082982e+02
4.560000000000000142e+01 4.045994309919493617e+02
4.600000000000000000e+01 4.030242134577197248e+02
4.639999999999999858e+01 4.014695201742516701e+02
4.680000000000000426e+01 3.999348926252387741e+02
4.720000000000000284e+01 3.984198867768209311e+02
4.760000000000000142e+01 3.969240724877629418e+02
4.800000000000000000e+01 3.954470329489823825e+02
4.840000000000000568e+01 3.939883641506997378e+02
4.880000000000000426e+01 3.925476743756107680e+02
4.920000000000000284e+01 3.911245837165781722e+02
4.960000000000000142e+01 3.897187236174459031e+02
5.000000000000000000e+01 3.883297364356685080e+02
5.040000000000000568e+01 3.869572750255324536e+02
5.080000000000000426e+01 3.856010023408263123e+02
5.120000000000000284e+01 3.842605910558903588e+02
5.160000000000000142e+01 3.829357232040401868e+02
5.200000000000000000e+01 3.816260898324287609e+02
5.240000000000000568e+01 3.803313906724609410e+02
5.280000000000000426e+01 3.790513338249378421e+02
5.320000000000000284e+01 3.777856354591504555e+02
5.360000000000000142e+01 3.765340195251980617e+02
5.400000000000000000e+01 3.752962174788417542e+02
5.440000000000000568e+01 3.740719680182502884e+02
5.480000000000000426e+01 3.728610168320329876e+02
5.520000000000000284e+01 3.716631163579866097e+02
5.560000000000000142e+01 3.704780255520198580e+02
5.600000000000000000e+01 3.693055096667494013e+02
5.640000000000000568e+01 3.681453400392890671e+02
5.680000000000000426e+01 3.669972938877808701e+02
5.720000000000000284e+01 3.658611541162457570e+02
5.760000000000000142e+01 3.647367091273496271e+02
5.800000000000000000e+01 3.636237526427078706e+02
5.840000000000000568e+01 3.625220835303687181e+02
5.880000000000000426e+01 3.614315056391383791e+02
5.920000000000000284e+01 3.603518276394273698e+02
5.960000000000000142e+01 3.592828628703134655e+02
6.000000000000000000e+01 3.582244291925383664e+02
6.040000000000000568e+01 3.571763488471608525e+02
6.080000000000000426e+01 3.561384483196169413e+02
6.120000000000000284e+01 3.551105582089343216e+02
6.160000000000000142e+01 3.540925131018789216e+02
6.200000000000000000e+01 3.530841514518069744e+02
6.240000000000000568e+01 3.520853154620194800e+02
6.280000000000000426e+01 3.510958509734198856e+02
6.320000000000000284e+01 3.501156073562871711e+02
6.360000000000000142e+01 3.491444374059873326e+02
6.400000000000000000e+01 3.481821972424538103e+02
6.440000000000000568e+01 3.472287462132755991e+02
6.480000000000001137e+01 3.462839468002406988e+02
6.520000000000000284e+01 3.453476645291894442e+02
6.559999999999999432e+01 3.444197678830386167e+02
6.600000000000000000e+01 3.435001282178461111e+02
6.640000000000000568e+01 3.425886196817888845e+02
6.680000000000001137e+01 3.416851191369362368e+02
6.720000000000000284e+01 3.407895060837038841e+02
6.759999999999999432e+01 3.399016625878805939e+02
6.800000000000000000e+01 3.390214732101230197e+02
6.840000000000000568e+01 3.381488249378226101e+02
6.880000000000001137e+01 3.372836071192471081e+02
6.920000000000000284e+01 3.364257113998694422e+02
6.959999999999999432e+01 3.355750316607970944e+02
7.000000000000000000e+01 3.347314639592204344e+02
7.040000000000000568e+01 3.338949064708021410e+02
7.080000000000001137e+01 3.330652594339316011e+02
7.120000000000000284e+01 3.322424250957757295e+02
7.159999999999999432e+01 3.314263076600542490e+02
7.200000000000000000e+01 3.306168132364773555e+02
7.240000000000000568e+01 3.298138497917826157e+02
7.280000000000001137e+01 3.290173271023096504e+02
7.320000000000000284e+01 3.282271567080572368e+02
7.359999999999999432e+01 3.274432518681680335e+02
7.400000000000000000e+01 3.266655275177878934e+02
7.440000000000000568e+01 3.258939002262503095e+02
7.479999999999999716e+01 3.251282881565363141e+02
7.520000000000000284e+01 3.243686110259667998e+02
7.560000000000000853e+01 3.236147900680796283e+02
7.600000000000000000e+01 3.228667479956520765e+02
7.640000000000000568e+01 3.221244089648268982e+02
7.679999999999999716e+01 3.213876985403020399e+02
7.720000000000000284e+01 3.206565436615489375e+02
7.760000000000000853e+01 3.199308726100220497e+02
7.800000000000000000e+01 3.192106149773251786e+02
7.840000000000000568e+01 3.184957016343023497e+02
7.879999999999999716e+01 3.177860647010211324e+02
7.920000000000000284e+01 3.170816375176179918e+02
7.960000000000000853e+01 3.163823546159765101e+02
8.000000000000000000e+01 3.156881516922096012e+02
8.040000000000000568e+01 3.149989655799211619e+02
8.079999999999999716e+01 3.143147342242167497e+02
8.120000000000000284e+01 3.136353966564439020e+02
8.160000000000000853e+01 3.129608929696329369e+02
8.200000000000000000e+01 3.122911642946185111e+02
8.240000000000000568e+01 3.116261527768183441e+02
8.279999999999999716e+01 3.109658015536480207e+02
8.320000000000000284e+01 3.103100547325508956e+02
8.360000000000000853e+01 3.096588573696240587e+02
8.400000000000000000e+01 3.090121554488208062e+02
8.440000000000000568e+01 3.083698958617105745e+02
8.479999999999999716e+01 3.077320263877805928e+02
8.520000000000000284e+01 3.070984956752598691e+02
8.560000000000000853e+01 3.064692532224505044e+02
8.600000000000000000e+01 3.058442493595501901e+02
8.640000000000000568e+01 3.052234352309506562e+02
8.680000000000001137e+01 3.046067627779970053e+02
8.720000000000000284e+01 3.039941847221945181e+02
8.760000000000000853e+01 3.033856545488475263e+02
8.800000000000000000e+01 3.027811264911200624e+02
8.840000000000000568e+01 3.021805555145022595e+02
8.880000000000001137e+01 3.015838973016726072e+02
8.920000000000000284e+01 3.009911082377431626e+02
8.960000000000000853e+01 3.004021453958760617e+02
9.000000000000000000e+01 2.998169665232613852e+02
9.040000000000000568e+01 2.992355300274440424e+02
9.080000000000001137e+01 2.986577949629910904e+02
9.120000000000000284e+01 2.980837210184879496e+02
9.160000000000000853e+01 2.975132685038553291e+02
9.200000000000000000e+01 2.969463983379758361e+02
9.240000000000000568e+01 2.963830720366238438e+02
9.280000000000001137e+01 2.958232517006865123e+02
9.320000000000000284e+01 2.952669000046707879e+02
9.360000000000000853e+01 2.947139801854864345e+02
9.400000000000000000e+01 2.941644560314970818e+02
9.440000000000000568e+01 2.936182918718333781e+02
9.480000000000001137e+01 2.930754525659590968e+02
9.520000000000000284e+01 2.925359034934836018e+02
9.560000000000000853e+01 2.919996105442144767e+02
9.600000000000000000e+01 2.914665401084426435e+02
9.640000000000000568e+01 2.909366590674546842e+02
9.680000000000001137e+01 2.904099347842646921e+02
9.720000000000000284e+01 2.898863350945605362e+02
9.760000000000000853e+01 2.893658282978590250e+02
9.800000000000000000e+01 2.888483831488631495e+02
9.840000000000000568e+01 2.883339688490169124e+02
9.880000000000001137e+01 2.878225550382518918e+02
9.920000000000000284e+01 2.873141117869206482e+02
9.960000000000000853e+01 2.868086095879119739e+02
1.000000000000000000e+02 2.863060193489423568e+02
1.004000000000000057e+02 2.858063123850209308e+02
1.008000000000000114e+02 2.853094604110809769e+02
1.012000000000000028e+02 2.848154355347751903e+02
1.016000000000000085e+02 2.843242102494295409e+02
1.020000000000000000e+02 2.838357574271526573e+02
1.024000000000000057e+02 2.833500503120953908e+02
1.028000000000000114e+02 2.828670625138573769e+02
1.032000000000000028e+02 2.823867680010370123e+02
1.036000000000000085e+02 2.819091410949205283e+02
1.040000000000000000e+02 2.814341564633072608e+02
1.044000000000000057e+02 2.809617891144671376e+02
1.048000000000000114e+02 2.804920143912271442e+02
1.052000000000000028e+02 2.800248079651839248e+02
1.056000000000000085e+02 2.795601458310387670e+02
1.060000000000000000e+02 2.790980043010521285e+02
1.064000000000000057e+02 2.786383599996149769e+02
1.068000000000000114e+02 2.781811898579335889e+02
1.072000000000000028e+02 2.777264711088252511e+02
1.076000000000000085e+02 2.772741812816221909e+02
1.080000000000000000e+02 2.768242981971811219e+02
1.084000000000000057e+02 2.763767999629949372e+02
1.088000000000000114e+02 2.759316649684062668e+02
1.092000000000000028e+02 2.754888718799170988e+02
1.096000000000000085e+02 2.750483996365955477e+02
1.100000000000000000e+02 2.746102274455751058e+02
1.104000000000000057e+02 2.741743347776452424e+02
1.108000000000000114e+02 2.737407013629306789e+02
1.112000000000000028e+02 2.733093071866572359e+02
1.116000000000000085e+02 2.728801324850030028e+02
1.120000000000000000e+02 2.724531577410315890e+02
1.124000000000000057e+02 2.720283636807061498e+02
1.128000000000000114e+02 2.716057312689824812e+02
1.132000000000000028e+02 2.711852417059793083e+02
1.136000000000000085e+02 2.707668764232229250e+02
1.140000000000000000e+02 2.703506170799661845e+02
1.144000000000000057e+02 2.699364455595787717e+02
1.148000000000000114e+02 2.695243439660079616e+02
1.152000000000000028e+02 2.691142946203069641e+02
1.156000000000000085e+02 2.687062800572314814e+02
1.160000000000000000e+02 2.683002830219006114e+02
1.164000000000000057e+02 2.678962864665220422e+02
1.168000000000000114e+02 2.674942735471797732e+02
1.172000000000000028e+02 2.670942276206829433e+02
1.176000000000000085e+02 2.666961322414740039e+02
1.180000000000000000e+02 2.662999711585954969e+02
1.184000000000000057e+02 2.659057283127137907e+02
1.188000000000000114e+02 2.655133878331988058e+02
1.192000000000000028e+02 2.651229340352577992e+02
1.196000000000000085e+02 2.647343514171228662e+02
1.200000000000000000e+02 2.643476246572906234e+02
1.204000000000000057e+02 2.639627386118125401e+02
1.208000000000000114e+02 2.635796783116355755e+02
1.212000000000000028e+02 2.631984289599916451e+02
1.216000000000000085e+02 2.628189759298339254e+02
1.220000000000000000e+02 2.624413047613213621e+02
1.224000000000000057e+02 2.620654011593478572e+02
1.228000000000000114e+02 2.616912509911164193e+02
1.232000000000000028e+02 2.613188402837570266e+02
1.236000000000000085e+02 2.609481552219875766e+02
1.240000000000000000e+02 2.605791821458165032e+02
1.244000000000000057e+02 2.602119075482865469e+02
1.248000000000000114e+02 2.598463180732588285e+02
1.252000000000000028e+02 2.594824005132356888e+02
1.256000000000000085e+02 2.591201418072228080e+02
1.260000000000000000e+02 2.587595290386286706e+02
1.264000000000000057e+02 2.584005494332005242e+02
1.268000000000000114e+02 2.580431903569968881e+02
1.272000000000000028e+02 2.576874393143962152e+02
1.276000000000000085e+02 2.573332839461381241e+02
1.280000000000000000e+02 2.569807120274009549e+02
1.284000000000000057e+02 2.566297114659108729e+02
1.288000000000000114e+02 2.562802703000843962e+02
1.291999999999999886e+02 2.559323766972027840e+02
1.296000000000000227e+02 2.555860189516168930e+02
1.300000000000000000e+02 2.552411854829838660e+02
1.304000000000000057e+02 2.548978648345329248e+02
1.308000000000000114e+02 2.545560456713608346e+02
1.311999999999999886e+02 2.542157167787564447e+02
1.316000000000000227e+02 2.538768670605527404e+02
1.320000000000000000e+02 2.535394855375077157e+02
1.324000000000000057e+02 2.532035613457111367e+02
1.328000000000000114e+02 2.528690837350186484e+02
1.331999999999999886e+02 2.525360420675119428e+02
1.336000000000000227e+02 2.522044258159838819e+02
1.340000000000000000e+02 2.518742245624495126e+02
1.344000000000000057e+02 2.515454279966809281e+02
1.348000000000000114e+02 2.512180259147664003e+02
1.351999999999999886e+02 2.508920082176936148e+02
1.356000000000000227e+02 2.505673649099549607e+02
1.360000000000000000e+02 2.502440860981768651e+02
1.364000000000000057e+02 2.499221619897704159e+02
1.368000000000000114e+02 2.496015828916041528e+02
1.371999999999999886e+02 2.492823392086982324e+02
1.376000000000000227e+02 2.489644214429397380e+02
1.380000000000000000e+02 2.486478201918183686e+02
1.384000000000000057e+02 2.483325261471827048e+02
1.388000000000000114e+02 2.480185300940158015e+02
1.392000000000000171e+02 2.477058229092306192e+02
1.395999999999999943e+02 2.473943955604846963e+02
1.400000000000000000e+02 2.470842391050129265e+02
1.404000000000000057e+02 2.467753446884793789e+02
1.408000000000000114e+02 2.464677035438469375e+02
1.412000000000000171e+02 2.461613069902643360e+02
1.415999999999999943e+02 2.458561464319712684e+02
1.420000000000000000e+02 2.455522133572197561e+02
1.424000000000000057e+02 2.452494993372128533e+02
1.428000000000000114e+02 2.449479960250596378e+02
1.432000000000000171e+02 2.446476951547461454e+02
1.435999999999999943e+02 2.443485885401223641e+02
1.440000000000000000e+02 2.440506680739047738e+02
1.444000000000000057e+02 2.437539257266938364e+02
1.448000000000000114e+02 2.434583535460071175e+02
1.452000000000000171e+02 2.431639436553265341e+02
1.455999999999999943e+02 2.428706882531602673e+02
1.460000000000000000e+02 2.425785796121187730e+02
1.464000000000000057e+02 2.422876100780052298e+02
1.468000000000000114e+02 2.419977720689188629e+02
1.472000000000000171e+02 2.417090580743724217e+02
1.475999999999999943e+02 2.414214606544225319e+02
1.480000000000000000e+02 2.411349724388131222e+02
1.484000000000000057e+02 2.408495861261314417e+02
1.488000000000000114e+02 2.405652944829770377e+02
1.492000000000000171e+02 2.402820903431422437e+02
1.495999999999999943e+02 2.399999666068056854e+02
1.500000000000000000e+02 2.397189162397373252e+02
