1.000000000000000000e+01 1.738000895604996572e+02
1.040000000000000036e+01 1.693621225404012876e+02
1.080000000000000071e+01 1.652636385835853048e+02
1.119999999999999929e+01 1.614629666872633038e+02
1.159999999999999964e+01 1.579253029717198444e+02
1.200000000000000000e+01 1.546213152536226687e+02
1.240000000000000036e+01 1.515260802721172979e+02
1.280000000000000071e+01 1.486182635195366970e+02
1.319999999999999929e+01 1.458794786830314081e+02
1.359999999999999964e+01 1.432937818865673023e+02
1.400000000000000000e+01 1.408472683690116014e+02
1.440000000000000036e+01 1.385277478964874263e+02
1.480000000000000071e+01 1.363244813286490853e+02
1.519999999999999929e+01 1.342279651452765279e+02
1.560000000000000142e+01 1.322297539239700939e+02
1.600000000000000000e+01 1.303223130989940728e+02
1.639999999999999858e+01 1.284988960688559132e+02
1.680000000000000071e+01 1.267704583358676018e+02
1.719999999999999929e+01 1.256512573448726471e+02
1.760000000000000142e+01 1.245745886671908096e+02
1.800000000000000000e+01 1.235376932657704288e+02
1.839999999999999858e+01 1.225380590939936951e+02
1.880000000000000071e+01 1.215733932385744538e+02
1.920000000000000284e+01 1.206415978215071334e+02
1.960000000000000142e+01 1.197407490743188703e+02
2.000000000000000000e+01 1.188690791013203807e+02
2.039999999999999858e+01 1.180249599317550633e+02
2.080000000000000071e+01 1.172068895280520877e+02
2.120000000000000284e+01 1.164134794721174444e+02
2.160000000000000142e+01 1.156434440963265047e+02
2.200000000000000000e+01 1.148955908626119253e+02
2.239999999999999858e+01 1.141688118233421960e+02
2.280000000000000071e+01 1.134620760227908534e+02
2.320000000000000284e+01 1.127744227188845230e+02
2.360000000000000142e+01 1.121049553223656972e+02
2.400000000000000000e+01 1.114528359651344545e+02
2.439999999999999858e+01 1.108172806218472033e+02
2.480000000000000071e+01 1.101975547192453462e+02
2.520000000000000284e+01 1.095929691764980305e+02
2.560000000000000142e+01 1.090028768273328268e+02
2.600000000000000000e+01 1.084266691811117909e+02
2.640000000000000213e+01 1.045841385858760191e+02
2.680000000000000071e+01 1.040193774702288039e+02
2.719999999999999929e+01 1.034770127806122559e+02
2.760000000000000142e+01 1.029876303961152644e+02
2.800000000000000000e+01 1.025083785860949490e+02
2.840000000000000213e+01 1.020388796852830637e+02
2.880000000000000071e+01 1.015787760201552743e+02
2.920000000000000284e+01 1.011277285534763593e+02
2.960000000000000142e+01 1.006854156400962808e+02
3.000000000000000000e+01 1.002515318833325608e+02
3.040000000000000213e+01 9.982578708243764254e+01
3.080000000000000071e+01 9.940790526267396388e+01
3.120000000000000284e+01 9.899762378041779698e+01
3.160000000000000142e+01 8.660715105807170744e+01
3.200000000000000000e+01 8.607478054859848271e+01
3.240000000000000568e+01 8.555283306673780430e+01
3.279999999999999716e+01 8.504096346583999377e+01
3.320000000000000284e+01 8.453884254330560566e+01
3.360000000000000142e+01 8.404615610225258138e+01
3.400000000000000000e+01 8.356260407993929107e+01
3.440000000000000568e+01 8.308789973739634149e+01
3.479999999999999716e+01 8.262176890524354178e+01
3.520000000000000284e+01 8.216394928114122820e+01
3.560000000000000142e+01 8.171418977474351664e+01
3.600000000000000000e+01 8.127224989639920238e+01
3.640000000000000568e+01 8.083789918618457193e+01
3.679999999999999716e+01 8.041091668015705807e+01
3.720000000000000284e+01 7.999109041099136164e+01
3.760000000000000142e+01 7.957821694040846694e+01
3.800000000000000000e+01 7.917210092102911290e+01
3.840000000000000568e+01 7.877255468548551676e+01
3.879999999999999716e+01 7.837939786080735871e+01
3.920000000000000284e+01 7.799245700626237010e+01
3.960000000000000142e+01 7.761156527298189189e+01
4.000000000000000000e+01 7.723656208383769695e+01
4.040000000000000568e+01 7.686729283215922237e+01
4.079999999999999716e+01 7.650360859799346258e+01
4.120000000000000284e+01 7.614536588071061374e+01
4.160000000000000142e+01 7.579242634685344626e+01
4.200000000000000000e+01 7.544465659221256715e+01
4.239999999999999858e+01 7.510192791718658611e+01
4.280000000000000426e+01 7.476411611455921502e+01
4.320000000000000284e+01 7.443020611882430160e+01
4.360000000000000142e+01 7.409413986948092656e+01
4.400000000000000000e+01 7.376276747736767447e+01
4.439999999999999858e+01 7.343597774194506655e+01
4.480000000000000426e+01 7.311366315668696814e+01
4.520000000000000284e+01 7.279571975203214151e+01
4.560000000000000142e+01 7.248204694643914081e+01
4.600000000000000000e+01 7.217254740505434540e+01
4.639999999999999858e+01 7.186556092910825555e+01
4.680000000000000426e+01 7.154947035420127577e+01
4.720000000000000284e+01 7.123746544033802763e+01
4.760000000000000142e+01 7.092945706071512291e+01
4.800000000000000000e+01 7.062535881849095176e+01
4.840000000000000568e+01 7.032508693953104739e+01
4.880000000000000426e+01 7.002856017027743007e+01
4.920000000000000284e+01 6.973569968045502776e+01
4.960000000000000142e+01 6.944642897034569273e+01
5.000000000000000000e+01 6.916067378237832486e+01
5.040000000000000568e+01 6.887836201679884596e+01
5.080000000000000426e+01 6.859942365119916019e+01
5.120000000000000284e+01 6.832379066369720988e+01
5.160000000000000142e+01 6.805139695957407753e+01
5.200000000000000000e+01 6.582474804655795708e+01
5.240000000000000568e+01 6.555093209092662221e+01
5.280000000000000426e+01 6.528030016074870900e+01
5.320000000000000284e+01 6.501279044742250335e+01
5.360000000000000142e+01 6.474834282098426286e+01
5.400000000000000000e+01 6.448689877167772977e+01
5.440000000000000568e+01 6.422840135399796679e+01
5.480000000000000426e+01 6.397279513308635046e+01
5.520000000000000284e+01 6.372002613336088928e+01
5.560000000000000142e+01 6.347004178927162599e+01
5.600000000000000000e+01 6.322279089807868502e+01
5.640000000000000568e+01 6.297822357455450515e+01
5.680000000000000426e+01 6.273629120751844823e+01
5.720000000000000284e+01 6.249694641811675666e+01
5.760000000000000142e+01 6.226014301976499610e+01
5.800000000000000000e+01 6.202583597967549878e+01
5.840000000000000568e+01 6.179398138189600331e+01
5.880000000000000426e+01 6.156453639178951676e+01
5.920000000000000284e+01 6.133745922188917632e+01
5.960000000000000142e+01 6.111270909906627224e+01
6.000000000000000000e+01 6.089024623295084382e+01
6.040000000000000568e+01 6.067003178554976728e+01
6.080000000000000426e+01 6.045202784200828461e+01
6.120000000000000284e+01 6.023619738246427602e+01
6.160000000000000142e+01 6.002250425494791131e+01
6.200000000000000000e+01 5.981091314928008984e+01
6.240000000000000568e+01 5.960138957192726394e+01
6.280000000000000426e+01 5.939389982177058158e+01
6.320000000000000284e+01 5.918841096675089375e+01
6.360000000000000142e+01 5.898489082135203176e+01
6.400000000000000000e+01 5.878330792488694101e+01
6.440000000000000568e+01 5.858363152055326140e+01
6.480000000000001137e+01 5.838583153522591829e+01
6.520000000000000284e+01 5.818987855995636949e+01
6.559999999999999432e+01 5.799574383114959630e+01
6.600000000000000000e+01 5.780339921239072254e+01
6.640000000000000568e+01 5.787877271159929649e+01
6.680000000000001137e+01 5.770605990291478804e+01
6.720000000000000284e+01 5.753487654182040245e+01
6.759999999999999432e+01 5.736519984101147429e+01
6.800000000000000000e+01 5.719700748880045182e+01
6.840000000000000568e+01 5.703027763639276060e+01
6.880000000000001137e+01 5.686498888557666476e+01
6.920000000000000284e+01 5.670112027681178546e+01
6.959999999999999432e+01 5.653865127770043841e+01
7.000000000000000000e+01 5.637756177182801309e+01
7.040000000000000568e+01 5.621783204795793409e+01
7.080000000000001137e+01 5.605944278956843618e+01
7.120000000000000284e+01 5.590237506471785167e+01
7.159999999999999432e+01 5.595273083689144755e+01
7.200000000000000000e+01 5.580286702415215672e+01
7.240000000000000568e+01 5.565422462314324292e+01
7.280000000000001137e+01 5.550678680668207221e+01
7.320000000000000284e+01 5.536053707303000948e+01
7.359999999999999432e+01 5.521545923781511078e+01
7.400000000000000000e+01 5.507153742619912151e+01
7.440000000000000568e+01 5.492875606527961452e+01
7.479999999999999716e+01 5.478709987671943082e+01
7.520000000000000284e+01 5.464655386959523042e+01
7.560000000000000853e+01 5.450710333345741532e+01
7.600000000000000000e+01 5.436873383159424833e+01
7.640000000000000568e+01 5.423143119449289884e+01
7.679999999999999716e+01 5.409518151349084292e+01
7.720000000000000284e+01 5.395753886182348680e+01
7.760000000000000853e+01 5.382056631236375210e+01
7.800000000000000000e+01 5.368463509526762323e+01
7.840000000000000568e+01 5.354973184964381971e+01
7.879999999999999716e+01 5.341584345532780986e+01
7.920000000000000284e+01 5.328295702731315941e+01
7.960000000000000853e+01 5.315105991033979649e+01
8.000000000000000000e+01 5.302013967363409108e+01
8.040000000000000568e+01 5.289018410579538454e+01
8.079999999999999716e+01 5.276118120982472703e+01
8.120000000000000284e+01 5.263311919829064323e+01
8.160000000000000853e+01 5.250598648862787599e+01
8.200000000000000000e+01 5.237977169856441151e+01
8.240000000000000568e+01 5.225446364167306257e+01
8.279999999999999716e+01 5.213005132304339639e+01
8.320000000000000284e+01 5.200652393507015603e+01
8.360000000000000853e+01 5.188387085335462245e+01
8.400000000000000000e+01 5.176208163271518004e+01
8.440000000000000568e+01 5.164114600330383098e+01
8.479999999999999716e+01 5.152105386682521271e+01
8.520000000000000284e+01 5.140179529285506987e+01
8.560000000000000853e+01 5.128336051525484152e+01
8.600000000000000000e+01 5.116573992867986931e+01
8.640000000000000568e+01 5.104495855125020398e+01
8.680000000000001137e+01 5.092444155981681320e+01
8.720000000000000284e+01 5.080475344291262729e+01
8.760000000000000853e+01 5.068588460320727052e+01
8.800000000000000000e+01 5.056782559958452339e+01
8.840000000000000568e+01 5.045056714387237662e+01
8.880000000000001137e+01 5.033410009765675852e+01
8.920000000000000284e+01 5.021841546917600851e+01
8.960000000000000853e+01 5.010350441029406454e+01
9.000000000000000000e+01 4.998935821354996278e+01
9.040000000000000568e+01 4.987596830928106328e+01
9.080000000000001137e+01 4.976332626281810434e+01
9.120000000000000284e+01 4.965142377175009614e+01
9.160000000000000853e+01 4.954025266325662358e+01
9.200000000000000000e+01 4.942980489150589563e+01
9.240000000000000568e+01 4.932007253511655165e+01
9.280000000000001137e+01 4.921104779468135604e+01
9.320000000000000284e+01 4.910272299035099763e+01
9.360000000000000853e+01 4.899509055947630998e+01
9.400000000000000000e+01 4.888814305430728524e+01
9.440000000000000568e+01 4.878187313974716943e+01
9.480000000000001137e+01 4.867627359116010410e+01
9.520000000000000284e+01 4.857133729223089347e+01
9.560000000000000853e+01 4.846705723287546164e+01
9.600000000000000000e+01 4.836342650720025205e+01
9.640000000000000568e+01 4.826043831150975905e+01
9.680000000000001137e+01 4.815808594236039397e+01
9.720000000000000284e+01 4.805636279465970517e+01
9.760000000000000853e+01 4.795526235980935326e+01
9.800000000000000000e+01 4.785477822389125180e+01
9.840000000000000568e+01 4.775490406589501902e+01
9.880000000000001137e+01 4.765563365598607248e+01
9.920000000000000284e+01 4.755696085381315896e+01
9.960000000000000853e+01 4.745866751469041134e+01
1.000000000000000000e+02 4.736089188782803205e+01
1.004000000000000057e+02 4.726369820288704204e+01
1.008000000000000114e+02 4.716708063516144023e+01
1.012000000000000028e+02 4.707103344192754690e+01
1.016000000000000085e+02 4.697555096095893390e+01
1.020000000000000000e+02 4.688062760907426707e+01
1.024000000000000057e+02 4.678625788071713032e+01
1.028000000000000114e+02 4.669243634656687192e+01
1.032000000000000028e+02 4.659915765218004680e+01
1.036000000000000085e+02 4.650641651666109055e+01
1.040000000000000000e+02 4.641420773136218259e+01
1.044000000000000057e+02 4.632252615861089851e+01
1.048000000000000114e+02 4.623136673046528244e+01
1.052000000000000028e+02 4.614072444749569968e+01
1.056000000000000085e+02 4.605059437759251750e+01
1.060000000000000000e+02 4.596097165479928037e+01
1.064000000000000057e+02 4.587185147817048403e+01
1.068000000000000114e+02 4.578322911065334466e+01
1.072000000000000028e+02 4.569509987799332862e+01
1.076000000000000085e+02 4.560745916766235553e+01
1.080000000000000000e+02 4.552030242780943325e+01
1.084000000000000057e+02 4.543362516623293601e+01
1.088000000000000114e+02 4.534742294937450424e+01
1.092000000000000028e+02 4.526169140133316660e+01
1.096000000000000085e+02 4.517642620290013156e+01
1.100000000000000000e+02 4.509162309061316876e+01
1.104000000000000057e+02 4.511042533554027045e+01
1.108000000000000114e+02 4.513934120179705189e+01
1.112000000000000028e+02 4.506306271930194640e+01
1.116000000000000085e+02 4.498717542058266616e+01
1.120000000000000000e+02 4.491167590883350158e+01
1.124000000000000057e+02 4.483656082879120675e+01
1.128000000000000114e+02 4.476182686608074590e+01
1.132000000000000028e+02 4.468747074657388652e+01
1.136000000000000085e+02 4.461348923575977921e+01
1.140000000000000000e+02 4.453987913812792954e+01
1.144000000000000057e+02 4.446663729656251718e+01
1.148000000000000114e+02 4.439376059174851008e+01
1.152000000000000028e+02 4.432124594158884179e+01
1.156000000000000085e+02 4.424909030063260929e+01
1.160000000000000000e+02 4.417729065951397871e+01
1.164000000000000057e+02 4.410584404440167816e+01
1.168000000000000114e+02 4.403474751645859442e+01
1.172000000000000028e+02 4.396399817131158727e+01
1.176000000000000085e+02 4.389359313853085354e+01
1.180000000000000000e+02 4.382352958111930263e+01
1.184000000000000057e+02 4.375380469501087077e+01
1.188000000000000114e+02 4.368441570857838485e+01
1.192000000000000028e+02 4.361535988215018733e+01
1.196000000000000085e+02 4.354663450753569975e+01
1.200000000000000000e+02 4.347823690755946302e+01
1.204000000000000057e+02 4.341016443560378946e+01
1.208000000000000114e+02 4.334241447515938717e+01
1.212000000000000028e+02 4.327498443938434036e+01
1.216000000000000085e+02 4.320787177067084173e+01
1.220000000000000000e+02 4.314107394021957731e+01
1.224000000000000057e+02 4.307458844762183503e+01
1.228000000000000114e+02 4.300841282044898151e+01
1.232000000000000028e+02 4.294254461384913668e+01
1.236000000000000085e+02 4.287698141015092546e+01
1.240000000000000000e+02 4.281172081847437028e+01
1.244000000000000057e+02 4.274676047434832071e+01
1.248000000000000114e+02 4.268209803933483215e+01
1.252000000000000028e+02 4.261773120065986120e+01
1.256000000000000085e+02 4.255365767085044126e+01
1.260000000000000000e+02 4.248987518737816060e+01
1.264000000000000057e+02 4.242638151230871557e+01
1.268000000000000114e+02 4.236317443195753185e+01
1.272000000000000028e+02 4.230025175655124059e+01
1.276000000000000085e+02 4.223761131989494544e+01
1.280000000000000000e+02 4.217525097904517395e+01
1.284000000000000057e+02 4.211316861398832856e+01
1.288000000000000114e+02 4.205136212732453771e+01
1.291999999999999886e+02 4.198982944395696393e+01
1.296000000000000227e+02 4.192856851078620650e+01
1.300000000000000000e+02 4.186757729640990533e+01
1.304000000000000057e+02 4.180685379082722619e+01
1.308000000000000114e+02 4.174639600514842641e+01
1.311999999999999886e+02 4.168620197130921667e+01
1.316000000000000227e+02 4.162626974178964190e+01
1.320000000000000000e+02 4.156659738933792170e+01
1.324000000000000057e+02 4.150718300669851146e+01
1.328000000000000114e+02 4.144802470634489566e+01
1.331999999999999886e+02 4.138912062021654492e+01
1.336000000000000227e+02 4.133046889946023583e+01
1.340000000000000000e+02 4.127206771417564823e+01
1.344000000000000057e+02 4.121391525316487758e+01
1.348000000000000114e+02 4.115600972368626032e+01
1.351999999999999886e+02 4.109834935121187272e+01
1.356000000000000227e+02 4.104050817041573396e+01
1.360000000000000000e+02 4.098195256144421705e+01
1.364000000000000057e+02 4.092364575867105714e+01
1.368000000000000114e+02 4.086558597488422606e+01
1.371999999999999886e+02 4.080777144097250186e+01
1.376000000000000227e+02 4.075020040568911384e+01
1.380000000000000000e+02 4.069287113541921741e+01
1.384000000000000057e+02 4.063578191395087202e+01
1.388000000000000114e+02 4.057893104224995540e+01
1.392000000000000171e+02 4.052231683823832498e+01
1.395999999999999943e+02 4.046593763657572396e+01
1.400000000000000000e+02 4.040979178844494157e+01
1.404000000000000057e+02 4.035387766134055454e+01
1.408000000000000114e+02 4.029819363886066697e+01
1.412000000000000171e+02 4.024273812050225985e+01
1.415999999999999943e+02 4.018750952145938982e+01
1.420000000000000000e+02 4.013250627242477009e+01
1.424000000000000057e+02 4.007772681939427173e+01
1.428000000000000114e+02 4.002316962347453000e+01
1.432000000000000171e+02 3.996883316069338576e+01
1.435999999999999943e+02 3.991471592181344619e+01
1.440000000000000000e+02 3.986053080812538951e+01
1.444000000000000057e+02 3.980629596941876969e+01
1.448000000000000114e+02 3.975227921571339351e+01
1.452000000000000171e+02 3.969847906642988278e+01
1.455999999999999943e+02 3.964489405515736564e+01
1.460000000000000000e+02 3.959152272947871865e+01
1.464000000000000057e+02 3.953836365079830273e+01
1.468000000000000114e+02 3.948541539417251300e+01
1.472000000000000171e+02 3.943267654814259515e+01
1.475999999999999943e+02 3.938014571457020452e+01
1.480000000000000000e+02 3.932782150847531710e+01
1.484000000000000057e+02 3.927570255787649955e+01
1.488000000000000114e+02 3.922378750363372291e+01
1.492000000000000171e+02 3.917207499929325110e+01
1.495999999999999943e+02 3.912056371093505192e+01
1.500000000000000000e+02 3.906925231702231827e+01
