1.000000000000000000e+01 1.159075804218184942e+02
1.040000000000000036e+01 1.172335779789786727e+02
1.080000000000000071e+01 1.174381892649349908e+02
1.119999999999999929e+01 1.227254289028278436e+02
1.159999999999999964e+01 1.238178570244162700e+02
1.200000000000000000e+01 1.198799964933970728e+02
1.240000000000000036e+01 1.163331659116278587e+02
1.280000000000000071e+01 1.131097449804931188e+02
1.319999999999999929e+01 1.101586664616253017e+02
1.359999999999999964e+01 1.074402874938003265e+02
1.400000000000000000e+01 1.050956460295101351e+02
1.440000000000000036e+01 1.030277152274352090e+02
1.480000000000000071e+01 1.010930282454086608e+02
1.519999999999999929e+01 9.927695219735900878e+01
1.560000000000000142e+01 9.759605977386658537e+01
1.600000000000000000e+01 9.605219448054661768e+01
1.639999999999999858e+01 9.458812940266062697e+01
1.680000000000000071e+01 9.320104325399113065e+01
1.719999999999999929e+01 9.201468565579384062e+01
1.760000000000000142e+01 9.088318265363439252e+01
1.800000000000000000e+01 8.980216182911868827e+01
1.839999999999999858e+01 8.876774631596666154e+01
1.880000000000000071e+01 8.777648204877655758e+01
1.920000000000000284e+01 8.682527806545755311e+01
1.960000000000000142e+01 8.591135711432440303e+01
2.000000000000000000e+01 8.503221447645620401e+01
2.039999999999999858e+01 8.418558339717796457e+01
2.080000000000000071e+01 8.336940587907335498e+01
2.120000000000000284e+01 8.258180785808116298e+01
2.160000000000000142e+01 8.094614976681199892e+01
2.200000000000000000e+01 8.021814897527987398e+01
2.239999999999999858e+01 7.951441206352981794e+01
2.280000000000000071e+01 7.883355915520769486e+01
2.320000000000000284e+01 7.394160294089465424e+01
2.360000000000000142e+01 7.326773037428219482e+01
2.400000000000000000e+01 7.261421290371912107e+01
2.439999999999999858e+01 7.198000637223067599e+01
2.480000000000000071e+01 7.136414188030911987e+01
2.520000000000000284e+01 7.076571881645816120e+01
2.560000000000000142e+01 7.018389867426586193e+01
2.600000000000000000e+01 6.961789955162124954e+01
2.640000000000000213e+01 6.906699124356615016e+01
2.680000000000000071e+01 6.853049085343627667e+01
2.719999999999999929e+01 6.801279280204900601e+01
2.760000000000000142e+01 6.753989697357263822e+01
2.800000000000000000e+01 6.707869268680497044e+01
2.840000000000000213e+01 6.662868229541017229e+01
2.880000000000000071e+01 6.618939792739917038e+01
2.920000000000000284e+01 6.576039920319958298e+01
2.960000000000000142e+01 6.534127116613002784e+01
3.000000000000000000e+01 6.493162240208890523e+01
3.040000000000000213e+01 6.453108332816456993e+01
3.080000000000000071e+01 6.413930463236511059e+01
3.120000000000000284e+01 6.375595584881230593e+01
3.160000000000000142e+01 6.038383869499281786e+01
3.200000000000000000e+01 5.998228956035126913e+01
3.240000000000000568e+01 5.958916417106581775e+01
3.279999999999999716e+01 5.918596799935450292e+01
3.320000000000000284e+01 5.879074962063653942e+01
3.360000000000000142e+01 5.840361960119777507e+01
3.400000000000000000e+01 5.802429874476382565e+01
3.440000000000000568e+01 5.765252132119682216e+01
3.479999999999999716e+01 5.728803423675661577e+01
3.520000000000000284e+01 5.711728028838036408e+01
3.560000000000000142e+01 5.677655458145742529e+01
3.600000000000000000e+01 5.644217282247709733e+01
3.640000000000000568e+01 5.611393509544556224e+01
3.679999999999999716e+01 5.579165030272554304e+01
3.720000000000000284e+01 5.547513566744103741e+01
3.760000000000000142e+01 5.516421626997388472e+01
3.800000000000000000e+01 5.485872461581091386e+01
3.840000000000000568e+01 5.455850023225377043e+01
3.879999999999999716e+01 5.426338929172899128e+01
3.920000000000000284e+01 5.397324425963917349e+01
3.960000000000000142e+01 5.368792356487902850e+01
4.000000000000000000e+01 5.340729129130389197e+01
4.040000000000000568e+01 5.313121688858701219e+01
4.079999999999999716e+01 5.285957490103530176e+01
4.120000000000000284e+01 5.259224471305436310e+01
4.160000000000000142e+01 5.232911031006261737e+01
4.200000000000000000e+01 5.207006005375405522e+01
4.239999999999999858e+01 5.181498647069814467e+01
4.280000000000000426e+01 5.156378605334833054e+01
4.320000000000000284e+01 5.131556627095478973e+01
4.360000000000000142e+01 5.107048108361467342e+01
4.400000000000000000e+01 5.082900555527132980e+01
4.439999999999999858e+01 5.059104948356977616e+01
4.480000000000000426e+01 5.035652583112438663e+01
4.520000000000000284e+01 5.012535058313724790e+01
4.560000000000000142e+01 4.989744261280603865e+01
4.600000000000000000e+01 4.967272355402087669e+01
4.639999999999999858e+01 4.945072618677924936e+01
4.680000000000000426e+01 4.922849582953546133e+01
4.720000000000000284e+01 4.900928123389972768e+01
4.760000000000000142e+01 4.900648709155477434e+01
4.800000000000000000e+01 4.880997852170347073e+01
4.840000000000000568e+01 4.861594012710585133e+01
4.880000000000000426e+01 4.842431911900629871e+01
4.920000000000000284e+01 4.823506429536807616e+01
4.960000000000000142e+01 4.804812597965496224e+01
5.000000000000000000e+01 4.786345596248694534e+01
5.040000000000000568e+01 4.768100744601083107e+01
5.080000000000000426e+01 4.750073499083788420e+01
5.120000000000000284e+01 4.732259446540882664e+01
5.160000000000000142e+01 4.714654299765614098e+01
5.200000000000000000e+01 4.501510867421215778e+01
5.240000000000000568e+01 4.483540161940283753e+01
5.280000000000000426e+01 4.465655669056346255e+01
5.320000000000000284e+01 4.448335271392505774e+01
5.360000000000000142e+01 4.431213059028873147e+01
5.400000000000000000e+01 4.414285237273214335e+01
5.440000000000000568e+01 4.397548112963685440e+01
5.480000000000000426e+01 4.380998090990892990e+01
5.520000000000000284e+01 4.364631670964825361e+01
5.560000000000000142e+01 4.348445444019525752e+01
5.600000000000000000e+01 4.332436089748847508e+01
5.640000000000000568e+01 4.316600373266965818e+01
5.680000000000000426e+01 4.300935142387661614e+01
5.720000000000000284e+01 4.285437324916765078e+01
5.760000000000000142e+01 4.270103926052390619e+01
5.800000000000000000e+01 4.254932025887948299e+01
5.840000000000000568e+01 4.239918777013136264e+01
5.880000000000000426e+01 4.225061402208410044e+01
5.920000000000000284e+01 4.210357192228624967e+01
5.960000000000000142e+01 4.195803503671832146e+01
6.000000000000000000e+01 4.181397756929335685e+01
6.040000000000000568e+01 4.167137434213414338e+01
6.080000000000000426e+01 4.153020077659216724e+01
6.120000000000000284e+01 4.139043287497558055e+01
6.160000000000000142e+01 4.125204720295518968e+01
6.200000000000000000e+01 4.111502087261856531e+01
6.240000000000000568e+01 4.097485246619471155e+01
6.280000000000000426e+01 4.083483037568897345e+01
6.320000000000000284e+01 4.069619095665538566e+01
6.360000000000000142e+01 4.055891137104050159e+01
6.400000000000000000e+01 4.042296930877860461e+01
6.440000000000000568e+01 4.028834297213376203e+01
6.480000000000001137e+01 4.015501106060762027e+01
6.520000000000000284e+01 4.002295275638877570e+01
6.559999999999999432e+01 3.989214771032096962e+01
6.600000000000000000e+01 3.976257602836825811e+01
6.640000000000000568e+01 3.970070714223238895e+01
6.680000000000001137e+01 3.957757765646006476e+01
6.720000000000000284e+01 3.945557949415373855e+01
6.759999999999999432e+01 3.933469520815076237e+01
6.800000000000000000e+01 3.921490772810686565e+01
6.840000000000000568e+01 3.909620035005681871e+01
6.880000000000001137e+01 3.897855672632726964e+01
6.920000000000000284e+01 3.886196085578808379e+01
6.959999999999999432e+01 3.874639707442852909e+01
7.000000000000000000e+01 3.863185004624574503e+01
7.040000000000000568e+01 3.851830475443323110e+01
7.080000000000001137e+01 3.840574649285775166e+01
7.120000000000000284e+01 3.829416085781344492e+01
7.159999999999999432e+01 3.818353374004274770e+01
7.200000000000000000e+01 3.807385131701358461e+01
7.240000000000000568e+01 3.796510004544362005e+01
7.280000000000001137e+01 3.785726665406179592e+01
7.320000000000000284e+01 3.775033813659857174e+01
7.359999999999999432e+01 3.765918434940821413e+01
7.400000000000000000e+01 3.755510035809899705e+01
7.440000000000000568e+01 3.745187176286747643e+01
7.479999999999999716e+01 3.734948674946470959e+01
7.520000000000000284e+01 3.724793373232675719e+01
7.560000000000000853e+01 3.714720134889387282e+01
7.600000000000000000e+01 3.704727845410191378e+01
7.640000000000000568e+01 3.694815411503938662e+01
7.679999999999999716e+01 3.684981760576459209e+01
7.720000000000000284e+01 3.674982612948977589e+01
7.760000000000000853e+01 3.665024583742746245e+01
7.800000000000000000e+01 3.655145098751749089e+01
7.840000000000000568e+01 3.645343119714865310e+01
7.879999999999999716e+01 3.635617627595978263e+01
7.920000000000000284e+01 3.625967622127245704e+01
7.960000000000000853e+01 3.616392121365593226e+01
8.000000000000000000e+01 3.606890161261968331e+01
8.040000000000000568e+01 3.597460795242936626e+01
8.079999999999999716e+01 3.588103093804195964e+01
8.120000000000000284e+01 3.578816144115609177e+01
8.160000000000000853e+01 3.569599049637371024e+01
8.200000000000000000e+01 3.560450929746944837e+01
8.240000000000000568e+01 3.551370919376405055e+01
8.279999999999999716e+01 3.559055671428585299e+01
8.320000000000000284e+01 3.550340413626314984e+01
8.360000000000000853e+01 3.541688302199126781e+01
8.400000000000000000e+01 3.533098567541329516e+01
8.440000000000000568e+01 3.524570453216420418e+01
8.479999999999999716e+01 3.516100248865359390e+01
8.520000000000000284e+01 3.507663896469323106e+01
8.560000000000000853e+01 3.499287217412731366e+01
8.600000000000000000e+01 3.490969501881114923e+01
8.640000000000000568e+01 3.482610913567511091e+01
8.680000000000001137e+01 3.474296627882379340e+01
8.720000000000000284e+01 3.466040310610191000e+01
8.760000000000000853e+01 3.457841282808003314e+01
8.800000000000000000e+01 3.449698876698880667e+01
8.840000000000000568e+01 3.441612435435761341e+01
8.880000000000001137e+01 3.433581312871417168e+01
8.920000000000000284e+01 3.425604873334324196e+01
8.960000000000000853e+01 3.417682491410270273e+01
9.000000000000000000e+01 3.409813551729511261e+01
9.040000000000000568e+01 3.401997448759322396e+01
9.080000000000001137e+01 3.394233586601779962e+01
9.120000000000000284e+01 3.386521378796611259e+01
9.160000000000000853e+01 3.378860248128986399e+01
9.200000000000000000e+01 3.371249626442059366e+01
9.240000000000000568e+01 3.363688954454175928e+01
9.280000000000001137e+01 3.356177681580576433e+01
9.320000000000000284e+01 3.348715265759459214e+01
9.360000000000000853e+01 3.341301173282307957e+01
9.400000000000000000e+01 3.333934878628332399e+01
9.440000000000000568e+01 3.326615864302920045e+01
9.480000000000001137e+01 3.319343620679970286e+01
9.520000000000000284e+01 3.312117645848024239e+01
9.560000000000000853e+01 3.304937445460053169e+01
9.600000000000000000e+01 3.297802532586827340e+01
9.640000000000000568e+01 3.290712427573751597e+01
9.680000000000001137e+01 3.283666657901073904e+01
9.720000000000000284e+01 3.276664758047377290e+01
9.760000000000000853e+01 3.269706269356252903e+01
9.800000000000000000e+01 3.262762749683489005e+01
9.840000000000000568e+01 3.255944297524135322e+01
9.880000000000001137e+01 3.249167462634665782e+01
9.920000000000000284e+01 3.242431818315024827e+01
9.960000000000000853e+01 3.235736944010358229e+01
1.000000000000000000e+02 3.229082425197178452e+01
1.004000000000000057e+02 3.222467853272085847e+01
1.008000000000000114e+02 3.215892825443012981e+01
1.012000000000000028e+02 3.209356944622897601e+01
1.016000000000000085e+02 3.202859819325735913e+01
1.020000000000000000e+02 3.196401063564944423e+01
1.024000000000000057e+02 3.189980296753984135e+01
1.028000000000000114e+02 3.183597143609162572e+01
1.032000000000000028e+02 3.177251234054587314e+01
1.036000000000000085e+02 3.170931116784960579e+01
1.040000000000000000e+02 3.164647248946013747e+01
1.044000000000000057e+02 3.158399499989305426e+01
1.048000000000000114e+02 3.152187521827458028e+01
1.052000000000000028e+02 3.146010971079540752e+01
1.056000000000000085e+02 3.139869508989294289e+01
1.060000000000000000e+02 3.133762801345095284e+01
1.064000000000000057e+02 3.127690518401606212e+01
1.068000000000000114e+02 3.121652334803066609e+01
1.072000000000000028e+02 3.115647929508206104e+01
1.076000000000000085e+02 3.109676985716714626e+01
1.080000000000000000e+02 3.103739190797239189e+01
1.084000000000000057e+02 3.097834236216875325e+01
1.088000000000000114e+02 3.091961817472121510e+01
1.092000000000000028e+02 3.086121634021234428e+01
1.096000000000000085e+02 3.080313389217986852e+01
1.100000000000000000e+02 3.074536790246769513e+01
1.104000000000000057e+02 3.079106296029942769e+01
1.108000000000000114e+02 3.076374035755565473e+01
1.112000000000000028e+02 3.071019349804704746e+01
1.116000000000000085e+02 3.065692707721191113e+01
1.120000000000000000e+02 3.060393861727455445e+01
1.124000000000000057e+02 3.055122567123791555e+01
1.128000000000000114e+02 3.049878582239169589e+01
1.132000000000000028e+02 3.044661668383014330e+01
1.136000000000000085e+02 3.039471589797909701e+01
1.140000000000000000e+02 3.034308113613237268e+01
1.144000000000000057e+02 3.029171009799690495e+01
1.148000000000000114e+02 3.024060051124678239e+01
1.152000000000000028e+02 3.018975013108576633e+01
1.156000000000000085e+02 3.013915673981815502e+01
1.160000000000000000e+02 3.008881814642787589e+01
1.164000000000000057e+02 3.003873218616548613e+01
1.168000000000000114e+02 2.998889672014303187e+01
1.172000000000000028e+02 2.993930963493656350e+01
1.176000000000000085e+02 2.988996884219597305e+01
1.180000000000000000e+02 2.984087227826231015e+01
1.184000000000000057e+02 2.979201790379214287e+01
1.188000000000000114e+02 2.974340370338885720e+01
1.192000000000000028e+02 2.969502768524087699e+01
1.196000000000000085e+02 2.964688788076649217e+01
1.200000000000000000e+02 2.959898234426522379e+01
1.204000000000000057e+02 2.955130915257561952e+01
1.208000000000000114e+02 2.950386640473927713e+01
1.212000000000000028e+02 2.945665222167092878e+01
1.216000000000000085e+02 2.940966474583462187e+01
1.220000000000000000e+02 2.936290214092568363e+01
1.224000000000000057e+02 2.931636259155837365e+01
1.228000000000000114e+02 2.927004430295931670e+01
1.232000000000000028e+02 2.922394550066620766e+01
1.236000000000000085e+02 2.917806443023202689e+01
1.240000000000000000e+02 2.913239935693452765e+01
1.244000000000000057e+02 2.908694856549080043e+01
1.248000000000000114e+02 2.904171035977690352e+01
1.252000000000000028e+02 2.900211452663601008e+01
1.256000000000000085e+02 2.895755228600084052e+01
1.260000000000000000e+02 2.891319591801799405e+01
1.264000000000000057e+02 2.886904381791853069e+01
1.268000000000000114e+02 2.882509439852936595e+01
1.272000000000000028e+02 2.878134609002490407e+01
1.276000000000000085e+02 2.873779733968305905e+01
1.280000000000000000e+02 2.869444661164539667e+01
1.284000000000000057e+02 2.864364586808692792e+01
1.288000000000000114e+02 2.860109782246240684e+01
1.291999999999999886e+02 2.855874118278127938e+01
1.296000000000000227e+02 2.851657449319151993e+01
1.300000000000000000e+02 2.847459631344034392e+01
1.304000000000000057e+02 2.843280521865878896e+01
1.308000000000000114e+02 2.839119979914995184e+01
1.311999999999999886e+02 2.834977866018080661e+01
1.316000000000000227e+02 2.830854042177746877e+01
1.320000000000000000e+02 2.826748371852392694e+01
1.324000000000000057e+02 2.822660719936410700e+01
1.328000000000000114e+02 2.818590952740725086e+01
1.331999999999999886e+02 2.814538937973650334e+01
1.336000000000000227e+02 2.810504544722065390e+01
1.340000000000000000e+02 2.806487643432900825e+01
1.344000000000000057e+02 2.802488105894927273e+01
1.348000000000000114e+02 2.798505805220844778e+01
1.351999999999999886e+02 2.794540615829661689e+01
1.356000000000000227e+02 2.790581808210026082e+01
1.360000000000000000e+02 2.786615962315799777e+01
1.364000000000000057e+02 2.782667080273933635e+01
1.368000000000000114e+02 2.778735039478313951e+01
1.371999999999999886e+02 2.774819718571274763e+01
1.376000000000000227e+02 2.770920997427215582e+01
1.380000000000000000e+02 2.767038757136477400e+01
1.384000000000000057e+02 2.763172879989473785e+01
1.388000000000000114e+02 2.759323249461087002e+01
1.392000000000000171e+02 2.755489750195295073e+01
1.395999999999999943e+02 2.751672267990058174e+01
1.400000000000000000e+02 2.747866880237684484e+01
1.404000000000000057e+02 2.744075297429905191e+01
1.408000000000000114e+02 2.740299426611403533e+01
1.412000000000000171e+02 2.736539157800185151e+01
1.415999999999999943e+02 2.732794382098906283e+01
1.420000000000000000e+02 2.729064991681088159e+01
1.424000000000000057e+02 2.725350879777537472e+01
1.428000000000000114e+02 2.721651940662988522e+01
1.432000000000000171e+02 2.717968069642937934e+01
1.435999999999999943e+02 2.714299163040697849e+01
1.440000000000000000e+02 2.710616557782349645e+01
1.444000000000000057e+02 2.706922115199348866e+01
1.448000000000000114e+02 2.703242662207117064e+01
1.452000000000000171e+02 2.699578096227462254e+01
1.455999999999999943e+02 2.695928315670634134e+01
1.460000000000000000e+02 2.692293219923055148e+01
1.464000000000000057e+02 2.688672709335228106e+01
1.468000000000000114e+02 2.685066685209838511e+01
1.472000000000000171e+02 2.681475049790025267e+01
1.475999999999999943e+02 2.677897706247834009e+01
1.480000000000000000e+02 2.674334558672846995e+01
1.484000000000000057e+02 2.670785512060972522e+01
1.488000000000000114e+02 2.667250472303415876e+01
1.492000000000000171e+02 2.663729346175799861e+01
1.495999999999999943e+02 2.660222041327458697e+01
1.500000000000000000e+02 2.656728466270881484e+01
