1.000000000000000000e+01 1.970646637203727209e+02
1.040000000000000036e+01 1.973588680384384020e+02
1.080000000000000071e+01 1.961632485998117659e+02
1.119999999999999929e+01 1.950559041422926043e+02
1.159999999999999964e+01 2.034266454947122611e+02
1.200000000000000000e+01 2.099955668846537833e+02
1.240000000000000036e+01 2.132764826402075187e+02
1.280000000000000071e+01 2.196329328634337514e+02
1.319999999999999929e+01 2.242734218320713069e+02
1.359999999999999964e+01 2.334991068257136249e+02
1.400000000000000000e+01 2.582196132090593892e+02
1.440000000000000036e+01 2.540189476983352392e+02
1.480000000000000071e+01 2.500945426691100693e+02
1.519999999999999929e+01 2.464133509996191833e+02
1.560000000000000142e+01 2.429479720951011643e+02
1.600000000000000000e+01 2.396754243107133391e+02
1.639999999999999858e+01 2.365762354550098507e+02
1.680000000000000071e+01 2.336337570622943645e+02
1.719999999999999929e+01 2.308336392629648230e+02
1.760000000000000142e+01 2.281634229885529521e+02
1.800000000000000000e+01 2.256122192872092000e+02
1.839999999999999858e+01 2.231704542534432107e+02
1.880000000000000071e+01 2.208296640339721648e+02
1.920000000000000284e+01 2.185823285116029808e+02
1.960000000000000142e+01 2.164217351928257926e+02
2.000000000000000000e+01 2.143418669203767877e+02
2.039999999999999858e+01 2.123373085545803463e+02
2.080000000000000071e+01 2.104031688874479187e+02
2.120000000000000284e+01 2.085350148872412888e+02
2.160000000000000142e+01 2.067288159984524043e+02
2.200000000000000000e+01 2.049808966987886834e+02
2.239999999999999858e+01 2.032878958803361797e+02
2.280000000000000071e+01 2.016467319049305047e+02
2.320000000000000284e+01 2.000545724044110329e+02
2.360000000000000142e+01 1.985088080698710087e+02
2.400000000000000000e+01 1.970070298113335525e+02
2.439999999999999858e+01 1.955470087787427644e+02
2.480000000000000071e+01 1.941266788229705185e+02
2.520000000000000284e+01 1.927441210464161827e+02
2.560000000000000142e+01 1.913975501503088594e+02
2.600000000000000000e+01 1.900853023327790368e+02
2.640000000000000213e+01 1.888058245302909768e+02
2.680000000000000071e+01 1.875576648267868336e+02
2.719999999999999929e+01 1.863394638812000608e+02
2.760000000000000142e+01 1.851499472458815774e+02
2.800000000000000000e+01 1.839879184667699974e+02
2.840000000000000213e+01 1.828522528714748319e+02
2.880000000000000071e+01 1.817418919643638446e+02
2.920000000000000284e+01 1.806558383586634591e+02
2.960000000000000142e+01 1.795931511848457376e+02
3.000000000000000000e+01 1.785529419224591834e+02
3.040000000000000213e+01 1.775343706092950242e+02
3.080000000000000071e+01 1.765366423875474879e+02
3.120000000000000284e+01 1.755590043515823879e+02
3.160000000000000142e+01 1.746007426661992668e+02
3.200000000000000000e+01 1.736611799279615411e+02
3.240000000000000568e+01 1.727396727453672725e+02
3.279999999999999716e+01 1.718356095164091926e+02
3.320000000000000284e+01 1.709484083844913584e+02
3.360000000000000142e+01 1.700775153557827366e+02
3.400000000000000000e+01 1.692224025629310518e+02
3.440000000000000568e+01 1.683825666616853027e+02
3.479999999999999716e+01 1.675575273483936485e+02
3.520000000000000284e+01 1.667468259876012553e+02
3.560000000000000142e+01 1.659500243400757995e+02
3.600000000000000000e+01 1.651667033825681870e+02
3.640000000000000568e+01 1.643964622114821736e+02
3.679999999999999716e+01 1.636389170233950381e+02
3.720000000000000284e+01 1.628937001660554813e+02
3.760000000000000142e+01 1.621604592540946896e+02
3.800000000000000000e+01 1.614388563442275313e+02
3.840000000000000568e+01 1.607285671652091423e+02
3.879999999999999716e+01 1.600292803982443104e+02
3.920000000000000284e+01 1.593406970039371231e+02
3.960000000000000142e+01 1.586625295922194709e+02
4.000000000000000000e+01 1.579945018320084955e+02
4.040000000000000568e+01 1.573363478976287411e+02
4.079999999999999716e+01 1.566878119492878909e+02
4.120000000000000284e+01 1.560486476451272040e+02
4.160000000000000142e+01 1.554186176825737959e+02
4.200000000000000000e+01 1.547974933669124198e+02
4.239999999999999858e+01 1.541850542051633965e+02
4.280000000000000426e+01 1.535810875235102060e+02
4.320000000000000284e+01 1.529853881066586325e+02
4.360000000000000142e+01 1.523977578576399310e+02
4.400000000000000000e+01 1.518180054766845615e+02
4.439999999999999858e+01 1.512459461579019546e+02
4.480000000000000426e+01 1.506814013025954750e+02
4.520000000000000284e+01 1.501241982481337232e+02
4.560000000000000142e+01 1.495741700113772481e+02
4.600000000000000000e+01 1.490311550457361989e+02
4.639999999999999858e+01 1.484949970110005211e+02
4.680000000000000426e+01 1.479655445551479431e+02
4.720000000000000284e+01 1.474426511073912138e+02
4.760000000000000142e+01 1.469261746817788605e+02
4.800000000000000000e+01 1.464159776907119976e+02
4.840000000000000568e+01 1.459119267677845926e+02
4.880000000000000426e+01 1.454138925993943303e+02
4.920000000000000284e+01 1.449217497646103539e+02
4.960000000000000142e+01 1.444353765828180371e+02
5.000000000000000000e+01 1.439546549686931769e+02
5.040000000000000568e+01 1.434794702940883724e+02
5.080000000000000426e+01 1.430097112564409372e+02
5.120000000000000284e+01 1.425452697533376067e+02
5.160000000000000142e+01 1.420860407628950384e+02
5.200000000000000000e+01 1.416319222296361318e+02
5.240000000000000568e+01 1.411828149555637140e+02
5.280000000000000426e+01 1.407386224961504695e+02
5.320000000000000284e+01 1.402992510609827548e+02
5.360000000000000142e+01 1.398646094188113125e+02
5.400000000000000000e+01 1.394346088067773053e+02
5.440000000000000568e+01 1.390091628435963287e+02
5.480000000000000426e+01 1.385881874464957093e+02
5.520000000000000284e+01 1.381716007517127593e+02
5.560000000000000142e+01 1.377593230383734522e+02
5.600000000000000000e+01 1.373512766555809890e+02
5.640000000000000568e+01 1.369473859525537023e+02
5.680000000000000426e+01 1.365475772116614053e+02
5.720000000000000284e+01 1.361517785842179649e+02
5.760000000000000142e+01 1.357599200288947543e+02
5.800000000000000000e+01 1.353719332526294181e+02
5.840000000000000568e+01 1.349877516539091289e+02
5.880000000000000426e+01 1.346073102683159277e+02
5.920000000000000284e+01 1.342305457162267999e+02
5.960000000000000142e+01 1.338573961525677305e+02
6.000000000000000000e+01 1.334878012185260445e+02
6.040000000000000568e+01 1.331217019951305076e+02
6.080000000000000426e+01 1.327590409586138094e+02
6.120000000000000284e+01 1.323997619374760291e+02
6.160000000000000142e+01 1.320438100711724587e+02
6.200000000000000000e+01 1.316911317703527402e+02
6.240000000000000568e+01 1.313416746785828764e+02
6.280000000000000426e+01 1.309953876354836098e+02
6.320000000000000284e+01 1.306522206412238631e+02
6.360000000000000142e+01 1.303121248223099542e+02
6.400000000000000000e+01 1.299750523986143094e+02
6.440000000000000568e+01 1.296409566515908409e+02
6.480000000000001137e+01 1.293097918936262261e+02
6.520000000000000284e+01 1.289815134384786006e+02
6.559999999999999432e+01 1.286560775727585906e+02
6.600000000000000000e+01 1.283334415284086276e+02
6.640000000000000568e+01 1.280135634561395364e+02
6.680000000000001137e+01 1.276964023997842901e+02
6.720000000000000284e+01 1.273819182715321858e+02
6.759999999999999432e+01 1.270700718280069026e+02
6.800000000000000000e+01 1.267608246471550331e+02
6.840000000000000568e+01 1.264541391059119206e+02
6.880000000000001137e+01 1.261499783586141916e+02
6.920000000000000284e+01 1.258483063161293387e+02
6.959999999999999432e+01 1.255490876256739057e+02
7.000000000000000000e+01 1.252522876512937415e+02
7.040000000000000568e+01 1.249578724549802473e+02
7.080000000000001137e+01 1.246658087783980591e+02
7.120000000000000284e+01 1.243760640252008898e+02
7.159999999999999432e+01 1.240886062439130626e+02
7.200000000000000000e+01 1.238034041113551211e+02
7.240000000000000568e+01 1.235204269165930384e+02
7.280000000000001137e+01 1.232396445453917408e+02
7.320000000000000284e+01 1.229610274651537196e+02
7.359999999999999432e+01 1.226845467103249518e+02
7.400000000000000000e+01 1.224101738682511495e+02
7.440000000000000568e+01 1.221378810654674965e+02
7.479999999999999716e+01 1.218676409544065677e+02
7.520000000000000284e+01 1.215994267005087863e+02
7.560000000000000853e+01 1.213332119697214750e+02
7.600000000000000000e+01 1.210689709163720238e+02
7.640000000000000568e+01 1.208066781714028934e+02
7.679999999999999716e+01 1.205463088309542741e+02
7.720000000000000284e+01 1.202878384452835121e+02
7.760000000000000853e+01 1.200312430080087154e+02
7.800000000000000000e+01 1.197764989456657361e+02
7.840000000000000568e+01 1.195235831075672763e+02
7.879999999999999716e+01 1.192724727559543254e+02
7.920000000000000284e+01 1.190231455564293412e+02
7.960000000000000853e+01 1.187755795686622093e+02
8.000000000000000000e+01 1.185297532373589746e+02
8.040000000000000568e+01 1.182856453834856438e+02
8.079999999999999716e+01 1.180432351957373385e+02
8.120000000000000284e+01 1.178025022222455362e+02
8.160000000000000853e+01 1.175634263625150595e+02
8.200000000000000000e+01 1.173259878595835204e+02
8.240000000000000568e+01 1.170901672923957051e+02
8.279999999999999716e+01 1.168559455683861188e+02
8.320000000000000284e+01 1.166233039162629836e+02
8.360000000000000853e+01 1.163922238789868260e+02
8.400000000000000000e+01 1.161626873069380110e+02
8.440000000000000568e+01 1.159346763512665603e+02
8.479999999999999716e+01 1.157081734574191501e+02
8.520000000000000284e+01 1.154831613588372363e+02
8.560000000000000853e+01 1.152596230708208225e+02
8.600000000000000000e+01 1.150375418845533204e+02
8.640000000000000568e+01 1.148169013612819356e+02
8.680000000000001137e+01 1.145976853266490707e+02
8.720000000000000284e+01 1.143798778651696466e+02
8.760000000000000853e+01 1.141634633148507589e+02
8.800000000000000000e+01 1.139484262619483843e+02
8.840000000000000568e+01 1.137347515358576118e+02
8.880000000000001137e+01 1.135224242041321077e+02
8.920000000000000284e+01 1.133114295676290197e+02
8.960000000000000853e+01 1.131017531557753273e+02
9.000000000000000000e+01 1.128933807219526955e+02
9.040000000000000568e+01 1.126862982389965993e+02
9.080000000000001137e+01 1.124804918948065193e+02
9.120000000000000284e+01 1.122759480880644105e+02
9.160000000000000853e+01 1.120726534240576484e+02
9.200000000000000000e+01 1.118705947106040099e+02
9.240000000000000568e+01 1.116697589540751778e+02
9.280000000000001137e+01 1.114701333555163814e+02
9.320000000000000284e+01 1.112717053068593032e+02
9.360000000000000853e+01 1.110744623872253101e+02
9.400000000000000000e+01 1.108783923593171039e+02
9.440000000000000568e+01 1.106834831658952965e+02
9.480000000000001137e+01 1.104897229263387430e+02
9.520000000000000284e+01 1.102970999332851818e+02
9.560000000000000853e+01 1.101056026493505442e+02
9.600000000000000000e+01 1.099152197039248620e+02
9.640000000000000568e+01 1.097259398900419285e+02
9.680000000000001137e+01 1.095377521613217198e+02
9.720000000000000284e+01 1.093506456289827611e+02
9.760000000000000853e+01 1.091646095589226491e+02
9.800000000000000000e+01 1.089796333688656205e+02
9.840000000000000568e+01 1.087957066255740415e+02
9.880000000000001137e+01 1.086128190421235047e+02
9.920000000000000284e+01 1.084309604752387770e+02
9.960000000000000853e+01 1.082501209226895185e+02
1.000000000000000000e+02 1.080702905207440097e+02
1.004000000000000057e+02 1.078914595416793958e+02
1.008000000000000114e+02 1.077136183913468841e+02
1.012000000000000028e+02 1.075367576067907009e+02
1.016000000000000085e+02 1.073608678539189469e+02
1.020000000000000000e+02 1.071859399252255400e+02
1.024000000000000057e+02 1.070119647375614562e+02
1.028000000000000114e+02 1.068389333299544575e+02
1.032000000000000028e+02 1.066668368614754456e+02
1.036000000000000085e+02 1.064956666091509589e+02
1.040000000000000000e+02 1.063254139659201627e+02
1.044000000000000057e+02 1.061560704386352540e+02
1.048000000000000114e+02 1.059876276461043574e+02
1.052000000000000028e+02 1.058200773171758584e+02
1.056000000000000085e+02 1.056534112888626709e+02
1.060000000000000000e+02 1.054876215045062935e+02
1.064000000000000057e+02 1.053227000119787249e+02
1.068000000000000114e+02 1.051586389619220938e+02
1.072000000000000028e+02 1.049954306060245131e+02
1.076000000000000085e+02 1.048330672953315457e+02
1.080000000000000000e+02 1.046715414785924452e+02
1.084000000000000057e+02 1.045108457006400613e+02
1.088000000000000114e+02 1.043509726008039706e+02
1.092000000000000028e+02 1.041919149113556387e+02
1.096000000000000085e+02 1.040336654559851439e+02
1.100000000000000000e+02 1.038762171483084984e+02
1.104000000000000057e+02 1.037195629904050236e+02
1.108000000000000114e+02 1.035636960713838732e+02
1.112000000000000028e+02 1.034086095659792477e+02
1.116000000000000085e+02 1.032542967331733053e+02
1.120000000000000000e+02 1.031007509148463583e+02
1.124000000000000057e+02 1.029479655344538145e+02
1.128000000000000114e+02 1.027959340957287111e+02
1.132000000000000028e+02 1.026446501814100998e+02
1.136000000000000085e+02 1.024941074519956459e+02
1.140000000000000000e+02 1.023442996445189692e+02
1.144000000000000057e+02 1.021952205713501769e+02
1.148000000000000114e+02 1.020468641190197729e+02
1.152000000000000028e+02 1.018992242470650496e+02
1.156000000000000085e+02 1.017522949868985336e+02
1.160000000000000000e+02 1.016060704406979767e+02
1.164000000000000057e+02 1.014605447803173774e+02
1.168000000000000114e+02 1.013157122462187658e+02
1.172000000000000028e+02 1.011715671464239819e+02
1.176000000000000085e+02 1.010281038554860515e+02
1.180000000000000000e+02 1.008853168134800740e+02
1.184000000000000057e+02 1.007432005250126821e+02
1.188000000000000114e+02 1.006017495582500487e+02
1.192000000000000028e+02 1.004609585439637840e+02
1.196000000000000085e+02 1.003208221745945252e+02
1.200000000000000000e+02 1.001813352033327362e+02
1.204000000000000057e+02 1.000424924432163039e+02
1.208000000000000114e+02 9.990428876624454801e+01
1.212000000000000028e+02 9.976671910250851738e+01
1.216000000000000085e+02 9.962977843933698807e+01
1.220000000000000000e+02 9.949346182045775322e+01
1.224000000000000057e+02 9.935776434517428868e+01
1.228000000000000114e+02 9.922268116755692802e+01
1.232000000000000028e+02 9.908820749564861785e+01
1.236000000000000085e+02 9.895433859068492666e+01
1.240000000000000000e+02 9.882106976632768180e+01
1.244000000000000057e+02 9.868839638791241953e+01
1.248000000000000114e+02 9.855631387170893731e+01
1.252000000000000028e+02 9.842481768419494870e+01
1.256000000000000085e+02 9.829390334134239993e+01
1.260000000000000000e+02 9.816356640791630639e+01
1.264000000000000057e+02 9.803380249678579617e+01
1.268000000000000114e+02 9.790460726824707649e+01
1.272000000000000028e+02 9.777597642935810995e+01
1.276000000000000085e+02 9.764790573328488676e+01
1.280000000000000000e+02 9.752039097865863937e+01
1.284000000000000057e+02 9.739342800894446839e+01
1.288000000000000114e+02 9.726701271182038511e+01
1.291999999999999886e+02 9.714114101856714001e+01
1.296000000000000227e+02 9.701580890346826891e+01
1.300000000000000000e+02 9.689101238322047038e+01
1.304000000000000057e+02 9.676674751635370342e+01
1.308000000000000114e+02 9.664301040266107634e+01
1.311999999999999886e+02 9.651979718263855546e+01
1.316000000000000227e+02 9.639710403693351282e+01
1.320000000000000000e+02 9.627492718580302267e+01
1.324000000000000057e+02 9.615326288858062753e+01
1.328000000000000114e+02 9.603210744315232716e+01
1.331999999999999886e+02 9.591145718544100873e+01
1.336000000000000227e+02 9.579130848889930405e+01
1.340000000000000000e+02 9.567165776401097332e+01
1.344000000000000057e+02 9.555250145780013327e+01
1.348000000000000114e+02 9.543383605334879860e+01
1.351999999999999886e+02 9.531565806932198370e+01
1.356000000000000227e+02 9.519796405950063445e+01
1.360000000000000000e+02 9.508075061232210601e+01
1.364000000000000057e+02 9.496401435042787398e+01
1.368000000000000114e+02 9.484775193021883410e+01
1.371999999999999886e+02 9.473196004141718163e+01
1.376000000000000227e+02 9.461663540663580818e+01
1.380000000000000000e+02 9.450177478095429251e+01
1.384000000000000057e+02 9.438737495150155610e+01
1.388000000000000114e+02 9.427343273704522630e+01
1.392000000000000171e+02 9.415994498758739439e+01
1.395999999999999943e+02 9.404690858396679687e+01
1.400000000000000000e+02 9.393432043746719273e+01
1.404000000000000057e+02 9.382217748943175195e+01
1.408000000000000114e+02 9.371047671088366826e+01
1.412000000000000171e+02 9.359921510215238527e+01
1.415999999999999943e+02 9.348838969250581954e+01
1.420000000000000000e+02 9.337799753978818273e+01
1.424000000000000057e+02 9.326803573006338866e+01
1.428000000000000114e+02 9.315850137726386038e+01
1.432000000000000171e+02 9.304939162284478016e+01
1.435999999999999943e+02 9.294070363544366842e+01
1.440000000000000000e+02 9.283243461054489387e+01
1.444000000000000057e+02 9.272458177014966907e+01
1.448000000000000114e+02 9.261714236245060761e+01
1.452000000000000171e+02 9.251011366151143989e+01
1.455999999999999943e+02 9.240349296695160319e+01
1.460000000000000000e+02 9.229727760363530820e+01
1.464000000000000057e+02 9.219146492136535187e+01
1.468000000000000114e+02 9.208605229458171948e+01
1.472000000000000171e+02 9.198103712206435034e+01
1.475999999999999943e+02 9.187641682664036580e+01
1.480000000000000000e+02 9.177218885489588729e+01
1.484000000000000057e+02 9.166835067689174821e+01
1.488000000000000114e+02 9.156489978588359691e+01
1.492000000000000171e+02 9.146183369804606400e+01
1.495999999999999943e+02 9.135914995220090873e+01
1.500000000000000000e+02 9.125684610954922960e+01
