1.000000000000000000e+01 1.873361619039678203e+02
1.040000000000000036e+01 1.828006103436999013e+02
1.080000000000000071e+01 1.796056690783757688e+02
1.119999999999999929e+01 1.749145703868235273e+02
1.159999999999999964e+01 1.726055951919099414e+02
1.200000000000000000e+01 1.679244966196483801e+02
1.240000000000000036e+01 1.636404042587478784e+02
1.280000000000000071e+01 1.596939967612708813e+02
1.319999999999999929e+01 1.560387888628223436e+02
1.359999999999999964e+01 1.526375292318559502e+02
1.400000000000000000e+01 1.494997003016812869e+02
1.440000000000000036e+01 1.466339719891937534e+02
1.480000000000000071e+01 1.439291427012420286e+02
1.519999999999999929e+01 1.413701079394363376e+02
1.560000000000000142e+01 1.389437540931403419e+02
1.600000000000000000e+01 1.366386198499550630e+02
1.639999999999999858e+01 1.344446281713305495e+02
1.680000000000000071e+01 1.323656344372651006e+02
1.719999999999999929e+01 1.307835175310834188e+02
1.760000000000000142e+01 1.292698949074577968e+02
1.800000000000000000e+01 1.278197326563725227e+02
1.839999999999999858e+01 1.256064092317901810e+02
1.880000000000000071e+01 1.242578026122443617e+02
1.920000000000000284e+01 1.229628099993048238e+02
1.960000000000000142e+01 1.217177609276089072e+02
2.000000000000000000e+01 1.205193405952215926e+02
2.039999999999999858e+01 1.193645452809579979e+02
2.080000000000000071e+01 1.182506446091856560e+02
2.120000000000000284e+01 1.171751494212141154e+02
2.160000000000000142e+01 1.161357842703108076e+02
2.200000000000000000e+01 1.151304637551512968e+02
2.239999999999999858e+01 1.141510681094782171e+02
2.280000000000000071e+01 1.131990969032071632e+02
2.320000000000000284e+01 1.122761958529795407e+02
2.360000000000000142e+01 1.113808437683648407e+02
2.400000000000000000e+01 1.105116310781942559e+02
2.439999999999999858e+01 1.096672493373205839e+02
2.480000000000000071e+01 1.088464819329003319e+02
2.520000000000000284e+01 1.080481958291559863e+02
2.560000000000000142e+01 1.072713342143384097e+02
2.600000000000000000e+01 1.065149099340926284e+02
2.640000000000000213e+01 1.057779996124563269e+02
2.680000000000000071e+01 1.050597383759299390e+02
2.719999999999999929e+01 1.043692444052483808e+02
2.760000000000000142e+01 1.037368255134827848e+02
2.800000000000000000e+01 1.031533048391860490e+02
2.840000000000000213e+01 1.026011616356774141e+02
2.880000000000000071e+01 1.020741899929779208e+02
2.920000000000000284e+01 1.015587365539034010e+02
2.960000000000000142e+01 1.010543503543230344e+02
3.000000000000000000e+01 1.005606055334166626e+02
3.040000000000000213e+01 1.000770995358802793e+02
3.080000000000000071e+01 9.960345147089422824e+01
3.120000000000000284e+01 9.913930061178798780e+01
3.160000000000000142e+01 8.969364894339716443e+01
3.200000000000000000e+01 8.914507094899691708e+01
3.240000000000000568e+01 8.860766973259271140e+01
3.279999999999999716e+01 8.808105645458576305e+01
3.320000000000000284e+01 8.756486123759266604e+01
3.360000000000000142e+01 8.705738819839608311e+01
3.400000000000000000e+01 8.655639861408525348e+01
3.440000000000000568e+01 8.606491437599575534e+01
3.479999999999999716e+01 8.558262722288428392e+01
3.520000000000000284e+01 8.510924291902837524e+01
3.560000000000000142e+01 8.464448043733428051e+01
3.600000000000000000e+01 8.418807120023662094e+01
3.640000000000000568e+01 8.373975837359047603e+01
3.679999999999999716e+01 8.329929620921294031e+01
3.720000000000000284e+01 8.286644943213832448e+01
3.760000000000000142e+01 8.244099266901787360e+01
3.800000000000000000e+01 8.202270991441955061e+01
3.840000000000000568e+01 8.161139403207788234e+01
3.879999999999999716e+01 8.120684628840663777e+01
3.920000000000000284e+01 8.080887591582374796e+01
3.960000000000000142e+01 8.041729970365175006e+01
4.000000000000000000e+01 8.003194161454862865e+01
4.040000000000000568e+01 7.965263242459859327e+01
4.079999999999999716e+01 7.924761211984606746e+01
4.120000000000000284e+01 7.889066321459345943e+01
4.160000000000000142e+01 7.853903629825016708e+01
4.200000000000000000e+01 7.819259541921969969e+01
4.239999999999999858e+01 7.785120950552808949e+01
4.280000000000000426e+01 7.751475214059999530e+01
4.320000000000000284e+01 7.718310135154038676e+01
4.360000000000000142e+01 7.685613940910424446e+01
4.400000000000000000e+01 7.653375263859746269e+01
4.439999999999999858e+01 7.621583124100865803e+01
4.480000000000000426e+01 7.590226912372227730e+01
4.520000000000000284e+01 7.559296374021141673e+01
4.560000000000000142e+01 7.528781593815149620e+01
4.600000000000000000e+01 7.498672981543565186e+01
4.639999999999999858e+01 7.468843810128807092e+01
4.680000000000000426e+01 7.438420654596659176e+01
4.720000000000000284e+01 7.408390680607818979e+01
4.760000000000000142e+01 7.378709777352966626e+01
4.800000000000000000e+01 7.348955342290393844e+01
4.840000000000000568e+01 7.319579908987027750e+01
4.880000000000000426e+01 7.290575219405431540e+01
4.920000000000000284e+01 7.261933269320111606e+01
4.960000000000000142e+01 7.233646298288230980e+01
5.000000000000000000e+01 7.205706780103108144e+01
5.040000000000000568e+01 7.178107413703159523e+01
5.080000000000000426e+01 7.150841114510755858e+01
5.120000000000000284e+01 7.123901006177003126e+01
5.160000000000000142e+01 7.097280412710165365e+01
5.200000000000000000e+01 6.875229825503986092e+01
5.240000000000000568e+01 6.848458008480592696e+01
5.280000000000000426e+01 6.822000021977727613e+01
5.320000000000000284e+01 6.596988173471130779e+01
5.360000000000000142e+01 6.570378480495784856e+01
5.400000000000000000e+01 6.544077325231718589e+01
5.440000000000000568e+01 6.518078723652223516e+01
5.480000000000000426e+01 6.492376854093598126e+01
5.520000000000000284e+01 6.466966051607114707e+01
5.560000000000000142e+01 6.441840802550176193e+01
5.600000000000000000e+01 6.416995739404852372e+01
5.640000000000000568e+01 6.399606823845138592e+01
5.680000000000000426e+01 6.375690834247787819e+01
5.720000000000000284e+01 6.352032488563569501e+01
5.760000000000000142e+01 6.328627147806557218e+01
5.800000000000000000e+01 6.305470289743351486e+01
5.840000000000000568e+01 6.282557505129268094e+01
5.880000000000000426e+01 6.259884494092118956e+01
5.920000000000000284e+01 6.237447062656774222e+01
5.960000000000000142e+01 6.215241119404132775e+01
6.000000000000000000e+01 6.193262672258276780e+01
6.040000000000000568e+01 6.171507825396121660e+01
6.080000000000000426e+01 6.149972776274034203e+01
6.120000000000000284e+01 6.128653812766190612e+01
6.160000000000000142e+01 6.107547310409783137e+01
6.200000000000000000e+01 6.086649729752342353e+01
6.240000000000000568e+01 6.065957613796754799e+01
6.280000000000000426e+01 6.045467585539712729e+01
6.320000000000000284e+01 6.025176345599606975e+01
6.360000000000000142e+01 6.005080669930021742e+01
6.400000000000000000e+01 5.985177407615201162e+01
6.440000000000000568e+01 5.965463478744042902e+01
6.480000000000001137e+01 5.945935872359308405e+01
6.520000000000000284e+01 5.926572244059009620e+01
6.559999999999999432e+01 5.907355164552206617e+01
6.600000000000000000e+01 5.888316643056332822e+01
6.640000000000000568e+01 5.889400570935841728e+01
6.680000000000001137e+01 5.871920922852756064e+01
6.720000000000000284e+01 5.854598202449520983e+01
6.759999999999999432e+01 5.837430037603358102e+01
6.800000000000000000e+01 5.820414106385843667e+01
6.840000000000000568e+01 5.803548135702207844e+01
6.880000000000001137e+01 5.786829899975491998e+01
6.920000000000000284e+01 5.770257219873867882e+01
6.959999999999999432e+01 5.753827961079404929e+01
7.000000000000000000e+01 5.737540033096742320e+01
7.040000000000000568e+01 5.721391388100126107e+01
7.080000000000001137e+01 5.705380019817347659e+01
7.120000000000000284e+01 5.689503962449203556e+01
7.159999999999999432e+01 5.673761289623159598e+01
7.200000000000000000e+01 5.658150113379925727e+01
7.240000000000000568e+01 5.642668583191723997e+01
7.280000000000001137e+01 5.627314885011108458e+01
7.320000000000000284e+01 5.612087240349186601e+01
7.359999999999999432e+01 5.596983905382188595e+01
7.400000000000000000e+01 5.582003170085371835e+01
7.440000000000000568e+01 5.567143357393239000e+01
7.479999999999999716e+01 5.552402822385177217e+01
7.520000000000000284e+01 5.537779951495565456e+01
7.560000000000000853e+01 5.524051667879665217e+01
7.600000000000000000e+01 5.509710807213222949e+01
7.640000000000000568e+01 5.495482465202129418e+01
7.679999999999999716e+01 5.481365152966565546e+01
7.720000000000000284e+01 5.467114181974154263e+01
7.760000000000000853e+01 5.452935765755064068e+01
7.800000000000000000e+01 5.438720650381056032e+01
7.840000000000000568e+01 5.424472017367104826e+01
7.879999999999999716e+01 5.410333130565702930e+01
7.920000000000000284e+01 5.396302569676491601e+01
7.960000000000000853e+01 5.382378940158201175e+01
8.000000000000000000e+01 5.368560872629434044e+01
8.040000000000000568e+01 5.354847022286372749e+01
8.079999999999999716e+01 5.341236068336935716e+01
8.120000000000000284e+01 5.327726713450779528e+01
8.160000000000000853e+01 5.314317683224658140e+01
8.200000000000000000e+01 5.301007725662589110e+01
8.240000000000000568e+01 5.287795610670413282e+01
8.279999999999999716e+01 5.274680129564202247e+01
8.320000000000000284e+01 5.261660094592140524e+01
8.360000000000000853e+01 5.248734338469379423e+01
8.400000000000000000e+01 5.235901713925502321e+01
8.440000000000000568e+01 5.223161093264167221e+01
8.479999999999999716e+01 5.210511367934554272e+01
8.520000000000000284e+01 5.197951448114243078e+01
8.560000000000000853e+01 5.185475173193651699e+01
8.600000000000000000e+01 5.173076120931037281e+01
8.640000000000000568e+01 5.160466322703231867e+01
8.680000000000001137e+01 5.147902345995345286e+01
8.720000000000000284e+01 5.135426212111954669e+01
8.760000000000000853e+01 5.123036891243187085e+01
8.800000000000000000e+01 5.110733370505644046e+01
8.840000000000000568e+01 5.098514653585246492e+01
8.880000000000001137e+01 5.086379760389301907e+01
8.920000000000000284e+01 5.074327726707437591e+01
8.960000000000000853e+01 5.062357603881191181e+01
9.000000000000000000e+01 5.050468458481979894e+01
9.040000000000000568e+01 5.038659371997177061e+01
9.080000000000001137e+01 5.026929440524077819e+01
9.120000000000000284e+01 5.015277774471535821e+01
9.160000000000000853e+01 5.003703498268998828e+01
9.200000000000000000e+01 4.992205750082771232e+01
9.240000000000000568e+01 4.980783681539264762e+01
9.280000000000001137e+01 4.969436457455046252e+01
9.320000000000000284e+01 4.958163255573494155e+01
9.360000000000000853e+01 4.946963266307839291e+01
9.400000000000000000e+01 4.935835692490460502e+01
9.440000000000000568e+01 4.924779749128206419e+01
9.480000000000001137e+01 4.913794663163597676e+01
9.520000000000000284e+01 4.902879673241739056e+01
9.560000000000000853e+01 4.892034029482794466e+01
9.600000000000000000e+01 4.881256993259820831e+01
9.640000000000000568e+01 4.870547836981879897e+01
9.680000000000001137e+01 4.859905843882229703e+01
9.720000000000000284e+01 4.849096893399632791e+01
9.760000000000000853e+01 4.838628229777498291e+01
9.800000000000000000e+01 4.828224379311662773e+01
9.840000000000000568e+01 4.817884669013141519e+01
9.880000000000001137e+01 4.807608435700944938e+01
9.920000000000000284e+01 4.797395025818360637e+01
9.960000000000000853e+01 4.787243795253434087e+01
1.000000000000000000e+02 4.777154109163539886e+01
1.004000000000000057e+02 4.767125341803910032e+01
1.008000000000000114e+02 4.757156876360058817e+01
1.012000000000000028e+02 4.747248104783947298e+01
1.016000000000000085e+02 4.737398427633827680e+01
1.020000000000000000e+02 4.727607253917659591e+01
1.024000000000000057e+02 4.717874000939995227e+01
1.028000000000000114e+02 4.708198094152247393e+01
1.032000000000000028e+02 4.698578967006272933e+01
1.036000000000000085e+02 4.689016060811134423e+01
1.040000000000000000e+02 4.679508824593026617e+01
1.044000000000000057e+02 4.670056714958221278e+01
1.048000000000000114e+02 4.660659195958999135e+01
1.052000000000000028e+02 4.651315738962468771e+01
1.056000000000000085e+02 4.642025822522203526e+01
1.060000000000000000e+02 4.632788932252636016e+01
1.064000000000000057e+02 4.623604560706124289e+01
1.068000000000000114e+02 4.614472207252617864e+01
1.072000000000000028e+02 4.605391377961904453e+01
1.076000000000000085e+02 4.596361585488307355e+01
1.080000000000000000e+02 4.587382348957819289e+01
1.084000000000000057e+02 4.578453193857581027e+01
1.088000000000000114e+02 4.569560222857486309e+01
1.092000000000000028e+02 4.560708705303194677e+01
1.096000000000000085e+02 4.551906039770383217e+01
1.100000000000000000e+02 4.543151774387879982e+01
1.104000000000000057e+02 4.544760211123021776e+01
1.108000000000000114e+02 4.544620362670614355e+01
1.112000000000000028e+02 4.536603856472647323e+01
1.116000000000000085e+02 4.539639547201982595e+01
1.120000000000000000e+02 4.531940318399763612e+01
1.124000000000000057e+02 4.524280727607669661e+01
1.128000000000000114e+02 4.516660429381429509e+01
1.132000000000000028e+02 4.509079082515168579e+01
1.136000000000000085e+02 4.501536349974449536e+01
1.140000000000000000e+02 4.494031898830644423e+01
1.144000000000000057e+02 4.486565400196518283e+01
1.148000000000000114e+02 4.479136529163087488e+01
1.152000000000000028e+02 4.471744964737663963e+01
1.156000000000000085e+02 4.464390389783078916e+01
1.160000000000000000e+02 4.457072490958069011e+01
1.164000000000000057e+02 4.449790958658777384e+01
1.168000000000000114e+02 4.442545486961358847e+01
1.172000000000000028e+02 4.435335773565670792e+01
1.176000000000000085e+02 4.428161519739997942e+01
1.180000000000000000e+02 4.421022430266831549e+01
1.184000000000000057e+02 4.413918213389629130e+01
1.188000000000000114e+02 4.406848580760583900e+01
1.192000000000000028e+02 4.399813247389342763e+01
1.196000000000000085e+02 4.392811931592664365e+01
1.200000000000000000e+02 4.385844354945006529e+01
1.204000000000000057e+02 4.378910242230026029e+01
1.208000000000000114e+02 4.372009321392932435e+01
1.212000000000000028e+02 4.365141323493730141e+01
1.216000000000000085e+02 4.358830216581962702e+01
1.220000000000000000e+02 4.352047483985947451e+01
1.224000000000000057e+02 4.345296746482664929e+01
1.228000000000000114e+02 4.338577748512071963e+01
1.232000000000000028e+02 4.331890237389761467e+01
1.236000000000000085e+02 4.325233963265286974e+01
1.240000000000000000e+02 4.318608679081231116e+01
1.244000000000000057e+02 4.312014140532967588e+01
1.248000000000000114e+02 4.305450106029176993e+01
1.252000000000000028e+02 4.298916336653012138e+01
1.256000000000000085e+02 4.292412596123968171e+01
1.260000000000000000e+02 4.285938650760403590e+01
1.264000000000000057e+02 4.279494269442725596e+01
1.268000000000000114e+02 4.273079223577200025e+01
1.272000000000000028e+02 4.266693287060392947e+01
1.276000000000000085e+02 4.260336236244221197e+01
1.280000000000000000e+02 4.254007849901607585e+01
1.284000000000000057e+02 4.247707909192717324e+01
1.288000000000000114e+02 4.241436197631769289e+01
1.291999999999999886e+02 4.235192501054415004e+01
1.296000000000000227e+02 4.228976607585674685e+01
1.300000000000000000e+02 4.222788307608404068e+01
1.304000000000000057e+02 4.216627393732292717e+01
1.308000000000000114e+02 4.210493660763396662e+01
1.311999999999999886e+02 4.204386905674166997e+01
1.316000000000000227e+02 4.198306927573977276e+01
1.320000000000000000e+02 4.192253527680153979e+01
1.324000000000000057e+02 4.186226509289470954e+01
1.328000000000000114e+02 4.180225677750128455e+01
1.331999999999999886e+02 4.174250840434190479e+01
1.336000000000000227e+02 4.168301806710463353e+01
1.340000000000000000e+02 4.162378387917838296e+01
1.344000000000000057e+02 4.156480397339048238e+01
1.348000000000000114e+02 4.150605112909352101e+01
1.351999999999999886e+02 4.144754848225447574e+01
1.356000000000000227e+02 4.138897667592402030e+01
1.360000000000000000e+02 4.132993500559476274e+01
1.364000000000000057e+02 4.127114541250599444e+01
1.368000000000000114e+02 4.121260607671614906e+01
1.371999999999999886e+02 4.115431519680107897e+01
1.376000000000000227e+02 4.109627098961127700e+01
1.380000000000000000e+02 4.103847169003293516e+01
1.384000000000000057e+02 4.098091555075281889e+01
1.388000000000000114e+02 4.092360084202696413e+01
1.392000000000000171e+02 4.086652585145291994e+01
1.395999999999999943e+02 4.080968888374573567e+01
1.400000000000000000e+02 4.075308826051736588e+01
1.404000000000000057e+02 4.069672232005967771e+01
1.408000000000000114e+02 4.064058941713071249e+01
1.412000000000000171e+02 4.058468792274447168e+01
1.415999999999999943e+02 4.052901622396379366e+01
1.420000000000000000e+02 4.047357272369663406e+01
1.424000000000000057e+02 4.041835584049540842e+01
1.428000000000000114e+02 4.036336400835941163e+01
1.432000000000000171e+02 4.030859567654042763e+01
1.435999999999999943e+02 4.025404930935117420e+01
1.440000000000000000e+02 4.019943778195394657e+01
1.444000000000000057e+02 4.014477921832656193e+01
1.448000000000000114e+02 4.009034140298915361e+01
1.452000000000000171e+02 4.003560819121133108e+01
1.455999999999999943e+02 3.998106852019233060e+01
1.460000000000000000e+02 3.992674833040102556e+01
1.464000000000000057e+02 3.987264613144026271e+01
1.468000000000000114e+02 3.981876044716713636e+01
1.472000000000000171e+02 3.976508981551731381e+01
1.475999999999999943e+02 3.971163278833206078e+01
1.480000000000000000e+02 3.965838793118786043e+01
1.484000000000000057e+02 3.960535382322853337e+01
1.488000000000000114e+02 3.955234159514389347e+01
1.492000000000000171e+02 3.949977338979520169e+01
1.495999999999999943e+02 3.944741157284033761e+01
1.500000000000000000e+02 3.939525477672793841e+01
