1.000000000000000000e+01 6.377358472023439617e+02
1.040000000000000036e+01 6.482844881187486408e+02
1.080000000000000071e+01 6.688748253908436254e+02
1.119999999999999929e+01 6.673805368027387885e+02
1.159999999999999964e+01 6.596610438093284756e+02
1.200000000000000000e+01 6.516263387919211709e+02
1.240000000000000036e+01 6.451960106612882555e+02
1.280000000000000071e+01 6.402903030139295879e+02
1.319999999999999929e+01 6.348313945185021794e+02
1.359999999999999964e+01 6.317551840223972022e+02
1.400000000000000000e+01 6.319637107157114997e+02
1.440000000000000036e+01 6.342463272415473057e+02
1.480000000000000071e+01 6.249215268215406240e+02
1.519999999999999929e+01 6.160893612934053181e+02
1.560000000000000142e+01 6.077039449382739349e+02
1.600000000000000000e+01 5.997255811949393092e+02
1.639999999999999858e+01 5.921196638299218193e+02
1.680000000000000071e+01 5.848558198453997647e+02
1.719999999999999929e+01 5.779072310568869852e+02
1.760000000000000142e+01 5.712500901401406281e+02
1.800000000000000000e+01 5.648631595081147907e+02
1.839999999999999858e+01 5.587274099421167648e+02
1.880000000000000071e+01 5.528257218637886581e+02
1.920000000000000284e+01 5.471426363653974931e+02
1.960000000000000142e+01 5.416641461696407305e+02
2.000000000000000000e+01 5.363775189284294811e+02
2.039999999999999858e+01 5.312711469337548351e+02
2.080000000000000071e+01 5.263344185660516814e+02
2.120000000000000284e+01 5.215576077592008915e+02
2.160000000000000142e+01 5.169317784953750561e+02
2.200000000000000000e+01 5.124487019135009405e+02
2.239999999999999858e+01 5.081007840626068628e+02
2.280000000000000071e+01 5.038810026852308965e+02
2.320000000000000284e+01 4.997828516981417124e+02
2.360000000000000142e+01 4.958002922640602605e+02
2.400000000000000000e+01 4.919277095310719687e+02
2.439999999999999858e+01 4.881598742652458895e+02
2.480000000000000071e+01 4.844919087237277040e+02
2.520000000000000284e+01 4.809192562157153930e+02
2.560000000000000142e+01 4.774376538815332083e+02
2.600000000000000000e+01 4.740431082888257492e+02
2.640000000000000213e+01 4.707318735023236513e+02
2.680000000000000071e+01 4.675004313317875244e+02
2.719999999999999929e+01 4.643454735032746612e+02
2.760000000000000142e+01 4.612638855331380228e+02
2.800000000000000000e+01 4.582527321132331508e+02
2.840000000000000213e+01 4.553092438405584517e+02
2.880000000000000071e+01 4.524308051456955582e+02
2.920000000000000284e+01 4.496149432925381006e+02
2.960000000000000142e+01 4.468593183373709508e+02
3.000000000000000000e+01 4.441617139487997861e+02
3.040000000000000213e+01 4.415200290016409213e+02
3.080000000000000071e+01 4.389322698679550854e+02
3.120000000000000284e+01 4.363965433371635640e+02
3.160000000000000142e+01 4.339110501048139668e+02
3.200000000000000000e+01 4.314740787762298737e+02
3.240000000000000568e+01 4.290840003371173452e+02
3.279999999999999716e+01 4.267392630483193443e+02
3.320000000000000284e+01 4.244383877264208422e+02
3.360000000000000142e+01 4.221799633758741948e+02
3.400000000000000000e+01 4.199626431418211041e+02
3.440000000000000568e+01 4.177851405558953388e+02
3.479999999999999716e+01 4.156462260500355796e+02
3.520000000000000284e+01 4.135447237157834479e+02
3.560000000000000142e+01 4.114795082887184776e+02
3.600000000000000000e+01 4.094495023396128772e+02
3.640000000000000568e+01 4.074536736556236747e+02
3.679999999999999716e+01 4.054910327963840473e+02
3.720000000000000284e+01 4.035606308112396050e+02
3.760000000000000142e+01 4.016615571051206643e+02
3.800000000000000000e+01 3.997929374416508495e+02
3.840000000000000568e+01 3.979539320731045677e+02
3.879999999999999716e+01 3.961437339877205659e+02
3.920000000000000284e+01 3.943615672657008986e+02
3.960000000000000142e+01 3.926066855359572401e+02
4.000000000000000000e+01 3.908783705263329580e+02
4.040000000000000568e+01 3.891759307006337849e+02
4.079999999999999716e+01 3.874986999763433460e+02
4.120000000000000284e+01 3.858460365173979199e+02
4.160000000000000142e+01 3.842173215968463751e+02
4.200000000000000000e+01 3.826119585246285055e+02
4.239999999999999858e+01 3.810293716360784515e+02
4.280000000000000426e+01 3.794690053371057274e+02
4.320000000000000284e+01 3.779303232023067949e+02
4.360000000000000142e+01 3.764128071225546819e+02
4.400000000000000000e+01 3.749159564988667626e+02
4.439999999999999858e+01 3.734392874795896091e+02
4.480000000000000426e+01 3.719823322381593584e+02
4.520000000000000284e+01 3.705446382888939070e+02
4.560000000000000142e+01 3.691257678384569658e+02
4.600000000000000000e+01 3.677252971708018094e+02
4.639999999999999858e+01 3.663428160635587574e+02
4.680000000000000426e+01 3.649779272339708314e+02
4.720000000000000284e+01 3.636302458126151009e+02
4.760000000000000142e+01 3.622993988432663741e+02
4.800000000000000000e+01 3.609850248073741454e+02
4.840000000000000568e+01 3.596867731717230754e+02
4.880000000000000426e+01 3.584043039579460697e+02
4.920000000000000284e+01 3.571372873326442914e+02
4.960000000000000142e+01 3.558854032169521133e+02
5.000000000000000000e+01 3.546483409144591974e+02
5.040000000000000568e+01 3.534257987564714654e+02
5.080000000000000426e+01 3.522174837636590610e+02
5.120000000000000284e+01 3.510231113231983500e+02
5.160000000000000142e+01 3.498424048805710527e+02
5.200000000000000000e+01 3.486750956452373771e+02
5.240000000000000568e+01 3.475209223094437903e+02
5.280000000000000426e+01 3.463796307794771678e+02
5.320000000000000284e+01 3.452509739187134983e+02
5.360000000000000142e+01 3.441347113018524624e+02
5.400000000000000000e+01 3.430306089797614959e+02
5.440000000000000568e+01 3.419384392543904596e+02
5.480000000000000426e+01 3.408579804632487367e+02
5.520000000000000284e+01 3.397890167729635778e+02
5.560000000000000142e+01 3.387313379814704604e+02
5.600000000000000000e+01 3.376847393284084546e+02
5.640000000000000568e+01 3.366490213133194516e+02
5.680000000000000426e+01 3.356239895212716533e+02
5.720000000000000284e+01 3.346094544555515995e+02
5.760000000000000142e+01 3.336052313770840669e+02
5.800000000000000000e+01 3.326111401502628269e+02
5.840000000000000568e+01 3.316270050948883181e+02
5.880000000000000426e+01 3.306526548439289854e+02
5.920000000000000284e+01 3.296879222068344006e+02
5.960000000000000142e+01 3.287326440381444854e+02
6.000000000000000000e+01 3.277866611111539896e+02
6.040000000000000568e+01 3.268498179964007022e+02
6.080000000000000426e+01 3.259219629447628108e+02
6.120000000000000284e+01 3.250029477749552029e+02
6.160000000000000142e+01 3.240926277652340559e+02
6.200000000000000000e+01 3.231908615491194610e+02
6.240000000000000568e+01 3.222975110149629927e+02
6.280000000000000426e+01 3.214124412091924228e+02
6.320000000000000284e+01 3.205355202430731651e+02
6.360000000000000142e+01 3.196666192028375235e+02
6.400000000000000000e+01 3.188056120630373016e+02
6.440000000000000568e+01 3.179523756029824426e+02
6.480000000000001137e+01 3.171067893261381414e+02
6.520000000000000284e+01 3.162687353823541230e+02
6.559999999999999432e+01 3.154380984928109228e+02
6.600000000000000000e+01 3.146147658775694822e+02
6.640000000000000568e+01 3.137986271856183293e+02
6.680000000000001137e+01 3.129895744273164837e+02
6.720000000000000284e+01 3.121875019091346530e+02
6.759999999999999432e+01 3.113923061706044564e+02
6.800000000000000000e+01 3.106038859233831886e+02
6.840000000000000568e+01 3.098221419923561371e+02
6.880000000000001137e+01 3.090469772586905037e+02
6.920000000000000284e+01 3.082782966047683999e+02
6.959999999999999432e+01 3.075160068609235964e+02
7.000000000000000000e+01 3.067600167539129643e+02
7.040000000000000568e+01 3.060102368570563840e+02
7.080000000000001137e+01 3.052665795419799792e+02
7.120000000000000284e+01 3.045289589319034462e+02
7.159999999999999432e+01 3.037972908564115073e+02
7.200000000000000000e+01 3.030714928076548631e+02
7.240000000000000568e+01 3.023514838979277215e+02
7.280000000000001137e+01 3.016371848185688123e+02
7.320000000000000284e+01 3.009285178001391614e+02
7.359999999999999432e+01 3.002254065738285362e+02
7.400000000000000000e+01 2.995277763340469619e+02
7.440000000000000568e+01 2.988355537021571422e+02
7.479999999999999716e+01 2.981486666913068575e+02
7.520000000000000284e+01 2.974670446723226291e+02
7.560000000000000853e+01 2.967906183406265654e+02
7.600000000000000000e+01 2.961193196841391568e+02
7.640000000000000568e+01 2.954530819521353351e+02
7.679999999999999716e+01 2.947918396250182695e+02
7.720000000000000284e+01 2.941355283849794660e+02
7.760000000000000853e+01 2.934840850875164620e+02
7.800000000000000000e+01 2.928374477337747521e+02
7.840000000000000568e+01 2.921955554436895000e+02
7.879999999999999716e+01 2.915583484298973644e+02
7.920000000000000284e+01 2.909257679723928618e+02
7.960000000000000853e+01 2.902977563939054448e+02
8.000000000000000000e+01 2.896742570359702427e+02
8.040000000000000568e+01 2.890552142356731338e+02
8.079999999999999716e+01 2.884405733030437204e+02
8.120000000000000284e+01 2.878302804990786399e+02
8.160000000000000853e+01 2.872242830143715082e+02
8.200000000000000000e+01 2.866225289483311371e+02
8.240000000000000568e+01 2.860249672889684689e+02
8.279999999999999716e+01 2.854315478932347787e+02
8.320000000000000284e+01 2.848422214678912496e+02
8.360000000000000853e+01 2.842569395508954813e+02
8.400000000000000000e+01 2.836756544932864017e+02
8.440000000000000568e+01 2.830983194415530306e+02
8.479999999999999716e+01 2.825248883204712342e+02
8.520000000000000284e+01 2.819553158163943181e+02
8.560000000000000853e+01 2.813895573609824510e+02
8.600000000000000000e+01 2.808275691153577327e+02
8.640000000000000568e+01 2.802693079546726267e+02
8.680000000000001137e+01 2.797147314530769791e+02
8.720000000000000284e+01 2.791637978690737896e+02
8.760000000000000853e+01 2.786164661312496378e+02
8.800000000000000000e+01 2.780726958243705553e+02
8.840000000000000568e+01 2.775324471758303844e+02
8.880000000000001137e+01 2.769956810424422429e+02
8.920000000000000284e+01 2.764623588975628081e+02
8.960000000000000853e+01 2.759324428185385614e+02
9.000000000000000000e+01 2.754058954744655239e+02
9.040000000000000568e+01 2.748826801142527643e+02
9.080000000000001137e+01 2.743627605549809232e+02
9.120000000000000284e+01 2.738461011705464898e+02
9.160000000000000853e+01 2.733326668805848954e+02
9.200000000000000000e+01 2.728224231396627601e+02
9.240000000000000568e+01 2.723153359267329279e+02
9.280000000000001137e+01 2.718113717348434761e+02
9.320000000000000284e+01 2.713104975610947918e+02
9.360000000000000853e+01 2.708126808968365253e+02
9.400000000000000000e+01 2.703178897180982290e+02
9.440000000000000568e+01 2.698260924762466857e+02
9.480000000000001137e+01 2.693372580888646439e+02
9.520000000000000284e+01 2.688513559308429421e+02
9.560000000000000853e+01 2.683683558256817037e+02
9.600000000000000000e+01 2.678882280369942919e+02
9.640000000000000568e+01 2.674109432602080005e+02
9.680000000000001137e+01 2.669364726144569886e+02
9.720000000000000284e+01 2.664647876346610929e+02
9.760000000000000853e+01 2.659958602637864260e+02
9.800000000000000000e+01 2.655296628452827008e+02
9.840000000000000568e+01 2.650661681156913119e+02
9.880000000000001137e+01 2.646053491974220151e+02
9.920000000000000284e+01 2.641471795916909855e+02
9.960000000000000853e+01 2.636916331716176387e+02
1.000000000000000000e+02 2.632386841754756688e+02
1.004000000000000057e+02 2.627883072000942661e+02
1.008000000000000114e+02 2.623404771944052527e+02
1.012000000000000028e+02 2.618951694531323824e+02
1.016000000000000085e+02 2.614523596106191690e+02
1.020000000000000000e+02 2.610120236347923992e+02
1.024000000000000057e+02 2.605741378212562154e+02
1.028000000000000114e+02 2.601386787875147775e+02
1.032000000000000028e+02 2.597056234673196968e+02
1.036000000000000085e+02 2.592749491051391715e+02
1.040000000000000000e+02 2.588466332507451853e+02
1.044000000000000057e+02 2.584206537539170654e+02
1.048000000000000114e+02 2.579969887592567375e+02
1.052000000000000028e+02 2.575756167011143134e+02
1.056000000000000085e+02 2.571565162986207724e+02
1.060000000000000000e+02 2.567396665508247224e+02
1.064000000000000057e+02 2.563250467319307973e+02
1.068000000000000114e+02 2.559126363866377005e+02
1.072000000000000028e+02 2.555024153255730823e+02
1.076000000000000085e+02 2.550943636208220937e+02
1.080000000000000000e+02 2.546884616015491076e+02
1.084000000000000057e+02 2.542846898497083998e+02
1.088000000000000114e+02 2.538830291958433634e+02
1.092000000000000028e+02 2.534834607149703629e+02
1.096000000000000085e+02 2.530859657225466037e+02
1.100000000000000000e+02 2.526905257705198551e+02
1.104000000000000057e+02 2.522971226434570156e+02
1.108000000000000114e+02 2.519057383547506106e+02
1.112000000000000028e+02 2.515163551429013182e+02
1.116000000000000085e+02 2.511289554678742775e+02
1.120000000000000000e+02 2.507435220075277584e+02
1.124000000000000057e+02 2.503600376541123467e+02
1.128000000000000114e+02 2.499784855108390218e+02
1.132000000000000028e+02 2.495988488885150787e+02
1.136000000000000085e+02 2.492211113022447364e+02
1.140000000000000000e+02 2.488452564681952310e+02
1.144000000000000057e+02 2.484712683004246401e+02
1.148000000000000114e+02 2.480991309077718370e+02
1.152000000000000028e+02 2.477288285908058469e+02
1.156000000000000085e+02 2.473603458388337799e+02
1.160000000000000000e+02 2.469936673269663459e+02
1.164000000000000057e+02 2.466287779132388778e+02
1.168000000000000114e+02 2.462656626357872653e+02
1.172000000000000028e+02 2.459043067100775488e+02
1.176000000000000085e+02 2.455446955261872120e+02
1.180000000000000000e+02 2.451868146461377478e+02
1.184000000000000057e+02 2.448306498012775023e+02
1.188000000000000114e+02 2.444761868897130910e+02
1.192000000000000028e+02 2.441234119737884498e+02
1.196000000000000085e+02 2.437723112776107826e+02
1.200000000000000000e+02 2.434228711846221813e+02
1.204000000000000057e+02 2.430750782352159263e+02
1.208000000000000114e+02 2.427289191243963842e+02
1.212000000000000028e+02 2.423843806994818806e+02
1.216000000000000085e+02 2.420414499578490961e+02
1.220000000000000000e+02 2.417001140447187879e+02
1.224000000000000057e+02 2.413603602509812163e+02
1.228000000000000114e+02 2.410221760110612195e+02
1.232000000000000028e+02 2.406855489008210611e+02
1.236000000000000085e+02 2.403504666355011352e+02
1.240000000000000000e+02 2.400169170676977046e+02
1.244000000000000057e+02 2.396848881853761100e+02
1.248000000000000114e+02 2.393543681099195055e+02
1.252000000000000028e+02 2.390253450942119287e+02
1.256000000000000085e+02 2.386978075207553616e+02
1.260000000000000000e+02 2.383717438998195632e+02
1.264000000000000057e+02 2.380471428676244443e+02
1.268000000000000114e+02 2.377239931845539331e+02
1.272000000000000028e+02 2.374022837334015037e+02
1.276000000000000085e+02 2.370820035176450347e+02
1.280000000000000000e+02 2.367631416597525913e+02
1.284000000000000057e+02 2.364456873995166859e+02
1.288000000000000114e+02 2.361296300924171305e+02
1.291999999999999886e+02 2.358149592080125387e+02
1.296000000000000227e+02 2.355016643283581459e+02
1.300000000000000000e+02 2.351897351464517101e+02
1.304000000000000057e+02 2.348791614647048505e+02
1.308000000000000114e+02 2.345699331934407041e+02
1.311999999999999886e+02 2.342620403494167647e+02
1.316000000000000227e+02 2.339554730543720495e+02
1.320000000000000000e+02 2.336502215335996766e+02
1.324000000000000057e+02 2.333462761145419222e+02
1.328000000000000114e+02 2.330436272254095513e+02
1.331999999999999886e+02 2.327422653938238568e+02
1.336000000000000227e+02 2.324421812454807537e+02
1.340000000000000000e+02 2.321433655028373266e+02
1.344000000000000057e+02 2.318458089838197793e+02
1.348000000000000114e+02 2.315495026005524437e+02
1.351999999999999886e+02 2.312544373581079640e+02
1.356000000000000227e+02 2.309606043532766932e+02
1.360000000000000000e+02 2.306679947733576910e+02
1.364000000000000057e+02 2.303765998949680807e+02
1.368000000000000114e+02 2.300864110828717628e+02
1.371999999999999886e+02 2.297974197888274830e+02
1.376000000000000227e+02 2.295096175504547205e+02
1.380000000000000000e+02 2.292229959901181360e+02
1.384000000000000057e+02 2.289375468138298970e+02
1.388000000000000114e+02 2.286532618101685159e+02
1.392000000000000171e+02 2.283701328492163611e+02
1.395999999999999943e+02 2.280881518815125162e+02
1.400000000000000000e+02 2.278073109370226632e+02
1.404000000000000057e+02 2.275276021241255080e+02
1.408000000000000114e+02 2.272490176286145243e+02
1.412000000000000171e+02 2.269715497127155004e+02
1.415999999999999943e+02 2.266951907141192919e+02
1.420000000000000000e+02 2.264199330450298362e+02
1.424000000000000057e+02 2.261457691912263783e+02
1.428000000000000114e+02 2.258726917111408738e+02
1.432000000000000171e+02 2.256006932349489489e+02
1.435999999999999943e+02 2.253297664636750142e+02
1.440000000000000000e+02 2.250599041683113910e+02
1.444000000000000057e+02 2.247910991889501418e+02
1.448000000000000114e+02 2.245233444339290827e+02
1.452000000000000171e+02 2.242566328789895351e+02
1.455999999999999943e+02 2.239909575664484009e+02
1.460000000000000000e+02 2.237263116043807543e+02
1.464000000000000057e+02 2.234626881658165303e+02
1.468000000000000114e+02 2.232000804879483269e+02
1.472000000000000171e+02 2.229384818713510015e+02
1.475999999999999943e+02 2.226778856792134320e+02
1.480000000000000000e+02 2.224182853365812775e+02
1.484000000000000057e+02 2.221596743296109366e+02
1.488000000000000114e+02 2.219020462048350453e+02
1.492000000000000171e+02 2.216453945684380074e+02
1.495999999999999943e+02 2.213897130855429509e+02
1.500000000000000000e+02 2.211349954795089445e+02
