1.000000000000000000e+01 5.159533226692516195e+01
1.040000000000000036e+01 5.048703112117122771e+01
1.080000000000000071e+01 4.944727105630609998e+01
1.119999999999999929e+01 4.846909648454250430e+01
1.159999999999999964e+01 4.754651696510535430e+01
1.200000000000000000e+01 4.667433961309494350e+01
1.240000000000000036e+01 4.584803607323195251e+01
1.280000000000000071e+01 4.506363587648945668e+01
1.319999999999999929e+01 4.431764016752997293e+01
1.359999999999999964e+01 4.360695132744092462e+01
1.400000000000000000e+01 4.292881512017822132e+01
1.440000000000000036e+01 4.228077279476981687e+01
1.480000000000000071e+01 4.166062116754277866e+01
1.519999999999999929e+01 4.106637914997597960e+01
1.560000000000000142e+01 4.049625952012501529e+01
1.600000000000000000e+01 3.994864498826844823e+01
1.639999999999999858e+01 3.942206780130860722e+01
1.680000000000000071e+01 3.901797290990413103e+01
1.719999999999999929e+01 3.863090014181729970e+01
1.760000000000000142e+01 3.825742853239609076e+01
1.800000000000000000e+01 3.789675867267865073e+01
1.839999999999999858e+01 3.762113925366809042e+01
1.880000000000000071e+01 3.737859789733892057e+01
1.920000000000000284e+01 3.714352089983734118e+01
1.960000000000000142e+01 3.691550764603191226e+01
2.000000000000000000e+01 3.669418740997795680e+01
2.039999999999999858e+01 3.647921653076373616e+01
2.080000000000000071e+01 3.627027590911557553e+01
2.120000000000000284e+01 3.606706878243537062e+01
2.160000000000000142e+01 3.586931874227904160e+01
2.200000000000000000e+01 3.567676796356300883e+01
2.239999999999999858e+01 3.548917561920140429e+01
2.280000000000000071e+01 3.530631645758508341e+01
2.320000000000000284e+01 3.512797952343845509e+01
2.360000000000000142e+01 3.495396700523296118e+01
2.400000000000000000e+01 3.478409319457828985e+01
2.439999999999999858e+01 3.461818354492154981e+01
2.480000000000000071e+01 3.445607381851405648e+01
2.520000000000000284e+01 3.429760931200156904e+01
2.560000000000000142e+01 3.414264415219167148e+01
2.600000000000000000e+01 3.399104065458510604e+01
2.640000000000000213e+01 3.384266873814846832e+01
2.680000000000000071e+01 3.369740539057730189e+01
2.719999999999999929e+01 3.355513417896830219e+01
2.760000000000000142e+01 3.341574480140135961e+01
2.800000000000000000e+01 3.327913267544026610e+01
2.840000000000000213e+01 3.314519856000392650e+01
2.880000000000000071e+01 3.301384820744918613e+01
2.920000000000000284e+01 3.288499204304626744e+01
2.960000000000000142e+01 3.275854486932846044e+01
3.000000000000000000e+01 3.263442559306095347e+01
3.040000000000000213e+01 3.251255697280728896e+01
3.080000000000000071e+01 3.239286538527763071e+01
3.120000000000000284e+01 3.227528060882579553e+01
3.160000000000000142e+01 3.215973562262377072e+01
3.200000000000000000e+01 3.204616642018676487e+01
3.240000000000000568e+01 3.193451183604958032e+01
3.279999999999999716e+01 3.182471338450994836e+01
3.320000000000000284e+01 3.171671510945594363e+01
3.360000000000000142e+01 3.161046344438653222e+01
3.400000000000000000e+01 3.150590708181574939e+01
3.440000000000000568e+01 3.140299685132440999e+01
3.479999999999999716e+01 3.130168560558940527e+01
3.520000000000000284e+01 3.120192811377970088e+01
3.560000000000000142e+01 3.110368096176168962e+01
3.600000000000000000e+01 3.100690245860470640e+01
3.640000000000000568e+01 3.091155254892101567e+01
3.679999999999999716e+01 3.081759273061393145e+01
3.720000000000000284e+01 2.746029676092989646e+01
3.760000000000000142e+01 2.735563597369416300e+01
3.800000000000000000e+01 2.725247195955644486e+01
3.840000000000000568e+01 2.715076729799236688e+01
3.879999999999999716e+01 2.705048589321395980e+01
3.920000000000000284e+01 2.375827293476281454e+01
3.960000000000000142e+01 2.365032716376139632e+01
4.000000000000000000e+01 2.354386261639418620e+01
4.040000000000000568e+01 2.343884503421424625e+01
4.079999999999999716e+01 2.333524127138996818e+01
4.120000000000000284e+01 2.323301924825491227e+01
4.160000000000000142e+01 2.313214790722325631e+01
4.200000000000000000e+01 2.303259717092911529e+01
4.239999999999999858e+01 2.293433790245740767e+01
4.280000000000000426e+01 2.283734186754318785e+01
4.320000000000000284e+01 2.274158169862460710e+01
4.360000000000000142e+01 2.264703086064242044e+01
4.400000000000000000e+01 2.255366361848606971e+01
4.439999999999999858e+01 2.246145500599279643e+01
4.480000000000000426e+01 2.237038079641267174e+01
4.520000000000000284e+01 2.228041747425767838e+01
4.560000000000000142e+01 2.219154220845847547e+01
4.600000000000000000e+01 2.210373282675727324e+01
4.639999999999999858e+01 2.201696779126967130e+01
4.680000000000000426e+01 2.193122617515265205e+01
4.720000000000000284e+01 2.184648764031963708e+01
4.760000000000000142e+01 2.176273241614720888e+01
4.800000000000000000e+01 2.167994127912160707e+01
4.840000000000000568e+01 2.159809553337596100e+01
4.880000000000000426e+01 2.151717699207238965e+01
4.920000000000000284e+01 2.143716795958575005e+01
4.960000000000000142e+01 2.135805121444824906e+01
5.000000000000000000e+01 2.127980999301676590e+01
5.040000000000000568e+01 2.120242797382660882e+01
5.080000000000000426e+01 2.112588926259787314e+01
5.120000000000000284e+01 2.105017837786214585e+01
5.160000000000000142e+01 2.097528023717941537e+01
5.200000000000000000e+01 2.090118014391657653e+01
5.240000000000000568e+01 2.082786377456053017e+01
5.280000000000000426e+01 2.075531716654041858e+01
5.320000000000000284e+01 2.068352670653492709e+01
5.360000000000000142e+01 2.061247911924180443e+01
5.400000000000000000e+01 2.054216145658813275e+01
5.440000000000000568e+01 2.047256108736091562e+01
5.480000000000000426e+01 2.040366568723867147e+01
5.520000000000000284e+01 2.033546322920576799e+01
5.560000000000000142e+01 2.026794197433214606e+01
5.600000000000000000e+01 2.020109046290206933e+01
5.640000000000000568e+01 2.013489750587621074e+01
5.680000000000000426e+01 2.006935217667241034e+01
5.720000000000000284e+01 2.000444380325107119e+01
5.760000000000000142e+01 1.993888187004625934e+01
5.800000000000000000e+01 1.986937295181428809e+01
5.840000000000000568e+01 1.980055048850778121e+01
5.880000000000000426e+01 1.973240314519676275e+01
5.920000000000000284e+01 1.966491984914413393e+01
5.960000000000000142e+01 1.959808978201695595e+01
6.000000000000000000e+01 1.952681912195320280e+01
6.040000000000000568e+01 1.945477755734797043e+01
6.080000000000000426e+01 1.938344515860952555e+01
6.120000000000000284e+01 1.931281033582491702e+01
6.160000000000000142e+01 1.924286176367926871e+01
6.200000000000000000e+01 1.917358837371535785e+01
6.240000000000000568e+01 1.910497934686882360e+01
6.280000000000000426e+01 1.903702410626738128e+01
6.320000000000000284e+01 1.896971231028305027e+01
6.360000000000000142e+01 1.890303384582709612e+01
6.400000000000000000e+01 1.883697882187747297e+01
6.440000000000000568e+01 1.877153756322949363e+01
6.480000000000001137e+01 1.870670060446053640e+01
6.520000000000000284e+01 1.864245868410023377e+01
6.559999999999999432e+01 1.857880273899785806e+01
6.600000000000000000e+01 1.851572389887913772e+01
6.640000000000000568e+01 1.845321348108490866e+01
6.680000000000001137e+01 1.839126298548454486e+01
6.720000000000000284e+01 1.832986408955721203e+01
6.759999999999999432e+01 1.826900864363462773e+01
6.800000000000000000e+01 1.820868866629891869e+01
6.840000000000000568e+01 1.814889633992957130e+01
6.880000000000001137e+01 1.808962400639411072e+01
6.920000000000000284e+01 1.803086416287664662e+01
6.959999999999999432e+01 1.797260945783936847e+01
7.000000000000000000e+01 1.791485268711190315e+01
7.040000000000000568e+01 1.785758679010375971e+01
7.080000000000001137e+01 1.780080484613539937e+01
7.120000000000000284e+01 1.774450007088339376e+01
7.159999999999999432e+01 1.768866581293562490e+01
7.200000000000000000e+01 1.763329555045250885e+01
7.240000000000000568e+01 1.757838288793032078e+01
7.280000000000001137e+01 1.752392155306304744e+01
7.320000000000000284e+01 1.746990539369911133e+01
7.359999999999999432e+01 1.741632837488977970e+01
7.400000000000000000e+01 1.736318457602578391e+01
7.440000000000000568e+01 1.731046818805918264e+01
7.479999999999999716e+01 1.725817351080751649e+01
7.520000000000000284e+01 1.720629495033723089e+01
7.560000000000000853e+01 1.715482701642376284e+01
7.600000000000000000e+01 1.710376432008558112e+01
7.640000000000000568e+01 1.705310157118966430e+01
7.679999999999999716e+01 1.700283357612600454e+01
7.720000000000000284e+01 1.695295523554865014e+01
7.760000000000000853e+01 1.690346154218137187e+01
7.800000000000000000e+01 1.685434757868531364e+01
7.840000000000000568e+01 1.680560851558702495e+01
7.879999999999999716e+01 1.675723960926454126e+01
7.920000000000000284e+01 1.670923619998971787e+01
7.960000000000000853e+01 1.666159371002501643e+01
8.000000000000000000e+01 1.661430764177283237e+01
8.040000000000000568e+01 1.656737357597576832e+01
8.079999999999999716e+01 1.652078716996616237e+01
8.120000000000000284e+01 1.647454415596320842e+01
8.160000000000000853e+01 1.642864033941635427e+01
8.200000000000000000e+01 1.638307159739320440e+01
8.240000000000000568e+01 1.633783387701077316e+01
8.279999999999999716e+01 1.629292319390857458e+01
8.320000000000000284e+01 1.624833563076229126e+01
8.360000000000000853e+01 1.620406733583676839e+01
8.400000000000000000e+01 1.616011452157692574e+01
8.440000000000000568e+01 1.611647346323581331e+01
8.479999999999999716e+01 1.607314049753816931e+01
8.520000000000000284e+01 1.603011202137879820e+01
8.560000000000000853e+01 1.598738449055448463e+01
8.600000000000000000e+01 1.594495441852845730e+01
8.640000000000000568e+01 1.590281837522648800e+01
8.680000000000001137e+01 1.586097298586359194e+01
8.720000000000000284e+01 1.581941492980051400e+01
8.760000000000000853e+01 1.577814093942892271e+01
8.800000000000000000e+01 1.573714779908470973e+01
8.840000000000000568e+01 1.569643234398837706e+01
8.880000000000001137e+01 1.589694883334277620e+01
8.920000000000000284e+01 1.586016216116182065e+01
8.960000000000000853e+01 1.582361441691776172e+01
9.000000000000000000e+01 1.578730300160325584e+01
9.040000000000000568e+01 1.598078704311529208e+01
9.080000000000001137e+01 1.594955100240444779e+01
9.120000000000000284e+01 1.591850169194229103e+01
9.160000000000000853e+01 1.588763721665587170e+01
9.200000000000000000e+01 1.585695570863933845e+01
9.240000000000000568e+01 1.582645532665054233e+01
9.280000000000001137e+01 1.579613425561912088e+01
9.320000000000000284e+01 1.576599070616567744e+01
9.360000000000000853e+01 1.573602291413180332e+01
9.400000000000000000e+01 1.570622914012070481e+01
9.440000000000000568e+01 1.567660766904800873e+01
9.480000000000001137e+01 1.564715680970262035e+01
9.520000000000000284e+01 1.561787489431726961e+01
9.560000000000000853e+01 1.558876027814859100e+01
9.600000000000000000e+01 1.555981133906634639e+01
9.640000000000000568e+01 1.553102647715173212e+01
9.680000000000001137e+01 1.550240411430433873e+01
9.720000000000000284e+01 1.547394269385773491e+01
9.760000000000000853e+01 1.544564068020326353e+01
9.800000000000000000e+01 1.541749655842203737e+01
9.840000000000000568e+01 1.538950883392471525e+01
9.880000000000001137e+01 1.536167603209905863e+01
9.920000000000000284e+01 1.533399669796493470e+01
9.960000000000000853e+01 1.530646939583663446e+01
1.000000000000000000e+02 1.527909270899231231e+01
1.004000000000000057e+02 1.525186523935035865e+01
1.008000000000000114e+02 1.522478560715258133e+01
1.012000000000000028e+02 1.519785245065396495e+01
1.016000000000000085e+02 1.517106442581884096e+01
1.020000000000000000e+02 1.514442020602340300e+01
1.024000000000000057e+02 1.511791848176431685e+01
1.028000000000000114e+02 1.509155796037327946e+01
1.032000000000000028e+02 1.506533736573748072e+01
1.036000000000000085e+02 1.503925543802570708e+01
1.040000000000000000e+02 1.501331093341999967e+01
1.044000000000000057e+02 1.498750262385275178e+01
1.048000000000000114e+02 1.496182929674911577e+01
1.052000000000000028e+02 1.493628975477451881e+01
1.056000000000000085e+02 1.491088281558728212e+01
1.060000000000000000e+02 1.488560731159611805e+01
1.064000000000000057e+02 1.486046208972247662e+01
1.068000000000000114e+02 1.483544601116753014e+01
1.072000000000000028e+02 1.481055795118382257e+01
1.076000000000000085e+02 1.478579679885130105e+01
1.080000000000000000e+02 1.476116145685781866e+01
1.084000000000000057e+02 1.473665084128382219e+01
1.088000000000000114e+02 1.471226388139126939e+01
1.092000000000000028e+02 1.468799951941664261e+01
1.096000000000000085e+02 1.466385671036784721e+01
1.100000000000000000e+02 1.463983442182513528e+01
1.104000000000000057e+02 1.461593163374574011e+01
1.108000000000000114e+02 1.459214733827226596e+01
1.112000000000000028e+02 1.456848053954470856e+01
1.116000000000000085e+02 1.454493025351604274e+01
1.120000000000000000e+02 1.452149550777126663e+01
1.124000000000000057e+02 1.449817534134983887e+01
1.128000000000000114e+02 1.447496880457147128e+01
1.132000000000000028e+02 1.445187495886511009e+01
1.136000000000000085e+02 1.442889287660116793e+01
1.140000000000000000e+02 1.440602164092679871e+01
1.144000000000000057e+02 1.438326034560424560e+01
1.148000000000000114e+02 1.436060809485214662e+01
1.152000000000000028e+02 1.433806400318975349e+01
1.156000000000000085e+02 1.431562719528398908e+01
1.160000000000000000e+02 1.429329680579930795e+01
1.164000000000000057e+02 1.427107197925022852e+01
1.168000000000000114e+02 1.424895186985660800e+01
1.172000000000000028e+02 1.422693564140144140e+01
1.176000000000000085e+02 1.420502246709128968e+01
1.180000000000000000e+02 1.418321152941912189e+01
1.184000000000000057e+02 1.416150202002968506e+01
1.188000000000000114e+02 1.413989313958721894e+01
1.192000000000000028e+02 1.411838409764551372e+01
1.196000000000000085e+02 1.409679672524348604e+01
1.200000000000000000e+02 1.407491072972811352e+01
1.204000000000000057e+02 1.405312558367094766e+01
1.208000000000000114e+02 1.403144050258221753e+01
1.212000000000000028e+02 1.400910141302238543e+01
1.216000000000000085e+02 1.398663832562357001e+01
1.220000000000000000e+02 1.396427981848427358e+01
1.224000000000000057e+02 1.394202507297204896e+01
1.228000000000000114e+02 1.391987327946337061e+01
1.232000000000000028e+02 1.389782363721603176e+01
1.236000000000000085e+02 1.387587535424369456e+01
1.240000000000000000e+02 1.385402764719266600e+01
1.244000000000000057e+02 1.383227974122073611e+01
1.248000000000000114e+02 1.381063086987812660e+01
1.252000000000000028e+02 1.378908027499047506e+01
1.256000000000000085e+02 1.376762720654379635e+01
1.260000000000000000e+02 1.374627092257140859e+01
1.264000000000000057e+02 1.372501068904277588e+01
1.268000000000000114e+02 1.370384577975420370e+01
1.272000000000000028e+02 1.368277547622142798e+01
1.276000000000000085e+02 1.366179906757394491e+01
1.280000000000000000e+02 1.364091585045114208e+01
1.284000000000000057e+02 1.362012512890015792e+01
1.288000000000000114e+02 1.359942621427542164e+01
1.291999999999999886e+02 1.357881842513989490e+01
1.296000000000000227e+02 1.355830108716789439e+01
1.300000000000000000e+02 1.353787353304956653e+01
1.304000000000000057e+02 1.351753510239689149e+01
1.308000000000000114e+02 1.349728514165122917e+01
1.311999999999999886e+02 1.347712300399242125e+01
1.316000000000000227e+02 1.345704804924929299e+01
1.320000000000000000e+02 1.343705964381170759e+01
1.324000000000000057e+02 1.341715716054390839e+01
1.328000000000000114e+02 1.339733997869941007e+01
1.331999999999999886e+02 1.337760748383715104e+01
1.336000000000000227e+02 1.335795906773902253e+01
1.340000000000000000e+02 1.333839412832871929e+01
1.344000000000000057e+02 1.331891206959188878e+01
1.348000000000000114e+02 1.329951230149755048e+01
1.351999999999999886e+02 1.328019423992073023e+01
1.356000000000000227e+02 1.326095730656633265e+01
1.360000000000000000e+02 1.324180092889427129e+01
1.364000000000000057e+02 1.322272454004566100e+01
1.368000000000000114e+02 1.320372757877025904e+01
1.371999999999999886e+02 1.318480948935500763e+01
1.376000000000000227e+02 1.316596972155366885e+01
1.380000000000000000e+02 1.314720773051760716e+01
1.384000000000000057e+02 1.312852297672758084e+01
1.388000000000000114e+02 1.310991492592663121e+01
1.392000000000000171e+02 1.309138304905396488e+01
1.395999999999999943e+02 1.307292682217991064e+01
1.400000000000000000e+02 1.305454572644180899e+01
1.404000000000000057e+02 1.303623924798091593e+01
1.408000000000000114e+02 1.301800687788027133e+01
1.412000000000000171e+02 1.299984811210347146e+01
1.415999999999999943e+02 1.298176245143442387e+01
1.420000000000000000e+02 1.296374940141795662e+01
1.424000000000000057e+02 1.294580847230136555e+01
1.428000000000000114e+02 1.292793917897682832e+01
1.432000000000000171e+02 1.291014104092464621e+01
1.435999999999999943e+02 1.289241358215738487e+01
1.440000000000000000e+02 1.287475633116481077e+01
1.444000000000000057e+02 1.285716882085966262e+01
1.448000000000000114e+02 1.283965058852422025e+01
1.452000000000000171e+02 1.282220117575764462e+01
1.455999999999999943e+02 1.280482012842415784e+01
1.460000000000000000e+02 1.278750699660187351e+01
1.464000000000000057e+02 1.277026133453249379e+01
1.468000000000000114e+02 1.275308270057166382e+01
1.472000000000000171e+02 1.273597065714007215e+01
1.475999999999999943e+02 1.271892477067527594e+01
1.480000000000000000e+02 1.270194461158420829e+01
1.484000000000000057e+02 1.268502975419635170e+01
1.488000000000000114e+02 1.266817977671765760e+01
1.492000000000000171e+02 1.265139426118503607e+01
1.495999999999999943e+02 1.263467279342155436e+01
1.500000000000000000e+02 1.261801496299228731e+01
