1.000000000000000000e+01 6.260770529582855488e+02
1.040000000000000036e+01 6.327959164729093118e+02
1.080000000000000071e+01 6.347760349314372661e+02
1.119999999999999929e+01 6.409471025677510170e+02
1.159999999999999964e+01 6.472686059974612363e+02
1.200000000000000000e+01 6.375143242987248868e+02
1.240000000000000036e+01 6.260055893238765066e+02
1.280000000000000071e+01 6.152098090803440300e+02
1.319999999999999929e+01 6.050523641466814979e+02
1.359999999999999964e+01 5.954694747079986428e+02
1.400000000000000000e+01 5.864062083716813731e+02
1.440000000000000036e+01 5.778149267990174849e+02
1.480000000000000071e+01 5.696540593744539365e+02
1.519999999999999929e+01 5.618871242342379446e+02
1.560000000000000142e+01 5.544819388799830904e+02
1.600000000000000000e+01 5.474099778397949194e+02
1.639999999999999858e+01 5.406458456237011205e+02
1.680000000000000071e+01 5.341668409723856712e+02
1.719999999999999929e+01 5.279525940502074945e+02
1.760000000000000142e+01 5.219847624075682688e+02
1.800000000000000000e+01 5.162467746568374878e+02
1.839999999999999858e+01 5.107236131622305493e+02
1.880000000000000071e+01 5.054016288417797114e+02
1.920000000000000284e+01 5.002683825639329598e+02
1.960000000000000142e+01 4.953125086966152821e+02
2.000000000000000000e+01 4.905235972085215508e+02
2.039999999999999858e+01 4.858920913865788407e+02
2.080000000000000071e+01 4.814091987611403738e+02
2.120000000000000284e+01 4.770668132523969120e+02
2.160000000000000142e+01 4.728574468909841926e+02
2.200000000000000000e+01 4.687741697405395485e+02
2.239999999999999858e+01 4.648105568735746829e+02
2.280000000000000071e+01 4.609606414349794932e+02
2.320000000000000284e+01 4.572188729778779361e+02
2.360000000000000142e+01 4.535800803808018600e+02
2.400000000000000000e+01 4.500394387582433637e+02
2.439999999999999858e+01 4.465924398625474510e+02
2.480000000000000071e+01 4.432348655469861569e+02
2.520000000000000284e+01 4.399627639202236651e+02
2.560000000000000142e+01 4.367724278732781613e+02
2.600000000000000000e+01 4.336603757031485316e+02
2.640000000000000213e+01 4.306233335938244977e+02
2.680000000000000071e+01 4.276582197465389186e+02
2.719999999999999929e+01 4.247621299777134141e+02
2.760000000000000142e+01 4.219323246258488211e+02
2.800000000000000000e+01 4.191662166281974464e+02
2.840000000000000213e+01 4.164613606449376562e+02
2.880000000000000071e+01 4.138154431231579338e+02
2.920000000000000284e+01 4.112262732055993411e+02
2.960000000000000142e+01 4.086917744000756443e+02
3.000000000000000000e+01 4.062099769350512588e+02
3.040000000000000213e+01 4.037790107351915481e+02
3.080000000000000071e+01 4.013970989579954676e+02
3.120000000000000284e+01 3.990625520390074144e+02
3.160000000000000142e+01 3.967737621987242846e+02
3.200000000000000000e+01 3.945291983692467284e+02
3.240000000000000568e+01 3.923274015030868327e+02
3.279999999999999716e+01 3.901669802303879351e+02
3.320000000000000284e+01 3.880466068342201424e+02
3.360000000000000142e+01 3.859650135166381233e+02
3.400000000000000000e+01 3.839209889308640413e+02
3.440000000000000568e+01 3.819133749573547902e+02
3.479999999999999716e+01 3.799410637036306184e+02
3.520000000000000284e+01 3.780029947096477940e+02
3.560000000000000142e+01 3.760981523421927477e+02
3.600000000000000000e+01 3.742255633632943272e+02
3.640000000000000568e+01 3.723842946590157226e+02
3.679999999999999716e+01 3.705734511162108333e+02
3.720000000000000284e+01 3.687921736359268721e+02
3.760000000000000142e+01 3.670396372731331098e+02
3.800000000000000000e+01 3.653150494933393020e+02
3.840000000000000568e+01 3.636176485374835465e+02
3.879999999999999716e+01 3.619467018871901018e+02
3.920000000000000284e+01 3.603015048231620767e+02
3.960000000000000142e+01 3.586813790700707045e+02
4.000000000000000000e+01 3.570856715218429258e+02
4.040000000000000568e+01 3.555137530417454741e+02
4.079999999999999716e+01 3.539650173321062425e+02
4.120000000000000284e+01 3.524388798689255964e+02
4.160000000000000142e+01 3.509347768969988124e+02
4.200000000000000000e+01 3.494521644815110903e+02
4.239999999999999858e+01 3.479905176123729120e+02
4.280000000000000426e+01 3.465493293578510361e+02
4.320000000000000284e+01 3.451281100643026321e+02
4.360000000000000142e+01 3.437263865990613567e+02
4.400000000000000000e+01 3.423437016337401815e+02
4.439999999999999858e+01 3.409796129654114907e+02
4.480000000000000426e+01 3.396336928733131799e+02
4.520000000000000284e+01 3.383055275088920553e+02
4.560000000000000142e+01 3.369947163171528359e+02
4.600000000000000000e+01 3.357008714874236830e+02
4.639999999999999858e+01 3.344236174317784389e+02
4.680000000000000426e+01 3.331625902894765545e+02
4.720000000000000284e+01 3.319174374558954241e+02
4.760000000000000142e+01 3.306878171345289275e+02
4.800000000000000000e+01 3.294733979107244295e+02
4.840000000000000568e+01 3.282738583459166080e+02
4.880000000000000426e+01 3.270888865911977064e+02
4.920000000000000284e+01 3.259181800191407774e+02
4.960000000000000142e+01 3.247614448728593857e+02
5.000000000000000000e+01 3.236183959313561900e+02
5.040000000000000568e+01 3.224887561902685320e+02
5.080000000000000426e+01 3.213722565571774226e+02
5.120000000000000284e+01 3.202686355606989537e+02
5.160000000000000142e+01 3.191776390726222417e+02
5.200000000000000000e+01 3.180990200424068917e+02
5.240000000000000568e+01 3.170325382433910022e+02
5.280000000000000426e+01 3.159779600301025084e+02
5.320000000000000284e+01 3.149350581061009393e+02
5.360000000000000142e+01 3.139036113018127594e+02
5.400000000000000000e+01 3.128834043618521719e+02
5.440000000000000568e+01 3.118742277413508646e+02
5.480000000000000426e+01 3.108758774108479201e+02
5.520000000000000284e+01 3.098881546693149858e+02
5.560000000000000142e+01 3.089108659649175479e+02
5.600000000000000000e+01 3.079438227231357814e+02
5.640000000000000568e+01 3.069868411818877689e+02
5.680000000000000426e+01 3.060397422333197142e+02
5.720000000000000284e+01 3.051023512719462474e+02
5.760000000000000142e+01 3.041744980488381316e+02
5.800000000000000000e+01 3.032560165315765062e+02
5.840000000000000568e+01 3.023467447697028092e+02
5.880000000000000426e+01 3.014465247654107998e+02
5.920000000000000284e+01 3.005552023492406875e+02
5.960000000000000142e+01 2.996726270605460627e+02
6.000000000000000000e+01 2.987986520325189304e+02
6.040000000000000568e+01 2.979331338815665049e+02
6.080000000000000426e+01 2.970759326008474659e+02
6.120000000000000284e+01 2.962269114577809432e+02
6.160000000000000142e+01 2.953859368953566218e+02
6.200000000000000000e+01 2.945528784370758899e+02
6.240000000000000568e+01 2.937276085953701568e+02
6.280000000000000426e+01 2.929100027833440549e+02
6.320000000000000284e+01 2.920999392297021586e+02
6.360000000000000142e+01 2.912972988967234755e+02
6.400000000000000000e+01 2.905019654011556440e+02
6.440000000000000568e+01 2.897138249379045760e+02
6.480000000000001137e+01 2.889327662064056881e+02
6.520000000000000284e+01 2.881586803395629772e+02
6.559999999999999432e+01 2.873914608351518041e+02
6.600000000000000000e+01 2.866310034895848275e+02
6.640000000000000568e+01 2.858772063339436045e+02
6.680000000000001137e+01 2.851299695721864964e+02
6.720000000000000284e+01 2.843891955214431277e+02
6.759999999999999432e+01 2.836547885543151324e+02
6.800000000000000000e+01 2.829266550431007090e+02
6.840000000000000568e+01 2.822047033058701118e+02
6.880000000000001137e+01 2.814888435543168725e+02
6.920000000000000284e+01 2.807789878433184185e+02
6.959999999999999432e+01 2.800750500221378161e+02
7.000000000000000000e+01 2.793769456872051933e+02
7.040000000000000568e+01 2.786845921364172796e+02
7.080000000000001137e+01 2.779979083248986740e+02
7.120000000000000284e+01 2.773168148221685669e+02
7.159999999999999432e+01 2.766412337706611879e+02
7.200000000000000000e+01 2.759710888455481381e+02
7.240000000000000568e+01 2.753063052158169057e+02
7.280000000000001137e+01 2.746468095065559964e+02
7.320000000000000284e+01 2.739925297624048994e+02
7.359999999999999432e+01 2.733433954121256875e+02
7.400000000000000000e+01 2.726993372342554380e+02
7.440000000000000568e+01 2.720602873238009920e+02
7.479999999999999716e+01 2.714261790599380788e+02
7.520000000000000284e+01 2.707969470746799061e+02
7.560000000000000853e+01 2.701725272224800278e+02
7.600000000000000000e+01 2.695528565507373742e+02
7.640000000000000568e+01 2.689378732711711564e+02
7.679999999999999716e+01 2.683275167320359174e+02
7.720000000000000284e+01 2.677217273911469420e+02
7.760000000000000853e+01 2.671204467896894812e+02
7.800000000000000000e+01 2.665236175267829140e+02
7.840000000000000568e+01 2.659311832347758013e+02
7.879999999999999716e+01 2.653430885552467089e+02
7.920000000000000284e+01 2.647592791156861267e+02
7.960000000000000853e+01 2.641797015068377732e+02
8.000000000000000000e+01 2.636043032606764882e+02
8.040000000000000568e+01 2.630330328290027069e+02
8.079999999999999716e+01 2.624658395626305492e+02
8.120000000000000284e+01 2.619026736911542912e+02
8.160000000000000853e+01 2.613434863032695716e+02
8.200000000000000000e+01 2.607882293276354631e+02
8.240000000000000568e+01 2.602368555142563196e+02
8.279999999999999716e+01 2.596893184163701562e+02
8.320000000000000284e+01 2.591455723728239491e+02
8.360000000000000853e+01 2.586055724909233504e+02
8.400000000000000000e+01 2.580692746297394820e+02
8.440000000000000568e+01 2.575366353838597888e+02
8.479999999999999716e+01 2.570076120675685161e+02
8.520000000000000284e+01 2.564821626994432791e+02
8.560000000000000853e+01 2.559602459873551084e+02
8.600000000000000000e+01 2.554418213138591796e+02
8.640000000000000568e+01 2.549268487219647454e+02
8.680000000000001137e+01 2.544152889012715093e+02
8.720000000000000284e+01 2.539071031744632592e+02
8.760000000000000853e+01 2.534022534841450636e+02
8.800000000000000000e+01 2.529007023800171510e+02
8.840000000000000568e+01 2.524024130063718303e+02
8.880000000000001137e+01 2.519073490899067451e+02
8.920000000000000284e+01 2.514154749278428937e+02
8.960000000000000853e+01 2.509267553763397132e+02
9.000000000000000000e+01 2.504411558391980748e+02
9.040000000000000568e+01 2.499586422568422677e+02
9.080000000000001137e+01 2.494791810955736651e+02
9.120000000000000284e+01 2.490027393370874620e+02
9.160000000000000853e+01 2.485292844682455211e+02
9.200000000000000000e+01 2.480587844710966579e+02
9.240000000000000568e+01 2.475912078131398459e+02
9.280000000000001137e+01 2.471265234378197420e+02
9.320000000000000284e+01 2.466647007552515447e+02
9.360000000000000853e+01 2.462057096331662081e+02
9.400000000000000000e+01 2.457495203880709198e+02
9.440000000000000568e+01 2.452961037766184518e+02
9.480000000000001137e+01 2.448454309871801797e+02
9.520000000000000284e+01 2.443974736316155827e+02
9.560000000000000853e+01 2.439522037372345551e+02
9.600000000000000000e+01 2.435095937389464211e+02
9.640000000000000568e+01 2.430696164715901091e+02
9.680000000000001137e+01 2.426322451624412793e+02
9.720000000000000284e+01 2.421974534238912042e+02
9.760000000000000853e+01 2.417652152462928825e+02
9.800000000000000000e+01 2.413355049909697811e+02
9.840000000000000568e+01 2.409082973833826884e+02
9.880000000000001137e+01 2.404835675064511236e+02
9.920000000000000284e+01 2.400612907940241598e+02
9.960000000000000853e+01 2.396414430244973914e+02
1.000000000000000000e+02 2.392240003145720948e+02
1.004000000000000057e+02 2.388089391131530022e+02
1.008000000000000114e+02 2.383962361953802542e+02
1.012000000000000028e+02 2.379858686567931727e+02
1.016000000000000085e+02 2.375778139076211914e+02
1.020000000000000000e+02 2.371720496672002696e+02
1.024000000000000057e+02 2.367685539585095853e+02
1.028000000000000114e+02 2.363673051028271743e+02
1.032000000000000028e+02 2.359682817145002502e+02
1.036000000000000085e+02 2.355714626958281883e+02
1.040000000000000000e+02 2.351768272320545066e+02
1.044000000000000057e+02 2.347843547864658547e+02
1.048000000000000114e+02 2.343940250955943725e+02
1.052000000000000028e+02 2.340058181645222248e+02
1.056000000000000085e+02 2.336197142622841056e+02
1.060000000000000000e+02 2.332356939173668309e+02
1.064000000000000057e+02 2.328537379133020124e+02
1.068000000000000114e+02 2.324738272843514437e+02
1.072000000000000028e+02 2.320959433112811325e+02
1.076000000000000085e+02 2.317200675172224464e+02
1.080000000000000000e+02 2.313461816636191486e+02
1.084000000000000057e+02 2.309742677462563734e+02
1.088000000000000114e+02 2.306043079913718543e+02
1.092000000000000028e+02 2.302362848518446299e+02
1.096000000000000085e+02 2.298701810034624486e+02
1.100000000000000000e+02 2.295059793412634690e+02
1.104000000000000057e+02 2.291436629759517700e+02
1.108000000000000114e+02 2.287832152303849398e+02
1.112000000000000028e+02 2.284246196361310126e+02
1.116000000000000085e+02 2.280678599300943858e+02
1.120000000000000000e+02 2.277129200512085845e+02
1.124000000000000057e+02 2.273597841371936852e+02
1.128000000000000114e+02 2.270084365213781439e+02
1.132000000000000028e+02 2.266588617295823269e+02
1.136000000000000085e+02 2.263110444770632057e+02
1.140000000000000000e+02 2.259649696655182538e+02
1.144000000000000057e+02 2.256206223801472959e+02
1.148000000000000114e+02 2.252779878867715411e+02
1.152000000000000028e+02 2.249370516290071578e+02
1.156000000000000085e+02 2.245977992254937590e+02
1.160000000000000000e+02 2.242602164671757805e+02
1.164000000000000057e+02 2.239242893146348479e+02
1.168000000000000114e+02 2.235900038954736146e+02
1.172000000000000028e+02 2.232573465017484295e+02
1.176000000000000085e+02 2.229263035874506613e+02
1.180000000000000000e+02 2.225968617660348627e+02
1.184000000000000057e+02 2.222690078079938303e+02
1.188000000000000114e+02 2.219427286384780018e+02
1.192000000000000028e+02 2.216180113349597889e+02
1.196000000000000085e+02 2.212948431249405701e+02
1.200000000000000000e+02 2.209732113837002316e+02
1.204000000000000057e+02 2.206531036320881185e+02
1.208000000000000114e+02 2.203345075343542021e+02
1.212000000000000028e+02 2.200174108960200101e+02
1.216000000000000085e+02 2.197018016617880676e+02
1.220000000000000000e+02 2.193876679134896222e+02
1.224000000000000057e+02 2.190749978680688059e+02
1.228000000000000114e+02 2.187637798756040581e+02
1.232000000000000028e+02 2.184540024173638244e+02
1.236000000000000085e+02 2.181456541038979253e+02
1.240000000000000000e+02 2.178387236731628320e+02
1.244000000000000057e+02 2.175331999886799110e+02
1.248000000000000114e+02 2.172290720377263824e+02
1.252000000000000028e+02 2.169263289295585082e+02
1.256000000000000085e+02 2.166249598936656184e+02
1.260000000000000000e+02 2.163249542780550314e+02
1.264000000000000057e+02 2.160263015475667885e+02
1.268000000000000114e+02 2.157289912822176916e+02
1.272000000000000028e+02 2.154330131755745867e+02
1.276000000000000085e+02 2.151383570331549322e+02
1.280000000000000000e+02 2.148450127708557602e+02
1.284000000000000057e+02 2.145529704134091276e+02
1.288000000000000114e+02 2.142622200928644247e+02
1.291999999999999886e+02 2.139727520470962929e+02
1.296000000000000227e+02 2.136845566183380640e+02
1.300000000000000000e+02 2.133976242517403250e+02
1.304000000000000057e+02 2.131119454939534137e+02
1.308000000000000114e+02 2.128275109917343002e+02
1.311999999999999886e+02 2.125443114905764617e+02
1.316000000000000227e+02 2.122623378333632331e+02
1.320000000000000000e+02 2.119815809590431286e+02
1.324000000000000057e+02 2.117020319013277003e+02
1.328000000000000114e+02 2.114236817874104872e+02
1.331999999999999886e+02 2.111465218367079615e+02
1.336000000000000227e+02 2.108705433596202568e+02
1.340000000000000000e+02 2.105957377563133832e+02
1.344000000000000057e+02 2.103220965155203714e+02
1.348000000000000114e+02 2.100496112133627378e+02
1.351999999999999886e+02 2.097782735121911628e+02
1.356000000000000227e+02 2.095080751594441892e+02
1.360000000000000000e+02 2.092390079865267580e+02
1.364000000000000057e+02 2.089710639077055703e+02
1.368000000000000114e+02 2.087042349190231221e+02
1.371999999999999886e+02 2.084385130972288209e+02
1.376000000000000227e+02 2.081738905987269845e+02
1.380000000000000000e+02 2.079103596585424611e+02
1.384000000000000057e+02 2.076479125893016544e+02
1.388000000000000114e+02 2.073865417802304023e+02
1.392000000000000171e+02 2.071262396961679144e+02
1.395999999999999943e+02 2.068669988765952894e+02
1.400000000000000000e+02 2.066088119346802898e+02
1.404000000000000057e+02 2.063516715563367825e+02
1.408000000000000114e+02 2.060955704992987307e+02
1.412000000000000171e+02 2.058405015922087387e+02
1.415999999999999943e+02 2.055864577337208061e+02
1.420000000000000000e+02 2.053334318916170673e+02
1.424000000000000057e+02 2.050814171019378307e+02
1.428000000000000114e+02 2.048304064681256307e+02
1.432000000000000171e+02 2.045803931601817283e+02
1.435999999999999943e+02 2.043313704138362255e+02
1.440000000000000000e+02 2.040833315297302875e+02
1.444000000000000057e+02 2.038362698726111830e+02
1.448000000000000114e+02 2.035901788705395461e+02
1.452000000000000171e+02 2.033450520141082620e+02
1.455999999999999943e+02 2.031008828556739729e+02
1.460000000000000000e+02 2.028576650085990423e+02
1.464000000000000057e+02 2.026153921465059398e+02
1.468000000000000114e+02 2.023740580025421991e+02
1.472000000000000171e+02 2.021336563686566308e+02
1.475999999999999943e+02 2.018941810948860507e+02
1.480000000000000000e+02 2.016556260886531220e+02
1.484000000000000057e+02 2.014179853140738032e+02
1.488000000000000114e+02 2.011812527912759094e+02
1.492000000000000171e+02 2.009454225957269387e+02
1.495999999999999943e+02 2.007104888575724431e+02
1.500000000000000000e+02 2.004764457609837507e+02
