1.000000000000000000e+01 3.192782675277099997e+02
1.040000000000000036e+01 3.454402181370734297e+02
1.080000000000000071e+01 3.639122248016518029e+02
1.119999999999999929e+01 3.892522200682504945e+02
1.159999999999999964e+01 3.930002332334581752e+02
1.200000000000000000e+01 3.976813634842817464e+02
1.240000000000000036e+01 4.032408104921067888e+02
1.280000000000000071e+01 4.113958145544398235e+02
1.319999999999999929e+01 4.224113381337087958e+02
1.359999999999999964e+01 4.361182288789794939e+02
1.400000000000000000e+01 4.488787140180959341e+02
1.440000000000000036e+01 4.528154997505698134e+02
1.480000000000000071e+01 4.451467958579654010e+02
1.519999999999999929e+01 4.379516101255212561e+02
1.560000000000000142e+01 4.311786932204558411e+02
1.600000000000000000e+01 4.247846642892673117e+02
1.639999999999999858e+01 4.187324645898663675e+02
1.680000000000000071e+01 4.129901770400334726e+02
1.719999999999999929e+01 4.075301115522652253e+02
1.760000000000000142e+01 4.023280868267556230e+02
1.800000000000000000e+01 3.973628596418895995e+02
1.839999999999999858e+01 3.926156664475310549e+02
1.880000000000000071e+01 3.880698515548712066e+02
1.920000000000000284e+01 3.837105628737248821e+02
1.960000000000000142e+01 3.795245008945175300e+02
2.000000000000000000e+01 3.754997100461992545e+02
2.039999999999999858e+01 3.716254040793658646e+02
2.080000000000000071e+01 3.678918189931553684e+02
2.120000000000000284e+01 3.642900884280238643e+02
2.160000000000000142e+01 3.608121375114463945e+02
2.200000000000000000e+01 3.574505919595401338e+02
2.239999999999999858e+01 3.541986998684560604e+02
2.280000000000000071e+01 3.510502641212709705e+02
2.320000000000000284e+01 3.479995837226748563e+02
2.360000000000000142e+01 3.450414026797955103e+02
2.400000000000000000e+01 3.421708652914944082e+02
2.439999999999999858e+01 3.393834769042525750e+02
2.480000000000000071e+01 3.366750693508446943e+02
2.520000000000000284e+01 3.340417704163696726e+02
2.560000000000000142e+01 3.314799767810297340e+02
2.600000000000000000e+01 3.289863299750895749e+02
2.640000000000000213e+01 3.265576949524146357e+02
2.680000000000000071e+01 3.241911409478046835e+02
2.719999999999999929e+01 3.218839243322956918e+02
2.760000000000000142e+01 3.196334732215277086e+02
2.800000000000000000e+01 3.174373736266314836e+02
2.840000000000000213e+01 3.152933569660263515e+02
2.880000000000000071e+01 3.131992887809978470e+02
2.920000000000000284e+01 3.111531585187004794e+02
2.960000000000000142e+01 3.091530702639131505e+02
3.000000000000000000e+01 3.071972343159906700e+02
3.040000000000000213e+01 3.052839595203995486e+02
3.080000000000000071e+01 3.034116462753597716e+02
3.120000000000000284e+01 3.015787801437030566e+02
3.160000000000000142e+01 2.997839260083530917e+02
3.200000000000000000e+01 2.980257227170162651e+02
3.240000000000000568e+01 2.963028781679159351e+02
3.279999999999999716e+01 2.946141647938400183e+02
3.320000000000000284e+01 2.929584154065171333e+02
3.360000000000000142e+01 2.913345193674949769e+02
3.400000000000000000e+01 2.897414190553298567e+02
3.440000000000000568e+01 2.881781066021056859e+02
3.479999999999999716e+01 2.866436208751132426e+02
3.520000000000000284e+01 2.851370446820127995e+02
3.560000000000000142e+01 2.836575021800005061e+02
3.600000000000000000e+01 2.822041564714476181e+02
3.640000000000000568e+01 2.807762073702104431e+02
3.679999999999999716e+01 2.793728893243464881e+02
3.720000000000000284e+01 2.779934694823395489e+02
3.760000000000000142e+01 2.766372458911589547e+02
3.800000000000000000e+01 2.753035458155660535e+02
3.840000000000000568e+01 2.739917241690606033e+02
3.879999999999999716e+01 2.727011620477300085e+02
3.920000000000000284e+01 2.714312653590527020e+02
3.960000000000000142e+01 2.701814635384098437e+02
4.000000000000000000e+01 2.689512083466962622e+02
4.040000000000000568e+01 2.677399727429923928e+02
4.079999999999999716e+01 2.665472498267753281e+02
4.120000000000000284e+01 2.653725518446149749e+02
4.160000000000000142e+01 2.642154092567216708e+02
4.200000000000000000e+01 2.630753698590957015e+02
4.239999999999999858e+01 2.619519979573744877e+02
4.280000000000000426e+01 2.608448735887890848e+02
4.320000000000000284e+01 2.597535917889274515e+02
4.360000000000000142e+01 2.586777619002627944e+02
4.400000000000000000e+01 2.576170069196423356e+02
4.439999999999999858e+01 2.565709628821482511e+02
4.480000000000000426e+01 2.555392782789402872e+02
4.520000000000000284e+01 2.545216135068711765e+02
4.560000000000000142e+01 2.535176403478278928e+02
4.600000000000000000e+01 2.525270414759078790e+02
4.639999999999999858e+01 2.515495099906740393e+02
4.680000000000000426e+01 2.505847489748608723e+02
4.720000000000000284e+01 2.496324710750218117e+02
4.760000000000000142e+01 2.486923981037136571e+02
4.800000000000000000e+01 2.477642606619134824e+02
4.840000000000000568e+01 2.468477977804543855e+02
4.880000000000000426e+01 2.459427565793501742e+02
4.920000000000000284e+01 2.450488919439552262e+02
4.960000000000000142e+01 2.441659662169796263e+02
5.000000000000000000e+01 2.432937489054416460e+02
5.040000000000000568e+01 2.424320164017049137e+02
5.080000000000000426e+01 2.415805517178001196e+02
5.120000000000000284e+01 2.407391442322849286e+02
5.160000000000000142e+01 2.399075894489446341e+02
5.200000000000000000e+01 2.390856887666790271e+02
5.240000000000000568e+01 2.382732492599644729e+02
5.280000000000000426e+01 2.374700834693165064e+02
5.320000000000000284e+01 2.366760092012161181e+02
5.360000000000000142e+01 2.358908493369951316e+02
5.400000000000000000e+01 2.351144316502074503e+02
5.440000000000000568e+01 2.343465886320398113e+02
5.480000000000000426e+01 2.335871573243470039e+02
5.520000000000000284e+01 2.328359791599162349e+02
5.560000000000000142e+01 2.320928998095918701e+02
5.600000000000000000e+01 2.313577690359132646e+02
5.640000000000000568e+01 2.306304405529372161e+02
5.680000000000000426e+01 2.299107718919373724e+02
5.720000000000000284e+01 2.291986242726887042e+02
5.760000000000000142e+01 2.284938624800635409e+02
5.800000000000000000e+01 2.277963547456807021e+02
5.840000000000000568e+01 2.271059726343618195e+02
5.880000000000000426e+01 2.264225909351666530e+02
5.920000000000000284e+01 2.257460875567867049e+02
5.960000000000000142e+01 2.250763434270937466e+02
6.000000000000000000e+01 2.244132423966466376e+02
6.040000000000000568e+01 2.237566711459729163e+02
6.080000000000000426e+01 2.231065190964507678e+02
6.120000000000000284e+01 2.224626783246263244e+02
6.160000000000000142e+01 2.218250434798093806e+02
6.200000000000000000e+01 2.211935117048002439e+02
6.240000000000000568e+01 2.205679825596058947e+02
6.280000000000000426e+01 2.199483579480142339e+02
6.320000000000000284e+01 2.193345420468976954e+02
6.360000000000000142e+01 2.187264412381281602e+02
6.400000000000000000e+01 2.181239640429882627e+02
6.440000000000000568e+01 2.175270210589713997e+02
6.480000000000001137e+01 2.169355248988676976e+02
6.520000000000000284e+01 2.163493901320373709e+02
6.559999999999999432e+01 2.157685332277805514e+02
6.600000000000000000e+01 2.151928725007129231e+02
6.640000000000000568e+01 2.146223280580648520e+02
6.680000000000001137e+01 2.140568217488236655e+02
6.720000000000000284e+01 2.134962771146419414e+02
6.759999999999999432e+01 2.129406193424412379e+02
6.800000000000000000e+01 2.123897752186394428e+02
6.840000000000000568e+01 2.118436730849392688e+02
6.880000000000001137e+01 2.113022427956119031e+02
6.920000000000000284e+01 2.107654156762180264e+02
6.959999999999999432e+01 2.102331244837081954e+02
7.000000000000000000e+01 2.097053033678483871e+02
7.040000000000000568e+01 2.091818878339191201e+02
7.080000000000001137e+01 2.086628147066369934e+02
7.120000000000000284e+01 2.081480220952533955e+02
7.159999999999999432e+01 2.076374493597831190e+02
7.200000000000000000e+01 2.071310370783207304e+02
7.240000000000000568e+01 2.066287270154032569e+02
7.280000000000001137e+01 2.061304620913787176e+02
7.320000000000000284e+01 2.056361863527440050e+02
7.359999999999999432e+01 2.051458449434143745e+02
7.400000000000000000e+01 2.046593840768915413e+02
7.440000000000000568e+01 2.041767510092961402e+02
7.479999999999999716e+01 2.036978940132325135e+02
7.520000000000000284e+01 2.032227623524570106e+02
7.560000000000000853e+01 2.027513062573185039e+02
7.600000000000000000e+01 2.022834769009453453e+02
7.640000000000000568e+01 2.018192263761502261e+02
7.679999999999999716e+01 2.013585076730287824e+02
7.720000000000000284e+01 2.009012746572258550e+02
7.760000000000000853e+01 2.004474820488475189e+02
7.800000000000000000e+01 1.999970854019948092e+02
7.840000000000000568e+01 1.995500410848979982e+02
7.879999999999999716e+01 1.991063062606309018e+02
7.920000000000000284e+01 1.986658388683846965e+02
7.960000000000000853e+01 1.982285976052822605e+02
8.000000000000000000e+01 1.977945419087146206e+02
8.040000000000000568e+01 1.973636319391819427e+02
8.079999999999999716e+01 1.969358285636212145e+02
8.120000000000000284e+01 1.965110933392057859e+02
8.160000000000000853e+01 1.960893884975995434e+02
8.200000000000000000e+01 1.956706769296511084e+02
8.240000000000000568e+01 1.952549221705138791e+02
8.279999999999999716e+01 1.948420883851779308e+02
8.320000000000000284e+01 1.944321403543991664e+02
8.360000000000000853e+01 1.940250434610143770e+02
8.400000000000000000e+01 1.936207636766285987e+02
8.440000000000000568e+01 1.932192675486635665e+02
8.479999999999999716e+01 1.928205221877545910e+02
8.520000000000000284e+01 1.924244952554861072e+02
8.560000000000000853e+01 1.920311549524543011e+02
8.600000000000000000e+01 1.916404700066465239e+02
8.640000000000000568e+01 1.912524096621278034e+02
8.680000000000001137e+01 1.908669436680249021e+02
8.720000000000000284e+01 1.904840422677983724e+02
8.760000000000000853e+01 1.901036761887938269e+02
8.800000000000000000e+01 1.897258166320640953e+02
8.840000000000000568e+01 1.893504352624533738e+02
8.880000000000001137e+01 1.889775041989361739e+02
8.920000000000000284e+01 1.886069960052025749e+02
8.960000000000000853e+01 1.882388836804826724e+02
9.000000000000000000e+01 1.878731406506034602e+02
9.040000000000000568e+01 1.875097407592700733e+02
9.080000000000001137e+01 1.871486582595662185e+02
9.120000000000000284e+01 1.867898678056657786e+02
9.160000000000000853e+01 1.864333444447504178e+02
9.200000000000000000e+01 1.860790636091269050e+02
9.240000000000000568e+01 1.857270011085379906e+02
9.280000000000001137e+01 1.853771331226615757e+02
9.320000000000000284e+01 1.850294361937923782e+02
9.360000000000000853e+01 1.846838872197013757e+02
9.400000000000000000e+01 1.843404634466674850e+02
9.440000000000000568e+01 1.839991424626762750e+02
9.480000000000001137e+01 1.836599021907820202e+02
9.520000000000000284e+01 1.833227208826273795e+02
9.560000000000000853e+01 1.829875771121167247e+02
9.600000000000000000e+01 1.826544497692388802e+02
9.640000000000000568e+01 1.823233180540351555e+02
9.680000000000001137e+01 1.819941614707079793e+02
9.720000000000000284e+01 1.816669598218672945e+02
9.760000000000000853e+01 1.813416932029102213e+02
9.800000000000000000e+01 1.810183419965300686e+02
9.840000000000000568e+01 1.806968868673520490e+02
9.880000000000001137e+01 1.803773087566918605e+02
9.920000000000000284e+01 1.800595888774330717e+02
9.960000000000000853e+01 1.797437087090215186e+02
1.000000000000000000e+02 1.794296499925721662e+02
1.004000000000000057e+02 1.791173947260865873e+02
1.008000000000000114e+02 1.788069251597772507e+02
1.012000000000000028e+02 1.784982237914963719e+02
1.016000000000000085e+02 1.781912733622659744e+02
1.020000000000000000e+02 1.778860568519074548e+02
1.024000000000000057e+02 1.775825574747667019e+02
1.028000000000000114e+02 1.772807586755336615e+02
1.032000000000000028e+02 1.769806441251530202e+02
1.036000000000000085e+02 1.766821977168236231e+02
1.040000000000000000e+02 1.763854035620850880e+02
1.044000000000000057e+02 1.760902459869886911e+02
1.048000000000000114e+02 1.757967095283502772e+02
1.052000000000000028e+02 1.755047789300840293e+02
1.056000000000000085e+02 1.752144391396138303e+02
1.060000000000000000e+02 1.749256753043612207e+02
1.064000000000000057e+02 1.746384727683075084e+02
1.068000000000000114e+02 1.743528170686284966e+02
1.072000000000000028e+02 1.740686939323995261e+02
1.076000000000000085e+02 1.737860892733698392e+02
1.080000000000000000e+02 1.735049891888036200e+02
1.084000000000000057e+02 1.732253799563872008e+02
1.088000000000000114e+02 1.729472480311994218e+02
1.092000000000000028e+02 1.726705800427452289e+02
1.096000000000000085e+02 1.723953627920490987e+02
1.100000000000000000e+02 1.721215832488088040e+02
1.104000000000000057e+02 1.718492285486065043e+02
1.108000000000000114e+02 1.715782859901764539e+02
1.112000000000000028e+02 1.713087430327279890e+02
1.116000000000000085e+02 1.710405872933224032e+02
1.120000000000000000e+02 1.707738065443023174e+02
1.124000000000000057e+02 1.705083887107724081e+02
1.128000000000000114e+02 1.702443218681301289e+02
1.132000000000000028e+02 1.699815942396455739e+02
1.136000000000000085e+02 1.697201941940889753e+02
1.140000000000000000e+02 1.694601102434049835e+02
1.144000000000000057e+02 1.692013310404323931e+02
1.148000000000000114e+02 1.689438453766685768e+02
1.152000000000000028e+02 1.686876421800772050e+02
1.156000000000000085e+02 1.684327105129386268e+02
1.160000000000000000e+02 1.681790395697416898e+02
1.164000000000000057e+02 1.679266186751161740e+02
1.168000000000000114e+02 1.676754372818048751e+02
1.172000000000000028e+02 1.674254849686743967e+02
1.176000000000000085e+02 1.671767514387637732e+02
1.180000000000000000e+02 1.669292265173702958e+02
1.184000000000000057e+02 1.666829001501713208e+02
1.188000000000000114e+02 1.664377624013815193e+02
1.192000000000000028e+02 1.661938034519448024e+02
1.196000000000000085e+02 1.659510135977599248e+02
1.200000000000000000e+02 1.657093832479392859e+02
1.204000000000000057e+02 1.654689029231000461e+02
1.208000000000000114e+02 1.652295632536867060e+02
1.212000000000000028e+02 1.649913549783249493e+02
1.216000000000000085e+02 1.647542689422054139e+02
1.220000000000000000e+02 1.645182960954972771e+02
1.224000000000000057e+02 1.642834274917907180e+02
1.228000000000000114e+02 1.640496542865678862e+02
1.232000000000000028e+02 1.638169677357012404e+02
1.236000000000000085e+02 1.635853591939792864e+02
1.240000000000000000e+02 1.633548201136588887e+02
1.244000000000000057e+02 1.631253420430434176e+02
1.248000000000000114e+02 1.628969166250864475e+02
1.252000000000000028e+02 1.626695355960202960e+02
1.256000000000000085e+02 1.624431907840088058e+02
1.260000000000000000e+02 1.622178741078244002e+02
1.264000000000000057e+02 1.619935775755478460e+02
1.268000000000000114e+02 1.617702932832915508e+02
1.272000000000000028e+02 1.615480134139447728e+02
1.276000000000000085e+02 1.613267302359410280e+02
1.280000000000000000e+02 1.611064361020467857e+02
1.284000000000000057e+02 1.608871234481715078e+02
1.288000000000000114e+02 1.606687847921976129e+02
1.291999999999999886e+02 1.604514127328316420e+02
1.296000000000000227e+02 1.602349999484741261e+02
1.300000000000000000e+02 1.600195391961096618e+02
1.304000000000000057e+02 1.598050233102154039e+02
1.308000000000000114e+02 1.595914452016882024e+02
1.311999999999999886e+02 1.593787978567906123e+02
1.316000000000000227e+02 1.591670743361135862e+02
1.320000000000000000e+02 1.589562677735577836e+02
1.324000000000000057e+02 1.587463713753312220e+02
1.328000000000000114e+02 1.585373784189641810e+02
1.331999999999999886e+02 1.583292822523404482e+02
1.336000000000000227e+02 1.581220762927444525e+02
1.340000000000000000e+02 1.579157540259247696e+02
1.344000000000000057e+02 1.577103090051725758e+02
1.348000000000000114e+02 1.575057348504155357e+02
1.351999999999999886e+02 1.573020252473267817e+02
1.356000000000000227e+02 1.570991739464481043e+02
1.360000000000000000e+02 1.568971747623278645e+02
1.364000000000000057e+02 1.566960215726727199e+02
1.368000000000000114e+02 1.564957083175132766e+02
1.371999999999999886e+02 1.562962289983831852e+02
1.376000000000000227e+02 1.560975776775113104e+02
1.380000000000000000e+02 1.558997484770275435e+02
1.384000000000000057e+02 1.557027355781804943e+02
1.388000000000000114e+02 1.555065332205684001e+02
1.392000000000000171e+02 1.553111357013819429e+02
1.395999999999999943e+02 1.551165373746593730e+02
1.400000000000000000e+02 1.549227326505530868e+02
1.404000000000000057e+02 1.547297159946081990e+02
1.408000000000000114e+02 1.545374819270522551e+02
1.412000000000000171e+02 1.543460250220961996e+02
1.415999999999999943e+02 1.541553399072462867e+02
1.420000000000000000e+02 1.539654212626266485e+02
1.424000000000000057e+02 1.537762638203126357e+02
1.428000000000000114e+02 1.535878623636744464e+02
1.432000000000000171e+02 1.534002117267305891e+02
1.435999999999999943e+02 1.532133067935120607e+02
1.440000000000000000e+02 1.530271424974354773e+02
1.444000000000000057e+02 1.528417138206865786e+02
1.448000000000000114e+02 1.526570157936126009e+02
1.452000000000000171e+02 1.524730434941242265e+02
1.455999999999999943e+02 1.522897920471068005e+02
1.460000000000000000e+02 1.521072566238399304e+02
1.464000000000000057e+02 1.519254324414265227e+02
1.468000000000000114e+02 1.517443147622299762e+02
1.472000000000000171e+02 1.515638988933200437e+02
1.475999999999999943e+02 1.513841801859271357e+02
1.480000000000000000e+02 1.512051540349044672e+02
1.484000000000000057e+02 1.510268158781984198e+02
1.488000000000000114e+02 1.508491611963269747e+02
1.492000000000000171e+02 1.506721855118655640e+02
1.495999999999999943e+02 1.504958843889406523e+02
1.500000000000000000e+02 1.503202534327310218e+02
