1.000000000000000000e+01 4.457406223556424152e+02
1.040000000000000036e+01 4.415931104533949565e+02
1.080000000000000071e+01 4.729252176858637426e+02
1.119999999999999929e+01 4.993908730348377389e+02
1.159999999999999964e+01 5.280258539533289195e+02
1.200000000000000000e+01 5.329424674348623512e+02
1.240000000000000036e+01 5.462427283507881839e+02
1.280000000000000071e+01 5.794581721833970960e+02
1.319999999999999929e+01 5.836875502320319811e+02
1.359999999999999964e+01 5.935177401832693249e+02
1.400000000000000000e+01 5.952432733772316169e+02
1.440000000000000036e+01 5.984471295324967741e+02
1.480000000000000071e+01 5.884257193906333896e+02
1.519999999999999929e+01 5.790070753052935970e+02
1.560000000000000142e+01 5.701278657973383588e+02
1.600000000000000000e+01 5.617342024426900480e+02
1.639999999999999858e+01 5.537798340694334911e+02
1.680000000000000071e+01 5.462247578247042838e+02
1.719999999999999929e+01 5.390341355137267101e+02
1.760000000000000142e+01 5.321774372903212225e+02
1.800000000000000000e+01 5.256277572348761851e+02
1.839999999999999858e+01 5.193612606550649389e+02
1.880000000000000071e+01 5.133567335698488705e+02
1.920000000000000284e+01 5.075952123453115519e+02
1.960000000000000142e+01 5.020596768400188239e+02
2.000000000000000000e+01 4.967347943414728206e+02
2.039999999999999858e+01 4.916067044697581991e+02
2.080000000000000071e+01 4.866628373854258029e+02
2.120000000000000284e+01 4.818917592698439876e+02
2.160000000000000142e+01 4.772830402901800539e+02
2.200000000000000000e+01 4.728271412187929172e+02
2.239999999999999858e+01 4.685153156205485061e+02
2.280000000000000071e+01 4.643395251039407867e+02
2.320000000000000284e+01 4.602923655914247547e+02
2.360000000000000142e+01 4.563670029295758468e+02
2.400000000000000000e+01 4.525571164519079730e+02
2.439999999999999858e+01 4.488568493424736516e+02
2.480000000000000071e+01 4.452607648389738415e+02
2.520000000000000284e+01 4.417638074693724093e+02
2.560000000000000142e+01 4.383612686431745260e+02
2.600000000000000000e+01 4.350487560232045894e+02
2.640000000000000213e+01 4.318221661902899200e+02
2.680000000000000071e+01 4.286776601851969986e+02
2.719999999999999929e+01 4.256116415721895692e+02
2.760000000000000142e+01 4.226207367188793569e+02
2.800000000000000000e+01 4.197017770293560943e+02
2.840000000000000213e+01 4.168517829033107773e+02
2.880000000000000071e+01 4.140679492241482080e+02
2.920000000000000284e+01 4.113476322048347811e+02
2.960000000000000142e+01 4.086883374421928465e+02
3.000000000000000000e+01 4.060877090491597983e+02
3.040000000000000213e+01 4.035435197506650411e+02
3.080000000000000071e+01 4.010536618426827999e+02
3.120000000000000284e+01 3.986161389260082615e+02
3.160000000000000142e+01 3.962290583366995520e+02
3.200000000000000000e+01 3.938906242041387031e+02
3.240000000000000568e+01 3.915991310755101722e+02
3.279999999999999716e+01 3.893529580523383515e+02
3.320000000000000284e+01 3.871505633907071342e+02
3.360000000000000142e+01 3.849904795220253391e+02
3.400000000000000000e+01 3.828713084558028186e+02
3.440000000000000568e+01 3.807917175299546670e+02
3.479999999999999716e+01 3.787504354777190656e+02
3.520000000000000284e+01 3.767462487834295644e+02
3.560000000000000142e+01 3.747779983021761154e+02
3.600000000000000000e+01 3.728445761208631666e+02
3.640000000000000568e+01 3.709449226403743296e+02
3.679999999999999716e+01 3.690780238605086652e+02
3.720000000000000284e+01 3.672429088511011059e+02
3.760000000000000142e+01 3.654386473942947759e+02
3.800000000000000000e+01 3.636643477843265373e+02
3.840000000000000568e+01 3.619191547724354905e+02
3.879999999999999716e+01 3.602022476456229469e+02
3.920000000000000284e+01 3.585128384289962469e+02
3.960000000000000142e+01 3.568501702023349935e+02
4.000000000000000000e+01 3.552135155223311358e+02
4.040000000000000568e+01 3.536021749426898850e+02
4.079999999999999716e+01 3.520154756249416437e+02
4.120000000000000284e+01 3.504527700334141400e+02
4.160000000000000142e+01 3.489134347083595458e+02
4.200000000000000000e+01 3.473968691117212302e+02
4.239999999999999858e+01 3.459024945404727305e+02
4.280000000000000426e+01 3.444297531028690855e+02
4.320000000000000284e+01 3.429781067533172063e+02
4.360000000000000142e+01 3.415470363819100044e+02
4.400000000000000000e+01 3.401360409549773749e+02
4.439999999999999858e+01 3.387446367032825947e+02
4.480000000000000426e+01 3.373723563547521849e+02
4.520000000000000284e+01 3.360187484088609153e+02
4.560000000000000142e+01 3.346833764500035500e+02
4.600000000000000000e+01 3.333658184973866696e+02
4.639999999999999858e+01 3.320656663891500102e+02
4.680000000000000426e+01 3.307825251985915429e+02
4.720000000000000284e+01 3.295160126805252503e+02
4.760000000000000142e+01 3.282657587459360684e+02
4.800000000000000000e+01 3.270314049632280557e+02
4.840000000000000568e+01 3.258126040844776981e+02
4.880000000000000426e+01 3.246090195952147042e+02
4.920000000000000284e+01 3.234203252863511580e+02
4.960000000000000142e+01 3.222462048469761839e+02
5.000000000000000000e+01 3.210863514768152527e+02
5.040000000000000568e+01 3.199404675172336852e+02
5.080000000000000426e+01 3.188082640997396879e+02
5.120000000000000284e+01 3.176894608110063700e+02
5.160000000000000142e+01 3.165837853734973351e+02
5.200000000000000000e+01 3.154909733408395596e+02
5.240000000000000568e+01 3.144107678071389955e+02
5.280000000000000426e+01 3.133429191294865745e+02
5.320000000000000284e+01 3.122871846629485049e+02
5.360000000000000142e+01 3.112433285073789762e+02
5.400000000000000000e+01 3.102111212654315295e+02
5.440000000000000568e+01 3.091903398111855950e+02
5.480000000000000426e+01 3.081807670688394865e+02
5.520000000000000284e+01 3.071821918009508749e+02
5.560000000000000142e+01 3.061944084057418536e+02
5.600000000000000000e+01 3.052172167230074820e+02
5.640000000000000568e+01 3.042504218481993234e+02
5.680000000000000426e+01 3.032938339542765789e+02
5.720000000000000284e+01 3.023472681209417487e+02
5.760000000000000142e+01 3.014105441708998114e+02
5.800000000000000000e+01 3.004834865128007095e+02
5.840000000000000568e+01 2.995659239905410800e+02
5.880000000000000426e+01 2.986576897386241285e+02
5.920000000000000284e+01 2.977586210432879170e+02
5.960000000000000142e+01 2.968685592091315470e+02
6.000000000000000000e+01 2.959873494309824196e+02
6.040000000000000568e+01 2.951148406707604863e+02
6.080000000000000426e+01 2.942508855391114935e+02
6.120000000000000284e+01 2.933953401815876987e+02
6.160000000000000142e+01 2.925480641691743244e+02
6.200000000000000000e+01 2.917089203929617156e+02
6.240000000000000568e+01 2.908777749627802223e+02
6.280000000000000426e+01 2.900544971096217068e+02
6.320000000000000284e+01 2.892389590916787938e+02
6.360000000000000142e+01 2.884310361038464521e+02
6.400000000000000000e+01 2.876306061905322622e+02
6.440000000000000568e+01 2.868375501616349084e+02
6.480000000000001137e+01 2.860517515115533911e+02
6.520000000000000284e+01 2.852730963410986647e+02
6.559999999999999432e+01 2.845014732821847474e+02
6.600000000000000000e+01 2.837367734251820366e+02
6.640000000000000568e+01 2.829788902488227791e+02
6.680000000000001137e+01 2.822277195525510365e+02
6.720000000000000284e+01 2.814831593912184076e+02
6.759999999999999432e+01 2.807451100120283627e+02
6.800000000000000000e+01 2.800134737936372744e+02
6.840000000000000568e+01 2.792881551873267654e+02
6.880000000000001137e+01 2.785690606601619947e+02
6.920000000000000284e+01 2.778560986400586899e+02
6.959999999999999432e+01 2.771491794626817864e+02
7.000000000000000000e+01 2.764482153201040546e+02
7.040000000000000568e+01 2.757531202111562152e+02
7.080000000000001137e+01 2.750638098934017535e+02
7.120000000000000284e+01 2.743802018366748143e+02
7.159999999999999432e+01 2.737022151781199000e+02
7.200000000000000000e+01 2.730297706786768686e+02
7.240000000000000568e+01 2.723627906809560955e+02
7.280000000000001137e+01 2.717011990684515013e+02
7.320000000000000284e+01 2.710449212260403442e+02
7.359999999999999432e+01 2.703938840017229950e+02
7.400000000000000000e+01 2.697480156695568212e+02
7.440000000000000568e+01 2.691072458937381953e+02
7.479999999999999716e+01 2.684715056937932331e+02
7.520000000000000284e+01 2.678407274108349725e+02
7.560000000000000853e+01 2.672148446748490187e+02
7.600000000000000000e+01 2.665937923729707109e+02
7.640000000000000568e+01 2.659775066187179391e+02
7.679999999999999716e+01 2.653659247221467581e+02
7.720000000000000284e+01 2.647589851608942126e+02
7.760000000000000853e+01 2.641566275520816021e+02
7.800000000000000000e+01 2.635587926250435657e+02
7.840000000000000568e+01 2.629654221948572967e+02
7.879999999999999716e+01 2.623764591366428931e+02
7.920000000000000284e+01 2.617918473606081307e+02
7.960000000000000853e+01 2.612115317878137262e+02
8.000000000000000000e+01 2.606354583266314648e+02
8.040000000000000568e+01 2.600635738498759224e+02
8.079999999999999716e+01 2.594958261725823832e+02
8.120000000000000284e+01 2.589321640304142420e+02
8.160000000000000853e+01 2.583725370586740837e+02
8.200000000000000000e+01 2.578168957719019545e+02
8.240000000000000568e+01 2.572651915440400217e+02
8.279999999999999716e+01 2.567173765891449762e+02
8.320000000000000284e+01 2.561734039426307845e+02
8.360000000000000853e+01 2.556332274430238840e+02
8.400000000000000000e+01 2.550968017142152462e+02
8.440000000000000568e+01 2.545640821481922558e+02
8.479999999999999716e+01 2.540350248882356823e+02
8.520000000000000284e+01 2.535095868125671643e+02
8.560000000000000853e+01 2.529877255184321712e+02
8.600000000000000000e+01 2.524693993066052826e+02
8.640000000000000568e+01 2.519545671663043436e+02
8.680000000000001137e+01 2.514431887605011866e+02
8.720000000000000284e+01 2.509352244116157635e+02
8.760000000000000853e+01 2.504306350875821465e+02
8.800000000000000000e+01 2.499293823882760535e+02
8.840000000000000568e+01 2.494314285322907381e+02
8.880000000000001137e+01 2.489367363440527754e+02
8.920000000000000284e+01 2.484452692412658052e+02
8.960000000000000853e+01 2.479569912226733663e+02
9.000000000000000000e+01 2.474718668561308164e+02
9.040000000000000568e+01 2.469898612669771296e+02
9.080000000000001137e+01 2.465109401266979319e+02
9.120000000000000284e+01 2.460350696418704786e+02
9.160000000000000853e+01 2.455622165433832151e+02
9.200000000000000000e+01 2.450923480759211657e+02
9.240000000000000568e+01 2.446254319877095327e+02
9.280000000000001137e+01 2.441614365205082322e+02
9.320000000000000284e+01 2.437003303998500314e+02
9.360000000000000853e+01 2.432420828255148990e+02
9.400000000000000000e+01 2.427866634622344009e+02
9.440000000000000568e+01 2.423340424306192631e+02
9.480000000000001137e+01 2.418841902983036789e+02
9.520000000000000284e+01 2.414370780713004763e+02
9.560000000000000853e+01 2.409926771855608649e+02
9.600000000000000000e+01 2.405509594987336186e+02
9.640000000000000568e+01 2.401118972821173543e+02
9.680000000000001137e+01 2.396754632128014180e+02
9.720000000000000284e+01 2.392416303659892378e+02
9.760000000000000853e+01 2.388103722074997677e+02
9.800000000000000000e+01 2.383816625864423600e+02
9.840000000000000568e+01 2.379554757280590138e+02
9.880000000000001137e+01 2.375317862267313558e+02
9.920000000000000284e+01 2.371105690391464123e+02
9.960000000000000853e+01 2.366917994776173941e+02
1.000000000000000000e+02 2.362754532035553439e+02
1.004000000000000057e+02 2.358615062210878932e+02
1.008000000000000114e+02 2.354499348708205275e+02
1.012000000000000028e+02 2.350407158237374574e+02
1.016000000000000085e+02 2.346338260752372662e+02
1.020000000000000000e+02 2.342292429393012583e+02
1.024000000000000057e+02 2.338269440427898189e+02
1.028000000000000114e+02 2.334269073198638011e+02
1.032000000000000028e+02 2.330291110065280691e+02
1.036000000000000085e+02 2.326335336352935315e+02
1.040000000000000000e+02 2.322401540299551073e+02
1.044000000000000057e+02 2.318489513004820424e+02
1.048000000000000114e+02 2.314599048380181046e+02
1.052000000000000028e+02 2.310729943099892125e+02
1.056000000000000085e+02 2.306881996553149179e+02
1.060000000000000000e+02 2.303055010797217506e+02
1.064000000000000057e+02 2.299248790511556422e+02
1.068000000000000114e+02 2.295463142952911539e+02
1.072000000000000028e+02 2.291697877911348655e+02
1.076000000000000085e+02 2.287952807667204524e+02
1.080000000000000000e+02 2.284227746948939171e+02
1.084000000000000057e+02 2.280522512891855058e+02
1.088000000000000114e+02 2.276836924997677443e+02
1.092000000000000028e+02 2.273170805094960087e+02
1.096000000000000085e+02 2.269523977300305546e+02
1.100000000000000000e+02 2.265896267980376706e+02
1.104000000000000057e+02 2.262287505714683391e+02
1.108000000000000114e+02 2.258697521259118446e+02
1.112000000000000028e+02 2.255126147510234773e+02
1.116000000000000085e+02 2.251573219470238882e+02
1.120000000000000000e+02 2.248038574212687308e+02
1.124000000000000057e+02 2.244522050848864296e+02
1.128000000000000114e+02 2.241023490494833084e+02
1.132000000000000028e+02 2.237542736239137753e+02
1.136000000000000085e+02 2.234079633111140879e+02
1.140000000000000000e+02 2.230634028049988160e+02
1.144000000000000057e+02 2.227205769874177577e+02
1.148000000000000114e+02 2.223794709251725976e+02
1.152000000000000028e+02 2.220400698670912902e+02
1.156000000000000085e+02 2.217023592411592858e+02
1.160000000000000000e+02 2.213663246517063214e+02
1.164000000000000057e+02 2.210319518766470992e+02
1.168000000000000114e+02 2.206992268647750848e+02
1.172000000000000028e+02 2.203681357331076924e+02
1.176000000000000085e+02 2.200386647642827143e+02
1.180000000000000000e+02 2.197108004040031801e+02
1.184000000000000057e+02 2.193845292585311597e+02
1.188000000000000114e+02 2.190598380922289437e+02
1.192000000000000028e+02 2.187367138251455287e+02
1.196000000000000085e+02 2.184151435306492317e+02
1.200000000000000000e+02 2.180951144331036744e+02
1.204000000000000057e+02 2.177766139055876238e+02
1.208000000000000114e+02 2.174596294676561854e+02
1.212000000000000028e+02 2.171441487831442601e+02
1.216000000000000085e+02 2.168301596580095065e+02
1.220000000000000000e+02 2.165176500382154359e+02
1.224000000000000057e+02 2.162066080076528749e+02
1.228000000000000114e+02 2.158970217860993444e+02
1.232000000000000028e+02 2.155888797272154136e+02
1.236000000000000085e+02 2.152821703165770373e+02
1.240000000000000000e+02 2.149768821697439876e+02
1.244000000000000057e+02 2.146730040303621649e+02
1.248000000000000114e+02 2.143705247683003279e+02
1.252000000000000028e+02 2.140694333778200189e+02
1.256000000000000085e+02 2.137697189757778915e+02
1.260000000000000000e+02 2.134713707998598125e+02
1.264000000000000057e+02 2.131743782068464839e+02
1.268000000000000114e+02 2.128787306709091354e+02
1.272000000000000028e+02 2.125844177819355991e+02
1.276000000000000085e+02 2.122914292438849202e+02
1.280000000000000000e+02 2.119997548731716108e+02
1.284000000000000057e+02 2.117093845970770758e+02
1.288000000000000114e+02 2.114203084521891185e+02
1.291999999999999886e+02 2.111325165828680497e+02
1.296000000000000227e+02 2.108459992397392284e+02
1.300000000000000000e+02 2.105607467782118931e+02
1.304000000000000057e+02 2.102767496570222931e+02
1.308000000000000114e+02 2.099939984368028831e+02
1.311999999999999886e+02 2.097124837786748799e+02
1.316000000000000227e+02 2.094321964428649210e+02
1.320000000000000000e+02 2.091531272873452849e+02
1.324000000000000057e+02 2.088752672664969054e+02
1.328000000000000114e+02 2.085986074297942423e+02
1.331999999999999886e+02 2.083231389205131165e+02
1.336000000000000227e+02 2.080488529744592938e+02
1.340000000000000000e+02 2.077757409187184976e+02
1.344000000000000057e+02 2.075037941704271702e+02
1.348000000000000114e+02 2.072330042355632429e+02
1.351999999999999886e+02 2.069633627077572555e+02
1.356000000000000227e+02 2.066948612671225192e+02
1.360000000000000000e+02 2.064274916791047190e+02
1.364000000000000057e+02 2.061612457933502469e+02
1.368000000000000114e+02 2.058961155425927814e+02
1.371999999999999886e+02 2.056320929415579712e+02
1.376000000000000227e+02 2.053691700858859974e+02
1.380000000000000000e+02 2.051073391510712440e+02
1.384000000000000057e+02 2.048465923914191080e+02
1.388000000000000114e+02 2.045869221390194639e+02
1.392000000000000171e+02 2.043283208027367550e+02
1.395999999999999943e+02 2.040707808672158023e+02
1.400000000000000000e+02 2.038142948919036144e+02
1.404000000000000057e+02 2.035588555100866586e+02
1.408000000000000114e+02 2.033044554279432532e+02
1.412000000000000171e+02 2.030510874236109373e+02
1.415999999999999943e+02 2.027987443462684496e+02
1.420000000000000000e+02 2.025474191152320032e+02
1.424000000000000057e+02 2.022971047190656293e+02
1.428000000000000114e+02 2.020477942147057320e+02
1.432000000000000171e+02 2.017994807265985173e+02
1.435999999999999943e+02 2.015521574458516056e+02
1.440000000000000000e+02 2.013058176293977795e+02
1.444000000000000057e+02 2.010604545991723171e+02
1.448000000000000114e+02 2.008160617413028604e+02
1.452000000000000171e+02 2.005726325053111339e+02
1.455999999999999943e+02 2.003301604033275112e+02
1.460000000000000000e+02 2.000886390093169211e+02
1.464000000000000057e+02 1.998480619583170323e+02
1.468000000000000114e+02 1.996084229456874084e+02
1.472000000000000171e+02 1.993697157263704298e+02
1.475999999999999943e+02 1.991319341141631298e+02
1.480000000000000000e+02 1.988950719809997167e+02
1.484000000000000057e+02 1.986591232562453229e+02
1.488000000000000114e+02 1.984240819259998716e+02
1.492000000000000171e+02 1.981899420324123753e+02
1.495999999999999943e+02 1.979566976730054364e+02
1.500000000000000000e+02 1.977243430000098670e+02
