1.000000000000000000e+01 1.811345384014917101e+02
1.040000000000000036e+01 1.789125738941009160e+02
1.080000000000000071e+01 1.767236577911148174e+02
1.119999999999999929e+01 1.756699851531178922e+02
1.159999999999999964e+01 1.768602646092276132e+02
1.200000000000000000e+01 1.724749863449713132e+02
1.240000000000000036e+01 1.684497814052713807e+02
1.280000000000000071e+01 1.647316967953742051e+02
1.319999999999999929e+01 1.612794178619729450e+02
1.359999999999999964e+01 1.580598487747698471e+02
1.400000000000000000e+01 1.550459284740640555e+02
1.440000000000000036e+01 1.522151649814115899e+02
1.480000000000000071e+01 1.495486118722508309e+02
1.519999999999999929e+01 1.404963993818642223e+02
1.560000000000000142e+01 1.381723975533650446e+02
1.600000000000000000e+01 1.359609944009322646e+02
1.639999999999999858e+01 1.338530233887452994e+02
1.680000000000000071e+01 1.318531348143253581e+02
1.719999999999999929e+01 1.303439034181577370e+02
1.760000000000000142e+01 1.288975575369620117e+02
1.800000000000000000e+01 1.275096011191072023e+02
1.839999999999999858e+01 1.261759926317190974e+02
1.880000000000000071e+01 1.248930855190696008e+02
1.920000000000000284e+01 1.236575782649957773e+02
1.960000000000000142e+01 1.224664722176080147e+02
2.000000000000000000e+01 1.213117301154417476e+02
2.039999999999999858e+01 1.201363732533089888e+02
2.080000000000000071e+01 1.190016636659976257e+02
2.120000000000000284e+01 1.179051984745431128e+02
2.160000000000000142e+01 1.157548337763327027e+02
2.200000000000000000e+01 1.147404979432666607e+02
2.239999999999999858e+01 1.137583125190653988e+02
2.280000000000000071e+01 1.128065369213228735e+02
2.320000000000000284e+01 1.118835627256653140e+02
2.360000000000000142e+01 1.109879007940514697e+02
2.400000000000000000e+01 1.101181699301334476e+02
2.439999999999999858e+01 1.092730868484659368e+02
2.480000000000000071e+01 1.084514572785228808e+02
2.520000000000000284e+01 1.076521680524886335e+02
2.560000000000000142e+01 1.068741800488612483e+02
2.600000000000000000e+01 1.061165218830053334e+02
2.640000000000000213e+01 1.053782842516858977e+02
2.680000000000000071e+01 1.046586148518878758e+02
2.719999999999999929e+01 1.039666431026491296e+02
2.760000000000000142e+01 1.033326868719891820e+02
2.800000000000000000e+01 1.027001628534656277e+02
2.840000000000000213e+01 1.020784987452866233e+02
2.880000000000000071e+01 1.014711520264281717e+02
2.920000000000000284e+01 1.016167535755186009e+02
2.960000000000000142e+01 1.010685264624006692e+02
3.000000000000000000e+01 1.005317778947766953e+02
3.040000000000000213e+01 1.000060892725459780e+02
3.080000000000000071e+01 9.949106340391840320e+01
3.120000000000000284e+01 9.898632311142040408e+01
3.160000000000000142e+01 8.950085386852754255e+01
3.200000000000000000e+01 8.891321366134262405e+01
3.240000000000000568e+01 8.833748917325053185e+01
3.279999999999999716e+01 8.777327527238963967e+01
3.320000000000000284e+01 8.722018596027226067e+01
3.360000000000000142e+01 8.667785322375540602e+01
3.400000000000000000e+01 8.614592597009718133e+01
3.440000000000000568e+01 8.562406903808923175e+01
3.479999999999999716e+01 8.511196227892833122e+01
3.520000000000000284e+01 8.460929970109117448e+01
3.560000000000000142e+01 8.411578867401368598e+01
3.600000000000000000e+01 8.363114918585573321e+01
3.640000000000000568e+01 8.315511315106553525e+01
3.679999999999999716e+01 8.291464963006063726e+01
3.720000000000000284e+01 8.246673521634492943e+01
3.760000000000000142e+01 8.202639495526095459e+01
3.800000000000000000e+01 8.159341307212956451e+01
3.840000000000000568e+01 8.116352111523399060e+01
3.879999999999999716e+01 8.073971890082825098e+01
3.920000000000000284e+01 8.032280743794983380e+01
3.960000000000000142e+01 7.991259765839950546e+01
4.000000000000000000e+01 7.950890774608990341e+01
4.040000000000000568e+01 7.911156278151642596e+01
4.079999999999999716e+01 7.872039440737410132e+01
4.120000000000000284e+01 7.833524051384522124e+01
4.160000000000000142e+01 7.795594494220134152e+01
4.200000000000000000e+01 7.758235720546920788e+01
4.239999999999999858e+01 7.721433222500888860e+01
4.280000000000000426e+01 7.685173008194061595e+01
4.320000000000000284e+01 7.649441578243865081e+01
4.360000000000000142e+01 7.614225903598502043e+01
4.400000000000000000e+01 7.579513404574302626e+01
4.439999999999999858e+01 7.545291931027409760e+01
4.480000000000000426e+01 7.511549743587706018e+01
4.520000000000000284e+01 7.478275495888293278e+01
4.560000000000000142e+01 7.445458217728483419e+01
4.600000000000000000e+01 7.412997215734225165e+01
4.639999999999999858e+01 7.380744520028245859e+01
4.680000000000000426e+01 7.347939278465730695e+01
4.720000000000000284e+01 7.315567649865103306e+01
4.760000000000000142e+01 7.283619977612602270e+01
4.800000000000000000e+01 7.252086906671347322e+01
4.840000000000000568e+01 7.220959371505378499e+01
4.880000000000000426e+01 7.190228584591874039e+01
4.920000000000000284e+01 7.159886025487904249e+01
4.960000000000000142e+01 7.129923430420228669e+01
5.000000000000000000e+01 7.100332782368754181e+01
5.040000000000000568e+01 7.071106301616136136e+01
5.080000000000000426e+01 7.055147452442017197e+01
5.120000000000000284e+01 7.026783863894516458e+01
5.160000000000000142e+01 6.998761113104531262e+01
5.200000000000000000e+01 6.775329260036042456e+01
5.240000000000000568e+01 6.747196648522245255e+01
5.280000000000000426e+01 6.719397929785110080e+01
5.320000000000000284e+01 6.691926483828960670e+01
5.360000000000000142e+01 6.664775874249684762e+01
5.400000000000000000e+01 6.637939841707556354e+01
5.440000000000000568e+01 6.611412297682576877e+01
5.480000000000000426e+01 6.585187318497939657e+01
5.520000000000000284e+01 6.559259139598088950e+01
5.560000000000000142e+01 6.533622150068579515e+01
5.600000000000000000e+01 6.508270887385754122e+01
5.640000000000000568e+01 6.483200032384873168e+01
5.680000000000000426e+01 6.458404404435985668e+01
5.720000000000000284e+01 6.432823992579838546e+01
5.760000000000000142e+01 6.408958068315057233e+01
5.800000000000000000e+01 6.385346796970348038e+01
5.840000000000000568e+01 6.361985636096488861e+01
5.880000000000000426e+01 6.338870156663124789e+01
5.920000000000000284e+01 6.315996039425704112e+01
5.960000000000000142e+01 6.293359071434220198e+01
6.000000000000000000e+01 6.270955142677174621e+01
6.040000000000000568e+01 6.248780242854671485e+01
6.080000000000000426e+01 6.226830458274746150e+01
6.120000000000000284e+01 6.205101968867366935e+01
6.160000000000000142e+01 6.183591045310946299e+01
6.200000000000000000e+01 6.162294046266244862e+01
6.240000000000000568e+01 6.141207415713063256e+01
6.280000000000000426e+01 6.120327680385130265e+01
6.320000000000000284e+01 6.099651447298985119e+01
6.360000000000000142e+01 6.079190022345645872e+01
6.400000000000000000e+01 6.058935088115501344e+01
6.440000000000000568e+01 6.038872870589979414e+01
6.480000000000001137e+01 6.019000309219435962e+01
6.520000000000000284e+01 5.999314411433107352e+01
6.559999999999999432e+01 5.979812250703405141e+01
6.600000000000000000e+01 5.960490964677295267e+01
6.640000000000000568e+01 5.961294418474856371e+01
6.680000000000001137e+01 5.943536560859575246e+01
6.720000000000000284e+01 5.925937869917709833e+01
6.759999999999999432e+01 5.908495948309054313e+01
6.800000000000000000e+01 5.891208449222850874e+01
6.840000000000000568e+01 5.873900155415762470e+01
6.880000000000001137e+01 5.856743397593780287e+01
6.920000000000000284e+01 5.839736607231735377e+01
6.959999999999999432e+01 5.822877582512536776e+01
7.000000000000000000e+01 5.806164166851641539e+01
7.040000000000000568e+01 5.789594247706708785e+01
7.080000000000001137e+01 5.773165755425383594e+01
7.120000000000000284e+01 5.756876662129731415e+01
7.159999999999999432e+01 5.740724980635996388e+01
7.200000000000000000e+01 5.724708763408314383e+01
7.240000000000000568e+01 5.708826101545176357e+01
7.280000000000001137e+01 5.693075123797407144e+01
7.320000000000000284e+01 5.677453995616511406e+01
7.359999999999999432e+01 5.661960918232282580e+01
7.400000000000000000e+01 5.646594127758639559e+01
7.440000000000000568e+01 5.631351894326627416e+01
7.479999999999999716e+01 5.616232521243653508e+01
7.520000000000000284e+01 5.601234344178015334e+01
7.560000000000000853e+01 5.586355730367812811e+01
7.600000000000000000e+01 5.571595077853390166e+01
7.640000000000000568e+01 5.556950814732509514e+01
7.679999999999999716e+01 5.542421398437419811e+01
7.720000000000000284e+01 5.527762087754383913e+01
7.760000000000000853e+01 5.513179044514955507e+01
7.800000000000000000e+01 5.498709249280689448e+01
7.840000000000000568e+01 5.484351226432502813e+01
7.879999999999999716e+01 5.467656185424880277e+01
7.920000000000000284e+01 5.453580368010352686e+01
7.960000000000000853e+01 5.439611745629522943e+01
8.000000000000000000e+01 5.425748946572093701e+01
8.040000000000000568e+01 5.411990623727829330e+01
8.079999999999999716e+01 5.398335454020580926e+01
8.120000000000000284e+01 5.384782137858154982e+01
8.160000000000000853e+01 5.374841505949316200e+01
8.200000000000000000e+01 5.361648542210490120e+01
8.240000000000000568e+01 5.348551849415301973e+01
8.279999999999999716e+01 5.335550245990209817e+01
8.320000000000000284e+01 5.322642570701776776e+01
8.360000000000000853e+01 5.309827682207166788e+01
8.400000000000000000e+01 5.297104458616750122e+01
8.440000000000000568e+01 5.284471797068422916e+01
8.479999999999999716e+01 5.271928613313292544e+01
8.520000000000000284e+01 5.259473841312345144e+01
8.560000000000000853e+01 5.247106432843767720e+01
8.600000000000000000e+01 5.234825357120600842e+01
8.640000000000000568e+01 5.222332185373811342e+01
8.680000000000001137e+01 5.209883505883122723e+01
8.720000000000000284e+01 5.197521360337241703e+01
8.760000000000000853e+01 5.185244738909764806e+01
8.800000000000000000e+01 5.173052648309639778e+01
8.840000000000000568e+01 5.160944111433311576e+01
8.880000000000001137e+01 5.148918167025791348e+01
8.920000000000000284e+01 5.136973869350386934e+01
8.960000000000000853e+01 5.125110287866812797e+01
9.000000000000000000e+01 5.113326506917463377e+01
9.040000000000000568e+01 5.101621625421567785e+01
9.080000000000001137e+01 5.089994756577007706e+01
9.120000000000000284e+01 5.078445027569585335e+01
9.160000000000000853e+01 5.066971579289515404e+01
9.200000000000000000e+01 5.055573566054899004e+01
9.240000000000000568e+01 5.044250155342034958e+01
9.280000000000001137e+01 5.033000527522314371e+01
9.320000000000000284e+01 5.021823875605540621e+01
9.360000000000000853e+01 5.010719404989484360e+01
9.400000000000000000e+01 4.999686333215489498e+01
9.440000000000000568e+01 4.988698332003543356e+01
9.480000000000001137e+01 4.977761627875399597e+01
9.520000000000000284e+01 4.966868784869161857e+01
9.560000000000000853e+01 4.956038020216833928e+01
9.600000000000000000e+01 4.945275597903334841e+01
9.640000000000000568e+01 4.934580794576312712e+01
9.680000000000001137e+01 4.923952897627900427e+01
9.720000000000000284e+01 4.913391204989597583e+01
9.760000000000000853e+01 4.902895024931923018e+01
9.800000000000000000e+01 4.892463675868721396e+01
9.840000000000000568e+01 4.882096486165982441e+01
9.880000000000001137e+01 4.871792793955064838e+01
9.920000000000000284e+01 4.861551946950178404e+01
9.960000000000000853e+01 4.851373302270047105e+01
1.000000000000000000e+02 4.841256226263615758e+01
1.004000000000000057e+02 4.831200094339692441e+01
1.008000000000000114e+02 4.821204290800434933e+01
1.012000000000000028e+02 4.811268208678559688e+01
1.016000000000000085e+02 4.801391249578206555e+01
1.020000000000000000e+02 4.791572823519314284e+01
1.024000000000000057e+02 4.781812348785478406e+01
1.028000000000000114e+02 4.772109251775130190e+01
1.032000000000000028e+02 4.762462966856020330e+01
1.036000000000000085e+02 4.752872936222846079e+01
1.040000000000000000e+02 4.743338609758031055e+01
1.044000000000000057e+02 4.733859444895485069e+01
1.048000000000000114e+02 4.724434906487326913e+01
1.052000000000000028e+02 4.715064466673488397e+01
1.056000000000000085e+02 4.705747604754092350e+01
1.060000000000000000e+02 4.696483807064581129e+01
1.064000000000000057e+02 4.687272566853487632e+01
1.068000000000000114e+02 4.678113384162794830e+01
1.072000000000000028e+02 4.669005765710844713e+01
1.076000000000000085e+02 4.659949224777690802e+01
1.080000000000000000e+02 4.650943281092854420e+01
1.084000000000000057e+02 4.641987460725425763e+01
1.088000000000000114e+02 4.633081295976472092e+01
1.092000000000000028e+02 4.624224325273629432e+01
1.096000000000000085e+02 4.615416093067919689e+01
1.100000000000000000e+02 4.606656149732660310e+01
1.104000000000000057e+02 4.608258799435374442e+01
1.108000000000000114e+02 4.609094720706544024e+01
1.112000000000000028e+02 4.601097155255080651e+01
1.116000000000000085e+02 4.593141448674730043e+01
1.120000000000000000e+02 4.585227231077353593e+01
1.124000000000000057e+02 4.578219787485766545e+01
1.128000000000000114e+02 4.570439935661350717e+01
1.132000000000000028e+02 4.562700110550024135e+01
1.136000000000000085e+02 4.554999964273891067e+01
1.140000000000000000e+02 4.547339153208586282e+01
1.144000000000000057e+02 4.539717337916329143e+01
1.148000000000000114e+02 4.532134183080270873e+01
1.152000000000000028e+02 4.524589357440118675e+01
1.156000000000000085e+02 4.517082533728952143e+01
1.160000000000000000e+02 4.509613388611275298e+01
1.164000000000000057e+02 4.502181602622230372e+01
1.168000000000000114e+02 4.494786860107947035e+01
1.172000000000000028e+02 4.487428849167041278e+01
1.176000000000000085e+02 4.480107261593179402e+01
1.180000000000000000e+02 4.472821792818749032e+01
1.184000000000000057e+02 4.465572141859549760e+01
1.188000000000000114e+02 4.458358011260529707e+01
1.192000000000000028e+02 4.451179107042521110e+01
1.196000000000000085e+02 4.444035138649951477e+01
1.200000000000000000e+02 4.436925818899521801e+01
1.204000000000000057e+02 4.429850863929830496e+01
1.208000000000000114e+02 4.422809993151897601e+01
1.212000000000000028e+02 4.415802929200611970e+01
1.216000000000000085e+02 4.408829397887042489e+01
1.220000000000000000e+02 4.401889128151616859e+01
1.224000000000000057e+02 4.394981852018143798e+01
1.228000000000000114e+02 4.388107304548660181e+01
1.232000000000000028e+02 4.381265223799083230e+01
1.236000000000000085e+02 4.374455350775658502e+01
1.240000000000000000e+02 4.367677429392180244e+01
1.244000000000000057e+02 4.360931206427960660e+01
1.248000000000000114e+02 4.354216431486560168e+01
1.252000000000000028e+02 4.347532856955226066e+01
1.256000000000000085e+02 4.340880237965053112e+01
1.260000000000000000e+02 4.334258332351835463e+01
1.264000000000000057e+02 4.327664786066470270e+01
1.268000000000000114e+02 4.321100785786546794e+01
1.272000000000000028e+02 4.314566784714970993e+01
1.276000000000000085e+02 4.308062551345560109e+01
1.280000000000000000e+02 4.301587856686082745e+01
1.284000000000000057e+02 4.295142474223128204e+01
1.288000000000000114e+02 4.288726179887549250e+01
1.291999999999999886e+02 4.282338752020523032e+01
1.296000000000000227e+02 4.275979971340160546e+01
1.300000000000000000e+02 4.269649620908700882e+01
1.304000000000000057e+02 4.263347486100244055e+01
1.308000000000000114e+02 4.257066552235971812e+01
1.311999999999999886e+02 4.250804655864330073e+01
1.316000000000000227e+02 4.244570443501732626e+01
1.320000000000000000e+02 4.238363708529979590e+01
1.324000000000000057e+02 4.232184246501120839e+01
1.328000000000000114e+02 4.226031855108120538e+01
1.331999999999999886e+02 4.219906334155986372e+01
1.336000000000000227e+02 4.213807485533374120e+01
1.340000000000000000e+02 4.207735113184669729e+01
1.344000000000000057e+02 4.201689023082516883e+01
1.348000000000000114e+02 4.195669023200803593e+01
1.351999999999999886e+02 4.189674923488078662e+01
1.356000000000000227e+02 4.183674720183396545e+01
1.360000000000000000e+02 4.177628336028476497e+01
1.364000000000000057e+02 4.171607958416337425e+01
1.368000000000000114e+02 4.165613398697450975e+01
1.371999999999999886e+02 4.159644470148503359e+01
1.376000000000000227e+02 4.153700987947061662e+01
1.380000000000000000e+02 4.147782769146657955e+01
1.384000000000000057e+02 4.141889632652252828e+01
1.388000000000000114e+02 4.136021399196112469e+01
1.392000000000000171e+02 4.130177891314047400e+01
1.395999999999999943e+02 4.124358933322049126e+01
1.400000000000000000e+02 4.118564351293286308e+01
1.404000000000000057e+02 4.112793973035466877e+01
1.408000000000000114e+02 4.107047628068550438e+01
1.412000000000000171e+02 4.101325147602821630e+01
1.415999999999999943e+02 4.095626364517299578e+01
1.420000000000000000e+02 4.089951113338486266e+01
1.424000000000000057e+02 4.084299230219441768e+01
1.428000000000000114e+02 4.078670552919197689e+01
1.432000000000000171e+02 4.073064920782461229e+01
1.435999999999999943e+02 4.067482174719676635e+01
1.440000000000000000e+02 4.061804014614084934e+01
1.444000000000000057e+02 4.056219578043924656e+01
1.448000000000000114e+02 4.050657869530278532e+01
1.452000000000000171e+02 4.045118733190727056e+01
1.455999999999999943e+02 4.039602014647766026e+01
1.460000000000000000e+02 4.034107561010087295e+01
1.464000000000000057e+02 4.028635220854146581e+01
1.468000000000000114e+02 4.023184844206021182e+01
1.472000000000000171e+02 4.017756282523516376e+01
1.475999999999999943e+02 4.012349388678569539e+01
1.480000000000000000e+02 4.006964016939900830e+01
1.484000000000000057e+02 4.001600022955933156e+01
1.488000000000000114e+02 3.996257263737962262e+01
1.492000000000000171e+02 3.990935597643579058e+01
1.495999999999999943e+02 3.985634884360339214e+01
1.500000000000000000e+02 3.980354984889673631e+01
