1.000000000000000000e+01 5.571597125072948984e+02
1.040000000000000036e+01 5.727544098864251509e+02
1.080000000000000071e+01 6.218394135703897518e+02
1.119999999999999929e+01 6.599068475269217515e+02
1.159999999999999964e+01 7.022137679882295060e+02
1.200000000000000000e+01 7.243143570870963686e+02
1.240000000000000036e+01 7.377488332590220352e+02
1.280000000000000071e+01 7.366468463563032856e+02
1.319999999999999929e+01 7.361018017626984147e+02
1.359999999999999964e+01 7.427204066007470828e+02
1.400000000000000000e+01 7.414653502023285228e+02
1.440000000000000036e+01 7.418783423532145207e+02
1.480000000000000071e+01 7.291990231816328105e+02
1.519999999999999929e+01 7.172646379658233400e+02
1.560000000000000142e+01 7.059997247211819058e+02
1.600000000000000000e+01 6.953396417317801479e+02
1.639999999999999858e+01 6.852285726274490116e+02
1.680000000000000071e+01 6.756179776919809683e+02
1.719999999999999929e+01 6.664653749811618582e+02
1.760000000000000142e+01 6.577333692617755787e+02
1.800000000000000000e+01 6.493888699157353130e+02
1.839999999999999858e+01 6.414024548339264129e+02
1.880000000000000071e+01 6.337478484376590586e+02
1.920000000000000284e+01 6.264014898782252203e+02
1.960000000000000142e+01 6.193421731871653719e+02
2.000000000000000000e+01 6.125507453467339474e+02
2.039999999999999858e+01 6.060098513681214172e+02
2.080000000000000071e+01 5.997037178089916551e+02
2.120000000000000284e+01 5.936179679431606928e+02
2.160000000000000142e+01 5.877394631624393924e+02
2.200000000000000000e+01 5.820561662497735824e+02
2.239999999999999858e+01 5.765570229903216841e+02
2.280000000000000071e+01 5.712318592388240859e+02
2.320000000000000284e+01 5.660712910787290184e+02
2.360000000000000142e+01 5.610666461217049346e+02
2.400000000000000000e+01 5.562098943284413508e+02
2.439999999999999858e+01 5.514935870005067500e+02
2.480000000000000071e+01 5.469108028118517950e+02
2.520000000000000284e+01 5.424550999276007133e+02
2.560000000000000142e+01 5.381204734050531897e+02
2.600000000000000000e+01 5.339013171935529272e+02
2.640000000000000213e+01 5.297923901509592497e+02
2.680000000000000071e+01 5.257887855787635090e+02
2.719999999999999929e+01 5.218859038485030624e+02
2.760000000000000142e+01 5.180794277514901296e+02
2.800000000000000000e+01 5.143653002539883801e+02
2.840000000000000213e+01 5.107397043824183243e+02
2.880000000000000071e+01 5.071990449992555341e+02
2.920000000000000284e+01 5.037399322610645527e+02
2.960000000000000142e+01 5.003591665764375875e+02
3.000000000000000000e+01 4.970537249042055805e+02
3.040000000000000213e+01 4.938207482517387916e+02
3.080000000000000071e+01 4.906575302499386453e+02
3.120000000000000284e+01 4.875615066960504009e+02
3.160000000000000142e+01 4.845302459680339098e+02
3.200000000000000000e+01 4.815614402251910633e+02
3.240000000000000568e+01 4.786528973193142633e+02
3.279999999999999716e+01 4.758025333489731565e+02
3.320000000000000284e+01 4.730083657968764328e+02
3.360000000000000142e+01 4.702685071966782857e+02
3.400000000000000000e+01 4.675811592812375466e+02
3.440000000000000568e+01 4.649446075693386433e+02
3.479999999999999716e+01 4.623572163522677556e+02
3.520000000000000284e+01 4.598174240455417134e+02
3.560000000000000142e+01 4.573237388745372414e+02
3.600000000000000000e+01 4.548747348658310443e+02
3.640000000000000568e+01 4.524690481187934097e+02
3.679999999999999716e+01 4.501053733344049874e+02
3.720000000000000284e+01 4.477824605804373732e+02
3.760000000000000142e+01 4.454991122740783567e+02
3.800000000000000000e+01 4.432541803648165342e+02
3.840000000000000568e+01 4.410465637019610767e+02
3.879999999999999716e+01 4.388752055725667560e+02
3.920000000000000284e+01 4.367390913967938673e+02
3.960000000000000142e+01 4.346372465688664306e+02
4.000000000000000000e+01 4.325687344328086397e+02
4.040000000000000568e+01 4.305326543830667561e+02
4.079999999999999716e+01 4.285281400809534489e+02
4.120000000000000284e+01 4.265543577786060041e+02
4.160000000000000142e+01 4.246105047428369517e+02
4.200000000000000000e+01 4.226958077718717277e+02
4.239999999999999858e+01 4.208095217985323302e+02
4.280000000000000426e+01 4.189509285739435427e+02
4.320000000000000284e+01 4.171193354262937874e+02
4.360000000000000142e+01 4.153140740896210445e+02
4.400000000000000000e+01 4.135344995979714895e+02
4.439999999999999858e+01 4.117799892406367235e+02
4.480000000000000426e+01 4.100499415745023271e+02
4.520000000000000284e+01 4.083437754898302501e+02
4.560000000000000142e+01 4.066609293260740969e+02
4.600000000000000000e+01 4.050008600345724972e+02
4.639999999999999858e+01 4.033630423851959677e+02
4.680000000000000426e+01 4.017469682142298097e+02
4.720000000000000284e+01 4.001521457109708990e+02
4.760000000000000142e+01 3.985780987406917575e+02
4.800000000000000000e+01 3.970243662017890642e+02
4.840000000000000568e+01 3.954905014150851912e+02
4.880000000000000426e+01 3.939760715433876612e+02
4.920000000000000284e+01 3.924806570395426775e+02
4.960000000000000142e+01 3.910038511213347761e+02
5.000000000000000000e+01 3.895452592716943059e+02
5.040000000000000568e+01 3.881044987627780642e+02
5.080000000000000426e+01 3.866811982025777752e+02
5.120000000000000284e+01 3.852749971028018763e+02
5.160000000000000142e+01 3.838855454668544667e+02
5.200000000000000000e+01 3.825125033968107573e+02
5.240000000000000568e+01 3.811555407183566331e+02
5.280000000000000426e+01 3.798143366227253068e+02
5.320000000000000284e+01 3.784885793247244123e+02
5.360000000000000142e+01 3.771779657360001465e+02
5.400000000000000000e+01 3.758822011527402083e+02
5.440000000000000568e+01 3.746009989570620746e+02
5.480000000000000426e+01 3.733340803313820970e+02
5.520000000000000284e+01 3.720811739850980189e+02
5.560000000000000142e+01 3.708420158929611716e+02
5.600000000000000000e+01 3.696163490445492243e+02
5.640000000000000568e+01 3.684039232042828758e+02
5.680000000000000426e+01 3.672044946814654622e+02
5.720000000000000284e+01 3.660178261098504890e+02
5.760000000000000142e+01 3.648436862362730153e+02
5.800000000000000000e+01 3.636818497179049245e+02
5.840000000000000568e+01 3.625320969277194081e+02
5.880000000000000426e+01 3.613942137677732376e+02
5.920000000000000284e+01 3.602679914899365485e+02
5.960000000000000142e+01 3.591532265237185015e+02
6.000000000000000000e+01 3.580497203108606072e+02
6.040000000000000568e+01 3.569572791463805288e+02
6.080000000000000426e+01 3.558757140257736751e+02
6.120000000000000284e+01 3.548048404980869464e+02
6.160000000000000142e+01 3.537444785246032097e+02
6.200000000000000000e+01 3.526944523428803677e+02
6.240000000000000568e+01 3.516545903359069598e+02
6.280000000000000426e+01 3.506247249061481170e+02
6.320000000000000284e+01 3.496046923542648983e+02
6.360000000000000142e+01 3.485943327623030541e+02
6.400000000000000000e+01 3.475934898811581775e+02
6.440000000000000568e+01 3.466020110221303412e+02
6.480000000000001137e+01 3.456197469523949053e+02
6.520000000000000284e+01 3.446465517942216934e+02
6.559999999999999432e+01 3.436822829277845130e+02
6.600000000000000000e+01 3.427268008974099303e+02
6.640000000000000568e+01 3.417799693211215981e+02
6.680000000000001137e+01 3.408416548033441131e+02
6.720000000000000284e+01 3.399117268506349774e+02
6.759999999999999432e+01 3.389900577903230214e+02
6.800000000000000000e+01 3.380765226919317001e+02
6.840000000000000568e+01 3.371709992912787470e+02
6.880000000000001137e+01 3.362733679171411154e+02
6.920000000000000284e+01 3.353835114203851617e+02
6.959999999999999432e+01 3.345013151054633909e+02
7.000000000000000000e+01 3.336266666641850520e+02
7.040000000000000568e+01 3.327594561116706018e+02
7.080000000000001137e+01 3.318995757244063611e+02
7.120000000000000284e+01 3.310469199803170568e+02
7.159999999999999432e+01 3.302013855007791108e+02
7.200000000000000000e+01 3.293628709945004402e+02
7.240000000000000568e+01 3.285312772031965665e+02
7.280000000000001137e+01 3.277065068489934561e+02
7.320000000000000284e+01 3.268884645834943399e+02
7.359999999999999432e+01 3.260770569384470150e+02
7.400000000000000000e+01 3.252721922779527404e+02
7.440000000000000568e+01 3.244737807521603372e+02
7.479999999999999716e+01 3.236817342523901857e+02
7.520000000000000284e+01 3.228959663676360492e+02
7.560000000000000853e+01 3.221163923423962387e+02
7.600000000000000000e+01 3.213429290357839250e+02
7.640000000000000568e+01 3.205754948818723733e+02
7.679999999999999716e+01 3.198140098512312761e+02
7.720000000000000284e+01 3.190583954136102420e+02
7.760000000000000853e+01 3.183085745017315276e+02
7.800000000000000000e+01 3.175644714761497767e+02
7.840000000000000568e+01 3.168260120911461968e+02
7.879999999999999716e+01 3.160931234616162442e+02
7.920000000000000284e+01 3.153657340309205210e+02
7.960000000000000853e+01 3.146437735396639255e+02
8.000000000000000000e+01 3.139271729953716772e+02
8.040000000000000568e+01 3.132158646430323756e+02
8.079999999999999716e+01 3.125097819364777934e+02
8.120000000000000284e+01 3.118088595105728018e+02
8.160000000000000853e+01 3.111130331541868941e+02
8.200000000000000000e+01 3.104222397839221230e+02
8.240000000000000568e+01 3.097364174185725005e+02
8.279999999999999716e+01 3.090555051542907563e+02
8.320000000000000284e+01 3.083794431404389798e+02
8.360000000000000853e+01 3.077081725561011467e+02
8.400000000000000000e+01 3.070416355872364420e+02
8.440000000000000568e+01 3.063797754044521184e+02
8.479999999999999716e+01 3.057225361413767359e+02
8.520000000000000284e+01 3.050698628736135447e+02
8.560000000000000853e+01 3.044217015982574139e+02
8.600000000000000000e+01 3.037779992139552974e+02
8.640000000000000568e+01 3.031387035014953995e+02
8.680000000000001137e+01 3.025037631049063975e+02
8.720000000000000284e+01 3.018731275130530207e+02
8.760000000000000853e+01 3.012467470417102504e+02
8.800000000000000000e+01 3.006245728161040347e+02
8.840000000000000568e+01 3.000065567539016911e+02
8.880000000000001137e+01 2.993926515486400604e+02
8.920000000000000284e+01 2.987828106535776556e+02
8.960000000000000853e+01 2.981769882659569930e+02
9.000000000000000000e+01 2.975751393116670442e+02
9.040000000000000568e+01 2.969772194302909156e+02
9.080000000000001137e+01 2.963831849605298316e+02
9.120000000000000284e+01 2.957929929259910296e+02
9.160000000000000853e+01 2.952066010213287655e+02
9.200000000000000000e+01 2.946239675987284841e+02
9.240000000000000568e+01 2.940450516547243183e+02
9.280000000000001137e+01 2.934698128173390614e+02
9.320000000000000284e+01 2.928982113335389386e+02
9.360000000000000853e+01 2.923302080569927739e+02
9.400000000000000000e+01 2.917657644361274265e+02
9.440000000000000568e+01 2.912048425024706830e+02
9.480000000000001137e+01 2.906474048592741610e+02
9.520000000000000284e+01 2.900934146704071281e+02
9.560000000000000853e+01 2.895428356495145295e+02
9.600000000000000000e+01 2.889956320494318334e+02
9.640000000000000568e+01 2.884517686518485107e+02
9.680000000000001137e+01 2.879112107572145760e+02
9.720000000000000284e+01 2.873739241748824043e+02
9.760000000000000853e+01 2.868398752134779670e+02
9.800000000000000000e+01 2.863090306714946678e+02
9.840000000000000568e+01 2.857813578281043760e+02
9.880000000000001137e+01 2.852568244341788954e+02
9.920000000000000284e+01 2.847353987035171485e+02
9.960000000000000853e+01 2.842170493042713133e+02
1.000000000000000000e+02 2.837017453505678759e+02
1.004000000000000057e+02 2.831894563943173466e+02
1.008000000000000114e+02 2.826801524172082054e+02
1.012000000000000028e+02 2.821738038228798473e+02
1.016000000000000085e+02 2.816703814292699803e+02
1.020000000000000000e+02 2.811698564611319284e+02
1.024000000000000057e+02 2.806722005427171780e+02
1.028000000000000114e+02 2.801773856906188485e+02
1.032000000000000028e+02 2.796853843067727894e+02
1.036000000000000085e+02 2.791961691716100518e+02
1.040000000000000000e+02 2.787097134373594827e+02
1.044000000000000057e+02 2.782259906214949865e+02
1.048000000000000114e+02 2.777449746003238147e+02
1.052000000000000028e+02 2.772666396027126439e+02
1.056000000000000085e+02 2.767909602039485435e+02
1.060000000000000000e+02 2.763179113197295464e+02
1.064000000000000057e+02 2.758474682002840837e+02
1.068000000000000114e+02 2.753796064246136552e+02
1.072000000000000028e+02 2.749143018948576014e+02
1.076000000000000085e+02 2.744515308307752548e+02
1.080000000000000000e+02 2.739912697643443380e+02
1.084000000000000057e+02 2.735334955344706032e+02
1.088000000000000114e+02 2.730781852818084303e+02
1.092000000000000028e+02 2.726253164436876659e+02
1.096000000000000085e+02 2.721748667491444849e+02
1.100000000000000000e+02 2.717268142140553095e+02
1.104000000000000057e+02 2.712811371363688977e+02
1.108000000000000114e+02 2.708378140914358028e+02
1.112000000000000028e+02 2.703968239274329335e+02
1.116000000000000085e+02 2.699581457608796882e+02
1.120000000000000000e+02 2.695217589722449816e+02
1.124000000000000057e+02 2.690876432016416970e+02
1.128000000000000114e+02 2.686557783446075973e+02
1.132000000000000028e+02 2.682261445479699091e+02
1.136000000000000085e+02 2.677987222057916483e+02
1.140000000000000000e+02 2.673734919553985492e+02
1.144000000000000057e+02 2.669504346734833575e+02
1.148000000000000114e+02 2.665295314722873172e+02
1.152000000000000028e+02 2.661107636958555531e+02
1.156000000000000085e+02 2.656941129163656115e+02
1.160000000000000000e+02 2.652795609305271682e+02
1.164000000000000057e+02 2.648670897560512003e+02
1.168000000000000114e+02 2.644566816281873116e+02
1.172000000000000028e+02 2.640483189963268842e+02
1.176000000000000085e+02 2.636419845206721675e+02
1.180000000000000000e+02 2.632376610689676113e+02
1.184000000000000057e+02 2.628353317132944653e+02
1.188000000000000114e+02 2.624349797269246096e+02
1.192000000000000028e+02 2.620365885812349802e+02
1.196000000000000085e+02 2.616401419426789516e+02
1.200000000000000000e+02 2.612456236698150178e+02
1.204000000000000057e+02 2.608530178103906110e+02
1.208000000000000114e+02 2.604623085984799218e+02
1.212000000000000028e+02 2.600734804516752092e+02
1.216000000000000085e+02 2.596865179683293263e+02
1.220000000000000000e+02 2.593014059248498029e+02
1.224000000000000057e+02 2.589181292730413588e+02
1.228000000000000114e+02 2.585366731374982692e+02
1.232000000000000028e+02 2.581570228130429996e+02
1.236000000000000085e+02 2.577791637622119651e+02
1.240000000000000000e+02 2.574030816127872185e+02
1.244000000000000057e+02 2.570287621553710551e+02
1.248000000000000114e+02 2.566561913410059219e+02
1.252000000000000028e+02 2.562853552788358229e+02
1.256000000000000085e+02 2.559162402338098730e+02
1.260000000000000000e+02 2.555488326244266659e+02
1.264000000000000057e+02 2.551831190205184612e+02
1.268000000000000114e+02 2.548190861410745356e+02
1.272000000000000028e+02 2.544567208521034161e+02
1.276000000000000085e+02 2.540960101645314069e+02
1.280000000000000000e+02 2.537369412321392588e+02
1.284000000000000057e+02 2.533795013495337685e+02
1.288000000000000114e+02 2.530236779501553315e+02
1.291999999999999886e+02 2.526694586043195159e+02
1.296000000000000227e+02 2.523168310172926567e+02
1.300000000000000000e+02 2.519657830274009598e+02
1.304000000000000057e+02 2.516163026041709259e+02
1.308000000000000114e+02 2.512683778465030286e+02
1.311999999999999886e+02 2.509219969808755195e+02
1.316000000000000227e+02 2.505771483595789846e+02
1.320000000000000000e+02 2.502338204589810005e+02
1.324000000000000057e+02 2.498920018778200358e+02
1.328000000000000114e+02 2.495516813355278032e+02
1.331999999999999886e+02 2.492128476705802598e+02
1.336000000000000227e+02 2.488754898388756374e+02
1.340000000000000000e+02 2.485395969121401549e+02
1.344000000000000057e+02 2.482051580763595666e+02
1.348000000000000114e+02 2.478721626302370851e+02
1.351999999999999886e+02 2.475405999836769411e+02
1.356000000000000227e+02 2.472104596562925849e+02
1.360000000000000000e+02 2.468817312759394156e+02
1.364000000000000057e+02 2.465544045772718675e+02
1.368000000000000114e+02 2.462284694003236609e+02
1.371999999999999886e+02 2.459039156891114999e+02
1.376000000000000227e+02 2.455807334902608545e+02
1.380000000000000000e+02 2.452589129516550202e+02
1.384000000000000057e+02 2.449384443211046687e+02
1.388000000000000114e+02 2.446193179450397679e+02
1.392000000000000171e+02 2.443015242672222485e+02
1.395999999999999943e+02 2.439850538274788505e+02
1.400000000000000000e+02 2.436698972604545759e+02
1.404000000000000057e+02 2.433560452943858650e+02
1.408000000000000114e+02 2.430434887498933563e+02
1.412000000000000171e+02 2.427322185387930915e+02
1.415999999999999943e+02 2.424222256629273318e+02
1.420000000000000000e+02 2.421135012130129667e+02
1.424000000000000057e+02 2.418060363675085398e+02
1.428000000000000114e+02 2.414998223914985829e+02
1.432000000000000171e+02 2.411948506355952873e+02
1.435999999999999943e+02 2.408911125348578253e+02
1.440000000000000000e+02 2.405885996077274456e+02
1.444000000000000057e+02 2.402873034549797353e+02
1.448000000000000114e+02 2.399872157586930257e+02
1.452000000000000171e+02 2.396883282812318896e+02
1.455999999999999943e+02 2.393906328642471522e+02
1.460000000000000000e+02 2.390941214276902542e+02
1.464000000000000057e+02 2.387987859688435321e+02
1.468000000000000114e+02 2.385046185613644525e+02
1.472000000000000171e+02 2.382116113543445408e+02
1.475999999999999943e+02 2.379197565713827771e+02
1.480000000000000000e+02 2.376290465096726052e+02
1.484000000000000057e+02 2.373394735391026700e+02
1.488000000000000114e+02 2.370510301013712251e+02
1.492000000000000171e+02 2.367637087091135584e+02
1.495999999999999943e+02 2.364775019450424338e+02
1.500000000000000000e+02 2.361924024611014374e+02
