1.000000000000000000e+01 2.487601044233282437e+02
1.040000000000000036e+01 2.536996319737986028e+02
1.080000000000000071e+01 2.709528460752081855e+02
1.119999999999999929e+01 2.708804506271261516e+02
1.159999999999999964e+01 2.717841398557393973e+02
1.200000000000000000e+01 2.736270224978511578e+02
1.240000000000000036e+01 2.763578814631421778e+02
1.280000000000000071e+01 2.807085446271047999e+02
1.319999999999999929e+01 2.889587239034581785e+02
1.359999999999999964e+01 2.969608387678437111e+02
1.400000000000000000e+01 3.041377397548333192e+02
1.440000000000000036e+01 2.987779244485103050e+02
1.480000000000000071e+01 2.937487482075118805e+02
1.519999999999999929e+01 2.890145354924140406e+02
1.560000000000000142e+01 2.845450959338763823e+02
1.600000000000000000e+01 2.803146393675662580e+02
1.639999999999999858e+01 2.763009502785649261e+02
1.680000000000000071e+01 2.724847497478899641e+02
1.719999999999999929e+01 2.688491954327813573e+02
1.760000000000000142e+01 2.653794848358043623e+02
1.800000000000000000e+01 2.620625370024414451e+02
1.839999999999999858e+01 2.588867345605250421e+02
1.880000000000000071e+01 2.558417127433548899e+02
1.920000000000000284e+01 2.529181853949101537e+02
1.960000000000000142e+01 2.501078003748495462e+02
2.000000000000000000e+01 2.474030185491686211e+02
2.039999999999999858e+01 2.447970118612896044e+02
2.080000000000000071e+01 2.422835769587381947e+02
2.120000000000000284e+01 2.398570615928804273e+02
2.160000000000000142e+01 2.375123015769302128e+02
2.200000000000000000e+01 2.352445665257186533e+02
2.239999999999999858e+01 2.330495129420132798e+02
2.280000000000000071e+01 2.309231434821024607e+02
2.320000000000000284e+01 2.288617714452992686e+02
2.360000000000000142e+01 2.268619897008527744e+02
2.400000000000000000e+01 2.249206434011617830e+02
2.439999999999999858e+01 2.230348059394559073e+02
2.480000000000000071e+01 2.212017576988201881e+02
2.520000000000000284e+01 2.194189672118549197e+02
2.560000000000000142e+01 2.176840744096938920e+02
2.600000000000000000e+01 2.159948756881234999e+02
2.640000000000000213e+01 2.143493105591644223e+02
2.680000000000000071e+01 2.127454496902954872e+02
2.719999999999999929e+01 2.111814841617688501e+02
2.760000000000000142e+01 2.096557157961981659e+02
2.800000000000000000e+01 2.081665484346004860e+02
2.840000000000000213e+01 2.067124800499894945e+02
2.880000000000000071e+01 2.052920956039782254e+02
2.920000000000000284e+01 2.039040605640790886e+02
2.960000000000000142e+01 2.025471150098440489e+02
3.000000000000000000e+01 2.012200682649437624e+02
3.040000000000000213e+01 1.999217939999897453e+02
3.080000000000000071e+01 1.986512257575459728e+02
3.120000000000000284e+01 1.974073528565169795e+02
3.160000000000000142e+01 1.961892166380801257e+02
3.200000000000000000e+01 1.949959070196555615e+02
3.240000000000000568e+01 1.938265593271786429e+02
3.279999999999999716e+01 1.926803513792309559e+02
3.320000000000000284e+01 1.915565007994691484e+02
3.360000000000000142e+01 1.904542625363199875e+02
3.400000000000000000e+01 1.893729265711315293e+02
3.440000000000000568e+01 1.883118157979304783e+02
3.479999999999999716e+01 1.872702840596635951e+02
3.520000000000000284e+01 1.862477143273312663e+02
3.560000000000000142e+01 1.852435170097745640e+02
3.600000000000000000e+01 1.842571283830823461e+02
3.640000000000000568e+01 1.832880091296524938e+02
3.679999999999999716e+01 1.823356429778958443e+02
3.720000000000000284e+01 1.813995354344201019e+02
3.760000000000000142e+01 1.804792126012933124e+02
3.800000000000000000e+01 1.795742200716628645e+02
3.840000000000000568e+01 1.786841218976202867e+02
3.879999999999999716e+01 1.778084996247453091e+02
3.920000000000000284e+01 1.769469513882577303e+02
3.960000000000000142e+01 1.760990910661476505e+02
4.000000000000000000e+01 1.752645474850536971e+02
4.040000000000000568e+01 1.744429636750202803e+02
4.079999999999999716e+01 1.736339961695908585e+02
4.120000000000000284e+01 1.728373143479883254e+02
4.160000000000000142e+01 1.720525998164022781e+02
4.200000000000000000e+01 1.712795458256438224e+02
4.239999999999999858e+01 1.705178567226512314e+02
4.280000000000000426e+01 1.697672474335267054e+02
4.320000000000000284e+01 1.690274429759709562e+02
4.360000000000000142e+01 1.682981779991436042e+02
4.400000000000000000e+01 1.675791963491346621e+02
4.439999999999999858e+01 1.668702506583651370e+02
4.480000000000000426e+01 1.661711019573654369e+02
4.520000000000000284e+01 1.654815193074943807e+02
4.560000000000000142e+01 1.648012794532671137e+02
4.600000000000000000e+01 1.641301664930593347e+02
4.639999999999999858e+01 1.634679715670421558e+02
4.680000000000000426e+01 1.628144925612859026e+02
4.720000000000000284e+01 1.621695338270449724e+02
4.760000000000000142e+01 1.615329059143061272e+02
4.800000000000000000e+01 1.609044253187455524e+02
4.840000000000000568e+01 1.602839142413000388e+02
4.880000000000000426e+01 1.596712003596105376e+02
4.920000000000000284e+01 1.590661166106471001e+02
4.960000000000000142e+01 1.584685009838706833e+02
5.000000000000000000e+01 1.578781963243290534e+02
5.040000000000000568e+01 1.572950501451254866e+02
5.080000000000000426e+01 1.567189144487328463e+02
5.120000000000000284e+01 1.561496455566621080e+02
5.160000000000000142e+01 1.555871039470247297e+02
5.200000000000000000e+01 1.550311540995569715e+02
5.240000000000000568e+01 1.544816643477025195e+02
5.280000000000000426e+01 1.539385067373742686e+02
5.320000000000000284e+01 1.534015568920393093e+02
5.360000000000000142e+01 1.528706938837936491e+02
5.400000000000000000e+01 1.523458001101131458e+02
5.440000000000000568e+01 1.518267611759850411e+02
5.480000000000000426e+01 1.513134657811447710e+02
5.520000000000000284e+01 1.508058056121554387e+02
5.560000000000000142e+01 1.503036752390857202e+02
5.600000000000000000e+01 1.498069720165549938e+02
5.640000000000000568e+01 1.493155959889277256e+02
5.680000000000000426e+01 1.488294497994519929e+02
5.720000000000000284e+01 1.483484386031486224e+02
5.760000000000000142e+01 1.478724699832683314e+02
5.800000000000000000e+01 1.474014538711443265e+02
5.840000000000000568e+01 1.469353024692778718e+02
5.880000000000000426e+01 1.464739301775026661e+02
5.920000000000000284e+01 1.460172535220826546e+02
5.960000000000000142e+01 1.455651910876063084e+02
6.000000000000000000e+01 1.451176634515461217e+02
6.040000000000000568e+01 1.446745931213617666e+02
6.080000000000000426e+01 1.442359044740287288e+02
6.120000000000000284e+01 1.438015236978833400e+02
6.160000000000000142e+01 1.433713787366786789e+02
6.200000000000000000e+01 1.429453992357524044e+02
6.240000000000000568e+01 1.425235164902126712e+02
6.280000000000000426e+01 1.421056633950525452e+02
6.320000000000000284e+01 1.416917743971083610e+02
6.360000000000000142e+01 1.412817854487815339e+02
6.400000000000000000e+01 1.408756339634474841e+02
6.440000000000000568e+01 1.404732587724791131e+02
6.480000000000001137e+01 1.400746000838157386e+02
6.520000000000000284e+01 1.396795994420119484e+02
6.559999999999999432e+01 1.392881996897039585e+02
6.600000000000000000e+01 1.389003449304343576e+02
6.640000000000000568e+01 1.385159804927781124e+02
6.680000000000001137e+01 1.381350528957169104e+02
6.720000000000000284e+01 1.377575098152097439e+02
6.759999999999999432e+01 1.373833000519115330e+02
6.800000000000000000e+01 1.370123734999929752e+02
6.840000000000000568e+01 1.366446811170175692e+02
6.880000000000001137e+01 1.362801748948327258e+02
6.920000000000000284e+01 1.359188078314358563e+02
6.959999999999999432e+01 1.355605339037758199e+02
7.000000000000000000e+01 1.352053080414536907e+02
7.040000000000000568e+01 1.348530861012873743e+02
7.080000000000001137e+01 1.345038248427066492e+02
7.120000000000000284e+01 1.341574819039468878e+02
7.159999999999999432e+01 1.338140157790103615e+02
7.200000000000000000e+01 1.334733857953663403e+02
7.240000000000000568e+01 1.331355520923619906e+02
7.280000000000001137e+01 1.328004756003168154e+02
7.320000000000000284e+01 1.324681180202757389e+02
7.359999999999999432e+01 1.321384418043960807e+02
7.400000000000000000e+01 1.318114101369446871e+02
7.440000000000000568e+01 1.314869869158833922e+02
7.479999999999999716e+01 1.311651367350207522e+02
7.520000000000000284e+01 1.308458248667098474e+02
7.560000000000000853e+01 1.305290172450721684e+02
7.600000000000000000e+01 1.302146804497289736e+02
7.640000000000000568e+01 1.299027816900218681e+02
7.679999999999999716e+01 1.295932887897049568e+02
7.720000000000000284e+01 1.292861701720922838e+02
7.760000000000000853e+01 1.289813948456447577e+02
7.800000000000000000e+01 1.286789323899804458e+02
7.840000000000000568e+01 1.283787529422942555e+02
7.879999999999999716e+01 1.280808271841727048e+02
7.920000000000000284e+01 1.277851263287897439e+02
7.960000000000000853e+01 1.274916221084714039e+02
8.000000000000000000e+01 1.272002867626161020e+02
8.040000000000000568e+01 1.269110930259587917e+02
8.079999999999999716e+01 1.266240141171673486e+02
8.120000000000000284e+01 1.263390237277603774e+02
8.160000000000000853e+01 1.260560960113352706e+02
8.200000000000000000e+01 1.257752055730965424e+02
8.240000000000000568e+01 1.254963274596744611e+02
8.279999999999999716e+01 1.252194371492246319e+02
8.320000000000000284e+01 1.249445105417991755e+02
8.360000000000000853e+01 1.246715239499807097e+02
8.400000000000000000e+01 1.244004540897708040e+02
8.440000000000000568e+01 1.241312780717246937e+02
8.479999999999999716e+01 1.238639733923241977e+02
8.520000000000000284e+01 1.235985179255816320e+02
8.560000000000000853e+01 1.233348899148671194e+02
8.600000000000000000e+01 1.230730679649524291e+02
8.640000000000000568e+01 1.228130310342642986e+02
8.680000000000001137e+01 1.225547584273413690e+02
8.720000000000000284e+01 1.222982297874875712e+02
8.760000000000000853e+01 1.220434250896164627e+02
8.800000000000000000e+01 1.217903246332805480e+02
8.840000000000000568e+01 1.215389090358799962e+02
8.880000000000001137e+01 1.212891592260448590e+02
8.920000000000000284e+01 1.210410564371864552e+02
8.960000000000000853e+01 1.207945822012114832e+02
9.000000000000000000e+01 1.205497183423956926e+02
9.040000000000000568e+01 1.203064469714105797e+02
9.080000000000001137e+01 1.200647504795000486e+02
9.120000000000000284e+01 1.198246115328016117e+02
9.160000000000000853e+01 1.195860130668083059e+02
9.200000000000000000e+01 1.193489382809673600e+02
9.240000000000000568e+01 1.191133706334110798e+02
9.280000000000001137e+01 1.188792938358167817e+02
9.320000000000000284e+01 1.186466918483914554e+02
9.360000000000000853e+01 1.184155488749779579e+02
9.400000000000000000e+01 1.181858493582792420e+02
9.440000000000000568e+01 1.179575779751968838e+02
9.480000000000001137e+01 1.177307196322812359e+02
9.520000000000000284e+01 1.175052594612895689e+02
9.560000000000000853e+01 1.172811828148494016e+02
9.600000000000000000e+01 1.170584752622241922e+02
9.640000000000000568e+01 1.168371225851779798e+02
9.680000000000001137e+01 1.166171107739372275e+02
9.720000000000000284e+01 1.163984260232460315e+02
9.760000000000000853e+01 1.161810547285130895e+02
9.800000000000000000e+01 1.159649834820471312e+02
9.840000000000000568e+01 1.157501990693792777e+02
9.880000000000001137e+01 1.155366884656690729e+02
9.920000000000000284e+01 1.153244388321924987e+02
9.960000000000000853e+01 1.151134375129094991e+02
1.000000000000000000e+02 1.149036720311092665e+02
1.004000000000000057e+02 1.146951300861304617e+02
1.008000000000000114e+02 1.144877995501554437e+02
1.012000000000000028e+02 1.142816684650752990e+02
1.016000000000000085e+02 1.140767250394250283e+02
1.020000000000000000e+02 1.138729576453862649e+02
1.024000000000000057e+02 1.136703548158558021e+02
1.028000000000000114e+02 1.134689052415787671e+02
1.032000000000000028e+02 1.132685977683441365e+02
1.036000000000000085e+02 1.130694213942411892e+02
1.040000000000000000e+02 1.128713652669756584e+02
1.044000000000000057e+02 1.126744186812435942e+02
1.048000000000000114e+02 1.124785710761615576e+02
1.052000000000000028e+02 1.122838120327521665e+02
1.056000000000000085e+02 1.120901312714827327e+02
1.060000000000000000e+02 1.118975186498566075e+02
1.064000000000000057e+02 1.117059641600552595e+02
1.068000000000000114e+02 1.115154579266298924e+02
1.072000000000000028e+02 1.113259902042418616e+02
1.076000000000000085e+02 1.111375513754499309e+02
1.080000000000000000e+02 1.109501319485437989e+02
1.084000000000000057e+02 1.107637225554224187e+02
1.088000000000000114e+02 1.105783139495164988e+02
1.092000000000000028e+02 1.103938970037531817e+02
1.096000000000000085e+02 1.102104627085628863e+02
1.100000000000000000e+02 1.100280021699267934e+02
1.104000000000000057e+02 1.098465066074637662e+02
1.108000000000000114e+02 1.096659673525564642e+02
1.112000000000000028e+02 1.094863758465149886e+02
1.116000000000000085e+02 1.093077236387775173e+02
1.120000000000000000e+02 1.091300023851470797e+02
1.124000000000000057e+02 1.089532038460635590e+02
1.128000000000000114e+02 1.087773198849098293e+02
1.132000000000000028e+02 1.086023424663517574e+02
1.136000000000000085e+02 1.084282636547107472e+02
1.140000000000000000e+02 1.082550756123685289e+02
1.144000000000000057e+02 1.080827705982029556e+02
1.148000000000000114e+02 1.079113409660545244e+02
1.152000000000000028e+02 1.077407791632226548e+02
1.156000000000000085e+02 1.075710777289912130e+02
1.160000000000000000e+02 1.074022292931823586e+02
1.164000000000000057e+02 1.072342265747383863e+02
1.168000000000000114e+02 1.070670623803306256e+02
1.172000000000000028e+02 1.069007296029950851e+02
1.176000000000000085e+02 1.067352212207939317e+02
1.180000000000000000e+02 1.065705302955024649e+02
1.184000000000000057e+02 1.064066499713207747e+02
1.188000000000000114e+02 1.062435734736098993e+02
1.192000000000000028e+02 1.060812941076516438e+02
1.196000000000000085e+02 1.059198052574312499e+02
1.200000000000000000e+02 1.057591003844433430e+02
1.204000000000000057e+02 1.055991730265197930e+02
1.208000000000000114e+02 1.054400167966790463e+02
1.212000000000000028e+02 1.052816253819971024e+02
1.216000000000000085e+02 1.051239925424990247e+02
1.220000000000000000e+02 1.049671121100707296e+02
1.224000000000000057e+02 1.048109779873907428e+02
1.228000000000000114e+02 1.046555841468816368e+02
1.232000000000000028e+02 1.045009246296797301e+02
1.236000000000000085e+02 1.043469935446243966e+02
1.240000000000000000e+02 1.041937850672648551e+02
1.244000000000000057e+02 1.040412934388851482e+02
1.248000000000000114e+02 1.038895129655463734e+02
1.252000000000000028e+02 1.037384380171462368e+02
1.256000000000000085e+02 1.035880630264951208e+02
1.260000000000000000e+02 1.034383824884085499e+02
1.264000000000000057e+02 1.032893909588157442e+02
1.268000000000000114e+02 1.031410830538839605e+02
1.272000000000000028e+02 1.029934534491579825e+02
1.276000000000000085e+02 1.028464968787147598e+02
1.280000000000000000e+02 1.027002081343328967e+02
1.284000000000000057e+02 1.025545820646763673e+02
1.288000000000000114e+02 1.024096135744924680e+02
1.291999999999999886e+02 1.022652976238237983e+02
1.296000000000000227e+02 1.021216292272332993e+02
1.300000000000000000e+02 1.019786034530432914e+02
1.304000000000000057e+02 1.018362154225868181e+02
1.308000000000000114e+02 1.016944603094722765e+02
1.311999999999999886e+02 1.015533333388602983e+02
1.316000000000000227e+02 1.014128297867528943e+02
1.320000000000000000e+02 1.012729449792946070e+02
1.324000000000000057e+02 1.011336742920855727e+02
1.328000000000000114e+02 1.009950131495058230e+02
1.331999999999999886e+02 1.008569570240512405e+02
1.336000000000000227e+02 1.007195014356802290e+02
1.340000000000000000e+02 1.005826419511714818e+02
1.344000000000000057e+02 1.004463741834923951e+02
1.348000000000000114e+02 1.003106937911777266e+02
1.351999999999999886e+02 1.001755964777186705e+02
1.356000000000000227e+02 1.000410779909619521e+02
1.360000000000000000e+02 9.990713412251859893e+01
1.364000000000000057e+02 9.977376070718256074e+01
1.368000000000000114e+02 9.964095362235863718e+01
1.371999999999999886e+02 9.950870878749979909e+01
1.376000000000000227e+02 9.937702216355354778e+01
1.380000000000000000e+02 9.924588975241715616e+01
1.384000000000000057e+02 9.911530759640180577e+01
1.388000000000000114e+02 9.898527177770515095e+01
1.392000000000000171e+02 9.885577841789245213e+01
1.395999999999999943e+02 9.872682367738590870e+01
1.400000000000000000e+02 9.859840375496199272e+01
1.404000000000000057e+02 9.847051488725708168e+01
1.408000000000000114e+02 9.834315334828048094e+01
1.412000000000000171e+02 9.821631544893534738e+01
1.415999999999999943e+02 9.808999753654720166e+01
1.420000000000000000e+02 9.796419599439960280e+01
1.424000000000000057e+02 9.783890724127721228e+01
1.428000000000000114e+02 9.771412773101602056e+01
1.432000000000000171e+02 9.758985395206030944e+01
1.435999999999999943e+02 9.746608242702681935e+01
1.440000000000000000e+02 9.734280971227531154e+01
1.444000000000000057e+02 9.722003239748596570e+01
1.448000000000000114e+02 9.709774710524311558e+01
1.452000000000000171e+02 9.697595049062552164e+01
1.455999999999999943e+02 9.685463924080266906e+01
1.460000000000000000e+02 9.673381007463731862e+01
1.464000000000000057e+02 9.661345974229423916e+01
1.468000000000000114e+02 9.649358502485452505e+01
1.472000000000000171e+02 9.637418273393603840e+01
1.475999999999999943e+02 9.625524971131936525e+01
1.480000000000000000e+02 9.613678282857952695e+01
1.484000000000000057e+02 9.601877898672307765e+01
1.488000000000000114e+02 9.590123511583063021e+01
1.492000000000000171e+02 9.578414817470479647e+01
1.495999999999999943e+02 9.566751515052330035e+01
1.500000000000000000e+02 9.555133305849709302e+01
