1.000000000000000000e+01 2.796439173791703183e+02
1.040000000000000036e+01 2.893518882430977897e+02
1.080000000000000071e+01 3.034854448294472604e+02
1.119999999999999929e+01 3.082669915205689222e+02
1.159999999999999964e+01 3.147274588358899337e+02
1.200000000000000000e+01 3.242259874949297682e+02
1.240000000000000036e+01 3.178543113000160361e+02
1.280000000000000071e+01 3.119076739947886949e+02
1.319999999999999929e+01 3.063379760041167970e+02
1.359999999999999964e+01 3.011046869930381149e+02
1.400000000000000000e+01 2.961733398718818080e+02
1.440000000000000036e+01 2.915143829652277532e+02
1.480000000000000071e+01 2.871022922276897589e+02
1.519999999999999929e+01 2.829148755503717325e+02
1.560000000000000142e+01 2.789327211587230977e+02
1.600000000000000000e+01 2.751387555990606870e+02
1.639999999999999858e+01 2.715178861186060999e+02
1.680000000000000071e+01 2.680567087765676888e+02
1.719999999999999929e+01 2.647432682824681933e+02
1.760000000000000142e+01 2.615668589286607357e+02
1.800000000000000000e+01 2.585178584553583505e+02
1.839999999999999858e+01 2.555875885206385476e+02
1.880000000000000071e+01 2.527681968244072550e+02
1.920000000000000284e+01 2.500525569791346356e+02
1.960000000000000142e+01 2.474341830193485521e+02
2.000000000000000000e+01 2.449071560592087735e+02
2.039999999999999858e+01 2.424660610883523759e+02
2.080000000000000071e+01 2.401059322736786896e+02
2.120000000000000284e+01 2.378222054332387358e+02
2.160000000000000142e+01 2.356106765860437520e+02
2.200000000000000000e+01 2.334674656720476378e+02
2.239999999999999858e+01 2.313889846900836460e+02
2.280000000000000071e+01 2.293719096260258254e+02
2.320000000000000284e+01 2.274131556449326013e+02
2.360000000000000142e+01 2.255098551040912298e+02
2.400000000000000000e+01 2.236593380123669021e+02
2.439999999999999858e+01 2.218591146179111320e+02
2.480000000000000071e+01 2.201068598533614988e+02
2.520000000000000284e+01 2.184003994069452119e+02
2.560000000000000142e+01 2.167376972208110146e+02
2.600000000000000000e+01 2.151168442455913237e+02
2.640000000000000213e+01 2.135360483035600510e+02
2.680000000000000071e+01 2.119936249325407971e+02
2.719999999999999929e+01 2.104879890995426592e+02
2.760000000000000142e+01 2.090176476874400464e+02
2.800000000000000000e+01 2.075811926702820358e+02
2.840000000000000213e+01 2.061772949033385487e+02
2.880000000000000071e+01 2.048046984630455825e+02
2.920000000000000284e+01 2.034622154798190650e+02
2.960000000000000142e+01 2.021487214134660348e+02
3.000000000000000000e+01 2.008631507267771212e+02
3.040000000000000213e+01 1.996044929179782628e+02
3.080000000000000071e+01 1.983717888771583944e+02
3.120000000000000284e+01 1.971641275356636243e+02
3.160000000000000142e+01 1.959806427808434819e+02
3.200000000000000000e+01 1.948205106115096896e+02
3.240000000000000568e+01 1.936829465120842428e+02
3.279999999999999716e+01 1.925672030257192660e+02
3.320000000000000284e+01 1.914725675087023831e+02
3.360000000000000142e+01 1.903983600502630509e+02
3.400000000000000000e+01 1.893439315434842172e+02
3.440000000000000568e+01 1.883086618944405473e+02
3.479999999999999716e+01 1.872919583579392508e+02
3.520000000000000284e+01 1.862932539893582771e+02
3.560000000000000142e+01 1.853120062030754980e+02
3.600000000000000000e+01 1.843476954288726972e+02
3.640000000000000568e+01 1.833998238584962337e+02
3.679999999999999716e+01 1.824679142752709424e+02
3.720000000000000284e+01 1.815515089603034653e+02
3.760000000000000142e+01 1.806501686693895579e+02
3.800000000000000000e+01 1.797634716752559711e+02
3.840000000000000568e+01 1.788910128702358122e+02
3.879999999999999716e+01 1.780324029248973261e+02
3.920000000000000284e+01 1.771872674985264098e+02
3.960000000000000142e+01 1.763552464977074692e+02
4.000000000000000000e+01 1.755359933795591871e+02
4.040000000000000568e+01 1.747291744964639975e+02
4.079999999999999716e+01 1.739344684793866236e+02
4.120000000000000284e+01 1.731515656571108650e+02
4.160000000000000142e+01 1.723801675089341074e+02
4.200000000000000000e+01 1.716199861485542897e+02
4.239999999999999858e+01 1.708707438370587965e+02
4.280000000000000426e+01 1.701321725230849324e+02
4.320000000000000284e+01 1.694040134083703038e+02
4.360000000000000142e+01 1.686860165370430877e+02
4.400000000000000000e+01 1.679779404071276758e+02
4.439999999999999858e+01 1.672795516028509155e+02
4.480000000000000426e+01 1.665906244464395627e+02
4.520000000000000284e+01 1.659109406681936889e+02
4.560000000000000142e+01 1.652402890937063944e+02
4.600000000000000000e+01 1.645784653471820889e+02
4.639999999999999858e+01 1.639252715698787881e+02
4.680000000000000426e+01 1.632805161527655287e+02
4.720000000000000284e+01 1.626440134825522250e+02
4.760000000000000142e+01 1.620155837003028978e+02
4.800000000000000000e+01 1.613950524719000441e+02
4.840000000000000568e+01 1.607822507696741070e+02
4.880000000000000426e+01 1.601770146645591808e+02
4.920000000000000284e+01 1.595791851281776985e+02
4.960000000000000142e+01 1.589886078442952737e+02
5.000000000000000000e+01 1.584051330291238742e+02
5.040000000000000568e+01 1.578286152599841330e+02
5.080000000000000426e+01 1.572589133118685822e+02
5.120000000000000284e+01 1.566958900014777214e+02
5.160000000000000142e+01 1.561394120383251902e+02
5.200000000000000000e+01 1.555893498825361405e+02
5.240000000000000568e+01 1.550455776089831659e+02
5.280000000000000426e+01 1.545079727774279377e+02
5.320000000000000284e+01 1.539764163083553967e+02
5.360000000000000142e+01 1.534507923642068477e+02
5.400000000000000000e+01 1.529309882357353558e+02
5.440000000000000568e+01 1.524168942332225356e+02
5.480000000000000426e+01 1.519084035823130989e+02
5.520000000000000284e+01 1.514054123242347600e+02
5.560000000000000142e+01 1.509078192201868092e+02
5.600000000000000000e+01 1.504155256596919230e+02
5.640000000000000568e+01 1.499284355727176887e+02
5.680000000000000426e+01 1.494464553453848339e+02
5.720000000000000284e+01 1.489694937390900407e+02
5.760000000000000142e+01 1.484974618128802035e+02
5.800000000000000000e+01 1.480302728489237438e+02
5.840000000000000568e+01 1.475678422809336894e+02
5.880000000000000426e+01 1.471100876254051286e+02
5.920000000000000284e+01 1.466569284155351056e+02
5.960000000000000142e+01 1.462082861377038228e+02
6.000000000000000000e+01 1.457640841703977799e+02
6.040000000000000568e+01 1.453242477254661651e+02
6.080000000000000426e+01 1.448887037916040867e+02
6.120000000000000284e+01 1.444573810799635964e+02
6.160000000000000142e+01 1.440302099717984561e+02
6.200000000000000000e+01 1.436071224680520118e+02
6.240000000000000568e+01 1.431880521408040750e+02
6.280000000000000426e+01 1.427729340864956384e+02
6.320000000000000284e+01 1.423617048808542620e+02
6.360000000000000142e+01 1.419543025354479653e+02
6.400000000000000000e+01 1.415506664557977956e+02
6.440000000000000568e+01 1.411507374009829618e+02
6.480000000000001137e+01 1.407544574446762908e+02
6.520000000000000284e+01 1.403617699375498091e+02
6.559999999999999432e+01 1.399726194709940614e+02
6.600000000000000000e+01 1.395869518420966244e+02
6.640000000000000568e+01 1.392047140198284012e+02
6.680000000000001137e+01 1.388258541123889245e+02
6.720000000000000284e+01 1.384503213356630056e+02
6.759999999999999432e+01 1.380780659827448744e+02
6.800000000000000000e+01 1.377090393944870641e+02
6.840000000000000568e+01 1.373431939310327721e+02
6.880000000000001137e+01 1.369804829442938967e+02
6.920000000000000284e+01 1.366208607513367497e+02
6.959999999999999432e+01 1.362642826086411389e+02
7.000000000000000000e+01 1.359107046871978923e+02
7.040000000000000568e+01 1.355600840484135006e+02
7.080000000000001137e+01 1.352123786207906164e+02
7.120000000000000284e+01 1.348675471773548793e+02
7.159999999999999432e+01 1.345255493138001270e+02
7.200000000000000000e+01 1.341863454273247385e+02
7.240000000000000568e+01 1.338498966961336123e+02
7.280000000000001137e+01 1.335161650595808851e+02
7.320000000000000284e+01 1.331851131989295993e+02
7.359999999999999432e+01 1.328567045187060955e+02
7.400000000000000000e+01 1.325309031286273012e+02
7.440000000000000568e+01 1.322076738260797129e+02
7.479999999999999716e+01 1.318869820791309735e+02
7.520000000000000284e+01 1.315687940100542050e+02
7.560000000000000853e+01 1.312530763793473625e+02
7.600000000000000000e+01 1.309397965702295892e+02
7.640000000000000568e+01 1.306289225735981177e+02
7.679999999999999716e+01 1.303204229734297996e+02
7.720000000000000284e+01 1.300142669326106386e+02
7.760000000000000853e+01 1.297104241791800519e+02
7.800000000000000000e+01 1.294088649929744577e+02
7.840000000000000568e+01 1.291095601926566587e+02
7.879999999999999716e+01 1.288124811231183742e+02
7.920000000000000284e+01 1.285175996432424768e+02
7.960000000000000853e+01 1.282248881140136518e+02
8.000000000000000000e+01 1.279343193869652282e+02
8.040000000000000568e+01 1.276458667929506277e+02
8.079999999999999716e+01 1.273595041312298406e+02
8.120000000000000284e+01 1.270752056588593177e+02
8.160000000000000853e+01 1.267929460803756854e+02
8.200000000000000000e+01 1.265127005377641751e+02
8.240000000000000568e+01 1.262344446007014795e+02
8.279999999999999716e+01 1.259581542570655586e+02
8.320000000000000284e+01 1.256838059037020940e+02
8.360000000000000853e+01 1.254113763374409132e+02
8.400000000000000000e+01 1.251408427463534849e+02
8.440000000000000568e+01 1.248721827012442276e+02
8.479999999999999716e+01 1.246053741473679679e+02
8.520000000000000284e+01 1.243403953963668300e+02
8.560000000000000853e+01 1.240772251184194772e+02
8.600000000000000000e+01 1.238158423345958852e+02
8.640000000000000568e+01 1.235562264094115932e+02
8.680000000000001137e+01 1.232983570435754928e+02
8.720000000000000284e+01 1.230422142669245460e+02
8.760000000000000853e+01 1.227877784315402323e+02
8.800000000000000000e+01 1.225350302050412665e+02
8.840000000000000568e+01 1.222839505640469326e+02
8.880000000000001137e+01 1.220345207878060165e+02
8.920000000000000284e+01 1.217867224519865488e+02
8.960000000000000853e+01 1.215405374226213553e+02
9.000000000000000000e+01 1.212959478502050104e+02
9.040000000000000568e+01 1.210529361639373462e+02
9.080000000000001137e+01 1.208114850661098103e+02
9.120000000000000284e+01 1.205715775266298380e+02
9.160000000000000853e+01 1.203331967776796319e+02
9.200000000000000000e+01 1.200963263085055246e+02
9.240000000000000568e+01 1.198609498603336618e+02
9.280000000000001137e+01 1.196270514214091492e+02
9.320000000000000284e+01 1.193946152221540871e+02
9.360000000000000853e+01 1.191636257304423339e+02
9.400000000000000000e+01 1.189340676469867617e+02
9.440000000000000568e+01 1.187059259008360215e+02
9.480000000000001137e+01 1.184791856449782301e+02
9.520000000000000284e+01 1.182538322520478289e+02
9.560000000000000853e+01 1.180298513101334805e+02
9.600000000000000000e+01 1.178072286186836379e+02
9.640000000000000568e+01 1.175859501845073112e+02
9.680000000000001137e+01 1.173660022178677025e+02
9.720000000000000284e+01 1.171473711286653838e+02
9.760000000000000853e+01 1.169300435227096386e+02
9.800000000000000000e+01 1.167140061980746282e+02
9.840000000000000568e+01 1.164992461415385918e+02
9.880000000000001137e+01 1.162857505251038504e+02
9.920000000000000284e+01 1.160735067025952105e+02
9.960000000000000853e+01 1.158625022063348098e+02
1.000000000000000000e+02 1.156527247438914685e+02
1.004000000000000057e+02 1.154441621949023755e+02
1.008000000000000114e+02 1.152368026079654157e+02
1.012000000000000028e+02 1.150306341976000652e+02
1.016000000000000085e+02 1.148256453412752194e+02
1.020000000000000000e+02 1.146218245765023198e+02
1.024000000000000057e+02 1.144191605979916204e+02
1.028000000000000114e+02 1.142176422548706398e+02
1.032000000000000028e+02 1.140172585479626264e+02
1.036000000000000085e+02 1.138179986271236430e+02
1.040000000000000000e+02 1.136198517886372770e+02
1.044000000000000057e+02 1.134228074726645019e+02
1.048000000000000114e+02 1.132268552607483798e+02
1.052000000000000028e+02 1.130319848733715276e+02
1.056000000000000085e+02 1.128381861675650839e+02
1.060000000000000000e+02 1.126454491345683664e+02
1.064000000000000057e+02 1.124537638975373568e+02
1.068000000000000114e+02 1.122631207093010346e+02
1.072000000000000028e+02 1.120735099501648335e+02
1.076000000000000085e+02 1.118849221257590045e+02
1.080000000000000000e+02 1.116973478649319560e+02
1.084000000000000057e+02 1.115107779176866245e+02
1.088000000000000114e+02 1.113252031531593360e+02
1.092000000000000028e+02 1.111406145576398217e+02
1.096000000000000085e+02 1.109570032326315356e+02
1.100000000000000000e+02 1.107743603929512375e+02
1.104000000000000057e+02 1.105926773648670576e+02
1.108000000000000114e+02 1.104119455842739228e+02
1.112000000000000028e+02 1.102321565949054900e+02
1.116000000000000085e+02 1.100533020465819760e+02
1.120000000000000000e+02 1.098753736934925769e+02
1.124000000000000057e+02 1.096983633925120785e+02
1.128000000000000114e+02 1.095222631015507631e+02
1.132000000000000028e+02 1.093470648779365320e+02
1.136000000000000085e+02 1.091727608768289599e+02
1.140000000000000000e+02 1.089993433496642865e+02
1.144000000000000057e+02 1.088268046426305204e+02
1.148000000000000114e+02 1.086551371951723155e+02
1.152000000000000028e+02 1.084843335385244814e+02
1.156000000000000085e+02 1.083143862942739872e+02
1.160000000000000000e+02 1.081452881729493924e+02
1.164000000000000057e+02 1.079770319726370928e+02
1.168000000000000114e+02 1.078096105776242553e+02
1.172000000000000028e+02 1.076430169570672604e+02
1.176000000000000085e+02 1.074772441636853841e+02
1.180000000000000000e+02 1.073122853324790498e+02
1.184000000000000057e+02 1.071481336794723092e+02
1.188000000000000114e+02 1.069847825004785591e+02
1.192000000000000028e+02 1.068222251698896059e+02
1.196000000000000085e+02 1.066604551394869418e+02
1.200000000000000000e+02 1.064994659372752324e+02
1.204000000000000057e+02 1.063392511663372204e+02
1.208000000000000114e+02 1.061798045037098461e+02
1.212000000000000028e+02 1.060211196992806038e+02
1.216000000000000085e+02 1.058631905747045039e+02
1.220000000000000000e+02 1.057060110223404621e+02
1.224000000000000057e+02 1.055495750042069716e+02
1.228000000000000114e+02 1.053938765509570601e+02
1.232000000000000028e+02 1.052389097608709960e+02
1.236000000000000085e+02 1.050846687988677388e+02
1.240000000000000000e+02 1.049311478955338828e+02
1.244000000000000057e+02 1.047783413461696824e+02
1.248000000000000114e+02 1.046262435098523724e+02
1.252000000000000028e+02 1.044748488085160147e+02
1.256000000000000085e+02 1.043241517260474183e+02
1.260000000000000000e+02 1.041741468073980741e+02
1.264000000000000057e+02 1.040248286577118506e+02
1.268000000000000114e+02 1.038761919414676669e+02
1.272000000000000028e+02 1.037282313816373573e+02
1.276000000000000085e+02 1.035809417588579038e+02
1.280000000000000000e+02 1.034343179106182902e+02
1.284000000000000057e+02 1.032883547304602416e+02
1.288000000000000114e+02 1.031430471671925915e+02
1.291999999999999886e+02 1.029983902241196461e+02
1.296000000000000227e+02 1.028543789582818846e+02
1.300000000000000000e+02 1.027110084797105714e+02
1.304000000000000057e+02 1.025682739506941914e+02
1.308000000000000114e+02 1.024261705850579460e+02
1.311999999999999886e+02 1.022846936474550148e+02
1.316000000000000227e+02 1.021438384526699394e+02
1.320000000000000000e+02 1.020036003649335754e+02
1.324000000000000057e+02 1.018639747972496821e+02
1.328000000000000114e+02 1.017249572107324980e+02
1.331999999999999886e+02 1.015865431139557131e+02
1.336000000000000227e+02 1.014487280623116305e+02
1.340000000000000000e+02 1.013115076573815543e+02
1.344000000000000057e+02 1.011748775463161394e+02
1.348000000000000114e+02 1.010388334212261157e+02
1.351999999999999886e+02 1.009033710185828170e+02
1.356000000000000227e+02 1.007684861186286867e+02
1.360000000000000000e+02 1.006341745447972613e+02
1.364000000000000057e+02 1.005004321631425341e+02
1.368000000000000114e+02 1.003672548817776544e+02
1.371999999999999886e+02 1.002346386503225801e+02
1.376000000000000227e+02 1.001025794593607827e+02
1.380000000000000000e+02 9.997107333990433631e+01
1.384000000000000057e+02 9.984011636286790292e+01
1.388000000000000114e+02 9.970970463855088894e+01
1.392000000000000171e+02 9.957983431612795755e+01
1.395999999999999943e+02 9.945050158314745659e+01
1.400000000000000000e+02 9.932170266503788980e+01
1.404000000000000057e+02 9.919343382462221825e+01
1.408000000000000114e+02 9.906569136163956557e+01
1.412000000000000171e+02 9.893847161227462550e+01
1.415999999999999943e+02 9.881177094869437383e+01
1.420000000000000000e+02 9.868558577859184311e+01
1.424000000000000057e+02 9.855991254473713070e+01
1.428000000000000114e+02 9.843474772453542698e+01
1.432000000000000171e+02 9.831008782959160897e+01
1.435999999999999943e+02 9.818592940528176882e+01
1.440000000000000000e+02 9.806226903033115150e+01
1.444000000000000057e+02 9.793910331639872879e+01
1.448000000000000114e+02 9.781642890766788412e+01
1.452000000000000171e+02 9.769424248044359160e+01
1.455999999999999943e+02 9.757254074275545008e+01
1.460000000000000000e+02 9.745132043396684196e+01
1.464000000000000057e+02 9.733057832439007484e+01
1.468000000000000114e+02 9.721031121490713645e+01
1.472000000000000171e+02 9.709051593659624757e+01
1.475999999999999943e+02 9.697118935036399989e+01
1.480000000000000000e+02 9.685232834658287970e+01
1.484000000000000057e+02 9.673392984473443335e+01
1.488000000000000114e+02 9.661599079305737803e+01
1.492000000000000171e+02 9.649850816820116961e+01
1.495999999999999943e+02 9.638147897488465787e+01
1.500000000000000000e+02 9.626490024555957348e+01
