,cluster,orb,thdeg,phideg
0,WSe6,W4f,0.0,0.0
2,W7Se6,W4f,0.0,0.0
5,W7Se12,W4f,0.0,0.0
8,W7Se24,W4f,0.0,0.0
10,W3Se2,Se3d,0.0,0.0
13,W3Se14,Se3d,0.0,0.0
15,W6Se14,Se3d,0.0,0.0
17,W3Se2,Se4s,0.0,0.0
19,W3Se14,Se4s,0.0,0.0
23,W6Se14,Se4s,0.0,0.0
28,WSe6,W4f,47.0,0.0
31,W7Se6,W4f,47.0,0.0
35,W7Se12,W4f,47.0,0.0
41,W7Se24,W4f,47.0,0.0
44,W3Se2,Se3d,47.0,0.0
47,W3Se14,Se3d,47.0,0.0
49,W6Se14,Se3d,47.0,0.0
50,W3Se2,Se4s,47.0,0.0
51,W3Se14,Se4s,47.0,0.0
55,W6Se14,Se4s,47.0,0.0
