1.000000000000000000e+01 3.801867187781185748e+02
1.040000000000000036e+01 3.978952347128363840e+02
1.080000000000000071e+01 4.007436872069598621e+02
1.119999999999999929e+01 4.179710028957961185e+02
1.159999999999999964e+01 4.348502233790368905e+02
1.200000000000000000e+01 4.466445567238516787e+02
1.240000000000000036e+01 4.630886452545305474e+02
1.280000000000000071e+01 4.792787540778722359e+02
1.319999999999999929e+01 4.903238194596452786e+02
1.359999999999999964e+01 5.106992643531302747e+02
1.400000000000000000e+01 5.402667603523943853e+02
1.440000000000000036e+01 5.979002116240733358e+02
1.480000000000000071e+01 5.869469826258437024e+02
1.519999999999999929e+01 5.767513958870874831e+02
1.560000000000000142e+01 5.672217372235221546e+02
1.600000000000000000e+01 5.582818716202226597e+02
1.639999999999999858e+01 5.498678974974363882e+02
1.680000000000000071e+01 5.419256563191900113e+02
1.719999999999999929e+01 5.344088471084349976e+02
1.760000000000000142e+01 5.272775772075514169e+02
1.800000000000000000e+01 5.204972331838999935e+02
1.839999999999999858e+01 5.140375903832367612e+02
1.880000000000000071e+01 5.078721029090323213e+02
1.920000000000000284e+01 5.019773317672710959e+02
1.960000000000000142e+01 4.963324800558315815e+02
2.000000000000000000e+01 4.909190119767794727e+02
2.039999999999999858e+01 4.857203381336607890e+02
2.080000000000000071e+01 4.807215537205789815e+02
2.120000000000000284e+01 4.759092192697144128e+02
2.160000000000000142e+01 4.712711759087788437e+02
2.200000000000000000e+01 4.667963888040914640e+02
2.239999999999999858e+01 4.624748137789086968e+02
2.280000000000000071e+01 4.582972831071321593e+02
2.320000000000000284e+01 4.542554072662950944e+02
2.360000000000000142e+01 4.503414900465325559e+02
2.400000000000000000e+01 4.465484548949714281e+02
2.439999999999999858e+01 4.428697807579264918e+02
2.480000000000000071e+01 4.392994459891097563e+02
2.520000000000000284e+01 4.358318791378155197e+02
2.560000000000000142e+01 4.324619156296975007e+02
2.600000000000000000e+01 4.291847595142513683e+02
2.640000000000000213e+01 4.259959495850799271e+02
2.680000000000000071e+01 4.228913292874157150e+02
2.719999999999999929e+01 4.198670199168320210e+02
2.760000000000000142e+01 4.169193966872348938e+02
2.800000000000000000e+01 4.140450673079830040e+02
2.840000000000000213e+01 4.112408527616094602e+02
2.880000000000000071e+01 4.085037700169677350e+02
2.920000000000000284e+01 4.058310164491351770e+02
2.960000000000000142e+01 4.032199557682948807e+02
3.000000000000000000e+01 4.006681052860179761e+02
3.040000000000000213e+01 3.981731243696871161e+02
3.080000000000000071e+01 3.957328039548511356e+02
3.120000000000000284e+01 3.933450570016358938e+02
3.160000000000000142e+01 3.910079097953582732e+02
3.200000000000000000e+01 3.887194940035877835e+02
3.240000000000000568e+01 3.864780394123379210e+02
3.279999999999999716e+01 3.842818672731247602e+02
3.320000000000000284e+01 3.821293842004867543e+02
3.360000000000000142e+01 3.800190765664042374e+02
3.400000000000000000e+01 3.779495053440288075e+02
3.440000000000000568e+01 3.759193013583544598e+02
3.479999999999999716e+01 3.739271609060446053e+02
3.520000000000000284e+01 3.719718417106489028e+02
3.560000000000000142e+01 3.700521591829855197e+02
3.600000000000000000e+01 3.681669829595891770e+02
3.640000000000000568e+01 3.663152336948845686e+02
3.679999999999999716e+01 3.644958800851869682e+02
3.720000000000000284e+01 3.627079361048048440e+02
3.760000000000000142e+01 3.609504584364384527e+02
3.800000000000000000e+01 3.592225440797904525e+02
3.840000000000000568e+01 3.575233281238274685e+02
3.879999999999999716e+01 3.558519816694995939e+02
3.920000000000000284e+01 3.542077098909458073e+02
3.960000000000000142e+01 3.525897502243060444e+02
4.000000000000000000e+01 3.509973706742420632e+02
4.040000000000000568e+01 3.494298682291522482e+02
4.079999999999999716e+01 3.478865673768564193e+02
4.120000000000000284e+01 3.463668187132428216e+02
4.160000000000000142e+01 3.448699976370127160e+02
4.200000000000000000e+01 3.433955031242433051e+02
4.239999999999999858e+01 3.419427565770107549e+02
4.280000000000000426e+01 3.405112007407966530e+02
4.320000000000000284e+01 3.391002986858331951e+02
4.360000000000000142e+01 3.377095328479304612e+02
4.400000000000000000e+01 3.363384041246920333e+02
4.439999999999999858e+01 3.349864310233431297e+02
4.480000000000000426e+01 3.336531488566967028e+02
4.520000000000000284e+01 3.323381089840478921e+02
4.560000000000000142e+01 3.310408780940346105e+02
4.600000000000000000e+01 3.297610375267281029e+02
4.639999999999999858e+01 3.284981826324194003e+02
4.680000000000000426e+01 3.272519221647586392e+02
4.720000000000000284e+01 3.260218777060748607e+02
4.760000000000000142e+01 3.248076831228616470e+02
4.800000000000000000e+01 3.236089840495607177e+02
4.840000000000000568e+01 3.224254373989055011e+02
4.880000000000000426e+01 3.212567108972151573e+02
4.920000000000000284e+01 3.201024826431327597e+02
4.960000000000000142e+01 3.189624406884165069e+02
5.000000000000000000e+01 3.178362826394793501e+02
5.040000000000000568e+01 3.167237152784656473e+02
5.080000000000000426e+01 3.156244542027330340e+02
5.120000000000000284e+01 3.145382234816854066e+02
5.160000000000000142e+01 3.134647553299677156e+02
5.200000000000000000e+01 3.124037897961050589e+02
5.240000000000000568e+01 3.113550744657209179e+02
5.280000000000000426e+01 3.103183641785295777e+02
5.320000000000000284e+01 3.092934207583475654e+02
5.360000000000000142e+01 3.082800127554158394e+02
5.400000000000000000e+01 3.072779152003716376e+02
5.440000000000000568e+01 3.062869093692441993e+02
5.480000000000000426e+01 3.053067825588948381e+02
5.520000000000000284e+01 3.043373278723496469e+02
5.560000000000000142e+01 3.033783440135122760e+02
5.600000000000000000e+01 3.024296350907702049e+02
5.640000000000000568e+01 3.014910104290418644e+02
5.680000000000000426e+01 3.005622843898332235e+02
5.720000000000000284e+01 2.996432761989030951e+02
5.760000000000000142e+01 2.987338097811542639e+02
5.800000000000000000e+01 2.978337136023941412e+02
5.840000000000000568e+01 2.969428205176276379e+02
5.880000000000000426e+01 2.960609676255612044e+02
5.920000000000000284e+01 2.951879961290196093e+02
5.960000000000000142e+01 2.943237512009906141e+02
6.000000000000000000e+01 2.934680818560294711e+02
6.040000000000000568e+01 2.926208408267689265e+02
6.080000000000000426e+01 2.917818844452971234e+02
6.120000000000000284e+01 2.909510725291737003e+02
6.160000000000000142e+01 2.901282682718722867e+02
6.200000000000000000e+01 2.893133381374448163e+02
6.240000000000000568e+01 2.885061517592152995e+02
6.280000000000000426e+01 2.877065818423212704e+02
6.320000000000000284e+01 2.869145040699299898e+02
6.360000000000000142e+01 2.861297970129655823e+02
6.400000000000000000e+01 2.853523420431907880e+02
6.440000000000000568e+01 2.845820232494982633e+02
6.480000000000001137e+01 2.838187273572677896e+02
6.520000000000000284e+01 2.830623436506605231e+02
6.559999999999999432e+01 2.823127638977197762e+02
6.600000000000000000e+01 2.815698822781624813e+02
6.640000000000000568e+01 2.808335953137433307e+02
6.680000000000001137e+01 2.801038018010858650e+02
6.720000000000000284e+01 2.793804027468757454e+02
6.759999999999999432e+01 2.786633013053179866e+02
6.800000000000000000e+01 2.779524027177660628e+02
6.840000000000000568e+01 2.772476142544310278e+02
6.880000000000001137e+01 2.765488451580889091e+02
6.920000000000000284e+01 2.758560065897024174e+02
6.959999999999999432e+01 2.751690115758827915e+02
7.000000000000000000e+01 2.744877749581153807e+02
7.040000000000000568e+01 2.738122133436812646e+02
7.080000000000001137e+01 2.731422450582062424e+02
7.120000000000000284e+01 2.724777900997743814e+02
7.159999999999999432e+01 2.718187700945441065e+02
7.200000000000000000e+01 2.711651082538099331e+02
7.240000000000000568e+01 2.705167293324529396e+02
7.280000000000001137e+01 2.698735595887272893e+02
7.320000000000000284e+01 2.692355267453323791e+02
7.359999999999999432e+01 2.686025599517204796e+02
7.400000000000000000e+01 2.679745897475962693e+02
7.440000000000000568e+01 2.673515480275605114e+02
7.479999999999999716e+01 2.667333680068576882e+02
7.520000000000000284e+01 2.661199841881852990e+02
7.560000000000000853e+01 2.655113323295271925e+02
7.600000000000000000e+01 2.649073494129730761e+02
7.640000000000000568e+01 2.643079736144873095e+02
7.679999999999999716e+01 2.637131442745948107e+02
7.720000000000000284e+01 2.631228018699495124e+02
7.760000000000000853e+01 2.625368879857545039e+02
7.800000000000000000e+01 2.619553452890040717e+02
7.840000000000000568e+01 2.613781175025174548e+02
7.879999999999999716e+01 2.608051493797387934e+02
7.920000000000000284e+01 2.602363866802725170e+02
7.960000000000000853e+01 2.596717761461350165e+02
8.000000000000000000e+01 2.591112654786903136e+02
8.040000000000000568e+01 2.585548033162530146e+02
8.079999999999999716e+01 2.580023392123313215e+02
8.120000000000000284e+01 2.574538236144908296e+02
8.160000000000000853e+01 2.569092078438164890e+02
8.200000000000000000e+01 2.563684440749549367e+02
8.240000000000000568e+01 2.558314853167144065e+02
8.279999999999999716e+01 2.552982853932076068e+02
8.320000000000000284e+01 2.547687989255167906e+02
8.360000000000000853e+01 2.542429813138647603e+02
8.400000000000000000e+01 2.537207887202758911e+02
8.440000000000000568e+01 2.532021780517098364e+02
8.479999999999999716e+01 2.526871069436551238e+02
8.520000000000000284e+01 2.521755337441636584e+02
8.560000000000000853e+01 2.516674174983172634e+02
8.600000000000000000e+01 2.511627179331080129e+02
8.640000000000000568e+01 2.506613954427218118e+02
8.680000000000001137e+01 2.501634110742118651e+02
8.720000000000000284e+01 2.496687265135489611e+02
8.760000000000000853e+01 2.491773040720384529e+02
8.800000000000000000e+01 2.486891066730911746e+02
8.840000000000000568e+01 2.482040978393378623e+02
8.880000000000001137e+01 2.477222416800768769e+02
8.920000000000000284e+01 2.472435028790437457e+02
8.960000000000000853e+01 2.467678466824947350e+02
9.000000000000000000e+01 2.462952388875933707e+02
9.040000000000000568e+01 2.458256458310908101e+02
9.080000000000001137e+01 2.453590343782927050e+02
9.120000000000000284e+01 2.448953719123015844e+02
9.160000000000000853e+01 2.444346263235296419e+02
9.200000000000000000e+01 2.439767659994705866e+02
9.240000000000000568e+01 2.435217598147256695e+02
9.280000000000001137e+01 2.430695771212751026e+02
9.320000000000000284e+01 2.426201877389879655e+02
9.360000000000000853e+01 2.421735619463632929e+02
9.400000000000000000e+01 2.417296704714969167e+02
9.440000000000000568e+01 2.412884844832656768e+02
9.480000000000001137e+01 2.408499755827247668e+02
9.520000000000000284e+01 2.404141157947103693e+02
9.560000000000000853e+01 2.399808775596432042e+02
9.600000000000000000e+01 2.395502337255261978e+02
9.640000000000000568e+01 2.391221575401316954e+02
9.680000000000001137e+01 2.386966226433721658e+02
9.720000000000000284e+01 2.382736030598497337e+02
9.760000000000000853e+01 2.378530731915798810e+02
9.800000000000000000e+01 2.374350078108833202e+02
9.840000000000000568e+01 2.370193820534427118e+02
9.880000000000001137e+01 2.366061714115193695e+02
9.920000000000000284e+01 2.361953517273249759e+02
9.960000000000000853e+01 2.357868991865443888e+02
1.000000000000000000e+02 2.353807903120066385e+02
1.004000000000000057e+02 2.349770019574977198e+02
1.008000000000000114e+02 2.345755113017141014e+02
1.012000000000000028e+02 2.341762958423504699e+02
1.016000000000000085e+02 2.337793333903208577e+02
1.020000000000000000e+02 2.333846020641073835e+02
1.024000000000000057e+02 2.329920802842345324e+02
1.028000000000000114e+02 2.326017467678654214e+02
1.032000000000000028e+02 2.322135805235163275e+02
1.036000000000000085e+02 2.318275608458870067e+02
1.040000000000000000e+02 2.314436673108042442e+02
1.044000000000000057e+02 2.310618797702737766e+02
1.048000000000000114e+02 2.306821783476404448e+02
1.052000000000000028e+02 2.303045434328515171e+02
1.056000000000000085e+02 2.299289556778223869e+02
1.060000000000000000e+02 2.295553959919001557e+02
1.064000000000000057e+02 2.291838455374246166e+02
1.068000000000000114e+02 2.288142857253824332e+02
1.072000000000000028e+02 2.284466982111536595e+02
1.076000000000000085e+02 2.280810648903469939e+02
1.080000000000000000e+02 2.277173678947225994e+02
1.084000000000000057e+02 2.273555895881995070e+02
1.088000000000000114e+02 2.269957125629461530e+02
1.092000000000000028e+02 2.266377196355518322e+02
1.096000000000000085e+02 2.262815938432764824e+02
1.100000000000000000e+02 2.259273184403781727e+02
1.104000000000000057e+02 2.255748768945148583e+02
1.108000000000000114e+02 2.252242528832198332e+02
1.112000000000000028e+02 2.248754302904485769e+02
1.116000000000000085e+02 2.245283932031954066e+02
1.120000000000000000e+02 2.241831259081781695e+02
1.124000000000000057e+02 2.238396128885889027e+02
1.128000000000000114e+02 2.234978388209106583e+02
1.132000000000000028e+02 2.231577885717960896e+02
1.136000000000000085e+02 2.228194471950091611e+02
1.140000000000000000e+02 2.224827999284264877e+02
1.144000000000000057e+02 2.221478321910980753e+02
1.148000000000000114e+02 2.218145295803655870e+02
1.152000000000000028e+02 2.214828778690367130e+02
1.156000000000000085e+02 2.211528630026147368e+02
1.160000000000000000e+02 2.208244710965818172e+02
1.164000000000000057e+02 2.204976884337342540e+02
1.168000000000000114e+02 2.201725014615699365e+02
1.172000000000000028e+02 2.198488967897250177e+02
1.176000000000000085e+02 2.195268611874602982e+02
1.180000000000000000e+02 2.192063815811944494e+02
1.184000000000000057e+02 2.188874450520853543e+02
1.188000000000000114e+02 2.185700388336561559e+02
1.192000000000000028e+02 2.182541503094662403e+02
1.196000000000000085e+02 2.179397670108261877e+02
1.200000000000000000e+02 2.176268766145553855e+02
1.204000000000000057e+02 2.173154669407808797e+02
1.208000000000000114e+02 2.170055259507780931e+02
1.212000000000000028e+02 2.166970417448508215e+02
1.216000000000000085e+02 2.163900025602500250e+02
1.220000000000000000e+02 2.160843967691318994e+02
1.224000000000000057e+02 2.157802128765524117e+02
1.228000000000000114e+02 2.154774395184987270e+02
1.232000000000000028e+02 2.151760654599567033e+02
1.236000000000000085e+02 2.148760795930130598e+02
1.240000000000000000e+02 2.145774709349916520e+02
1.244000000000000057e+02 2.142802286266241083e+02
1.248000000000000114e+02 2.139843419302524694e+02
1.252000000000000028e+02 2.136898002280642004e+02
1.256000000000000085e+02 2.133965930203588925e+02
1.260000000000000000e+02 2.131047099238454337e+02
1.264000000000000057e+02 2.128141406699695040e+02
1.268000000000000114e+02 2.125248751032704888e+02
1.272000000000000028e+02 2.122369031797674381e+02
1.276000000000000085e+02 2.119502149653729361e+02
1.280000000000000000e+02 2.116648006343351938e+02
1.284000000000000057e+02 2.113806504677068006e+02
1.288000000000000114e+02 2.110977548518405342e+02
1.291999999999999886e+02 2.108161042769103517e+02
1.296000000000000227e+02 2.105356893354589545e+02
1.300000000000000000e+02 2.102565007209696546e+02
1.304000000000000057e+02 2.099785292264626264e+02
1.308000000000000114e+02 2.097017657431154021e+02
1.311999999999999886e+02 2.094262012589070139e+02
1.316000000000000227e+02 2.091518268572843908e+02
1.320000000000000000e+02 2.088786337158523736e+02
1.324000000000000057e+02 2.086066131050847616e+02
1.328000000000000114e+02 2.083357563870578417e+02
1.331999999999999886e+02 2.080660550142044372e+02
1.336000000000000227e+02 2.077975005280894720e+02
1.340000000000000000e+02 2.075300845582052034e+02
1.344000000000000057e+02 2.072637988207870308e+02
1.348000000000000114e+02 2.069986351176484334e+02
1.351999999999999886e+02 2.067345853350357459e+02
1.356000000000000227e+02 2.064716414425006974e+02
1.360000000000000000e+02 2.062097954917926188e+02
1.364000000000000057e+02 2.059490396157678731e+02
1.368000000000000114e+02 2.056893660273177034e+02
1.371999999999999886e+02 2.054307670183125936e+02
1.376000000000000227e+02 2.051732349585649615e+02
1.380000000000000000e+02 2.049167622948074552e+02
1.384000000000000057e+02 2.046613415496881885e+02
1.388000000000000114e+02 2.044069653207822057e+02
1.392000000000000171e+02 2.041536262796184360e+02
1.395999999999999943e+02 2.039013171707225069e+02
1.400000000000000000e+02 2.036500308106742807e+02
1.404000000000000057e+02 2.033997600871809368e+02
1.408000000000000114e+02 2.031504979581641805e+02
1.412000000000000171e+02 2.029022374508621738e+02
1.415999999999999943e+02 2.026549716609454208e+02
1.420000000000000000e+02 2.024086937516463536e+02
1.424000000000000057e+02 2.021633969529029287e+02
1.428000000000000114e+02 2.019190745605150994e+02
1.432000000000000171e+02 2.016757199353147882e+02
1.435999999999999943e+02 2.014333265023482511e+02
1.440000000000000000e+02 2.011918877500714871e+02
1.444000000000000057e+02 2.009513972295578981e+02
1.448000000000000114e+02 2.007118485537178003e+02
1.452000000000000171e+02 2.004732353965304981e+02
1.455999999999999943e+02 2.002355514922874704e+02
1.460000000000000000e+02 1.999987906348472393e+02
1.464000000000000057e+02 1.997629466769020326e+02
1.468000000000000114e+02 1.995280135292545083e+02
1.472000000000000171e+02 1.992939851601065300e+02
1.475999999999999943e+02 1.990608555943579177e+02
1.480000000000000000e+02 1.988286189129157719e+02
1.484000000000000057e+02 1.985972692520144847e+02
1.488000000000000114e+02 1.983668008025454697e+02
1.492000000000000171e+02 1.981372078093972675e+02
1.495999999999999943e+02 1.979084845708049158e+02
1.500000000000000000e+02 1.976806254377095797e+02
