1.000000000000000000e+01 1.993049210677895360e+02
1.040000000000000036e+01 2.057819406105329847e+02
1.080000000000000071e+01 2.041413664931768608e+02
1.119999999999999929e+01 2.016946085516916867e+02
1.159999999999999964e+01 2.004130066642390773e+02
1.200000000000000000e+01 1.992692170705047658e+02
1.240000000000000036e+01 2.002376641076656654e+02
1.280000000000000071e+01 2.082100417377648682e+02
1.319999999999999929e+01 2.178618362169863190e+02
1.359999999999999964e+01 2.272847720682420913e+02
1.400000000000000000e+01 2.364711950200515389e+02
1.440000000000000036e+01 2.503959386379057719e+02
1.480000000000000071e+01 2.922221119137282699e+02
1.519999999999999929e+01 2.936931528979686163e+02
1.560000000000000142e+01 2.963076992075073690e+02
1.600000000000000000e+01 3.069419258278323355e+02
1.639999999999999858e+01 3.015762465108823562e+02
1.680000000000000071e+01 2.965622811963863796e+02
1.719999999999999929e+01 2.918596273688751239e+02
1.760000000000000142e+01 2.874344117649970940e+02
1.800000000000000000e+01 2.832579528689772133e+02
1.839999999999999858e+01 2.793057504741111075e+02
1.880000000000000071e+01 2.755567104381574381e+02
1.920000000000000284e+01 2.719925416318379803e+02
1.960000000000000142e+01 2.685972809925789875e+02
2.000000000000000000e+01 2.653569152664899775e+02
2.039999999999999858e+01 2.622590766828234905e+02
2.080000000000000071e+01 2.592927958336574648e+02
2.120000000000000284e+01 2.564482992968829649e+02
2.160000000000000142e+01 2.537168426037540030e+02
2.200000000000000000e+01 2.510905713822937457e+02
2.239999999999999858e+01 2.485624051518094006e+02
2.280000000000000071e+01 2.461259394697378298e+02
2.320000000000000284e+01 2.437753630561225577e+02
2.360000000000000142e+01 2.415053872244784259e+02
2.400000000000000000e+01 2.393111854882669149e+02
2.439999999999999858e+01 2.371883416310374173e+02
2.480000000000000071e+01 2.351328048554802592e+02
2.520000000000000284e+01 2.331408508841748528e+02
2.560000000000000142e+01 2.312090480889696664e+02
2.600000000000000000e+01 2.293342278888496821e+02
2.640000000000000213e+01 2.275134587869823974e+02
2.680000000000000071e+01 2.257440235233216583e+02
2.719999999999999929e+01 2.240233989050197465e+02
2.760000000000000142e+01 2.223492379470234823e+02
2.800000000000000000e+01 2.207193540128028246e+02
2.840000000000000213e+01 2.191317066926429220e+02
2.880000000000000071e+01 2.175843891962814780e+02
2.920000000000000284e+01 2.160756170694181719e+02
2.960000000000000142e+01 2.146037180709926417e+02
3.000000000000000000e+01 2.131671230710892644e+02
3.040000000000000213e+01 2.117643578486666343e+02
3.080000000000000071e+01 2.103940356846604232e+02
3.120000000000000284e+01 2.090548506598731535e+02
3.160000000000000142e+01 2.077455715788687485e+02
3.200000000000000000e+01 2.064650364511667817e+02
3.240000000000000568e+01 2.052121474696622556e+02
3.279999999999999716e+01 2.039858664336097718e+02
3.320000000000000284e+01 2.027852105698990499e+02
3.360000000000000142e+01 2.016092487118638985e+02
3.400000000000000000e+01 2.004570977996451688e+02
3.440000000000000568e+01 1.993279196702775948e+02
3.479999999999999716e+01 1.982209181092804613e+02
3.520000000000000284e+01 1.971353361386829874e+02
3.560000000000000142e+01 1.960704535191708260e+02
3.600000000000000000e+01 1.950255844464544737e+02
3.640000000000000568e+01 1.940000754240807055e+02
3.679999999999999716e+01 1.929933032967764461e+02
3.720000000000000284e+01 1.920046734300574087e+02
3.760000000000000142e+01 1.910336180232932293e+02
3.800000000000000000e+01 1.900795945447021609e+02
3.840000000000000568e+01 1.891420842778963447e+02
3.879999999999999716e+01 1.882205909706097486e+02
3.920000000000000284e+01 1.873146395771437369e+02
3.960000000000000142e+01 1.864237750868728085e+02
4.000000000000000000e+01 1.855475614318684734e+02
4.040000000000000568e+01 1.846855804673447210e+02
4.079999999999999716e+01 1.838374310192021994e+02
4.120000000000000284e+01 1.830027279934659532e+02
4.160000000000000142e+01 1.821811015428756946e+02
4.200000000000000000e+01 1.813721962863025965e+02
4.239999999999999858e+01 1.805756705770461679e+02
4.280000000000000426e+01 1.797911958164005171e+02
4.320000000000000284e+01 1.790184558091873726e+02
4.360000000000000142e+01 1.782571461582301140e+02
4.400000000000000000e+01 1.775069736949932349e+02
4.439999999999999858e+01 1.767676559438392587e+02
4.480000000000000426e+01 1.760389206175614447e+02
4.520000000000000284e+01 1.753205051420391953e+02
4.560000000000000142e+01 1.746121562080308536e+02
4.600000000000000000e+01 1.739136293482776523e+02
4.639999999999999858e+01 1.732246885382310495e+02
4.680000000000000426e+01 1.725451058188465083e+02
4.720000000000000284e+01 1.718746609400047305e+02
4.760000000000000142e+01 1.712131410232285020e+02
4.800000000000000000e+01 1.705603402424634965e+02
4.840000000000000568e+01 1.699160595217803120e+02
4.880000000000000426e+01 1.692801062489396031e+02
4.920000000000000284e+01 1.686522940038373690e+02
4.960000000000000142e+01 1.680324423009174097e+02
5.000000000000000000e+01 1.674203763447038682e+02
5.040000000000000568e+01 1.668159267976637352e+02
5.080000000000000426e+01 1.662189295596656677e+02
5.120000000000000284e+01 1.656292255583508108e+02
5.160000000000000142e+01 1.650466605497785793e+02
5.200000000000000000e+01 1.644710849287518215e+02
5.240000000000000568e+01 1.639023535482670866e+02
5.280000000000000426e+01 1.633403255475712399e+02
5.320000000000000284e+01 1.627848641883398102e+02
5.360000000000000142e+01 1.622358366985241389e+02
5.400000000000000000e+01 1.616931141234432801e+02
5.440000000000000568e+01 1.611565711837233152e+02
5.480000000000000426e+01 1.606260861397125836e+02
5.520000000000000284e+01 1.601015406620238366e+02
5.560000000000000142e+01 1.595828197078761832e+02
5.600000000000000000e+01 1.590698114029299290e+02
5.640000000000000568e+01 1.585624069283263111e+02
5.680000000000000426e+01 1.580605004126605024e+02
5.720000000000000284e+01 1.575639888286342511e+02
5.760000000000000142e+01 1.570727718941478770e+02
5.800000000000000000e+01 1.565867519776068093e+02
5.840000000000000568e+01 1.561058340072300439e+02
5.880000000000000426e+01 1.556299253841609982e+02
5.920000000000000284e+01 1.551589358991921017e+02
5.960000000000000142e+01 1.546927776529256278e+02
6.000000000000000000e+01 1.542313649792032209e+02
6.040000000000000568e+01 1.537746143716458107e+02
6.080000000000000426e+01 1.533224444131548694e+02
6.120000000000000284e+01 1.528747757082334431e+02
6.160000000000000142e+01 1.524315308179941724e+02
6.200000000000000000e+01 1.519926341977278241e+02
6.240000000000000568e+01 1.515580121369131916e+02
6.280000000000000426e+01 1.511275927015555283e+02
6.320000000000000284e+01 1.507013056787470191e+02
6.360000000000000142e+01 1.502790825233470287e+02
6.400000000000000000e+01 1.498608563066878219e+02
6.440000000000000568e+01 1.494465616672130466e+02
6.480000000000001137e+01 1.490361347629649345e+02
6.520000000000000284e+01 1.486295132258360638e+02
6.559999999999999432e+01 1.482266361175101110e+02
6.600000000000000000e+01 1.478274438870168979e+02
6.640000000000000568e+01 1.474318783298319602e+02
6.680000000000001137e+01 1.470398825484543579e+02
6.720000000000000284e+01 1.466514009143994315e+02
6.759999999999999432e+01 1.462663790315460517e+02
6.800000000000000000e+01 1.458847637007824005e+02
6.840000000000000568e+01 1.455065028858946334e+02
6.880000000000001137e+01 1.451315456806473208e+02
6.920000000000000284e+01 1.447598422770066122e+02
6.959999999999999432e+01 1.443913439344586891e+02
7.000000000000000000e+01 1.440260029503796773e+02
7.040000000000000568e+01 1.436637726314130248e+02
7.080000000000001137e+01 1.433046072658155765e+02
7.120000000000000284e+01 1.429484620967322712e+02
7.159999999999999432e+01 1.425952932963626267e+02
7.200000000000000000e+01 1.422450579409850491e+02
7.240000000000000568e+01 1.418977139868036375e+02
7.280000000000001137e+01 1.415532202465865339e+02
7.320000000000000284e+01 1.412115363670647241e+02
7.359999999999999432e+01 1.408726228070622710e+02
7.400000000000000000e+01 1.405364408163295025e+02
7.440000000000000568e+01 1.402029524150530619e+02
7.479999999999999716e+01 1.398721203740165606e+02
7.520000000000000284e+01 1.395439081953879281e+02
7.560000000000000853e+01 1.392182800941098719e+02
7.600000000000000000e+01 1.388952009798707365e+02
7.640000000000000568e+01 1.385746364396349009e+02
7.679999999999999716e+01 1.382565527207118521e+02
7.720000000000000284e+01 1.379409167143440698e+02
7.760000000000000853e+01 1.376276959397954727e+02
7.800000000000000000e+01 1.373168585289218697e+02
7.840000000000000568e+01 1.370083732112063331e+02
7.879999999999999716e+01 1.367022092992430942e+02
7.920000000000000284e+01 1.363983366746535069e+02
7.960000000000000853e+01 1.360967257744197525e+02
8.000000000000000000e+01 1.357973475776205703e+02
8.040000000000000568e+01 1.355001735925557114e+02
8.079999999999999716e+01 1.352051758442458720e+02
8.120000000000000284e+01 1.349123268622940657e+02
8.160000000000000853e+01 1.346215996690973498e+02
8.200000000000000000e+01 1.343329677683961165e+02
8.240000000000000568e+01 1.340464051341494667e+02
8.279999999999999716e+01 1.337618861997264901e+02
8.320000000000000284e+01 1.334793858474020283e+02
8.360000000000000853e+01 1.331988793981467438e+02
8.400000000000000000e+01 1.329203426017027141e+02
8.440000000000000568e+01 1.326437516269336925e+02
8.479999999999999716e+01 1.323690830524423632e+02
8.520000000000000284e+01 1.320963138574446987e+02
8.560000000000000853e+01 1.318254214128942010e+02
8.600000000000000000e+01 1.315563834728470169e+02
8.640000000000000568e+01 1.312891781660604522e+02
8.680000000000001137e+01 1.310237839878178647e+02
8.720000000000000284e+01 1.307601797919719502e+02
8.760000000000000853e+01 1.304983447832003094e+02
8.800000000000000000e+01 1.302382585094659078e+02
8.840000000000000568e+01 1.299799008546763446e+02
8.880000000000001137e+01 1.297232520315359068e+02
8.920000000000000284e+01 1.294682925745840407e+02
8.960000000000000853e+01 1.292150033334143870e+02
9.000000000000000000e+01 1.289633654660697744e+02
9.040000000000000568e+01 1.287133604326064074e+02
9.080000000000001137e+01 1.284649699888230714e+02
9.120000000000000284e+01 1.282181761801501807e+02
9.160000000000000853e+01 1.279729613356935829e+02
9.200000000000000000e+01 1.277293080624285437e+02
9.240000000000000568e+01 1.274871992395399189e+02
9.280000000000001137e+01 1.272466180129032693e+02
9.320000000000000284e+01 1.270075477897036365e+02
9.360000000000000853e+01 1.267699722331872323e+02
9.400000000000000000e+01 1.265338752575428032e+02
9.440000000000000568e+01 1.262992410229081486e+02
9.480000000000001137e+01 1.260660539304988532e+02
9.520000000000000284e+01 1.258342986178552110e+02
9.560000000000000853e+01 1.256039599542042708e+02
9.600000000000000000e+01 1.253750230359334097e+02
9.640000000000000568e+01 1.251474731821725186e+02
9.680000000000001137e+01 1.249212959304815058e+02
9.720000000000000284e+01 1.246964770326405016e+02
9.760000000000000853e+01 1.244730024505390560e+02
9.800000000000000000e+01 1.242508583521628793e+02
9.840000000000000568e+01 1.240300311076739206e+02
9.880000000000001137e+01 1.238105072855825313e+02
9.920000000000000284e+01 1.235922736490080922e+02
9.960000000000000853e+01 1.233753171520262981e+02
1.000000000000000000e+02 1.231596249361007978e+02
1.004000000000000057e+02 1.229451843265962196e+02
1.008000000000000114e+02 1.227319828293711339e+02
1.012000000000000028e+02 1.225200081274484347e+02
1.016000000000000085e+02 1.223092480777609410e+02
1.020000000000000000e+02 1.220996907079704670e+02
1.024000000000000057e+02 1.218913242133582742e+02
1.028000000000000114e+02 1.216841369537849857e+02
1.032000000000000028e+02 1.214781174507181873e+02
1.036000000000000085e+02 1.212732543843258952e+02
1.040000000000000000e+02 1.210695365906341294e+02
1.044000000000000057e+02 1.208669530587470433e+02
1.048000000000000114e+02 1.206654929281278470e+02
1.052000000000000028e+02 1.204651454859389048e+02
1.056000000000000085e+02 1.202659001644397847e+02
1.060000000000000000e+02 1.200677465384413694e+02
1.064000000000000057e+02 1.198706743228148213e+02
1.068000000000000114e+02 1.196746733700541370e+02
1.072000000000000028e+02 1.194797336678903719e+02
1.076000000000000085e+02 1.192858453369570952e+02
1.080000000000000000e+02 1.190929986285049296e+02
1.084000000000000057e+02 1.189011839221644635e+02
1.088000000000000114e+02 1.187103917237562030e+02
1.092000000000000028e+02 1.185206126631463519e+02
1.096000000000000085e+02 1.183318374921472014e+02
1.100000000000000000e+02 1.181440570824613303e+02
1.104000000000000057e+02 1.179572624236681833e+02
1.108000000000000114e+02 1.177714446212521437e+02
1.112000000000000028e+02 1.175865948946711939e+02
1.116000000000000085e+02 1.174027045754649379e+02
1.120000000000000000e+02 1.172197651054013647e+02
1.124000000000000057e+02 1.170377680346609424e+02
1.128000000000000114e+02 1.168567050200575892e+02
1.132000000000000028e+02 1.166765678232956134e+02
1.136000000000000085e+02 1.164973483092612412e+02
1.140000000000000000e+02 1.163190384443486778e+02
1.144000000000000057e+02 1.161416302948192083e+02
1.148000000000000114e+02 1.159651160251930833e+02
1.152000000000000028e+02 1.157894878966729664e+02
1.156000000000000085e+02 1.156147382655986320e+02
1.160000000000000000e+02 1.154408595819319459e+02
1.164000000000000057e+02 1.152678443877710350e+02
1.168000000000000114e+02 1.150956853158942437e+02
1.172000000000000028e+02 1.149243750883314021e+02
1.176000000000000085e+02 1.147539065149635036e+02
1.180000000000000000e+02 1.145842724921486280e+02
1.184000000000000057e+02 1.144154660013750231e+02
1.188000000000000114e+02 1.142474801079391398e+02
1.192000000000000028e+02 1.140803079596495024e+02
1.196000000000000085e+02 1.139139427855547808e+02
1.200000000000000000e+02 1.137483778946961195e+02
1.204000000000000057e+02 1.135836066748829296e+02
1.208000000000000114e+02 1.134196225914916027e+02
1.212000000000000028e+02 1.132564191862869336e+02
1.216000000000000085e+02 1.130939900762651149e+02
1.220000000000000000e+02 1.129323289525188443e+02
1.224000000000000057e+02 1.127714295791227528e+02
1.228000000000000114e+02 1.126112857920399222e+02
1.232000000000000028e+02 1.124518914980483260e+02
1.236000000000000085e+02 1.122932406736868955e+02
1.240000000000000000e+02 1.121353273642209842e+02
1.244000000000000057e+02 1.119781456826265469e+02
1.248000000000000114e+02 1.118216898085926516e+02
1.252000000000000028e+02 1.116659539875424372e+02
1.256000000000000085e+02 1.115109325296711233e+02
1.260000000000000000e+02 1.113566198090017281e+02
1.264000000000000057e+02 1.112030102624576102e+02
1.268000000000000114e+02 1.110500983889513549e+02
1.272000000000000028e+02 1.108978787484901432e+02
1.276000000000000085e+02 1.107463459612966403e+02
1.280000000000000000e+02 1.105954947069457575e+02
1.284000000000000057e+02 1.104453197235163486e+02
1.288000000000000114e+02 1.102958158067578722e+02
1.291999999999999886e+02 1.101469778092716894e+02
1.296000000000000227e+02 1.099988006397064453e+02
1.300000000000000000e+02 1.098512792619676759e+02
1.304000000000000057e+02 1.097044086944408718e+02
1.308000000000000114e+02 1.095581840092279862e+02
1.311999999999999886e+02 1.094126003313974422e+02
1.316000000000000227e+02 1.092676528382461640e+02
1.320000000000000000e+02 1.091233367585752774e+02
1.324000000000000057e+02 1.089796473719772507e+02
1.328000000000000114e+02 1.088365800081355701e+02
1.331999999999999886e+02 1.086941300461363653e+02
1.336000000000000227e+02 1.085522929137912342e+02
1.340000000000000000e+02 1.084110640869719475e+02
1.344000000000000057e+02 1.082704390889558539e+02
1.348000000000000114e+02 1.081304134897826117e+02
1.351999999999999886e+02 1.079909829056212516e+02
1.356000000000000227e+02 1.078521429981481958e+02
1.360000000000000000e+02 1.077138894739351542e+02
1.364000000000000057e+02 1.075762180838474791e+02
1.368000000000000114e+02 1.074391246224520557e+02
1.371999999999999886e+02 1.073026049274351692e+02
1.376000000000000227e+02 1.071666548790298634e+02
1.380000000000000000e+02 1.070312703994527226e+02
1.384000000000000057e+02 1.068964474523492640e+02
1.388000000000000114e+02 1.067621820422490941e+02
1.392000000000000171e+02 1.066284702140294058e+02
1.395999999999999943e+02 1.064953080523871876e+02
1.400000000000000000e+02 1.063626916813198591e+02
1.404000000000000057e+02 1.062306172636143913e+02
1.408000000000000114e+02 1.060990810003443983e+02
1.412000000000000171e+02 1.059680791303754290e+02
1.415999999999999943e+02 1.058376079298778478e+02
1.420000000000000000e+02 1.057076637118476015e+02
1.424000000000000057e+02 1.055782428256345327e+02
1.428000000000000114e+02 1.054493416564781114e+02
1.432000000000000171e+02 1.053209566250502576e+02
1.435999999999999943e+02 1.051930841870057520e+02
1.440000000000000000e+02 1.050657208325389433e+02
1.444000000000000057e+02 1.049388630859481424e+02
1.448000000000000114e+02 1.048125075052062698e+02
1.452000000000000171e+02 1.046866506815381115e+02
1.455999999999999943e+02 1.045612892390045658e+02
1.460000000000000000e+02 1.044364198340924759e+02
1.464000000000000057e+02 1.043120391553116519e+02
1.468000000000000114e+02 1.041881439227973374e+02
1.472000000000000171e+02 1.040647308879190689e+02
1.475999999999999943e+02 1.039417968328954487e+02
1.480000000000000000e+02 1.038193385704146152e+02
1.484000000000000057e+02 1.036973529432605829e+02
1.488000000000000114e+02 1.035758368239452238e+02
1.492000000000000171e+02 1.034547871143455069e+02
1.495999999999999943e+02 1.033342007453466067e+02
1.500000000000000000e+02 1.032140746764899006e+02
