1.000000000000000000e+01 1.183697648253449586e+02
1.040000000000000036e+01 1.285532973020962118e+02
1.080000000000000071e+01 1.278630718420939445e+02
1.119999999999999929e+01 1.296132888995447843e+02
1.159999999999999964e+01 1.423545087545985268e+02
1.200000000000000000e+01 1.771801352143149870e+02
1.240000000000000036e+01 1.814200130846485308e+02
1.280000000000000071e+01 1.872101269964477979e+02
1.319999999999999929e+01 1.959792439092696554e+02
1.359999999999999964e+01 1.922081630987158292e+02
1.400000000000000000e+01 1.887018783792262866e+02
1.440000000000000036e+01 1.854287187406977182e+02
1.480000000000000071e+01 1.823622471172133714e+02
1.519999999999999929e+01 1.794801758690867928e+02
1.560000000000000142e+01 1.767635487322193057e+02
1.600000000000000000e+01 1.741961143489966730e+02
1.639999999999999858e+01 1.717638399714535353e+02
1.680000000000000071e+01 1.694545293425463797e+02
1.719999999999999929e+01 1.672575191054222330e+02
1.760000000000000142e+01 1.651634351684353703e+02
1.800000000000000000e+01 1.631639953827429110e+02
1.839999999999999858e+01 1.612518483773092157e+02
1.880000000000000071e+01 1.594204409006921992e+02
1.920000000000000284e+01 1.576639078415811923e+02
1.960000000000000142e+01 1.559769804428183591e+02
2.000000000000000000e+01 1.543549092241940457e+02
2.039999999999999858e+01 1.527933988827647340e+02
2.080000000000000071e+01 1.512885530123991487e+02
2.120000000000000284e+01 1.498368269239444999e+02
2.160000000000000142e+01 1.484349871877021769e+02
2.200000000000000000e+01 1.470800767853860975e+02
2.239999999999999858e+01 1.457693849674058129e+02
2.280000000000000071e+01 1.445004210764885784e+02
2.320000000000000284e+01 1.432708917302647080e+02
2.360000000000000142e+01 1.420786808609644254e+02
2.400000000000000000e+01 1.409218321954855355e+02
2.439999999999999858e+01 1.397985338281231975e+02
2.480000000000000071e+01 1.387071045945396008e+02
2.520000000000000284e+01 1.376459820016786466e+02
2.560000000000000142e+01 1.366137115063160934e+02
2.600000000000000000e+01 1.356089369663539230e+02
2.640000000000000213e+01 1.346303921150721976e+02
2.680000000000000071e+01 1.336768929303314621e+02
2.719999999999999929e+01 1.327473307889555940e+02
2.760000000000000142e+01 1.318406663118655899e+02
2.800000000000000000e+01 1.309559238184718026e+02
2.840000000000000213e+01 1.300921863197926029e+02
2.880000000000000071e+01 1.292485909890757512e+02
2.920000000000000284e+01 1.284243250566342454e+02
2.960000000000000142e+01 1.276186220823928466e+02
3.000000000000000000e+01 1.268307585654568470e+02
3.040000000000000213e+01 1.260600508550196537e+02
3.080000000000000071e+01 1.253058523312365082e+02
3.120000000000000284e+01 1.245675508284234070e+02
3.160000000000000142e+01 1.238445662761711219e+02
3.200000000000000000e+01 1.231363485367742214e+02
3.240000000000000568e+01 1.224423754198207632e+02
3.279999999999999716e+01 1.217621508569252882e+02
3.320000000000000284e+01 1.210952032214542555e+02
3.360000000000000142e+01 1.204410837797350382e+02
3.400000000000000000e+01 1.197993652616750637e+02
3.440000000000000568e+01 1.191696405399896150e+02
3.479999999999999716e+01 1.185515214083510216e+02
3.520000000000000284e+01 1.179446374497633911e+02
3.560000000000000142e+01 1.173486349873396506e+02
3.600000000000000000e+01 1.167631761104359072e+02
3.640000000000000568e+01 1.161879377697858047e+02
3.679999999999999716e+01 1.156226109358931353e+02
3.720000000000000284e+01 1.150668998154869627e+02
3.760000000000000142e+01 1.145205211213332035e+02
3.800000000000000000e+01 1.139832033911323492e+02
3.840000000000000568e+01 1.134546863516258242e+02
3.879999999999999716e+01 1.129347203243833917e+02
3.920000000000000284e+01 1.124230656700596853e+02
3.960000000000000142e+01 1.119194922681923572e+02
4.000000000000000000e+01 1.114237790298681858e+02
4.040000000000000568e+01 1.109357134408155190e+02
4.079999999999999716e+01 1.104550911326885796e+02
4.120000000000000284e+01 1.099817154804972432e+02
4.160000000000000142e+01 1.095153972243068949e+02
4.200000000000000000e+01 1.090559541134863650e+02
4.239999999999999858e+01 1.086032105719228582e+02
4.280000000000000426e+01 1.081569973827496653e+02
4.320000000000000284e+01 1.077171513912476257e+02
4.360000000000000142e+01 1.072835152246880739e+02
4.400000000000000000e+01 1.068559370279791949e+02
4.439999999999999858e+01 1.064342702140669985e+02
4.480000000000000426e+01 1.060183732281206659e+02
4.520000000000000284e+01 1.056081093246065166e+02
4.560000000000000142e+01 1.052033463564205817e+02
4.600000000000000000e+01 1.048039565753115880e+02
4.639999999999999858e+01 1.044098164428829136e+02
4.680000000000000426e+01 1.040208064515119872e+02
4.720000000000000284e+01 1.036368109545750826e+02
4.760000000000000142e+01 1.032577180054072130e+02
4.800000000000000000e+01 1.028834192044678559e+02
4.840000000000000568e+01 1.025138095542196766e+02
4.880000000000000426e+01 1.021487873212618354e+02
4.920000000000000284e+01 1.017882539052902473e+02
4.960000000000000142e+01 1.014321137144862490e+02
5.000000000000000000e+01 1.010802740469624439e+02
5.040000000000000568e+01 1.007326449779181701e+02
5.080000000000000426e+01 1.003891392521807120e+02
5.120000000000000284e+01 1.000496721818292940e+02
5.160000000000000142e+01 9.971416154861788073e+01
5.200000000000000000e+01 9.938252751093241955e+01
5.240000000000000568e+01 9.905469251503333794e+01
5.280000000000000426e+01 9.873058121035086288e+01
5.320000000000000284e+01 9.841012036861474144e+01
5.360000000000000142e+01 9.809323880661412431e+01
5.400000000000000000e+01 9.777986731239468554e+01
5.440000000000000568e+01 9.746993857471321121e+01
5.480000000000000426e+01 9.716338711557973795e+01
5.520000000000000284e+01 9.686014922572786645e+01
5.560000000000000142e+01 9.656016290286332548e+01
5.600000000000000000e+01 9.626336779254972953e+01
5.640000000000000568e+01 9.596970513159858740e+01
5.680000000000000426e+01 9.567911769383835008e+01
5.720000000000000284e+01 9.539154973814456184e+01
5.760000000000000142e+01 9.510694695861997161e+01
5.800000000000000000e+01 9.482525643681947258e+01
5.840000000000000568e+01 9.454642659592082055e+01
5.880000000000000426e+01 9.427040715674789340e+01
5.920000000000000284e+01 9.399714909555765985e+01
5.960000000000000142e+01 9.372660460350772382e+01
6.000000000000000000e+01 9.345872704772527584e+01
6.040000000000000568e+01 9.319347093390297232e+01
6.080000000000000426e+01 9.293079187035071698e+01
6.120000000000000284e+01 9.267064653343656744e+01
6.160000000000000142e+01 9.241299263435394096e+01
6.200000000000000000e+01 9.215778888715385619e+01
6.240000000000000568e+01 9.190499497798654716e+01
6.280000000000000426e+01 9.165457153549766645e+01
6.320000000000000284e+01 9.140648010232825982e+01
6.360000000000000142e+01 9.116068310766976879e+01
6.400000000000000000e+01 9.091714384082790446e+01
6.440000000000000568e+01 9.067582642575179364e+01
6.480000000000001137e+01 9.043669579648658896e+01
6.520000000000000284e+01 9.019971767351006520e+01
6.559999999999999432e+01 8.996485854091557144e+01
6.600000000000000000e+01 8.973208562440558467e+01
6.640000000000000568e+01 8.950136687006198599e+01
6.680000000000001137e+01 8.927267092386048830e+01
6.720000000000000284e+01 8.904596711189842040e+01
6.759999999999999432e+01 8.882122542130680642e+01
6.800000000000000000e+01 8.859841648181806306e+01
6.840000000000000568e+01 8.837751154796390551e+01
6.880000000000001137e+01 8.815848248187657532e+01
6.920000000000000284e+01 8.794130173667035422e+01
6.959999999999999432e+01 8.772594234037978822e+01
7.000000000000000000e+01 8.751237788043242460e+01
7.040000000000000568e+01 8.730058248863538495e+01
7.080000000000001137e+01 8.709053082665562329e+01
7.120000000000000284e+01 8.688219807197432942e+01
7.159999999999999432e+01 8.667555990429769963e+01
7.200000000000000000e+01 8.647059249240616907e+01
7.240000000000000568e+01 8.626727248142555027e+01
7.280000000000001137e+01 8.606557698050407623e+01
7.320000000000000284e+01 8.586548355087998630e+01
7.359999999999999432e+01 8.566697019432504590e+01
7.400000000000000000e+01 8.547001534195015893e+01
7.440000000000000568e+01 8.527459784335920290e+01
7.479999999999999716e+01 8.508069695613909289e+01
7.520000000000000284e+01 8.488829233567278720e+01
7.560000000000000853e+01 8.469736402526416441e+01
7.600000000000000000e+01 8.450789244656353105e+01
7.640000000000000568e+01 8.431985839028227758e+01
7.679999999999999716e+01 8.413324300718724658e+01
7.720000000000000284e+01 8.394802779936385662e+01
7.760000000000000853e+01 8.376419461173975378e+01
7.800000000000000000e+01 8.358172562385850313e+01
7.840000000000000568e+01 8.340060334189536206e+01
7.879999999999999716e+01 8.322081059090670863e+01
7.920000000000000284e+01 8.304233050730465493e+01
7.960000000000000853e+01 8.286514653154955568e+01
8.000000000000000000e+01 8.268924240105246781e+01
8.040000000000000568e+01 8.251460214328088227e+01
8.079999999999999716e+01 8.234121006906072182e+01
8.120000000000000284e+01 8.216905076606748537e+01
8.160000000000000853e+01 8.199810909250135182e+01
8.200000000000000000e+01 8.182837017093874010e+01
8.240000000000000568e+01 8.165981938235569260e+01
8.279999999999999716e+01 8.149244236031645983e+01
8.320000000000000284e+01 8.132622498532265354e+01
8.360000000000000853e+01 8.116115337931715601e+01
8.400000000000000000e+01 8.099721390033815283e+01
8.440000000000000568e+01 8.083439313731804532e+01
8.479999999999999716e+01 8.067267790502313574e+01
8.520000000000000284e+01 8.051205523912911133e+01
8.560000000000000853e+01 8.035251239142812096e+01
8.600000000000000000e+01 8.019403682516342258e+01
8.640000000000000568e+01 8.003661621048766506e+01
8.680000000000001137e+01 7.988023842004048447e+01
8.720000000000000284e+01 7.972489152464217455e+01
8.760000000000000853e+01 7.957056378909960870e+01
8.800000000000000000e+01 7.941724366812104563e+01
8.840000000000000568e+01 7.926491980233629420e+01
8.880000000000001137e+01 7.911358101441931012e+01
8.920000000000000284e+01 7.896321630530985658e+01
8.960000000000000853e+01 7.881381485053124436e+01
9.000000000000000000e+01 7.866536599660156526e+01
9.040000000000000568e+01 7.851785925753523543e+01
9.080000000000001137e+01 7.837128431143227658e+01
9.120000000000000284e+01 7.822563099715287649e+01
9.160000000000000853e+01 7.808088931107451458e+01
9.200000000000000000e+01 7.793704940392939307e+01
9.240000000000000568e+01 7.779410157771962986e+01
9.280000000000001137e+01 7.765203628270816694e+01
9.320000000000000284e+01 7.751084411448303513e+01
9.360000000000000853e+01 7.737051581109288634e+01
9.400000000000000000e+01 7.723104225025176106e+01
9.440000000000000568e+01 7.709241444661128639e+01
9.480000000000001137e+01 7.695462354909798819e+01
9.520000000000000284e+01 7.681766083831419678e+01
9.560000000000000853e+01 7.668151772400072730e+01
9.600000000000000000e+01 7.654618574255941610e+01
9.640000000000000568e+01 7.641165655463400697e+01
9.680000000000001137e+01 7.627792194274779547e+01
9.720000000000000284e+01 7.614497380899607037e+01
9.760000000000000853e+01 7.601280417279257051e+01
9.800000000000000000e+01 7.588140516866764074e+01
9.840000000000000568e+01 7.575076904411741907e+01
9.880000000000001137e+01 7.562088815750198023e+01
9.920000000000000284e+01 7.549175497599171081e+01
9.960000000000000853e+01 7.536336207356028183e+01
1.000000000000000000e+02 7.523570212902291132e+01
1.004000000000000057e+02 7.510876792411895053e+01
1.008000000000000114e+02 7.498255234163754324e+01
1.012000000000000028e+02 7.485704836358499392e+01
1.016000000000000085e+02 7.473224906939290690e+01
1.020000000000000000e+02 7.460814763416634321e+01
1.024000000000000057e+02 7.448473732697009098e+01
1.028000000000000114e+02 7.436201150915309199e+01
1.032000000000000028e+02 7.423996363270923382e+01
1.036000000000000085e+02 7.411858723867391063e+01
1.040000000000000000e+02 7.399787595555552855e+01
1.044000000000000057e+02 7.387782349780064806e+01
1.048000000000000114e+02 7.375842366429242247e+01
1.052000000000000028e+02 7.363967033688101083e+01
1.056000000000000085e+02 7.352155747894565252e+01
1.060000000000000000e+02 7.340407913398686901e+01
1.064000000000000057e+02 7.328722942424899145e+01
1.068000000000000114e+02 7.317100254937140846e+01
1.072000000000000028e+02 7.305539278506827827e+01
1.076000000000000085e+02 7.294039448183579566e+01
1.080000000000000000e+02 7.282600206368658746e+01
1.084000000000000057e+02 7.271221002691018498e+01
1.088000000000000114e+02 7.259901293885923224e+01
1.092000000000000028e+02 7.248640543676069115e+01
1.096000000000000085e+02 7.237438222655154618e+01
1.100000000000000000e+02 7.226293808173805644e+01
1.104000000000000057e+02 7.215206784227856929e+01
1.108000000000000114e+02 7.204176641348870191e+01
1.112000000000000028e+02 7.193202876496891918e+01
1.116000000000000085e+02 7.182284992955345615e+01
1.120000000000000000e+02 7.171422500228052854e+01
1.124000000000000057e+02 7.160614913938304937e+01
1.128000000000000114e+02 7.149861755729935453e+01
1.132000000000000028e+02 7.139162553170366721e+01
1.136000000000000085e+02 7.128516839655573278e+01
1.140000000000000000e+02 7.117924154316901308e+01
1.144000000000000057e+02 7.107384041929734053e+01
1.148000000000000114e+02 7.096896052823930745e+01
1.152000000000000028e+02 7.086459742796017736e+01
1.156000000000000085e+02 7.076074673023066453e+01
1.160000000000000000e+02 7.065740409978263870e+01
1.164000000000000057e+02 7.055456525348077435e+01
1.168000000000000114e+02 7.045222595951030087e+01
1.172000000000000028e+02 7.035038203658037048e+01
1.176000000000000085e+02 7.024902935314224806e+01
1.180000000000000000e+02 7.014816382662269234e+01
1.184000000000000057e+02 7.004778142267167595e+01
1.188000000000000114e+02 6.994787815442438728e+01
1.192000000000000028e+02 6.984845008177686054e+01
1.196000000000000085e+02 6.974949331067548997e+01
1.200000000000000000e+02 6.965100399241958939e+01
1.204000000000000057e+02 6.955297832297688387e+01
1.208000000000000114e+02 6.945541254231190464e+01
1.212000000000000028e+02 6.935830293372643496e+01
1.216000000000000085e+02 6.926164582321240459e+01
1.220000000000000000e+02 6.916543757881655097e+01
1.224000000000000057e+02 6.906967461001650577e+01
1.228000000000000114e+02 6.897435336710856291e+01
1.232000000000000028e+02 6.887947034060624674e+01
1.236000000000000085e+02 6.878502206064996471e+01
1.240000000000000000e+02 6.869100509642711927e+01
1.244000000000000057e+02 6.859741605560287780e+01
1.248000000000000114e+02 6.850425158376080503e+01
1.252000000000000028e+02 6.841150836385386924e+01
1.256000000000000085e+02 6.831918311566474245e+01
1.260000000000000000e+02 6.822727259527607657e+01
1.264000000000000057e+02 6.813577359454993143e+01
1.268000000000000114e+02 6.804468294061638289e+01
1.272000000000000028e+02 6.795399749537108391e+01
1.276000000000000085e+02 6.786371415498176418e+01
1.280000000000000000e+02 6.777382984940302890e+01
1.284000000000000057e+02 6.768434154189995411e+01
1.288000000000000114e+02 6.759524622857962584e+01
1.291999999999999886e+02 6.750654093793090738e+01
1.296000000000000227e+02 6.741822273037209357e+01
1.300000000000000000e+02 6.733028869780638104e+01
1.304000000000000057e+02 6.724273596318481339e+01
1.308000000000000114e+02 6.715556168007670124e+01
1.311999999999999886e+02 6.706876303224751723e+01
1.316000000000000227e+02 6.698233723324362643e+01
1.320000000000000000e+02 6.689628152598432109e+01
1.324000000000000057e+02 6.681059318236052036e+01
1.328000000000000114e+02 6.672526950284023428e+01
1.331999999999999886e+02 6.664030781608077803e+01
1.336000000000000227e+02 6.655570547854715358e+01
1.340000000000000000e+02 6.647145987413708212e+01
1.344000000000000057e+02 6.638756841381200502e+01
1.348000000000000114e+02 6.630402853523435169e+01
1.351999999999999886e+02 6.622083770241056300e+01
1.356000000000000227e+02 6.613799340534032467e+01
1.360000000000000000e+02 6.605549315967110147e+01
1.364000000000000057e+02 6.597333450635861141e+01
1.368000000000000114e+02 6.589151501133272859e+01
1.371999999999999886e+02 6.581003226516884297e+01
1.376000000000000227e+02 6.572888388276433602e+01
1.380000000000000000e+02 6.564806750302061289e+01
1.384000000000000057e+02 6.556758078852985250e+01
1.388000000000000114e+02 6.548742142526714360e+01
1.392000000000000171e+02 6.540758712228718252e+01
1.395999999999999943e+02 6.532807561142611519e+01
1.400000000000000000e+02 6.524888464700786983e+01
1.404000000000000057e+02 6.517001200555526452e+01
1.408000000000000114e+02 6.509145548550564797e+01
1.412000000000000171e+02 6.501321290693098831e+01
1.415999999999999943e+02 6.493528211126235306e+01
1.420000000000000000e+02 6.485766096101870914e+01
1.424000000000000057e+02 6.478034733953995783e+01
1.428000000000000114e+02 6.470333915072411912e+01
1.432000000000000171e+02 6.462663431876852371e+01
1.435999999999999943e+02 6.455023078791512603e+01
1.440000000000000000e+02 6.447412652219964002e+01
1.444000000000000057e+02 6.439831950520454029e+01
1.448000000000000114e+02 6.432280773981592858e+01
1.452000000000000171e+02 6.424758924798396720e+01
1.455999999999999943e+02 6.417266207048713511e+01
1.460000000000000000e+02 6.409802426669990894e+01
1.464000000000000057e+02 6.402367391436406763e+01
1.468000000000000114e+02 6.394960910936340071e+01
1.472000000000000171e+02 6.387582796550183417e+01
1.475999999999999943e+02 6.380232861428483204e+01
1.480000000000000000e+02 6.372910920470411611e+01
1.484000000000000057e+02 6.365616790302567551e+01
1.488000000000000114e+02 6.358350289258079613e+01
1.492000000000000171e+02 6.351111237356016659e+01
1.495999999999999943e+02 6.343899456281131677e+01
1.500000000000000000e+02 6.336714769363863553e+01
