1.000000000000000000e+01 1.270556964275367875e+02
1.040000000000000036e+01 1.264641409347442504e+02
1.080000000000000071e+01 1.259721078362040600e+02
1.119999999999999929e+01 1.255646009203232012e+02
1.159999999999999964e+01 1.252282691057413615e+02
1.200000000000000000e+01 1.265231952456787354e+02
1.240000000000000036e+01 1.262743593931506894e+02
1.280000000000000071e+01 1.323158145411302939e+02
1.319999999999999929e+01 1.366044914740164700e+02
1.359999999999999964e+01 1.423790065290935161e+02
1.400000000000000000e+01 1.464683785550005268e+02
1.440000000000000036e+01 1.504558660856836809e+02
1.480000000000000071e+01 1.582605435202366380e+02
1.519999999999999929e+01 1.682400028673009729e+02
1.560000000000000142e+01 1.889576985476924165e+02
1.600000000000000000e+01 1.909397819762546362e+02
1.639999999999999858e+01 1.876170789635160645e+02
1.680000000000000071e+01 1.845169782801427800e+02
1.719999999999999929e+01 1.816131689605862221e+02
1.760000000000000142e+01 1.788837102678621420e+02
1.800000000000000000e+01 1.763101150079643276e+02
1.839999999999999858e+01 1.738766613587989411e+02
1.880000000000000071e+01 1.715698680655920327e+02
1.920000000000000284e+01 1.693780885487251169e+02
1.960000000000000142e+01 1.672911929757440532e+02
2.000000000000000000e+01 1.653003163594709690e+02
2.039999999999999858e+01 1.633976568752775336e+02
2.080000000000000071e+01 1.615763128380392004e+02
2.120000000000000284e+01 1.598301497702047698e+02
2.160000000000000142e+01 1.581536911301419366e+02
2.200000000000000000e+01 1.565420278189057797e+02
2.239999999999999858e+01 1.549907427201919461e+02
2.280000000000000071e+01 1.534958473720490133e+02
2.320000000000000284e+01 1.520537285021552805e+02
2.360000000000000142e+01 1.506611026384722436e+02
2.400000000000000000e+01 1.493149773743609785e+02
2.439999999999999858e+01 1.480126181507374667e+02
2.480000000000000071e+01 1.467515196384601950e+02
2.520000000000000284e+01 1.455293809771548865e+02
2.560000000000000142e+01 1.443440842633463319e+02
2.600000000000000000e+01 1.431936757894575294e+02
2.640000000000000213e+01 1.420763496222350568e+02
2.680000000000000071e+01 1.409904331792214975e+02
2.719999999999999929e+01 1.399343745186406238e+02
2.760000000000000142e+01 1.389067311042750532e+02
2.800000000000000000e+01 1.379061598447441099e+02
2.840000000000000213e+01 1.369314082377117643e+02
2.880000000000000071e+01 1.359813064752730440e+02
2.920000000000000284e+01 1.350547603881219629e+02
2.960000000000000142e+01 1.341507451239065460e+02
3.000000000000000000e+01 1.332682994700787731e+02
3.040000000000000213e+01 1.324065207440730205e+02
3.080000000000000071e+01 1.315645601842104497e+02
3.120000000000000284e+01 1.307416187836702193e+02
3.160000000000000142e+01 1.299369435174648970e+02
3.200000000000000000e+01 1.291498239188313732e+02
3.240000000000000568e+01 1.283795889669838743e+02
3.279999999999999716e+01 1.276256042529194303e+02
3.320000000000000284e+01 1.268872693940500369e+02
3.360000000000000142e+01 1.261640156719536208e+02
3.400000000000000000e+01 1.254553038705797121e+02
3.440000000000000568e+01 1.247606222948855361e+02
3.479999999999999716e+01 1.240794849521700911e+02
3.520000000000000284e+01 1.234114298803731486e+02
3.560000000000000142e+01 1.227560176093506215e+02
3.600000000000000000e+01 1.221128297426652694e+02
3.640000000000000568e+01 1.214814676487709448e+02
3.679999999999999716e+01 1.208615512516472990e+02
3.720000000000000284e+01 1.202527179119782375e+02
3.760000000000000142e+01 1.196546213908838041e+02
3.800000000000000000e+01 1.190669308890239506e+02
3.840000000000000568e+01 1.184893301546110251e+02
3.879999999999999716e+01 1.179215166545030939e+02
3.920000000000000284e+01 1.173632008031173655e+02
3.960000000000000142e+01 1.168141052444067043e+02
4.000000000000000000e+01 1.162739641825912997e+02
4.040000000000000568e+01 1.157425227577401188e+02
4.079999999999999716e+01 1.152195364626560092e+02
4.120000000000000284e+01 1.147047705978406782e+02
4.160000000000000142e+01 1.141979997616044784e+02
4.200000000000000000e+01 1.136990073726470030e+02
4.239999999999999858e+01 1.132075852226671202e+02
4.280000000000000426e+01 1.127235330567733911e+02
4.320000000000000284e+01 1.122466581796553697e+02
4.360000000000000142e+01 1.117767750856481968e+02
4.400000000000000000e+01 1.113137051109791571e+02
4.439999999999999858e+01 1.108572761066259886e+02
4.480000000000000426e+01 1.104073221303433172e+02
4.520000000000000284e+01 1.099636831565318573e+02
4.560000000000000142e+01 1.095262048027286710e+02
4.600000000000000000e+01 1.090947380715942785e+02
4.639999999999999858e+01 1.086691391073593422e+02
4.680000000000000426e+01 1.082492689657731262e+02
4.720000000000000284e+01 1.078349933966704270e+02
4.760000000000000142e+01 1.074261826383384175e+02
4.800000000000000000e+01 1.070227112229271427e+02
4.840000000000000568e+01 1.066244577922026906e+02
4.880000000000000426e+01 1.062313049229936013e+02
4.920000000000000284e+01 1.058431389617278313e+02
4.960000000000000142e+01 1.054598498675004805e+02
5.000000000000000000e+01 1.050813310631528736e+02
5.040000000000000568e+01 1.047074792938794587e+02
5.080000000000000426e+01 1.043381944929125780e+02
5.120000000000000284e+01 1.039733796538664592e+02
5.160000000000000142e+01 1.036129407093501840e+02
5.200000000000000000e+01 1.032567864154855499e+02
5.240000000000000568e+01 1.029048282419902591e+02
5.280000000000000426e+01 1.025569802675095303e+02
5.320000000000000284e+01 1.022131590798994409e+02
5.360000000000000142e+01 1.018732836811854554e+02
5.400000000000000000e+01 1.015372753969365647e+02
5.440000000000000568e+01 1.012050577898128267e+02
5.480000000000000426e+01 1.008765565770586079e+02
5.520000000000000284e+01 1.005516995517289160e+02
5.560000000000000142e+01 1.002304165074489504e+02
5.600000000000000000e+01 9.991263916651939780e+01
5.640000000000000568e+01 9.959830111119151752e+01
5.680000000000000426e+01 9.928733771794674112e+01
5.720000000000000284e+01 9.897968609462550660e+01
5.760000000000000142e+01 9.867528502025908210e+01
5.800000000000000000e+01 9.837407488746690376e+01
5.840000000000000568e+01 9.807599764729019398e+01
5.880000000000000426e+01 9.778099675633978904e+01
5.920000000000000284e+01 9.748901712614346593e+01
5.960000000000000142e+01 9.720000507458431116e+01
6.000000000000000000e+01 9.691390827932809771e+01
6.040000000000000568e+01 9.663067573314344827e+01
6.080000000000000426e+01 9.635025770102339493e+01
6.120000000000000284e+01 9.607260567902278581e+01
6.160000000000000142e+01 9.579767235473002529e+01
6.200000000000000000e+01 9.552541156929639499e+01
6.240000000000000568e+01 9.525577828095062216e+01
6.280000000000000426e+01 9.498872852992948879e+01
6.320000000000000284e+01 9.472421940475982183e+01
6.360000000000000142e+01 9.446220900982993385e+01
6.400000000000000000e+01 9.420265643419270418e+01
6.440000000000000568e+01 9.394552172154385516e+01
6.480000000000001137e+01 9.369076584132454855e+01
6.520000000000000284e+01 9.343835066089705776e+01
6.559999999999999432e+01 9.318823891874718868e+01
6.600000000000000000e+01 9.294039419866825824e+01
6.640000000000000568e+01 9.269478090488439648e+01
6.680000000000001137e+01 9.245136423807220183e+01
6.720000000000000284e+01 9.221011017224284956e+01
6.759999999999999432e+01 9.197098543244783286e+01
6.800000000000000000e+01 9.173395747327376171e+01
6.840000000000000568e+01 9.149899445809293752e+01
6.880000000000001137e+01 9.126606523903848256e+01
6.920000000000000284e+01 9.103513933767405319e+01
6.959999999999999432e+01 9.080618692632930333e+01
7.000000000000000000e+01 9.057917881007456629e+01
7.040000000000000568e+01 9.035408640930813817e+01
7.080000000000001137e+01 9.013088174293204702e+01
7.120000000000000284e+01 8.990953741209258965e+01
7.159999999999999432e+01 8.969002658446288478e+01
7.200000000000000000e+01 8.947232297904668030e+01
7.240000000000000568e+01 8.925640085148245362e+01
7.280000000000001137e+01 8.904223497982837898e+01
7.320000000000000284e+01 8.882980065080974441e+01
7.359999999999999432e+01 8.861907364651064256e+01
7.400000000000000000e+01 8.841003023149347939e+01
7.440000000000000568e+01 8.820264714032938969e+01
7.479999999999999716e+01 8.799690156552452436e+01
7.520000000000000284e+01 8.779277114582708919e+01
7.560000000000000853e+01 8.759023395490106623e+01
7.600000000000000000e+01 8.738926849035260602e+01
7.640000000000000568e+01 8.718985366309692608e+01
7.679999999999999716e+01 8.699196878705214431e+01
7.720000000000000284e+01 8.679559356914889179e+01
7.760000000000000853e+01 8.660070809964415162e+01
7.800000000000000000e+01 8.640729284272796917e+01
7.840000000000000568e+01 8.621532862741307213e+01
7.879999999999999716e+01 8.602479663869667093e+01
7.920000000000000284e+01 8.583567840898558643e+01
7.960000000000000853e+01 8.564795580977481393e+01
8.000000000000000000e+01 8.546161104357074123e+01
8.040000000000000568e+01 8.527662663605076432e+01
8.079999999999999716e+01 8.509298542845101565e+01
8.120000000000000284e+01 8.491067057017392017e+01
8.160000000000000853e+01 8.472966551160888571e+01
8.200000000000000000e+01 8.454995399715795656e+01
8.240000000000000568e+01 8.437152005846022007e+01
8.279999999999999716e+01 8.419434800780786077e+01
8.320000000000000284e+01 8.401842243174743885e+01
8.360000000000000853e+01 8.384372818486045276e+01
8.400000000000000000e+01 8.367025038371713208e+01
8.440000000000000568e+01 8.349797440099750645e+01
8.479999999999999716e+01 8.332688585977473394e+01
8.520000000000000284e+01 8.315697062795501893e+01
8.560000000000000853e+01 8.298821481286911705e+01
8.600000000000000000e+01 8.282060475601062421e+01
8.640000000000000568e+01 8.265412702791616084e+01
8.680000000000001137e+01 8.248876842318333047e+01
8.720000000000000284e+01 8.232451595562139346e+01
8.760000000000000853e+01 8.216135685353090423e+01
8.800000000000000000e+01 8.199927855510856034e+01
8.840000000000000568e+01 8.183826870397230380e+01
8.880000000000001137e+01 8.167831514480420196e+01
8.920000000000000284e+01 8.151940591910656053e+01
8.960000000000000853e+01 8.136152926106782957e+01
9.000000000000000000e+01 8.120467359353557413e+01
9.040000000000000568e+01 8.104882752409258728e+01
9.080000000000001137e+01 8.089397984123323226e+01
9.120000000000000284e+01 8.074011951063693004e+01
9.160000000000000853e+01 8.058723567153612066e+01
9.200000000000000000e+01 8.043531763317551508e+01
9.240000000000000568e+01 8.028435487136002280e+01
9.280000000000001137e+01 8.013433702508892509e+01
9.320000000000000284e+01 7.998525389327338075e+01
9.360000000000000853e+01 7.983709543153523214e+01
9.400000000000000000e+01 7.968985174908438296e+01
9.440000000000000568e+01 7.954351310567258793e+01
9.480000000000001137e+01 7.939806990862157932e+01
9.520000000000000284e+01 7.925351270992305786e+01
9.560000000000000853e+01 7.910983220340884259e+01
9.600000000000000000e+01 7.896701922198892021e+01
9.640000000000000568e+01 7.882506473495553223e+01
9.680000000000001137e+01 7.868395984535158050e+01
9.720000000000000284e+01 7.854369578740119096e+01
9.760000000000000853e+01 7.840426392400108568e+01
9.800000000000000000e+01 7.826565574427083050e+01
9.840000000000000568e+01 7.812786286116016754e+01
9.880000000000001137e+01 7.799087700911252341e+01
9.920000000000000284e+01 7.785469004178207797e+01
9.960000000000000853e+01 7.771929392980398177e+01
1.000000000000000000e+02 7.758468075861559043e+01
1.004000000000000057e+02 7.745084272632752231e+01
1.008000000000000114e+02 7.731777214164338830e+01
1.012000000000000028e+02 7.718546142182647429e+01
1.016000000000000085e+02 7.705390309071241006e+01
1.020000000000000000e+02 7.692308977676667325e+01
1.024000000000000057e+02 7.679301421118532289e+01
1.028000000000000114e+02 7.666366922603830858e+01
1.032000000000000028e+02 7.653504775245387748e+01
1.036000000000000085e+02 7.640714281884307013e+01
1.040000000000000000e+02 7.627994754916350928e+01
1.044000000000000057e+02 7.615345516122094693e+01
1.048000000000000114e+02 7.602765896500822862e+01
1.052000000000000028e+02 7.590255236108009740e+01
1.056000000000000085e+02 7.577812883896325502e+01
1.060000000000000000e+02 7.565438197560089861e+01
1.064000000000000057e+02 7.553130543383034023e+01
1.068000000000000114e+02 7.540889296089346772e+01
1.072000000000000028e+02 7.528713838697876781e+01
1.076000000000000085e+02 7.516603562379430059e+01
1.080000000000000000e+02 7.504557866317102821e+01
1.084000000000000057e+02 7.492576157569510542e+01
1.088000000000000114e+02 7.480657850936938758e+01
1.092000000000000028e+02 7.468802368830240823e+01
1.096000000000000085e+02 7.457009141142489739e+01
1.100000000000000000e+02 7.445277605123285980e+01
1.104000000000000057e+02 7.433607205255647443e+01
1.108000000000000114e+02 7.421997393135430343e+01
1.112000000000000028e+02 7.410447627353246958e+01
1.116000000000000085e+02 7.398957373378745217e+01
1.120000000000000000e+02 7.387526103447281400e+01
1.124000000000000057e+02 7.376153296448855201e+01
1.128000000000000114e+02 7.364838437819311423e+01
1.132000000000000028e+02 7.353581019433704569e+01
1.136000000000000085e+02 7.342380539501800740e+01
1.140000000000000000e+02 7.331236502465684168e+01
1.144000000000000057e+02 7.320148418899361786e+01
1.148000000000000114e+02 7.309115805410380062e+01
1.152000000000000028e+02 7.298138184543375928e+01
1.156000000000000085e+02 7.287215084685513489e+01
1.160000000000000000e+02 7.276346039973775248e+01
1.164000000000000057e+02 7.265530590204065220e+01
1.168000000000000114e+02 7.254768280742067077e+01
1.172000000000000028e+02 7.244058662435843132e+01
1.176000000000000085e+02 7.233401291530088884e+01
1.180000000000000000e+02 7.222795729582074387e+01
1.184000000000000057e+02 7.212241543379154507e+01
1.188000000000000114e+02 7.201738304857886419e+01
1.192000000000000028e+02 7.191285591024650614e+01
1.196000000000000085e+02 7.180882983877812364e+01
1.200000000000000000e+02 7.170530070331314221e+01
1.204000000000000057e+02 7.160226442139727965e+01
1.208000000000000114e+02 7.149971695824703488e+01
1.212000000000000028e+02 7.139765432602796125e+01
1.216000000000000085e+02 7.129607258314617013e+01
1.220000000000000000e+02 7.119496783355326386e+01
1.224000000000000057e+02 7.109433622606383096e+01
1.228000000000000114e+02 7.099417395368567441e+01
1.232000000000000028e+02 7.089447725296223268e+01
1.236000000000000085e+02 7.079524240332708018e+01
1.240000000000000000e+02 7.069646572647015148e+01
1.244000000000000057e+02 7.059814358571537696e+01
1.248000000000000114e+02 7.050027238540982921e+01
1.252000000000000028e+02 7.040284857032362709e+01
1.256000000000000085e+02 7.030586862506069679e+01
1.260000000000000000e+02 7.020932907348017693e+01
1.264000000000000057e+02 7.011322647812799858e+01
1.268000000000000114e+02 7.001755743967868284e+01
1.272000000000000028e+02 6.992231859638698666e+01
1.276000000000000085e+02 6.982750662354925453e+01
1.280000000000000000e+02 6.973311823297427736e+01
1.284000000000000057e+02 6.963915017246328887e+01
1.288000000000000114e+02 6.954559922529931271e+01
1.291999999999999886e+02 6.945246220974519247e+01
1.296000000000000227e+02 6.935973597855038975e+01
1.300000000000000000e+02 6.926741741846643663e+01
1.304000000000000057e+02 6.917550344977063048e+01
1.308000000000000114e+02 6.908399102579792839e+01
1.311999999999999886e+02 6.899287713248095599e+01
1.316000000000000227e+02 6.890215878789780390e+01
1.320000000000000000e+02 6.881183304182755478e+01
1.324000000000000057e+02 6.872189697531331376e+01
1.328000000000000114e+02 6.863234770023277065e+01
1.331999999999999886e+02 6.854318235887581068e+01
1.336000000000000227e+02 6.845439812352938702e+01
1.340000000000000000e+02 6.836599219606937083e+01
1.344000000000000057e+02 6.827796180755899513e+01
1.348000000000000114e+02 6.819030421785430462e+01
1.351999999999999886e+02 6.810301671521591516e+01
1.356000000000000227e+02 6.801609661592738121e+01
1.360000000000000000e+02 6.792954126391960301e+01
1.364000000000000057e+02 6.784334803040178485e+01
1.368000000000000114e+02 6.775751431349817722e+01
1.371999999999999886e+02 6.767203753789070220e+01
1.376000000000000227e+02 6.758691515446776066e+01
1.380000000000000000e+02 6.750214463997831160e+01
1.384000000000000057e+02 6.741772349669190589e+01
1.388000000000000114e+02 6.733364925206399221e+01
1.392000000000000171e+02 6.724991945840673679e+01
1.395999999999999943e+02 6.716653169256505862e+01
1.400000000000000000e+02 6.708348355559783727e+01
1.404000000000000057e+02 6.700077267246436463e+01
1.408000000000000114e+02 6.691839669171552885e+01
1.412000000000000171e+02 6.683635328519011409e+01
1.415999999999999943e+02 6.675464014771583265e+01
1.420000000000000000e+02 6.667325499681497547e+01
1.424000000000000057e+02 6.659219557241492282e+01
1.428000000000000114e+02 6.651145963656290405e+01
1.432000000000000171e+02 6.643104497314541845e+01
1.435999999999999943e+02 6.635094938761204730e+01
1.440000000000000000e+02 6.627117070670333021e+01
1.444000000000000057e+02 6.619170677818308945e+01
1.448000000000000114e+02 6.611255547057486126e+01
1.452000000000000171e+02 6.603371467290222085e+01
1.455999999999999943e+02 6.595518229443325708e+01
1.460000000000000000e+02 6.587695626442894081e+01
1.464000000000000057e+02 6.579903453189520235e+01
1.468000000000000114e+02 6.572141506533905897e+01
1.472000000000000171e+02 6.564409585252806778e+01
1.475999999999999943e+02 6.556707490025380025e+01
1.480000000000000000e+02 6.549035023409855683e+01
1.484000000000000057e+02 6.541391989820584740e+01
1.488000000000000114e+02 6.533778195505423980e+01
1.492000000000000171e+02 6.526193448523444829e+01
1.495999999999999943e+02 6.518637558722994640e+01
1.500000000000000000e+02 6.511110337720079144e+01
