1.000000000000000000e+01 1.058052276582594686e+02
1.040000000000000036e+01 1.074524559787958111e+02
1.080000000000000071e+01 1.092531743280297007e+02
1.119999999999999929e+01 1.122170959801764525e+02
1.159999999999999964e+01 1.090877425194251202e+02
1.200000000000000000e+01 1.063043245666011387e+02
1.240000000000000036e+01 1.038032957634293467e+02
1.280000000000000071e+01 9.885046758044811099e+01
1.319999999999999929e+01 9.560581583223657276e+01
1.359999999999999964e+01 9.266423493374091436e+01
1.400000000000000000e+01 8.998018724738145124e+01
1.440000000000000036e+01 8.751733387422160604e+01
1.480000000000000071e+01 8.524624549699893805e+01
1.519999999999999929e+01 8.314277987539793457e+01
1.560000000000000142e+01 8.118690628507667384e+01
1.600000000000000000e+01 7.936183724404770601e+01
1.639999999999999858e+01 7.765337622187786337e+01
1.680000000000000071e+01 7.604942014677240536e+01
1.719999999999999929e+01 7.458074364232288644e+01
1.760000000000000142e+01 7.332717891409549793e+01
1.800000000000000000e+01 7.213351273758250670e+01
1.839999999999999858e+01 7.099502563930801102e+01
1.880000000000000071e+01 6.990751250828921570e+01
1.920000000000000284e+01 6.886721146676876515e+01
1.960000000000000142e+01 6.787074459114751335e+01
2.000000000000000000e+01 6.691506818608661433e+01
2.039999999999999858e+01 6.599743081992291138e+01
2.080000000000000071e+01 6.511533771104299717e+01
2.120000000000000284e+01 6.426652034589594109e+01
2.160000000000000142e+01 6.344891043343083936e+01
2.200000000000000000e+01 6.266061747482817879e+01
2.239999999999999858e+01 6.189990936371702190e+01
2.280000000000000071e+01 5.903402428270312896e+01
2.320000000000000284e+01 5.835521288419235475e+01
2.360000000000000142e+01 5.769913228306756992e+01
2.400000000000000000e+01 5.706452592952778957e+01
2.439999999999999858e+01 5.645023330958235164e+01
2.480000000000000071e+01 5.585518063401859479e+01
2.520000000000000284e+01 5.527837261545515446e+01
2.560000000000000142e+01 5.471888518535372725e+01
2.600000000000000000e+01 5.417585902578886703e+01
2.640000000000000213e+01 5.364849380973882376e+01
2.680000000000000071e+01 5.313604305941856865e+01
2.719999999999999929e+01 5.263780954532276724e+01
2.760000000000000142e+01 5.215314115965846753e+01
2.800000000000000000e+01 5.168142720710864779e+01
2.840000000000000213e+01 5.118305858620450977e+01
2.880000000000000071e+01 5.073935449250789986e+01
2.920000000000000284e+01 5.032526773974913681e+01
2.960000000000000142e+01 4.992200684706348568e+01
3.000000000000000000e+01 4.952909933335888581e+01
3.040000000000000213e+01 4.914610125991595169e+01
3.080000000000000071e+01 4.877259504517033406e+01
3.120000000000000284e+01 4.840818748090086387e+01
3.160000000000000142e+01 4.805250792821836114e+01
3.200000000000000000e+01 4.770520667438394469e+01
3.240000000000000568e+01 4.736595343376065159e+01
3.279999999999999716e+01 4.703443597817300770e+01
3.320000000000000284e+01 4.671035888365946676e+01
3.360000000000000142e+01 4.639344238209260141e+01
3.400000000000000000e+01 4.608342130743871223e+01
3.440000000000000568e+01 4.578004412756526165e+01
3.479999999999999716e+01 4.548307205349765070e+01
3.520000000000000284e+01 4.519227821889987240e+01
3.560000000000000142e+01 4.490744692332121701e+01
3.600000000000000000e+01 4.519699379701556552e+01
3.640000000000000568e+01 4.494095101851524277e+01
3.679999999999999716e+01 4.468976100294064935e+01
3.720000000000000284e+01 4.444326861103029103e+01
3.760000000000000142e+01 4.420132560328450211e+01
3.800000000000000000e+01 4.396379024957271042e+01
3.840000000000000568e+01 4.373052696542730189e+01
3.879999999999999716e+01 4.350140597289318123e+01
3.920000000000000284e+01 4.327630298399650854e+01
3.960000000000000142e+01 4.305509890507009629e+01
4.000000000000000000e+01 4.283767956032940560e+01
4.040000000000000568e+01 4.262393543323480571e+01
4.079999999999999716e+01 4.241376142430199536e+01
4.120000000000000284e+01 4.220705662413810444e+01
4.160000000000000142e+01 4.200372410058434980e+01
4.200000000000000000e+01 4.180367069894008836e+01
4.239999999999999858e+01 4.160680685432787129e+01
4.280000000000000426e+01 4.141304641533702835e+01
4.320000000000000284e+01 4.122230647815239735e+01
4.360000000000000142e+01 4.103455889506425081e+01
4.400000000000000000e+01 4.084982235586493005e+01
4.439999999999999858e+01 4.066784534575248244e+01
4.480000000000000426e+01 4.048855785120040451e+01
4.520000000000000284e+01 4.031189234587614578e+01
4.560000000000000142e+01 4.013778367764454913e+01
4.600000000000000000e+01 3.996616896180105982e+01
4.639999999999999858e+01 3.979698748013217369e+01
4.680000000000000426e+01 3.963018058542991895e+01
4.720000000000000284e+01 3.946569161111491297e+01
4.760000000000000142e+01 3.930346578564725490e+01
4.800000000000000000e+01 3.914345015142777129e+01
4.840000000000000568e+01 3.898559348791335566e+01
4.880000000000000426e+01 3.882984623868935614e+01
4.920000000000000284e+01 3.867616044226002714e+01
4.960000000000000142e+01 3.852448966633480154e+01
5.000000000000000000e+01 3.837478894540304708e+01
5.040000000000000568e+01 3.822701472140411028e+01
5.080000000000000426e+01 3.808112478731281669e+01
5.120000000000000284e+01 3.793707823347184416e+01
5.160000000000000142e+01 3.779483539651435819e+01
5.200000000000000000e+01 3.765435781072991972e+01
5.240000000000000568e+01 3.751560816173665103e+01
5.280000000000000426e+01 3.732503177344872825e+01
5.320000000000000284e+01 3.488694352066136872e+01
5.360000000000000142e+01 3.474556715975400323e+01
5.400000000000000000e+01 3.460591103726218165e+01
5.440000000000000568e+01 3.446794012870107338e+01
5.480000000000000426e+01 3.433162040559309247e+01
5.520000000000000284e+01 3.419691879920510047e+01
5.560000000000000142e+01 3.406380316589132917e+01
5.600000000000000000e+01 3.393224225395889704e+01
5.640000000000000568e+01 3.380220567197694237e+01
5.680000000000000426e+01 3.367366385845546262e+01
5.720000000000000284e+01 3.354658805282429768e+01
5.760000000000000142e+01 3.342095026764661014e+01
5.800000000000000000e+01 3.329672326200524424e+01
5.840000000000000568e+01 3.317388051600354260e+01
5.880000000000000426e+01 3.305239620632587361e+01
5.920000000000000284e+01 3.293224518280601387e+01
5.960000000000000142e+01 3.281340294595456442e+01
6.000000000000000000e+01 3.269584562539907324e+01
6.040000000000000568e+01 3.257954995919345720e+01
6.080000000000000426e+01 3.246449327395539797e+01
6.120000000000000284e+01 3.235065346579266077e+01
6.160000000000000142e+01 3.223800898198166465e+01
6.200000000000000000e+01 3.212653880336326750e+01
6.240000000000000568e+01 3.201443108067588383e+01
6.280000000000000426e+01 3.190323165814309192e+01
6.320000000000000284e+01 3.179316932641240356e+01
6.360000000000000142e+01 3.168422466536474502e+01
6.400000000000000000e+01 3.157637871798739937e+01
6.440000000000000568e+01 3.146961297623936815e+01
6.480000000000001137e+01 3.136390936744115976e+01
6.520000000000000284e+01 3.125925024116635598e+01
6.559999999999999432e+01 3.115561835661298318e+01
6.600000000000000000e+01 3.105299687043427426e+01
6.640000000000000568e+01 3.095136932500899007e+01
6.680000000000001137e+01 3.085071963713279430e+01
6.720000000000000284e+01 3.075103208711272984e+01
6.759999999999999432e+01 3.065229130824808834e+01
6.800000000000000000e+01 3.055448227668146544e+01
6.840000000000000568e+01 3.045759030160475334e+01
6.880000000000001137e+01 3.036160101580535553e+01
6.920000000000000284e+01 3.026650036653889231e+01
6.959999999999999432e+01 3.017227460671506378e+01
7.000000000000000000e+01 3.007891028638391973e+01
7.040000000000000568e+01 2.998639424451073054e+01
7.080000000000001137e+01 2.989471360102781716e+01
7.120000000000000284e+01 2.980385574915230151e+01
7.159999999999999432e+01 2.971380834795949255e+01
7.200000000000000000e+01 2.962455931520176478e+01
7.240000000000000568e+01 2.953609682036341155e+01
7.280000000000001137e+01 2.944840927794252039e+01
7.320000000000000284e+01 2.936567119632368161e+01
7.359999999999999432e+01 2.928299218174419494e+01
7.400000000000000000e+01 2.920101380929359181e+01
7.440000000000000568e+01 2.911972612096356272e+01
7.479999999999999716e+01 2.903911935672869760e+01
7.520000000000000284e+01 2.895918394950230379e+01
7.560000000000000853e+01 2.887991052024866079e+01
7.600000000000000000e+01 2.880128987324599166e+01
7.640000000000000568e+01 2.872331299149469430e+01
7.679999999999999716e+01 2.864597103226557806e+01
7.720000000000000284e+01 2.856925532278307855e+01
7.760000000000000853e+01 2.849315735603865463e+01
7.800000000000000000e+01 2.841570365072338689e+01
7.840000000000000568e+01 2.833770641395602752e+01
7.879999999999999716e+01 2.826033514301196448e+01
7.920000000000000284e+01 2.818358144220545114e+01
7.960000000000000853e+01 2.810743707328982310e+01
8.000000000000000000e+01 2.803189395167458997e+01
8.040000000000000568e+01 2.795694414275329720e+01
8.079999999999999716e+01 2.788257985833809016e+01
8.120000000000000284e+01 2.780879345319746676e+01
8.160000000000000853e+01 2.773557742169369078e+01
8.200000000000000000e+01 2.766292439451638074e+01
8.240000000000000568e+01 2.759082713550924026e+01
8.279999999999999716e+01 2.751927853858659745e+01
8.320000000000000284e+01 2.744827162473688276e+01
8.360000000000000853e+01 2.737779953911019959e+01
8.400000000000000000e+01 2.730724079510208924e+01
8.440000000000000568e+01 2.723639455283482746e+01
8.479999999999999716e+01 2.716607930462635778e+01
8.520000000000000284e+01 2.709628840332241850e+01
8.560000000000000853e+01 2.702701531818317449e+01
8.600000000000000000e+01 2.695825363226886751e+01
8.640000000000000568e+01 2.688999703989707513e+01
8.680000000000001137e+01 2.682223934416902011e+01
8.720000000000000284e+01 2.675497445456305812e+01
8.760000000000000853e+01 2.668819638459273591e+01
8.800000000000000000e+01 2.662189924952791031e+01
8.840000000000000568e+01 2.655607726417647996e+01
8.880000000000001137e+01 2.649072474072507077e+01
8.920000000000000284e+01 2.642583608663681005e+01
8.960000000000000853e+01 2.636140580260428834e+01
9.000000000000000000e+01 2.629742848055621707e+01
9.040000000000000568e+01 2.623389880171585276e+01
9.080000000000001137e+01 2.617081153470989818e+01
9.120000000000000284e+01 2.610816153372606152e+01
9.160000000000000853e+01 2.604594373671800867e+01
9.200000000000000000e+01 2.598415316365617400e+01
9.240000000000000568e+01 2.592278491482302982e+01
9.280000000000001137e+01 2.586183416915157096e+01
9.320000000000000284e+01 2.580129618260566104e+01
9.360000000000000853e+01 2.574116628660097916e+01
9.400000000000000000e+01 2.568143988646547626e+01
9.440000000000000568e+01 2.562211245993800190e+01
9.480000000000001137e+01 2.556317955570420253e+01
9.520000000000000284e+01 2.550463679196838385e+01
9.560000000000000853e+01 2.544647985506050247e+01
9.600000000000000000e+01 2.538870449807705398e+01
9.640000000000000568e+01 2.534718826795025848e+01
9.680000000000001137e+01 2.529201889967098893e+01
9.720000000000000284e+01 2.523720027563237167e+01
9.760000000000000853e+01 2.518272866561019185e+01
9.800000000000000000e+01 2.512860039492963793e+01
9.840000000000000568e+01 2.507481184340383606e+01
9.880000000000001137e+01 2.502135944429711856e+01
9.920000000000000284e+01 2.496823968331228372e+01
9.960000000000000853e+01 2.491544909760127524e+01
1.000000000000000000e+02 2.486298427479860607e+01
1.004000000000000057e+02 2.481084185207684811e+01
1.008000000000000114e+02 2.475901851522378294e+01
1.012000000000000028e+02 2.470751099774036419e+01
1.016000000000000085e+02 2.465631607995917562e+01
1.020000000000000000e+02 2.460543058818270623e+01
1.024000000000000057e+02 2.455485139384094850e+01
1.028000000000000114e+02 2.450457541266777639e+01
1.032000000000000028e+02 2.445459960389574050e+01
1.036000000000000085e+02 2.440492096946860556e+01
1.040000000000000000e+02 2.435553655327129263e+01
1.044000000000000057e+02 2.430644344037676063e+01
1.048000000000000114e+02 2.425763875630934763e+01
1.052000000000000028e+02 2.420911966632421297e+01
1.056000000000000085e+02 2.416088337470235814e+01
1.060000000000000000e+02 2.411292712406095262e+01
1.064000000000000057e+02 2.406524819467849952e+01
1.068000000000000114e+02 2.401784390383447487e+01
1.072000000000000028e+02 2.397071160516308197e+01
1.076000000000000085e+02 2.392384868802079367e+01
1.080000000000000000e+02 2.387725257686724945e+01
1.084000000000000057e+02 2.383092073065930094e+01
1.088000000000000114e+02 2.378485064225776924e+01
1.092000000000000028e+02 2.373867327839527164e+01
1.096000000000000085e+02 2.369251235617017670e+01
1.100000000000000000e+02 2.364661135892909272e+01
1.104000000000000057e+02 2.360096783984260327e+01
1.108000000000000114e+02 2.355557938434748877e+01
1.112000000000000028e+02 2.363308777315148035e+01
1.116000000000000085e+02 2.359062442696691875e+01
1.120000000000000000e+02 2.354839065625542815e+01
1.124000000000000057e+02 2.350638437216012733e+01
1.128000000000000114e+02 2.346460351251384679e+01
1.132000000000000028e+02 2.342304604140067426e+01
1.136000000000000085e+02 2.338170994872622543e+01
1.140000000000000000e+02 2.334059324979659777e+01
1.144000000000000057e+02 2.329969398490560906e+01
1.148000000000000114e+02 2.325901021893034937e+01
1.152000000000000028e+02 2.321854004093453128e+01
1.156000000000000085e+02 2.317828156377986204e+01
1.160000000000000000e+02 2.313823292374491913e+01
1.164000000000000057e+02 2.309839228015147938e+01
1.168000000000000114e+02 2.305875781499817379e+01
1.172000000000000028e+02 2.301932773260124065e+01
1.176000000000000085e+02 2.298010025924215682e+01
1.180000000000000000e+02 2.294107364282219663e+01
1.184000000000000057e+02 2.290224615252349594e+01
1.188000000000000114e+02 2.286361607847666377e+01
1.192000000000000028e+02 2.282518173143472850e+01
1.196000000000000085e+02 2.278694144245326569e+01
1.200000000000000000e+02 2.274889356257659756e+01
1.204000000000000057e+02 2.271103646252990416e+01
1.208000000000000114e+02 2.267336853241711481e+01
1.212000000000000028e+02 2.263588818142449455e+01
1.216000000000000085e+02 2.259859383752974082e+01
1.220000000000000000e+02 2.256148394721648032e+01
1.224000000000000057e+02 2.252455697519411615e+01
1.228000000000000114e+02 2.248781140412278035e+01
1.232000000000000028e+02 2.245124573434341642e+01
1.236000000000000085e+02 2.242962246736908583e+01
1.240000000000000000e+02 2.239399917168546850e+01
1.244000000000000057e+02 2.235854696310984480e+01
1.248000000000000114e+02 2.232326445730942766e+01
1.252000000000000028e+02 2.228815028569327339e+01
1.256000000000000085e+02 2.225320309518192730e+01
1.260000000000000000e+02 2.221842154798128632e+01
1.264000000000000057e+02 2.218380432136039104e+01
1.268000000000000114e+02 2.214935010743318955e+01
1.272000000000000028e+02 2.211505761294420935e+01
1.276000000000000085e+02 2.208092555905795251e+01
1.280000000000000000e+02 2.204695268115201046e+01
1.284000000000000057e+02 2.201313772861383100e+01
1.288000000000000114e+02 2.197947946464098479e+01
1.291999999999999886e+02 2.194597666604497377e+01
1.296000000000000227e+02 2.191262812305836505e+01
1.300000000000000000e+02 2.187943263914537440e+01
1.304000000000000057e+02 2.184638903081556194e+01
1.308000000000000114e+02 2.181349612744088162e+01
1.311999999999999886e+02 2.178075277107579311e+01
1.316000000000000227e+02 2.174815781628041123e+01
1.320000000000000000e+02 2.171571012994676764e+01
1.324000000000000057e+02 2.168340859112794305e+01
1.328000000000000114e+02 2.165125209087009850e+01
1.331999999999999886e+02 2.161923953204737359e+01
1.336000000000000227e+02 2.158736982919953107e+01
1.340000000000000000e+02 2.155564190837236183e+01
1.344000000000000057e+02 2.152405470696069756e+01
1.348000000000000114e+02 2.149260717355408801e+01
1.351999999999999886e+02 2.146129826778503258e+01
1.356000000000000227e+02 2.143012696017972019e+01
1.360000000000000000e+02 2.139909223201121691e+01
1.364000000000000057e+02 2.136819307515512278e+01
1.368000000000000114e+02 2.133742849194752722e+01
1.371999999999999886e+02 2.130679749504533049e+01
1.376000000000000227e+02 2.127626041102780619e+01
1.380000000000000000e+02 2.124577857568046824e+01
1.384000000000000057e+02 2.121542805683529309e+01
1.388000000000000114e+02 2.118520790201878867e+01
1.392000000000000171e+02 2.115511716846697965e+01
1.395999999999999943e+02 2.112515492299807107e+01
1.400000000000000000e+02 2.109532024188709798e+01
1.404000000000000057e+02 2.106561221074266399e+01
1.408000000000000114e+02 2.103602992438554509e+01
1.412000000000000171e+02 2.100657248672930777e+01
1.415999999999999943e+02 2.097723901066276397e+01
1.420000000000000000e+02 2.094802861793427695e+01
1.424000000000000057e+02 2.091894043903792877e+01
1.428000000000000114e+02 2.088997361310146772e+01
1.432000000000000171e+02 2.086112728777596459e+01
1.435999999999999943e+02 2.083240061912724883e+01
1.440000000000000000e+02 2.080379277152896833e+01
1.444000000000000057e+02 2.077530291755740066e+01
1.448000000000000114e+02 2.074663330685336149e+01
1.452000000000000171e+02 2.071784952860616613e+01
1.455999999999999943e+02 2.068918445628615643e+01
1.460000000000000000e+02 2.066063726709186099e+01
1.464000000000000057e+02 2.063220714623351171e+01
1.468000000000000114e+02 2.060389328683276133e+01
1.472000000000000171e+02 2.057569488982383277e+01
1.475999999999999943e+02 2.054761116385623154e+01
1.480000000000000000e+02 2.051964132519890782e+01
1.484000000000000057e+02 2.049178459764588212e+01
1.488000000000000114e+02 2.046404021242330273e+01
1.492000000000000171e+02 2.043640740809788170e+01
1.495999999999999943e+02 2.040888543048676951e+01
1.500000000000000000e+02 2.038147353256867333e+01
