1.000000000000000000e+01 1.352967896623961508e+02
1.040000000000000036e+01 1.490017877412939526e+02
1.080000000000000071e+01 1.647581047367454516e+02
1.119999999999999929e+01 1.810629325091781254e+02
1.159999999999999964e+01 2.084278696985577426e+02
1.200000000000000000e+01 2.260784667882425936e+02
1.240000000000000036e+01 2.185293377941356994e+02
1.280000000000000071e+01 2.117051232726671515e+02
1.319999999999999929e+01 2.063895118848679999e+02
1.359999999999999964e+01 2.009941120269274393e+02
1.400000000000000000e+01 1.945657311336355519e+02
1.440000000000000036e+01 1.887469161595177525e+02
1.480000000000000071e+01 1.834433287302510962e+02
1.519999999999999929e+01 1.785805553448469425e+02
1.560000000000000142e+01 1.740988487073731221e+02
1.600000000000000000e+01 1.704257866824200960e+02
1.639999999999999858e+01 1.672436104971672819e+02
1.680000000000000071e+01 1.642937890679341137e+02
1.719999999999999929e+01 1.616154365351599154e+02
1.760000000000000142e+01 1.563786143342120738e+02
1.800000000000000000e+01 1.538574620886604123e+02
1.839999999999999858e+01 1.514782462390230648e+02
1.880000000000000071e+01 1.492276230089557032e+02
1.920000000000000284e+01 1.470939857850955264e+02
1.960000000000000142e+01 1.450671786991017029e+02
2.000000000000000000e+01 1.431382668936402069e+02
2.039999999999999858e+01 1.412993504824773936e+02
2.080000000000000071e+01 1.395434125743459219e+02
2.120000000000000284e+01 1.378641941277967931e+02
2.160000000000000142e+01 1.362560901403390403e+02
2.200000000000000000e+01 1.347140629490742469e+02
2.239999999999999858e+01 1.320636773718493373e+02
2.280000000000000071e+01 1.306569901393249324e+02
2.320000000000000284e+01 1.293034154637862514e+02
2.360000000000000142e+01 1.279992645231990309e+02
2.400000000000000000e+01 1.267415737370842805e+02
2.439999999999999858e+01 1.255275782650236351e+02
2.480000000000000071e+01 1.243547405968010935e+02
2.520000000000000284e+01 1.232207268830002533e+02
2.560000000000000142e+01 1.221233862308658615e+02
2.600000000000000000e+01 1.210607325333654671e+02
2.640000000000000213e+01 1.087093639531285874e+02
2.680000000000000071e+01 1.075694842510014126e+02
2.719999999999999929e+01 1.064639092227217532e+02
2.760000000000000142e+01 1.053729272402366917e+02
2.800000000000000000e+01 1.043098299453126856e+02
2.840000000000000213e+01 1.032771990371491597e+02
2.880000000000000071e+01 1.023153836740101355e+02
2.920000000000000284e+01 1.013979302097538948e+02
2.960000000000000142e+01 1.005053554835124601e+02
3.000000000000000000e+01 9.963654014848928853e+01
3.040000000000000213e+01 9.879043453360532112e+01
3.080000000000000071e+01 9.796605314161163847e+01
3.120000000000000284e+01 9.680870919322343582e+01
3.160000000000000142e+01 9.605787246708148075e+01
3.200000000000000000e+01 9.532498656901132961e+01
3.240000000000000568e+01 9.460933689675464109e+01
3.279999999999999716e+01 9.391024829813366637e+01
3.320000000000000284e+01 9.322708230281899944e+01
3.360000000000000142e+01 9.255923458867218301e+01
3.400000000000000000e+01 9.190613265945728472e+01
3.440000000000000568e+01 9.126723371333461898e+01
3.479999999999999716e+01 9.064202268383306205e+01
3.520000000000000284e+01 9.033458344558395936e+01
3.560000000000000142e+01 8.974488246904131472e+01
3.600000000000000000e+01 8.916717284993914916e+01
3.640000000000000568e+01 8.860104724490702210e+01
3.679999999999999716e+01 8.804611753904471527e+01
3.720000000000000284e+01 8.747526988025984451e+01
3.760000000000000142e+01 8.691117904167748520e+01
3.800000000000000000e+01 8.635784623384890324e+01
3.840000000000000568e+01 8.581492971704706463e+01
3.879999999999999716e+01 8.528210283995638008e+01
3.920000000000000284e+01 8.475905319123673110e+01
3.960000000000000142e+01 8.423539015371844130e+01
4.000000000000000000e+01 8.371723600124073528e+01
4.040000000000000568e+01 8.320840798008809713e+01
4.079999999999999716e+01 8.270862637835580244e+01
4.120000000000000284e+01 8.221762315518728315e+01
4.160000000000000142e+01 8.173514131999073129e+01
4.200000000000000000e+01 8.126093435164119683e+01
4.239999999999999858e+01 8.079476565465330395e+01
4.280000000000000426e+01 8.033640219704393814e+01
4.320000000000000284e+01 7.988561737962930920e+01
4.360000000000000142e+01 7.944220225476306041e+01
4.400000000000000000e+01 7.900595578574593958e+01
4.439999999999999858e+01 7.857668457736146195e+01
4.480000000000000426e+01 7.815420250511461120e+01
4.520000000000000284e+01 7.773833036627983972e+01
4.560000000000000142e+01 7.732889555125488812e+01
4.600000000000000000e+01 7.692573173383567564e+01
4.639999999999999858e+01 7.652867857913516048e+01
4.680000000000000426e+01 7.613758146796853055e+01
4.720000000000000284e+01 7.575229123661605968e+01
4.760000000000000142e+01 7.537266393095779904e+01
4.800000000000000000e+01 7.499856057404974763e+01
4.840000000000000568e+01 7.462984694627995452e+01
4.880000000000000426e+01 7.426639337730567547e+01
4.920000000000000284e+01 7.390807454903146834e+01
4.960000000000000142e+01 7.355476930894140253e+01
5.000000000000000000e+01 7.320636049314671823e+01
5.040000000000000568e+01 7.286273475855607273e+01
5.080000000000000426e+01 7.252378242361663752e+01
5.120000000000000284e+01 7.242363684184216766e+01
5.160000000000000142e+01 7.210252404800327497e+01
5.200000000000000000e+01 7.175733786031587158e+01
5.240000000000000568e+01 7.158731975210079668e+01
5.280000000000000426e+01 7.132311085060440803e+01
5.320000000000000284e+01 6.875640117668964990e+01
5.360000000000000142e+01 6.848786845260758582e+01
5.400000000000000000e+01 6.822249325897520578e+01
5.440000000000000568e+01 6.796021353545278032e+01
5.480000000000000426e+01 6.770096892337741679e+01
5.520000000000000284e+01 6.744470070608923606e+01
5.560000000000000142e+01 6.719135175180041131e+01
5.600000000000000000e+01 6.694086645887978193e+01
5.640000000000000568e+01 6.669319070343354383e+01
5.680000000000000426e+01 6.644827178906801635e+01
5.720000000000000284e+01 6.620605839872820297e+01
5.760000000000000142e+01 6.596650054851141931e+01
5.800000000000000000e+01 6.572954954336073286e+01
5.840000000000000568e+01 6.549515793454800416e+01
5.880000000000000426e+01 6.526327947886221637e+01
5.920000000000000284e+01 6.503386909942189220e+01
5.960000000000000142e+01 6.480688284803662214e+01
6.000000000000000000e+01 6.458227786904468815e+01
6.040000000000000568e+01 6.436001236455956587e+01
6.080000000000000426e+01 6.413996125003487236e+01
6.120000000000000284e+01 6.392103243165342974e+01
6.160000000000000142e+01 6.370433866588569316e+01
6.200000000000000000e+01 6.348984179567153774e+01
6.240000000000000568e+01 6.327750457331313783e+01
6.280000000000000426e+01 6.306729063274698888e+01
6.320000000000000284e+01 6.285861343860369033e+01
6.360000000000000142e+01 6.265107035103301314e+01
6.400000000000000000e+01 6.244556624878189410e+01
6.440000000000000568e+01 6.224206764941788350e+01
6.480000000000001137e+01 6.204054183787015120e+01
6.520000000000000284e+01 6.184095684393416548e+01
6.559999999999999432e+01 6.164328142057769355e+01
6.600000000000000000e+01 6.144748502301467141e+01
6.640000000000000568e+01 6.125353778851503250e+01
6.680000000000001137e+01 6.106141051691982113e+01
6.720000000000000284e+01 6.087107465183311206e+01
6.759999999999999432e+01 6.066944148906989653e+01
6.800000000000000000e+01 6.046890969967682850e+01
6.840000000000000568e+01 6.027029839212028151e+01
6.880000000000001137e+01 6.007357688222568015e+01
6.920000000000000284e+01 5.987871517048694869e+01
6.959999999999999432e+01 5.968568392250565324e+01
7.000000000000000000e+01 5.949445445011014044e+01
7.040000000000000568e+01 5.930499869312652095e+01
7.080000000000001137e+01 5.911728920177527868e+01
7.120000000000000284e+01 5.893129911966811108e+01
7.159999999999999432e+01 5.875116890665157143e+01
7.200000000000000000e+01 5.857049952867602371e+01
7.240000000000000568e+01 5.839144860939929060e+01
7.280000000000001137e+01 5.821399193345566658e+01
7.320000000000000284e+01 5.803810579182708551e+01
7.359999999999999432e+01 5.786376696827915822e+01
7.400000000000000000e+01 5.769095272623933823e+01
7.440000000000000568e+01 5.751964079610041125e+01
7.479999999999999716e+01 5.734980936293287357e+01
7.520000000000000284e+01 5.718143705459094406e+01
7.560000000000000853e+01 5.701450293019728122e+01
7.600000000000000000e+01 5.684898646899204522e+01
7.640000000000000568e+01 5.668486755953312439e+01
7.679999999999999716e+01 5.652212648923408267e+01
7.720000000000000284e+01 5.636074393422777007e+01
7.760000000000000853e+01 5.620070094954338913e+01
7.800000000000000000e+01 5.605732829509075543e+01
7.840000000000000568e+01 5.589860780381499694e+01
7.879999999999999716e+01 5.574118509609360927e+01
7.920000000000000284e+01 5.558504245150299283e+01
7.960000000000000853e+01 5.543016248810190660e+01
8.000000000000000000e+01 5.527652815414038656e+01
8.040000000000000568e+01 5.512412272001617453e+01
8.079999999999999716e+01 5.497292977046962648e+01
8.120000000000000284e+01 5.482293319700905698e+01
8.160000000000000853e+01 5.467411719055851194e+01
8.200000000000000000e+01 5.452646623431988360e+01
8.240000000000000568e+01 5.437985523581237146e+01
8.279999999999999716e+01 5.423372991044809055e+01
8.320000000000000284e+01 5.408873349837787714e+01
8.360000000000000853e+01 5.394485143897921375e+01
8.400000000000000000e+01 5.380206943439920053e+01
8.440000000000000568e+01 5.366037344347218152e+01
8.479999999999999716e+01 5.351974967580868991e+01
8.520000000000000284e+01 5.338018458605022687e+01
8.560000000000000853e+01 5.324166486828448797e+01
8.600000000000000000e+01 5.310417745061556616e+01
8.640000000000000568e+01 5.296770948988422845e+01
8.680000000000001137e+01 5.283224836653334222e+01
8.720000000000000284e+01 5.269778167961362669e+01
8.760000000000000853e+01 5.256429724192540931e+01
8.800000000000000000e+01 5.294271884512181714e+01
8.840000000000000568e+01 5.281788479046881690e+01
8.880000000000001137e+01 5.269392680083941372e+01
8.920000000000000284e+01 5.257083454132693845e+01
8.960000000000000853e+01 5.244859784823431426e+01
9.000000000000000000e+01 5.232720672542548357e+01
9.040000000000000568e+01 5.220665134077182756e+01
9.080000000000001137e+01 5.208692202269072169e+01
9.120000000000000284e+01 5.196800925677309380e+01
9.160000000000000853e+01 5.184990368249781767e+01
9.200000000000000000e+01 5.173259609002985115e+01
9.240000000000000568e+01 5.161607741709960351e+01
9.280000000000001137e+01 5.150033874596157091e+01
9.320000000000000284e+01 5.138480923013948853e+01
9.360000000000000853e+01 5.127001316836135203e+01
9.400000000000000000e+01 5.115597675924777832e+01
9.440000000000000568e+01 5.104269156025876697e+01
9.480000000000001137e+01 5.093014926054922853e+01
9.520000000000000284e+01 5.082768202150736414e+01
9.560000000000000853e+01 5.071757338636777490e+01
9.600000000000000000e+01 5.060817365465113937e+01
9.640000000000000568e+01 5.049947515802735865e+01
9.680000000000001137e+01 5.039147034461034735e+01
9.720000000000000284e+01 5.028415177668397718e+01
9.760000000000000853e+01 5.017751212848264686e+01
9.800000000000000000e+01 5.007154418402420504e+01
9.840000000000000568e+01 4.996624083499428082e+01
9.880000000000001137e+01 4.986159507868046603e+01
9.920000000000000284e+01 4.975760001595459414e+01
9.960000000000000853e+01 4.965424884930244787e+01
1.000000000000000000e+02 4.955153488089906944e+01
1.004000000000000057e+02 4.944945151072855083e+01
1.008000000000000114e+02 4.934799223474714580e+01
1.012000000000000028e+02 4.924715064308872314e+01
1.016000000000000085e+02 4.914692041831079905e+01
1.020000000000000000e+02 4.904729533368080041e+01
1.024000000000000057e+02 4.894826925150096031e+01
1.028000000000000114e+02 4.884983612147109966e+01
1.032000000000000028e+02 4.875198997908807996e+01
1.036000000000000085e+02 4.865472494408103188e+01
1.040000000000000000e+02 4.855803521888156382e+01
1.044000000000000057e+02 4.846191508712779950e+01
1.048000000000000114e+02 4.836635891220149119e+01
1.052000000000000028e+02 4.827136113579724253e+01
1.056000000000000085e+02 4.817691627652328634e+01
1.060000000000000000e+02 4.808301892853248205e+01
1.064000000000000057e+02 4.798966376018341862e+01
1.068000000000000114e+02 4.789684551273016666e+01
1.072000000000000028e+02 4.780455899904055173e+01
1.076000000000000085e+02 4.771254877391443472e+01
1.080000000000000000e+02 4.762099098372905814e+01
1.084000000000000057e+02 4.752995272340065469e+01
1.088000000000000114e+02 4.743928745812833370e+01
1.092000000000000028e+02 4.734911308842887934e+01
1.096000000000000085e+02 4.725944094899148240e+01
1.100000000000000000e+02 4.717026635491155417e+01
1.104000000000000057e+02 4.708158468252807438e+01
1.108000000000000114e+02 4.701004696924101722e+01
1.112000000000000028e+02 4.704551778208961821e+01
1.116000000000000085e+02 4.696124224360514887e+01
1.120000000000000000e+02 4.687741963207763263e+01
1.124000000000000057e+02 4.679404585220575541e+01
1.128000000000000114e+02 4.671111686068628899e+01
1.132000000000000028e+02 4.662862866536521267e+01
1.136000000000000085e+02 4.654657732440571749e+01
1.140000000000000000e+02 4.646495894547276606e+01
1.144000000000000057e+02 4.638376968493373909e+01
1.148000000000000114e+02 4.630300574707493411e+01
1.152000000000000028e+02 4.622266338333326985e+01
1.156000000000000085e+02 4.614273889154327435e+01
1.160000000000000000e+02 4.606322861519848999e+01
1.164000000000000057e+02 4.598412894272746598e+01
1.168000000000000114e+02 4.590543630678360643e+01
1.172000000000000028e+02 4.582714718354879579e+01
1.176000000000000085e+02 4.574925809205035421e+01
1.180000000000000000e+02 4.567176559349118037e+01
1.184000000000000057e+02 4.559466629059255638e+01
1.188000000000000114e+02 4.551795682694955048e+01
1.192000000000000028e+02 4.544163388639851320e+01
1.196000000000000085e+02 4.536569419239676648e+01
1.200000000000000000e+02 4.529013450741364011e+01
1.204000000000000057e+02 4.521495163233321080e+01
1.208000000000000114e+02 4.514014240586806181e+01
1.212000000000000028e+02 4.506570370398399206e+01
1.216000000000000085e+02 4.499956201785438736e+01
1.220000000000000000e+02 4.492615212477988251e+01
1.224000000000000057e+02 4.485310134368649670e+01
1.228000000000000114e+02 4.478040671837760556e+01
1.232000000000000028e+02 4.470806532684457579e+01
1.236000000000000085e+02 4.463607428075828665e+01
1.240000000000000000e+02 4.456443072496958990e+01
1.244000000000000057e+02 4.449313183701922725e+01
1.248000000000000114e+02 4.442217482665620309e+01
1.252000000000000028e+02 4.435155693536508892e+01
1.256000000000000085e+02 4.428127543590164805e+01
1.260000000000000000e+02 4.421132763183682357e+01
1.264000000000000057e+02 4.414171085710884768e+01
1.268000000000000114e+02 4.407242247558328074e+01
1.272000000000000028e+02 4.400345988062082370e+01
1.276000000000000085e+02 4.393482049465276873e+01
1.280000000000000000e+02 4.386650176876391072e+01
1.284000000000000057e+02 4.379850118228284828e+01
1.288000000000000114e+02 4.373074238633405741e+01
1.291999999999999886e+02 4.366325750338517508e+01
1.296000000000000227e+02 4.359608380006807948e+01
1.300000000000000000e+02 4.352921886335921897e+01
1.304000000000000057e+02 4.346266030651698031e+01
1.308000000000000114e+02 4.339640576871349253e+01
1.311999999999999886e+02 4.333045291467287541e+01
1.316000000000000227e+02 4.326479943431540676e+01
1.320000000000000000e+02 4.319944304240798516e+01
1.324000000000000057e+02 4.313438147822030544e+01
1.328000000000000114e+02 4.306961250518706663e+01
1.331999999999999886e+02 4.296361243821964848e+01
1.336000000000000227e+02 4.290074180871316400e+01
1.340000000000000000e+02 4.283814973224718869e+01
1.344000000000000057e+02 4.277583412626068338e+01
1.348000000000000114e+02 4.271379293010772216e+01
1.351999999999999886e+02 4.265202410476016581e+01
1.356000000000000227e+02 4.259052563251564294e+01
1.360000000000000000e+02 4.252924974486956700e+01
1.364000000000000057e+02 4.246823523728497918e+01
1.368000000000000114e+02 4.240748541258849258e+01
1.371999999999999886e+02 4.234699833369048605e+01
1.376000000000000227e+02 4.228677208345379057e+01
1.380000000000000000e+02 4.222680476442878472e+01
1.384000000000000057e+02 4.216709449859294523e+01
1.388000000000000114e+02 4.210763942709465368e+01
1.392000000000000171e+02 4.204843771000101071e+01
1.395999999999999943e+02 4.198948752604983525e+01
1.400000000000000000e+02 4.193078707240542968e+01
1.404000000000000057e+02 4.187233456441859403e+01
1.408000000000000114e+02 4.181412823539011470e+01
1.412000000000000171e+02 4.175616633633821806e+01
1.415999999999999943e+02 4.169844713576964068e+01
1.420000000000000000e+02 4.164096891945434464e+01
1.424000000000000057e+02 4.158372999020371452e+01
1.428000000000000114e+02 4.152672866765240656e+01
1.432000000000000171e+02 4.146996328804337395e+01
1.435999999999999943e+02 4.141343220401645908e+01
1.440000000000000000e+02 4.135713378440012633e+01
1.444000000000000057e+02 4.130106641400656287e+01
1.448000000000000114e+02 4.124493156239543623e+01
1.452000000000000171e+02 4.118879404626112972e+01
1.455999999999999943e+02 4.113288597407016312e+01
1.460000000000000000e+02 4.107720576541457547e+01
1.464000000000000057e+02 4.102175185520324874e+01
1.468000000000000114e+02 4.096652269347067943e+01
1.472000000000000171e+02 4.091151674518871317e+01
1.475999999999999943e+02 4.085673249008108598e+01
1.480000000000000000e+02 4.080216842244082898e+01
1.484000000000000057e+02 4.074782305095039447e+01
1.488000000000000114e+02 4.069369489850455324e+01
1.492000000000000171e+02 4.063839430858078572e+01
1.495999999999999943e+02 4.058493973852953474e+01
1.500000000000000000e+02 4.053169680810233899e+01
