1.000000000000000000e+01 1.438517562685549365e+02
1.040000000000000036e+01 1.498675718188590054e+02
1.080000000000000071e+01 1.594617424795755767e+02
1.119999999999999929e+01 1.686742209781664315e+02
1.159999999999999964e+01 1.925974047806241174e+02
1.200000000000000000e+01 1.948246491890710672e+02
1.240000000000000036e+01 1.877153462865209974e+02
1.280000000000000071e+01 1.814209238752371220e+02
1.319999999999999929e+01 1.757855771490216057e+02
1.359999999999999964e+01 1.706941204248499560e+02
1.400000000000000000e+01 1.660589312789543897e+02
1.440000000000000036e+01 1.618117739951642591e+02
1.480000000000000071e+01 1.578984589151660600e+02
1.519999999999999929e+01 1.542752298772178392e+02
1.560000000000000142e+01 1.509062472060383584e+02
1.600000000000000000e+01 1.482380614280186251e+02
1.639999999999999858e+01 1.459681948956483666e+02
1.680000000000000071e+01 1.438325790643293658e+02
1.719999999999999929e+01 1.418178142498590546e+02
1.760000000000000142e+01 1.399123591755583504e+02
1.800000000000000000e+01 1.381062041911831102e+02
1.839999999999999858e+01 1.363906134059914166e+02
1.880000000000000071e+01 1.347579189469057610e+02
1.920000000000000284e+01 1.332013551532863289e+02
1.960000000000000142e+01 1.317149237301683797e+02
2.000000000000000000e+01 1.302932831583023869e+02
2.039999999999999858e+01 1.289316572974992994e+02
2.080000000000000071e+01 1.276257593145844282e+02
2.120000000000000284e+01 1.263717279495741082e+02
2.160000000000000142e+01 1.251660737927352756e+02
2.200000000000000000e+01 1.240056337427159150e+02
2.239999999999999858e+01 1.228875321952465072e+02
2.280000000000000071e+01 1.218091478037611353e+02
2.320000000000000284e+01 1.207680848797721751e+02
2.360000000000000142e+01 1.197621486780036122e+02
2.400000000000000000e+01 1.187893239509319585e+02
2.439999999999999858e+01 1.178477562682218860e+02
2.480000000000000071e+01 1.169357356851122489e+02
2.520000000000000284e+01 1.160516824150162165e+02
2.560000000000000142e+01 1.151941342191976219e+02
2.600000000000000000e+01 1.143617352732323127e+02
2.640000000000000213e+01 1.022316617905409259e+02
2.680000000000000071e+01 1.013046487245286755e+02
2.719999999999999929e+01 1.004040009228437356e+02
2.760000000000000142e+01 9.952846408117532917e+01
2.800000000000000000e+01 9.867686692243876223e+01
2.840000000000000213e+01 9.784811418872192235e+01
2.880000000000000071e+01 9.709353153208645892e+01
2.920000000000000284e+01 9.638071225595338376e+01
2.960000000000000142e+01 9.568592662045747943e+01
3.000000000000000000e+01 9.500840371234536974e+01
3.040000000000000213e+01 9.434741860347875786e+01
3.080000000000000071e+01 9.370228884959358595e+01
3.120000000000000284e+01 9.307237131203555691e+01
3.160000000000000142e+01 9.245705926760246030e+01
3.200000000000000000e+01 9.185577977592279808e+01
3.240000000000000568e+01 9.126799127750302887e+01
3.279999999999999716e+01 9.069318139877989893e+01
3.320000000000000284e+01 9.013086494328396725e+01
3.360000000000000142e+01 8.958058205043435862e+01
3.400000000000000000e+01 8.904189650557732705e+01
3.440000000000000568e+01 8.851439418671583326e+01
3.479999999999999716e+01 8.799768163497554951e+01
3.520000000000000284e+01 8.749138473725719223e+01
3.560000000000000142e+01 8.699514751075834340e+01
3.600000000000000000e+01 8.650863098013161334e+01
3.640000000000000568e+01 8.603151213900439132e+01
3.679999999999999716e+01 8.556348298842954136e+01
3.720000000000000284e+01 8.507750583574967607e+01
3.760000000000000142e+01 8.459632790170819305e+01
3.800000000000000000e+01 8.412401935925592511e+01
3.840000000000000568e+01 8.366030415589530378e+01
3.879999999999999716e+01 8.320491824727000107e+01
3.920000000000000284e+01 8.275760892974855665e+01
3.960000000000000142e+01 8.231813421799424191e+01
4.000000000000000000e+01 8.188626226396644370e+01
4.040000000000000568e+01 8.146177081412319865e+01
4.079999999999999716e+01 8.104444670187920963e+01
4.120000000000000284e+01 8.063408537263634912e+01
4.160000000000000142e+01 8.023049043893571763e+01
4.200000000000000000e+01 7.983347326349141326e+01
4.239999999999999858e+01 7.944285256805753193e+01
4.280000000000000426e+01 7.905845406625132910e+01
4.320000000000000284e+01 7.868011011861210591e+01
4.360000000000000142e+01 7.830765940831641103e+01
4.400000000000000000e+01 7.794094663609878637e+01
4.439999999999999858e+01 7.757982223304402680e+01
4.480000000000000426e+01 7.722414209002269558e+01
4.520000000000000284e+01 7.687376730263845559e+01
4.560000000000000142e+01 7.652856393064394069e+01
4.600000000000000000e+01 7.618840277086212609e+01
4.639999999999999858e+01 7.585315914272338489e+01
4.680000000000000426e+01 7.552271268559610462e+01
4.720000000000000284e+01 7.519694716714937499e+01
4.760000000000000142e+01 7.487575030204313009e+01
4.800000000000000000e+01 7.455901358029251469e+01
4.840000000000000568e+01 7.424663210470058061e+01
4.880000000000000426e+01 7.393850443679670548e+01
4.920000000000000284e+01 7.363453245075817222e+01
4.960000000000000142e+01 7.333462119482987873e+01
5.000000000000000000e+01 7.303867875978947666e+01
5.040000000000000568e+01 7.274661615403786641e+01
5.080000000000000426e+01 7.245834718492292836e+01
5.120000000000000284e+01 7.217378834593127124e+01
5.160000000000000142e+01 7.189285870940743450e+01
5.200000000000000000e+01 7.161547982448193750e+01
5.240000000000000568e+01 7.148255284571770574e+01
5.280000000000000426e+01 7.125485074142613939e+01
5.320000000000000284e+01 6.559170105287104491e+01
5.360000000000000142e+01 6.534966864117197360e+01
5.400000000000000000e+01 6.511035374255608588e+01
5.440000000000000568e+01 6.487370530710634853e+01
5.480000000000000426e+01 6.463967361900854769e+01
5.520000000000000284e+01 6.440821025214619056e+01
5.560000000000000142e+01 6.417926802748257842e+01
5.600000000000000000e+01 6.395280097214643433e+01
5.640000000000000568e+01 6.372876428014139094e+01
5.680000000000000426e+01 6.350711427460380065e+01
5.720000000000000284e+01 6.328780837153775707e+01
5.760000000000000142e+01 6.307080504495979767e+01
5.800000000000000000e+01 6.285606379338893390e+01
5.840000000000000568e+01 6.264354510762147754e+01
5.880000000000000426e+01 6.243321043973318751e+01
5.920000000000000284e+01 6.222502217325343565e+01
5.960000000000000142e+01 6.201894359446058047e+01
6.000000000000000000e+01 6.181493886474807908e+01
6.040000000000000568e+01 6.161297299401541494e+01
6.080000000000000426e+01 6.141301181503917661e+01
6.120000000000000284e+01 6.121502195878162667e+01
6.160000000000000142e+01 6.101897083059728999e+01
6.200000000000000000e+01 6.082482658729861669e+01
6.240000000000000568e+01 6.063255811504493664e+01
6.280000000000000426e+01 6.044213500801988914e+01
6.320000000000000284e+01 6.025352754786432996e+01
6.360000000000000142e+01 6.006670668383334544e+01
6.400000000000000000e+01 5.988164401364790024e+01
6.440000000000000568e+01 5.969831176501196524e+01
6.480000000000001137e+01 5.951668277776857963e+01
6.520000000000000284e+01 5.933673048666882011e+01
6.559999999999999432e+01 5.915842890472876547e+01
6.600000000000000000e+01 5.898175260715125745e+01
6.640000000000000568e+01 5.880667671578994771e+01
6.680000000000001137e+01 5.863317688413387430e+01
6.720000000000000284e+01 5.846122928279253728e+01
6.759999999999999432e+01 5.827774981206903959e+01
6.800000000000000000e+01 5.809514162894522116e+01
6.840000000000000568e+01 5.791422821308110969e+01
6.880000000000001137e+01 5.773498314041902546e+01
6.920000000000000284e+01 5.755738056401807512e+01
6.959999999999999432e+01 5.738139519788452958e+01
7.000000000000000000e+01 5.720700230135442155e+01
7.040000000000000568e+01 5.703417766400586686e+01
7.080000000000001137e+01 5.686289759107990704e+01
7.120000000000000284e+01 5.669313888938985713e+01
7.159999999999999432e+01 5.652487885369968978e+01
7.200000000000000000e+01 5.635809525355320204e+01
7.240000000000000568e+01 5.619276632053637144e+01
7.280000000000001137e+01 5.602887073595612577e+01
7.320000000000000284e+01 5.586638761891933314e+01
7.359999999999999432e+01 5.570529651479699851e+01
7.400000000000000000e+01 5.554557738405873835e+01
7.440000000000000568e+01 5.538721059146371317e+01
7.479999999999999716e+01 5.523017689559446097e+01
7.520000000000000284e+01 5.507445743872091271e+01
7.560000000000000853e+01 5.492003373698238278e+01
7.600000000000000000e+01 5.476688767087554766e+01
7.640000000000000568e+01 5.461500147603760524e+01
7.679999999999999716e+01 5.446435773431317529e+01
7.720000000000000284e+01 5.431493936509540532e+01
7.760000000000000853e+01 5.416672961693075194e+01
7.800000000000000000e+01 5.402017601685414405e+01
7.840000000000000568e+01 5.387506858408613653e+01
7.879999999999999716e+01 5.373111339663397246e+01
7.920000000000000284e+01 5.358829499409279862e+01
7.960000000000000853e+01 5.344659820786926474e+01
8.000000000000000000e+01 5.330600815410008408e+01
8.040000000000000568e+01 5.316651022678040306e+01
8.079999999999999716e+01 5.302809009109419947e+01
8.120000000000000284e+01 5.289073367694010130e+01
8.160000000000000853e+01 5.275442717264552783e+01
8.200000000000000000e+01 5.261915701886294272e+01
8.240000000000000568e+01 5.248490990264194522e+01
8.279999999999999716e+01 5.235167275167113132e+01
8.320000000000000284e+01 5.221943272868417552e+01
8.360000000000000853e+01 5.208817722602450573e+01
8.400000000000000000e+01 5.195789386036317126e+01
8.440000000000000568e+01 5.182857046756508623e+01
8.479999999999999716e+01 5.170019509769852561e+01
8.520000000000000284e+01 5.157275601018318412e+01
8.560000000000000853e+01 5.144624166907239982e+01
8.600000000000000000e+01 5.132064073846497365e+01
8.640000000000000568e+01 5.119594207804251340e+01
8.680000000000001137e+01 5.107213473872837994e+01
8.720000000000000284e+01 5.094920795846395833e+01
8.760000000000000853e+01 5.082715115809885020e+01
8.800000000000000000e+01 5.121688970722127721e+01
8.840000000000000568e+01 5.110326345562446448e+01
8.880000000000001137e+01 5.099040564598747238e+01
8.920000000000000284e+01 5.087830743515562659e+01
8.960000000000000853e+01 5.076696012377831835e+01
9.000000000000000000e+01 5.065635515329100258e+01
9.040000000000000568e+01 5.054648410297458838e+01
9.080000000000001137e+01 5.043733868709012569e+01
9.120000000000000284e+01 5.032891075208618048e+01
9.160000000000000853e+01 5.022119227387722873e+01
9.200000000000000000e+01 5.011417535519022692e+01
9.240000000000000568e+01 5.000785222297803756e+01
9.280000000000001137e+01 4.990221522589727954e+01
9.320000000000000284e+01 4.979725683184884844e+01
9.360000000000000853e+01 4.969296962557933028e+01
9.400000000000000000e+01 4.958934630634136198e+01
9.440000000000000568e+01 4.948637968561141776e+01
9.480000000000001137e+01 4.938406268486313877e+01
9.520000000000000284e+01 4.928238833339484160e+01
9.560000000000000853e+01 4.918134976620953580e+01
9.600000000000000000e+01 4.908094022194585193e+01
9.640000000000000568e+01 4.898115304085860089e+01
9.680000000000001137e+01 4.888198166284751522e+01
9.720000000000000284e+01 4.878341962553271571e+01
9.760000000000000853e+01 4.868546056237578057e+01
9.800000000000000000e+01 4.858809820084483988e+01
9.840000000000000568e+01 4.849132636062289237e+01
9.880000000000001137e+01 4.839513895185778125e+01
9.920000000000000284e+01 4.829952997345279186e+01
9.960000000000000853e+01 4.820449351139684069e+01
1.000000000000000000e+02 4.811002373713315450e+01
1.004000000000000057e+02 4.801611490596524590e+01
1.008000000000000114e+02 4.792276135549927574e+01
1.012000000000000028e+02 4.782995750412206348e+01
1.016000000000000085e+02 4.773769784951311124e+01
1.020000000000000000e+02 4.764597696719064146e+01
1.024000000000000057e+02 4.755478950908989333e+01
1.028000000000000114e+02 4.746413020217347878e+01
1.032000000000000028e+02 4.737399384707249084e+01
1.036000000000000085e+02 4.728437531675771055e+01
1.040000000000000000e+02 4.719526955524039380e+01
1.044000000000000057e+02 4.710667157630133772e+01
1.048000000000000114e+02 4.701857646224794962e+01
1.052000000000000028e+02 4.693097936269831649e+01
1.056000000000000085e+02 4.684387549339180623e+01
1.060000000000000000e+02 4.675726013502519862e+01
1.064000000000000057e+02 4.667112863211421825e+01
1.068000000000000114e+02 4.658547639187902689e+01
1.072000000000000028e+02 4.650029888315400939e+01
1.076000000000000085e+02 4.641559163532044607e+01
1.080000000000000000e+02 4.633135023726195811e+01
1.084000000000000057e+02 4.624757033634195835e+01
1.088000000000000114e+02 4.616410605342250051e+01
1.092000000000000028e+02 4.608107593494527521e+01
1.096000000000000085e+02 4.599849195196652829e+01
1.100000000000000000e+02 4.591635004656700403e+01
1.104000000000000057e+02 4.583464621286157126e+01
1.108000000000000114e+02 4.575337649613971536e+01
1.112000000000000028e+02 4.545623442892947708e+01
1.116000000000000085e+02 4.537836275927242013e+01
1.120000000000000000e+02 4.530089548837601399e+01
1.124000000000000057e+02 4.522382906646153344e+01
1.128000000000000114e+02 4.514715998757473159e+01
1.132000000000000028e+02 4.507088478889005501e+01
1.136000000000000085e+02 4.499500005002827407e+01
1.140000000000000000e+02 4.491950239238732223e+01
1.144000000000000057e+02 4.484438847848594634e+01
1.148000000000000114e+02 4.476965501132013259e+01
1.152000000000000028e+02 4.469529873373153350e+01
1.156000000000000085e+02 4.462131642778815888e+01
1.160000000000000000e+02 4.454770491417671963e+01
1.164000000000000057e+02 4.447446105160645402e+01
1.168000000000000114e+02 4.440158173622422311e+01
1.172000000000000028e+02 4.432906390104057692e+01
1.176000000000000085e+02 4.425690451536650727e+01
1.180000000000000000e+02 4.418510058426079468e+01
1.184000000000000057e+02 4.411364914798756587e+01
1.188000000000000114e+02 4.404254728148394094e+01
1.192000000000000028e+02 4.397179209383736520e+01
1.196000000000000085e+02 4.390138072777285316e+01
1.200000000000000000e+02 4.383131035914927764e+01
1.204000000000000057e+02 4.376157819646511626e+01
1.208000000000000114e+02 4.369218148037314364e+01
1.212000000000000028e+02 4.362311748320381355e+01
1.216000000000000085e+02 4.355438350849745177e+01
1.220000000000000000e+02 4.348597689054474813e+01
1.224000000000000057e+02 4.341789499393551210e+01
1.228000000000000114e+02 4.335013521311562101e+01
1.232000000000000028e+02 4.328269497195172733e+01
1.236000000000000085e+02 4.321557172330390983e+01
1.240000000000000000e+02 4.314876294860559369e+01
1.244000000000000057e+02 4.308226615745128640e+01
1.248000000000000114e+02 4.301607888719124162e+01
1.252000000000000028e+02 4.295019870253346284e+01
1.256000000000000085e+02 4.288462319515257803e+01
1.260000000000000000e+02 4.281934998330551423e+01
1.264000000000000057e+02 4.275437671145400031e+01
1.268000000000000114e+02 4.268970104989342218e+01
1.272000000000000028e+02 4.262532069438826454e+01
1.276000000000000085e+02 4.256123336581370609e+01
1.280000000000000000e+02 4.249743680980347449e+01
1.284000000000000057e+02 4.243392879640369841e+01
1.288000000000000114e+02 4.237070711973260018e+01
1.291999999999999886e+02 4.230776959764611433e+01
1.296000000000000227e+02 4.224511407140900587e+01
1.300000000000000000e+02 4.218273840537173669e+01
1.304000000000000057e+02 4.212064048665269667e+01
1.308000000000000114e+02 4.205881822482565013e+01
1.311999999999999886e+02 4.199726955161271036e+01
1.316000000000000227e+02 4.193599242058213861e+01
1.320000000000000000e+02 4.187498480685140123e+01
1.324000000000000057e+02 4.181424470679496608e+01
1.328000000000000114e+02 4.175377013775720059e+01
1.331999999999999886e+02 4.165203766541365837e+01
1.336000000000000227e+02 4.159340806882704555e+01
1.340000000000000000e+02 4.153503070819568421e+01
1.344000000000000057e+02 4.147690374257548740e+01
1.348000000000000114e+02 4.141902534998176577e+01
1.351999999999999886e+02 4.136139372713721940e+01
1.356000000000000227e+02 4.130400708922422126e+01
1.360000000000000000e+02 4.124686366964110817e+01
1.364000000000000057e+02 4.118996171976225185e+01
1.368000000000000114e+02 4.113329950870219420e+01
1.371999999999999886e+02 4.107687532308339939e+01
1.376000000000000227e+02 4.102068746680790667e+01
1.380000000000000000e+02 4.096473426083246494e+01
1.384000000000000057e+02 4.090901404294726973e+01
1.388000000000000114e+02 4.085352516755834529e+01
1.392000000000000171e+02 4.079826600547320936e+01
1.395999999999999943e+02 4.074323494369008358e+01
1.400000000000000000e+02 4.068843038519015920e+01
1.404000000000000057e+02 4.063385074873349367e+01
1.408000000000000114e+02 4.057949446865775656e+01
1.412000000000000171e+02 4.052535999468032912e+01
1.415999999999999943e+02 4.047144579170334566e+01
1.420000000000000000e+02 4.041775033962188957e+01
1.424000000000000057e+02 4.036427213313500317e+01
1.428000000000000114e+02 4.031100968155982400e+01
1.432000000000000171e+02 4.025796150864832157e+01
1.435999999999999943e+02 4.020512615240707532e+01
1.440000000000000000e+02 4.015250216491956792e+01
1.444000000000000057e+02 4.010008811217149827e+01
1.448000000000000114e+02 4.004699178077512300e+01
1.452000000000000171e+02 3.999341096555772168e+01
1.455999999999999943e+02 3.994004530389333496e+01
1.460000000000000000e+02 3.988689333417634941e+01
1.464000000000000057e+02 3.983395360880251701e+01
1.468000000000000114e+02 3.978122469399590955e+01
1.472000000000000171e+02 3.972870516963868681e+01
1.475999999999999943e+02 3.967639362910324508e+01
1.480000000000000000e+02 3.962428867908703722e+01
1.484000000000000057e+02 3.957238893944976610e+01
1.488000000000000114e+02 3.952069304305309316e+01
1.492000000000000171e+02 3.946919963560262090e+01
1.495999999999999943e+02 3.941790737549239765e+01
1.500000000000000000e+02 3.936681493365153983e+01
