1.000000000000000000e+01 1.182592146029553533e+02
1.040000000000000036e+01 1.284196390692987677e+02
1.080000000000000071e+01 1.285294361467564954e+02
1.119999999999999929e+01 1.294917864250000434e+02
1.159999999999999964e+01 1.532535218425551875e+02
1.200000000000000000e+01 1.714667460318033534e+02
1.240000000000000036e+01 1.797552072620840704e+02
1.280000000000000071e+01 1.895160413583407149e+02
1.319999999999999929e+01 1.958594290459927834e+02
1.359999999999999964e+01 1.920932137829358055e+02
1.400000000000000000e+01 1.885912557188874530e+02
1.440000000000000036e+01 1.853219717655869658e+02
1.480000000000000071e+01 1.822589940242126829e+02
1.519999999999999929e+01 1.793800901647203432e+02
1.560000000000000142e+01 1.766663487772410406e+02
1.600000000000000000e+01 1.741015553257644797e+02
1.639999999999999858e+01 1.716717076145965848e+02
1.680000000000000071e+01 1.693646349776755073e+02
1.719999999999999929e+01 1.671696956746588114e+02
1.760000000000000142e+01 1.650775340116389884e+02
1.800000000000000000e+01 1.630798836052209708e+02
1.839999999999999858e+01 1.611694066781640231e+02
1.880000000000000071e+01 1.593395617668876980e+02
1.920000000000000284e+01 1.575844940352201036e+02
1.960000000000000142e+01 1.558989437255969221e+02
2.000000000000000000e+01 1.542781692752726315e+02
2.039999999999999858e+01 1.527178823755488679e+02
2.080000000000000071e+01 1.512141928227804897e+02
2.120000000000000284e+01 1.497635614479853530e+02
2.160000000000000142e+01 1.483627597509743055e+02
2.200000000000000000e+01 1.470088351294863855e+02
2.239999999999999858e+01 1.456990808017929737e+02
2.280000000000000071e+01 1.444310096858713450e+02
2.320000000000000284e+01 1.432023316294456947e+02
2.360000000000000142e+01 1.420109334903964964e+02
2.400000000000000000e+01 1.408548616518942822e+02
2.439999999999999858e+01 1.397323066254471087e+02
2.480000000000000071e+01 1.386415894511747808e+02
2.520000000000000284e+01 1.375811496506256049e+02
2.560000000000000142e+01 1.365495345253282835e+02
2.600000000000000000e+01 1.355453896256093458e+02
2.640000000000000213e+01 1.345674502402424935e+02
2.680000000000000071e+01 1.336145337792155487e+02
2.719999999999999929e+01 1.326855329400981702e+02
2.760000000000000142e+01 1.317794095637891587e+02
2.800000000000000000e+01 1.308951890983322528e+02
2.840000000000000213e+01 1.300319556004201900e+02
2.880000000000000071e+01 1.291888472134955066e+02
2.920000000000000284e+01 1.283650520692713428e+02
2.960000000000000142e+01 1.275598045662651145e+02
3.000000000000000000e+01 1.267723819847411164e+02
3.040000000000000213e+01 1.260021014024492558e+02
3.080000000000000071e+01 1.252483168798516857e+02
3.120000000000000284e+01 1.245104168872489367e+02
3.160000000000000142e+01 1.237878219494452594e+02
3.200000000000000000e+01 1.230799824863923391e+02
3.240000000000000568e+01 1.223863768306953261e+02
3.279999999999999716e+01 1.217065094049944065e+02
3.320000000000000284e+01 1.210399090441000993e+02
3.360000000000000142e+01 1.203861274483975876e+02
3.400000000000000000e+01 1.197447377564690214e+02
3.440000000000000568e+01 1.191153332261509377e+02
3.479999999999999716e+01 1.184975260143579305e+02
3.520000000000000284e+01 1.178909460469904218e+02
3.560000000000000142e+01 1.172952399711186047e+02
3.600000000000000000e+01 1.167100701824078612e+02
3.640000000000000568e+01 1.161351139214406771e+02
3.679999999999999716e+01 1.155700624332019970e+02
3.720000000000000284e+01 1.150146201845414566e+02
3.760000000000000142e+01 1.144685041349137293e+02
3.800000000000000000e+01 1.139314430561341851e+02
3.840000000000000568e+01 1.134031768972781009e+02
3.879999999999999716e+01 1.128834561912017733e+02
3.920000000000000284e+01 1.123720414994786978e+02
3.960000000000000142e+01 1.118687028928278266e+02
4.000000000000000000e+01 1.113732194643642259e+02
4.040000000000000568e+01 1.108853788732347851e+02
4.079999999999999716e+01 1.104049769164072359e+02
4.120000000000000284e+01 1.099318171265698112e+02
4.160000000000000142e+01 1.094657103942685836e+02
4.200000000000000000e+01 1.090064746125630819e+02
4.239999999999999858e+01 1.085539343426216874e+02
4.280000000000000426e+01 1.081079204988041624e+02
4.320000000000000284e+01 1.076682700518951492e+02
4.360000000000000142e+01 1.072348257492570269e+02
4.400000000000000000e+01 1.068074358507664101e+02
4.439999999999999858e+01 1.063859538794869479e+02
4.480000000000000426e+01 1.059702383861092869e+02
4.520000000000000284e+01 1.055601527262635670e+02
4.560000000000000142e+01 1.051555648498760576e+02
4.600000000000000000e+01 1.047563471018025325e+02
4.639999999999999858e+01 1.043623760330274735e+02
4.680000000000000426e+01 1.039735322217695881e+02
4.720000000000000284e+01 1.035897001038810856e+02
4.760000000000000142e+01 1.032107678119720759e+02
4.800000000000000000e+01 1.028366270227311645e+02
4.840000000000000568e+01 1.024671728119503200e+02
4.880000000000000426e+01 1.021023035167956579e+02
4.920000000000000284e+01 1.017419206048974445e+02
4.960000000000000142e+01 1.013859285498617737e+02
5.000000000000000000e+01 1.010342347128318323e+02
5.040000000000000568e+01 1.006867492297529623e+02
5.080000000000000426e+01 1.003433849040173129e+02
5.120000000000000284e+01 1.000040571041856623e+02
5.160000000000000142e+01 9.966868366650304267e+01
5.200000000000000000e+01 9.933718480194352196e+01
5.240000000000000568e+01 9.900948300753594822e+01
5.280000000000000426e+01 9.868550298173799717e+01
5.320000000000000284e+01 9.836517154364065618e+01
5.360000000000000142e+01 9.804841755579903406e+01
5.400000000000000000e+01 9.773517185049666978e+01
5.440000000000000568e+01 9.742536715926419788e+01
5.480000000000000426e+01 9.711893804548199682e+01
5.520000000000000284e+01 9.681582083990846854e+01
5.560000000000000142e+01 9.651595357898324323e+01
5.600000000000000000e+01 9.621927594576521869e+01
5.640000000000000568e+01 9.592572921337239222e+01
5.680000000000000426e+01 9.563525619079796058e+01
5.720000000000000284e+01 9.534780117098577534e+01
5.760000000000000142e+01 9.506330988105321467e+01
5.800000000000000000e+01 9.478172943455703603e+01
5.840000000000000568e+01 9.450300828570324541e+01
5.880000000000000426e+01 9.422709618540748977e+01
5.920000000000000284e+01 9.395394413911751030e+01
5.960000000000000142e+01 9.368350436631467915e+01
6.000000000000000000e+01 9.341573026161535154e+01
6.040000000000000568e+01 9.315057635739745479e+01
6.080000000000000426e+01 9.288799828788208401e+01
6.120000000000000284e+01 9.262795275460271682e+01
6.160000000000000142e+01 9.237039749319909276e+01
6.200000000000000000e+01 9.211529124147565994e+01
6.240000000000000568e+01 9.186259370866770269e+01
6.280000000000000426e+01 9.161226554586139059e+01
6.320000000000000284e+01 9.136426831751637678e+01
6.360000000000000142e+01 9.111856447404238679e+01
6.400000000000000000e+01 9.087511732538408182e+01
6.440000000000000568e+01 9.063389101557010008e+01
6.480000000000001137e+01 9.039485049818478046e+01
6.520000000000000284e+01 9.015796151272309089e+01
6.559999999999999432e+01 8.992319056179110248e+01
6.600000000000000000e+01 8.969050488911656771e+01
6.640000000000000568e+01 8.945987245833538282e+01
6.680000000000001137e+01 8.923126193252137739e+01
6.720000000000000284e+01 8.900464265442934675e+01
6.759999999999999432e+01 8.877998462742112906e+01
6.800000000000000000e+01 8.855725849704755603e+01
6.840000000000000568e+01 8.833643553325913444e+01
6.880000000000001137e+01 8.811748761322029111e+01
6.920000000000000284e+01 8.790038720470317912e+01
6.959999999999999432e+01 8.768510735003746959e+01
7.000000000000000000e+01 8.747162165059465622e+01
7.040000000000000568e+01 8.725990425178547127e+01
7.080000000000001137e+01 8.704992982855057448e+01
7.120000000000000284e+01 8.684167357132520237e+01
7.159999999999999432e+01 8.663511117245960236e+01
7.200000000000000000e+01 8.643021881307768695e+01
7.240000000000000568e+01 8.622697315035725296e+01
7.280000000000001137e+01 8.602535130521567908e+01
7.320000000000000284e+01 8.582533085038593867e+01
7.359999999999999432e+01 8.562688979886829088e+01
7.400000000000000000e+01 8.543000659274355257e+01
7.440000000000000568e+01 8.523466009233472107e+01
7.479999999999999716e+01 8.504082956570408669e+01
7.520000000000000284e+01 8.484849467847334381e+01
7.560000000000000853e+01 8.465763548395533178e+01
7.600000000000000000e+01 8.446823241358595169e+01
7.640000000000000568e+01 8.428026626764525986e+01
7.679999999999999716e+01 8.409371820625776195e+01
7.720000000000000284e+01 8.390856974066176122e+01
7.760000000000000853e+01 8.372480272473833907e+01
7.800000000000000000e+01 8.354239934679083035e+01
7.840000000000000568e+01 8.336134212156576950e+01
7.879999999999999716e+01 8.318161388250754840e+01
7.920000000000000284e+01 8.300319777423797518e+01
7.960000000000000853e+01 8.282607724525360027e+01
8.000000000000000000e+01 8.265023604083289399e+01
8.040000000000000568e+01 8.247565819614641214e+01
8.079999999999999716e+01 8.230232802956308547e+01
8.120000000000000284e+01 8.213023013614585466e+01
8.160000000000000853e+01 8.195934938133055425e+01
8.200000000000000000e+01 8.178967089478173591e+01
8.240000000000000568e+01 8.162118006441951934e+01
8.279999999999999716e+01 8.145386253061226967e+01
8.320000000000000284e+01 8.128770418052911850e+01
8.360000000000000853e+01 8.112269114264742598e+01
8.400000000000000000e+01 8.095880978141020989e+01
8.440000000000000568e+01 8.079604669202825562e+01
8.479999999999999716e+01 8.063438869542318344e+01
8.520000000000000284e+01 8.047382283330567532e+01
8.560000000000000853e+01 8.031433636338584847e+01
8.600000000000000000e+01 8.015591675471078759e+01
8.640000000000000568e+01 7.999855168312529941e+01
8.680000000000001137e+01 7.984222902685263534e+01
8.720000000000000284e+01 7.968693686219060623e+01
8.760000000000000853e+01 7.953266345932017600e+01
8.800000000000000000e+01 7.937939727822258362e+01
8.840000000000000568e+01 7.922712696470212279e+01
8.880000000000001137e+01 7.907584134651102659e+01
8.920000000000000284e+01 7.892552942957334494e+01
8.960000000000000853e+01 7.877618039430498698e+01
9.000000000000000000e+01 7.862778359202711442e+01
9.040000000000000568e+01 7.848032854146968873e+01
9.080000000000001137e+01 7.833380492536284123e+01
9.120000000000000284e+01 7.818820258711345161e+01
9.160000000000000853e+01 7.804351152756413512e+01
9.200000000000000000e+01 7.789972190183252110e+01
9.240000000000000568e+01 7.775682401622840700e+01
9.280000000000001137e+01 7.761480832524622997e+01
9.320000000000000284e+01 7.747366542863116479e+01
9.360000000000000853e+01 7.733338606851631880e+01
9.400000000000000000e+01 7.719396112662920473e+01
9.440000000000000568e+01 7.705538162156528870e+01
9.480000000000001137e+01 7.691763870612703613e+01
9.520000000000000284e+01 7.678072366472630961e+01
9.560000000000000853e+01 7.664462791084844184e+01
9.600000000000000000e+01 7.650934298457616478e+01
9.640000000000000568e+01 7.637486055017198794e+01
9.680000000000001137e+01 7.624117239371705068e+01
9.720000000000000284e+01 7.610827042080506999e+01
9.760000000000000853e+01 7.597614665428977787e+01
9.800000000000000000e+01 7.584479323208468315e+01
9.840000000000000568e+01 7.571420240501308285e+01
9.880000000000001137e+01 7.558436653470772626e+01
9.920000000000000284e+01 7.545527809155814225e+01
9.960000000000000853e+01 7.532692965270473451e+01
1.000000000000000000e+02 7.519931390007826622e+01
1.004000000000000057e+02 7.507242361848341261e+01
1.008000000000000114e+02 7.494625169372542928e+01
1.012000000000000028e+02 7.482079111077857192e+01
1.016000000000000085e+02 7.469603495199530130e+01
1.020000000000000000e+02 7.457197639535522171e+01
1.024000000000000057e+02 7.444860871275247405e+01
1.028000000000000114e+02 7.432592526832095814e+01
1.032000000000000028e+02 7.420391951679604858e+01
1.036000000000000085e+02 7.408258500191205087e+01
1.040000000000000000e+02 7.396191535483450252e+01
1.044000000000000057e+02 7.384190429262625344e+01
1.048000000000000114e+02 7.372254561674651541e+01
1.052000000000000028e+02 7.360383321158234082e+01
1.056000000000000085e+02 7.348576104301115208e+01
1.060000000000000000e+02 7.336832315699400908e+01
1.064000000000000057e+02 7.325151367819859161e+01
1.068000000000000114e+02 7.313532680865137081e+01
1.072000000000000028e+02 7.301975682641790399e+01
1.076000000000000085e+02 7.290479808431086894e+01
1.080000000000000000e+02 7.279044500862502787e+01
1.084000000000000057e+02 7.267669209789843876e+01
1.088000000000000114e+02 7.256353392169927474e+01
1.092000000000000028e+02 7.245096511943762607e+01
1.096000000000000085e+02 7.233898039920180167e+01
1.100000000000000000e+02 7.222757453661833438e+01
1.104000000000000057e+02 7.211674237373507879e+01
1.108000000000000114e+02 7.200647881792728811e+01
1.112000000000000028e+02 7.189677884082546200e+01
1.116000000000000085e+02 7.178763747726500810e+01
1.120000000000000000e+02 7.167904982425692140e+01
1.124000000000000057e+02 7.157101103997898406e+01
1.128000000000000114e+02 7.146351634278700260e+01
1.132000000000000028e+02 7.135656101024585496e+01
1.136000000000000085e+02 7.125014037817948065e+01
1.140000000000000000e+02 7.114424983973971450e+01
1.144000000000000057e+02 7.103888484449316820e+01
1.148000000000000114e+02 7.093404089752637276e+01
1.152000000000000028e+02 7.082971355856778928e+01
1.156000000000000085e+02 7.072589844112738433e+01
1.160000000000000000e+02 7.062259121165246256e+01
1.164000000000000057e+02 7.051978758869984176e+01
1.168000000000000114e+02 7.041748334212419991e+01
1.172000000000000028e+02 7.031567429228141464e+01
1.176000000000000085e+02 7.021435630924753468e+01
1.180000000000000000e+02 7.011352531205238847e+01
1.184000000000000057e+02 7.001317726792764518e+01
1.188000000000000114e+02 6.991330819156922871e+01
1.192000000000000028e+02 6.981391414441337417e+01
1.196000000000000085e+02 6.971499123392632669e+01
1.200000000000000000e+02 6.961653561290737002e+01
1.204000000000000057e+02 6.951854347880467344e+01
1.208000000000000114e+02 6.942101107304384300e+01
1.212000000000000028e+02 6.932393468036895001e+01
1.216000000000000085e+02 6.922731062819555348e+01
1.220000000000000000e+02 6.913113528597567381e+01
1.224000000000000057e+02 6.903540506457430581e+01
1.228000000000000114e+02 6.894011641565737136e+01
1.232000000000000028e+02 6.884526583109064291e+01
1.236000000000000085e+02 6.875084984234953822e+01
1.240000000000000000e+02 6.865686501993985758e+01
1.244000000000000057e+02 6.856330797282838319e+01
1.248000000000000114e+02 6.847017534788412263e+01
1.252000000000000028e+02 6.837746382932937195e+01
1.256000000000000085e+02 6.828517013820042791e+01
1.260000000000000000e+02 6.819329103181800633e+01
1.264000000000000057e+02 6.810182330326695421e+01
1.268000000000000114e+02 6.801076378088509955e+01
1.272000000000000028e+02 6.792010932776113918e+01
1.276000000000000085e+02 6.782985684124113845e+01
1.280000000000000000e+02 6.774000325244382736e+01
1.284000000000000057e+02 6.765054552578422431e+01
1.288000000000000114e+02 6.756148065850555895e+01
1.291999999999999886e+02 6.747280568021913894e+01
1.296000000000000227e+02 6.738451765245221736e+01
1.300000000000000000e+02 6.729661366820371882e+01
1.304000000000000057e+02 6.720909085150736928e+01
1.308000000000000114e+02 6.712194635700237200e+01
1.311999999999999886e+02 6.703517736951141615e+01
1.316000000000000227e+02 6.694878110362559198e+01
1.320000000000000000e+02 6.686275480329670984e+01
1.324000000000000057e+02 6.677709574143614191e+01
1.328000000000000114e+02 6.669180121952041418e+01
1.331999999999999886e+02 6.660686856720367643e+01
1.336000000000000227e+02 6.652229514193621185e+01
1.340000000000000000e+02 6.643807832858965412e+01
1.344000000000000057e+02 6.635421553908821579e+01
1.348000000000000114e+02 6.627070421204598460e+01
1.351999999999999886e+02 6.618754181241030210e+01
1.356000000000000227e+02 6.610472583111095446e+01
1.360000000000000000e+02 6.602225378471496242e+01
1.364000000000000057e+02 6.594012321508733976e+01
1.368000000000000114e+02 6.585833168905686819e+01
1.371999999999999886e+02 6.577687679808779819e+01
1.376000000000000227e+02 6.569575615795648105e+01
1.380000000000000000e+02 6.561496740843341513e+01
1.384000000000000057e+02 6.553450821297028028e+01
1.388000000000000114e+02 6.545437625839211648e+01
1.392000000000000171e+02 6.537456925459417789e+01
1.395999999999999943e+02 6.529508493424397386e+01
1.400000000000000000e+02 6.521592105248760163e+01
1.404000000000000057e+02 6.513707538666115227e+01
1.408000000000000114e+02 6.505854573600629465e+01
1.412000000000000171e+02 6.498032992139064845e+01
1.415999999999999943e+02 6.490242578503230675e+01
1.420000000000000000e+02 6.482483119022874973e+01
1.424000000000000057e+02 6.474754402109006435e+01
1.428000000000000114e+02 6.467056218227614295e+01
1.432000000000000171e+02 6.459388359873810259e+01
1.435999999999999943e+02 6.451750621546365494e+01
1.440000000000000000e+02 6.444142799722628467e+01
1.444000000000000057e+02 6.436564692833852064e+01
1.448000000000000114e+02 6.429016101240875969e+01
1.452000000000000171e+02 6.421496827210185643e+01
1.455999999999999943e+02 6.414006674890359250e+01
1.460000000000000000e+02 6.406545450288818699e+01
1.464000000000000057e+02 6.399112961249002751e+01
1.468000000000000114e+02 6.391709017427825046e+01
1.472000000000000171e+02 6.384333430273502330e+01
1.475999999999999943e+02 6.376986013003707399e+01
1.480000000000000000e+02 6.369666580584052440e+01
1.484000000000000057e+02 6.362374949706887151e+01
1.488000000000000114e+02 6.355110938770421569e+01
1.492000000000000171e+02 6.347874367858148759e+01
1.495999999999999943e+02 6.340665058718579417e+01
1.500000000000000000e+02 6.333482834745275625e+01
