1.000000000000000000e+01 8.967516363497131238e+01
1.040000000000000036e+01 9.576910672077684694e+01
1.080000000000000071e+01 1.018206326222662170e+02
1.119999999999999929e+01 1.076108654560902096e+02
1.159999999999999964e+01 1.183315617908746304e+02
1.200000000000000000e+01 1.337916444394273583e+02
1.240000000000000036e+01 1.302793746219794571e+02
1.280000000000000071e+01 1.277352766440858431e+02
1.319999999999999929e+01 1.260772244442561174e+02
1.359999999999999964e+01 1.239284101103958022e+02
1.400000000000000000e+01 1.204070060689251989e+02
1.440000000000000036e+01 1.172106256099788766e+02
1.480000000000000071e+01 1.142882240689862954e+02
1.519999999999999929e+01 1.115999768620901023e+02
1.560000000000000142e+01 1.091141587774397550e+02
1.600000000000000000e+01 1.069638138390655797e+02
1.639999999999999858e+01 1.050352749182317780e+02
1.680000000000000071e+01 1.032299390009101501e+02
1.719999999999999929e+01 1.015345157428203891e+02
1.760000000000000142e+01 9.721900736628457196e+01
1.800000000000000000e+01 9.556380279935505939e+01
1.839999999999999858e+01 9.400056400822042235e+01
1.880000000000000071e+01 9.252063365026023689e+01
1.920000000000000284e+01 9.111649816256310430e+01
1.960000000000000142e+01 8.978159471695482807e+01
2.000000000000000000e+01 8.851015746254954308e+01
2.039999999999999858e+01 8.729709378227201455e+01
2.080000000000000071e+01 8.613788375962296584e+01
2.120000000000000284e+01 8.502849779446894729e+01
2.160000000000000142e+01 8.396532855505058990e+01
2.200000000000000000e+01 8.294513436047117239e+01
2.239999999999999858e+01 8.196499175552591510e+01
2.280000000000000071e+01 8.102225553694391635e+01
2.320000000000000284e+01 8.011420009450360169e+01
2.360000000000000142e+01 7.923834820129506795e+01
2.400000000000000000e+01 7.839283966557913175e+01
2.439999999999999858e+01 7.764334670705770236e+01
2.480000000000000071e+01 7.693230800838193773e+01
2.520000000000000284e+01 7.624425417219993051e+01
2.560000000000000142e+01 7.557792927856270637e+01
2.600000000000000000e+01 7.493217294348289670e+01
2.640000000000000213e+01 7.053205622364806970e+01
2.680000000000000071e+01 6.987721859677849068e+01
2.719999999999999929e+01 6.924153370866329738e+01
2.760000000000000142e+01 6.862406225180133390e+01
2.800000000000000000e+01 6.802392904647895477e+01
2.840000000000000213e+01 6.744031745978233516e+01
2.880000000000000071e+01 6.691425328367344605e+01
2.920000000000000284e+01 6.641991452628664661e+01
2.960000000000000142e+01 6.593840847313339282e+01
3.000000000000000000e+01 6.546916840785416980e+01
3.040000000000000213e+01 6.501166253060664246e+01
3.080000000000000071e+01 6.456539121618884280e+01
3.120000000000000284e+01 6.377612405491902337e+01
3.160000000000000142e+01 6.338375995526399009e+01
3.200000000000000000e+01 6.300014646719655076e+01
3.240000000000000568e+01 6.262494961481333178e+01
3.279999999999999716e+01 6.225785325580572049e+01
3.320000000000000284e+01 6.189855786523805392e+01
3.360000000000000142e+01 6.154677941984796519e+01
3.400000000000000000e+01 6.120224837314001576e+01
3.440000000000000568e+01 6.086470871262082483e+01
3.479999999999999716e+01 6.053391709146527688e+01
3.520000000000000284e+01 6.020964202773060947e+01
3.560000000000000142e+01 5.989166316496321230e+01
3.600000000000000000e+01 5.957977058868367237e+01
3.640000000000000568e+01 5.927376419380212980e+01
3.679999999999999716e+01 5.897345309851714035e+01
3.720000000000000284e+01 5.866974049741577346e+01
3.760000000000000142e+01 5.837012830145036446e+01
3.800000000000000000e+01 5.807589627115918773e+01
3.840000000000000568e+01 5.778687875910021887e+01
3.879999999999999716e+01 5.750291726954537097e+01
3.920000000000000284e+01 5.722386006360640209e+01
3.960000000000000142e+01 5.693947013571955296e+01
4.000000000000000000e+01 5.665601670401991896e+01
4.040000000000000568e+01 5.637745765884373839e+01
4.079999999999999716e+01 5.610364797476982801e+01
4.120000000000000284e+01 5.583444866003426910e+01
4.160000000000000142e+01 5.556972643515096877e+01
4.200000000000000000e+01 5.530935343231853096e+01
4.239999999999999858e+01 5.505320691403655076e+01
4.280000000000000426e+01 5.480116900949077063e+01
4.320000000000000284e+01 5.455312646739098170e+01
4.360000000000000142e+01 5.430897042405629094e+01
4.400000000000000000e+01 5.406859618564443082e+01
4.439999999999999858e+01 5.383190302351243872e+01
4.480000000000000426e+01 5.359879398177944410e+01
4.520000000000000284e+01 5.336917569623791024e+01
4.560000000000000142e+01 5.314295822382710810e+01
4.600000000000000000e+01 5.292005488194627105e+01
4.639999999999999858e+01 4.987042594659110506e+01
4.680000000000000426e+01 4.964386771825853373e+01
4.720000000000000284e+01 4.942054285219631993e+01
4.760000000000000142e+01 4.920037306903311958e+01
4.800000000000000000e+01 4.898328275171142110e+01
4.840000000000000568e+01 4.876919882923342442e+01
4.880000000000000426e+01 4.855805066659048919e+01
4.920000000000000284e+01 4.834976996048943221e+01
4.960000000000000142e+01 4.814429064051646634e+01
5.000000000000000000e+01 4.794154877540474047e+01
5.040000000000000568e+01 4.774148248409580475e+01
5.080000000000000426e+01 4.754403185130613707e+01
5.120000000000000284e+01 4.758337837205985466e+01
5.160000000000000142e+01 4.739979466529093344e+01
5.200000000000000000e+01 4.721847671307620686e+01
5.240000000000000568e+01 4.708636936726733779e+01
5.280000000000000426e+01 4.692370872618948852e+01
5.320000000000000284e+01 4.445729086576554323e+01
5.360000000000000142e+01 4.428781931862398835e+01
5.400000000000000000e+01 4.412029973959367624e+01
5.440000000000000568e+01 4.395469443312169489e+01
5.480000000000000426e+01 4.379096672147180414e+01
5.520000000000000284e+01 4.362908090950019613e+01
5.560000000000000142e+01 4.346900225091599168e+01
5.600000000000000000e+01 4.331069691595271820e+01
5.640000000000000568e+01 4.315413196038146282e+01
5.680000000000000426e+01 4.299927529579994712e+01
5.720000000000000284e+01 4.284609566113560675e+01
5.760000000000000142e+01 4.269456259530454645e+01
5.800000000000000000e+01 4.254464641097089128e+01
5.840000000000000568e+01 4.239631816935444419e+01
5.880000000000000426e+01 4.224954965603747326e+01
5.920000000000000284e+01 4.210431335772367589e+01
5.960000000000000142e+01 4.196058243990558623e+01
6.000000000000000000e+01 4.181833072539819085e+01
6.040000000000000568e+01 4.167753267369948134e+01
6.080000000000000426e+01 4.153816336114040553e+01
6.120000000000000284e+01 4.140019846178835650e+01
6.160000000000000142e+01 4.126361422907109500e+01
6.200000000000000000e+01 4.112838747808840623e+01
6.240000000000000568e+01 4.099449556858176180e+01
6.280000000000000426e+01 4.086191638853284758e+01
6.320000000000000284e+01 4.073007731412371868e+01
6.360000000000000142e+01 4.059858928505494191e+01
6.400000000000000000e+01 4.046837043772718090e+01
6.440000000000000568e+01 4.033940023519561180e+01
6.480000000000001137e+01 4.021165860508551759e+01
6.520000000000000284e+01 4.008512592613035252e+01
6.559999999999999432e+01 3.995978301518453435e+01
6.600000000000000000e+01 3.983561111469128235e+01
6.640000000000000568e+01 3.971259188058682099e+01
6.680000000000001137e+01 3.959070737062285161e+01
6.720000000000000284e+01 3.946994003309050925e+01
6.759999999999999432e+01 3.934591910479857546e+01
6.800000000000000000e+01 3.922276978073795561e+01
6.840000000000000568e+01 3.910075756362442689e+01
6.880000000000001137e+01 3.897788573793060607e+01
6.920000000000000284e+01 3.885299855397360602e+01
6.959999999999999432e+01 3.872925926474187008e+01
7.000000000000000000e+01 3.860665024841482307e+01
7.040000000000000568e+01 3.848515426135541162e+01
7.080000000000001137e+01 3.836475442770957045e+01
7.120000000000000284e+01 3.824543422935391135e+01
7.159999999999999432e+01 3.812717749617784335e+01
7.200000000000000000e+01 3.800996839668706428e+01
7.240000000000000568e+01 3.789379142891598207e+01
7.280000000000001137e+01 3.777863141163702920e+01
7.320000000000000284e+01 3.766447347585541650e+01
7.359999999999999432e+01 3.755130305657853285e+01
7.400000000000000000e+01 3.743910588484949642e+01
7.440000000000000568e+01 3.732786798003486695e+01
7.479999999999999716e+01 3.721757564235700499e+01
7.520000000000000284e+01 3.710821544566188379e+01
7.560000000000000853e+01 3.699977423041372759e+01
7.600000000000000000e+01 3.689223909690795011e+01
7.640000000000000568e+01 3.678559739869459122e+01
7.679999999999999716e+01 3.667983673620429386e+01
7.720000000000000284e+01 3.657494495056976547e+01
7.760000000000000853e+01 3.647091011763545509e+01
7.800000000000000000e+01 3.638306987765379574e+01
7.840000000000000568e+01 3.627941280703571181e+01
7.879999999999999716e+01 3.617659113623155775e+01
7.920000000000000284e+01 3.607459362487380616e+01
7.960000000000000853e+01 3.597340924433280662e+01
8.000000000000000000e+01 3.587302717259779428e+01
8.040000000000000568e+01 3.577343678930890292e+01
8.079999999999999716e+01 3.567462767093471143e+01
8.120000000000000284e+01 3.557658958609029298e+01
8.160000000000000853e+01 3.547931249099124784e+01
8.200000000000000000e+01 3.538278652503849742e+01
8.240000000000000568e+01 3.528700200653003094e+01
8.279999999999999716e+01 3.519194942849490815e+01
8.320000000000000284e+01 3.509761945464549626e+01
8.360000000000000853e+01 3.500400291544406173e+01
8.400000000000000000e+01 3.491109080427985134e+01
8.440000000000000568e+01 3.481887427375300348e+01
8.479999999999999716e+01 3.472734463206180777e+01
8.520000000000000284e+01 3.463649333948988840e+01
8.560000000000000853e+01 3.454631200499008514e+01
8.600000000000000000e+01 3.445679238286186319e+01
8.640000000000000568e+01 3.436792636951926028e+01
8.680000000000001137e+01 3.427970600034648641e+01
8.720000000000000284e+01 3.419212344663829839e+01
8.760000000000000853e+01 3.410517101262252737e+01
8.800000000000000000e+01 3.418915305583875863e+01
8.840000000000000568e+01 3.410567882943728080e+01
8.880000000000001137e+01 3.402278878492276704e+01
8.920000000000000284e+01 3.394047607780363762e+01
8.960000000000000853e+01 3.385873397606482627e+01
9.000000000000000000e+01 3.377755585779176783e+01
9.040000000000000568e+01 3.369693520885570592e+01
9.080000000000001137e+01 3.361686562065848705e+01
9.120000000000000284e+01 3.353734078793470985e+01
9.160000000000000853e+01 3.345835450661007826e+01
9.200000000000000000e+01 3.337990067171364927e+01
9.240000000000000568e+01 3.330197327534281726e+01
9.280000000000001137e+01 3.322456640467931521e+01
9.320000000000000284e+01 3.314711216976487407e+01
9.360000000000000853e+01 3.307013777844039737e+01
9.400000000000000000e+01 3.299367229201307339e+01
9.440000000000000568e+01 3.291771008515715380e+01
9.480000000000001137e+01 3.284224561969949008e+01
9.520000000000000284e+01 3.276727344288491395e+01
9.560000000000000853e+01 3.269278818568366773e+01
9.600000000000000000e+01 3.261878456113976910e+01
9.640000000000000568e+01 3.254525736275916614e+01
9.680000000000001137e+01 3.247220146293643950e+01
9.720000000000000284e+01 3.239961181141910629e+01
9.760000000000000853e+01 3.232748343380838918e+01
9.800000000000000000e+01 3.225581143009541307e+01
9.840000000000000568e+01 3.218459097323182760e+01
9.880000000000001137e+01 3.211381730773408094e+01
9.920000000000000284e+01 3.204348574832011565e+01
9.960000000000000853e+01 3.197359167857783291e+01
1.000000000000000000e+02 3.190413054966437301e+01
1.004000000000000057e+02 3.202084193642237864e+01
1.008000000000000114e+02 3.195600356618972171e+01
1.012000000000000028e+02 3.189155272237132621e+01
1.016000000000000085e+02 3.182748550733438364e+01
1.020000000000000000e+02 3.176379807855965254e+01
1.024000000000000057e+02 3.170048664763796609e+01
1.028000000000000114e+02 3.163754747928913247e+01
1.032000000000000028e+02 3.157497689040252808e+01
1.036000000000000085e+02 3.151277124909886140e+01
1.040000000000000000e+02 3.145092697381264202e+01
1.044000000000000057e+02 3.138944053239464438e+01
1.048000000000000114e+02 3.132830844123402869e+01
1.052000000000000028e+02 3.126752726439945818e+01
1.056000000000000085e+02 3.120709361279883609e+01
1.060000000000000000e+02 3.114700414335710832e+01
1.064000000000000057e+02 3.108725555821179043e+01
1.068000000000000114e+02 3.102784460392556554e+01
1.072000000000000028e+02 3.096876807071575044e+01
1.076000000000000085e+02 3.091002279170006517e+01
1.080000000000000000e+02 3.085160564215826895e+01
1.084000000000000057e+02 3.079351353880948139e+01
1.088000000000000114e+02 3.073569624444441217e+01
1.092000000000000028e+02 3.067819168491960369e+01
1.096000000000000085e+02 3.062100228181043704e+01
1.100000000000000000e+02 3.056412513419661892e+01
1.104000000000000057e+02 3.050755737865474515e+01
1.108000000000000114e+02 3.046795178948023164e+01
1.112000000000000028e+02 3.053517464766180112e+01
1.116000000000000085e+02 3.048247276712217868e+01
1.120000000000000000e+02 3.043004709536491958e+01
1.124000000000000057e+02 3.037789518449646664e+01
1.128000000000000114e+02 3.032601461718025959e+01
1.132000000000000028e+02 3.027440300614503599e+01
1.136000000000000085e+02 3.022305799370287716e+01
1.140000000000000000e+02 3.017197725127662267e+01
1.144000000000000057e+02 3.012115847893660359e+01
1.148000000000000114e+02 3.007059940494638184e+01
1.152000000000000028e+02 3.002029778531720439e+01
1.156000000000000085e+02 2.997025140337123617e+01
1.160000000000000000e+02 2.992045806931307084e+01
1.164000000000000057e+02 2.987091561980952292e+01
1.168000000000000114e+02 2.982162191757746683e+01
1.172000000000000028e+02 2.977257485097949541e+01
1.176000000000000085e+02 2.972377233362727722e+01
1.180000000000000000e+02 2.967521230399241361e+01
1.184000000000000057e+02 2.962689272502464988e+01
1.188000000000000114e+02 2.957881158377725939e+01
1.192000000000000028e+02 2.953096689103937678e+01
1.196000000000000085e+02 2.948335668097529805e+01
1.200000000000000000e+02 2.943597901077042422e+01
1.204000000000000057e+02 2.938883196028374556e+01
1.208000000000000114e+02 2.934191363170684141e+01
1.212000000000000028e+02 2.929522214922899792e+01
1.216000000000000085e+02 2.924875565870864591e+01
1.220000000000000000e+02 2.920251232735067504e+01
1.224000000000000057e+02 2.915649034338964540e+01
1.228000000000000114e+02 2.911068791577884340e+01
1.232000000000000028e+02 2.906510327388480164e+01
1.236000000000000085e+02 2.901973466718753514e+01
1.240000000000000000e+02 2.897458036498593259e+01
1.244000000000000057e+02 2.892963865610862229e+01
1.248000000000000114e+02 2.888490784862987226e+01
1.252000000000000028e+02 2.884038626959062057e+01
1.256000000000000085e+02 2.879607226472442960e+01
1.260000000000000000e+02 2.875196419818826143e+01
1.264000000000000057e+02 2.870806045229801384e+01
1.268000000000000114e+02 2.866435942726872099e+01
1.272000000000000028e+02 2.862085954095928741e+01
1.276000000000000085e+02 2.857755922862164510e+01
1.280000000000000000e+02 2.853445694265431243e+01
1.284000000000000057e+02 2.849155115236021985e+01
1.288000000000000114e+02 2.844876648766355132e+01
1.291999999999999886e+02 2.840613603881861593e+01
1.296000000000000227e+02 2.836369802938982687e+01
1.300000000000000000e+02 2.832145099258816856e+01
1.304000000000000057e+02 2.827939347736178632e+01
1.308000000000000114e+02 2.823752404817859230e+01
1.311999999999999886e+02 2.819584128481242402e+01
1.316000000000000227e+02 2.815434378213278066e+01
1.320000000000000000e+02 2.811297659518384506e+01
1.324000000000000057e+02 2.807102776523527510e+01
1.328000000000000114e+02 2.802926549587228777e+01
1.331999999999999886e+02 2.797384789812229400e+01
1.336000000000000227e+02 2.793289449540860758e+01
1.340000000000000000e+02 2.789212101269116673e+01
1.344000000000000057e+02 2.785152611560014080e+01
1.348000000000000114e+02 2.781110848369802468e+01
1.351999999999999886e+02 2.777086681029216919e+01
1.356000000000000227e+02 2.773079980225046626e+01
1.360000000000000000e+02 2.769090617982007174e+01
1.364000000000000057e+02 2.765118467644901656e+01
1.368000000000000114e+02 2.761163403861079502e+01
1.371999999999999886e+02 2.757225302563175973e+01
1.376000000000000227e+02 2.753304040952137299e+01
1.380000000000000000e+02 2.749399497480511911e+01
1.384000000000000057e+02 2.745511551836014874e+01
1.388000000000000114e+02 2.741640084925358778e+01
1.392000000000000171e+02 2.737784978858339002e+01
1.395999999999999943e+02 2.733946116932176906e+01
1.400000000000000000e+02 2.730123383616105670e+01
1.404000000000000057e+02 2.726316664536211931e+01
1.408000000000000114e+02 2.722525846460506571e+01
1.412000000000000171e+02 2.718750817284233889e+01
1.415999999999999943e+02 2.714991466015417387e+01
1.420000000000000000e+02 2.711247682760623690e+01
1.424000000000000057e+02 2.707519358710955970e+01
1.428000000000000114e+02 2.703806386128262318e+01
1.432000000000000171e+02 2.700108658331561529e+01
1.435999999999999943e+02 2.696426069683674243e+01
1.440000000000000000e+02 2.692758515578064049e+01
1.444000000000000057e+02 2.689105892425883937e+01
1.448000000000000114e+02 2.685438404539773671e+01
1.452000000000000171e+02 2.681762590379894107e+01
1.455999999999999943e+02 2.678101717024857464e+01
1.460000000000000000e+02 2.674455682114147947e+01
1.464000000000000057e+02 2.670824384274221330e+01
1.468000000000000114e+02 2.667207723106253781e+01
1.472000000000000171e+02 2.663605599174061922e+01
1.475999999999999943e+02 2.660017913992216521e+01
1.480000000000000000e+02 2.656444570014334516e+01
1.484000000000000057e+02 2.652885470621543362e+01
1.488000000000000114e+02 2.649340520111119801e+01
1.492000000000000171e+02 2.645670804339791360e+01
1.495999999999999943e+02 2.642178220058918825e+01
1.500000000000000000e+02 2.638699379773383669e+01
