1.000000000000000000e+01 8.769422518933421884e+01
1.040000000000000036e+01 9.422227270794638798e+01
1.080000000000000071e+01 1.012926301650852139e+02
1.119999999999999929e+01 1.072488071879974711e+02
1.159999999999999964e+01 1.181299507649173393e+02
1.200000000000000000e+01 1.358456915180621820e+02
1.240000000000000036e+01 1.313103287044023659e+02
1.280000000000000071e+01 1.280506272435487176e+02
1.319999999999999929e+01 1.258010030010510292e+02
1.359999999999999964e+01 1.230593495957542558e+02
1.400000000000000000e+01 1.197276407409819967e+02
1.440000000000000036e+01 1.166979154228502722e+02
1.480000000000000071e+01 1.139234599511596571e+02
1.519999999999999929e+01 1.113676604651577406e+02
1.560000000000000142e+01 1.090012438161666921e+02
1.600000000000000000e+01 1.069591723031895327e+02
1.639999999999999858e+01 1.051293095837317395e+02
1.680000000000000071e+01 1.034142947350389790e+02
1.719999999999999929e+01 1.018018596414817694e+02
1.760000000000000142e+01 1.002815713023656059e+02
1.800000000000000000e+01 9.884448219059109420e+01
1.839999999999999858e+01 9.748286070273731241e+01
1.880000000000000071e+01 9.618998047992486988e+01
1.920000000000000284e+01 9.495995370710123495e+01
1.960000000000000142e+01 9.378759774465383714e+01
2.000000000000000000e+01 8.869130508441944016e+01
2.039999999999999858e+01 8.749709030736396187e+01
2.080000000000000071e+01 8.643893451191313204e+01
2.120000000000000284e+01 8.542690262337464446e+01
2.160000000000000142e+01 8.445759163009310555e+01
2.200000000000000000e+01 8.352794894662189051e+01
2.239999999999999858e+01 8.263522642068272717e+01
2.280000000000000071e+01 8.177694162667071964e+01
2.320000000000000284e+01 8.095084510226365637e+01
2.360000000000000142e+01 8.015489246551476299e+01
2.400000000000000000e+01 7.938722056536231264e+01
2.439999999999999858e+01 7.864612698539318103e+01
2.480000000000000071e+01 7.793005235098641492e+01
2.520000000000000284e+01 7.723756499244518636e+01
2.560000000000000142e+01 7.656734759791706324e+01
2.600000000000000000e+01 7.591818555465890483e+01
2.640000000000000213e+01 7.151490948493764677e+01
2.680000000000000071e+01 7.085694168945612148e+01
2.719999999999999929e+01 7.021818268855710699e+01
2.760000000000000142e+01 6.959769318876759314e+01
2.800000000000000000e+01 6.899459782464332136e+01
2.840000000000000213e+01 6.840807961249716129e+01
2.880000000000000071e+01 6.787916385768301097e+01
2.920000000000000284e+01 6.738202797050577431e+01
2.960000000000000142e+01 6.689777854819580227e+01
3.000000000000000000e+01 6.642584811320541860e+01
3.040000000000000213e+01 6.596570404643026109e+01
3.080000000000000071e+01 6.551684585787862147e+01
3.120000000000000284e+01 6.507880271584507170e+01
3.160000000000000142e+01 6.465113120597575858e+01
3.200000000000000000e+01 6.423341329522497745e+01
3.240000000000000568e+01 6.382525447880239255e+01
3.279999999999999716e+01 6.342628209088093172e+01
3.320000000000000284e+01 6.303614376214055426e+01
3.360000000000000142e+01 6.265450600922033431e+01
3.400000000000000000e+01 6.228105294288141636e+01
3.440000000000000568e+01 6.191548508319249322e+01
3.479999999999999716e+01 6.155751827136232635e+01
3.520000000000000284e+01 6.120688266899251317e+01
3.560000000000000142e+01 6.066781275877383450e+01
3.600000000000000000e+01 6.034854260720625518e+01
3.640000000000000568e+01 6.003542411354402475e+01
3.679999999999999716e+01 5.972825375063803932e+01
3.720000000000000284e+01 5.941792282558689919e+01
3.760000000000000142e+01 5.911192206477853972e+01
3.800000000000000000e+01 5.881152069684635109e+01
3.840000000000000568e+01 5.851654314905447052e+01
3.879999999999999716e+01 5.822682156475389093e+01
3.920000000000000284e+01 5.794219536971941409e+01
3.960000000000000142e+01 5.766251086806177995e+01
4.000000000000000000e+01 5.738762086534934781e+01
4.040000000000000568e+01 5.711738431679147254e+01
4.079999999999999716e+01 5.353240075371294182e+01
4.120000000000000284e+01 5.326099236687993255e+01
4.160000000000000142e+01 5.299399888824869009e+01
4.200000000000000000e+01 5.273129825316290464e+01
4.239999999999999858e+01 5.247277313923298436e+01
4.280000000000000426e+01 5.221831072984025468e+01
4.320000000000000284e+01 5.196780249200097757e+01
4.360000000000000142e+01 5.172114396756455079e+01
4.400000000000000000e+01 5.147823457680490833e+01
4.439999999999999858e+01 5.123897743354005740e+01
4.480000000000000426e+01 5.100327917098368857e+01
4.520000000000000284e+01 5.076389328326792594e+01
4.560000000000000142e+01 5.052750935907697283e+01
4.600000000000000000e+01 5.029459763398861583e+01
4.639999999999999858e+01 5.006507145551326232e+01
4.680000000000000426e+01 4.983884721263500950e+01
4.720000000000000284e+01 4.961584419866117912e+01
4.760000000000000142e+01 4.939598448160688093e+01
4.800000000000000000e+01 4.917919278162769814e+01
4.840000000000000568e+01 4.896539635504948507e+01
4.880000000000000426e+01 4.875452488457754185e+01
4.920000000000000284e+01 4.854651037529734481e+01
4.960000000000000142e+01 4.834128705610794441e+01
5.000000000000000000e+01 4.813879128625344350e+01
5.040000000000000568e+01 4.793896146664257429e+01
5.080000000000000426e+01 4.774173795566758827e+01
5.120000000000000284e+01 4.754706298925371044e+01
5.160000000000000142e+01 4.735488060488900430e+01
5.200000000000000000e+01 4.716513656940126253e+01
5.240000000000000568e+01 4.702477071886647764e+01
5.280000000000000426e+01 4.685401432685553402e+01
5.320000000000000284e+01 4.437965882662373929e+01
5.360000000000000142e+01 4.420240328177725786e+01
5.400000000000000000e+01 4.402724904378821691e+01
5.440000000000000568e+01 4.385415427186596560e+01
5.480000000000000426e+01 4.368307829401472731e+01
5.520000000000000284e+01 4.351398156504933468e+01
5.560000000000000142e+01 4.334682562645318171e+01
5.600000000000000000e+01 4.318157306798288886e+01
5.640000000000000568e+01 4.301818749093006744e+01
5.680000000000000426e+01 4.285663347295552228e+01
5.720000000000000284e+01 4.269687653441675934e+01
5.760000000000000142e+01 4.265537266080273326e+01
5.800000000000000000e+01 4.250568615084642943e+01
5.840000000000000568e+01 4.235758525003640784e+01
5.880000000000000426e+01 4.221104175456214591e+01
5.920000000000000284e+01 4.206602816268305389e+01
5.960000000000000142e+01 4.192251765232184368e+01
6.000000000000000000e+01 4.178048405952866062e+01
6.040000000000000568e+01 4.163990185777654318e+01
6.080000000000000426e+01 4.149995006823240828e+01
6.120000000000000284e+01 4.135494988682886230e+01
6.160000000000000142e+01 4.121142947963406300e+01
6.200000000000000000e+01 4.106936359846731932e+01
6.240000000000000568e+01 4.092872759693690199e+01
6.280000000000000426e+01 4.078949741207556201e+01
6.320000000000000284e+01 4.065164954665773678e+01
6.360000000000000142e+01 4.051516105216869335e+01
6.400000000000000000e+01 4.038000951239726533e+01
6.440000000000000568e+01 4.024617302762545989e+01
6.480000000000001137e+01 4.011363019938924879e+01
6.520000000000000284e+01 3.998236011578637772e+01
6.559999999999999432e+01 3.985234233730810161e+01
6.600000000000000000e+01 3.972355688317272637e+01
6.640000000000000568e+01 3.959598421814035873e+01
6.680000000000001137e+01 3.946960523978859925e+01
6.720000000000000284e+01 3.934440126623036349e+01
6.759999999999999432e+01 3.921600043312500361e+01
6.800000000000000000e+01 3.908852686241280594e+01
6.840000000000000568e+01 3.896224501096330073e+01
6.880000000000001137e+01 3.883713625532415392e+01
6.920000000000000284e+01 3.871318237910303850e+01
6.959999999999999432e+01 3.859036556156192432e+01
7.000000000000000000e+01 3.846866836660066724e+01
7.040000000000000568e+01 3.834685212389855735e+01
7.080000000000001137e+01 3.822577523740237382e+01
7.120000000000000284e+01 3.810578903729575018e+01
7.159999999999999432e+01 3.798687710737968359e+01
7.200000000000000000e+01 3.786902337711399014e+01
7.240000000000000568e+01 3.775221211228489437e+01
7.280000000000001137e+01 3.763642790597960186e+01
7.320000000000000284e+01 3.752165566985576817e+01
7.359999999999999432e+01 3.740788062569468053e+01
7.400000000000000000e+01 3.729508829722717422e+01
7.440000000000000568e+01 3.718326450222211577e+01
7.479999999999999716e+01 3.707239534482722121e+01
7.520000000000000284e+01 3.696246720815298659e+01
7.560000000000000853e+01 3.685346674709053616e+01
7.600000000000000000e+01 3.674538088135470559e+01
7.640000000000000568e+01 3.663819678874409647e+01
7.679999999999999716e+01 3.653190189861000903e+01
7.720000000000000284e+01 3.642648388552682803e+01
7.760000000000000853e+01 3.632193066315630148e+01
7.800000000000000000e+01 3.621626524229265698e+01
7.840000000000000568e+01 3.611029639176213379e+01
7.879999999999999716e+01 3.600519023838067767e+01
7.920000000000000284e+01 3.590093508211967332e+01
7.960000000000000853e+01 3.579751944484259241e+01
8.000000000000000000e+01 3.569493206490949433e+01
8.040000000000000568e+01 3.559316189194152003e+01
8.079999999999999716e+01 3.549219808173938873e+01
8.120000000000000284e+01 3.539202999135079608e+01
8.160000000000000853e+01 3.529264717428160480e+01
8.200000000000000000e+01 3.519403937584564801e+01
8.240000000000000568e+01 3.509619652864874695e+01
8.279999999999999716e+01 3.499910874820210438e+01
8.320000000000000284e+01 3.490276632866095241e+01
8.360000000000000853e+01 3.480715973868397839e+01
8.400000000000000000e+01 3.471227961740973456e+01
8.440000000000000568e+01 3.461811677054603820e+01
8.479999999999999716e+01 3.452466216656861775e+01
8.520000000000000284e+01 3.443190693302545924e+01
8.560000000000000853e+01 3.433984235294327902e+01
8.600000000000000000e+01 3.427436903726058404e+01
8.640000000000000568e+01 3.418538482158612624e+01
8.680000000000001137e+01 3.409704742571697977e+01
8.720000000000000284e+01 3.400934900755044765e+01
8.760000000000000853e+01 3.392228185808068730e+01
8.800000000000000000e+01 3.400615032177621089e+01
8.840000000000000568e+01 3.392256363887755555e+01
8.880000000000001137e+01 3.383956224813972824e+01
8.920000000000000284e+01 3.375713929248031064e+01
8.960000000000000853e+01 3.367528802745065519e+01
9.000000000000000000e+01 3.359400181885869330e+01
9.040000000000000568e+01 3.351327414045267972e+01
9.080000000000001137e+01 3.343309857166452304e+01
9.120000000000000284e+01 3.361059899270057372e+01
9.160000000000000853e+01 3.353639492312497339e+01
9.200000000000000000e+01 3.346267865987461931e+01
9.240000000000000568e+01 3.338944479427057388e+01
9.280000000000001137e+01 3.331668800205921599e+01
9.320000000000000284e+01 3.324440304171388050e+01
9.360000000000000853e+01 3.317258475277812124e+01
9.400000000000000000e+01 3.310122805424964554e+01
9.440000000000000568e+01 3.303032794300363406e+01
9.480000000000001137e+01 3.295987949225435898e+01
9.520000000000000284e+01 3.288987785005392084e+01
9.560000000000000853e+01 3.282031823782722313e+01
9.600000000000000000e+01 3.275119594894184871e+01
9.640000000000000568e+01 3.268250634731222704e+01
9.680000000000001137e+01 3.261424486603675632e+01
9.720000000000000284e+01 3.254640700606732651e+01
9.760000000000000853e+01 3.247898833490992132e+01
9.800000000000000000e+01 3.241198448535584475e+01
9.840000000000000568e+01 3.234539115424244216e+01
9.880000000000001137e+01 3.227920410124261252e+01
9.920000000000000284e+01 3.221341914768236592e+01
9.960000000000000853e+01 3.214803217538544544e+01
1.000000000000000000e+02 3.208303912554466564e+01
1.004000000000000057e+02 3.201843599761878778e+01
1.008000000000000114e+02 3.195421884825461945e+01
1.012000000000000028e+02 3.189038379023342529e+01
1.016000000000000085e+02 3.182649964038946422e+01
1.020000000000000000e+02 3.176290641414372828e+01
1.024000000000000057e+02 3.169968855635426053e+01
1.028000000000000114e+02 3.163684233528733003e+01
1.032000000000000028e+02 3.157436407140638579e+01
1.036000000000000085e+02 3.151225013643151840e+01
1.040000000000000000e+02 3.145049695241964471e+01
1.044000000000000057e+02 3.138910099086486838e+01
1.048000000000000114e+02 3.132805877181851528e+01
1.052000000000000028e+02 3.126736686302826485e+01
1.056000000000000085e+02 3.120702187909600411e+01
1.060000000000000000e+02 3.114702048065384687e+01
1.064000000000000057e+02 3.108735937355789503e+01
1.068000000000000114e+02 3.102803530809915245e+01
1.072000000000000028e+02 3.096904507823145636e+01
1.076000000000000085e+02 3.091038552081567659e+01
1.080000000000000000e+02 3.085205351487994818e+01
1.084000000000000057e+02 3.079404598089550049e+01
1.088000000000000114e+02 3.073631268540770733e+01
1.092000000000000028e+02 3.067889155802888013e+01
1.096000000000000085e+02 3.062178502409016545e+01
1.100000000000000000e+02 3.056499018642584531e+01
1.104000000000000057e+02 3.050850418536479225e+01
1.108000000000000114e+02 3.045232419810601954e+01
1.112000000000000028e+02 3.051909160165790169e+01
1.116000000000000085e+02 3.046593741750758966e+01
1.120000000000000000e+02 3.041306256130238239e+01
1.124000000000000057e+02 3.036046455371980812e+01
1.128000000000000114e+02 3.030814094641473844e+01
1.132000000000000028e+02 3.025608932152085728e+01
1.136000000000000085e+02 3.020430729116189639e+01
1.140000000000000000e+02 3.015279249697249497e+01
1.144000000000000057e+02 3.010154260962842088e+01
1.148000000000000114e+02 3.005055532838593280e+01
1.152000000000000028e+02 2.999982838063001722e+01
1.156000000000000085e+02 2.994935952143144675e+01
1.160000000000000000e+02 2.989914653311229387e+01
1.164000000000000057e+02 2.984918722481980069e+01
1.168000000000000114e+02 2.979947943210844841e+01
1.172000000000000028e+02 2.975002101652988529e+01
1.176000000000000085e+02 2.970080986523070266e+01
1.180000000000000000e+02 2.965184389055786340e+01
1.184000000000000057e+02 2.960312102967143133e+01
1.188000000000000114e+02 2.955463924416474697e+01
1.192000000000000028e+02 2.950639651969155608e+01
1.196000000000000085e+02 2.945839086560018671e+01
1.200000000000000000e+02 2.942467353791881024e+01
1.204000000000000057e+02 2.937762628711414692e+01
1.208000000000000114e+02 2.933080691882057067e+01
1.212000000000000028e+02 2.928414743264593767e+01
1.216000000000000085e+02 2.923677035370725363e+01
1.220000000000000000e+02 2.918962277289973883e+01
1.224000000000000057e+02 2.914270281493694270e+01
1.228000000000000114e+02 2.909600862609322647e+01
1.232000000000000028e+02 2.904953837388453053e+01
1.236000000000000085e+02 2.900329024675495759e+01
1.240000000000000000e+02 2.895726245376891228e+01
1.244000000000000057e+02 2.891145322430889664e+01
1.248000000000000114e+02 2.886586080777860275e+01
1.252000000000000028e+02 2.882048347331142679e+01
1.256000000000000085e+02 2.877531950948403505e+01
1.260000000000000000e+02 2.873036722403515597e+01
1.264000000000000057e+02 2.868562494358922166e+01
1.268000000000000114e+02 2.864109101338497254e+01
1.272000000000000028e+02 2.859676379700876581e+01
1.276000000000000085e+02 2.855264167613259119e+01
1.280000000000000000e+02 2.850872305025662712e+01
1.284000000000000057e+02 2.846500633645634082e+01
1.288000000000000114e+02 2.842148996913387649e+01
1.291999999999999886e+02 2.837817239977384531e+01
1.296000000000000227e+02 2.833505209670322245e+01
1.300000000000000000e+02 2.829212754485548942e+01
1.304000000000000057e+02 2.824939724553865972e+01
1.308000000000000114e+02 2.820685971620741128e+01
1.311999999999999886e+02 2.816451349023904172e+01
1.316000000000000227e+02 2.812235711671316096e+01
1.320000000000000000e+02 2.808038916019521025e+01
1.324000000000000057e+02 2.803860820052357994e+01
1.328000000000000114e+02 2.799701283260029783e+01
1.331999999999999886e+02 2.794176117539991466e+01
1.336000000000000227e+02 2.790097276021169037e+01
1.340000000000000000e+02 2.786036331978127478e+01
1.344000000000000057e+02 2.781993152744523456e+01
1.348000000000000114e+02 2.777967607039405351e+01
1.351999999999999886e+02 2.773959564948559731e+01
1.356000000000000227e+02 2.769968897906166561e+01
1.360000000000000000e+02 2.765995478676761721e+01
1.364000000000000057e+02 2.762039181337483384e+01
1.368000000000000114e+02 2.758099881260621800e+01
1.371999999999999886e+02 2.754177455096439076e+01
1.376000000000000227e+02 2.750271780756281004e+01
1.380000000000000000e+02 2.746382737395952134e+01
1.384000000000000057e+02 2.742505066195306895e+01
1.388000000000000114e+02 2.738637418277880897e+01
1.392000000000000171e+02 2.734786098042504676e+01
1.395999999999999943e+02 2.730950989156722741e+01
1.400000000000000000e+02 2.727131976455158480e+01
1.404000000000000057e+02 2.723328945924436795e+01
1.408000000000000114e+02 2.719541784688327368e+01
1.412000000000000171e+02 2.715770380993131994e+01
1.415999999999999943e+02 2.712014624193301415e+01
1.420000000000000000e+02 2.708274404737270658e+01
1.424000000000000057e+02 2.704549614153523152e+01
1.428000000000000114e+02 2.700840145036871931e+01
1.432000000000000171e+02 2.697145891034946175e+01
1.435999999999999943e+02 2.693466746834897663e+01
1.440000000000000000e+02 2.689802608150300856e+01
1.444000000000000057e+02 2.686153371708267201e+01
1.448000000000000114e+02 2.682489242133307528e+01
1.452000000000000171e+02 2.678816758193421066e+01
1.455999999999999943e+02 2.675159187271096428e+01
1.460000000000000000e+02 2.671516427305784447e+01
1.464000000000000057e+02 2.667888377220064200e+01
1.468000000000000114e+02 2.664274936907439795e+01
1.472000000000000171e+02 2.660676007220328643e+01
1.475999999999999943e+02 2.657091489958222752e+01
1.480000000000000000e+02 2.653521287856040445e+01
1.484000000000000057e+02 2.649965304572639724e+01
1.488000000000000114e+02 2.646423444679516734e+01
1.492000000000000171e+02 2.642895613649661257e+01
1.495999999999999943e+02 2.639381717846593745e+01
1.500000000000000000e+02 2.635881664513547662e+01
