1.000000000000000000e+01 1.109263454139583018e+02
1.040000000000000036e+01 1.144281322754484336e+02
1.080000000000000071e+01 1.203915699086328317e+02
1.119999999999999929e+01 1.261604585649826049e+02
1.159999999999999964e+01 1.417845260619835983e+02
1.200000000000000000e+01 1.429837573980523189e+02
1.240000000000000036e+01 1.379909131259610433e+02
1.280000000000000071e+01 1.335682846284568086e+02
1.319999999999999929e+01 1.296077870738193667e+02
1.359999999999999964e+01 1.260292507557368538e+02
1.400000000000000000e+01 1.195783746776663605e+02
1.440000000000000036e+01 1.162826091022980819e+02
1.480000000000000071e+01 1.132465142620823286e+02
1.519999999999999929e+01 1.104364778246001038e+02
1.560000000000000142e+01 1.078248579987515257e+02
1.600000000000000000e+01 1.057061682679344869e+02
1.639999999999999858e+01 1.038760295355175174e+02
1.680000000000000071e+01 1.021560476966079989e+02
1.719999999999999929e+01 1.005352560029588744e+02
1.760000000000000142e+01 9.900418995030997849e+01
1.800000000000000000e+01 9.755462777686753384e+01
1.839999999999999858e+01 9.617938460527244615e+01
1.880000000000000071e+01 9.487214741860910294e+01
1.920000000000000284e+01 9.362734150557101032e+01
1.960000000000000142e+01 9.246364472682313362e+01
2.000000000000000000e+01 9.136156815214556559e+01
2.039999999999999858e+01 9.030587663652208619e+01
2.080000000000000071e+01 8.929329684537282219e+01
2.120000000000000284e+01 8.832087623474393467e+01
2.160000000000000142e+01 8.738594306574383097e+01
2.200000000000000000e+01 8.648607243480719831e+01
2.239999999999999858e+01 8.561905726518372717e+01
2.280000000000000071e+01 8.478288341505152914e+01
2.320000000000000284e+01 8.397570822106176536e+01
2.360000000000000142e+01 8.319584192427993230e+01
2.400000000000000000e+01 8.244173152675391236e+01
2.439999999999999858e+01 8.171194670750770683e+01
2.480000000000000071e+01 8.100516749128800598e+01
2.520000000000000284e+01 8.032017341538727351e+01
2.560000000000000142e+01 7.965583398201403043e+01
2.600000000000000000e+01 7.901110021803054906e+01
2.640000000000000213e+01 7.083728751353680764e+01
2.680000000000000071e+01 6.953806325258560150e+01
2.719999999999999929e+01 6.886922250516519739e+01
2.760000000000000142e+01 6.821923216981255678e+01
2.800000000000000000e+01 6.758721148720391625e+01
2.840000000000000213e+01 6.697233681329700516e+01
2.880000000000000071e+01 6.641562577391108846e+01
2.920000000000000284e+01 6.589124728836758038e+01
2.960000000000000142e+01 6.538029882603515830e+01
3.000000000000000000e+01 6.488220329134711051e+01
3.040000000000000213e+01 6.439641808030702919e+01
3.080000000000000071e+01 6.392243245468630874e+01
3.120000000000000284e+01 6.345976515804379403e+01
3.160000000000000142e+01 6.300796224753218411e+01
3.200000000000000000e+01 6.256659511865347412e+01
3.240000000000000568e+01 6.213525870288307118e+01
3.279999999999999716e+01 6.171356982046854256e+01
3.320000000000000284e+01 6.130116567277434569e+01
3.360000000000000142e+01 6.089770246034293422e+01
3.400000000000000000e+01 6.049474375978681451e+01
3.440000000000000568e+01 6.009732109240942322e+01
3.479999999999999716e+01 5.970823803524087481e+01
3.520000000000000284e+01 5.932720105002308486e+01
3.560000000000000142e+01 5.895393096768859920e+01
3.600000000000000000e+01 5.858816209261421903e+01
3.640000000000000568e+01 5.822964137442384924e+01
3.679999999999999716e+01 5.787812764138283939e+01
3.720000000000000284e+01 5.751556168346893116e+01
3.760000000000000142e+01 5.715707588286159080e+01
3.800000000000000000e+01 5.680535280674854448e+01
3.840000000000000568e+01 5.646017899634738768e+01
3.879999999999999716e+01 5.612135037001480953e+01
3.920000000000000284e+01 5.578867169839945461e+01
3.960000000000000142e+01 5.546195611514049517e+01
4.000000000000000000e+01 5.514102466029547145e+01
4.040000000000000568e+01 5.482570585393726503e+01
4.079999999999999716e+01 5.451583529758686097e+01
4.120000000000000284e+01 5.421125530135643800e+01
4.160000000000000142e+01 5.391181453486174746e+01
4.200000000000000000e+01 5.361736770013023801e+01
4.239999999999999858e+01 5.332777522488284205e+01
4.280000000000000426e+01 5.304290297470406301e+01
4.320000000000000284e+01 5.276262198273848014e+01
4.360000000000000142e+01 5.266980286014514689e+01
4.400000000000000000e+01 5.240481196988753965e+01
4.439999999999999858e+01 5.214392027196921475e+01
4.480000000000000426e+01 5.188702113774974833e+01
4.520000000000000284e+01 5.163401181146439001e+01
4.560000000000000142e+01 5.138479323053965686e+01
4.600000000000000000e+01 5.113926985601900554e+01
4.639999999999999858e+01 5.089734951243157468e+01
4.680000000000000426e+01 5.065894323648800679e+01
4.720000000000000284e+01 5.042396513403252101e+01
4.760000000000000142e+01 5.019233224472319677e+01
4.800000000000000000e+01 4.996396441395086185e+01
4.840000000000000568e+01 4.973878417154278964e+01
4.880000000000000426e+01 4.951671661682932069e+01
4.920000000000000284e+01 4.929768930968216267e+01
4.960000000000000142e+01 4.908163216716063459e+01
5.000000000000000000e+01 4.886847736542699039e+01
5.040000000000000568e+01 4.865815924661600178e+01
5.080000000000000426e+01 4.845061423036499804e+01
5.120000000000000284e+01 4.824578072973098131e+01
5.160000000000000142e+01 4.804359907123947693e+01
5.200000000000000000e+01 4.784401141882678843e+01
5.240000000000000568e+01 4.774094651865738115e+01
5.280000000000000426e+01 4.757491449742796874e+01
5.320000000000000284e+01 4.510517081844027132e+01
5.360000000000000142e+01 4.493188037485384001e+01
5.400000000000000000e+01 4.476044492729508306e+01
5.440000000000000568e+01 4.459097065412102268e+01
5.480000000000000426e+01 4.442342009440676520e+01
5.520000000000000284e+01 4.425775678368040644e+01
5.560000000000000142e+01 4.409394522010407513e+01
5.600000000000000000e+01 4.393195083204606277e+01
5.640000000000000568e+01 4.377173994697708537e+01
5.680000000000000426e+01 4.361327976162699827e+01
5.720000000000000284e+01 4.345653831334242767e+01
5.760000000000000142e+01 4.330148445258861045e+01
5.800000000000000000e+01 4.314808781654185310e+01
5.840000000000000568e+01 4.299631880372187709e+01
5.880000000000000426e+01 4.284614854961630215e+01
5.920000000000000284e+01 4.269754890325127406e+01
5.960000000000000142e+01 4.255049240466593119e+01
6.000000000000000000e+01 4.240495226324901523e+01
6.040000000000000568e+01 4.226090233689960485e+01
6.080000000000000426e+01 4.211831711197490336e+01
6.120000000000000284e+01 4.197717168399013588e+01
6.160000000000000142e+01 4.183744173903784969e+01
6.200000000000000000e+01 4.169910353589463625e+01
6.240000000000000568e+01 4.156213388878596504e+01
6.280000000000000426e+01 4.142651015078046584e+01
6.320000000000000284e+01 4.129221019778665891e+01
6.360000000000000142e+01 4.115921241312660328e+01
6.400000000000000000e+01 4.102749567266208430e+01
6.440000000000000568e+01 4.089703933045002771e+01
6.480000000000001137e+01 4.076782320490504219e+01
6.520000000000000284e+01 4.061791595217623296e+01
6.559999999999999432e+01 4.049338248656840022e+01
6.600000000000000000e+01 4.037000373415576604e+01
6.640000000000000568e+01 4.024776174679574581e+01
6.680000000000001137e+01 4.012663896587028489e+01
6.720000000000000284e+01 4.000661821147708253e+01
6.759999999999999432e+01 3.987897548972320294e+01
6.800000000000000000e+01 3.975197834300173128e+01
6.840000000000000568e+01 3.962617455965126112e+01
6.880000000000001137e+01 3.950154535538982259e+01
6.920000000000000284e+01 3.937807235960563901e+01
6.959999999999999432e+01 3.925573760367987575e+01
7.000000000000000000e+01 3.913452350971092386e+01
7.040000000000000568e+01 3.901441287962374105e+01
7.080000000000001137e+01 3.889538888464871746e+01
7.120000000000000284e+01 3.877743505515547895e+01
7.159999999999999432e+01 3.866053527082729602e+01
7.200000000000000000e+01 3.854467375116291805e+01
7.240000000000000568e+01 3.842983504629286529e+01
7.280000000000001137e+01 3.831600402809788619e+01
7.320000000000000284e+01 3.820316588161800553e+01
7.359999999999999432e+01 3.809130609674078727e+01
7.400000000000000000e+01 3.798041046015833899e+01
7.440000000000000568e+01 3.787046504758275489e+01
7.479999999999999716e+01 3.776145621621000004e+01
7.520000000000000284e+01 3.765337059742335413e+01
7.560000000000000853e+01 3.754619508972704978e+01
7.600000000000000000e+01 3.743991685190168539e+01
7.640000000000000568e+01 3.733452329637335509e+01
7.679999999999999716e+01 3.722959506400493979e+01
7.720000000000000284e+01 3.712477443816963785e+01
7.760000000000000853e+01 3.702081604368027712e+01
7.800000000000000000e+01 3.691574287303357238e+01
7.840000000000000568e+01 3.681036367812244947e+01
7.879999999999999716e+01 3.670584457013757174e+01
7.920000000000000284e+01 3.660217383467920627e+01
7.960000000000000853e+01 3.649933998044217276e+01
8.000000000000000000e+01 3.639733173377076270e+01
8.040000000000000568e+01 3.629613803337561961e+01
8.079999999999999716e+01 3.619574802520647694e+01
8.120000000000000284e+01 3.609615105747575114e+01
8.160000000000000853e+01 3.599733667582749774e+01
8.200000000000000000e+01 3.589929461864684868e+01
8.240000000000000568e+01 3.580201481250512785e+01
8.279999999999999716e+01 3.570548736773594811e+01
8.320000000000000284e+01 3.560970257413796958e+01
8.360000000000000853e+01 3.551465089679997789e+01
8.400000000000000000e+01 3.542032297204413283e+01
8.440000000000000568e+01 3.532670960348364275e+01
8.479999999999999716e+01 3.523380175819087867e+01
8.520000000000000284e+01 3.514159056297232553e+01
8.560000000000000853e+01 3.505006730074696719e+01
8.600000000000000000e+01 3.495922340702458797e+01
8.640000000000000568e+01 3.486905046648081452e+01
8.680000000000001137e+01 3.477954020962584991e+01
8.720000000000000284e+01 3.469068450956365979e+01
8.760000000000000853e+01 3.460247537883898872e+01
8.800000000000000000e+01 3.485552881292245786e+01
8.840000000000000568e+01 3.477307047746428736e+01
8.880000000000001137e+01 3.469118831636809830e+01
8.920000000000000284e+01 3.460987556560842648e+01
8.960000000000000853e+01 3.452912557262963844e+01
9.000000000000000000e+01 3.444893179398412286e+01
9.040000000000000568e+01 3.436928779303153192e+01
9.080000000000001137e+01 3.430951132280249993e+01
9.120000000000000284e+01 3.423224791413997536e+01
9.160000000000000853e+01 3.415550196948834127e+01
9.200000000000000000e+01 3.407926765863909679e+01
9.240000000000000568e+01 3.400353924365470704e+01
9.280000000000001137e+01 3.392831107699021942e+01
9.320000000000000284e+01 3.385357759966152003e+01
9.360000000000000853e+01 3.377933333945904337e+01
9.400000000000000000e+01 3.370557290920534399e+01
9.440000000000000568e+01 3.363229100505546398e+01
9.480000000000001137e+01 3.355948240483881051e+01
9.520000000000000284e+01 3.348714196644125707e+01
9.560000000000000853e+01 3.341526462622648808e+01
9.600000000000000000e+01 3.334384539749525800e+01
9.640000000000000568e+01 3.327287936898160581e+01
9.680000000000001137e+01 3.320236170338507975e+01
9.720000000000000284e+01 3.313228763593768633e+01
9.760000000000000853e+01 3.306265247300484589e+01
9.800000000000000000e+01 3.299345159071926759e+01
9.840000000000000568e+01 3.292468043364686991e+01
9.880000000000001137e+01 3.285633451348392242e+01
9.920000000000000284e+01 3.278840940778433577e+01
9.960000000000000853e+01 3.272090075871656012e+01
1.000000000000000000e+02 3.265380427184908996e+01
1.004000000000000057e+02 3.258711571496382930e+01
1.008000000000000114e+02 3.252083091689659966e+01
1.012000000000000028e+02 3.245494576640409434e+01
1.016000000000000085e+02 3.238945621105634842e+01
1.020000000000000000e+02 3.232435825615446134e+01
1.024000000000000057e+02 3.225964796367239273e+01
1.028000000000000114e+02 3.219532145122266087e+01
1.032000000000000028e+02 3.213137489104491351e+01
1.036000000000000085e+02 3.206780450901707979e+01
1.040000000000000000e+02 3.200460658368835709e+01
1.044000000000000057e+02 3.194177744533345376e+01
1.048000000000000114e+02 3.187896473687068877e+01
1.052000000000000028e+02 3.181650460737296982e+01
1.056000000000000085e+02 3.175440596233485735e+01
1.060000000000000000e+02 3.169266528475655775e+01
1.064000000000000057e+02 3.163127910571214585e+01
1.068000000000000114e+02 3.157024400350398707e+01
1.072000000000000028e+02 3.150955660283555204e+01
1.076000000000000085e+02 3.144921357400183837e+01
1.080000000000000000e+02 3.138921163209700538e+01
1.084000000000000057e+02 3.132954753623889843e+01
1.088000000000000114e+02 3.127012369948985793e+01
1.092000000000000028e+02 3.121101882348759915e+01
1.096000000000000085e+02 3.115224056438072608e+01
1.100000000000000000e+02 3.109378589701608320e+01
1.104000000000000057e+02 3.103565183552782969e+01
1.108000000000000114e+02 3.097783543268220185e+01
1.112000000000000028e+02 3.104297794278659950e+01
1.116000000000000085e+02 3.098821026632947451e+01
1.120000000000000000e+02 3.093373319963269807e+01
1.124000000000000057e+02 3.087954414569333039e+01
1.128000000000000114e+02 3.082564054010288856e+01
1.132000000000000028e+02 3.077201985052155564e+01
1.136000000000000085e+02 3.071867957616269962e+01
1.140000000000000000e+02 3.066561724728756388e+01
1.144000000000000057e+02 3.061283042470974181e+01
1.148000000000000114e+02 3.056031669930944616e+01
1.152000000000000028e+02 3.050807369155698723e+01
1.156000000000000085e+02 3.045609905104566550e+01
1.160000000000000000e+02 3.040439045603354629e+01
1.164000000000000057e+02 3.035294561299406269e+01
1.168000000000000114e+02 3.030176225617521979e+01
1.172000000000000028e+02 3.025083814716722230e+01
1.176000000000000085e+02 3.020017107447819882e+01
1.180000000000000000e+02 3.014975885311815773e+01
1.184000000000000057e+02 3.009959932419062056e+01
1.188000000000000114e+02 3.004969035449199311e+01
1.192000000000000028e+02 3.000002983611843632e+01
1.196000000000000085e+02 2.995061568608012692e+01
1.200000000000000000e+02 2.990144584592259136e+01
1.204000000000000057e+02 2.985251828135515240e+01
1.208000000000000114e+02 2.981431531462997242e+01
1.212000000000000028e+02 2.976617002673946644e+01
1.216000000000000085e+02 2.971825870279802828e+01
1.220000000000000000e+02 2.967057942715985419e+01
1.224000000000000057e+02 2.962313030622066989e+01
1.228000000000000114e+02 2.957590946809167320e+01
1.232000000000000028e+02 2.952891506227919294e+01
1.236000000000000085e+02 2.948214525937026664e+01
1.240000000000000000e+02 2.943559825072374281e+01
1.244000000000000057e+02 2.938927224816701411e+01
1.248000000000000114e+02 2.934316548369803357e+01
1.252000000000000028e+02 2.929727620919274500e+01
1.256000000000000085e+02 2.925160269611762232e+01
1.260000000000000000e+02 2.920614323524729627e+01
1.264000000000000057e+02 2.916089613638714795e+01
1.268000000000000114e+02 2.911585972810079426e+01
1.272000000000000028e+02 2.907103235744229863e+01
1.276000000000000085e+02 2.902641238969305704e+01
1.280000000000000000e+02 2.898199820810327410e+01
1.284000000000000057e+02 2.893778821363792275e+01
1.288000000000000114e+02 2.889378082472702047e+01
1.291999999999999886e+02 2.884997447702030016e+01
1.296000000000000227e+02 2.880636762314600574e+01
1.300000000000000000e+02 2.876295873247385515e+01
1.304000000000000057e+02 2.871974629088205688e+01
1.308000000000000114e+02 2.867672880052820261e+01
1.311999999999999886e+02 2.863390477962419212e+01
1.316000000000000227e+02 2.859127276221477842e+01
1.320000000000000000e+02 2.854883129795996410e+01
1.324000000000000057e+02 2.850657895192101776e+01
1.328000000000000114e+02 2.846451430435009655e+01
1.331999999999999886e+02 2.839495496891260728e+01
1.336000000000000227e+02 2.835414136937294671e+01
1.340000000000000000e+02 2.831350631807563900e+01
1.344000000000000057e+02 2.827304849440908185e+01
1.348000000000000114e+02 2.823276659152286072e+01
1.351999999999999886e+02 2.819265931614283360e+01
1.356000000000000227e+02 2.815272538838941685e+01
1.360000000000000000e+02 2.811296354159873445e+01
1.364000000000000057e+02 2.807337252214671963e+01
1.368000000000000114e+02 2.803391534484146064e+01
1.371999999999999886e+02 2.799461854621035428e+01
1.376000000000000227e+02 2.795548910057852865e+01
1.380000000000000000e+02 2.791652580339222212e+01
1.384000000000000057e+02 2.787772746231085819e+01
1.388000000000000114e+02 2.783909289704749312e+01
1.392000000000000171e+02 2.780062093921169719e+01
1.395999999999999943e+02 2.776231043215511818e+01
1.400000000000000000e+02 2.772416023081923697e+01
1.404000000000000057e+02 2.768616920158586936e+01
1.408000000000000114e+02 2.764833622212973196e+01
1.412000000000000171e+02 2.761066018127350219e+01
1.415999999999999943e+02 2.757313997884507017e+01
1.420000000000000000e+02 2.753577452553709648e+01
1.424000000000000057e+02 2.749856274276867651e+01
1.428000000000000114e+02 2.746150356254926095e+01
1.432000000000000171e+02 2.742459592734459406e+01
1.435999999999999943e+02 2.738783878994477305e+01
1.440000000000000000e+02 2.735123111333433243e+01
1.444000000000000057e+02 2.731477187056436406e+01
1.448000000000000114e+02 2.727816311359210033e+01
1.452000000000000171e+02 2.724147023574284532e+01
1.455999999999999943e+02 2.720492591642087987e+01
1.460000000000000000e+02 2.716852914053514922e+01
1.464000000000000057e+02 2.713227890276184340e+01
1.468000000000000114e+02 2.709617420742328520e+01
1.472000000000000171e+02 2.706021406836867982e+01
1.475999999999999943e+02 2.702439750885663017e+01
1.480000000000000000e+02 2.698872356143949958e+01
1.484000000000000057e+02 2.695319126784940877e+01
1.488000000000000114e+02 2.691779967888601988e+01
1.492000000000000171e+02 2.688254785430595817e+01
1.495999999999999943e+02 2.684743486271394630e+01
1.500000000000000000e+02 2.681245978145543774e+01
