1.000000000000000000e+01 3.453751797361995273e+02
1.040000000000000036e+01 3.424808793920598760e+02
1.080000000000000071e+01 3.430897486163041776e+02
1.119999999999999929e+01 3.533643393675624793e+02
1.159999999999999964e+01 3.634784295194540960e+02
1.200000000000000000e+01 3.702670474744317062e+02
1.240000000000000036e+01 3.802137958103354549e+02
1.280000000000000071e+01 3.900441563747969553e+02
1.319999999999999929e+01 3.964927299628604374e+02
1.359999999999999964e+01 4.092056767608270320e+02
1.400000000000000000e+01 4.280871393455360590e+02
1.440000000000000036e+01 4.657164950684733640e+02
1.480000000000000071e+01 4.576557828685849927e+02
1.519999999999999929e+01 4.501319864447586951e+02
1.560000000000000142e+01 4.430816635747545433e+02
1.600000000000000000e+01 4.364519889713828888e+02
1.639999999999999858e+01 4.301984946722523659e+02
1.680000000000000071e+01 4.242833850149006594e+02
1.719999999999999929e+01 4.186742584960535396e+02
1.760000000000000142e+01 4.133431234712737705e+02
1.800000000000000000e+01 4.082656298037597367e+02
1.839999999999999858e+01 4.034204617291286468e+02
1.880000000000000071e+01 3.987888527914275869e+02
1.920000000000000284e+01 3.943541944042656837e+02
1.960000000000000142e+01 3.901017170639086658e+02
2.000000000000000000e+01 3.860182285451659254e+02
2.039999999999999858e+01 3.820918972309344781e+02
2.080000000000000071e+01 3.783120715146716293e+02
2.120000000000000284e+01 3.746691282757726640e+02
2.160000000000000142e+01 3.711543449682233700e+02
2.200000000000000000e+01 3.677597910265918699e+02
2.239999999999999858e+01 3.644782351812300476e+02
2.280000000000000071e+01 3.613030659581164059e+02
2.320000000000000284e+01 3.582282231695763812e+02
2.360000000000000142e+01 3.552481386176331171e+02
2.400000000000000000e+01 3.523576845594506040e+02
2.439999999999999858e+01 3.495521287446126735e+02
2.480000000000000071e+01 3.468270950421029966e+02
2.520000000000000284e+01 3.441785288422883582e+02
2.560000000000000142e+01 3.416026665547325365e+02
2.600000000000000000e+01 3.390960086329693581e+02
2.640000000000000213e+01 3.366552956476112968e+02
2.680000000000000071e+01 3.342774870033895240e+02
2.719999999999999929e+01 3.319597419570459920e+02
2.760000000000000142e+01 3.296994026439045342e+02
2.800000000000000000e+01 3.274939788633816988e+02
2.840000000000000213e+01 3.253411344092247077e+02
2.880000000000000071e+01 3.232386747601227057e+02
2.920000000000000284e+01 3.211845359715188124e+02
2.960000000000000142e+01 3.191767746307804714e+02
3.000000000000000000e+01 3.172135587559990313e+02
3.040000000000000213e+01 3.152931595341337925e+02
3.080000000000000071e+01 3.134139438074220720e+02
3.120000000000000284e+01 3.115743672283006163e+02
3.160000000000000142e+01 3.097729680128312566e+02
3.200000000000000000e+01 3.080083612310251056e+02
3.240000000000000568e+01 3.062792335797346368e+02
3.279999999999999716e+01 3.045843385900852240e+02
3.320000000000000284e+01 3.029224922269028752e+02
3.360000000000000142e+01 3.012925688423729298e+02
3.400000000000000000e+01 2.996934974503392368e+02
3.440000000000000568e+01 2.981242582913066599e+02
3.479999999999999716e+01 2.965838796614234525e+02
3.520000000000000284e+01 2.950714349815321498e+02
3.560000000000000142e+01 2.935860400848718541e+02
3.600000000000000000e+01 2.921268507042028091e+02
3.640000000000000568e+01 2.906930601410697363e+02
3.679999999999999716e+01 2.892838971016395249e+02
3.720000000000000284e+01 2.878986236850754494e+02
3.760000000000000142e+01 2.865365335117718359e+02
3.800000000000000000e+01 2.851969499799803316e+02
3.840000000000000568e+01 2.838792246404412367e+02
3.879999999999999716e+01 2.825827356795991250e+02
3.920000000000000284e+01 2.813068865028450887e+02
3.960000000000000142e+01 2.800511044100033473e+02
4.000000000000000000e+01 2.788148393559777105e+02
4.040000000000000568e+01 2.775975627900961058e+02
4.079999999999999716e+01 2.763987665682566330e+02
4.120000000000000284e+01 2.752179619324869009e+02
4.160000000000000142e+01 2.740546785529859335e+02
4.200000000000000000e+01 2.729084636281334042e+02
4.239999999999999858e+01 2.717788810383254940e+02
4.280000000000000426e+01 2.706655105498374496e+02
4.320000000000000284e+01 2.695679470652218583e+02
4.360000000000000142e+01 2.684857999170304197e+02
4.400000000000000000e+01 2.674186922019031840e+02
4.439999999999999858e+01 2.663662601523017770e+02
4.480000000000000426e+01 2.653281525433727097e+02
4.520000000000000284e+01 2.643040301326221879e+02
4.560000000000000142e+01 2.632935651302577753e+02
4.600000000000000000e+01 2.622964406982156333e+02
4.639999999999999858e+01 2.613123504760382616e+02
4.680000000000000426e+01 2.603409981319020972e+02
4.720000000000000284e+01 2.593820969372205809e+02
4.760000000000000142e+01 2.584353693633586317e+02
4.800000000000000000e+01 2.575005466991025855e+02
4.840000000000000568e+01 2.565773686876216289e+02
4.880000000000000426e+01 2.556655831817496392e+02
4.920000000000000284e+01 2.547649458164929968e+02
4.960000000000000142e+01 2.538752196977479514e+02
5.000000000000000000e+01 2.529961751062807593e+02
5.040000000000000568e+01 2.521275892160838623e+02
5.080000000000000426e+01 2.512692458262851005e+02
5.120000000000000284e+01 2.504209351058382538e+02
5.160000000000000142e+01 2.495824533502749887e+02
5.200000000000000000e+01 2.487536027498444184e+02
5.240000000000000568e+01 2.479341911684108481e+02
5.280000000000000426e+01 2.471240319325191308e+02
5.320000000000000284e+01 2.463229436300746897e+02
5.360000000000000142e+01 2.455307499181210176e+02
5.400000000000000000e+01 2.447472793392282711e+02
5.440000000000000568e+01 2.439723651460360543e+02
5.480000000000000426e+01 2.432058451335239511e+02
5.520000000000000284e+01 2.424475614786059054e+02
5.560000000000000142e+01 2.416973605866713228e+02
5.600000000000000000e+01 2.409550929447163696e+02
5.640000000000000568e+01 2.402206129807315733e+02
5.680000000000000426e+01 2.394937789290303272e+02
5.720000000000000284e+01 2.387744527012212359e+02
5.760000000000000142e+01 2.380624997625446326e+02
5.800000000000000000e+01 2.373577890133103381e+02
5.840000000000000568e+01 2.366601926751865221e+02
5.880000000000000426e+01 2.359695861821060703e+02
5.920000000000000284e+01 2.352858480755675146e+02
5.960000000000000142e+01 2.346088599041227951e+02
6.000000000000000000e+01 2.339385061268521326e+02
6.040000000000000568e+01 2.332746740206397362e+02
6.080000000000000426e+01 2.326172535910738475e+02
6.120000000000000284e+01 2.319661374868020403e+02
6.160000000000000142e+01 2.313212209171850589e+02
6.200000000000000000e+01 2.306824015730973656e+02
6.240000000000000568e+01 2.300495795507331707e+02
6.280000000000000426e+01 2.294226572782828839e+02
6.320000000000000284e+01 2.288015394453511817e+02
6.360000000000000142e+01 2.281861329349966354e+02
6.400000000000000000e+01 2.275763467582770545e+02
6.440000000000000568e+01 2.269720919911911210e+02
6.480000000000001137e+01 2.263732817139128031e+02
6.520000000000000284e+01 2.257798309522200952e+02
6.559999999999999432e+01 2.251916566210234976e+02
6.600000000000000000e+01 2.246086774699062971e+02
6.640000000000000568e+01 2.240308140305909319e+02
6.680000000000001137e+01 2.234579885662513448e+02
6.720000000000000284e+01 2.228901250225944182e+02
6.759999999999999432e+01 2.223271489806368493e+02
6.800000000000000000e+01 2.217689876111096225e+02
6.840000000000000568e+01 2.212155696304212711e+02
6.880000000000001137e+01 2.206668252581190472e+02
6.920000000000000284e+01 2.201226861757864413e+02
6.959999999999999432e+01 2.195830854873199769e+02
7.000000000000000000e+01 2.190479576805304873e+02
7.040000000000000568e+01 2.185172385900168877e+02
7.080000000000001137e+01 2.179908653612622800e+02
7.120000000000000284e+01 2.174687764159045003e+02
7.159999999999999432e+01 2.169509114181356608e+02
7.200000000000000000e+01 2.164372112421885959e+02
7.240000000000000568e+01 2.159276179408662415e+02
7.280000000000001137e+01 2.154220747150762918e+02
7.320000000000000284e+01 2.149205258843324202e+02
7.359999999999999432e+01 2.144229168581850331e+02
7.400000000000000000e+01 2.139291941085489555e+02
7.440000000000000568e+01 2.134393051428921240e+02
7.479999999999999716e+01 2.129531984782553877e+02
7.520000000000000284e+01 2.124708236160724368e+02
7.560000000000000853e+01 2.119921310177601868e+02
7.600000000000000000e+01 2.115170720810527882e+02
7.640000000000000568e+01 2.110455991170510686e+02
7.679999999999999716e+01 2.105776653279631034e+02
7.720000000000000284e+01 2.101132247855101980e+02
7.760000000000000853e+01 2.096522324099757100e+02
7.800000000000000000e+01 2.091946439498730683e+02
7.840000000000000568e+01 2.087404159622122393e+02
7.879999999999999716e+01 2.082895057933433804e+02
7.920000000000000284e+01 2.078418715603568501e+02
7.960000000000000853e+01 2.073974721330228022e+02
8.000000000000000000e+01 2.069562671162486822e+02
8.040000000000000568e+01 2.065182168330397872e+02
8.079999999999999716e+01 2.060832823079440743e+02
8.120000000000000284e+01 2.056514252509658718e+02
8.160000000000000853e+01 2.052226080419320624e+02
8.200000000000000000e+01 2.047967937152967579e+02
8.240000000000000568e+01 2.043739459453678933e+02
8.279999999999999716e+01 2.039540290319443727e+02
8.320000000000000284e+01 2.035370078863485617e+02
8.360000000000000853e+01 2.031228480178415623e+02
8.400000000000000000e+01 2.027115155204091081e+02
8.440000000000000568e+01 2.023029770599059702e+02
8.479999999999999716e+01 2.018971998615477901e+02
8.520000000000000284e+01 2.014941516977377205e+02
8.560000000000000853e+01 2.010938008762197455e+02
8.600000000000000000e+01 2.006961162285456624e+02
8.640000000000000568e+01 2.003010670988478807e+02
8.680000000000001137e+01 1.999086233329076094e+02
8.720000000000000284e+01 1.995187552675087090e+02
8.760000000000000853e+01 1.991314337200697651e+02
8.800000000000000000e+01 1.987466299785443482e+02
8.840000000000000568e+01 1.983643157915821575e+02
8.880000000000001137e+01 1.979844633589427474e+02
8.920000000000000284e+01 1.976070453221539367e+02
8.960000000000000853e+01 1.972320347554079945e+02
9.000000000000000000e+01 1.968594051566884104e+02
9.040000000000000568e+01 1.964891304391191795e+02
9.080000000000001137e+01 1.961211849225321657e+02
9.120000000000000284e+01 1.957555433252436785e+02
9.160000000000000853e+01 1.953921807560360833e+02
9.200000000000000000e+01 1.950310727063368290e+02
9.240000000000000568e+01 1.946721950425901753e+02
9.280000000000001137e+01 1.943155239988158769e+02
9.320000000000000284e+01 1.939610361693487448e+02
9.360000000000000853e+01 1.936087085017541938e+02
9.400000000000000000e+01 1.932585182899157417e+02
9.440000000000000568e+01 1.929104431672874114e+02
9.480000000000001137e+01 1.925644611003085060e+02
9.520000000000000284e+01 1.922205503819745331e+02
9.560000000000000853e+01 1.918786896255612078e+02
9.600000000000000000e+01 1.915388577584960217e+02
9.640000000000000568e+01 1.912010340163738817e+02
9.680000000000001137e+01 1.908651979371131233e+02
9.720000000000000284e+01 1.905313293552472089e+02
9.760000000000000853e+01 1.901994083963489288e+02
9.800000000000000000e+01 1.898694154715834657e+02
9.840000000000000568e+01 1.895413312723860599e+02
9.880000000000001137e+01 1.892151367652623719e+02
9.920000000000000284e+01 1.888908131867066515e+02
9.960000000000000853e+01 1.885683420382351869e+02
1.000000000000000000e+02 1.882477050815325299e+02
1.004000000000000057e+02 1.879288843337060371e+02
1.008000000000000114e+02 1.876118620626477309e+02
1.012000000000000028e+02 1.872966207824983087e+02
1.016000000000000085e+02 1.869831432492132990e+02
1.020000000000000000e+02 1.866714124562261077e+02
1.024000000000000057e+02 1.863614116302072148e+02
1.028000000000000114e+02 1.860531242269163386e+02
1.032000000000000028e+02 1.857465339271448101e+02
1.036000000000000085e+02 1.854416246327465103e+02
1.040000000000000000e+02 1.851383804627549807e+02
1.044000000000000057e+02 1.848367857495835835e+02
1.048000000000000114e+02 1.845368250353080839e+02
1.052000000000000028e+02 1.842384830680284153e+02
1.056000000000000085e+02 1.839417447983077807e+02
1.060000000000000000e+02 1.836465953756877809e+02
1.064000000000000057e+02 1.833530201452768438e+02
1.068000000000000114e+02 1.830610046444107013e+02
1.072000000000000028e+02 1.827705345993827564e+02
1.076000000000000085e+02 1.824815959222428603e+02
1.080000000000000000e+02 1.821941747076626825e+02
1.084000000000000057e+02 1.819082572298658249e+02
1.088000000000000114e+02 1.816238299396217428e+02
1.092000000000000028e+02 1.813408794613011707e+02
1.096000000000000085e+02 1.810593925899916030e+02
1.100000000000000000e+02 1.807793562886724885e+02
1.104000000000000057e+02 1.805007576854468709e+02
1.108000000000000114e+02 1.802235840708296450e+02
1.112000000000000028e+02 1.799478228950904679e+02
1.116000000000000085e+02 1.796734617656497335e+02
1.120000000000000000e+02 1.794004884445271841e+02
1.124000000000000057e+02 1.791288908458408287e+02
1.128000000000000114e+02 1.788586570333561099e+02
1.132000000000000028e+02 1.785897752180831048e+02
1.136000000000000085e+02 1.783222337559213315e+02
1.140000000000000000e+02 1.780560211453509396e+02
1.144000000000000057e+02 1.777911260251686087e+02
1.148000000000000114e+02 1.775275371722684383e+02
1.152000000000000028e+02 1.772652434994649298e+02
1.156000000000000085e+02 1.770042340533589140e+02
1.160000000000000000e+02 1.767444980122443496e+02
1.164000000000000057e+02 1.764860246840550246e+02
1.168000000000000114e+02 1.762288035043512195e+02
1.172000000000000028e+02 1.759728240343443986e+02
1.176000000000000085e+02 1.757180759589593038e+02
1.180000000000000000e+02 1.754645490849330258e+02
1.184000000000000057e+02 1.752122333389498579e+02
1.188000000000000114e+02 1.749611187658113352e+02
1.192000000000000028e+02 1.747111955266402674e+02
1.196000000000000085e+02 1.744624538971186212e+02
1.200000000000000000e+02 1.742148842657580019e+02
1.204000000000000057e+02 1.739684771322023096e+02
1.208000000000000114e+02 1.737232231055617149e+02
1.212000000000000028e+02 1.734791129027772456e+02
1.216000000000000085e+02 1.732361373470154149e+02
1.220000000000000000e+02 1.729942873660923794e+02
1.224000000000000057e+02 1.727535539909265481e+02
1.228000000000000114e+02 1.725139283540193276e+02
1.232000000000000028e+02 1.722754016879637220e+02
1.236000000000000085e+02 1.720379653239791082e+02
1.240000000000000000e+02 1.718016106904732112e+02
1.244000000000000057e+02 1.715663293116291186e+02
1.248000000000000114e+02 1.713321128060179035e+02
1.252000000000000028e+02 1.710989528852360309e+02
1.256000000000000085e+02 1.708668413525663254e+02
1.260000000000000000e+02 1.706357701016633541e+02
1.264000000000000057e+02 1.704057311152615171e+02
1.268000000000000114e+02 1.701767164639059047e+02
1.272000000000000028e+02 1.699487183047054941e+02
1.276000000000000085e+02 1.697217288801078041e+02
1.280000000000000000e+02 1.694957405166951787e+02
1.284000000000000057e+02 1.692707456240017052e+02
1.288000000000000114e+02 1.690467366933506810e+02
1.291999999999999886e+02 1.688237062967119186e+02
1.296000000000000227e+02 1.686016470855790033e+02
1.300000000000000000e+02 1.683805517898653932e+02
1.304000000000000057e+02 1.681604132168194496e+02
1.308000000000000114e+02 1.679412242499579691e+02
1.311999999999999886e+02 1.677229778480177629e+02
1.316000000000000227e+02 1.675056670439248592e+02
1.320000000000000000e+02 1.672892849437812686e+02
1.324000000000000057e+02 1.670738247258682634e+02
1.328000000000000114e+02 1.668592796396670508e+02
1.331999999999999886e+02 1.666456430048950779e+02
1.336000000000000227e+02 1.664329082105587361e+02
1.340000000000000000e+02 1.662210687140216692e+02
1.344000000000000057e+02 1.660101180400885710e+02
1.348000000000000114e+02 1.658000497801037625e+02
1.351999999999999886e+02 1.655908575910649461e+02
1.356000000000000227e+02 1.653825351947511990e+02
1.360000000000000000e+02 1.651750763768652348e+02
1.364000000000000057e+02 1.649684749861897899e+02
1.368000000000000114e+02 1.647627249337573971e+02
1.371999999999999886e+02 1.645578201920337733e+02
1.376000000000000227e+02 1.643537547941143657e+02
1.380000000000000000e+02 1.641505228329337172e+02
1.384000000000000057e+02 1.639481184604875068e+02
1.388000000000000114e+02 1.637465358870671821e+02
1.392000000000000171e+02 1.635457693805063570e+02
1.395999999999999943e+02 1.633458132654398298e+02
1.400000000000000000e+02 1.631466619225735428e+02
1.404000000000000057e+02 1.629483097879666786e+02
1.408000000000000114e+02 1.627507513523248974e+02
1.412000000000000171e+02 1.625539811603044598e+02
1.415999999999999943e+02 1.623579938098272919e+02
1.420000000000000000e+02 1.621627839514070786e+02
1.424000000000000057e+02 1.619683462874852466e+02
1.428000000000000114e+02 1.617746755717777773e+02
1.432000000000000171e+02 1.615817666086317104e+02
1.435999999999999943e+02 1.613896142523919366e+02
1.440000000000000000e+02 1.611982134067773416e+02
1.444000000000000057e+02 1.610075590242666976e+02
1.448000000000000114e+02 1.608176461054941626e+02
1.452000000000000171e+02 1.606284696986533902e+02
1.455999999999999943e+02 1.604400248989113607e+02
1.460000000000000000e+02 1.602523068478305959e+02
1.464000000000000057e+02 1.600653107328004126e+02
1.468000000000000114e+02 1.598790317864764177e+02
1.472000000000000171e+02 1.596934652862289283e+02
1.475999999999999943e+02 1.595086065535991509e+02
1.480000000000000000e+02 1.593244509537634883e+02
1.484000000000000057e+02 1.591409938950064031e+02
1.488000000000000114e+02 1.589582308282004419e+02
1.492000000000000171e+02 1.587761572462942752e+02
1.495999999999999943e+02 1.585947686838082689e+02
1.500000000000000000e+02 1.584140607163374170e+02
