1.000000000000000000e+01 1.269288490360069943e+02
1.040000000000000036e+01 1.263420392083225465e+02
1.080000000000000071e+01 1.258541090065973975e+02
1.119999999999999929e+01 1.254501840813192359e+02
1.159999999999999964e+01 1.251170066477449296e+02
1.200000000000000000e+01 1.264147321125495154e+02
1.240000000000000036e+01 1.261683977426776266e+02
1.280000000000000071e+01 1.322121022157848813e+02
1.319999999999999929e+01 1.365028132082364607e+02
1.359999999999999964e+01 1.422791771546584414e+02
1.400000000000000000e+01 1.463702376872818718e+02
1.440000000000000036e+01 1.503592739224437196e+02
1.480000000000000071e+01 1.581653774866920799e+02
1.519999999999999929e+01 1.681461549122640236e+02
1.560000000000000142e+01 1.888650729458929050e+02
1.600000000000000000e+01 1.908482935280156312e+02
1.639999999999999858e+01 1.875266515091609278e+02
1.680000000000000071e+01 1.844275434657743915e+02
1.719999999999999929e+01 1.815246652061968007e+02
1.760000000000000142e+01 1.787960818994846193e+02
1.800000000000000000e+01 1.762233115237257266e+02
1.839999999999999858e+01 1.737906368049727917e+02
1.880000000000000071e+01 1.714845805035548096e+02
1.920000000000000284e+01 1.692934995974608796e+02
1.960000000000000142e+01 1.672072674174707743e+02
2.000000000000000000e+01 1.652170217982707641e+02
2.039999999999999858e+01 1.633149634404471442e+02
2.080000000000000071e+01 1.614941929253428157e+02
2.120000000000000284e+01 1.597485778153874776e+02
2.160000000000000142e+01 1.580726434100146207e+02
2.200000000000000000e+01 1.564614822760848654e+02
2.239999999999999858e+01 1.549106788082087860e+02
2.280000000000000071e+01 1.534162459180625149e+02
2.320000000000000284e+01 1.519745715849271619e+02
2.360000000000000142e+01 1.505823734796193492e+02
2.400000000000000000e+01 1.492366602411918279e+02
2.439999999999999858e+01 1.479346982692272263e+02
2.480000000000000071e+01 1.466739831151226667e+02
2.520000000000000284e+01 1.454522147287438258e+02
2.560000000000000142e+01 1.442672759534644911e+02
2.600000000000000000e+01 1.431172137712757149e+02
2.640000000000000213e+01 1.420002228866284213e+02
2.680000000000000071e+01 1.409146313077199011e+02
2.719999999999999929e+01 1.398588876406671204e+02
2.760000000000000142e+01 1.388315498582117300e+02
2.800000000000000000e+01 1.378312753424215771e+02
2.840000000000000213e+01 1.368568120319666832e+02
2.880000000000000071e+01 1.359069905302611687e+02
2.920000000000000284e+01 1.349807170521102080e+02
2.960000000000000142e+01 1.340769671042991718e+02
3.000000000000000000e+01 1.331947798104609433e+02
3.040000000000000213e+01 1.323332528030788637e+02
3.080000000000000071e+01 1.314915376160440985e+02
3.120000000000000284e+01 1.306688355201263789e+02
3.160000000000000142e+01 1.298643937513124342e+02
3.200000000000000000e+01 1.290775020884373419e+02
3.240000000000000568e+01 1.283074897420679292e+02
3.279999999999999716e+01 1.275537225213403474e+02
3.320000000000000284e+01 1.268156002495352368e+02
3.360000000000000142e+01 1.260925544026919169e+02
3.400000000000000000e+01 1.253840459486050349e+02
3.440000000000000568e+01 1.246895633661863769e+02
3.479999999999999716e+01 1.240086208274657906e+02
3.520000000000000284e+01 1.233407565265033554e+02
3.560000000000000142e+01 1.226855311412295606e+02
3.600000000000000000e+01 1.220425264157562992e+02
3.640000000000000568e+01 1.214113438520418526e+02
3.679999999999999716e+01 1.207916035009693729e+02
3.720000000000000284e+01 1.201829428439357059e+02
3.760000000000000142e+01 1.195850157569635144e+02
3.800000000000000000e+01 1.189974915501570649e+02
3.840000000000000568e+01 1.184200540760413958e+02
3.879999999999999716e+01 1.178524009009591680e+02
3.920000000000000284e+01 1.172942425342657771e+02
3.960000000000000142e+01 1.167453017105681141e+02
4.000000000000000000e+01 1.162053127207003627e+02
4.040000000000000568e+01 1.156740207875330100e+02
4.079999999999999716e+01 1.151511814830700047e+02
4.120000000000000284e+01 1.146365601836117207e+02
4.160000000000000142e+01 1.141299315600497550e+02
4.200000000000000000e+01 1.136310791006203544e+02
4.239999999999999858e+01 1.131397946636763265e+02
4.280000000000000426e+01 1.126558780582489021e+02
4.320000000000000284e+01 1.121791366503607605e+02
4.360000000000000142e+01 1.117093849932238356e+02
4.400000000000000000e+01 1.112464444796108580e+02
4.439999999999999858e+01 1.107901430148305053e+02
4.480000000000000426e+01 1.103403147088643834e+02
4.520000000000000284e+01 1.098967995863395686e+02
4.560000000000000142e+01 1.094594433131163811e+02
4.600000000000000000e+01 1.090280969383670708e+02
4.639999999999999858e+01 1.086026166511091731e+02
4.680000000000000426e+01 1.081828635502351688e+02
4.720000000000000284e+01 1.077687034271564244e+02
4.760000000000000142e+01 1.073600065602423541e+02
4.800000000000000000e+01 1.069566475202994695e+02
4.840000000000000568e+01 1.065585049863892380e+02
4.880000000000000426e+01 1.061654615713356549e+02
4.920000000000000284e+01 1.057774036563198194e+02
4.960000000000000142e+01 1.053942212340027140e+02
5.000000000000000000e+01 1.050158077596558570e+02
5.040000000000000568e+01 1.046420600098174418e+02
5.080000000000000426e+01 1.042728779480234493e+02
5.120000000000000284e+01 1.039081645971959915e+02
5.160000000000000142e+01 1.035478259182979883e+02
5.200000000000000000e+01 1.031917706948907636e+02
5.240000000000000568e+01 1.028399104232551196e+02
5.280000000000000426e+01 1.024921592077585615e+02
5.320000000000000284e+01 1.021484336611729020e+02
5.360000000000000142e+01 1.018086528096652046e+02
5.400000000000000000e+01 1.014727380022026182e+02
5.440000000000000568e+01 1.011406128241293487e+02
5.480000000000000426e+01 1.008122030146878956e+02
5.520000000000000284e+01 1.004874363882719592e+02
5.560000000000000142e+01 1.001662427592113431e+02
5.600000000000000000e+01 9.984855386990142279e+01
5.640000000000000568e+01 9.953430332210132292e+01
5.680000000000000426e+01 9.922342651123560131e+01
5.720000000000000284e+01 9.891586056354402956e+01
5.760000000000000142e+01 9.861154427593345417e+01
5.800000000000000000e+01 9.831041805839433323e+01
5.840000000000000568e+01 9.801242387885270091e+01
5.880000000000000426e+01 9.771750521033548864e+01
5.920000000000000284e+01 9.742560698033452127e+01
5.960000000000000142e+01 9.713667552226101520e+01
6.000000000000000000e+01 9.685065852888821780e+01
6.040000000000000568e+01 9.656750500768629308e+01
6.080000000000000426e+01 9.628716523795792170e+01
6.120000000000000284e+01 9.600959072968906582e+01
6.160000000000000142e+01 9.573473418403381174e+01
6.200000000000000000e+01 9.546254945535585534e+01
6.240000000000000568e+01 9.519299151475507870e+01
6.280000000000000426e+01 9.492601641500945675e+01
6.320000000000000284e+01 9.466158125686791891e+01
6.360000000000000142e+01 9.439964415663246200e+01
6.400000000000000000e+01 9.414016421497095166e+01
6.440000000000000568e+01 9.388310148690538881e+01
6.480000000000001137e+01 9.362841695292362942e+01
6.520000000000000284e+01 9.337607249116398123e+01
6.559999999999999432e+01 9.312603085062607988e+01
6.600000000000000000e+01 9.287825562536340840e+01
6.640000000000000568e+01 9.263271122961424453e+01
6.680000000000001137e+01 9.238936287383094736e+01
6.720000000000000284e+01 9.214817654156966853e+01
6.759999999999999432e+01 9.190911896720277241e+01
6.800000000000000000e+01 9.167215761442078303e+01
6.840000000000000568e+01 9.143726065548923998e+01
6.880000000000001137e+01 9.120439695123023682e+01
6.920000000000000284e+01 9.097353603169827352e+01
6.959999999999999432e+01 9.074464807752144679e+01
7.000000000000000000e+01 9.051770390188184479e+01
7.040000000000000568e+01 9.029267493310831583e+01
7.080000000000001137e+01 9.006953319785731082e+01
7.120000000000000284e+01 8.984825130485873501e+01
7.159999999999999432e+01 8.962880242920314799e+01
7.200000000000000000e+01 8.941116029715044533e+01
7.240000000000000568e+01 8.919529917143846376e+01
7.280000000000001137e+01 8.898119383707228280e+01
7.320000000000000284e+01 8.876881958757591917e+01
7.359999999999999432e+01 8.855815221168823825e+01
7.400000000000000000e+01 8.834916798048620024e+01
7.440000000000000568e+01 8.814184363491929730e+01
7.479999999999999716e+01 8.793615637373942207e+01
7.520000000000000284e+01 8.773208384181157271e+01
7.560000000000000853e+01 8.752960411879084290e+01
7.600000000000000000e+01 8.732869570815253724e+01
7.640000000000000568e+01 8.712933752656185504e+01
7.679999999999999716e+01 8.693150889357119127e+01
7.720000000000000284e+01 8.673518952163266249e+01
7.760000000000000853e+01 8.654035950641481634e+01
7.800000000000000000e+01 8.634699931741229761e+01
7.840000000000000568e+01 8.615508978883809732e+01
7.879999999999999716e+01 8.596461211078819531e+01
7.920000000000000284e+01 8.577554782066911798e+01
7.960000000000000853e+01 8.558787879487894656e+01
8.000000000000000000e+01 8.540158724073322105e+01
8.040000000000000568e+01 8.521665568862663065e+01
8.079999999999999716e+01 8.503306698442314371e+01
8.120000000000000284e+01 8.485080428206580905e+01
8.160000000000000853e+01 8.466985103639945009e+01
8.200000000000000000e+01 8.449019099619860640e+01
8.240000000000000568e+01 8.431180819739373078e+01
8.279999999999999716e+01 8.413468695648931828e+01
8.320000000000000284e+01 8.395881186416704622e+01
8.360000000000000853e+01 8.378416777906828372e+01
8.400000000000000000e+01 8.361073982174944774e+01
8.440000000000000568e+01 8.343851336880503311e+01
8.479999999999999716e+01 8.326747404715256096e+01
8.520000000000000284e+01 8.309760772847398869e+01
8.560000000000000853e+01 8.292890052380903398e+01
8.600000000000000000e+01 8.276133877829482799e+01
8.640000000000000568e+01 8.259490906604774807e+01
8.680000000000001137e+01 8.242959818518268378e+01
8.720000000000000284e+01 8.226539315296518851e+01
8.760000000000000853e+01 8.210228120109263727e+01
8.800000000000000000e+01 8.194024977110011321e+01
8.840000000000000568e+01 8.177928650988714310e+01
8.880000000000001137e+01 8.161937926536162990e+01
8.920000000000000284e+01 8.146051608219718787e+01
8.960000000000000853e+01 8.130268519770041280e+01
9.000000000000000000e+01 8.114587503778489008e+01
9.040000000000000568e+01 8.099007421304850141e+01
9.080000000000001137e+01 8.083527151495076168e+01
9.120000000000000284e+01 8.068145591208759981e+01
9.160000000000000853e+01 8.052861654656015844e+01
9.200000000000000000e+01 8.037674273043514006e+01
9.240000000000000568e+01 8.022582394229375780e+01
9.280000000000001137e+01 8.007584982386680394e+01
9.320000000000000284e+01 7.992681017675323574e+01
9.360000000000000853e+01 7.977869495921970611e+01
9.400000000000000000e+01 7.963149428307895050e+01
9.440000000000000568e+01 7.948519841064452862e+01
9.480000000000001137e+01 7.933979775175956206e+01
9.520000000000000284e+01 7.919528286089777680e+01
9.560000000000000853e+01 7.905164443433434940e+01
9.600000000000000000e+01 7.890887330738479477e+01
9.640000000000000568e+01 7.876696045170976390e+01
9.680000000000001137e+01 7.862589697268424516e+01
9.720000000000000284e+01 7.848567410682879597e+01
9.760000000000000853e+01 7.834628321930175332e+01
9.800000000000000000e+01 7.820771580144999291e+01
9.840000000000000568e+01 7.806996346841712864e+01
9.880000000000001137e+01 7.793301795680750388e+01
9.920000000000000284e+01 7.779687112240399927e+01
9.960000000000000853e+01 7.766151493793893223e+01
1.000000000000000000e+02 7.752694149091578879e+01
1.004000000000000057e+02 7.739314298148089222e+01
1.008000000000000114e+02 7.726011172034384344e+01
1.012000000000000028e+02 7.712784012674462986e+01
1.016000000000000085e+02 7.699632072646691938e+01
1.020000000000000000e+02 7.686554614989610457e+01
1.024000000000000057e+02 7.673550913012054764e+01
1.028000000000000114e+02 7.660620250107541551e+01
1.032000000000000028e+02 7.647761919572764100e+01
1.036000000000000085e+02 7.634975224430081653e+01
1.040000000000000000e+02 7.622259477253955140e+01
1.044000000000000057e+02 7.609614000001150202e+01
1.048000000000000114e+02 7.597038123844669144e+01
1.052000000000000028e+02 7.584531189011283914e+01
1.056000000000000085e+02 7.572092544622593380e+01
1.060000000000000000e+02 7.559721548539505420e+01
1.064000000000000057e+02 7.547417567210050038e+01
1.068000000000000114e+02 7.535179975520465234e+01
1.072000000000000028e+02 7.523008156649440537e+01
1.076000000000000085e+02 7.510901501925455648e+01
1.080000000000000000e+02 7.498859410687137483e+01
1.084000000000000057e+02 7.486881290146550327e+01
1.088000000000000114e+02 7.474966555255367950e+01
1.092000000000000028e+02 7.463114628573811160e+01
1.096000000000000085e+02 7.451324940142333730e+01
1.100000000000000000e+02 7.439596927355967182e+01
1.104000000000000057e+02 7.427930034841243412e+01
1.108000000000000114e+02 7.416323714335652539e+01
1.112000000000000028e+02 7.404777424569581967e+01
1.116000000000000085e+02 7.393290631150640024e+01
1.120000000000000000e+02 7.381862806450351400e+01
1.124000000000000057e+02 7.370493429493134840e+01
1.128000000000000114e+02 7.359181985847513374e+01
1.132000000000000028e+02 7.347927967519524373e+01
1.136000000000000085e+02 7.336730872848254137e+01
1.140000000000000000e+02 7.325590206403451532e+01
1.144000000000000057e+02 7.314505478885180878e+01
1.148000000000000114e+02 7.303476207025457256e+01
1.152000000000000028e+02 7.292501913491817334e+01
1.156000000000000085e+02 7.281582126792795862e+01
1.160000000000000000e+02 7.270716381185229693e+01
1.164000000000000057e+02 7.259904216583393577e+01
1.168000000000000114e+02 7.249145178469876782e+01
1.172000000000000028e+02 7.238438817808203396e+01
1.176000000000000085e+02 7.227784690957128078e+01
1.180000000000000000e+02 7.217182359586574592e+01
1.184000000000000057e+02 7.206631390595187270e+01
1.188000000000000114e+02 7.196131356029461301e+01
1.192000000000000028e+02 7.185681833004393582e+01
1.196000000000000085e+02 7.175282403625648442e+01
1.200000000000000000e+02 7.164932654913188514e+01
1.204000000000000057e+02 7.154632178726343739e+01
1.208000000000000114e+02 7.144380571690274451e+01
1.212000000000000028e+02 7.134177435123811506e+01
1.216000000000000085e+02 7.124022374968646432e+01
1.220000000000000000e+02 7.113915001719821873e+01
1.224000000000000057e+02 7.103854930357516650e+01
1.228000000000000114e+02 7.093841780280075682e+01
1.232000000000000028e+02 7.083875175238273414e+01
1.236000000000000085e+02 7.073954743270776646e+01
1.240000000000000000e+02 7.064080116640793960e+01
1.244000000000000057e+02 7.054250931773847810e+01
1.248000000000000114e+02 7.044466829196704794e+01
1.252000000000000028e+02 7.034727453477393055e+01
1.256000000000000085e+02 7.025032453166278401e+01
1.260000000000000000e+02 7.015381480738228959e+01
1.264000000000000057e+02 7.005774192535787392e+01
1.268000000000000114e+02 6.996210248713370561e+01
1.272000000000000028e+02 6.986689313182441197e+01
1.276000000000000085e+02 6.977211053557657294e+01
1.280000000000000000e+02 6.967775141103975045e+01
1.284000000000000057e+02 6.958381250684665531e+01
1.288000000000000114e+02 6.949029060710257966e+01
1.291999999999999886e+02 6.939718253088354061e+01
1.296000000000000227e+02 6.930448513174331993e+01
1.300000000000000000e+02 6.921219529722893071e+01
1.304000000000000057e+02 6.912030994840442588e+01
1.308000000000000114e+02 6.902882603938307682e+01
1.311999999999999886e+02 6.893774055686729696e+01
1.316000000000000227e+02 6.884705051969672240e+01
1.320000000000000000e+02 6.875675297840376743e+01
1.324000000000000057e+02 6.866684501477679703e+01
1.328000000000000114e+02 6.857732374143078857e+01
1.331999999999999886e+02 6.848818630138509889e+01
1.336000000000000227e+02 6.839942986764840782e+01
1.340000000000000000e+02 6.831105164281065356e+01
1.344000000000000057e+02 6.822304885864164703e+01
1.348000000000000114e+02 6.813541877569655014e+01
1.351999999999999886e+02 6.804815868292783421e+01
1.356000000000000227e+02 6.796126589730361900e+01
1.360000000000000000e+02 6.787473776343230725e+01
1.364000000000000057e+02 6.778857165319364242e+01
1.368000000000000114e+02 6.770276496537529454e+01
1.371999999999999886e+02 6.761731512531598298e+01
1.376000000000000227e+02 6.753221958455405627e+01
1.380000000000000000e+02 6.744747582048179879e+01
1.384000000000000057e+02 6.736308133600552139e+01
1.388000000000000114e+02 6.727903365921099521e+01
1.392000000000000171e+02 6.719533034303427144e+01
1.395999999999999943e+02 6.711196896493790121e+01
1.400000000000000000e+02 6.702894712659217191e+01
1.404000000000000057e+02 6.694626245356160155e+01
1.408000000000000114e+02 6.686391259499632156e+01
1.412000000000000171e+02 6.678189522332834827e+01
1.415999999999999943e+02 6.670020803397271436e+01
1.420000000000000000e+02 6.661884874503330423e+01
1.424000000000000057e+02 6.653781509701320829e+01
1.428000000000000114e+02 6.645710485252980959e+01
1.432000000000000171e+02 6.637671579603414784e+01
1.435999999999999943e+02 6.629664573353480250e+01
1.440000000000000000e+02 6.621689249232584018e+01
1.444000000000000057e+02 6.613745392071929530e+01
1.448000000000000114e+02 6.605832788778153031e+01
1.452000000000000171e+02 6.597951228307375970e+01
1.455999999999999943e+02 6.590100501639651043e+01
1.460000000000000000e+02 6.582280401753806132e+01
1.464000000000000057e+02 6.574490723602664843e+01
1.468000000000000114e+02 6.566731264088656417e+01
1.472000000000000171e+02 6.559001822039775220e+01
1.475999999999999943e+02 6.551302198185928205e+01
1.480000000000000000e+02 6.543632195135621998e+01
1.484000000000000057e+02 6.535991617353001004e+01
1.488000000000000114e+02 6.528380271135252144e+01
1.492000000000000171e+02 6.520797964590315132e+01
1.495999999999999943e+02 6.513244507614948020e+01
1.500000000000000000e+02 6.505719711873118172e+01
