1.000000000000000000e+01 2.831959666153310309e+02
1.040000000000000036e+01 2.925355890524311349e+02
1.080000000000000071e+01 3.027022432698268517e+02
1.119999999999999929e+01 3.288858613314302488e+02
1.159999999999999964e+01 4.166484643984641707e+02
1.200000000000000000e+01 4.429713915915170901e+02
1.240000000000000036e+01 4.496550334730554823e+02
1.280000000000000071e+01 4.565356074057324349e+02
1.319999999999999929e+01 4.603022435639175001e+02
1.359999999999999964e+01 4.705642669842525834e+02
1.400000000000000000e+01 4.871956292052757931e+02
1.440000000000000036e+01 5.227507022408723287e+02
1.480000000000000071e+01 5.127706192861529644e+02
1.519999999999999929e+01 5.034647368356085053e+02
1.560000000000000142e+01 4.947546348787727197e+02
1.600000000000000000e+01 4.865746717628743454e+02
1.639999999999999858e+01 4.788693418180175740e+02
1.680000000000000071e+01 4.715912870302219631e+02
1.719999999999999929e+01 4.646997763049454306e+02
1.760000000000000142e+01 4.581595254462872617e+02
1.800000000000000000e+01 4.519397696390960846e+02
1.839999999999999858e+01 4.460135259130705663e+02
1.880000000000000071e+01 4.403570005079140515e+02
1.920000000000000284e+01 4.349491081255573590e+02
1.960000000000000142e+01 4.297710785501540158e+02
2.000000000000000000e+01 4.248061321909793264e+02
2.039999999999999858e+01 4.200392105096099158e+02
2.080000000000000071e+01 4.154567505310455999e+02
2.120000000000000284e+01 4.110464950471342149e+02
2.160000000000000142e+01 4.067973319322878751e+02
2.200000000000000000e+01 4.026991573680621741e+02
2.239999999999999858e+01 3.987427588292147220e+02
2.280000000000000071e+01 3.949197145011865473e+02
2.320000000000000284e+01 3.912223064367790357e+02
2.360000000000000142e+01 3.876434452614157635e+02
2.400000000000000000e+01 3.841766046337286866e+02
2.439999999999999858e+01 3.808157639851198155e+02
2.480000000000000071e+01 3.775553583163294888e+02
2.520000000000000284e+01 3.743902340344609456e+02
2.560000000000000142e+01 3.713156099807415558e+02
2.600000000000000000e+01 3.683270429355321198e+02
2.640000000000000213e+01 3.654203969988939207e+02
2.680000000000000071e+01 3.625918163372378444e+02
2.719999999999999929e+01 3.598377008629681768e+02
2.760000000000000142e+01 3.571546844776167973e+02
2.800000000000000000e+01 3.545396155620849754e+02
2.840000000000000213e+01 3.519895394421820924e+02
2.880000000000000071e+01 3.495016825951955184e+02
2.920000000000000284e+01 3.470734383949477433e+02
2.960000000000000142e+01 3.447023542197201209e+02
3.000000000000000000e+01 3.423861197703190555e+02
3.040000000000000213e+01 3.401225564651228979e+02
3.080000000000000071e+01 3.379096077956934892e+02
3.120000000000000284e+01 3.357453305409209179e+02
3.160000000000000142e+01 3.336278867500623164e+02
3.200000000000000000e+01 3.315555364157384020e+02
3.240000000000000568e+01 3.295266307672200128e+02
3.279999999999999716e+01 3.275396061223833044e+02
3.320000000000000284e+01 3.255929782437168569e+02
3.360000000000000142e+01 3.236853371498745560e+02
3.400000000000000000e+01 3.218153423396078665e+02
3.440000000000000568e+01 3.199817183895954713e+02
3.479999999999999716e+01 3.181832508917985365e+02
3.520000000000000284e+01 3.164187826995854493e+02
3.560000000000000142e+01 3.146872104550653830e+02
3.600000000000000000e+01 3.129874813728799836e+02
3.640000000000000568e+01 3.113185902582051767e+02
3.679999999999999716e+01 3.096795767389201615e+02
3.720000000000000284e+01 3.080695226938696578e+02
3.760000000000000142e+01 3.064875498608906810e+02
3.800000000000000000e+01 3.049328176098343306e+02
3.840000000000000568e+01 3.034045208672039848e+02
3.879999999999999716e+01 3.019018881802741134e+02
3.920000000000000284e+01 3.004241799096670320e+02
3.960000000000000142e+01 2.989706865403657048e+02
4.000000000000000000e+01 2.975407271020341113e+02
4.040000000000000568e+01 2.961336476903258017e+02
4.079999999999999716e+01 2.947488200815863024e+02
4.120000000000000284e+01 2.933856404340108384e+02
4.160000000000000142e+01 2.920435280689085857e+02
4.200000000000000000e+01 2.907219243262617852e+02
4.239999999999999858e+01 2.894202914892495073e+02
4.280000000000000426e+01 2.881381117728452637e+02
4.320000000000000284e+01 2.868748863719974338e+02
4.360000000000000142e+01 2.856301345652597661e+02
4.400000000000000000e+01 2.844033928700695810e+02
4.439999999999999858e+01 2.831942142461718959e+02
4.480000000000000426e+01 2.820021673439573533e+02
4.520000000000000284e+01 2.808268357947335971e+02
4.560000000000000142e+01 2.796678175401744966e+02
4.600000000000000000e+01 2.785247241984020548e+02
4.639999999999999858e+01 2.773971804643429095e+02
4.680000000000000426e+01 2.762848235421773779e+02
4.720000000000000284e+01 2.751873026078591806e+02
4.760000000000000142e+01 2.741042782998270582e+02
4.800000000000000000e+01 2.730354222361686425e+02
4.840000000000000568e+01 2.719804165566165466e+02
4.880000000000000426e+01 2.709389534878731638e+02
4.920000000000000284e+01 2.699107349308632138e+02
4.960000000000000142e+01 2.688954720686109567e+02
5.000000000000000000e+01 2.678928849935289804e+02
5.040000000000000568e+01 2.669027023529838516e+02
5.080000000000000426e+01 2.659246610120843002e+02
5.120000000000000284e+01 2.649585057327051345e+02
5.160000000000000142e+01 2.640039888678248303e+02
5.200000000000000000e+01 2.630608700703170371e+02
5.240000000000000568e+01 2.621289160153891089e+02
5.280000000000000426e+01 2.612079001359143149e+02
5.320000000000000284e+01 2.602976023699515622e+02
5.360000000000000142e+01 2.593978089197910322e+02
5.400000000000000000e+01 2.585083120219053399e+02
5.440000000000000568e+01 2.576289097272243112e+02
5.480000000000000426e+01 2.567594056911867710e+02
5.520000000000000284e+01 2.558996089730570134e+02
5.560000000000000142e+01 2.550493338440235220e+02
5.600000000000000000e+01 2.542083996036258782e+02
5.640000000000000568e+01 2.533766304040854607e+02
5.680000000000000426e+01 2.525538550821368062e+02
5.720000000000000284e+01 2.517399069979828141e+02
5.760000000000000142e+01 2.509346238810176146e+02
5.800000000000000000e+01 2.501378476819815546e+02
5.840000000000000568e+01 2.493494244312323076e+02
5.880000000000000426e+01 2.485692041028332255e+02
5.920000000000000284e+01 2.477970404841770744e+02
5.960000000000000142e+01 2.470327910508803768e+02
6.000000000000000000e+01 2.462763168466951811e+02
6.040000000000000568e+01 2.455274823682024135e+02
6.080000000000000426e+01 2.447861554540613724e+02
6.120000000000000284e+01 2.440522071786026572e+02
6.160000000000000142e+01 2.433255117495650097e+02
6.200000000000000000e+01 2.426059464097831722e+02
6.240000000000000568e+01 2.418933913426494939e+02
6.280000000000000426e+01 2.411877295811757449e+02
6.320000000000000284e+01 2.404888469204949217e+02
6.360000000000000142e+01 2.397966318336492009e+02
6.400000000000000000e+01 2.391109753905177229e+02
6.440000000000000568e+01 2.384317711797468746e+02
6.480000000000001137e+01 2.377589152335511358e+02
6.520000000000000284e+01 2.370923059552604286e+02
6.559999999999999432e+01 2.364318440494950551e+02
6.600000000000000000e+01 2.357774324548562959e+02
6.640000000000000568e+01 2.351289762790250961e+02
6.680000000000001137e+01 2.344863827361678830e+02
6.720000000000000284e+01 2.338495610865513754e+02
6.759999999999999432e+01 2.332184225782759768e+02
6.800000000000000000e+01 2.325928803910390741e+02
6.840000000000000568e+01 2.319728495818442582e+02
6.880000000000001137e+01 2.313582470325786460e+02
6.920000000000000284e+01 2.307489913993801736e+02
6.959999999999999432e+01 2.301450030637248290e+02
7.000000000000000000e+01 2.295462040851631400e+02
7.040000000000000568e+01 2.289525181556414282e+02
7.080000000000001137e+01 2.283638705553447608e+02
7.120000000000000284e+01 2.277801881100006369e+02
7.159999999999999432e+01 2.272013991495885250e+02
7.200000000000000000e+01 2.266274334683985501e+02
7.240000000000000568e+01 2.260582222863882862e+02
7.280000000000001137e+01 2.254936982117878017e+02
7.320000000000000284e+01 2.249337952049049250e+02
7.359999999999999432e+01 2.243784485430852840e+02
7.400000000000000000e+01 2.238275947867841751e+02
7.440000000000000568e+01 2.232811717467081110e+02
7.479999999999999716e+01 2.227391184519859166e+02
7.520000000000000284e+01 2.222013751193318853e+02
7.560000000000000853e+01 2.216678831231643869e+02
7.600000000000000000e+01 2.211385849666444585e+02
7.640000000000000568e+01 2.206134242536014085e+02
7.679999999999999716e+01 2.200923456613132601e+02
7.720000000000000284e+01 2.195752949141109127e+02
7.760000000000000853e+01 2.190622187577772024e+02
7.800000000000000000e+01 2.185530649347119265e+02
7.840000000000000568e+01 2.180477821598362880e+02
7.879999999999999716e+01 2.175463200972106392e+02
7.920000000000000284e+01 2.170486293373396052e+02
7.960000000000000853e+01 2.165546613751432403e+02
8.000000000000000000e+01 2.160643685885675040e+02
8.040000000000000568e+01 2.155777042178154375e+02
8.079999999999999716e+01 2.150946223451760488e+02
8.120000000000000284e+01 2.146150778754306714e+02
8.160000000000000853e+01 2.141390265168176654e+02
8.200000000000000000e+01 2.136664247625368205e+02
8.240000000000000568e+01 2.131972298727744715e+02
8.279999999999999716e+01 2.127313998572330433e+02
8.320000000000000284e+01 2.122688934581478577e+02
8.360000000000000853e+01 2.118096701337748300e+02
8.400000000000000000e+01 2.113536900423342786e+02
8.440000000000000568e+01 2.109009140263952418e+02
8.479999999999999716e+01 2.104513035976869730e+02
8.520000000000000284e+01 2.100048209223222671e+02
8.560000000000000853e+01 2.095614288064215316e+02
8.600000000000000000e+01 2.091210906821225990e+02
8.640000000000000568e+01 2.086837705939657326e+02
8.680000000000001137e+01 2.082494331856408110e+02
8.720000000000000284e+01 2.078180436870859751e+02
8.760000000000000853e+01 2.073895679019262559e+02
8.800000000000000000e+01 2.069639721952422065e+02
8.840000000000000568e+01 2.065412234816574824e+02
8.880000000000001137e+01 2.061212892137362473e+02
8.920000000000000284e+01 2.057041373706804279e+02
8.960000000000000853e+01 2.052897364473178357e+02
9.000000000000000000e+01 2.048780554433724888e+02
9.040000000000000568e+01 2.044690638530082367e+02
9.080000000000001137e+01 2.040627316546374175e+02
9.120000000000000284e+01 2.036590293009870436e+02
9.160000000000000853e+01 2.032579277094149006e+02
9.200000000000000000e+01 2.028593982524668320e+02
9.240000000000000568e+01 2.024634127486701232e+02
9.280000000000001137e+01 2.020699434535544299e+02
9.320000000000000284e+01 2.016789630508941968e+02
9.360000000000000853e+01 2.012904446441659729e+02
9.400000000000000000e+01 2.009043617482148250e+02
9.440000000000000568e+01 2.005206882811228581e+02
9.480000000000001137e+01 2.001393985562752675e+02
9.520000000000000284e+01 1.997604672746170422e+02
9.560000000000000853e+01 1.993838695170958601e+02
9.600000000000000000e+01 1.990095807372851482e+02
9.640000000000000568e+01 1.986375767541829305e+02
9.680000000000001137e+01 1.982678337451810364e+02
9.720000000000000284e+01 1.979003282391995810e+02
9.760000000000000853e+01 1.975350371099834206e+02
9.800000000000000000e+01 1.971719375695543874e+02
9.840000000000000568e+01 1.968110071618162635e+02
9.880000000000001137e+01 1.964522237563077169e+02
9.920000000000000284e+01 1.960955655420995072e+02
9.960000000000000853e+01 1.957410110218312980e+02
1.000000000000000000e+02 1.953885390058855478e+02
1.004000000000000057e+02 1.950381286066931921e+02
1.008000000000000114e+02 1.946897592331693829e+02
1.012000000000000028e+02 1.943434105852733751e+02
1.016000000000000085e+02 1.939990626486925862e+02
1.020000000000000000e+02 1.936566956896437830e+02
1.024000000000000057e+02 1.933162902497914217e+02
1.028000000000000114e+02 1.929778271412781692e+02
1.032000000000000028e+02 1.926412874418654724e+02
1.036000000000000085e+02 1.923066524901808805e+02
1.040000000000000000e+02 1.919739038810700436e+02
1.044000000000000057e+02 1.916430234610493528e+02
1.048000000000000114e+02 1.913139933238583694e+02
1.052000000000000028e+02 1.909867958061079776e+02
1.056000000000000085e+02 1.906614134830226135e+02
1.060000000000000000e+02 1.903378291642737565e+02
1.064000000000000057e+02 1.900160258899027781e+02
1.068000000000000114e+02 1.896959869263306473e+02
1.072000000000000028e+02 1.893776957624521344e+02
1.076000000000000085e+02 1.890611361058127500e+02
1.080000000000000000e+02 1.887462918788662307e+02
1.084000000000000057e+02 1.884331472153102141e+02
1.088000000000000114e+02 1.881216864564987645e+02
1.092000000000000028e+02 1.878118941479296780e+02
1.096000000000000085e+02 1.875037550358039766e+02
1.100000000000000000e+02 1.871972540636571409e+02
1.104000000000000057e+02 1.868923763690592637e+02
1.108000000000000114e+02 1.865891072803827626e+02
1.112000000000000028e+02 1.862874323136365149e+02
1.116000000000000085e+02 1.859873371693636841e+02
1.120000000000000000e+02 1.856888077296030133e+02
1.124000000000000057e+02 1.853918300549109688e+02
1.128000000000000114e+02 1.850963903814441949e+02
1.132000000000000028e+02 1.848024751180999772e+02
1.136000000000000085e+02 1.845100708437140042e+02
1.140000000000000000e+02 1.842191643043137788e+02
1.144000000000000057e+02 1.839297424104264280e+02
1.148000000000000114e+02 1.836417922344396629e+02
1.152000000000000028e+02 1.833553010080145498e+02
1.156000000000000085e+02 1.830702561195490716e+02
1.160000000000000000e+02 1.827866451116910582e+02
1.164000000000000057e+02 1.825044556788994896e+02
1.168000000000000114e+02 1.822236756650532357e+02
1.172000000000000028e+02 1.819442930611056966e+02
1.176000000000000085e+02 1.816662960027848044e+02
1.180000000000000000e+02 1.813896727683367374e+02
1.184000000000000057e+02 1.811144117763132044e+02
1.188000000000000114e+02 1.808405015834004530e+02
1.192000000000000028e+02 1.805679308822897156e+02
1.196000000000000085e+02 1.802966884995875603e+02
1.200000000000000000e+02 1.800267633937659184e+02
1.204000000000000057e+02 1.797581446531504241e+02
1.208000000000000114e+02 1.794908214939462709e+02
1.212000000000000028e+02 1.792247832583011018e+02
1.216000000000000085e+02 1.789600194124035681e+02
1.220000000000000000e+02 1.786965195446172743e+02
1.224000000000000057e+02 1.784342733636491118e+02
1.228000000000000114e+02 1.781732706967510467e+02
1.232000000000000028e+02 1.779135014879552443e+02
1.236000000000000085e+02 1.776549557963408006e+02
1.240000000000000000e+02 1.773976237943326169e+02
1.244000000000000057e+02 1.771414957660307721e+02
1.248000000000000114e+02 1.768865621055699648e+02
1.252000000000000028e+02 1.766328133155089120e+02
1.256000000000000085e+02 1.763802400052481403e+02
1.260000000000000000e+02 1.761288328894764277e+02
1.264000000000000057e+02 1.758785827866448983e+02
1.268000000000000114e+02 1.756294806174679763e+02
1.272000000000000028e+02 1.753815174034511699e+02
1.276000000000000085e+02 1.751346842654446334e+02
1.280000000000000000e+02 1.748889724222223663e+02
1.284000000000000057e+02 1.746443731890860249e+02
1.288000000000000114e+02 1.744008779764934616e+02
1.291999999999999886e+02 1.741584782887109100e+02
1.296000000000000227e+02 1.739171657224886189e+02
1.300000000000000000e+02 1.736769319657594508e+02
1.304000000000000057e+02 1.734377687963601034e+02
1.308000000000000114e+02 1.731996680807736766e+02
1.311999999999999886e+02 1.729626217728946926e+02
1.316000000000000227e+02 1.727266219128144940e+02
1.320000000000000000e+02 1.724916606256275884e+02
1.324000000000000057e+02 1.722577301202582589e+02
1.328000000000000114e+02 1.720248226883071538e+02
1.331999999999999886e+02 1.717929307029169763e+02
1.336000000000000227e+02 1.715620466176574723e+02
1.340000000000000000e+02 1.713321629654292337e+02
1.344000000000000057e+02 1.711032723573856629e+02
1.348000000000000114e+02 1.708753674818726154e+02
1.351999999999999886e+02 1.706484411033864603e+02
1.356000000000000227e+02 1.704224860615482271e+02
1.360000000000000000e+02 1.701974952700958283e+02
1.364000000000000057e+02 1.699734617158921992e+02
1.368000000000000114e+02 1.697503784579497506e+02
1.371999999999999886e+02 1.695282386264708236e+02
1.376000000000000227e+02 1.693070354219041462e+02
1.380000000000000000e+02 1.690867621140160679e+02
1.384000000000000057e+02 1.688674120409770296e+02
1.388000000000000114e+02 1.686489786084632385e+02
1.392000000000000171e+02 1.684314552887717298e+02
1.395999999999999943e+02 1.682148356199511454e+02
1.400000000000000000e+02 1.679991132049449334e+02
1.404000000000000057e+02 1.677842817107492976e+02
1.408000000000000114e+02 1.675703348675839663e+02
1.412000000000000171e+02 1.673572664680763182e+02
1.415999999999999943e+02 1.671450703664584694e+02
1.420000000000000000e+02 1.669337404777768086e+02
1.424000000000000057e+02 1.667232707771142657e+02
1.428000000000000114e+02 1.665136552988244887e+02
1.432000000000000171e+02 1.663048881357781283e+02
1.435999999999999943e+02 1.660969634386209464e+02
1.440000000000000000e+02 1.658898754150431216e+02
1.444000000000000057e+02 1.656836183290604936e+02
1.448000000000000114e+02 1.654781865003061796e+02
1.452000000000000171e+02 1.652735743033337883e+02
1.455999999999999943e+02 1.650697761669306942e+02
1.460000000000000000e+02 1.648667865734424254e+02
1.464000000000000057e+02 1.646646000581069700e+02
1.468000000000000114e+02 1.644632112083993434e+02
1.472000000000000171e+02 1.642626146633863300e+02
1.475999999999999943e+02 1.640628051130904623e+02
1.480000000000000000e+02 1.638637772978641749e+02
1.484000000000000057e+02 1.636655260077730816e+02
1.488000000000000114e+02 1.634680460819886036e+02
1.492000000000000171e+02 1.632713324081896076e+02
1.495999999999999943e+02 1.630753799219730809e+02
1.500000000000000000e+02 1.628801836062735902e+02
