1.000000000000000000e+01 2.242210580597715364e+02
1.040000000000000036e+01 2.255365648580711309e+02
1.080000000000000071e+01 2.285104712552835053e+02
1.119999999999999929e+01 2.362309718178634057e+02
1.159999999999999964e+01 2.437887618645341945e+02
1.200000000000000000e+01 2.527470103741600838e+02
1.240000000000000036e+01 2.600189792330492082e+02
1.280000000000000071e+01 2.796538080713384034e+02
1.319999999999999929e+01 2.939483437085502828e+02
1.359999999999999964e+01 3.142164427786614738e+02
1.400000000000000000e+01 3.340799847564537686e+02
1.440000000000000036e+01 3.630054650272129493e+02
1.480000000000000071e+01 3.766210957016398879e+02
1.519999999999999929e+01 3.947635412390176839e+02
1.560000000000000142e+01 4.345350784536397555e+02
1.600000000000000000e+01 4.369679153659984081e+02
1.639999999999999858e+01 4.289071225705922075e+02
1.680000000000000071e+01 4.213936566448519443e+02
1.719999999999999929e+01 4.143632702574832365e+02
1.760000000000000142e+01 4.077622229323369538e+02
1.800000000000000000e+01 4.015451169830957383e+02
1.839999999999999858e+01 3.956732632428898455e+02
1.880000000000000071e+01 3.901134280534230356e+02
1.920000000000000284e+01 3.848368594594111869e+02
1.960000000000000142e+01 3.798185211006584723e+02
2.000000000000000000e+01 3.750364828068015868e+02
2.039999999999999858e+01 3.704714309447078904e+02
2.080000000000000071e+01 3.661062713554937318e+02
2.120000000000000284e+01 3.619258046478817050e+02
2.160000000000000142e+01 3.579164585933838794e+02
2.200000000000000000e+01 3.540660659940609776e+02
2.239999999999999858e+01 3.503636790660308975e+02
2.280000000000000071e+01 3.467994133744679175e+02
2.320000000000000284e+01 3.433643158572392622e+02
2.360000000000000142e+01 3.400502526167779820e+02
2.400000000000000000e+01 3.368498130370766148e+02
2.439999999999999858e+01 3.337562274621198526e+02
2.480000000000000071e+01 3.307632962024957237e+02
2.520000000000000284e+01 3.278653280541224149e+02
2.560000000000000142e+01 3.250570868434972454e+02
2.600000000000000000e+01 3.223337447773802182e+02
2.640000000000000213e+01 3.196908415862578750e+02
2.680000000000000071e+01 3.171242486215925283e+02
2.719999999999999929e+01 3.146301372053785599e+02
2.760000000000000142e+01 3.122049506435643025e+02
2.800000000000000000e+01 3.098453794075943506e+02
2.840000000000000213e+01 3.075483390647235638e+02
2.880000000000000071e+01 3.053109506009909069e+02
2.920000000000000284e+01 3.031305228333282002e+02
2.960000000000000142e+01 3.010045366511736233e+02
3.000000000000000000e+01 2.989306308647643391e+02
3.040000000000000213e+01 2.969065894682439648e+02
3.080000000000000071e+01 2.949303301518684179e+02
3.120000000000000284e+01 2.929998939197529921e+02
3.160000000000000142e+01 2.911134356884442127e+02
3.200000000000000000e+01 2.892692157576685759e+02
3.240000000000000568e+01 2.874655920583642228e+02
3.279999999999999716e+01 2.857010130948968936e+02
3.320000000000000284e+01 2.839740115085193111e+02
3.360000000000000142e+01 2.822831981978966951e+02
3.400000000000000000e+01 2.806272569401009491e+02
3.440000000000000568e+01 2.790049394620554608e+02
3.479999999999999716e+01 2.774150609181313598e+02
3.520000000000000284e+01 2.758564957345816424e+02
3.560000000000000142e+01 2.743281737858552560e+02
3.600000000000000000e+01 2.728290768716465209e+02
3.640000000000000568e+01 2.713582354668828884e+02
3.679999999999999716e+01 2.699147257197946601e+02
3.720000000000000284e+01 2.684976666758056467e+02
3.760000000000000142e+01 2.671062177072697068e+02
3.800000000000000000e+01 2.657395761311040587e+02
3.840000000000000568e+01 2.643969749981642394e+02
3.879999999999999716e+01 2.630776810397956069e+02
3.920000000000000284e+01 2.617809927584145839e+02
3.960000000000000142e+01 2.605062386502325467e+02
4.000000000000000000e+01 2.592527755493601944e+02
4.040000000000000568e+01 2.580199870835351703e+02
4.079999999999999716e+01 2.568072822326159894e+02
4.120000000000000284e+01 2.556140939817922231e+02
4.160000000000000142e+01 2.544398780621810943e+02
4.200000000000000000e+01 2.532841117721364128e+02
4.239999999999999858e+01 2.521462928731758666e+02
4.280000000000000426e+01 2.510259385549643696e+02
4.320000000000000284e+01 2.499225844642654124e+02
4.360000000000000142e+01 2.488357837932023244e+02
4.400000000000000000e+01 2.477651064225623827e+02
4.439999999999999858e+01 2.467101381162277676e+02
4.480000000000000426e+01 2.456704797631378767e+02
4.520000000000000284e+01 2.446457466634778939e+02
4.560000000000000142e+01 2.436355678560520630e+02
4.600000000000000000e+01 2.426395854840415609e+02
4.639999999999999858e+01 2.416574541965638900e+02
4.680000000000000426e+01 2.406888405836510287e+02
4.720000000000000284e+01 2.397334226424475787e+02
4.760000000000000142e+01 2.387908892725928638e+02
4.800000000000000000e+01 2.378609397989068270e+02
4.840000000000000568e+01 2.369432835196365090e+02
4.880000000000000426e+01 2.360376392786500332e+02
4.920000000000000284e+01 2.351437350600791092e+02
4.960000000000000142e+01 2.342613076040215958e+02
5.000000000000000000e+01 2.333901020420134387e+02
5.040000000000000568e+01 2.325298715510696184e+02
5.080000000000000426e+01 2.316803770251780747e+02
5.120000000000000284e+01 2.308413867632085612e+02
5.160000000000000142e+01 2.300126761722675042e+02
5.200000000000000000e+01 2.291940274855972177e+02
5.240000000000000568e+01 2.283852294941782475e+02
5.280000000000000426e+01 2.275860772912486709e+02
5.320000000000000284e+01 2.267963720290067045e+02
5.360000000000000142e+01 2.260159206868111426e+02
5.400000000000000000e+01 2.252445358502380941e+02
5.440000000000000568e+01 2.244820355003936641e+02
5.480000000000000426e+01 2.237282428129205130e+02
5.520000000000000284e+01 2.229829859661717819e+02
5.560000000000000142e+01 2.222460979580589822e+02
5.600000000000000000e+01 2.215174164311103198e+02
5.640000000000000568e+01 2.207967835053044610e+02
5.680000000000000426e+01 2.200840456182733078e+02
5.720000000000000284e+01 2.193790533724877037e+02
5.760000000000000142e+01 2.186816613890679548e+02
5.800000000000000000e+01 2.179917281678785344e+02
5.840000000000000568e+01 2.173091159535885026e+02
5.880000000000000426e+01 2.166336906073969431e+02
5.920000000000000284e+01 2.159653214841407589e+02
5.960000000000000142e+01 2.153038813145173549e+02
6.000000000000000000e+01 2.146492460921715235e+02
6.040000000000000568e+01 2.140012949654085332e+02
6.080000000000000426e+01 2.133599101333100805e+02
6.120000000000000284e+01 2.127249767460406247e+02
6.160000000000000142e+01 2.120963828091460641e+02
6.200000000000000000e+01 2.114740190916537017e+02
6.240000000000000568e+01 2.108577790377972576e+02
6.280000000000000426e+01 2.102475586821960576e+02
6.320000000000000284e+01 2.096432565683301448e+02
6.360000000000000142e+01 2.090447736701590316e+02
6.400000000000000000e+01 2.084520133167411302e+02
6.440000000000000568e+01 2.078648811197183193e+02
6.480000000000001137e+01 2.072832849035366678e+02
6.520000000000000284e+01 2.067071346382811896e+02
6.559999999999999432e+01 2.061363423750092920e+02
6.600000000000000000e+01 2.055708221834724441e+02
6.640000000000000568e+01 2.050104900921227795e+02
6.680000000000001137e+01 2.044552640303042779e+02
6.720000000000000284e+01 2.039050637725354136e+02
6.759999999999999432e+01 2.033598108847934895e+02
6.800000000000000000e+01 2.028194286727159010e+02
6.840000000000000568e+01 2.022838421316367601e+02
6.880000000000001137e+01 2.017529778983827953e+02
6.920000000000000284e+01 2.012267642047553409e+02
6.959999999999999432e+01 2.007051308326270203e+02
7.000000000000000000e+01 2.001880090705899420e+02
7.040000000000000568e+01 1.996753316720885607e+02
7.080000000000001137e+01 1.991670328149799047e+02
7.120000000000000284e+01 1.986630480624617690e+02
7.159999999999999432e+01 1.981633143253150990e+02
7.200000000000000000e+01 1.976677698254079303e+02
7.240000000000000568e+01 1.971763540604115974e+02
7.280000000000001137e+01 1.966890077696803019e+02
7.320000000000000284e+01 1.962056729012503240e+02
7.359999999999999432e+01 1.957262925799139452e+02
7.400000000000000000e+01 1.952508110763279205e+02
7.440000000000000568e+01 1.947791737771160570e+02
7.479999999999999716e+01 1.943113271559280406e+02
7.520000000000000284e+01 1.938472187454189282e+02
7.560000000000000853e+01 1.933867971101143439e+02
7.600000000000000000e+01 1.929300118201278451e+02
7.640000000000000568e+01 1.924768134256995893e+02
7.679999999999999716e+01 1.920271534325254095e+02
7.720000000000000284e+01 1.915809842778473353e+02
7.760000000000000853e+01 1.911382593072778491e+02
7.800000000000000000e+01 1.906989327523315580e+02
7.840000000000000568e+01 1.902629597086378794e+02
7.879999999999999716e+01 1.898302961148110342e+02
7.920000000000000284e+01 1.894008987319540438e+02
7.960000000000000853e+01 1.889747251237734247e+02
8.000000000000000000e+01 1.885517336372836326e+02
8.040000000000000568e+01 1.881318833840806519e+02
8.079999999999999716e+01 1.877151342221642381e+02
8.120000000000000284e+01 1.873014467382907640e+02
8.160000000000000853e+01 1.868907822308373738e+02
8.200000000000000000e+01 1.864831026931603333e+02
8.240000000000000568e+01 1.860783707974308641e+02
8.279999999999999716e+01 1.856765498789324340e+02
8.320000000000000284e+01 1.852776039208025338e+02
8.360000000000000853e+01 1.848814975392063502e+02
8.400000000000000000e+01 1.844881959689259077e+02
8.440000000000000568e+01 1.840976650493514910e+02
8.479999999999999716e+01 1.837098712108629002e+02
8.520000000000000284e+01 1.833247814615860989e+02
8.560000000000000853e+01 1.829423633745145708e+02
8.600000000000000000e+01 1.825625850749825076e+02
8.640000000000000568e+01 1.821854152284787176e+02
8.680000000000001137e+01 1.818108230287908214e+02
8.720000000000000284e+01 1.814387781864677436e+02
8.760000000000000853e+01 1.810692509175923135e+02
8.800000000000000000e+01 1.807022119328524070e+02
8.840000000000000568e+01 1.803376324269020756e+02
8.880000000000001137e+01 1.799754840680037660e+02
8.920000000000000284e+01 1.796157389879419668e+02
8.960000000000000853e+01 1.792583697722004388e+02
9.000000000000000000e+01 1.789033494503953534e+02
9.040000000000000568e+01 1.785506514869553598e+02
9.080000000000001137e+01 1.782002497720417011e+02
9.120000000000000284e+01 1.778521186127008775e+02
9.160000000000000853e+01 1.775062327242433184e+02
9.200000000000000000e+01 1.771625672218401917e+02
9.240000000000000568e+01 1.768210976123328351e+02
9.280000000000001137e+01 1.764817997862477625e+02
9.320000000000000284e+01 1.761446500100114747e+02
9.360000000000000853e+01 1.758096249183592477e+02
9.400000000000000000e+01 1.754767015069316187e+02
9.440000000000000568e+01 1.751458571250539080e+02
9.480000000000001137e+01 1.748170694686926936e+02
9.520000000000000284e+01 1.744903165735842947e+02
9.560000000000000853e+01 1.741655768085307727e+02
9.600000000000000000e+01 1.738428288688578505e+02
9.640000000000000568e+01 1.735220517700306004e+02
9.680000000000001137e+01 1.732032248414224682e+02
9.720000000000000284e+01 1.728863277202327140e+02
9.760000000000000853e+01 1.725713403455488901e+02
9.800000000000000000e+01 1.722582429525498071e+02
9.840000000000000568e+01 1.719470160668442418e+02
9.880000000000001137e+01 1.716376404989440516e+02
9.920000000000000284e+01 1.713300973388647890e+02
9.960000000000000853e+01 1.710243679508526782e+02
1.000000000000000000e+02 1.707204339682336922e+02
1.004000000000000057e+02 1.704182772883806933e+02
1.008000000000000114e+02 1.701178800677971594e+02
1.012000000000000028e+02 1.698192247173119256e+02
1.016000000000000085e+02 1.695222938973844293e+02
1.020000000000000000e+02 1.692270705135155140e+02
1.024000000000000057e+02 1.689335377117621988e+02
1.028000000000000114e+02 1.686416788743530049e+02
1.032000000000000028e+02 1.683514776154013362e+02
1.036000000000000085e+02 1.680629177767142721e+02
1.040000000000000000e+02 1.677759834236946404e+02
1.044000000000000057e+02 1.674906588413331860e+02
1.048000000000000114e+02 1.672069285302891046e+02
1.052000000000000028e+02 1.669247772030564931e+02
1.056000000000000085e+02 1.666441897802141057e+02
1.060000000000000000e+02 1.663651513867569918e+02
1.064000000000000057e+02 1.660876473485071472e+02
1.068000000000000114e+02 1.658116631886017274e+02
1.072000000000000028e+02 1.655371846240564935e+02
1.076000000000000085e+02 1.652641975624026998e+02
1.080000000000000000e+02 1.649926880983958597e+02
1.084000000000000057e+02 1.647226425107935199e+02
1.088000000000000114e+02 1.644540472592022411e+02
1.092000000000000028e+02 1.641868889809898064e+02
1.096000000000000085e+02 1.639211544882627152e+02
1.100000000000000000e+02 1.636568307649066583e+02
1.104000000000000057e+02 1.633939049636882146e+02
1.108000000000000114e+02 1.631323644034170570e+02
1.112000000000000028e+02 1.628721965661662807e+02
1.116000000000000085e+02 1.626133890945498877e+02
1.120000000000000000e+02 1.623559297890561481e+02
1.124000000000000057e+02 1.620998066054352478e+02
1.128000000000000114e+02 1.618450076521398273e+02
1.132000000000000028e+02 1.615915211878176763e+02
1.136000000000000085e+02 1.613393356188543351e+02
1.140000000000000000e+02 1.610884394969658331e+02
1.144000000000000057e+02 1.608388215168387205e+02
1.148000000000000114e+02 1.605904705138179338e+02
1.152000000000000028e+02 1.603433754616398801e+02
1.156000000000000085e+02 1.600975254702108543e+02
1.160000000000000000e+02 1.598529097834287143e+02
1.164000000000000057e+02 1.596095177770479836e+02
1.168000000000000114e+02 1.593673389565860248e+02
1.172000000000000028e+02 1.591263629552705083e+02
1.176000000000000085e+02 1.588865795320264738e+02
1.180000000000000000e+02 1.586479785695023850e+02
1.184000000000000057e+02 1.584105500721342139e+02
1.188000000000000114e+02 1.581742841642468136e+02
1.192000000000000028e+02 1.579391710881913866e+02
1.196000000000000085e+02 1.577052012025187651e+02
1.200000000000000000e+02 1.574723649801871090e+02
1.204000000000000057e+02 1.572406530068036545e+02
1.208000000000000114e+02 1.570100559788996861e+02
1.212000000000000028e+02 1.567805647022377684e+02
1.216000000000000085e+02 1.565521700901508666e+02
1.220000000000000000e+02 1.563248631619123330e+02
1.224000000000000057e+02 1.560986350411361627e+02
1.228000000000000114e+02 1.558734769542070921e+02
1.232000000000000028e+02 1.556493802287395738e+02
1.236000000000000085e+02 1.554263362920648319e+02
1.240000000000000000e+02 1.552043366697464819e+02
1.244000000000000057e+02 1.549833729841220702e+02
1.248000000000000114e+02 1.547634369528723823e+02
1.252000000000000028e+02 1.545445203876159326e+02
1.256000000000000085e+02 1.543266151925290899e+02
1.260000000000000000e+02 1.541097133629913003e+02
1.264000000000000057e+02 1.538938069842542404e+02
1.268000000000000114e+02 1.536788882301351862e+02
1.272000000000000028e+02 1.534649493617334315e+02
1.276000000000000085e+02 1.532519827261696719e+02
1.280000000000000000e+02 1.530399807553478695e+02
1.284000000000000057e+02 1.528289359647384344e+02
1.288000000000000114e+02 1.526188409521836320e+02
1.291999999999999886e+02 1.524096883967232827e+02
1.296000000000000227e+02 1.522014710574414096e+02
1.300000000000000000e+02 1.519941817723328370e+02
1.304000000000000057e+02 1.517878134571893725e+02
1.308000000000000114e+02 1.515823591045055423e+02
1.311999999999999886e+02 1.513778117824031142e+02
1.316000000000000227e+02 1.511741646335739802e+02
1.320000000000000000e+02 1.509714108742413430e+02
1.324000000000000057e+02 1.507695437931386664e+02
1.328000000000000114e+02 1.505685567505059907e+02
1.331999999999999886e+02 1.503684431771030745e+02
1.336000000000000227e+02 1.501691965732396739e+02
1.340000000000000000e+02 1.499708105078220228e+02
1.344000000000000057e+02 1.497732786174150874e+02
1.348000000000000114e+02 1.495765946053209348e+02
1.351999999999999886e+02 1.493807522406723081e+02
1.356000000000000227e+02 1.491857453575413786e+02
1.360000000000000000e+02 1.489915678540632200e+02
1.364000000000000057e+02 1.487982136915739488e+02
1.368000000000000114e+02 1.486056768937630181e+02
1.371999999999999886e+02 1.484139515458392395e+02
1.376000000000000227e+02 1.482230317937110726e+02
1.380000000000000000e+02 1.480329118431797326e+02
1.384000000000000057e+02 1.478435859591456847e+02
1.388000000000000114e+02 1.476550484648282691e+02
1.392000000000000171e+02 1.474672937409973201e+02
1.395999999999999943e+02 1.472803162252183142e+02
1.400000000000000000e+02 1.470941104111082041e+02
1.404000000000000057e+02 1.469086708476046681e+02
1.408000000000000114e+02 1.467239921382460466e+02
1.412000000000000171e+02 1.465400689404633567e+02
1.415999999999999943e+02 1.463568959648830514e+02
1.420000000000000000e+02 1.461744679746414874e+02
1.424000000000000057e+02 1.459927797847097111e+02
1.428000000000000114e+02 1.458118262612290721e+02
1.432000000000000171e+02 1.456316023208573824e+02
1.435999999999999943e+02 1.454521029301253066e+02
1.440000000000000000e+02 1.452733231048025573e+02
1.444000000000000057e+02 1.450952579092743235e+02
1.448000000000000114e+02 1.449179024559273614e+02
1.452000000000000171e+02 1.447412519045452086e+02
1.455999999999999943e+02 1.445653014617133181e+02
1.460000000000000000e+02 1.443900463802327181e+02
1.464000000000000057e+02 1.442154819585434780e+02
1.468000000000000114e+02 1.440416035401562169e+02
1.472000000000000171e+02 1.438684065130927081e+02
1.475999999999999943e+02 1.436958863093351226e+02
1.480000000000000000e+02 1.435240384042832034e+02
1.484000000000000057e+02 1.433528583162200789e+02
1.488000000000000114e+02 1.431823416057860356e+02
1.492000000000000171e+02 1.430124838754599921e+02
1.495999999999999943e+02 1.428432807690489312e+02
1.500000000000000000e+02 1.426747279711852912e+02
