1.000000000000000000e+01 1.299486338846404294e+02
1.040000000000000036e+01 1.348227770317662078e+02
1.080000000000000071e+01 1.443810357929226598e+02
1.119999999999999929e+01 1.561039559473242662e+02
1.159999999999999964e+01 1.772381613247937935e+02
1.200000000000000000e+01 1.887568188230614226e+02
1.240000000000000036e+01 1.808540708038447349e+02
1.280000000000000071e+01 1.739157608014750167e+02
1.319999999999999929e+01 1.678700624368051706e+02
1.359999999999999964e+01 1.630303538495894600e+02
1.400000000000000000e+01 1.588771103444704522e+02
1.440000000000000036e+01 1.555471271504473521e+02
1.480000000000000071e+01 1.521678111884928342e+02
1.519999999999999929e+01 1.490560721954057328e+02
1.560000000000000142e+01 1.461773979184645782e+02
1.600000000000000000e+01 1.435033273364561524e+02
1.639999999999999858e+01 1.410101287432176207e+02
1.680000000000000071e+01 1.386753610931113485e+02
1.719999999999999929e+01 1.338696768710930485e+02
1.760000000000000142e+01 1.316503425978209805e+02
1.800000000000000000e+01 1.295582266194091403e+02
1.839999999999999858e+01 1.275813854708113979e+02
1.880000000000000071e+01 1.257094078000767183e+02
1.920000000000000284e+01 1.239331679382201514e+02
1.960000000000000142e+01 1.222446266824163672e+02
2.000000000000000000e+01 1.206366688796192079e+02
2.039999999999999858e+01 1.191175299665917464e+02
2.080000000000000071e+01 1.176880980915211126e+02
2.120000000000000284e+01 1.163203059628502274e+02
2.160000000000000142e+01 1.068926891146337539e+02
2.200000000000000000e+01 1.055959808514227518e+02
2.239999999999999858e+01 1.043491923652982791e+02
2.280000000000000071e+01 9.858940693603790351e+01
2.320000000000000284e+01 9.740566242337592939e+01
2.360000000000000142e+01 9.626680840268761585e+01
2.400000000000000000e+01 9.515488571637158088e+01
2.439999999999999858e+01 9.407997406438444443e+01
2.480000000000000071e+01 9.304002389287427377e+01
2.520000000000000284e+01 9.203314339576340330e+01
2.560000000000000142e+01 9.105758306567676641e+01
2.600000000000000000e+01 9.011172207145352786e+01
2.640000000000000213e+01 8.919405621046539068e+01
2.680000000000000071e+01 8.830318722343264426e+01
2.719999999999999929e+01 8.743781329199079266e+01
2.760000000000000142e+01 8.659672056624440017e+01
2.800000000000000000e+01 8.591842746383052543e+01
2.840000000000000213e+01 8.512783060878682306e+01
2.880000000000000071e+01 8.435815226500596964e+01
2.920000000000000284e+01 8.360847072017214998e+01
2.960000000000000142e+01 8.285698451768240602e+01
3.000000000000000000e+01 8.209553024670901777e+01
3.040000000000000213e+01 8.135334600611275846e+01
3.080000000000000071e+01 8.062962488824936713e+01
3.120000000000000284e+01 7.992360684638001089e+01
3.160000000000000142e+01 7.922212099678684183e+01
3.200000000000000000e+01 7.852711870885428880e+01
3.240000000000000568e+01 7.748124001373867031e+01
3.279999999999999716e+01 7.684299482424090399e+01
3.320000000000000284e+01 7.621911448789140309e+01
3.360000000000000142e+01 7.560906439098916110e+01
3.400000000000000000e+01 7.501233753406837934e+01
3.440000000000000568e+01 7.442845271547811592e+01
3.479999999999999716e+01 7.385695285953755729e+01
3.520000000000000284e+01 7.329740347580745663e+01
3.560000000000000142e+01 7.274939123744792369e+01
3.600000000000000000e+01 7.221252266789427665e+01
3.640000000000000568e+01 7.168642292619352929e+01
3.679999999999999716e+01 7.117073468232857181e+01
3.720000000000000284e+01 7.066511707472712089e+01
3.760000000000000142e+01 7.012243967254465815e+01
3.800000000000000000e+01 6.963898534788380346e+01
3.840000000000000568e+01 6.916459647941456979e+01
3.879999999999999716e+01 6.869899165113196204e+01
3.920000000000000284e+01 6.824190159094266050e+01
3.960000000000000142e+01 6.779306850228630310e+01
4.000000000000000000e+01 6.735224544033553684e+01
4.040000000000000568e+01 6.691919572929258209e+01
4.079999999999999716e+01 6.649369241760996374e+01
4.120000000000000284e+01 6.607551776824331569e+01
4.160000000000000142e+01 6.565823211661847836e+01
4.200000000000000000e+01 6.524350937693407104e+01
4.239999999999999858e+01 6.483579270673160977e+01
4.280000000000000426e+01 6.443468926726659163e+01
4.320000000000000284e+01 6.451364792714414875e+01
4.360000000000000142e+01 6.416771795571260384e+01
4.400000000000000000e+01 6.382706606622620882e+01
4.439999999999999858e+01 6.349155803984399427e+01
4.480000000000000426e+01 6.316106442489144968e+01
4.520000000000000284e+01 6.283546032005283166e+01
4.560000000000000142e+01 6.251462516955169235e+01
4.600000000000000000e+01 6.219844256954048234e+01
4.639999999999999858e+01 6.221554082857798562e+01
4.680000000000000426e+01 6.192460407917586451e+01
4.720000000000000284e+01 6.163765176798312950e+01
4.760000000000000142e+01 6.135459265973165088e+01
4.800000000000000000e+01 6.107533844086257346e+01
4.840000000000000568e+01 6.079980359959741776e+01
4.880000000000000426e+01 6.052790531200015778e+01
4.920000000000000284e+01 6.030293080139779249e+01
4.960000000000000142e+01 6.003842791373022436e+01
5.000000000000000000e+01 5.977731925947060176e+01
5.040000000000000568e+01 5.951953199496520597e+01
5.080000000000000426e+01 5.926499546360282977e+01
5.120000000000000284e+01 5.901364111161875314e+01
5.160000000000000142e+01 5.876540240784490976e+01
5.200000000000000000e+01 5.852021476718839210e+01
5.240000000000000568e+01 5.827801547763498036e+01
5.280000000000000426e+01 5.803874363058647390e+01
5.320000000000000284e+01 5.780234005435261224e+01
5.360000000000000142e+01 5.756874725062975529e+01
5.400000000000000000e+01 5.733790933380849708e+01
5.440000000000000568e+01 5.732403215039339983e+01
5.480000000000000426e+01 5.710473758884651829e+01
5.520000000000000284e+01 5.688803007019778590e+01
5.560000000000000142e+01 5.667440422259084443e+01
5.600000000000000000e+01 5.646315233220404650e+01
5.640000000000000568e+01 5.625423027641778617e+01
5.680000000000000426e+01 5.603959441514654571e+01
5.720000000000000284e+01 5.582307644404357205e+01
5.760000000000000142e+01 5.560898703044799163e+01
5.800000000000000000e+01 5.539728065560714043e+01
5.840000000000000568e+01 5.518791299404949058e+01
5.880000000000000426e+01 5.498084087346438764e+01
5.920000000000000284e+01 5.477602223622521649e+01
5.960000000000000142e+01 5.457341610247648589e+01
6.000000000000000000e+01 5.437298253471027465e+01
6.040000000000000568e+01 5.417468260376105604e+01
6.080000000000000426e+01 5.397847835615210954e+01
6.120000000000000284e+01 5.378162353959751840e+01
6.160000000000000142e+01 5.358560509128417237e+01
6.200000000000000000e+01 5.339163556177495451e+01
6.240000000000000568e+01 5.318404602833665251e+01
6.280000000000000426e+01 5.299388434246552038e+01
6.320000000000000284e+01 5.280567155362788867e+01
6.360000000000000142e+01 5.261937432574717377e+01
6.400000000000000000e+01 5.243496012006826845e+01
6.440000000000000568e+01 5.225239717070286360e+01
6.480000000000001137e+01 5.207165446108844975e+01
6.520000000000000284e+01 5.189270170132063953e+01
6.559999999999999432e+01 5.171550930632098186e+01
6.600000000000000000e+01 5.154004837480376011e+01
6.640000000000000568e+01 5.136629066900751894e+01
6.680000000000001137e+01 5.119420859515835787e+01
6.720000000000000284e+01 5.102302170200540132e+01
6.759999999999999432e+01 5.085340073046845077e+01
6.800000000000000000e+01 5.068538406632320203e+01
6.840000000000000568e+01 5.051894640256063695e+01
6.880000000000001137e+01 5.035406299027761889e+01
6.920000000000000284e+01 5.019061391740004296e+01
6.959999999999999432e+01 5.002854327374241450e+01
7.000000000000000000e+01 4.986795993291170959e+01
7.040000000000000568e+01 4.970884113632251911e+01
7.080000000000001137e+01 4.955116461223381208e+01
7.120000000000000284e+01 4.939490856239489602e+01
7.159999999999999432e+01 4.924005164913759813e+01
7.200000000000000000e+01 4.908657298289701743e+01
7.240000000000000568e+01 4.893445211014436325e+01
7.280000000000001137e+01 4.878366900171533871e+01
7.320000000000000284e+01 4.863420404151952425e+01
7.359999999999999432e+01 4.848603801561534965e+01
7.400000000000000000e+01 4.833915210163725362e+01
7.440000000000000568e+01 4.819352785856156629e+01
7.479999999999999716e+01 4.804914721679816836e+01
7.520000000000000284e+01 4.790599246859570570e+01
7.560000000000000853e+01 4.776404625874905463e+01
7.600000000000000000e+01 4.805032023558387522e+01
7.640000000000000568e+01 4.791562736313304782e+01
7.679999999999999716e+01 4.778203718667754174e+01
7.720000000000000284e+01 4.765697630586705458e+01
7.760000000000000853e+01 4.752547170966896317e+01
7.800000000000000000e+01 4.739502762257930613e+01
7.840000000000000568e+01 4.726562969362490918e+01
7.879999999999999716e+01 4.713726384445325124e+01
7.920000000000000284e+01 4.700991626266835510e+01
7.960000000000000853e+01 4.688357339536593571e+01
8.000000000000000000e+01 4.675822194286031674e+01
8.040000000000000568e+01 4.663384885259684154e+01
8.079999999999999716e+01 4.651044131324287889e+01
8.120000000000000284e+01 4.638798674895173235e+01
8.160000000000000853e+01 4.640297054553376199e+01
8.200000000000000000e+01 4.628444633392858520e+01
8.240000000000000568e+01 4.616294531667267620e+01
8.279999999999999716e+01 4.604773790569379344e+01
8.320000000000000284e+01 4.593338833667390730e+01
8.360000000000000853e+01 4.581988584433525347e+01
8.400000000000000000e+01 4.570721985350404282e+01
8.440000000000000568e+01 4.559537997478211935e+01
8.479999999999999716e+01 4.548440823104019159e+01
8.520000000000000284e+01 4.537434089967248951e+01
8.560000000000000853e+01 4.526506619626033512e+01
8.600000000000000000e+01 4.515657450230374081e+01
8.640000000000000568e+01 4.504885636352253186e+01
8.680000000000001137e+01 4.494190248624165918e+01
8.720000000000000284e+01 4.483570373387389196e+01
8.760000000000000853e+01 4.473025112349683496e+01
8.800000000000000000e+01 4.462553582252116513e+01
8.840000000000000568e+01 4.452154914544742326e+01
8.880000000000001137e+01 4.441828255070836207e+01
8.920000000000000284e+01 4.431572763759425015e+01
8.960000000000000853e+01 4.421387614325860227e+01
9.000000000000000000e+01 4.411271993980190587e+01
9.040000000000000568e+01 4.401225103143060835e+01
9.080000000000001137e+01 4.391246155168961707e+01
9.120000000000000284e+01 4.381334376076553383e+01
9.160000000000000853e+01 4.371489004285881208e+01
9.200000000000000000e+01 4.361709290362259850e+01
9.240000000000000568e+01 4.351994496766639031e+01
9.280000000000001137e+01 4.342343897612236958e+01
9.320000000000000284e+01 4.332084891828202444e+01
9.360000000000000853e+01 4.322572493119943715e+01
9.400000000000000000e+01 4.313122213616188105e+01
9.440000000000000568e+01 4.303733370119755364e+01
9.480000000000001137e+01 4.294405290001491693e+01
9.520000000000000284e+01 4.285137310989590986e+01
9.560000000000000853e+01 4.275938665251234028e+01
9.600000000000000000e+01 4.266800073033045493e+01
9.640000000000000568e+01 4.257719017862100941e+01
9.680000000000001137e+01 4.248694891694142939e+01
9.720000000000000284e+01 4.239727095499108600e+01
9.760000000000000853e+01 4.230815039089286955e+01
9.800000000000000000e+01 4.221939817740235412e+01
9.840000000000000568e+01 4.213072920245862463e+01
9.880000000000001137e+01 4.204260643764644811e+01
9.920000000000000284e+01 4.195502423927405289e+01
9.960000000000000853e+01 4.186797704542139087e+01
1.000000000000000000e+02 4.178145937441716740e+01
1.004000000000000057e+02 4.169546582335048157e+01
1.008000000000000114e+02 4.160999106661625291e+01
1.012000000000000028e+02 4.152502985449331163e+01
1.016000000000000085e+02 4.144056892085339427e+01
1.020000000000000000e+02 4.135632989062748521e+01
1.024000000000000057e+02 4.127253814870154258e+01
1.028000000000000114e+02 4.118924109393233124e+01
1.032000000000000028e+02 4.110643383336325485e+01
1.036000000000000085e+02 4.102411154184392217e+01
1.040000000000000000e+02 4.094226946082332574e+01
1.044000000000000057e+02 4.086090289716909041e+01
1.048000000000000114e+02 4.078000722201237238e+01
1.052000000000000028e+02 4.069957786961758472e+01
1.056000000000000085e+02 4.061961033627633810e+01
1.060000000000000000e+02 4.054010017922511366e+01
1.064000000000000057e+02 4.046104301558591487e+01
1.068000000000000114e+02 4.038243452132940803e+01
1.072000000000000028e+02 4.030427043025994749e+01
1.076000000000000085e+02 4.022654653302198113e+01
1.080000000000000000e+02 4.014925867612729604e+01
1.084000000000000057e+02 4.007240276100252174e+01
1.088000000000000114e+02 3.999597474305649314e+01
1.092000000000000028e+02 3.991997063076696151e+01
1.096000000000000085e+02 3.984438648478604250e+01
1.100000000000000000e+02 3.976921841706425909e+01
1.104000000000000057e+02 3.969446258999231247e+01
1.108000000000000114e+02 3.962011521556055982e+01
1.112000000000000028e+02 3.954845087683028027e+01
1.116000000000000085e+02 3.947512094790339177e+01
1.120000000000000000e+02 3.940218761511885504e+01
1.124000000000000057e+02 3.932964728518552988e+01
1.128000000000000114e+02 3.925749641043836391e+01
1.132000000000000028e+02 3.918573148809408480e+01
1.136000000000000085e+02 3.911434905952168606e+01
1.140000000000000000e+02 3.904334570952742922e+01
1.144000000000000057e+02 3.897271806565387919e+01
1.148000000000000114e+02 3.890246279749295866e+01
1.152000000000000028e+02 3.883257661601214750e+01
1.156000000000000085e+02 3.876305627289417544e+01
1.160000000000000000e+02 3.869389855988943339e+01
1.164000000000000057e+02 3.864329167430942391e+01
1.168000000000000114e+02 3.857544454505558917e+01
1.172000000000000028e+02 3.850794627888735988e+01
1.176000000000000085e+02 3.844079386757951511e+01
1.180000000000000000e+02 3.837398433928338903e+01
1.184000000000000057e+02 3.830751475796157735e+01
1.188000000000000114e+02 3.819812470381711478e+01
1.192000000000000028e+02 3.813333906650186833e+01
1.196000000000000085e+02 3.806887929709849772e+01
1.200000000000000000e+02 3.800474263721640966e+01
1.204000000000000057e+02 3.794092636128163321e+01
1.208000000000000114e+02 3.787735867123337385e+01
1.212000000000000028e+02 3.781410530868082276e+01
1.216000000000000085e+02 3.775116420810492457e+01
1.220000000000000000e+02 3.768853277497778720e+01
1.224000000000000057e+02 3.762620844506895423e+01
1.228000000000000114e+02 3.756418868398975519e+01
1.232000000000000028e+02 3.750247098674603308e+01
1.236000000000000085e+02 3.744105287729920661e+01
1.240000000000000000e+02 3.737993190813508448e+01
1.244000000000000057e+02 3.731910565984083661e+01
1.248000000000000114e+02 3.725857174068937638e+01
1.252000000000000028e+02 3.719832778623144520e+01
1.256000000000000085e+02 3.713837145889495162e+01
1.260000000000000000e+02 3.707870044759149408e+01
1.264000000000000057e+02 3.701225160754722054e+01
1.268000000000000114e+02 3.695362720444828852e+01
1.272000000000000028e+02 3.689527862520457546e+01
1.276000000000000085e+02 3.683720368278869728e+01
1.280000000000000000e+02 3.677940021456306852e+01
1.284000000000000057e+02 3.672186608192949109e+01
1.288000000000000114e+02 3.666459916998476842e+01
1.291999999999999886e+02 3.660759738718244449e+01
1.296000000000000227e+02 3.655085866500040481e+01
1.300000000000000000e+02 3.649438095761435363e+01
1.304000000000000057e+02 3.643816224157673389e+01
1.308000000000000114e+02 3.638049455133905496e+01
1.311999999999999886e+02 3.632501578981441526e+01
1.316000000000000227e+02 3.626978922098580682e+01
1.320000000000000000e+02 3.621481291362684374e+01
1.324000000000000057e+02 3.616008495731011152e+01
1.328000000000000114e+02 3.610560346211856597e+01
1.331999999999999886e+02 3.605136655836186321e+01
1.336000000000000227e+02 3.599737239629731533e+01
1.340000000000000000e+02 3.594361914585576301e+01
1.344000000000000057e+02 3.589010499637193163e+01
1.348000000000000114e+02 3.583682815631930652e+01
1.351999999999999886e+02 3.578367036843747684e+01
1.356000000000000227e+02 3.573073983044190527e+01
1.360000000000000000e+02 3.567804198736730825e+01
1.364000000000000057e+02 3.562557511677269417e+01
1.368000000000000114e+02 3.557333751414346779e+01
1.371999999999999886e+02 3.552132749265111045e+01
1.376000000000000227e+02 3.546954338291672570e+01
1.380000000000000000e+02 3.541798353277852840e+01
1.384000000000000057e+02 3.536664630706309254e+01
1.388000000000000114e+02 3.531553008736032240e+01
1.392000000000000171e+02 3.526463327180207585e+01
1.395999999999999943e+02 3.521395427484431906e+01
1.400000000000000000e+02 3.516349152705288361e+01
1.404000000000000057e+02 3.511324347489253483e+01
1.408000000000000114e+02 3.506311449424468663e+01
1.412000000000000171e+02 3.501315554086442461e+01
1.415999999999999943e+02 3.496340743352138958e+01
1.420000000000000000e+02 3.491386867392318294e+01
1.424000000000000057e+02 3.486425893321175806e+01
1.428000000000000114e+02 3.481453109489027753e+01
1.432000000000000171e+02 3.476501211996536966e+01
1.435999999999999943e+02 3.471570053288706958e+01
1.440000000000000000e+02 3.466659487275546780e+01
1.444000000000000057e+02 3.461769369313329037e+01
1.448000000000000114e+02 3.456899556186156275e+01
1.452000000000000171e+02 3.452049906087812303e+01
1.455999999999999943e+02 3.447220278603884225e+01
1.460000000000000000e+02 3.442410534694175794e+01
1.464000000000000057e+02 3.437620536675385807e+01
1.468000000000000114e+02 3.432850148204055074e+01
1.472000000000000171e+02 3.428099234259773453e+01
1.475999999999999943e+02 3.423367661128646944e+01
1.480000000000000000e+02 3.418655296387018439e+01
1.484000000000000057e+02 3.413962008885427224e+01
1.488000000000000114e+02 3.409287668732830667e+01
1.492000000000000171e+02 3.404632147281045462e+01
1.495999999999999943e+02 3.399995317109433302e+01
1.500000000000000000e+02 3.395377052009821028e+01
