1.000000000000000000e+01 7.444074606441127173e+01
1.040000000000000036e+01 7.822855578815261879e+01
1.080000000000000071e+01 8.448453801781420225e+01
1.119999999999999929e+01 9.342207860474032088e+01
1.159999999999999964e+01 1.088160720979851703e+02
1.200000000000000000e+01 1.159850947404957395e+02
1.240000000000000036e+01 1.117534138353499031e+02
1.280000000000000071e+01 1.080541505841069068e+02
1.319999999999999929e+01 1.048391627529594814e+02
1.359999999999999964e+01 9.978482906686338083e+01
1.400000000000000000e+01 9.696550487725288292e+01
1.440000000000000036e+01 9.440757240407418749e+01
1.480000000000000071e+01 9.207214682384129389e+01
1.519999999999999929e+01 8.992813330883738843e+01
1.560000000000000142e+01 8.795029872753860900e+01
1.600000000000000000e+01 8.616612841598968942e+01
1.639999999999999858e+01 8.451668105590901803e+01
1.680000000000000071e+01 8.297315516049430073e+01
1.719999999999999929e+01 7.892749014624234860e+01
1.760000000000000142e+01 7.742292807636948737e+01
1.800000000000000000e+01 7.600468381862295075e+01
1.839999999999999858e+01 7.466459296554378966e+01
1.880000000000000071e+01 7.339554865762104896e+01
1.920000000000000284e+01 7.219132989949251566e+01
1.960000000000000142e+01 7.104646303037769428e+01
2.000000000000000000e+01 6.995610898976447345e+01
2.039999999999999858e+01 6.760682153870516231e+01
2.080000000000000071e+01 6.672244291904068803e+01
2.120000000000000284e+01 6.587563667472812767e+01
2.160000000000000142e+01 6.100520159941014953e+01
2.200000000000000000e+01 6.020608187087147201e+01
2.239999999999999858e+01 5.943740120493119861e+01
2.280000000000000071e+01 5.869721046263630626e+01
2.320000000000000284e+01 5.798378003307372808e+01
2.360000000000000142e+01 5.730079724396719598e+01
2.400000000000000000e+01 5.664067662296743322e+01
2.439999999999999858e+01 5.600213160143670166e+01
2.480000000000000071e+01 5.538394913525466023e+01
2.520000000000000284e+01 5.472420361251553089e+01
2.560000000000000142e+01 5.408584805933993778e+01
2.600000000000000000e+01 5.346773918626050914e+01
2.640000000000000213e+01 5.286881808068723387e+01
2.680000000000000071e+01 5.228810231623279492e+01
2.719999999999999929e+01 5.172467895053242160e+01
2.760000000000000142e+01 5.117769829511843227e+01
2.800000000000000000e+01 5.064636835824525463e+01
2.840000000000000213e+01 5.012994987601683761e+01
2.880000000000000071e+01 4.962775185927176125e+01
2.920000000000000284e+01 4.913912759385181062e+01
2.960000000000000142e+01 4.865300289102944475e+01
3.000000000000000000e+01 4.816513394827265415e+01
3.040000000000000213e+01 4.768998815003410385e+01
3.080000000000000071e+01 4.722701996967814608e+01
3.120000000000000284e+01 4.761622998525541561e+01
3.160000000000000142e+01 4.719114805514577426e+01
3.200000000000000000e+01 4.677627968822875459e+01
3.240000000000000568e+01 4.600393453581199310e+01
3.279999999999999716e+01 4.563173749944701285e+01
3.320000000000000284e+01 4.526790859059536132e+01
3.360000000000000142e+01 4.491213540357239964e+01
3.400000000000000000e+01 4.456412170099609682e+01
3.440000000000000568e+01 4.422358634926553123e+01
3.479999999999999716e+01 4.389026233879864236e+01
3.520000000000000284e+01 4.356389588113810163e+01
3.560000000000000142e+01 4.324424557587212803e+01
3.600000000000000000e+01 4.293108164105673552e+01
3.640000000000000568e+01 4.262418520147695489e+01
3.679999999999999716e+01 4.232334762966218733e+01
3.720000000000000284e+01 4.202836993508042696e+01
3.760000000000000142e+01 4.174509977586388487e+01
3.800000000000000000e+01 4.146755940396279527e+01
3.840000000000000568e+01 4.119504468949468645e+01
3.879999999999999716e+01 4.092740367232372023e+01
3.920000000000000284e+01 4.066449081821374989e+01
3.960000000000000142e+01 4.040616667072340107e+01
4.000000000000000000e+01 4.015229752602602531e+01
4.040000000000000568e+01 3.990275512888248954e+01
4.079999999999999716e+01 3.965741638815060810e+01
4.120000000000000284e+01 3.941616311035690501e+01
4.160000000000000142e+01 3.917265108530536111e+01
4.200000000000000000e+01 3.892864580552514298e+01
4.239999999999999858e+01 3.868867833056804528e+01
4.280000000000000426e+01 3.845263731030117782e+01
4.320000000000000284e+01 3.845816902618504685e+01
4.360000000000000142e+01 3.825171942826926141e+01
4.400000000000000000e+01 3.804836101118933556e+01
4.439999999999999858e+01 3.757353995444564987e+01
4.480000000000000426e+01 3.738650214764513180e+01
4.520000000000000284e+01 3.720217292568516143e+01
4.560000000000000142e+01 3.702048657386497865e+01
4.600000000000000000e+01 3.684137961826393592e+01
4.639999999999999858e+01 3.666479072742997403e+01
4.680000000000000426e+01 3.649066061932992966e+01
4.720000000000000284e+01 3.631893197323076095e+01
4.760000000000000142e+01 3.614954934620334370e+01
4.800000000000000000e+01 3.598245909396383269e+01
4.840000000000000568e+01 3.581760929578675245e+01
4.880000000000000426e+01 3.565494968324361480e+01
4.920000000000000284e+01 3.549443157253688241e+01
4.960000000000000142e+01 3.533600780021625098e+01
5.000000000000000000e+01 3.517963266207759432e+01
5.040000000000000568e+01 3.502526185505915635e+01
5.080000000000000426e+01 3.487285242196173840e+01
5.120000000000000284e+01 3.472236269883109117e+01
5.160000000000000142e+01 3.456723310397801896e+01
5.200000000000000000e+01 3.441128861887822410e+01
5.240000000000000568e+01 3.425730965024978758e+01
5.280000000000000426e+01 3.410525449326503633e+01
5.320000000000000284e+01 3.395508268025316312e+01
5.360000000000000142e+01 3.380675493372073959e+01
5.400000000000000000e+01 3.366023312154112546e+01
5.440000000000000568e+01 3.372974039162642157e+01
5.480000000000000426e+01 3.359291549642264840e+01
5.520000000000000284e+01 3.345767690039691900e+01
5.560000000000000142e+01 3.332399353701728728e+01
5.600000000000000000e+01 3.319183519132623417e+01
5.640000000000000568e+01 3.306117247003430748e+01
5.680000000000000426e+01 3.292797644092648568e+01
5.720000000000000284e+01 3.279415605113906196e+01
5.760000000000000142e+01 3.266185993718701042e+01
5.800000000000000000e+01 3.253105883848822089e+01
5.840000000000000568e+01 3.240172427980338909e+01
5.880000000000000426e+01 3.227382854425175651e+01
5.920000000000000284e+01 3.214734464745433229e+01
5.960000000000000142e+01 3.202224631274910394e+01
6.000000000000000000e+01 3.189850794742616102e+01
6.040000000000000568e+01 3.177610461993315738e+01
6.080000000000000426e+01 3.185535653977579074e+01
6.120000000000000284e+01 3.174103443530697533e+01
6.160000000000000142e+01 3.162790295389138606e+01
6.200000000000000000e+01 3.151594126859354006e+01
6.240000000000000568e+01 3.140512906136746096e+01
6.280000000000000426e+01 3.129544650714302279e+01
6.320000000000000284e+01 3.118687425851727468e+01
6.360000000000000142e+01 3.107939343102415819e+01
6.400000000000000000e+01 3.097298558895650444e+01
6.440000000000000568e+01 3.086763273171625599e+01
6.480000000000001137e+01 3.076331728066967131e+01
6.520000000000000284e+01 3.066002206648547457e+01
6.559999999999999432e+01 3.055773031693514952e+01
6.600000000000000000e+01 3.045642564513556749e+01
6.640000000000000568e+01 3.035609203821502433e+01
6.680000000000001137e+01 3.025671384638471650e+01
6.720000000000000284e+01 3.015752228976997884e+01
6.759999999999999432e+01 3.005919951605472917e+01
6.800000000000000000e+01 2.996179506087714373e+01
6.840000000000000568e+01 2.986529451762531906e+01
6.880000000000001137e+01 2.976968379550147148e+01
6.920000000000000284e+01 2.967494911066136254e+01
6.959999999999999432e+01 2.958107697765592548e+01
7.000000000000000000e+01 2.948827943258488915e+01
7.040000000000000568e+01 2.939674299151739945e+01
7.080000000000001137e+01 2.930602409664735575e+01
7.120000000000000284e+01 2.921611060709419050e+01
7.159999999999999432e+01 2.912699063446253689e+01
7.200000000000000000e+01 2.903865253609260932e+01
7.240000000000000568e+01 2.895108490853093386e+01
7.280000000000001137e+01 2.886427658121274220e+01
7.320000000000000284e+01 2.877821661034823819e+01
7.359999999999999432e+01 2.869289427300475381e+01
7.400000000000000000e+01 2.860829906137736955e+01
7.440000000000000568e+01 2.852442067724118857e+01
7.479999999999999716e+01 2.844124902657817699e+01
7.520000000000000284e+01 2.835877421437213997e+01
7.560000000000000853e+01 2.827698653956586483e+01
7.600000000000000000e+01 2.840939082016741679e+01
7.640000000000000568e+01 2.833139254896271098e+01
7.679999999999999716e+01 2.825402552592029792e+01
7.720000000000000284e+01 2.817728122080447406e+01
7.760000000000000853e+01 2.810115126528028640e+01
7.800000000000000000e+01 2.802562744895229940e+01
7.840000000000000568e+01 2.795070171552192662e+01
7.879999999999999716e+01 2.787636615905927329e+01
7.920000000000000284e+01 2.780261302038537607e+01
7.960000000000000853e+01 2.772943468356105257e+01
8.000000000000000000e+01 2.764433516402743152e+01
8.040000000000000568e+01 2.757155904859509121e+01
8.079999999999999716e+01 2.749934455388410015e+01
8.120000000000000284e+01 2.742768440229381355e+01
8.160000000000000853e+01 2.735657144898057425e+01
8.200000000000000000e+01 2.728599867873268181e+01
8.240000000000000568e+01 2.721208666252928055e+01
8.279999999999999716e+01 2.714411043745378294e+01
8.320000000000000284e+01 2.707663878150891179e+01
8.360000000000000853e+01 2.700966539080955187e+01
8.400000000000000000e+01 2.694318407249942382e+01
8.440000000000000568e+01 2.687718874222404963e+01
8.479999999999999716e+01 2.681167342167425716e+01
8.520000000000000284e+01 2.674663223619798202e+01
8.560000000000000853e+01 2.668205941247787649e+01
8.600000000000000000e+01 2.661794927627286356e+01
8.640000000000000568e+01 2.655429625022131646e+01
8.680000000000001137e+01 2.649109485170402678e+01
8.720000000000000284e+01 2.642833969076494327e+01
8.760000000000000853e+01 2.636602546808787650e+01
8.800000000000000000e+01 2.630414697302737892e+01
8.840000000000000568e+01 2.624269908169207355e+01
8.880000000000001137e+01 2.618167675507880077e+01
8.920000000000000284e+01 2.612107503725592750e+01
8.960000000000000853e+01 2.606091452858923674e+01
9.000000000000000000e+01 2.600117987721150925e+01
9.040000000000000568e+01 2.594184665446725901e+01
9.080000000000001137e+01 2.588291027822032220e+01
9.120000000000000284e+01 2.582436623994453484e+01
9.160000000000000853e+01 2.576621010320221217e+01
9.200000000000000000e+01 2.570843750216097234e+01
9.240000000000000568e+01 2.565104414014783885e+01
9.280000000000001137e+01 2.559402578823954144e+01
9.320000000000000284e+01 2.553737828388786824e+01
9.360000000000000853e+01 2.548109752957909535e+01
9.400000000000000000e+01 2.542517949152653500e+01
9.440000000000000568e+01 2.536962019839507576e+01
9.480000000000001137e+01 2.531441574005701867e+01
9.520000000000000284e+01 2.525956226637811142e+01
9.560000000000000853e+01 2.520510540746897021e+01
9.600000000000000000e+01 2.515099824173411491e+01
9.640000000000000568e+01 2.509722767172728908e+01
9.680000000000001137e+01 2.504379014974626472e+01
9.720000000000000284e+01 2.499068218061749036e+01
9.760000000000000853e+01 2.493790032069715679e+01
9.800000000000000000e+01 2.488525794478300668e+01
9.840000000000000568e+01 2.483247232735134702e+01
9.880000000000001137e+01 2.478000879168948245e+01
9.920000000000000284e+01 2.472786401162838743e+01
9.960000000000000853e+01 2.467603470923064890e+01
1.000000000000000000e+02 2.462451765389256053e+01
1.004000000000000057e+02 2.457330966146656692e+01
1.008000000000000114e+02 2.452240759340362075e+01
1.012000000000000028e+02 2.446757467916135553e+01
1.016000000000000085e+02 2.441757815101573570e+01
1.020000000000000000e+02 2.436787758628335610e+01
1.024000000000000057e+02 2.431847002006163905e+01
1.028000000000000114e+02 2.426935252917952823e+01
1.032000000000000028e+02 2.422052223144261518e+01
1.036000000000000085e+02 2.417197628489485695e+01
1.040000000000000000e+02 2.412371188709654746e+01
1.044000000000000057e+02 2.407572627441812685e+01
1.048000000000000114e+02 2.402801672134931010e+01
1.052000000000000028e+02 2.398058053982333604e+01
1.056000000000000085e+02 2.393341507855574335e+01
1.060000000000000000e+02 2.388651772239740012e+01
1.064000000000000057e+02 2.383988589170150263e+01
1.068000000000000114e+02 2.379351704170397497e+01
1.072000000000000028e+02 2.374740866191719491e+01
1.076000000000000085e+02 2.370155827553646688e+01
1.080000000000000000e+02 2.365596343885913910e+01
1.084000000000000057e+02 2.361062174071583541e+01
1.088000000000000114e+02 2.356553080191370952e+01
1.092000000000000028e+02 2.352068827469127754e+01
1.096000000000000085e+02 2.347609184218457656e+01
1.100000000000000000e+02 2.343173921790446101e+01
1.104000000000000057e+02 2.338762814522458200e+01
1.108000000000000114e+02 2.334375639688003190e+01
1.112000000000000028e+02 2.330012177447608934e+01
1.116000000000000085e+02 2.325672210800718176e+01
1.120000000000000000e+02 2.321355525538551490e+01
1.124000000000000057e+02 2.317060473781695862e+01
1.128000000000000114e+02 2.312777848214482646e+01
1.132000000000000028e+02 2.308518212478983145e+01
1.136000000000000085e+02 2.304281360300475967e+01
1.140000000000000000e+02 2.300067087999672566e+01
1.144000000000000057e+02 2.295875194450677270e+01
1.148000000000000114e+02 2.291705481039793568e+01
1.152000000000000028e+02 2.287557751625127267e+01
1.156000000000000085e+02 2.283431812496998958e+01
1.160000000000000000e+02 2.279327472339122806e+01
1.164000000000000057e+02 2.277063678803401459e+01
1.168000000000000114e+02 2.273061451137749600e+01
1.172000000000000028e+02 2.269079824837378823e+01
1.176000000000000085e+02 2.265118622384538583e+01
1.180000000000000000e+02 2.261177668408199182e+01
1.184000000000000057e+02 2.257256789650615758e+01
1.188000000000000114e+02 2.251192938983725611e+01
1.192000000000000028e+02 2.247362335064599392e+01
1.196000000000000085e+02 2.243551024929671556e+01
1.200000000000000000e+02 2.239758845444757185e+01
1.204000000000000057e+02 2.235985635414865413e+01
1.208000000000000114e+02 2.232231235554462145e+01
1.212000000000000028e+02 2.228495488458292328e+01
1.216000000000000085e+02 2.224778238572751832e+01
1.220000000000000000e+02 2.221079332167787967e+01
1.224000000000000057e+02 2.217398617309331144e+01
1.228000000000000114e+02 2.213735943832228159e+01
1.232000000000000028e+02 2.210091163313679985e+01
1.236000000000000085e+02 2.206464129047169465e+01
1.240000000000000000e+02 2.202854696016860458e+01
1.244000000000000057e+02 2.197931405787321779e+01
1.248000000000000114e+02 2.194413073394753866e+01
1.252000000000000028e+02 2.190911584107486121e+01
1.256000000000000085e+02 2.187426802525250125e+01
1.260000000000000000e+02 2.183958594778359341e+01
1.264000000000000057e+02 2.180506828505394168e+01
1.268000000000000114e+02 2.177071372831283469e+01
1.272000000000000028e+02 2.173652098345777262e+01
1.276000000000000085e+02 2.170248877082300965e+01
1.280000000000000000e+02 2.166861582497185523e+01
1.284000000000000057e+02 2.163490089449260623e+01
1.288000000000000114e+02 2.160134274179811342e+01
1.291999999999999886e+02 2.156794014292876227e+01
1.296000000000000227e+02 2.153469188735900630e+01
1.300000000000000000e+02 2.150159677780719392e+01
1.304000000000000057e+02 2.146865363004870275e+01
1.308000000000000114e+02 2.143586127273231057e+01
1.311999999999999886e+02 2.140321854719975292e+01
1.316000000000000227e+02 2.137072430730830774e+01
1.320000000000000000e+02 2.133837741925653475e+01
1.324000000000000057e+02 2.130617676141284278e+01
1.328000000000000114e+02 2.127412122414709117e+01
1.331999999999999886e+02 2.124220970966500488e+01
1.336000000000000227e+02 2.121044113184535362e+01
1.340000000000000000e+02 2.117881441607993764e+01
1.344000000000000057e+02 2.114732849911620960e+01
1.348000000000000114e+02 2.111598232890255034e+01
1.351999999999999886e+02 2.108465837982406299e+01
1.356000000000000227e+02 2.105346557351913361e+01
1.360000000000000000e+02 2.102241007132764139e+01
1.364000000000000057e+02 2.099129163277281762e+01
1.368000000000000114e+02 2.095999185872881299e+01
1.371999999999999886e+02 2.092882687888322479e+01
1.376000000000000227e+02 2.089779570563721833e+01
1.380000000000000000e+02 2.086689736160042230e+01
1.384000000000000057e+02 2.083613087945488473e+01
1.388000000000000114e+02 2.080549530182122808e+01
1.392000000000000171e+02 2.077498968112706024e+01
1.395999999999999943e+02 2.074461307947739641e+01
1.400000000000000000e+02 2.071436456852726593e+01
1.404000000000000057e+02 2.068424322935635118e+01
1.408000000000000114e+02 2.065424815234560185e+01
1.412000000000000171e+02 2.062437843705586715e+01
1.415999999999999943e+02 2.059463319210848553e+01
1.420000000000000000e+02 2.056501153506765078e+01
1.424000000000000057e+02 2.053537316955735292e+01
1.428000000000000114e+02 2.050569440670720667e+01
1.432000000000000171e+02 2.047613859770638101e+01
1.435999999999999943e+02 2.044670487675658777e+01
1.440000000000000000e+02 2.041739238665870104e+01
1.444000000000000057e+02 2.038820027870262308e+01
1.448000000000000114e+02 2.035912771255894782e+01
1.452000000000000171e+02 2.033017385617226225e+01
1.455999999999999943e+02 2.030133788565612463e+01
1.460000000000000000e+02 2.027261898518968763e+01
1.464000000000000057e+02 2.024401634691588825e+01
1.468000000000000114e+02 2.021552917084126477e+01
1.472000000000000171e+02 2.018715666473723758e+01
1.475999999999999943e+02 2.015889804404297081e+01
1.480000000000000000e+02 2.013075253176971557e+01
1.484000000000000057e+02 2.010271935840654578e+01
1.488000000000000114e+02 2.007479776182762521e+01
1.492000000000000171e+02 2.004698698720081040e+01
1.495999999999999943e+02 2.001928628689765688e+01
1.500000000000000000e+02 2.001096586814082556e+01
