1.000000000000000000e+01 1.359249239218691798e+02
1.040000000000000036e+01 1.398490685912476863e+02
1.080000000000000071e+01 1.375350776904935231e+02
1.119999999999999929e+01 1.387206143168203027e+02
1.159999999999999964e+01 1.441988772216890879e+02
1.200000000000000000e+01 1.467384250209777576e+02
1.240000000000000036e+01 1.413535897980397635e+02
1.280000000000000071e+01 1.365640931988980924e+02
1.319999999999999929e+01 1.323216368373090006e+02
1.359999999999999964e+01 1.287228171366513720e+02
1.400000000000000000e+01 1.254395907886363091e+02
1.440000000000000036e+01 1.224268842420703720e+02
1.480000000000000071e+01 1.197713989150011855e+02
1.519999999999999929e+01 1.173324013994002541e+02
1.560000000000000142e+01 1.150573346176176699e+02
1.600000000000000000e+01 1.129279517644966546e+02
1.639999999999999858e+01 1.109288159808838685e+02
1.680000000000000071e+01 1.090467526964360303e+02
1.719999999999999929e+01 1.046735721299046418e+02
1.760000000000000142e+01 1.028522835525555195e+02
1.800000000000000000e+01 1.011278016193741536e+02
1.839999999999999858e+01 9.949161975588538098e+01
1.880000000000000071e+01 9.793626494761250001e+01
1.920000000000000284e+01 9.645513872072955053e+01
1.960000000000000142e+01 9.320974519202475506e+01
2.000000000000000000e+01 9.191775969724332640e+01
2.039999999999999858e+01 9.068186528415336056e+01
2.080000000000000071e+01 8.949804067808135244e+01
2.120000000000000284e+01 8.836266292436678782e+01
2.160000000000000142e+01 8.321392370664770510e+01
2.200000000000000000e+01 8.214620382032180146e+01
2.239999999999999858e+01 8.111810368505886970e+01
2.280000000000000071e+01 8.012718761976915971e+01
2.320000000000000284e+01 7.917127318364370581e+01
2.360000000000000142e+01 7.825362581461051548e+01
2.400000000000000000e+01 7.736626656669271540e+01
2.439999999999999858e+01 7.650754151699507588e+01
2.480000000000000071e+01 7.563408392409425574e+01
2.520000000000000284e+01 7.478499225531349737e+01
2.560000000000000142e+01 7.396233972454326988e+01
2.600000000000000000e+01 7.316477026033825837e+01
2.640000000000000213e+01 7.239102394985178535e+01
2.680000000000000071e+01 7.163992839053615569e+01
2.719999999999999929e+01 7.091039097916242895e+01
2.760000000000000142e+01 7.020139201981419319e+01
2.800000000000000000e+01 6.951197854950409294e+01
2.840000000000000213e+01 6.884125879432772876e+01
2.880000000000000071e+01 6.818839718109455816e+01
2.920000000000000284e+01 6.755260983954258336e+01
2.960000000000000142e+01 6.692269238944301435e+01
3.000000000000000000e+01 6.629427737038955115e+01
3.040000000000000213e+01 6.568171464168267448e+01
3.080000000000000071e+01 6.508434691126686289e+01
3.120000000000000284e+01 6.450155456319839686e+01
3.160000000000000142e+01 6.393275291683046646e+01
3.200000000000000000e+01 6.396819265921272546e+01
3.240000000000000568e+01 6.307779224542022689e+01
3.279999999999999716e+01 6.258992907349016832e+01
3.320000000000000284e+01 6.211274579321663225e+01
3.360000000000000142e+01 6.164585604038212807e+01
3.400000000000000000e+01 6.118889283663526157e+01
3.440000000000000568e+01 6.074150735117502364e+01
3.479999999999999716e+01 6.030336775814888028e+01
3.520000000000000284e+01 5.987415818110926580e+01
3.560000000000000142e+01 5.945357771676704317e+01
3.600000000000000000e+01 5.904133953107098876e+01
3.640000000000000568e+01 5.863717002134246314e+01
3.679999999999999716e+01 5.824080803881564350e+01
3.720000000000000284e+01 5.785200416648570609e+01
3.760000000000000142e+01 5.747052004765917843e+01
3.800000000000000000e+01 5.709612776103894305e+01
3.840000000000000568e+01 5.672860923856764970e+01
3.879999999999999716e+01 5.636775572260438594e+01
3.920000000000000284e+01 5.601317270003049487e+01
3.960000000000000142e+01 5.566474853744205120e+01
4.000000000000000000e+01 5.532238196938306629e+01
4.040000000000000568e+01 5.498589881029407422e+01
4.079999999999999716e+01 5.465513183250022422e+01
4.120000000000000284e+01 5.432992041180497722e+01
4.160000000000000142e+01 5.400387953028469212e+01
4.200000000000000000e+01 5.367873541773443691e+01
4.239999999999999858e+01 5.335898134245208269e+01
4.280000000000000426e+01 5.304446956520666134e+01
4.320000000000000284e+01 5.297281131510418106e+01
4.360000000000000142e+01 5.269041876482741316e+01
4.400000000000000000e+01 5.241233184829558667e+01
4.439999999999999858e+01 5.213844156218994641e+01
4.480000000000000426e+01 5.186864274706908873e+01
4.520000000000000284e+01 5.160283391416515286e+01
4.560000000000000142e+01 5.134091708165390600e+01
4.600000000000000000e+01 5.108279761979061107e+01
4.639999999999999858e+01 5.082838410434853671e+01
4.680000000000000426e+01 5.057758817783769700e+01
4.720000000000000284e+01 5.033032441801911716e+01
4.760000000000000142e+01 5.008651021326448927e+01
4.800000000000000000e+01 4.979227871810632422e+01
4.840000000000000568e+01 4.955933172274269793e+01
4.880000000000000426e+01 4.932955922972823970e+01
4.920000000000000284e+01 4.910288918311169226e+01
4.960000000000000142e+01 4.887925180951172877e+01
5.000000000000000000e+01 4.865857952557452393e+01
5.040000000000000568e+01 4.844080684999252639e+01
5.080000000000000426e+01 4.822587031982035199e+01
5.120000000000000284e+01 4.801370841084113295e+01
5.160000000000000142e+01 4.780426146175309299e+01
5.200000000000000000e+01 4.759747160196087634e+01
5.240000000000000568e+01 4.739328268277026979e+01
5.280000000000000426e+01 4.719164021179778246e+01
5.320000000000000284e+01 4.699249129041860584e+01
5.360000000000000142e+01 4.679578455408734072e+01
5.400000000000000000e+01 4.660147011537672768e+01
5.440000000000000568e+01 4.662375968702019691e+01
5.480000000000000426e+01 4.644028089527253655e+01
5.520000000000000284e+01 4.625894137673311945e+01
5.560000000000000142e+01 4.607969952510836009e+01
5.600000000000000000e+01 4.590251486399326808e+01
5.640000000000000568e+01 4.572734800757697826e+01
5.680000000000000426e+01 4.554846515180891231e+01
5.720000000000000284e+01 4.536852363649927611e+01
5.760000000000000142e+01 4.519063241574126266e+01
5.800000000000000000e+01 4.501475264825486988e+01
5.840000000000000568e+01 4.484084651888807826e+01
5.880000000000000426e+01 4.466887720392848848e+01
5.920000000000000284e+01 4.449880883784101115e+01
5.960000000000000142e+01 4.433060648136235216e+01
6.000000000000000000e+01 4.416423609088755597e+01
6.040000000000000568e+01 4.399966448908674010e+01
6.080000000000000426e+01 4.383685933669423918e+01
6.120000000000000284e+01 4.367578910541490700e+01
6.160000000000000142e+01 4.351642305189582061e+01
6.200000000000000000e+01 4.335873119271380460e+01
6.240000000000000568e+01 4.320268428033242003e+01
6.280000000000000426e+01 4.304825377998421487e+01
6.320000000000000284e+01 4.289541184743615787e+01
6.360000000000000142e+01 4.274413130759892709e+01
6.400000000000000000e+01 4.259438563394201793e+01
6.440000000000000568e+01 4.244614892867919309e+01
6.480000000000001137e+01 4.229939590369045277e+01
6.520000000000000284e+01 4.215410186214804611e+01
6.559999999999999432e+01 4.201024268081622637e+01
6.600000000000000000e+01 4.186779479299555362e+01
6.640000000000000568e+01 4.172673517208421146e+01
6.680000000000001137e+01 4.158704131573011864e+01
6.720000000000000284e+01 4.144586766873086248e+01
6.759999999999999432e+01 4.131289706757174685e+01
6.800000000000000000e+01 4.118117178449341509e+01
6.840000000000000568e+01 4.105067237858303031e+01
6.880000000000001137e+01 4.092137983287000935e+01
6.920000000000000284e+01 4.079327554248122567e+01
6.959999999999999432e+01 4.066634130319917517e+01
7.000000000000000000e+01 4.054055930040681943e+01
7.040000000000000568e+01 4.041591209840375143e+01
7.080000000000001137e+01 4.029238263007910348e+01
7.120000000000000284e+01 4.016995418692697939e+01
7.159999999999999432e+01 4.004861040939130845e+01
7.200000000000000000e+01 3.992833527752701883e+01
7.240000000000000568e+01 3.980911310196572117e+01
7.280000000000001137e+01 3.969092851517375919e+01
7.320000000000000284e+01 3.957376646299191236e+01
7.359999999999999432e+01 3.945761219644574425e+01
7.400000000000000000e+01 3.934245126381667745e+01
7.440000000000000568e+01 3.922826950296379067e+01
7.479999999999999716e+01 3.911505303388721444e+01
7.520000000000000284e+01 3.900278825152395967e+01
7.560000000000000853e+01 3.889146181876780872e+01
7.600000000000000000e+01 3.899457498969835001e+01
7.640000000000000568e+01 3.888752976347363699e+01
7.679999999999999716e+01 3.878135651497077419e+01
7.720000000000000284e+01 3.867604335568825746e+01
7.760000000000000853e+01 3.857071538414943035e+01
7.800000000000000000e+01 3.846504837564503276e+01
7.840000000000000568e+01 3.836023294300152031e+01
7.879999999999999716e+01 3.825625761202974218e+01
7.920000000000000284e+01 3.815311112502917013e+01
7.960000000000000853e+01 3.805078243554314099e+01
8.000000000000000000e+01 3.794926070326913958e+01
8.040000000000000568e+01 3.784853528911860110e+01
8.079999999999999716e+01 3.774859575042112425e+01
8.120000000000000284e+01 3.764943183626810708e+01
8.160000000000000853e+01 3.755103348299103061e+01
8.200000000000000000e+01 3.745339080976977897e+01
8.240000000000000568e+01 3.735262157396038418e+01
8.279999999999999716e+01 3.725799804981170382e+01
8.320000000000000284e+01 3.716408630211708441e+01
8.360000000000000853e+01 3.707087736227589403e+01
8.400000000000000000e+01 3.697836242011011620e+01
8.440000000000000568e+01 3.688653282026739078e+01
8.479999999999999716e+01 3.679538005872367279e+01
8.520000000000000284e+01 3.670489577938252523e+01
8.560000000000000853e+01 3.661507177076762787e+01
8.600000000000000000e+01 3.652589996280553208e+01
8.640000000000000568e+01 3.643737242369590490e+01
8.680000000000001137e+01 3.634948135686622095e+01
8.720000000000000284e+01 3.626221909800846532e+01
8.760000000000000853e+01 3.617557811219508324e+01
8.800000000000000000e+01 3.608955099107163278e+01
8.840000000000000568e+01 3.600413045012390967e+01
8.880000000000001137e+01 3.591930932601707838e+01
8.920000000000000284e+01 3.583508057400459990e+01
8.960000000000000853e+01 3.575143726540477473e+01
9.000000000000000000e+01 3.570662513342445266e+01
9.040000000000000568e+01 3.562614656226962495e+01
9.080000000000001137e+01 3.554621199568892820e+01
9.120000000000000284e+01 3.546681526478074886e+01
9.160000000000000853e+01 3.538795029878320264e+01
9.200000000000000000e+01 3.530961112306614069e+01
9.240000000000000568e+01 3.523179185717335571e+01
9.280000000000001137e+01 3.515448671291357385e+01
9.320000000000000284e+01 3.507768999249862674e+01
9.360000000000000853e+01 3.500139608672751734e+01
9.400000000000000000e+01 3.492559947321520042e+01
9.440000000000000568e+01 3.485029471466435780e+01
9.480000000000001137e+01 3.477547645717947944e+01
9.520000000000000284e+01 3.470113942862157330e+01
9.560000000000000853e+01 3.462732785843849115e+01
9.600000000000000000e+01 3.455399344530294314e+01
9.640000000000000568e+01 3.448112173256634350e+01
9.680000000000001137e+01 3.440870783346159101e+01
9.720000000000000284e+01 3.433674693350489804e+01
9.760000000000000853e+01 3.426523428912280167e+01
9.800000000000000000e+01 3.419398199419870110e+01
9.840000000000000568e+01 3.412270606095297154e+01
9.880000000000001137e+01 3.405187056872660634e+01
9.920000000000000284e+01 3.398147096537319101e+01
9.960000000000000853e+01 3.391150276461377189e+01
1.000000000000000000e+02 3.384196154481350050e+01
1.004000000000000057e+02 3.377284294778594642e+01
1.008000000000000114e+02 3.370414267762443217e+01
1.012000000000000028e+02 3.363585649955956569e+01
1.016000000000000085e+02 3.356798023884229565e+01
1.020000000000000000e+02 3.350037084256803865e+01
1.024000000000000057e+02 3.343284814644995606e+01
1.028000000000000114e+02 3.336572715130833444e+01
1.032000000000000028e+02 3.329900386214994512e+01
1.036000000000000085e+02 3.323267433959665595e+01
1.040000000000000000e+02 3.316673469889171599e+01
1.044000000000000057e+02 3.310118110892763355e+01
1.048000000000000114e+02 3.303600979129519288e+01
1.052000000000000028e+02 3.297121701935301274e+01
1.056000000000000085e+02 3.290679911731716345e+01
1.060000000000000000e+02 3.284275245937019605e+01
1.064000000000000057e+02 3.277907346878939165e+01
1.068000000000000114e+02 3.271575861709334276e+01
1.072000000000000028e+02 3.265280442320683107e+01
1.076000000000000085e+02 3.259020745264314201e+01
1.080000000000000000e+02 3.252796431670375910e+01
1.084000000000000057e+02 3.246607167169466379e+01
1.088000000000000114e+02 3.240452621815908429e+01
1.092000000000000028e+02 3.234332470012622451e+01
1.096000000000000085e+02 3.228246390437539759e+01
1.100000000000000000e+02 3.222194065971554977e+01
1.104000000000000057e+02 3.216175183627942147e+01
1.108000000000000114e+02 3.210189434483227444e+01
1.112000000000000028e+02 3.204236513609465931e+01
1.116000000000000085e+02 3.198316120007895336e+01
1.120000000000000000e+02 3.192427956543942003e+01
1.124000000000000057e+02 3.186571729883522863e+01
1.128000000000000114e+02 3.180747150430637049e+01
1.132000000000000028e+02 3.174953932266214451e+01
1.136000000000000085e+02 3.169191793088162257e+01
1.140000000000000000e+02 3.163460454152637524e+01
1.144000000000000057e+02 3.157759640216439223e+01
1.148000000000000114e+02 3.152089079480582257e+01
1.152000000000000028e+02 3.146448503534949381e+01
1.156000000000000085e+02 3.140837647304037006e+01
1.160000000000000000e+02 3.136141911835806440e+01
1.164000000000000057e+02 3.132459313011863600e+01
1.168000000000000114e+02 3.127045642207900045e+01
1.172000000000000028e+02 3.121659870673568449e+01
1.176000000000000085e+02 3.116301757430027664e+01
1.180000000000000000e+02 3.110971064417363152e+01
1.184000000000000057e+02 3.105667556449148492e+01
1.188000000000000114e+02 3.098228125217050177e+01
1.192000000000000028e+02 3.093028928934714372e+01
1.196000000000000085e+02 3.087855954920641111e+01
1.200000000000000000e+02 3.082708981037078999e+01
1.204000000000000057e+02 3.077587787788892015e+01
1.208000000000000114e+02 3.072492158283108665e+01
1.212000000000000028e+02 3.067421878189206197e+01
1.216000000000000085e+02 3.062376735700157937e+01
1.220000000000000000e+02 3.057356521494184420e+01
1.224000000000000057e+02 3.052361028697226786e+01
1.228000000000000114e+02 3.047390052846108688e+01
1.232000000000000028e+02 3.042443391852369672e+01
1.236000000000000085e+02 3.037520845966774630e+01
1.240000000000000000e+02 3.032622217744459192e+01
1.244000000000000057e+02 3.027747312010718161e+01
1.248000000000000114e+02 3.022895935827408209e+01
1.252000000000000028e+02 3.018067898459963772e+01
1.256000000000000085e+02 3.013263011345010156e+01
1.260000000000000000e+02 3.008481088058542241e+01
1.264000000000000057e+02 3.003721944284696121e+01
1.268000000000000114e+02 2.998985397785062190e+01
1.272000000000000028e+02 2.994271268368548888e+01
1.276000000000000085e+02 2.989579377861781495e+01
1.280000000000000000e+02 2.984909550080020324e+01
1.284000000000000057e+02 2.980261610798597616e+01
1.288000000000000114e+02 2.975635387724851810e+01
1.291999999999999886e+02 2.971030710470553871e+01
1.296000000000000227e+02 2.966447410524808959e+01
1.300000000000000000e+02 2.961873583160549117e+01
1.304000000000000057e+02 2.957319083560078710e+01
1.308000000000000114e+02 2.952785540302446776e+01
1.311999999999999886e+02 2.948272791567221418e+01
1.316000000000000227e+02 2.943780677287918479e+01
1.320000000000000000e+02 2.939309039127547152e+01
1.324000000000000057e+02 2.934857720454564856e+01
1.328000000000000114e+02 2.930426566319246007e+01
1.331999999999999886e+02 2.926015423430447271e+01
1.336000000000000227e+02 2.921624140132766456e+01
1.340000000000000000e+02 2.917252566384086165e+01
1.344000000000000057e+02 2.912900553733494391e+01
1.348000000000000114e+02 2.908567955299572461e+01
1.351999999999999886e+02 2.904242977287840333e+01
1.356000000000000227e+02 2.899936471066377663e+01
1.360000000000000000e+02 2.895649012404717126e+01
1.364000000000000057e+02 2.891380459998836017e+01
1.368000000000000114e+02 2.887130674015769927e+01
1.371999999999999886e+02 2.882899516073920054e+01
1.376000000000000227e+02 2.878686849223668887e+01
1.380000000000000000e+02 2.874492537928322022e+01
1.384000000000000057e+02 2.870316448045360147e+01
1.388000000000000114e+02 2.866158446807986593e+01
1.392000000000000171e+02 2.862018402806980788e+01
1.395999999999999943e+02 2.857896185972841963e+01
1.400000000000000000e+02 2.853791667558218492e+01
1.404000000000000057e+02 2.849704720120623591e+01
1.408000000000000114e+02 2.845635217505417103e+01
1.412000000000000171e+02 2.841583034829069732e+01
1.415999999999999943e+02 2.837548048462686623e+01
1.420000000000000000e+02 2.833530136015793133e+01
1.424000000000000057e+02 2.829515234043628524e+01
1.428000000000000114e+02 2.825500940187413690e+01
1.432000000000000171e+02 2.821503556425486181e+01
1.435999999999999943e+02 2.817522963364411481e+01
1.440000000000000000e+02 2.813559042793521670e+01
1.444000000000000057e+02 2.809611677669834862e+01
1.448000000000000114e+02 2.805680752103229736e+01
1.452000000000000171e+02 2.801922559382582634e+01
1.455999999999999943e+02 2.798044021519523028e+01
1.460000000000000000e+02 2.794181495333380028e+01
1.464000000000000057e+02 2.790334869914515536e+01
1.468000000000000114e+02 2.786504035431940451e+01
1.472000000000000171e+02 2.782688883119792678e+01
1.475999999999999943e+02 2.778889305264057086e+01
1.480000000000000000e+02 2.775105195189471630e+01
1.484000000000000057e+02 2.771336447246630996e+01
1.488000000000000114e+02 2.767582956799299154e+01
1.492000000000000171e+02 2.763844620211896341e+01
1.495999999999999943e+02 2.760121334837191398e+01
1.500000000000000000e+02 2.756412999004164988e+01
