1.000000000000000000e+01 1.245611140847838669e+02
1.040000000000000036e+01 1.331418031237562332e+02
1.080000000000000071e+01 1.499194317386542821e+02
1.119999999999999929e+01 1.643088545041022712e+02
1.159999999999999964e+01 1.866759140945548552e+02
1.200000000000000000e+01 1.996620656543822179e+02
1.240000000000000036e+01 1.908243904144070768e+02
1.280000000000000071e+01 1.831114563991716295e+02
1.319999999999999929e+01 1.764736193830182742e+02
1.359999999999999964e+01 1.712774805161805034e+02
1.400000000000000000e+01 1.666017121790617637e+02
1.440000000000000036e+01 1.623630533496050532e+02
1.480000000000000071e+01 1.585533804026428584e+02
1.519999999999999929e+01 1.551149252510763858e+02
1.560000000000000142e+01 1.519381192021543825e+02
1.600000000000000000e+01 1.489907438264322082e+02
1.639999999999999858e+01 1.462459620805797442e+02
1.680000000000000071e+01 1.436811990470186515e+02
1.719999999999999929e+01 1.386804402413209800e+02
1.760000000000000142e+01 1.362801262011491019e+02
1.800000000000000000e+01 1.340196145663125264e+02
1.839999999999999858e+01 1.318856645088415576e+02
1.880000000000000071e+01 1.298667436855374433e+02
1.920000000000000284e+01 1.270708259463727501e+02
1.960000000000000142e+01 1.252505891802741758e+02
2.000000000000000000e+01 1.235199427996640793e+02
2.039999999999999858e+01 1.218716945410900365e+02
2.080000000000000071e+01 1.202994403207869993e+02
2.120000000000000284e+01 1.187974558949051840e+02
2.160000000000000142e+01 1.051850052442563310e+02
2.200000000000000000e+01 1.037495151636572928e+02
2.239999999999999858e+01 1.023707110452360070e+02
2.280000000000000071e+01 1.010448881172531514e+02
2.320000000000000284e+01 9.976541721607426894e+01
2.360000000000000142e+01 9.852839954906873743e+01
2.400000000000000000e+01 9.733498315029842729e+01
2.439999999999999858e+01 9.618262389720906924e+01
2.480000000000000071e+01 9.506898328032886525e+01
2.520000000000000284e+01 9.399190732188941411e+01
2.560000000000000142e+01 9.294940809676423044e+01
2.600000000000000000e+01 9.193964748216407656e+01
2.640000000000000213e+01 9.096092282336816481e+01
2.680000000000000071e+01 9.001165425257373442e+01
2.719999999999999929e+01 8.909037343891071714e+01
2.760000000000000142e+01 8.819571358151821983e+01
2.800000000000000000e+01 8.732640048567108693e+01
2.840000000000000213e+01 8.648124458535770032e+01
2.880000000000000071e+01 8.565913379529888516e+01
2.920000000000000284e+01 8.496706516115293084e+01
2.960000000000000142e+01 8.416600328174757806e+01
3.000000000000000000e+01 8.334237469297629275e+01
3.040000000000000213e+01 8.254033402414992793e+01
3.080000000000000071e+01 8.175895217552610461e+01
3.120000000000000284e+01 8.099735524826172650e+01
3.160000000000000142e+01 8.025472038697174071e+01
3.200000000000000000e+01 7.953027199963321436e+01
3.240000000000000568e+01 7.845599398072513964e+01
3.279999999999999716e+01 7.778920382656799859e+01
3.320000000000000284e+01 7.713783118505300251e+01
3.360000000000000142e+01 7.650128913129458397e+01
3.400000000000000000e+01 7.587902165714663738e+01
3.440000000000000568e+01 7.527050160210818319e+01
3.479999999999999716e+01 7.467511563571507338e+01
3.520000000000000284e+01 7.409013534244802202e+01
3.560000000000000142e+01 7.351749964528248427e+01
3.600000000000000000e+01 7.295677939436848192e+01
3.640000000000000568e+01 7.240756610390589287e+01
3.679999999999999716e+01 7.186947068677908135e+01
3.720000000000000284e+01 7.134212228286392588e+01
3.760000000000000142e+01 7.082516717290079100e+01
3.800000000000000000e+01 7.031826777062829592e+01
3.840000000000000568e+01 6.982110168658428506e+01
3.879999999999999716e+01 6.933336085761449397e+01
3.920000000000000284e+01 6.885475073669509527e+01
3.960000000000000142e+01 6.838498953818205450e+01
4.000000000000000000e+01 6.792380753405021210e+01
4.040000000000000568e+01 6.747094639709334274e+01
4.079999999999999716e+01 6.702615858741773991e+01
4.120000000000000284e+01 6.658920677889055639e+01
4.160000000000000142e+01 6.615363265781893176e+01
4.200000000000000000e+01 6.566449693230811135e+01
4.239999999999999858e+01 6.524821476476067517e+01
4.280000000000000426e+01 6.483898133236992578e+01
4.320000000000000284e+01 6.514985986812496321e+01
4.360000000000000142e+01 6.482030799498245699e+01
4.400000000000000000e+01 6.449565857485009701e+01
4.439999999999999858e+01 6.417578998664056655e+01
4.480000000000000426e+01 6.386058482207021569e+01
4.520000000000000284e+01 6.354992969886331622e+01
4.560000000000000142e+01 6.324371508402359154e+01
4.600000000000000000e+01 6.294183512653560797e+01
4.639999999999999858e+01 6.264418749890606364e+01
4.680000000000000426e+01 6.235067324699495117e+01
4.720000000000000284e+01 6.206119664762869803e+01
4.760000000000000142e+01 6.177566507352018021e+01
4.800000000000000000e+01 6.149398886505625939e+01
4.840000000000000568e+01 6.121608120854188684e+01
4.880000000000000426e+01 6.094185802051919865e+01
4.920000000000000284e+01 6.067004921472960888e+01
4.960000000000000142e+01 6.039860198828178284e+01
5.000000000000000000e+01 6.013069762535252494e+01
5.040000000000000568e+01 5.986625898331832474e+01
5.080000000000000426e+01 5.960521126715111251e+01
5.120000000000000284e+01 5.934748193786057868e+01
5.160000000000000142e+01 5.909300062528292585e+01
5.200000000000000000e+01 5.884169904497255033e+01
5.240000000000000568e+01 5.859351091897049457e+01
5.280000000000000426e+01 5.834837190023644382e+01
5.320000000000000284e+01 5.810621950054508744e+01
5.360000000000000142e+01 5.786699302166022818e+01
5.400000000000000000e+01 5.763063348961128440e+01
5.440000000000000568e+01 5.761134376933907220e+01
5.480000000000000426e+01 5.738674287000749530e+01
5.520000000000000284e+01 5.716473003410811771e+01
5.560000000000000142e+01 5.694525547681904953e+01
5.600000000000000000e+01 5.672827075168211763e+01
5.640000000000000568e+01 5.651372870448954444e+01
5.680000000000000426e+01 5.628958243321013555e+01
5.720000000000000284e+01 5.606159758272433180e+01
5.760000000000000142e+01 5.583625781310043124e+01
5.800000000000000000e+01 5.567429966214587012e+01
5.840000000000000568e+01 5.545786906586966580e+01
5.880000000000000426e+01 5.524386512303085794e+01
5.920000000000000284e+01 5.503224254934360715e+01
5.960000000000000142e+01 5.482295723999645531e+01
6.000000000000000000e+01 5.461596623031269360e+01
6.040000000000000568e+01 5.441122765800726313e+01
6.080000000000000426e+01 5.420870072696405373e+01
6.120000000000000284e+01 5.400834567246161555e+01
6.160000000000000142e+01 5.381012372777890107e+01
6.200000000000000000e+01 5.361399709211694642e+01
6.240000000000000568e+01 5.341992889977519354e+01
6.280000000000000426e+01 5.322788319052501294e+01
6.320000000000000284e+01 5.303782488112533855e+01
6.360000000000000142e+01 5.284971973792909949e+01
6.400000000000000000e+01 5.266353435053081711e+01
6.440000000000000568e+01 5.247923610640913239e+01
6.480000000000001137e+01 5.229679316651997567e+01
6.520000000000000284e+01 5.211617444179844938e+01
6.559999999999999432e+01 5.193734957052951984e+01
6.600000000000000000e+01 5.176028889654990905e+01
6.640000000000000568e+01 5.158496344824508384e+01
6.680000000000001137e+01 5.141120501467787562e+01
6.720000000000000284e+01 5.123784351422818162e+01
6.759999999999999432e+01 5.106608864999468977e+01
6.800000000000000000e+01 5.089597791132419502e+01
6.840000000000000568e+01 5.072748511939337845e+01
6.880000000000001137e+01 5.056058467728254868e+01
6.920000000000000284e+01 5.039525155340822948e+01
6.959999999999999432e+01 5.023146126552985180e+01
7.000000000000000000e+01 5.006918986530710214e+01
7.040000000000000568e+01 4.990841392338566607e+01
7.080000000000001137e+01 4.974911051499006476e+01
7.120000000000000284e+01 4.959125720600339093e+01
7.159999999999999432e+01 4.943483203951444693e+01
7.200000000000000000e+01 4.927981352281372551e+01
7.240000000000000568e+01 4.912618061482113774e+01
7.280000000000001137e+01 4.897391271392778833e+01
7.320000000000000284e+01 4.882298964623655735e+01
7.359999999999999432e+01 4.867339165418554359e+01
7.400000000000000000e+01 4.852509938553983915e+01
7.440000000000000568e+01 4.837809388273791456e+01
7.479999999999999716e+01 4.823235657257868780e+01
7.520000000000000284e+01 4.808786925623665809e+01
7.560000000000000853e+01 4.794461409959304632e+01
7.600000000000000000e+01 4.844311661385068390e+01
7.640000000000000568e+01 4.830960412780924429e+01
7.679999999999999716e+01 4.817718869006443327e+01
7.720000000000000284e+01 4.805744180164642643e+01
7.760000000000000853e+01 4.792774285701201364e+01
7.800000000000000000e+01 4.779909039840227791e+01
7.840000000000000568e+01 4.767147023925635096e+01
7.879999999999999716e+01 4.754486846325708171e+01
7.920000000000000284e+01 4.741927141770116094e+01
7.960000000000000853e+01 4.729466570706808426e+01
8.000000000000000000e+01 4.717103818678093319e+01
8.040000000000000568e+01 4.704837595715232368e+01
8.079999999999999716e+01 4.692666635750882165e+01
8.120000000000000284e+01 4.680589696048795645e+01
8.160000000000000853e+01 4.668605556650146582e+01
8.200000000000000000e+01 4.656713019835913769e+01
8.240000000000000568e+01 4.644523655564189113e+01
8.279999999999999716e+01 4.632964489249192042e+01
8.320000000000000284e+01 4.621491929036548640e+01
8.360000000000000853e+01 4.610104883322200209e+01
8.400000000000000000e+01 4.598802279849373065e+01
8.440000000000000568e+01 4.587583065266654359e+01
8.479999999999999716e+01 4.576446204698434883e+01
8.520000000000000284e+01 4.565390681327278344e+01
8.560000000000000853e+01 4.554415495987858975e+01
8.600000000000000000e+01 4.543519666772061072e+01
8.640000000000000568e+01 4.532702228644897957e+01
8.680000000000001137e+01 4.521962233070884452e+01
8.720000000000000284e+01 4.511298747650533159e+01
8.760000000000000853e+01 4.500701773044006160e+01
8.800000000000000000e+01 4.490176870456384961e+01
8.840000000000000568e+01 4.479725790013861086e+01
8.880000000000001137e+01 4.469347661329792487e+01
8.920000000000000284e+01 4.459041628439819505e+01
8.960000000000000853e+01 4.448806849494023652e+01
9.000000000000000000e+01 4.438642496457136133e+01
9.040000000000000568e+01 4.428547754816511173e+01
9.080000000000001137e+01 4.418521823297684392e+01
9.120000000000000284e+01 4.408563913587214245e+01
9.160000000000000853e+01 4.398673250062653750e+01
9.200000000000000000e+01 4.388849069529378966e+01
9.240000000000000568e+01 4.379090620964110059e+01
9.280000000000001137e+01 4.369397165264898319e+01
9.320000000000000284e+01 4.359767975007397212e+01
9.360000000000000853e+01 4.350202334207229171e+01
9.400000000000000000e+01 4.340699538088269804e+01
9.440000000000000568e+01 4.331258892856663323e+01
9.480000000000001137e+01 4.321879715480427819e+01
9.520000000000000284e+01 4.312561333474451430e+01
9.560000000000000853e+01 4.303317911121547468e+01
9.600000000000000000e+01 4.294135840029312590e+01
9.640000000000000568e+01 4.285011652025501405e+01
9.680000000000001137e+01 4.275944736971982252e+01
9.720000000000000284e+01 4.266934493732445333e+01
9.760000000000000853e+01 4.257980330001948488e+01
9.800000000000000000e+01 4.249063338929156686e+01
9.840000000000000568e+01 4.240155007172677415e+01
9.880000000000001137e+01 4.231301629748464421e+01
9.920000000000000284e+01 4.222193252805235630e+01
9.960000000000000853e+01 4.213484726531840607e+01
1.000000000000000000e+02 4.204829227855762497e+01
1.004000000000000057e+02 4.196226216846974921e+01
1.008000000000000114e+02 4.187675161272210289e+01
1.012000000000000028e+02 4.179175536454107487e+01
1.016000000000000085e+02 4.170726825133496618e+01
1.020000000000000000e+02 4.162328517334763944e+01
1.024000000000000057e+02 4.153980110234178369e+01
1.028000000000000114e+02 4.145681108031126882e+01
1.032000000000000028e+02 4.137431021822185073e+01
1.036000000000000085e+02 4.129229369477930334e+01
1.040000000000000000e+02 4.121075675522445181e+01
1.044000000000000057e+02 4.112969471015430400e+01
1.048000000000000114e+02 4.104910293436873303e+01
1.052000000000000028e+02 4.096897686574190089e+01
1.056000000000000085e+02 4.088931200411796141e+01
1.060000000000000000e+02 4.081010391023016126e+01
1.064000000000000057e+02 4.073134820464328243e+01
1.068000000000000114e+02 4.065304056671809008e+01
1.072000000000000028e+02 4.057517673359792809e+01
1.076000000000000085e+02 4.049775249921648168e+01
1.080000000000000000e+02 4.042076371332640861e+01
1.084000000000000057e+02 4.034420628054812852e+01
1.088000000000000114e+02 4.026807615943847196e+01
1.092000000000000028e+02 4.019236936157865614e+01
1.096000000000000085e+02 4.011708195068084137e+01
1.100000000000000000e+02 4.004221004171340326e+01
1.104000000000000057e+02 3.996774980004376232e+01
1.108000000000000114e+02 3.989355059861769348e+01
1.112000000000000028e+02 3.981970005786421041e+01
1.116000000000000085e+02 3.974625153434989500e+01
1.120000000000000000e+02 3.967320136931758157e+01
1.124000000000000057e+02 3.960054595063537164e+01
1.128000000000000114e+02 3.952828171203378815e+01
1.132000000000000028e+02 3.945640513235817082e+01
1.136000000000000085e+02 3.938491273483579391e+01
1.140000000000000000e+02 3.931380108635774207e+01
1.144000000000000057e+02 3.924306679677466292e+01
1.148000000000000114e+02 3.917270651820670935e+01
1.152000000000000028e+02 3.910271694436667644e+01
1.156000000000000085e+02 3.903309480989658198e+01
1.160000000000000000e+02 3.896383688971707926e+01
1.164000000000000057e+02 3.891313136451801569e+01
1.168000000000000114e+02 3.884518714678426221e+01
1.172000000000000028e+02 3.877759332706091300e+01
1.176000000000000085e+02 3.871034688110783861e+01
1.180000000000000000e+02 3.864344482125805769e+01
1.184000000000000057e+02 3.857688419584973616e+01
1.188000000000000114e+02 3.844577581014462453e+01
1.192000000000000028e+02 3.838140841641015300e+01
1.196000000000000085e+02 3.831736559215663362e+01
1.200000000000000000e+02 3.825364458404067847e+01
1.204000000000000057e+02 3.819024267155441521e+01
1.208000000000000114e+02 3.812715716652118658e+01
1.212000000000000028e+02 3.806438541260038022e+01
1.216000000000000085e+02 3.800192478480190772e+01
1.220000000000000000e+02 3.793977268900943045e+01
1.224000000000000057e+02 3.787792656151273007e+01
1.228000000000000114e+02 3.781638386854851319e+01
1.232000000000000028e+02 3.775514210584979935e+01
1.236000000000000085e+02 3.769881788025566038e+01
1.240000000000000000e+02 3.763837600324517041e+01
1.244000000000000057e+02 3.757822625748284651e+01
1.248000000000000114e+02 3.751836626703664024e+01
1.252000000000000028e+02 3.745879368314537317e+01
1.256000000000000085e+02 3.739950618381831049e+01
1.260000000000000000e+02 3.734050147344206039e+01
1.264000000000000057e+02 3.728177728239453614e+01
1.268000000000000114e+02 3.722333136666580344e+01
1.272000000000000028e+02 3.716516150748565650e+01
1.276000000000000085e+02 3.710726551095788750e+01
1.280000000000000000e+02 3.704964120770100067e+01
1.284000000000000057e+02 3.699228645249533542e+01
1.288000000000000114e+02 3.693519912393627180e+01
1.291999999999999886e+02 3.687837712409368862e+01
1.296000000000000227e+02 3.682181837817724812e+01
1.300000000000000000e+02 3.676552083420762784e+01
1.304000000000000057e+02 3.670948246269331605e+01
1.308000000000000114e+02 3.665370125631322651e+01
1.311999999999999886e+02 3.659817522960460678e+01
1.316000000000000227e+02 3.654290241865636801e+01
1.320000000000000000e+02 3.648788088080776504e+01
1.324000000000000057e+02 3.643310869435208588e+01
1.328000000000000114e+02 3.637858395824554947e+01
1.331999999999999886e+02 3.632430479182105643e+01
1.336000000000000227e+02 3.627026933450672175e+01
1.340000000000000000e+02 3.621647574554941684e+01
1.344000000000000057e+02 3.616292220374268140e+01
1.348000000000000114e+02 3.610960690715932486e+01
1.351999999999999886e+02 3.605641158827651083e+01
1.356000000000000227e+02 3.600344443468332400e+01
1.360000000000000000e+02 3.595071088142191940e+01
1.364000000000000057e+02 3.589820919619046435e+01
1.368000000000000114e+02 3.584591240746464536e+01
1.371999999999999886e+02 3.579383382100706967e+01
1.376000000000000227e+02 3.574198226816891832e+01
1.380000000000000000e+02 3.569035608508657731e+01
1.384000000000000057e+02 3.563895362503415498e+01
1.388000000000000114e+02 3.558777325819614390e+01
1.392000000000000171e+02 3.553681337144375618e+01
1.395999999999999943e+02 3.548607236811484711e+01
1.400000000000000000e+02 3.543554866779754775e+01
1.404000000000000057e+02 3.538524070611714478e+01
1.408000000000000114e+02 3.533514693452656275e+01
1.412000000000000171e+02 3.528526582010007928e+01
1.415999999999999943e+02 3.523559584533044386e+01
1.420000000000000000e+02 3.518613550792906608e+01
1.424000000000000057e+02 3.513646505232709671e+01
1.428000000000000114e+02 3.508651453416116084e+01
1.432000000000000171e+02 3.503677511808080425e+01
1.435999999999999943e+02 3.498724530675097100e+01
1.440000000000000000e+02 3.493792361775307853e+01
1.444000000000000057e+02 3.488880858339351931e+01
1.448000000000000114e+02 3.483989875051555885e+01
1.452000000000000171e+02 3.479119268031388401e+01
1.455999999999999943e+02 3.474268894815212860e+01
1.460000000000000000e+02 3.469438614338326943e+01
1.464000000000000057e+02 3.464628286917281486e+01
1.468000000000000114e+02 3.459837774232464369e+01
1.472000000000000171e+02 3.455066939310957963e+01
1.475999999999999943e+02 3.450315646509665868e+01
1.480000000000000000e+02 3.445583761498684794e+01
1.484000000000000057e+02 3.440871151244940762e+01
1.488000000000000114e+02 3.436177683996078258e+01
1.492000000000000171e+02 3.431503229264576760e+01
1.495999999999999943e+02 3.426847657812125902e+01
1.500000000000000000e+02 3.422210841634228728e+01
