1.000000000000000000e+01 1.569715676842876064e+02
1.040000000000000036e+01 1.649868539496617359e+02
1.080000000000000071e+01 1.775808829061814436e+02
1.119999999999999929e+01 1.932405894722529069e+02
1.159999999999999964e+01 2.233310943110461153e+02
1.200000000000000000e+01 2.358317398230769868e+02
1.240000000000000036e+01 2.210225785746297902e+02
1.280000000000000071e+01 2.130582871496247890e+02
1.319999999999999929e+01 2.061566725150708805e+02
1.359999999999999964e+01 2.006915765087704813e+02
1.400000000000000000e+01 1.957463403127872539e+02
1.440000000000000036e+01 1.910091522911035327e+02
1.480000000000000071e+01 1.866534588909064496e+02
1.519999999999999929e+01 1.826527087233247357e+02
1.560000000000000142e+01 1.789603034992410926e+02
1.600000000000000000e+01 1.755378989044140781e+02
1.639999999999999858e+01 1.723535920864574678e+02
1.680000000000000071e+01 1.693805781584227361e+02
1.719999999999999929e+01 1.639992796911494963e+02
1.760000000000000142e+01 1.628430655411127361e+02
1.800000000000000000e+01 1.563897590557423882e+02
1.839999999999999858e+01 1.538392750729644263e+02
1.880000000000000071e+01 1.514266700495373925e+02
1.920000000000000284e+01 1.491397892657116415e+02
1.960000000000000142e+01 1.469679397788342214e+02
2.000000000000000000e+01 1.449016702061016417e+02
2.039999999999999858e+01 1.429325900081943814e+02
2.080000000000000071e+01 1.410532201171192810e+02
2.120000000000000284e+01 1.392609143867222485e+02
2.160000000000000142e+01 1.253753858170689739e+02
2.200000000000000000e+01 1.236765971625420093e+02
2.239999999999999858e+01 1.220436953061641816e+02
2.280000000000000071e+01 1.204724438537314057e+02
2.320000000000000284e+01 1.189590289489610768e+02
2.360000000000000142e+01 1.175052339153048422e+02
2.400000000000000000e+01 1.161017298151984392e+02
2.439999999999999858e+01 1.147459642516616185e+02
2.480000000000000071e+01 1.134356538008838982e+02
2.520000000000000284e+01 1.119902716501316178e+02
2.560000000000000142e+01 1.107748430381705873e+02
2.600000000000000000e+01 1.095968843702917184e+02
2.640000000000000213e+01 1.084544795713316176e+02
2.680000000000000071e+01 1.073458486267083742e+02
2.719999999999999929e+01 1.062693352896288133e+02
2.760000000000000142e+01 1.052233961295878544e+02
2.800000000000000000e+01 1.042065907514303831e+02
2.840000000000000213e+01 1.032175730389809019e+02
2.880000000000000071e+01 1.022550832979755739e+02
2.920000000000000284e+01 1.013179411904708047e+02
2.960000000000000142e+01 1.003675089346218954e+02
3.000000000000000000e+01 9.939461607625344186e+01
3.040000000000000213e+01 9.844683567020449289e+01
3.080000000000000071e+01 9.752310101093650019e+01
3.120000000000000284e+01 9.662240802830676500e+01
3.160000000000000142e+01 9.574381062084061966e+01
3.200000000000000000e+01 9.488641640834305235e+01
3.240000000000000568e+01 9.368209852571366980e+01
3.279999999999999716e+01 9.288806934333979370e+01
3.320000000000000284e+01 9.211215865305433681e+01
3.360000000000000142e+01 9.135368460832727067e+01
3.400000000000000000e+01 9.041384620997398258e+01
3.440000000000000568e+01 8.970418327536887659e+01
3.479999999999999716e+01 8.907423941258895184e+01
3.520000000000000284e+01 8.840487626527372811e+01
3.560000000000000142e+01 8.774935073932623197e+01
3.600000000000000000e+01 8.710719021801124029e+01
3.640000000000000568e+01 8.647794447406776897e+01
3.679999999999999716e+01 8.586118431943009455e+01
3.720000000000000284e+01 8.525650035347879907e+01
3.760000000000000142e+01 8.466350180141040482e+01
3.800000000000000000e+01 8.408181543513524048e+01
3.840000000000000568e+01 8.351108456984285056e+01
3.879999999999999716e+01 8.295096813002621161e+01
3.920000000000000284e+01 8.240113977933687295e+01
3.960000000000000142e+01 8.186128710916648288e+01
4.000000000000000000e+01 8.132971614519750858e+01
4.040000000000000568e+01 8.080628076219852574e+01
4.079999999999999716e+01 8.029204252901008942e+01
4.120000000000000284e+01 7.978673414231484173e+01
4.160000000000000142e+01 7.928386842611438112e+01
4.200000000000000000e+01 7.878507372992010005e+01
4.239999999999999858e+01 7.829474949208136536e+01
4.280000000000000426e+01 7.781265798089900443e+01
4.320000000000000284e+01 7.805183075280481830e+01
4.360000000000000142e+01 7.764492111334138258e+01
4.400000000000000000e+01 7.724370879988254046e+01
4.439999999999999858e+01 7.684850088802453172e+01
4.480000000000000426e+01 7.645914747856755866e+01
4.520000000000000284e+01 7.607550390033188137e+01
4.560000000000000142e+01 7.569743047663442326e+01
4.600000000000000000e+01 7.532479230444987195e+01
4.639999999999999858e+01 7.501822758831181659e+01
4.680000000000000426e+01 7.465588339685601227e+01
4.720000000000000284e+01 7.429857915710914540e+01
4.760000000000000142e+01 7.394619788153184459e+01
4.800000000000000000e+01 7.359862637592530632e+01
4.840000000000000568e+01 7.325575508190034668e+01
4.880000000000000426e+01 7.291747792730336641e+01
4.920000000000000284e+01 7.258369218412626367e+01
4.960000000000000142e+01 7.225429833346062480e+01
5.000000000000000000e+01 7.192919993708552795e+01
5.040000000000000568e+01 7.160830351530614735e+01
5.080000000000000426e+01 7.129151843068548544e+01
5.120000000000000284e+01 7.097875677733472344e+01
5.160000000000000142e+01 7.066993327545060311e+01
5.200000000000000000e+01 7.036496517080639990e+01
5.240000000000000568e+01 7.006390827652795394e+01
5.280000000000000426e+01 6.976793918968968455e+01
5.320000000000000284e+01 6.947557388857025273e+01
5.360000000000000142e+01 6.918673923132942605e+01
5.400000000000000000e+01 6.890136414983838620e+01
5.440000000000000568e+01 6.883363975179018723e+01
5.480000000000000426e+01 6.856117361402162658e+01
5.520000000000000284e+01 6.829185386014563619e+01
5.560000000000000142e+01 6.802561988892934153e+01
5.600000000000000000e+01 6.787335372925873855e+01
5.640000000000000568e+01 6.761927237192489315e+01
5.680000000000000426e+01 6.735599988175422936e+01
5.720000000000000284e+01 6.708929472541294103e+01
5.760000000000000142e+01 6.682563355712498776e+01
5.800000000000000000e+01 6.656495849058890713e+01
5.840000000000000568e+01 6.630721317628747613e+01
5.880000000000000426e+01 6.605234274923918747e+01
5.920000000000000284e+01 6.580029377891150943e+01
5.960000000000000142e+01 6.551393932688394273e+01
6.000000000000000000e+01 6.526680949035855406e+01
6.040000000000000568e+01 6.502235665316665347e+01
6.080000000000000426e+01 6.478053243871104883e+01
6.120000000000000284e+01 6.454128969162462681e+01
6.160000000000000142e+01 6.430458243826905118e+01
6.200000000000000000e+01 6.407036584878882479e+01
6.240000000000000568e+01 6.383859620064878015e+01
6.280000000000000426e+01 6.360923084358659452e+01
6.320000000000000284e+01 6.338222816591582642e+01
6.360000000000000142e+01 6.315754756211819654e+01
6.400000000000000000e+01 6.293514940166700455e+01
6.440000000000000568e+01 6.271499499902670038e+01
6.480000000000001137e+01 6.249704658477645580e+01
6.520000000000000284e+01 6.228126727780797012e+01
6.559999999999999432e+01 6.206762105855071354e+01
6.600000000000000000e+01 6.185607274317969484e+01
6.640000000000000568e+01 6.164658795876359676e+01
6.680000000000001137e+01 6.143903037227758546e+01
6.720000000000000284e+01 6.123219182695544305e+01
6.759999999999999432e+01 6.102726555399953412e+01
6.800000000000000000e+01 6.082428432365598781e+01
6.840000000000000568e+01 6.062321734003657525e+01
6.880000000000001137e+01 6.042357830058400481e+01
6.920000000000000284e+01 6.022479698141022197e+01
6.959999999999999432e+01 6.002786052463289224e+01
7.000000000000000000e+01 5.983274037992100602e+01
7.040000000000000568e+01 5.963940861411074934e+01
7.080000000000001137e+01 5.944783789411221875e+01
7.120000000000000284e+01 5.925800147039233678e+01
7.159999999999999432e+01 5.906987316101134411e+01
7.200000000000000000e+01 5.888342733619068525e+01
7.240000000000000568e+01 5.869863890339212276e+01
7.280000000000001137e+01 5.851548329288719685e+01
7.320000000000000284e+01 5.833393644379911080e+01
7.359999999999999432e+01 5.815397479059795671e+01
7.400000000000000000e+01 5.797557525003236378e+01
7.440000000000000568e+01 5.779871520848116262e+01
7.479999999999999716e+01 5.762337250970873725e+01
7.520000000000000284e+01 5.745526566868414164e+01
7.560000000000000853e+01 5.728382743626102780e+01
7.600000000000000000e+01 5.775438000307485709e+01
7.640000000000000568e+01 5.759314744869056568e+01
7.679999999999999716e+01 5.743323863595891510e+01
7.720000000000000284e+01 5.727463530210035714e+01
7.760000000000000853e+01 5.711731953817101015e+01
7.800000000000000000e+01 5.696127378023975041e+01
7.840000000000000568e+01 5.680648080083398099e+01
7.879999999999999716e+01 5.665292370064462091e+01
7.920000000000000284e+01 5.650058590048111284e+01
7.960000000000000853e+01 5.634945113346736889e+01
8.000000000000000000e+01 5.619950343747009214e+01
8.040000000000000568e+01 5.605072714775169374e+01
8.079999999999999716e+01 5.590310688983931442e+01
8.120000000000000284e+01 5.575662757260310087e+01
8.160000000000000853e+01 5.561127438153611990e+01
8.200000000000000000e+01 5.546703277222883344e+01
8.240000000000000568e+01 5.532001592362572495e+01
8.279999999999999716e+01 5.517949161473107011e+01
8.320000000000000284e+01 5.503976466172393600e+01
8.360000000000000853e+01 5.490100581102972654e+01
8.400000000000000000e+01 5.476327687337393968e+01
8.440000000000000568e+01 5.464459913953946568e+01
8.479999999999999716e+01 5.451067485935489287e+01
8.520000000000000284e+01 5.437772338623194912e+01
8.560000000000000853e+01 5.424573281835850480e+01
8.600000000000000000e+01 5.411469145863562602e+01
8.640000000000000568e+01 5.398458781014137742e+01
8.680000000000001137e+01 5.385541057171738544e+01
8.720000000000000284e+01 5.372714863367444593e+01
8.760000000000000853e+01 5.359979107361356654e+01
8.800000000000000000e+01 5.347332715235835110e+01
8.840000000000000568e+01 5.334774630999563527e+01
8.880000000000001137e+01 5.322303816202075666e+01
8.920000000000000284e+01 5.309919249558416254e+01
8.960000000000000853e+01 5.297619926583626437e+01
9.000000000000000000e+01 5.285404859236768971e+01
9.040000000000000568e+01 5.273273075574147128e+01
9.080000000000001137e+01 5.261223619411507713e+01
9.120000000000000284e+01 5.249255549994877157e+01
9.160000000000000853e+01 5.237367941679848116e+01
9.200000000000000000e+01 5.225310417347829173e+01
9.240000000000000568e+01 5.213656380221453901e+01
9.280000000000001137e+01 5.202079647404764273e+01
9.320000000000000284e+01 5.190579355921281035e+01
9.360000000000000853e+01 5.179154656334764439e+01
9.400000000000000000e+01 5.167804712475549422e+01
9.440000000000000568e+01 5.156528701173674278e+01
9.480000000000001137e+01 5.145325811998549881e+01
9.520000000000000284e+01 5.134195247005020235e+01
9.560000000000000853e+01 5.123151046916403573e+01
9.600000000000000000e+01 5.112179481644252377e+01
9.640000000000000568e+01 5.101276963147518728e+01
9.680000000000001137e+01 5.090442763211152055e+01
9.720000000000000284e+01 5.079676164379304026e+01
9.760000000000000853e+01 5.068976459751163333e+01
9.800000000000000000e+01 5.058324629570289233e+01
9.840000000000000568e+01 5.047692049248805546e+01
9.880000000000001137e+01 5.037124904183411189e+01
9.920000000000000284e+01 5.026622519833647829e+01
9.960000000000000853e+01 5.016184231397841131e+01
1.000000000000000000e+02 5.005796889593786148e+01
1.004000000000000057e+02 4.995426645200741689e+01
1.008000000000000114e+02 4.985115988417923916e+01
1.012000000000000028e+02 4.974829914338791781e+01
1.016000000000000085e+02 4.964605516847436917e+01
1.020000000000000000e+02 4.954442176500079142e+01
1.024000000000000057e+02 4.944339282565071869e+01
1.028000000000000114e+02 4.934296232865598597e+01
1.032000000000000028e+02 4.924312433625837571e+01
1.036000000000000085e+02 4.914387299320485880e+01
1.040000000000000000e+02 4.904520252527584034e+01
1.044000000000000057e+02 4.894710723784537976e+01
1.048000000000000114e+02 4.884958151447258246e+01
1.052000000000000028e+02 4.875261981552339563e+01
1.056000000000000085e+02 4.865621667682214024e+01
1.060000000000000000e+02 4.856036670833168500e+01
1.064000000000000057e+02 4.846506459286207757e+01
1.068000000000000114e+02 4.837030508480631141e+01
1.072000000000000028e+02 4.827608300890309323e+01
1.076000000000000085e+02 4.818239325902550974e+01
1.080000000000000000e+02 4.808923079699529524e+01
1.084000000000000057e+02 4.799659065142174086e+01
1.088000000000000114e+02 4.790446791656491854e+01
1.092000000000000028e+02 4.781285775122254478e+01
1.096000000000000085e+02 4.772175537763959596e+01
1.100000000000000000e+02 4.763115608044081739e+01
1.104000000000000057e+02 4.754105520558477593e+01
1.108000000000000114e+02 4.745954203635722735e+01
1.112000000000000028e+02 4.737084342473156084e+01
1.116000000000000085e+02 4.728262725649959464e+01
1.120000000000000000e+02 4.719488913666072705e+01
1.124000000000000057e+02 4.710762472630059250e+01
1.128000000000000114e+02 4.702082974167186080e+01
1.132000000000000028e+02 4.693449995329346791e+01
1.136000000000000085e+02 4.684863118506780921e+01
1.140000000000000000e+02 4.676321931341536953e+01
1.144000000000000057e+02 4.667826026642651982e+01
1.148000000000000114e+02 4.659375002303006852e+01
1.152000000000000028e+02 4.650968461217802741e+01
1.156000000000000085e+02 4.642606011204637895e+01
1.160000000000000000e+02 4.634287264925152527e+01
1.164000000000000057e+02 4.627830976421024189e+01
1.168000000000000114e+02 4.619657973703776577e+01
1.172000000000000028e+02 4.611527103368739233e+01
1.176000000000000085e+02 4.603438001298215454e+01
1.180000000000000000e+02 4.595390307785255857e+01
1.184000000000000057e+02 4.587383667465019244e+01
1.188000000000000114e+02 4.574701384359257617e+01
1.192000000000000028e+02 4.566978161082692367e+01
1.196000000000000085e+02 4.559293773369027747e+01
1.200000000000000000e+02 4.551647892085524205e+01
1.204000000000000057e+02 4.544040192022163893e+01
1.208000000000000114e+02 4.536465354086116974e+01
1.212000000000000028e+02 4.528927727113095614e+01
1.216000000000000085e+02 4.521427370620567388e+01
1.220000000000000000e+02 4.513963974071005225e+01
1.224000000000000057e+02 4.506537230565251662e+01
1.228000000000000114e+02 4.499146836787600989e+01
1.232000000000000028e+02 4.491792492951889670e+01
1.236000000000000085e+02 4.484473902748595719e+01
1.240000000000000000e+02 4.477190773292879555e+01
1.244000000000000057e+02 4.469942815073609665e+01
1.248000000000000114e+02 4.462729741903280711e+01
1.252000000000000028e+02 4.455551270868875235e+01
1.256000000000000085e+02 4.448407122283586546e+01
1.260000000000000000e+02 4.441297019639424093e+01
1.264000000000000057e+02 4.434220689560672923e+01
1.268000000000000114e+02 4.427177861758189437e+01
1.272000000000000028e+02 4.420168268984493665e+01
1.276000000000000085e+02 4.413191646989685069e+01
1.280000000000000000e+02 4.406247734478122879e+01
1.284000000000000057e+02 4.399336273065884484e+01
1.288000000000000114e+02 4.392457007238961353e+01
1.291999999999999886e+02 4.385609684312198908e+01
1.296000000000000227e+02 4.378794054388949775e+01
1.300000000000000000e+02 4.372009870321436864e+01
1.304000000000000057e+02 4.365256887671787922e+01
1.308000000000000114e+02 4.358534864673774933e+01
1.311999999999999886e+02 4.351582037705362183e+01
1.316000000000000227e+02 4.344941321368607845e+01
1.320000000000000000e+02 4.338330743784558763e+01
1.324000000000000057e+02 4.331750074511039372e+01
1.328000000000000114e+02 4.325199085583362546e+01
1.331999999999999886e+02 4.318677551480024590e+01
1.336000000000000227e+02 4.312185249088958727e+01
1.340000000000000000e+02 4.305721957674391120e+01
1.344000000000000057e+02 4.299287458844228382e+01
1.348000000000000114e+02 4.292881536517998597e+01
1.351999999999999886e+02 4.286492328434133015e+01
1.356000000000000227e+02 4.280130618215585514e+01
1.360000000000000000e+02 4.273796914598891306e+01
1.364000000000000057e+02 4.267491009949488046e+01
1.368000000000000114e+02 4.261212698796828846e+01
1.371999999999999886e+02 4.254957141359638939e+01
1.376000000000000227e+02 4.248723748887719154e+01
1.380000000000000000e+02 4.242517385530970842e+01
1.384000000000000057e+02 4.236337854002308489e+01
1.388000000000000114e+02 4.230184959038480486e+01
1.392000000000000171e+02 4.224058507373327842e+01
1.395999999999999943e+02 4.217958307711485588e+01
1.400000000000000000e+02 4.211884170702509778e+01
1.404000000000000057e+02 4.205835908915400978e+01
1.408000000000000114e+02 4.199813336813561904e+01
1.412000000000000171e+02 4.193816270730135187e+01
1.415999999999999943e+02 4.187844528843743319e+01
1.420000000000000000e+02 4.181891201207477593e+01
1.424000000000000057e+02 4.175913907466945574e+01
1.428000000000000114e+02 4.169912791757494830e+01
1.432000000000000171e+02 4.163936941139905201e+01
1.435999999999999943e+02 4.157986176766977593e+01
1.440000000000000000e+02 4.152060321569939561e+01
1.444000000000000057e+02 4.146159200235673836e+01
1.448000000000000114e+02 4.140282639184314206e+01
1.452000000000000171e+02 4.134430466547188132e+01
1.455999999999999943e+02 4.128602512145096171e+01
1.460000000000000000e+02 4.122798607466934584e+01
1.464000000000000057e+02 4.117018585648654039e+01
1.468000000000000114e+02 4.111262281452527390e+01
1.472000000000000171e+02 4.105529531246749997e+01
1.475999999999999943e+02 4.099820172985347000e+01
1.480000000000000000e+02 4.094134046188390386e+01
1.484000000000000057e+02 4.088470991922511644e+01
1.488000000000000114e+02 4.082830852781726350e+01
1.492000000000000171e+02 4.077213472868527333e+01
1.495999999999999943e+02 4.071618697775281959e+01
1.500000000000000000e+02 4.066046374565897992e+01
