1.000000000000000000e+01 6.411300193655446833e+01
1.040000000000000036e+01 6.301488270311898532e+01
1.080000000000000071e+01 6.220486639818379615e+01
1.119999999999999929e+01 6.172112504799360266e+01
1.159999999999999964e+01 6.188250703044971601e+01
1.200000000000000000e+01 6.046013190757427225e+01
1.240000000000000036e+01 5.916411028715004505e+01
1.280000000000000071e+01 4.989889536538322545e+01
1.319999999999999929e+01 4.899752361262812883e+01
1.359999999999999964e+01 4.814500883795636810e+01
1.400000000000000000e+01 4.733673424755531300e+01
1.440000000000000036e+01 4.656873359724795591e+01
1.480000000000000071e+01 4.583756344551915163e+01
1.519999999999999929e+01 4.514020848683409781e+01
1.560000000000000142e+01 4.447400933554322933e+01
1.600000000000000000e+01 4.357017583034225083e+01
1.639999999999999858e+01 4.270441062191922299e+01
1.680000000000000071e+01 4.188451023412108043e+01
1.719999999999999929e+01 4.110648465256699780e+01
1.760000000000000142e+01 4.036682333304655401e+01
1.800000000000000000e+01 3.966242221790562184e+01
1.839999999999999858e+01 3.899052410935259161e+01
1.880000000000000071e+01 3.834866956128486493e+01
1.920000000000000284e+01 3.773465613442452593e+01
1.960000000000000142e+01 3.714650435990859023e+01
2.000000000000000000e+01 3.968252080066860543e+01
2.039999999999999858e+01 3.913004000171662256e+01
2.080000000000000071e+01 3.859953010822883357e+01
2.120000000000000284e+01 3.808954746870296049e+01
2.160000000000000142e+01 3.759878015541121243e+01
2.200000000000000000e+01 3.712603263265942388e+01
2.239999999999999858e+01 3.667021258659553951e+01
2.280000000000000071e+01 3.623031956026503053e+01
2.320000000000000284e+01 3.580543510452923783e+01
2.360000000000000142e+01 3.539471420833888260e+01
2.400000000000000000e+01 3.499737781393152147e+01
2.439999999999999858e+01 3.464805392533633466e+01
2.480000000000000071e+01 3.433971723226621720e+01
2.520000000000000284e+01 3.403915047332831989e+01
2.560000000000000142e+01 3.374602527463875390e+01
2.600000000000000000e+01 3.346003262960851998e+01
2.640000000000000213e+01 3.318088143917485411e+01
2.680000000000000071e+01 3.290829718558622119e+01
2.719999999999999929e+01 3.264202072539683286e+01
2.760000000000000142e+01 3.238254197878909935e+01
2.800000000000000000e+01 3.218282990083719142e+01
2.840000000000000213e+01 3.198724814776934267e+01
2.880000000000000071e+01 3.179564770790507566e+01
2.920000000000000284e+01 3.160788719125770285e+01
2.960000000000000142e+01 3.142383232718836439e+01
3.000000000000000000e+01 3.124335550244629900e+01
3.040000000000000213e+01 2.999861854160574026e+01
3.080000000000000071e+01 2.982718383493730130e+01
3.120000000000000284e+01 2.965927251836043865e+01
3.160000000000000142e+01 2.949475777605341165e+01
3.200000000000000000e+01 2.933351928276569254e+01
3.240000000000000568e+01 2.917544277458987878e+01
3.279999999999999716e+01 2.902041965444696459e+01
3.320000000000000284e+01 2.886834662897280523e+01
3.360000000000000142e+01 2.871912537385728115e+01
3.400000000000000000e+01 2.857266222500589947e+01
3.440000000000000568e+01 2.842886789317335072e+01
3.479999999999999716e+01 2.828765719996444972e+01
3.520000000000000284e+01 2.814894883331506037e+01
3.560000000000000142e+01 2.801266512075736159e+01
3.600000000000000000e+01 2.787873181894338614e+01
3.640000000000000568e+01 2.773643447169934007e+01
3.679999999999999716e+01 2.758827305636427951e+01
3.720000000000000284e+01 2.744282206284361081e+01
3.760000000000000142e+01 2.729999638967003506e+01
3.800000000000000000e+01 2.715971467254909300e+01
3.840000000000000568e+01 2.702189907497079702e+01
3.879999999999999716e+01 2.688647509303116223e+01
3.920000000000000284e+01 2.675337137333394111e+01
3.960000000000000142e+01 2.662251954294642431e+01
4.000000000000000000e+01 2.649385405047428677e+01
4.040000000000000568e+01 2.636731201740429498e+01
4.079999999999999716e+01 2.624283309893753469e+01
4.120000000000000284e+01 2.612035935360359673e+01
4.160000000000000142e+01 2.599983512100637739e+01
4.200000000000000000e+01 2.588120690710760385e+01
4.239999999999999858e+01 2.576442327650345021e+01
4.280000000000000426e+01 2.564943475119455130e+01
4.320000000000000284e+01 2.572016002292460968e+01
4.360000000000000142e+01 2.562585714192015729e+01
4.400000000000000000e+01 2.553279279892920073e+01
4.439999999999999858e+01 2.544093814585428959e+01
4.480000000000000426e+01 2.535026529921795557e+01
4.520000000000000284e+01 2.526074729827053744e+01
4.560000000000000142e+01 2.517235806532774234e+01
4.600000000000000000e+01 2.508507236819772857e+01
4.639999999999999858e+01 2.499886578456792208e+01
4.680000000000000426e+01 2.491371466823072467e+01
4.720000000000000284e+01 2.482959611703626379e+01
4.760000000000000142e+01 2.474648794246760630e+01
4.800000000000000000e+01 2.466436864074173130e+01
4.840000000000000568e+01 2.458321736534575308e+01
4.880000000000000426e+01 2.450301390092417009e+01
4.920000000000000284e+01 2.442373863843877047e+01
4.960000000000000142e+01 2.434537255152780233e+01
5.000000000000000000e+01 2.426747070910342785e+01
5.040000000000000568e+01 2.418687892226934366e+01
5.080000000000000426e+01 2.410721843723069924e+01
5.120000000000000284e+01 2.402847038573056437e+01
5.160000000000000142e+01 2.395061644449339155e+01
5.200000000000000000e+01 2.387363881485665473e+01
5.240000000000000568e+01 2.169187892814952789e+01
5.280000000000000426e+01 2.160781055090171776e+01
5.320000000000000284e+01 2.152470812033673297e+01
5.360000000000000142e+01 2.144255293512662064e+01
5.400000000000000000e+01 2.136132680213498602e+01
5.440000000000000568e+01 2.128101201865841574e+01
5.480000000000000426e+01 2.120159135542589013e+01
5.520000000000000284e+01 2.112304804031807492e+01
5.560000000000000142e+01 2.104536574277039307e+01
5.600000000000000000e+01 2.096852855882601929e+01
5.640000000000000568e+01 2.089252099680691188e+01
5.680000000000000426e+01 2.081732796357251303e+01
5.720000000000000284e+01 2.074293475133792342e+01
5.760000000000000142e+01 2.066932702502438701e+01
5.800000000000000000e+01 2.059649081011692928e+01
5.840000000000000568e+01 2.062104317430485878e+01
5.880000000000000426e+01 2.055079582819116624e+01
5.920000000000000284e+01 2.048127081578823550e+01
5.960000000000000142e+01 2.041245567721360032e+01
6.000000000000000000e+01 2.034433825187723244e+01
6.040000000000000568e+01 2.027690666931113483e+01
6.080000000000000426e+01 2.021014934033967947e+01
6.120000000000000284e+01 2.014405494857579981e+01
6.160000000000000142e+01 2.007861244222893049e+01
6.200000000000000000e+01 2.001381102621133579e+01
6.240000000000000568e+01 1.994964015453002304e+01
6.280000000000000426e+01 1.988608952295214749e+01
6.320000000000000284e+01 1.982314906193235515e+01
6.360000000000000142e+01 1.976080892979108583e+01
6.400000000000000000e+01 1.969905950613340195e+01
6.440000000000000568e+01 1.963789138549839564e+01
6.480000000000001137e+01 1.957729537122965979e+01
6.520000000000000284e+01 1.951726246955783495e+01
6.559999999999999432e+01 1.945778388388660574e+01
6.600000000000000000e+01 1.939885100927389772e+01
6.640000000000000568e+01 1.934124476739731335e+01
6.680000000000001137e+01 1.928443628210487759e+01
6.720000000000000284e+01 1.922812570395213783e+01
6.759999999999999432e+01 1.917230564223225997e+01
6.800000000000000000e+01 1.911696886077567115e+01
6.840000000000000568e+01 1.906210827378455974e+01
6.880000000000001137e+01 1.900771694180460258e+01
6.920000000000000284e+01 1.895378806782884951e+01
6.959999999999999432e+01 1.890031499352841848e+01
7.000000000000000000e+01 1.884729119560522292e+01
7.040000000000000568e+01 1.879471028226209484e+01
7.080000000000001137e+01 1.874256598978572441e+01
7.120000000000000284e+01 1.869085217923831621e+01
7.159999999999999432e+01 1.863956283325366314e+01
7.200000000000000000e+01 1.858869205293396831e+01
7.240000000000000568e+01 1.853823405484354581e+01
7.280000000000001137e+01 1.848818316809576601e+01
7.320000000000000284e+01 1.843853383153003023e+01
7.359999999999999432e+01 1.838928059097527878e+01
7.400000000000000000e+01 1.834041809659699140e+01
7.440000000000000568e+01 1.829194110032472054e+01
7.479999999999999716e+01 1.824384445335712002e+01
7.520000000000000284e+01 1.819612310374190756e+01
7.560000000000000853e+01 1.809395870649324678e+01
7.600000000000000000e+01 1.804813546329289409e+01
7.640000000000000568e+01 1.800266217165688687e+01
7.679999999999999716e+01 1.795753429437832338e+01
7.720000000000000284e+01 1.791249913823957485e+01
7.760000000000000853e+01 1.786508513538461429e+01
7.800000000000000000e+01 1.781803435145000236e+01
7.840000000000000568e+01 1.777134209064719528e+01
7.879999999999999716e+01 1.772500374266590484e+01
7.920000000000000284e+01 1.767901478066963250e+01
7.960000000000000853e+01 1.763337075934863662e+01
8.000000000000000000e+01 1.758806731302843218e+01
8.040000000000000568e+01 1.754310015383185828e+01
8.079999999999999716e+01 1.749846506989305794e+01
8.120000000000000284e+01 1.745415792362148011e+01
8.160000000000000853e+01 1.741017465001439390e+01
8.200000000000000000e+01 1.736651125501624904e+01
8.240000000000000568e+01 1.732316381392333682e+01
8.279999999999999716e+01 1.728012846983228457e+01
8.320000000000000284e+01 1.723740143213101561e+01
8.360000000000000853e+01 1.719497897503070050e+01
8.400000000000000000e+01 1.715285743613750213e+01
8.440000000000000568e+01 1.711103321506274000e+01
8.479999999999999716e+01 1.706852801873601777e+01
8.520000000000000284e+01 1.702596831471890226e+01
8.560000000000000853e+01 1.698371234167272803e+01
8.600000000000000000e+01 1.694175646230812049e+01
8.640000000000000568e+01 1.690009710027170087e+01
8.680000000000001137e+01 1.685873073883897177e+01
8.720000000000000284e+01 1.681765391964122358e+01
8.760000000000000853e+01 1.677686324142558050e+01
8.800000000000000000e+01 1.673635535884697134e+01
8.840000000000000568e+01 1.669612698129125761e+01
8.880000000000001137e+01 1.665617487172839617e+01
8.920000000000000284e+01 1.661649584559490123e+01
8.960000000000000853e+01 1.657708676970456807e+01
9.000000000000000000e+01 1.653794456118676948e+01
9.040000000000000568e+01 1.649906618645134415e+01
9.080000000000001137e+01 1.646044866017948749e+01
9.120000000000000284e+01 1.642208904433966410e+01
9.160000000000000853e+01 1.638398444722798430e+01
9.200000000000000000e+01 1.634613202253225239e+01
9.240000000000000568e+01 1.630852896841900446e+01
9.280000000000001137e+01 1.627117252664287150e+01
9.320000000000000284e+01 1.623405998167764253e+01
9.360000000000000853e+01 1.619718865986843781e+01
9.400000000000000000e+01 1.616055592860426060e+01
9.440000000000000568e+01 1.612415919551051147e+01
9.480000000000001137e+01 1.611530712672163901e+01
9.520000000000000284e+01 1.608043164598738883e+01
9.560000000000000853e+01 1.604577290306177062e+01
9.600000000000000000e+01 1.601132862560526604e+01
9.640000000000000568e+01 1.597709657482438494e+01
9.680000000000001137e+01 1.594307454483369213e+01
9.720000000000000284e+01 1.590926036203251392e+01
9.760000000000000853e+01 1.587565188449618248e+01
9.800000000000000000e+01 1.584224700138122799e+01
9.840000000000000568e+01 1.580904363234427379e+01
9.880000000000001137e+01 1.577603972697420431e+01
9.920000000000000284e+01 1.574323326423721170e+01
9.960000000000000853e+01 1.571062225193451312e+01
1.000000000000000000e+02 1.567820472617216510e+01
1.004000000000000057e+02 1.564597875084292689e+01
1.008000000000000114e+02 1.561394241711965059e+01
1.012000000000000028e+02 1.558209384295993694e+01
1.016000000000000085e+02 1.555043117262188801e+01
1.020000000000000000e+02 1.551895257619043278e+01
1.024000000000000057e+02 1.548765624911415628e+01
1.028000000000000114e+02 1.545654041175231619e+01
1.032000000000000028e+02 1.542560330893163112e+01
1.036000000000000085e+02 1.539484320951283536e+01
1.040000000000000000e+02 1.536425840596654524e+01
1.044000000000000057e+02 1.533384721395828620e+01
1.048000000000000114e+02 1.530360797194248335e+01
1.052000000000000028e+02 1.527350981760324089e+01
1.056000000000000085e+02 1.524352972189208622e+01
1.060000000000000000e+02 1.521371704817660486e+01
1.064000000000000057e+02 1.518407022219506786e+01
1.068000000000000114e+02 1.515458769052192700e+01
1.072000000000000028e+02 1.512526792021237299e+01
1.076000000000000085e+02 1.509610939845426358e+01
1.080000000000000000e+02 1.506711063222731894e+01
1.084000000000000057e+02 1.503827014796935302e+01
1.088000000000000114e+02 1.500958649124941857e+01
1.092000000000000028e+02 1.498105822644764373e+01
1.096000000000000085e+02 1.495268393644160021e+01
1.100000000000000000e+02 1.492446222229913744e+01
1.104000000000000057e+02 1.489639170297737891e+01
1.108000000000000114e+02 1.498244190105524609e+01
1.112000000000000028e+02 1.495702964997675011e+01
1.116000000000000085e+02 1.493174673164541844e+01
1.120000000000000000e+02 1.490659202749382573e+01
1.124000000000000057e+02 1.488156443261500073e+01
1.128000000000000114e+02 1.485666285554705190e+01
1.132000000000000028e+02 1.483188621806182184e+01
1.136000000000000085e+02 1.480723345495771603e+01
1.140000000000000000e+02 1.478270351385643622e+01
1.144000000000000057e+02 1.475829535500364287e+01
1.148000000000000114e+02 1.473400795107340500e+01
1.152000000000000028e+02 1.470984028697634827e+01
1.156000000000000085e+02 1.468579135967143223e+01
1.160000000000000000e+02 1.466186017798130692e+01
1.164000000000000057e+02 1.463984292089942230e+01
1.168000000000000114e+02 1.461621805204051405e+01
1.172000000000000028e+02 1.459270850566529276e+01
1.176000000000000085e+02 1.456931332533424595e+01
1.180000000000000000e+02 1.454603156579549683e+01
1.184000000000000057e+02 1.452286229281603980e+01
1.188000000000000114e+02 1.449980458301617503e+01
1.192000000000000028e+02 1.447685752370696122e+01
1.196000000000000085e+02 1.445402021273063298e+01
1.200000000000000000e+02 1.443129175830395994e+01
1.204000000000000057e+02 1.440867127886441779e+01
1.208000000000000114e+02 1.438615790291919438e+01
1.212000000000000028e+02 1.436375076889690305e+01
1.216000000000000085e+02 1.434144902500194085e+01
1.220000000000000000e+02 1.431925182907152383e+01
1.224000000000000057e+02 1.429715834843521449e+01
1.228000000000000114e+02 1.427516775977699481e+01
1.232000000000000028e+02 1.425327924899979237e+01
1.236000000000000085e+02 1.423149201109236728e+01
1.240000000000000000e+02 1.420980524999861316e+01
1.244000000000000057e+02 1.418821817848909994e+01
1.248000000000000114e+02 1.416673001803487963e+01
1.252000000000000028e+02 1.414533999868356240e+01
1.256000000000000085e+02 1.412404735893744601e+01
1.260000000000000000e+02 1.410285134563385867e+01
1.264000000000000057e+02 1.408175121382750916e+01
1.268000000000000114e+02 1.406074622667491525e+01
1.272000000000000028e+02 1.403983565532078259e+01
1.276000000000000085e+02 1.401901877878636427e+01
1.280000000000000000e+02 1.399827701800485613e+01
1.284000000000000057e+02 1.397762381362215578e+01
1.288000000000000114e+02 1.395706167507771767e+01
1.291999999999999886e+02 1.393658991946589509e+01
1.296000000000000227e+02 1.391620787111621205e+01
1.300000000000000000e+02 1.389591486149440414e+01
1.304000000000000057e+02 1.387571022910506002e+01
1.308000000000000114e+02 1.385559331939592909e+01
1.311999999999999886e+02 1.383556348466381181e+01
1.316000000000000227e+02 1.381562008396198138e+01
1.320000000000000000e+02 1.379576248300918451e+01
1.324000000000000057e+02 1.377599005410012545e+01
1.328000000000000114e+02 1.375630217601739602e+01
1.331999999999999886e+02 1.373669823394491907e+01
1.336000000000000227e+02 1.371717761938271529e+01
1.340000000000000000e+02 1.369773973006313028e+01
1.344000000000000057e+02 1.367838396986840799e+01
1.348000000000000114e+02 1.365910974874957340e+01
1.351999999999999886e+02 1.363991648264665280e+01
1.356000000000000227e+02 1.362080359341015523e+01
1.360000000000000000e+02 1.360177050872387738e+01
1.364000000000000057e+02 1.358281666202882576e+01
1.368000000000000114e+02 1.356394149244847291e+01
1.371999999999999886e+02 1.354514444471514167e+01
1.376000000000000227e+02 1.352642496909755820e+01
1.380000000000000000e+02 1.350778252132957746e+01
1.384000000000000057e+02 1.348921656254001533e+01
1.388000000000000114e+02 1.347072655918356965e+01
1.392000000000000171e+02 1.345231198297286923e+01
1.395999999999999943e+02 1.343397231081154075e+01
1.400000000000000000e+02 1.341142982576075937e+01
1.404000000000000057e+02 1.339345818948177325e+01
1.408000000000000114e+02 1.337555901850721973e+01
1.412000000000000171e+02 1.335773181596121439e+01
1.415999999999999943e+02 1.333997608978522820e+01
1.420000000000000000e+02 1.332229135267772335e+01
1.424000000000000057e+02 1.330467712203469333e+01
1.428000000000000114e+02 1.328713291989117096e+01
1.432000000000000171e+02 1.326965827286355193e+01
1.435999999999999943e+02 1.325225271209288280e+01
1.440000000000000000e+02 1.323491577318893775e+01
1.444000000000000057e+02 1.321726681906303114e+01
1.448000000000000114e+02 1.319953284491848677e+01
1.452000000000000171e+02 1.318186930242402255e+01
1.455999999999999943e+02 1.316427571716778111e+01
1.460000000000000000e+02 1.314675161925191915e+01
1.464000000000000057e+02 1.312929654323714956e+01
1.468000000000000114e+02 1.311191002808809891e+01
1.472000000000000171e+02 1.309459161711948738e+01
1.475999999999999943e+02 1.307734085794311696e+01
1.480000000000000000e+02 1.306015730241565365e+01
1.484000000000000057e+02 1.304304050658718950e+01
1.488000000000000114e+02 1.302599003065055783e+01
1.492000000000000171e+02 1.300900543889140160e+01
1.495999999999999943e+02 1.299208629963898431e+01
1.500000000000000000e+02 1.297523218521773281e+01
