1.000000000000000000e+01 1.672136696225249182e+02
1.040000000000000036e+01 2.090948722660864405e+02
1.080000000000000071e+01 2.411210026058263907e+02
1.119999999999999929e+01 2.561787842809035283e+02
1.159999999999999964e+01 2.791512631432497642e+02
1.200000000000000000e+01 3.283334634834282042e+02
1.240000000000000036e+01 3.527234746139304775e+02
1.280000000000000071e+01 3.571917964711967670e+02
1.319999999999999929e+01 3.567079615373436354e+02
1.359999999999999964e+01 3.491146458060733835e+02
1.400000000000000000e+01 3.420522742366696320e+02
1.440000000000000036e+01 3.354592044950857712e+02
1.480000000000000071e+01 3.292836018304155346e+02
1.519999999999999929e+01 3.234814871645186258e+02
1.560000000000000142e+01 3.180152458438093959e+02
1.600000000000000000e+01 3.128524725589579134e+02
1.639999999999999858e+01 3.079650655304841393e+02
1.680000000000000071e+01 3.033285081946885384e+02
1.719999999999999929e+01 2.989212937715511771e+02
1.760000000000000142e+01 2.947244600059658524e+02
1.800000000000000000e+01 2.907212097817397876e+02
1.839999999999999858e+01 2.868965993325403474e+02
1.880000000000000071e+01 2.832372801500381456e+02
1.920000000000000284e+01 2.797312839079301057e+02
1.960000000000000142e+01 2.763678421149694486e+02
2.000000000000000000e+01 2.731372340105882586e+02
2.039999999999999858e+01 2.700306575839606467e+02
2.080000000000000071e+01 2.670401196452353361e+02
2.120000000000000284e+01 2.641583416876872548e+02
2.160000000000000142e+01 2.613786789107384152e+02
2.200000000000000000e+01 2.586950502693633211e+02
2.239999999999999858e+01 2.561018778072367468e+02
2.280000000000000071e+01 2.535940338428752057e+02
2.320000000000000284e+01 2.511667948278458766e+02
2.360000000000000142e+01 2.488158008974112647e+02
2.400000000000000000e+01 2.465370202970858600e+02
2.439999999999999858e+01 2.443267180014489384e+02
2.480000000000000071e+01 2.421814279503443572e+02
2.520000000000000284e+01 2.400979284170940957e+02
2.560000000000000142e+01 2.380732200973174884e+02
2.600000000000000000e+01 2.361045065683437088e+02
2.640000000000000213e+01 2.341891768203811068e+02
2.680000000000000071e+01 2.323247896034325208e+02
2.719999999999999929e+01 2.305090593699207488e+02
2.760000000000000142e+01 2.287398436233209793e+02
2.800000000000000000e+01 2.270151315087563546e+02
2.840000000000000213e+01 2.253330335032961784e+02
2.880000000000000071e+01 2.236917720822498836e+02
2.920000000000000284e+01 2.220896732535923377e+02
2.960000000000000142e+01 2.205251588662376321e+02
3.000000000000000000e+01 2.189967396095420895e+02
3.040000000000000213e+01 2.175030086314684468e+02
3.080000000000000071e+01 2.160426357115291580e+02
3.120000000000000284e+01 2.146143619321429696e+02
3.160000000000000142e+01 2.132169947985727276e+02
3.200000000000000000e+01 2.118494037632915763e+02
3.240000000000000568e+01 2.105105161155843803e+02
3.279999999999999716e+01 2.091993132015238075e+02
3.320000000000000284e+01 2.079148269432564575e+02
3.360000000000000142e+01 2.066561366298703319e+02
3.400000000000000000e+01 2.054223659550455068e+02
3.440000000000000568e+01 2.042126802792769240e+02
3.479999999999999716e+01 2.030262840967384932e+02
3.520000000000000284e+01 2.018624186888806378e+02
3.560000000000000142e+01 2.007203599486423400e+02
3.600000000000000000e+01 1.995994163607471137e+02
3.640000000000000568e+01 1.984989271249685885e+02
3.679999999999999716e+01 1.974182604105099870e+02
3.720000000000000284e+01 1.963568117307627290e+02
3.760000000000000142e+01 1.953140024287200163e+02
3.800000000000000000e+01 1.942892782642118163e+02
3.840000000000000568e+01 1.932821080949408952e+02
3.879999999999999716e+01 1.922919826440174234e+02
3.920000000000000284e+01 1.913184133473412203e+02
3.960000000000000142e+01 1.903609312747670401e+02
4.000000000000000000e+01 1.894190861195129969e+02
4.040000000000000568e+01 1.884924452507497392e+02
4.079999999999999716e+01 1.875805928247366978e+02
4.120000000000000284e+01 1.866831289502615618e+02
4.160000000000000142e+01 1.857996689044904883e+02
4.200000000000000000e+01 1.849298423956561521e+02
4.239999999999999858e+01 1.840732928693003885e+02
4.280000000000000426e+01 1.832296768550528157e+02
4.320000000000000284e+01 1.823986633511641458e+02
4.360000000000000142e+01 1.815799332442339278e+02
4.400000000000000000e+01 1.807731787617691168e+02
4.439999999999999858e+01 1.799781029553938936e+02
4.480000000000000426e+01 1.791944192126939868e+02
4.520000000000000284e+01 1.784218507958341604e+02
4.560000000000000142e+01 1.776601304052231285e+02
4.600000000000000000e+01 1.769089997666293357e+02
4.639999999999999858e+01 1.761682092402677142e+02
4.680000000000000426e+01 1.754375174504828863e+02
4.720000000000000284e+01 1.747166909347551780e+02
4.760000000000000142e+01 1.740055038108439760e+02
4.800000000000000000e+01 1.733037374609676533e+02
4.840000000000000568e+01 1.726111802319958315e+02
4.880000000000000426e+01 1.719276271506985552e+02
4.920000000000000284e+01 1.712528796531654791e+02
4.960000000000000142e+01 1.705867453275650405e+02
5.000000000000000000e+01 1.699290376694709153e+02
5.040000000000000568e+01 1.692795758490344724e+02
5.080000000000000426e+01 1.686381844893282107e+02
5.120000000000000284e+01 1.680046934552307221e+02
5.160000000000000142e+01 1.673789376522636019e+02
5.200000000000000000e+01 1.667607568348284133e+02
5.240000000000000568e+01 1.661499954233273684e+02
5.280000000000000426e+01 1.655465023296839604e+02
5.320000000000000284e+01 1.649501307908095100e+02
5.360000000000000142e+01 1.643607382095901244e+02
5.400000000000000000e+01 1.637781860029948859e+02
5.440000000000000568e+01 1.632023394569292236e+02
5.480000000000000426e+01 1.626330675874829694e+02
5.520000000000000284e+01 1.620702430082390322e+02
5.560000000000000142e+01 1.615137418033340850e+02
5.600000000000000000e+01 1.609634434059757382e+02
5.640000000000000568e+01 1.604192304821410744e+02
5.680000000000000426e+01 1.598809888191969435e+02
5.720000000000000284e+01 1.593486072191958840e+02
5.760000000000000142e+01 1.588219773966177968e+02
5.800000000000000000e+01 1.583009938803382965e+02
5.840000000000000568e+01 1.577855539196191614e+02
5.880000000000000426e+01 1.572755573939260216e+02
5.920000000000000284e+01 1.567709067263899669e+02
5.960000000000000142e+01 1.562715068007399850e+02
6.000000000000000000e+01 1.557772648815420382e+02
6.040000000000000568e+01 1.552880905375903069e+02
6.080000000000000426e+01 1.548038955683035454e+02
6.120000000000000284e+01 1.543245939329875682e+02
6.160000000000000142e+01 1.538501016828332979e+02
6.200000000000000000e+01 1.533803368955250619e+02
6.240000000000000568e+01 1.529152196123411045e+02
6.280000000000000426e+01 1.524546717776353546e+02
6.320000000000000284e+01 1.519986171805931860e+02
6.360000000000000142e+01 1.515469813991612398e+02
6.400000000000000000e+01 1.510996917460557256e+02
6.440000000000000568e+01 1.506566772167579131e+02
6.480000000000001137e+01 1.502178684394113759e+02
6.520000000000000284e+01 1.497831976265385947e+02
6.559999999999999432e+01 1.493525985284992430e+02
6.600000000000000000e+01 1.489260063886164573e+02
6.640000000000000568e+01 1.485033578998998109e+02
6.680000000000001137e+01 1.480845911632992227e+02
6.720000000000000284e+01 1.476696456474249146e+02
6.759999999999999432e+01 1.472584621496739032e+02
6.800000000000000000e+01 1.468509827587036511e+02
6.840000000000000568e+01 1.464471508181995887e+02
6.880000000000001137e+01 1.460469108918825611e+02
6.920000000000000284e+01 1.456502087297069465e+02
6.959999999999999432e+01 1.452569912352013830e+02
7.000000000000000000e+01 1.448672064339070289e+02
7.040000000000000568e+01 1.444808034428690462e+02
7.080000000000001137e+01 1.440977324411408631e+02
7.120000000000000284e+01 1.437179446412610559e+02
7.159999999999999432e+01 1.433413922616649359e+02
7.200000000000000000e+01 1.429680284999951425e+02
7.240000000000000568e+01 1.425978075072765705e+02
7.280000000000001137e+01 1.422306843629224318e+02
7.320000000000000284e+01 1.418666150505401049e+02
7.359999999999999432e+01 1.415055564345068717e+02
7.400000000000000000e+01 1.411474662372858120e+02
7.440000000000000568e+01 1.407923030174554810e+02
7.479999999999999716e+01 1.404400261484258010e+02
7.520000000000000284e+01 1.400905957978156664e+02
7.560000000000000853e+01 1.397439729074674517e+02
7.600000000000000000e+01 1.394001191740757122e+02
7.640000000000000568e+01 1.390589970304075109e+02
7.679999999999999716e+01 1.387205696270931128e+02
7.720000000000000284e+01 1.383848008149666953e+02
7.760000000000000853e+01 1.380516551279376927e+02
7.800000000000000000e+01 1.377210977663731910e+02
7.840000000000000568e+01 1.373930945809746049e+02
7.879999999999999716e+01 1.370676120571300771e+02
7.920000000000000284e+01 1.367446172997270537e+02
7.960000000000000853e+01 1.364240780184083519e+02
8.000000000000000000e+01 1.361059625132568272e+02
8.040000000000000568e+01 1.357902396608938318e+02
8.079999999999999716e+01 1.354768789009774537e+02
8.120000000000000284e+01 1.351658502230867782e+02
8.160000000000000853e+01 1.348571241539793846e+02
8.200000000000000000e+01 1.345506717452094563e+02
8.240000000000000568e+01 1.342464645610943137e+02
8.279999999999999716e+01 1.339444746670181701e+02
8.320000000000000284e+01 1.336446746180614582e+02
8.360000000000000853e+01 1.333470374479456950e+02
8.400000000000000000e+01 1.330515366582828847e+02
8.440000000000000568e+01 1.327581462081199675e+02
8.479999999999999716e+01 1.324668405037685375e+02
8.520000000000000284e+01 1.321775943889111886e+02
8.560000000000000853e+01 1.318903831349747406e+02
8.600000000000000000e+01 1.316051824317623584e+02
8.640000000000000568e+01 1.313219683783365497e+02
8.680000000000001137e+01 1.310407174741447704e+02
8.720000000000000284e+01 1.307614066103799360e+02
8.760000000000000853e+01 1.304840130615689020e+02
8.800000000000000000e+01 1.302085144773815557e+02
8.840000000000000568e+01 1.299348888746535806e+02
8.880000000000001137e+01 1.296631146296166719e+02
8.920000000000000284e+01 1.293931704703296077e+02
8.960000000000000853e+01 1.291250354693038958e+02
9.000000000000000000e+01 1.288586890363184523e+02
9.040000000000000568e+01 1.285941109114174310e+02
9.080000000000001137e+01 1.283312811580855737e+02
9.120000000000000284e+01 1.280701801565959670e+02
9.160000000000000853e+01 1.278107885975248621e+02
9.200000000000000000e+01 1.275530874754289812e+02
9.240000000000000568e+01 1.272970580826798823e+02
9.280000000000001137e+01 1.270426820034514606e+02
9.320000000000000284e+01 1.267899411078556398e+02
9.360000000000000853e+01 1.265388175462220204e+02
9.400000000000000000e+01 1.262892937435176464e+02
9.440000000000000568e+01 1.260413523939022298e+02
9.480000000000001137e+01 1.257949764554155081e+02
9.520000000000000284e+01 1.255501491447927833e+02
9.560000000000000853e+01 1.253068539324046782e+02
9.600000000000000000e+01 1.250650745373182531e+02
9.640000000000000568e+01 1.248247949224751778e+02
9.680000000000001137e+01 1.245859992899847271e+02
9.720000000000000284e+01 1.243486720765273503e+02
9.760000000000000853e+01 1.241127979488664437e+02
9.800000000000000000e+01 1.238783617994649262e+02
9.840000000000000568e+01 1.236453487422041917e+02
9.880000000000001137e+01 1.234137441082019535e+02
9.920000000000000284e+01 1.231835334417268655e+02
9.960000000000000853e+01 1.229547024962068917e+02
1.000000000000000000e+02 1.227272372303293935e+02
1.004000000000000057e+02 1.225011238042295787e+02
1.008000000000000114e+02 1.222763485757659510e+02
1.012000000000000028e+02 1.220528980968796873e+02
1.016000000000000085e+02 1.218307591100359559e+02
1.020000000000000000e+02 1.216099185447451134e+02
1.024000000000000057e+02 1.213903635141615638e+02
1.028000000000000114e+02 1.211720813117580349e+02
1.032000000000000028e+02 1.209550594080736516e+02
1.036000000000000085e+02 1.207392854475337174e+02
1.040000000000000000e+02 1.205247472453391993e+02
1.044000000000000057e+02 1.203114327844242553e+02
1.048000000000000114e+02 1.200993302124803535e+02
1.052000000000000028e+02 1.198884278390443257e+02
1.056000000000000085e+02 1.196787141326498869e+02
1.060000000000000000e+02 1.194701777180402189e+02
1.064000000000000057e+02 1.192628073734403245e+02
1.068000000000000114e+02 1.190565920278875609e+02
1.072000000000000028e+02 1.188515207586191877e+02
1.076000000000000085e+02 1.186475827885148817e+02
1.080000000000000000e+02 1.184447674835934095e+02
1.084000000000000057e+02 1.182430643505620225e+02
1.088000000000000114e+02 1.180424630344169827e+02
1.092000000000000028e+02 1.178429533160940537e+02
1.096000000000000085e+02 1.176445251101680753e+02
1.100000000000000000e+02 1.174471684625999615e+02
1.104000000000000057e+02 1.172508735485301088e+02
1.108000000000000114e+02 1.170556306701171962e+02
1.112000000000000028e+02 1.168614302544212649e+02
1.116000000000000085e+02 1.166682628513297288e+02
1.120000000000000000e+02 1.164761191315257776e+02
1.124000000000000057e+02 1.162849898844976195e+02
1.128000000000000114e+02 1.160948660165880000e+02
1.132000000000000028e+02 1.159057385490828267e+02
1.136000000000000085e+02 1.157175986163380088e+02
1.140000000000000000e+02 1.155304374639437412e+02
1.144000000000000057e+02 1.153442464469249984e+02
1.148000000000000114e+02 1.151590170279779528e+02
1.152000000000000028e+02 1.149747407757407700e+02
1.156000000000000085e+02 1.147914093630988361e+02
1.160000000000000000e+02 1.146090145655226848e+02
1.164000000000000057e+02 1.144275482594385807e+02
1.168000000000000114e+02 1.142470024206307357e+02
1.172000000000000028e+02 1.140673691226743927e+02
1.176000000000000085e+02 1.138886405353992473e+02
1.180000000000000000e+02 1.137108089233821033e+02
1.184000000000000057e+02 1.135338666444689011e+02
1.188000000000000114e+02 1.133578061483244568e+02
1.192000000000000028e+02 1.131826199750100272e+02
1.196000000000000085e+02 1.130083007535878039e+02
1.200000000000000000e+02 1.128348412007516401e+02
1.204000000000000057e+02 1.126622341194838981e+02
1.208000000000000114e+02 1.124904723977368093e+02
1.212000000000000028e+02 1.123195490071393294e+02
1.216000000000000085e+02 1.121494570017273276e+02
1.220000000000000000e+02 1.119801895166976635e+02
1.224000000000000057e+02 1.118117397671855713e+02
1.228000000000000114e+02 1.116441010470638560e+02
1.232000000000000028e+02 1.114772667277649987e+02
1.236000000000000085e+02 1.113112302571241230e+02
1.240000000000000000e+02 1.111459851582435192e+02
1.244000000000000057e+02 1.109815250283775612e+02
1.248000000000000114e+02 1.108178435378380016e+02
1.252000000000000028e+02 1.106549344289188355e+02
1.256000000000000085e+02 1.104927915148408317e+02
1.260000000000000000e+02 1.103314086787146380e+02
1.264000000000000057e+02 1.101707798725225871e+02
1.268000000000000114e+02 1.100108991161188357e+02
1.272000000000000028e+02 1.098517604962468965e+02
1.276000000000000085e+02 1.096933581655748782e+02
1.280000000000000000e+02 1.095356863417475495e+02
1.284000000000000057e+02 1.093787393064552020e+02
1.288000000000000114e+02 1.092225114045187979e+02
1.291999999999999886e+02 1.090669970429910336e+02
1.296000000000000227e+02 1.089121906902731922e+02
1.300000000000000000e+02 1.087580868752472867e+02
1.304000000000000057e+02 1.086046801864231099e+02
1.308000000000000114e+02 1.084519652711001072e+02
1.311999999999999886e+02 1.082999368345437574e+02
1.316000000000000227e+02 1.081485896391758388e+02
1.320000000000000000e+02 1.079979185037787204e+02
1.324000000000000057e+02 1.078479183027131256e+02
1.328000000000000114e+02 1.076985839651491403e+02
1.331999999999999886e+02 1.075499104743104226e+02
1.336000000000000227e+02 1.074018928667308614e+02
1.340000000000000000e+02 1.072545262315241246e+02
1.344000000000000057e+02 1.071078057096650298e+02
1.348000000000000114e+02 1.069617264932832654e+02
1.351999999999999886e+02 1.068162838249688065e+02
1.356000000000000227e+02 1.066714729970886708e+02
1.360000000000000000e+02 1.065272893511153143e+02
1.364000000000000057e+02 1.063837282769658259e+02
1.368000000000000114e+02 1.062407852123521792e+02
1.371999999999999886e+02 1.060984556421420848e+02
1.376000000000000227e+02 1.059567350977303306e+02
1.380000000000000000e+02 1.058156191564203397e+02
1.384000000000000057e+02 1.056751034408157039e+02
1.388000000000000114e+02 1.055351836182219074e+02
1.392000000000000171e+02 1.053958554000572718e+02
1.395999999999999943e+02 1.052571145412738360e+02
1.400000000000000000e+02 1.051189568397869891e+02
1.404000000000000057e+02 1.049813781359150084e+02
1.408000000000000114e+02 1.048443743118268401e+02
1.412000000000000171e+02 1.047079412909990737e+02
1.415999999999999943e+02 1.045720750376813015e+02
1.420000000000000000e+02 1.044367715563701893e+02
1.424000000000000057e+02 1.043020268912917459e+02
1.428000000000000114e+02 1.041678371258916229e+02
1.432000000000000171e+02 1.040341983823335426e+02
1.435999999999999943e+02 1.039011068210056550e+02
1.440000000000000000e+02 1.037685586400343709e+02
1.444000000000000057e+02 1.036365500748058821e+02
1.448000000000000114e+02 1.035050773974952563e+02
1.452000000000000171e+02 1.033741369166025095e+02
1.455999999999999943e+02 1.032437249764959830e+02
1.460000000000000000e+02 1.031138379569629819e+02
1.464000000000000057e+02 1.029844722727667659e+02
1.468000000000000114e+02 1.028556243732108726e+02
1.472000000000000171e+02 1.027272907417098224e+02
1.475999999999999943e+02 1.025994678953661463e+02
1.480000000000000000e+02 1.024721523845543203e+02
1.484000000000000057e+02 1.023453407925106120e+02
1.488000000000000114e+02 1.022190297349292791e+02
1.492000000000000171e+02 1.020932158595647508e+02
1.495999999999999943e+02 1.019678958458397915e+02
1.500000000000000000e+02 1.018430664044596625e+02
