1.000000000000000000e+01 1.247245107528146377e+02
1.040000000000000036e+01 1.360054014625838477e+02
1.080000000000000071e+01 1.364476052905254733e+02
1.119999999999999929e+01 1.381819232414259488e+02
1.159999999999999964e+01 1.441407554962133304e+02
1.200000000000000000e+01 1.457542483387373977e+02
1.240000000000000036e+01 1.404395578796371638e+02
1.280000000000000071e+01 1.357095600856701196e+02
1.319999999999999929e+01 1.315179283545402029e+02
1.359999999999999964e+01 1.279628156872417577e+02
1.400000000000000000e+01 1.247174143984907602e+02
1.440000000000000036e+01 1.217376382188661097e+02
1.480000000000000071e+01 1.189879975376341577e+02
1.519999999999999929e+01 1.165572349405369721e+02
1.560000000000000142e+01 1.144042337938769833e+02
1.600000000000000000e+01 1.123945478181793618e+02
1.639999999999999858e+01 1.105125822453418323e+02
1.680000000000000071e+01 1.087774315466281507e+02
1.719999999999999929e+01 1.045585627720598154e+02
1.760000000000000142e+01 1.028848746935521348e+02
1.800000000000000000e+01 1.013017219522058099e+02
1.839999999999999858e+01 9.980100022844048624e+01
1.880000000000000071e+01 9.837560480820248188e+01
1.920000000000000284e+01 9.701927495399436907e+01
1.960000000000000142e+01 9.572646729527821208e+01
2.000000000000000000e+01 9.449225198155841099e+01
2.039999999999999858e+01 9.331222686246704257e+01
2.080000000000000071e+01 9.218244607103801513e+01
2.120000000000000284e+01 9.109936020909745480e+01
2.160000000000000142e+01 8.600123227072199938e+01
2.200000000000000000e+01 8.498251186324498008e+01
2.239999999999999858e+01 8.400186557222596662e+01
2.280000000000000071e+01 8.305692116587216844e+01
2.320000000000000284e+01 8.138420826786462214e+01
2.360000000000000142e+01 8.053160787858269032e+01
2.400000000000000000e+01 7.970730397418086000e+01
2.439999999999999858e+01 7.890973044304911355e+01
2.480000000000000071e+01 7.813744146015797298e+01
2.520000000000000284e+01 7.738909973948081245e+01
2.560000000000000142e+01 7.666346617183765488e+01
2.600000000000000000e+01 7.224921234449159613e+01
2.640000000000000213e+01 7.151749146346958241e+01
2.680000000000000071e+01 7.080688502561271491e+01
2.719999999999999929e+01 7.011638483912280151e+01
2.760000000000000142e+01 6.944504949584427322e+01
2.800000000000000000e+01 6.879199874163010975e+01
2.840000000000000213e+01 6.815640842037291236e+01
2.880000000000000071e+01 6.753750592341216930e+01
2.920000000000000284e+01 6.693456608529562857e+01
2.960000000000000142e+01 6.633139691516646508e+01
3.000000000000000000e+01 6.571790392147148907e+01
3.040000000000000213e+01 6.511988262316268106e+01
3.080000000000000071e+01 6.453669122785406387e+01
3.120000000000000284e+01 6.396772473407183668e+01
3.160000000000000142e+01 6.341241225508063906e+01
3.200000000000000000e+01 6.287021457755226095e+01
3.240000000000000568e+01 6.197333759683778709e+01
3.279999999999999716e+01 6.147930753167733542e+01
3.320000000000000284e+01 6.099625047268933997e+01
3.360000000000000142e+01 6.052376456684093142e+01
3.400000000000000000e+01 6.006146833522837625e+01
3.440000000000000568e+01 5.960899935997070997e+01
3.479999999999999716e+01 5.916601307338305560e+01
3.520000000000000284e+01 5.873218164011886699e+01
3.560000000000000142e+01 5.830719292393660425e+01
3.600000000000000000e+01 5.789074953160179859e+01
3.640000000000000568e+01 5.748256792719180197e+01
3.679999999999999716e+01 5.708237761074144601e+01
3.720000000000000284e+01 5.668254606142494367e+01
3.760000000000000142e+01 5.628866234915267341e+01
3.800000000000000000e+01 5.590219431026602592e+01
3.840000000000000568e+01 5.552291177135553113e+01
3.879999999999999716e+01 5.538484827435846114e+01
3.920000000000000284e+01 5.502826199385450678e+01
3.960000000000000142e+01 5.467801495987301053e+01
4.000000000000000000e+01 5.433392098802855941e+01
4.040000000000000568e+01 5.399580148652453460e+01
4.079999999999999716e+01 5.366348506150474407e+01
4.120000000000000284e+01 5.333680714725657879e+01
4.160000000000000142e+01 5.300937899475430015e+01
4.200000000000000000e+01 5.268292329989751011e+01
4.239999999999999858e+01 5.236192998204469973e+01
4.280000000000000426e+01 5.204624812660934197e+01
4.320000000000000284e+01 5.197348595036058327e+01
4.360000000000000142e+01 5.169005276683961370e+01
4.400000000000000000e+01 5.141098579487898235e+01
4.439999999999999858e+01 5.113617345161675587e+01
4.480000000000000426e+01 5.086550812568042801e+01
4.520000000000000284e+01 5.059888599658678743e+01
4.560000000000000142e+01 5.033620686410995404e+01
4.600000000000000000e+01 5.007737398697173603e+01
4.639999999999999858e+01 4.982229393025754405e+01
4.680000000000000426e+01 4.957087642100312763e+01
4.720000000000000284e+01 4.932303421143950573e+01
4.760000000000000142e+01 4.907868294941906129e+01
4.800000000000000000e+01 4.883738610319520035e+01
4.840000000000000568e+01 4.859862287392673608e+01
4.880000000000000426e+01 4.836312298526362241e+01
4.920000000000000284e+01 4.813081245932087171e+01
4.960000000000000142e+01 4.790161965545146927e+01
5.000000000000000000e+01 4.767547517582421079e+01
5.040000000000000568e+01 4.745231177563546510e+01
5.080000000000000426e+01 4.723206427768788984e+01
5.120000000000000284e+01 4.701466949108670690e+01
5.160000000000000142e+01 4.680006613382045799e+01
5.200000000000000000e+01 4.658819475900813245e+01
5.240000000000000568e+01 4.640286955393814594e+01
5.280000000000000426e+01 4.620964918731834814e+01
5.320000000000000284e+01 4.601875894804094713e+01
5.360000000000000142e+01 4.583015205094187650e+01
5.400000000000000000e+01 4.564378302129820497e+01
5.440000000000000568e+01 4.567386782529257516e+01
5.480000000000000426e+01 4.549803819040670305e+01
5.520000000000000284e+01 4.532420570891135014e+01
5.560000000000000142e+01 4.515233259095197127e+01
5.600000000000000000e+01 4.498238204332931645e+01
5.640000000000000568e+01 4.481431823589981889e+01
5.680000000000000426e+01 4.464410593738671906e+01
5.720000000000000284e+01 4.447364793015727003e+01
5.760000000000000142e+01 4.430508681684462857e+01
5.800000000000000000e+01 4.413838743055840297e+01
5.840000000000000568e+01 4.397351551410062598e+01
5.880000000000000426e+01 4.381043768984553566e+01
5.920000000000000284e+01 4.362021903113424059e+01
5.960000000000000142e+01 4.346411710257952166e+01
6.000000000000000000e+01 4.330966559795960080e+01
6.040000000000000568e+01 4.315683538855606827e+01
6.080000000000000426e+01 4.300559806372215377e+01
6.120000000000000284e+01 4.285592590820581904e+01
6.160000000000000142e+01 4.270779188034448026e+01
6.200000000000000000e+01 4.256116959109228048e+01
6.240000000000000568e+01 4.241603328384213256e+01
6.280000000000000426e+01 4.227235781500744594e+01
6.320000000000000284e+01 4.213011863532956625e+01
6.360000000000000142e+01 4.198929177187918071e+01
6.400000000000000000e+01 4.184985381072134913e+01
6.440000000000000568e+01 4.171178188021522715e+01
6.480000000000001137e+01 4.157505363492132489e+01
6.520000000000000284e+01 4.143964724009018141e+01
6.559999999999999432e+01 4.130554135670763571e+01
6.600000000000000000e+01 4.117271512707341685e+01
6.640000000000000568e+01 4.104114816089045803e+01
6.680000000000001137e+01 4.091082052184368223e+01
6.720000000000000284e+01 4.078095923201935591e+01
6.759999999999999432e+01 4.065224232721531195e+01
6.800000000000000000e+01 4.052175644491498474e+01
6.840000000000000568e+01 4.039109496013330158e+01
6.880000000000001137e+01 4.026165182266328912e+01
6.920000000000000284e+01 4.013340810370706180e+01
6.959999999999999432e+01 4.000634528517485933e+01
7.000000000000000000e+01 3.988044524827042636e+01
7.040000000000000568e+01 3.975488342363854599e+01
7.080000000000001137e+01 3.962955721766952877e+01
7.120000000000000284e+01 3.950536449951097495e+01
7.159999999999999432e+01 3.938228820760941318e+01
7.200000000000000000e+01 3.926031163886062814e+01
7.240000000000000568e+01 3.913941843896816408e+01
7.280000000000001137e+01 3.901959259311703931e+01
7.320000000000000284e+01 3.890081841695104004e+01
7.359999999999999432e+01 3.878308054784167069e+01
7.400000000000000000e+01 3.866636393643769765e+01
7.440000000000000568e+01 3.855065383848484117e+01
7.479999999999999716e+01 3.843593580690534139e+01
7.520000000000000284e+01 3.832219568412755706e+01
7.560000000000000853e+01 3.820941959465666571e+01
7.600000000000000000e+01 3.831110826787050883e+01
7.640000000000000568e+01 3.820266319149472878e+01
7.679999999999999716e+01 3.809511424184061212e+01
7.720000000000000284e+01 3.798844904431908986e+01
7.760000000000000853e+01 3.788265546351193791e+01
7.800000000000000000e+01 3.777772159723972578e+01
7.840000000000000568e+01 3.767363577080899972e+01
7.879999999999999716e+01 3.757038653143249007e+01
7.920000000000000284e+01 3.746796264281618960e+01
7.960000000000000853e+01 3.736635307990729160e+01
8.000000000000000000e+01 3.726554702379751660e+01
8.040000000000000568e+01 3.716553385677629251e+01
8.079999999999999716e+01 3.706630315752868654e+01
8.120000000000000284e+01 3.696784469647300853e+01
8.160000000000000853e+01 3.687014843123347418e+01
8.200000000000000000e+01 3.677320450224294746e+01
8.240000000000000568e+01 3.667313068806569021e+01
8.279999999999999716e+01 3.657919928410905186e+01
8.320000000000000284e+01 3.648597637627045742e+01
8.360000000000000853e+01 3.639345301699463420e+01
8.400000000000000000e+01 3.633622441108813916e+01
8.440000000000000568e+01 3.624667022688521456e+01
8.479999999999999716e+01 3.615777159221952530e+01
8.520000000000000284e+01 3.606952046030152559e+01
8.560000000000000853e+01 3.598190892289767362e+01
8.600000000000000000e+01 3.589492920726269176e+01
8.640000000000000568e+01 3.580857367315466888e+01
8.680000000000001137e+01 3.572283480993065297e+01
8.720000000000000284e+01 3.563770523371977816e+01
8.760000000000000853e+01 3.555317768467188699e+01
8.800000000000000000e+01 3.546924502427895476e+01
8.840000000000000568e+01 3.538590023276723429e+01
8.880000000000001137e+01 3.546491987278476188e+01
8.920000000000000284e+01 3.538487918013359490e+01
8.960000000000000853e+01 3.530538366385279403e+01
9.000000000000000000e+01 3.522642707797553641e+01
9.040000000000000568e+01 3.514800327706127803e+01
9.080000000000001137e+01 3.507010621411306772e+01
9.120000000000000284e+01 3.499272993854739866e+01
9.160000000000000853e+01 3.491586859421538946e+01
9.200000000000000000e+01 3.483951641747356831e+01
9.240000000000000568e+01 3.476366773530284604e+01
9.280000000000001137e+01 3.468831696347429272e+01
9.320000000000000284e+01 3.461345860476021841e+01
9.360000000000000853e+01 3.453908724718942835e+01
9.400000000000000000e+01 3.446519756234516763e+01
9.440000000000000568e+01 3.439178430370468220e+01
9.480000000000001137e+01 3.431884230501902522e+01
9.520000000000000284e+01 3.424636647873216333e+01
9.560000000000000853e+01 3.417440123587400791e+01
9.600000000000000000e+01 3.410289845375955053e+01
9.640000000000000568e+01 3.403184385150242974e+01
9.680000000000001137e+01 3.396123271527591214e+01
9.720000000000000284e+01 3.389106040077150084e+01
9.760000000000000853e+01 3.382099728094532054e+01
9.800000000000000000e+01 3.375117280037731859e+01
9.840000000000000568e+01 3.368131431371180895e+01
9.880000000000001137e+01 3.361188601386782437e+01
9.920000000000000284e+01 3.354288346060513248e+01
9.960000000000000853e+01 3.347430227791003432e+01
1.000000000000000000e+02 3.340613815280216414e+01
1.004000000000000057e+02 3.333838683416837512e+01
1.008000000000000114e+02 3.327104413162291507e+01
1.012000000000000028e+02 3.320410591439327419e+01
1.016000000000000085e+02 3.313756811023083770e+01
1.020000000000000000e+02 3.307142670434598131e+01
1.024000000000000057e+02 3.300567773836674945e+01
1.028000000000000114e+02 3.294031730932047708e+01
1.032000000000000028e+02 3.287534156863797108e+01
1.036000000000000085e+02 3.281074672117940594e+01
1.040000000000000000e+02 3.274652902428161383e+01
1.044000000000000057e+02 3.268268478682599465e+01
1.048000000000000114e+02 3.261921036832669074e+01
1.052000000000000028e+02 3.255610217803841522e+01
1.056000000000000085e+02 3.249335667408349337e+01
1.060000000000000000e+02 3.243097036259750610e+01
1.064000000000000057e+02 3.236893979689330791e+01
1.068000000000000114e+02 3.230726157664263098e+01
1.072000000000000028e+02 3.224593234707514000e+01
1.076000000000000085e+02 3.218494879819431986e+01
1.080000000000000000e+02 3.212430766400984083e+01
1.084000000000000057e+02 3.206400572178596065e+01
1.088000000000000114e+02 3.200403979130559406e+01
1.092000000000000028e+02 3.194440673414974086e+01
1.096000000000000085e+02 3.188505563049668368e+01
1.100000000000000000e+02 3.182601617373658343e+01
1.104000000000000057e+02 3.176729976252498489e+01
1.108000000000000114e+02 3.170890343758251362e+01
1.112000000000000028e+02 3.165082427760076200e+01
1.116000000000000085e+02 3.159305939861691215e+01
1.120000000000000000e+02 3.153560595340084660e+01
1.124000000000000057e+02 3.147846113085449105e+01
1.128000000000000114e+02 3.142162215542321846e+01
1.132000000000000028e+02 3.137553452049259306e+01
1.136000000000000085e+02 3.131954840640408833e+01
1.140000000000000000e+02 3.126385817819843993e+01
1.144000000000000057e+02 3.120846121614384217e+01
1.148000000000000114e+02 3.115335493301513381e+01
1.152000000000000028e+02 3.109853677357565971e+01
1.156000000000000085e+02 3.104400421406932153e+01
1.160000000000000000e+02 3.098975476172246246e+01
1.164000000000000057e+02 3.095397732038384575e+01
1.168000000000000114e+02 3.090088151669700522e+01
1.172000000000000028e+02 3.084805714650910957e+01
1.176000000000000085e+02 3.079550188216635220e+01
1.180000000000000000e+02 3.074321342401050927e+01
1.184000000000000057e+02 3.069118949994629020e+01
1.188000000000000114e+02 3.061779910550874106e+01
1.192000000000000028e+02 3.056680390032287420e+01
1.196000000000000085e+02 3.051606383395292355e+01
1.200000000000000000e+02 3.046557676031108031e+01
1.204000000000000057e+02 3.041534055866582875e+01
1.208000000000000114e+02 3.036535313325642704e+01
1.212000000000000028e+02 3.031561241291449704e+01
1.216000000000000085e+02 3.026611635069270534e+01
1.220000000000000000e+02 3.021686292350027259e+01
1.224000000000000057e+02 3.016785013174512642e+01
1.228000000000000114e+02 3.011907599898271215e+01
1.232000000000000028e+02 3.007053857157110599e+01
1.236000000000000085e+02 3.002223591833254446e+01
1.240000000000000000e+02 2.997416613022090814e+01
1.244000000000000057e+02 2.992632731999545115e+01
1.248000000000000114e+02 2.987871762190016867e+01
1.252000000000000028e+02 2.983133519134911182e+01
1.256000000000000085e+02 2.978417820461726251e+01
1.260000000000000000e+02 2.973724485853686161e+01
1.264000000000000057e+02 2.969053337019926175e+01
1.268000000000000114e+02 2.964404197666203089e+01
1.272000000000000028e+02 2.959776893466110792e+01
1.276000000000000085e+02 2.955171252032820917e+01
1.280000000000000000e+02 2.950587102891307723e+01
1.284000000000000057e+02 2.946024277451062545e+01
1.288000000000000114e+02 2.941481352363263468e+01
1.291999999999999886e+02 2.936958540352669189e+01
1.296000000000000227e+02 2.932456553658882470e+01
1.300000000000000000e+02 2.927975231152991142e+01
1.304000000000000057e+02 2.923514413456925709e+01
1.308000000000000114e+02 2.919073942918987541e+01
1.311999999999999886e+02 2.914653663589788835e+01
1.316000000000000227e+02 2.910253421198595447e+01
1.320000000000000000e+02 2.905873063130086820e+01
1.324000000000000057e+02 2.901512438401492133e+01
1.328000000000000114e+02 2.897171397640122947e+01
1.331999999999999886e+02 2.892849793061282426e+01
1.336000000000000227e+02 2.888547478446539785e+01
1.340000000000000000e+02 2.884264309122373859e+01
1.344000000000000057e+02 2.878769648775558210e+01
1.348000000000000114e+02 2.874566029898716124e+01
1.351999999999999886e+02 2.870369249429241520e+01
1.356000000000000227e+02 2.866190165720069061e+01
1.360000000000000000e+02 2.862029361442517228e+01
1.364000000000000057e+02 2.857886702112519117e+01
1.368000000000000114e+02 2.853762054636451495e+01
1.371999999999999886e+02 2.849655287292631911e+01
1.376000000000000227e+02 2.845566269713108909e+01
1.380000000000000000e+02 2.841494872865749244e+01
1.384000000000000057e+02 2.837440969036625305e+01
1.388000000000000114e+02 2.833404431812668633e+01
1.392000000000000171e+02 2.829385136064618322e+01
1.395999999999999943e+02 2.825382957930234795e+01
1.400000000000000000e+02 2.821397774797779334e+01
1.404000000000000057e+02 2.817429465289766455e+01
1.408000000000000114e+02 2.813477909246966746e+01
1.412000000000000171e+02 2.809542987712663731e+01
1.415999999999999943e+02 2.805624582917162613e+01
1.420000000000000000e+02 2.801722578262540608e+01
1.424000000000000057e+02 2.797822916030891349e+01
1.428000000000000114e+02 2.793923199525520928e+01
1.432000000000000171e+02 2.790039736323002728e+01
1.435999999999999943e+02 2.786172412565188949e+01
1.440000000000000000e+02 2.782321115514632126e+01
1.444000000000000057e+02 2.778485733540381375e+01
1.448000000000000114e+02 2.774666156104006021e+01
1.452000000000000171e+02 2.770862273745829185e+01
1.455999999999999943e+02 2.767073978071377027e+01
1.460000000000000000e+02 2.763301161738032263e+01
1.464000000000000057e+02 2.759471077893677560e+01
1.468000000000000114e+02 2.755735178629677051e+01
1.472000000000000171e+02 2.752014429763644188e+01
1.475999999999999943e+02 2.748308727975605237e+01
1.480000000000000000e+02 2.744617970935980011e+01
1.484000000000000057e+02 2.740942057293357337e+01
1.488000000000000114e+02 2.737280886662451707e+01
1.492000000000000171e+02 2.733634359612249654e+01
1.495999999999999943e+02 2.730002377654323453e+01
1.500000000000000000e+02 2.726384843231324595e+01
