1.000000000000000000e+01 2.467552504777688682e+02
1.040000000000000036e+01 2.638622589217295626e+02
1.080000000000000071e+01 2.876780961399831540e+02
1.119999999999999929e+01 3.270494426771676899e+02
1.159999999999999964e+01 3.982793988588878733e+02
1.200000000000000000e+01 4.314860130382919010e+02
1.240000000000000036e+01 4.756442750266478470e+02
1.280000000000000071e+01 4.998486948562683096e+02
1.319999999999999929e+01 5.087961128772198549e+02
1.359999999999999964e+01 5.205090442087575866e+02
1.400000000000000000e+01 5.408838193729693558e+02
1.440000000000000036e+01 5.743858690732985224e+02
1.480000000000000071e+01 5.625026809233871745e+02
1.519999999999999929e+01 5.514393348194221289e+02
1.560000000000000142e+01 5.411003346147836055e+02
1.600000000000000000e+01 5.314056230533667531e+02
1.639999999999999858e+01 5.222874304741100104e+02
1.680000000000000071e+01 5.136878912755581723e+02
1.719999999999999929e+01 5.055572130014513732e+02
1.760000000000000142e+01 4.978522504544852723e+02
1.800000000000000000e+01 4.905353814849294736e+02
1.839999999999999858e+01 4.835736107425482828e+02
1.880000000000000071e+01 4.769378479493606733e+02
1.920000000000000284e+01 4.706023213667394884e+02
1.960000000000000142e+01 4.645440971252094187e+02
2.000000000000000000e+01 4.587426822694169459e+02
2.039999999999999858e+01 4.531796946059821494e+02
2.080000000000000071e+01 4.478385863053128446e+02
2.120000000000000284e+01 4.427044110926834151e+02
2.160000000000000142e+01 4.377636270402799710e+02
2.200000000000000000e+01 4.330039286305561177e+02
2.239999999999999858e+01 4.284141030369953000e+02
2.280000000000000071e+01 4.239839065580869146e+02
2.320000000000000284e+01 4.197039579143080914e+02
2.360000000000000142e+01 4.155656457277332834e+02
2.400000000000000000e+01 4.115610479877965417e+02
2.439999999999999858e+01 4.076828616932510272e+02
2.480000000000000071e+01 4.039243411710352802e+02
2.520000000000000284e+01 4.002792438239432613e+02
2.560000000000000142e+01 3.967417822632052662e+02
2.600000000000000000e+01 3.933065819490004742e+02
2.640000000000000213e+01 3.899686435990290079e+02
2.680000000000000071e+01 3.867233097384275311e+02
2.719999999999999929e+01 3.835662348581289507e+02
2.760000000000000142e+01 3.804933587268907900e+02
2.800000000000000000e+01 3.775008824675198866e+02
2.840000000000000213e+01 3.745852470626533659e+02
2.880000000000000071e+01 3.717431140016356039e+02
2.920000000000000284e+01 3.689713478190898854e+02
2.960000000000000142e+01 3.662670003089177158e+02
3.000000000000000000e+01 3.636272962256652477e+02
3.040000000000000213e+01 3.610496203092819201e+02
3.080000000000000071e+01 3.585315054899330676e+02
3.120000000000000284e+01 3.560706221472436255e+02
3.160000000000000142e+01 3.536647683136238811e+02
3.200000000000000000e+01 3.513118607245143039e+02
3.240000000000000568e+01 3.490099266298061593e+02
3.279999999999999716e+01 3.467570962906143563e+02
3.320000000000000284e+01 3.445515960942037168e+02
3.360000000000000142e+01 3.423917422274041087e+02
3.400000000000000000e+01 3.402759348554282042e+02
3.440000000000000568e+01 3.382026527587736382e+02
3.479999999999999716e+01 3.361704483859588777e+02
3.520000000000000284e+01 3.341779432842936330e+02
3.560000000000000142e+01 3.322238238748174126e+02
3.600000000000000000e+01 3.303068375410074395e+02
3.640000000000000568e+01 3.284257890039296512e+02
3.679999999999999716e+01 3.265795369592282213e+02
3.720000000000000284e+01 3.247669909537672766e+02
3.760000000000000142e+01 3.229871084818910276e+02
3.800000000000000000e+01 3.212388922831817126e+02
3.840000000000000568e+01 3.195213878253103985e+02
3.879999999999999716e+01 3.178336809571009667e+02
3.920000000000000284e+01 3.161748957182983304e+02
3.960000000000000142e+01 3.145441922937603181e+02
4.000000000000000000e+01 3.129407651008929747e+02
4.040000000000000568e+01 3.113638410001407237e+02
4.079999999999999716e+01 3.098126776192368084e+02
4.120000000000000284e+01 3.082865617827197866e+02
4.160000000000000142e+01 3.067848080389528036e+02
4.200000000000000000e+01 3.053067572775346434e+02
4.239999999999999858e+01 3.038517754305879635e+02
4.280000000000000426e+01 3.024192522519473414e+02
4.320000000000000284e+01 3.010086001687569137e+02
4.360000000000000142e+01 2.996192532004332065e+02
4.400000000000000000e+01 2.982506659403492222e+02
4.439999999999999858e+01 2.969023125959638492e+02
4.480000000000000426e+01 2.955736860834547883e+02
4.520000000000000284e+01 2.942642971732171873e+02
4.560000000000000142e+01 2.929736736828710377e+02
4.600000000000000000e+01 2.917013597146692518e+02
4.639999999999999858e+01 2.904469149344388370e+02
4.680000000000000426e+01 2.892099138893918280e+02
4.720000000000000284e+01 2.879899453623468162e+02
4.760000000000000142e+01 2.867866117600713096e+02
4.800000000000000000e+01 2.855995285336304619e+02
4.840000000000000568e+01 2.844283236287674868e+02
4.880000000000000426e+01 2.832726369644904594e+02
4.920000000000000284e+01 2.821321199381598035e+02
4.960000000000000142e+01 2.810064349554945125e+02
5.000000000000000000e+01 2.798952549840198571e+02
5.040000000000000568e+01 2.787982631285823345e+02
5.080000000000000426e+01 2.777151522276487299e+02
5.120000000000000284e+01 2.766456244691913184e+02
5.160000000000000142e+01 2.755893910250429144e+02
5.200000000000000000e+01 2.745461717026753377e+02
5.240000000000000568e+01 2.735156946134247278e+02
5.280000000000000426e+01 2.724976958562502887e+02
5.320000000000000284e+01 2.714919192161698902e+02
5.360000000000000142e+01 2.704981158765716032e+02
5.400000000000000000e+01 2.695160441446491291e+02
5.440000000000000568e+01 2.685454691892565506e+02
5.480000000000000426e+01 2.675861627905221098e+02
5.520000000000000284e+01 2.666379031005984643e+02
5.560000000000000142e+01 2.657004744149683120e+02
5.600000000000000000e+01 2.647736669537558214e+02
5.640000000000000568e+01 2.638572766525283555e+02
5.680000000000000426e+01 2.629511049621053189e+02
5.720000000000000284e+01 2.620549586569151757e+02
5.760000000000000142e+01 2.611686496514733449e+02
5.800000000000000000e+01 2.602919948245728392e+02
5.840000000000000568e+01 2.594248158508096935e+02
5.880000000000000426e+01 2.585669390390792159e+02
5.920000000000000284e+01 2.577181951777054110e+02
5.960000000000000142e+01 2.568784193858829781e+02
6.000000000000000000e+01 2.560474509711270912e+02
6.040000000000000568e+01 2.552251332924467988e+02
6.080000000000000426e+01 2.544113136289701060e+02
6.120000000000000284e+01 2.536058430537650850e+02
6.160000000000000142e+01 2.528085763126157417e+02
6.200000000000000000e+01 2.520193717075220547e+02
6.240000000000000568e+01 2.512380909847084922e+02
6.280000000000000426e+01 2.504645992269352917e+02
6.320000000000000284e+01 2.496987647499168474e+02
6.360000000000000142e+01 2.489404590026639710e+02
6.400000000000000000e+01 2.481895564715738089e+02
6.440000000000000568e+01 2.474459345881022045e+02
6.480000000000001137e+01 2.467094736398598798e+02
6.520000000000000284e+01 2.459800566849839925e+02
6.559999999999999432e+01 2.452575694696417372e+02
6.600000000000000000e+01 2.445419003485321809e+02
6.640000000000000568e+01 2.438329402082563888e+02
6.680000000000001137e+01 2.431305823934356170e+02
6.720000000000000284e+01 2.424347226354598774e+02
6.759999999999999432e+01 2.417452589837578500e+02
6.800000000000000000e+01 2.410620917394816729e+02
6.840000000000000568e+01 2.403851233915078467e+02
6.880000000000001137e+01 2.397142585546578744e+02
6.920000000000000284e+01 2.390494039100487669e+02
6.959999999999999432e+01 2.383904681474859615e+02
7.000000000000000000e+01 2.377373619098171389e+02
7.040000000000000568e+01 2.370899977391675009e+02
7.080000000000001137e+01 2.364482900249821000e+02
7.120000000000000284e+01 2.358121549538030308e+02
7.159999999999999432e+01 2.351815104607136959e+02
7.200000000000000000e+01 2.345562761823847779e+02
7.240000000000000568e+01 2.339363734116594458e+02
7.280000000000001137e+01 2.333217250536185361e+02
7.320000000000000284e+01 2.327122555830683268e+02
7.359999999999999432e+01 2.321078910033979241e+02
7.400000000000000000e+01 2.315085588067520348e+02
7.440000000000000568e+01 2.309141879354720572e+02
7.479999999999999716e+01 2.303247087447556112e+02
7.520000000000000284e+01 2.297400529664909925e+02
7.560000000000000853e+01 2.291601536742210783e+02
7.600000000000000000e+01 2.285849452491970055e+02
7.640000000000000568e+01 2.280143633474800993e+02
7.679999999999999716e+01 2.274483448680551589e+02
7.720000000000000284e+01 2.268868279219166482e+02
7.760000000000000853e+01 2.263297518020950747e+02
7.800000000000000000e+01 2.257770569545882609e+02
7.840000000000000568e+01 2.252286849501653023e+02
7.879999999999999716e+01 2.246845784570131457e+02
7.920000000000000284e+01 2.241446812141956002e+02
7.960000000000000853e+01 2.236089380058962774e+02
8.000000000000000000e+01 2.230772946364178324e+02
8.040000000000000568e+01 2.225496979059127511e+02
8.079999999999999716e+01 2.220260955868180304e+02
8.120000000000000284e+01 2.215064364009722908e+02
8.160000000000000853e+01 2.209906699973898299e+02
8.200000000000000000e+01 2.204787469306706953e+02
8.240000000000000568e+01 2.199706186400249521e+02
8.279999999999999716e+01 2.194662374288901390e+02
8.320000000000000284e+01 2.189655564451226724e+02
8.360000000000000853e+01 2.184685296617441850e+02
8.400000000000000000e+01 2.179751118582235847e+02
8.440000000000000568e+01 2.174852586022781225e+02
8.479999999999999716e+01 2.169989262321765580e+02
8.520000000000000284e+01 2.165160718395270010e+02
8.560000000000000853e+01 2.160366532525353875e+02
8.600000000000000000e+01 2.155606290197177088e+02
8.640000000000000568e+01 2.150879583940526345e+02
8.680000000000001137e+01 2.146186013175602625e+02
8.720000000000000284e+01 2.141525184062933818e+02
8.760000000000000853e+01 2.136896709357275483e+02
8.800000000000000000e+01 2.132300208265390893e+02
8.840000000000000568e+01 2.127735306307570227e+02
8.880000000000001137e+01 2.123201635182789175e+02
8.920000000000000284e+01 2.118698832637379894e+02
8.960000000000000853e+01 2.114226542337118246e+02
9.000000000000000000e+01 2.109784413742613651e+02
9.040000000000000568e+01 2.105372101987908309e+02
9.080000000000001137e+01 2.100989267762180646e+02
9.120000000000000284e+01 2.096635577194465441e+02
9.160000000000000853e+01 2.092310701741296270e+02
9.200000000000000000e+01 2.088014318077185862e+02
9.240000000000000568e+01 2.083746107987855680e+02
9.280000000000001137e+01 2.079505758266137150e+02
9.320000000000000284e+01 2.075292960610463240e+02
9.360000000000000853e+01 2.071107411525877637e+02
9.400000000000000000e+01 2.066948812227480801e+02
9.440000000000000568e+01 2.062816868546248372e+02
9.480000000000001137e+01 2.058711290837155730e+02
9.520000000000000284e+01 2.054631793889531366e+02
9.560000000000000853e+01 2.050578096839582258e+02
9.600000000000000000e+01 2.046549923085035516e+02
9.640000000000000568e+01 2.042547000201818435e+02
9.680000000000001137e+01 2.038569059862737447e+02
9.720000000000000284e+01 2.034615837758089469e+02
9.760000000000000853e+01 2.030687073518151635e+02
9.800000000000000000e+01 2.026782510637503094e+02
9.840000000000000568e+01 2.022901896401119473e+02
9.880000000000001137e+01 2.019044981812197648e+02
9.920000000000000284e+01 2.015211521521661098e+02
9.960000000000000853e+01 2.011401273759296657e+02
1.000000000000000000e+02 2.007614000266481753e+02
1.004000000000000057e+02 2.003849466230459200e+02
1.008000000000000114e+02 2.000107440220111812e+02
1.012000000000000028e+02 1.996387694123204994e+02
1.016000000000000085e+02 1.992690003085049568e+02
1.020000000000000000e+02 1.989014145448552995e+02
1.024000000000000057e+02 1.985359902695617222e+02
1.028000000000000114e+02 1.981727059389851888e+02
1.032000000000000028e+02 1.978115403120562803e+02
1.036000000000000085e+02 1.974524724447988149e+02
1.040000000000000000e+02 1.970954816849744589e+02
1.044000000000000057e+02 1.967405476668453161e+02
1.048000000000000114e+02 1.963876503060518530e+02
1.052000000000000028e+02 1.960367697946021224e+02
1.056000000000000085e+02 1.956878865959708094e+02
1.060000000000000000e+02 1.953409814403040343e+02
1.064000000000000057e+02 1.949960353197279801e+02
1.068000000000000114e+02 1.946530294837581607e+02
1.072000000000000028e+02 1.943119454348075124e+02
1.076000000000000085e+02 1.939727649237898390e+02
1.080000000000000000e+02 1.936354699458171353e+02
1.084000000000000057e+02 1.933000427359874038e+02
1.088000000000000114e+02 1.929664657652624271e+02
1.092000000000000028e+02 1.926347217364306061e+02
1.096000000000000085e+02 1.923047935801556605e+02
1.100000000000000000e+02 1.919766644511069558e+02
1.104000000000000057e+02 1.916503177241702929e+02
1.108000000000000114e+02 1.913257369907371981e+02
1.112000000000000028e+02 1.910029060550706390e+02
1.116000000000000085e+02 1.906818089307451771e+02
1.120000000000000000e+02 1.903624298371603629e+02
1.124000000000000057e+02 1.900447531961245318e+02
1.128000000000000114e+02 1.897287636285084318e+02
1.132000000000000028e+02 1.894144459509661829e+02
1.136000000000000085e+02 1.891017851727227708e+02
1.140000000000000000e+02 1.887907664924252629e+02
1.144000000000000057e+02 1.884813752950576884e+02
1.148000000000000114e+02 1.881735971489170822e+02
1.152000000000000028e+02 1.878674178026493564e+02
1.156000000000000085e+02 1.875628231823440615e+02
1.160000000000000000e+02 1.872597993886865311e+02
1.164000000000000057e+02 1.869583326941653070e+02
1.168000000000000114e+02 1.866584095403349011e+02
1.172000000000000028e+02 1.863600165351314502e+02
1.176000000000000085e+02 1.860631404502405530e+02
1.180000000000000000e+02 1.857677682185163235e+02
1.184000000000000057e+02 1.854738869314496981e+02
1.188000000000000114e+02 1.851814838366859419e+02
1.192000000000000028e+02 1.848905463355891925e+02
1.196000000000000085e+02 1.846010619808537285e+02
1.200000000000000000e+02 1.843130184741606570e+02
1.204000000000000057e+02 1.840264036638787672e+02
1.208000000000000114e+02 1.837412055428090412e+02
1.212000000000000028e+02 1.834574122459713408e+02
1.216000000000000085e+02 1.831750120484326487e+02
1.220000000000000000e+02 1.828939933631763211e+02
1.224000000000000057e+02 1.826143447390099368e+02
1.228000000000000114e+02 1.823360548585133074e+02
1.232000000000000028e+02 1.820591125360230649e+02
1.236000000000000085e+02 1.817835067156557045e+02
1.240000000000000000e+02 1.815092264693657853e+02
1.244000000000000057e+02 1.812362609950401406e+02
1.248000000000000114e+02 1.809645996146273035e+02
1.252000000000000028e+02 1.806942317722999007e+02
1.256000000000000085e+02 1.804251470326512390e+02
1.260000000000000000e+02 1.801573350789240635e+02
1.264000000000000057e+02 1.798907857112710929e+02
1.268000000000000114e+02 1.796254888450468457e+02
1.272000000000000028e+02 1.793614345091303903e+02
1.276000000000000085e+02 1.790986128442772269e+02
1.280000000000000000e+02 1.788370141015009267e+02
1.284000000000000057e+02 1.785766286404833636e+02
1.288000000000000114e+02 1.783174469280129131e+02
1.291999999999999886e+02 1.780594595364501060e+02
1.296000000000000227e+02 1.778026571422200846e+02
1.300000000000000000e+02 1.775470305243318592e+02
1.304000000000000057e+02 1.772925705629224353e+02
1.308000000000000114e+02 1.770392682378272013e+02
1.311999999999999886e+02 1.767871146271745033e+02
1.316000000000000227e+02 1.765361009060043500e+02
1.320000000000000000e+02 1.762862183449113900e+02
1.324000000000000057e+02 1.760374583087105123e+02
1.328000000000000114e+02 1.757898122551257529e+02
1.331999999999999886e+02 1.755432717335013137e+02
1.336000000000000227e+02 1.752978283835341813e+02
1.340000000000000000e+02 1.750534739340289434e+02
1.344000000000000057e+02 1.748102002016727852e+02
1.348000000000000114e+02 1.745679990898314600e+02
1.351999999999999886e+02 1.743268625873655822e+02
1.356000000000000227e+02 1.740867827674663886e+02
1.360000000000000000e+02 1.738477517865111395e+02
1.364000000000000057e+02 1.736097618829373346e+02
1.368000000000000114e+02 1.733728053761356875e+02
1.371999999999999886e+02 1.731368746653613471e+02
1.376000000000000227e+02 1.729019622286631943e+02
1.380000000000000000e+02 1.726680606218302785e+02
1.384000000000000057e+02 1.724351624773558456e+02
1.388000000000000114e+02 1.722032605034183064e+02
1.392000000000000171e+02 1.719723474828784333e+02
1.395999999999999943e+02 1.717424162722931555e+02
1.400000000000000000e+02 1.715134598009449576e+02
1.404000000000000057e+02 1.712854710698873646e+02
1.408000000000000114e+02 1.710584431510052354e+02
1.412000000000000171e+02 1.708323691860906308e+02
1.415999999999999943e+02 1.706072423859328353e+02
1.420000000000000000e+02 1.703830560294234999e+02
1.424000000000000057e+02 1.701598034626755975e+02
1.428000000000000114e+02 1.699374780981563617e+02
1.432000000000000171e+02 1.697160734138340956e+02
1.435999999999999943e+02 1.694955829523381681e+02
1.440000000000000000e+02 1.692760003201322832e+02
1.444000000000000057e+02 1.690573191867008802e+02
1.448000000000000114e+02 1.688395332837477838e+02
1.452000000000000171e+02 1.686226364044078707e+02
1.455999999999999943e+02 1.684066224024703899e+02
1.460000000000000000e+02 1.681914851916147029e+02
1.464000000000000057e+02 1.679772187446578187e+02
1.468000000000000114e+02 1.677638170928131274e+02
1.472000000000000171e+02 1.675512743249608718e+02
1.475999999999999943e+02 1.673395845869295613e+02
1.480000000000000000e+02 1.671287420807885837e+02
1.484000000000000057e+02 1.669187410641511349e+02
1.488000000000000114e+02 1.667095758494882034e+02
1.492000000000000171e+02 1.665012408034527880e+02
1.495999999999999943e+02 1.662937303462138061e+02
1.500000000000000000e+02 1.660870389508009168e+02
