1.000000000000000000e+01 2.700272769385763922e+02
1.040000000000000036e+01 3.058974868505745803e+02
1.080000000000000071e+01 3.446459838623371184e+02
1.119999999999999929e+01 3.842473547036510126e+02
1.159999999999999964e+01 4.467655714619758669e+02
1.200000000000000000e+01 5.369532829266456702e+02
1.240000000000000036e+01 5.880939973691422438e+02
1.280000000000000071e+01 6.247305286964661946e+02
1.319999999999999929e+01 6.360045914589896938e+02
1.359999999999999964e+01 6.419320090796528575e+02
1.400000000000000000e+01 6.552896798880007054e+02
1.440000000000000036e+01 6.875055437933635858e+02
1.480000000000000071e+01 6.828494220729069184e+02
1.519999999999999929e+01 6.694428165556419117e+02
1.560000000000000142e+01 6.569170800128270002e+02
1.600000000000000000e+01 6.451746825341920157e+02
1.639999999999999858e+01 6.341330684566846685e+02
1.680000000000000071e+01 6.237217518093859780e+02
1.719999999999999929e+01 6.138800854589162554e+02
1.760000000000000142e+01 6.045555237801519297e+02
1.800000000000000000e+01 5.957022528177935783e+02
1.839999999999999858e+01 5.872800981149359814e+02
1.880000000000000071e+01 5.792536451134064919e+02
1.920000000000000284e+01 5.715915242364761752e+02
1.960000000000000142e+01 5.642658249394939958e+02
2.000000000000000000e+01 5.572516117615678013e+02
2.039999999999999858e+01 5.505265217844557810e+02
2.080000000000000071e+01 5.440704276073339543e+02
2.120000000000000284e+01 5.378651534567504768e+02
2.160000000000000142e+01 5.318942347003076065e+02
2.200000000000000000e+01 5.261427130518276272e+02
2.239999999999999858e+01 5.205969613090676376e+02
2.280000000000000071e+01 5.152445326702924149e+02
2.320000000000000284e+01 5.100740306187107080e+02
2.360000000000000142e+01 5.050749961067004392e+02
2.400000000000000000e+01 5.002378093613508554e+02
2.439999999999999858e+01 4.955536041039006818e+02
2.480000000000000071e+01 4.910141923543205849e+02
2.520000000000000284e+01 4.866119982985125034e+02
2.560000000000000142e+01 4.823399999445983326e+02
2.600000000000000000e+01 4.781916774983205869e+02
2.640000000000000213e+01 4.741609675548005498e+02
2.680000000000000071e+01 4.702422223419359852e+02
2.719999999999999929e+01 4.664301733651687982e+02
2.760000000000000142e+01 4.627198988986709765e+02
2.800000000000000000e+01 4.591067948476883203e+02
2.840000000000000213e+01 4.555865485736787264e+02
2.880000000000000071e+01 4.521551153302540342e+02
2.920000000000000284e+01 4.488086970055908296e+02
2.960000000000000142e+01 4.455437229074233301e+02
3.000000000000000000e+01 4.423568323611547726e+02
3.040000000000000213e+01 4.392448589210244450e+02
3.080000000000000071e+01 4.362048160194504476e+02
3.120000000000000284e+01 4.332338839012976450e+02
3.160000000000000142e+01 4.303293977084595667e+02
3.200000000000000000e+01 4.274888365962357284e+02
3.240000000000000568e+01 4.247098137769276036e+02
3.279999999999999716e+01 4.219900673981790646e+02
3.320000000000000284e+01 4.193274521741165586e+02
3.360000000000000142e+01 4.167199316965371736e+02
3.400000000000000000e+01 4.141655713614190972e+02
3.440000000000000568e+01 4.116625318530710160e+02
3.479999999999999716e+01 4.092090631344162830e+02
3.520000000000000284e+01 4.068034988973411146e+02
3.560000000000000142e+01 4.044442514318345729e+02
3.600000000000000000e+01 4.021298068768759322e+02
3.640000000000000568e+01 3.998587208197750442e+02
3.679999999999999716e+01 3.976296142139901804e+02
3.720000000000000284e+01 3.954411695883982247e+02
3.760000000000000142e+01 3.932921275236135443e+02
3.800000000000000000e+01 3.911812833732905688e+02
3.840000000000000568e+01 3.891074842104316076e+02
3.879999999999999716e+01 3.870696259805836235e+02
3.920000000000000284e+01 3.850666508454788755e+02
3.960000000000000142e+01 3.830975447021701257e+02
4.000000000000000000e+01 3.811613348640523782e+02
4.040000000000000568e+01 3.792570878913751358e+02
4.079999999999999716e+01 3.773839075599303214e+02
4.120000000000000284e+01 3.755409329575878132e+02
4.160000000000000142e+01 3.737273366992292836e+02
4.200000000000000000e+01 3.719423232514338338e+02
4.239999999999999858e+01 3.701851273589913376e+02
4.280000000000000426e+01 3.684550125659754372e+02
4.320000000000000284e+01 3.667512698247005005e+02
4.360000000000000142e+01 3.650732161864293630e+02
4.400000000000000000e+01 3.634201935681873579e+02
4.439999999999999858e+01 3.617915675904853856e+02
4.480000000000000426e+01 3.601867264811612586e+02
4.520000000000000284e+01 3.586050800409199724e+02
4.560000000000000142e+01 3.570460586664911489e+02
4.600000000000000000e+01 3.555091124276332266e+02
4.639999999999999858e+01 3.539937101944947244e+02
4.680000000000000426e+01 3.524993388121033036e+02
4.720000000000000284e+01 3.510255023189918120e+02
4.760000000000000142e+01 3.495717212071852487e+02
4.800000000000000000e+01 3.481375317209760283e+02
4.840000000000000568e+01 3.467224851920962010e+02
4.880000000000000426e+01 3.453261474090657543e+02
4.920000000000000284e+01 3.439480980186503984e+02
4.960000000000000142e+01 3.425879299575070149e+02
5.000000000000000000e+01 3.412452489122242127e+02
5.040000000000000568e+01 3.399196728060926489e+02
5.080000000000000426e+01 3.386108313110451036e+02
5.120000000000000284e+01 3.373183653833161202e+02
5.160000000000000142e+01 3.360419268214656086e+02
5.200000000000000000e+01 3.347811778454967566e+02
5.240000000000000568e+01 3.335357906958869876e+02
5.280000000000000426e+01 3.323054472514198778e+02
5.320000000000000284e+01 3.310898386647835423e+02
5.360000000000000142e+01 3.298886650149618731e+02
5.400000000000000000e+01 3.287016349755084548e+02
5.440000000000000568e+01 3.275284654978489698e+02
5.480000000000000426e+01 3.263688815088107162e+02
5.520000000000000284e+01 3.252226156216266304e+02
5.560000000000000142e+01 3.240894078597080465e+02
5.600000000000000000e+01 3.229690053925207849e+02
5.640000000000000568e+01 3.218611622829414500e+02
5.680000000000000426e+01 3.207656392455058949e+02
5.720000000000000284e+01 3.196822034149965361e+02
5.760000000000000142e+01 3.186106281248490859e+02
5.800000000000000000e+01 3.175506926948867203e+02
5.840000000000000568e+01 3.165021822279202297e+02
5.880000000000000426e+01 3.154648874147776496e+02
5.920000000000000284e+01 3.144386043473525660e+02
5.960000000000000142e+01 3.134231343392813187e+02
6.000000000000000000e+01 3.124182837538841682e+02
6.040000000000000568e+01 3.114238638390226015e+02
6.080000000000000426e+01 3.104396905685456431e+02
6.120000000000000284e+01 3.094655844900159991e+02
6.160000000000000142e+01 3.085013705784220974e+02
6.200000000000000000e+01 3.075468780955993680e+02
6.240000000000000568e+01 3.066019404550983154e+02
6.280000000000000426e+01 3.056663950922511503e+02
6.320000000000000284e+01 3.047400833391996571e+02
6.360000000000000142e+01 3.038228503046631204e+02
6.400000000000000000e+01 3.029145447582334896e+02
6.440000000000000568e+01 3.020150190189966679e+02
6.480000000000001137e+01 3.011241288482900700e+02
6.520000000000000284e+01 3.002417333464148896e+02
6.559999999999999432e+01 2.993676948531307858e+02
6.600000000000000000e+01 2.985018788517715507e+02
6.640000000000000568e+01 2.976441538768236796e+02
6.680000000000001137e+01 2.967943914248235160e+02
6.720000000000000284e+01 2.959524658684291580e+02
6.759999999999999432e+01 2.951182543735375248e+02
6.800000000000000000e+01 2.942916368193159542e+02
6.840000000000000568e+01 2.934724957210298157e+02
6.880000000000001137e+01 2.926607161555497214e+02
6.920000000000000284e+01 2.918561856894291964e+02
6.959999999999999432e+01 2.910587943094479328e+02
7.000000000000000000e+01 2.902684343555211512e+02
7.040000000000000568e+01 2.894850004558800265e+02
7.080000000000001137e+01 2.887083894644325142e+02
7.120000000000000284e+01 2.879385004002180040e+02
7.159999999999999432e+01 2.871752343888732639e+02
7.200000000000000000e+01 2.864184946060310040e+02
7.240000000000000568e+01 2.856681862225763666e+02
7.280000000000001137e+01 2.849242163516877895e+02
7.320000000000000284e+01 2.841864939975955622e+02
7.359999999999999432e+01 2.834549300059910593e+02
7.400000000000000000e+01 2.827294370160246899e+02
7.440000000000000568e+01 2.820099294138320829e+02
7.479999999999999716e+01 2.812963232875313793e+02
7.520000000000000284e+01 2.805885363836365514e+02
7.560000000000000853e+01 2.798864880648341114e+02
7.600000000000000000e+01 2.791900992690734711e+02
7.640000000000000568e+01 2.784992924699218975e+02
7.679999999999999716e+01 2.778139916381389867e+02
7.720000000000000284e+01 2.771341222044246706e+02
7.760000000000000853e+01 2.764596110233009654e+02
7.800000000000000000e+01 2.757903863380845451e+02
7.840000000000000568e+01 2.751263777469124534e+02
7.879999999999999716e+01 2.744675161697830390e+02
7.920000000000000284e+01 2.738137338165767005e+02
7.960000000000000853e+01 2.731649641560223927e+02
8.000000000000000000e+01 2.725211418855753891e+02
8.040000000000000568e+01 2.718822029021769140e+02
8.079999999999999716e+01 2.712480842738632418e+02
8.120000000000000284e+01 2.706187242121963550e+02
8.160000000000000853e+01 2.699940620454876807e+02
8.200000000000000000e+01 2.693740381927879639e+02
8.240000000000000568e+01 2.687585941386170134e+02
8.279999999999999716e+01 2.681476724084102443e+02
8.320000000000000284e+01 2.675412165446548443e+02
8.360000000000000853e+01 2.669391710836962943e+02
8.400000000000000000e+01 2.663414815331902901e+02
8.440000000000000568e+01 2.657480943501801676e+02
8.479999999999999716e+01 2.651589569197791434e+02
8.520000000000000284e+01 2.645740175344373029e+02
8.560000000000000853e+01 2.639932253737755445e+02
8.600000000000000000e+01 2.634165304849660743e+02
8.640000000000000568e+01 2.628438837636441008e+02
8.680000000000001137e+01 2.622752369353329414e+02
8.720000000000000284e+01 2.617105425373658818e+02
8.760000000000000853e+01 2.611497539012889888e+02
8.800000000000000000e+01 2.605928251357315162e+02
8.840000000000000568e+01 2.600397111097265110e+02
8.880000000000001137e+01 2.594903674364699100e+02
8.920000000000000284e+01 2.589447504575034600e+02
8.960000000000000853e+01 2.584028172273083896e+02
9.000000000000000000e+01 2.578645254982981214e+02
9.040000000000000568e+01 2.573298337061960410e+02
9.080000000000001137e+01 2.567987009557895703e+02
9.120000000000000284e+01 2.562710870070450255e+02
9.160000000000000853e+01 2.557469522615770359e+02
9.200000000000000000e+01 2.552262577494580853e+02
9.240000000000000568e+01 2.547089651163601047e+02
9.280000000000001137e+01 2.541950366110178834e+02
9.320000000000000284e+01 2.536844350730043516e+02
9.360000000000000853e+01 2.531771239208089810e+02
9.400000000000000000e+01 2.526730671402101791e+02
9.440000000000000568e+01 2.521722292729334356e+02
9.480000000000001137e+01 2.516745754055866371e+02
9.520000000000000284e+01 2.511800711588646777e+02
9.560000000000000853e+01 2.506886826770153505e+02
9.600000000000000000e+01 2.502003766175599537e+02
9.640000000000000568e+01 2.497151201412598311e+02
9.680000000000001137e+01 2.492328809023233021e+02
9.720000000000000284e+01 2.487536270388457638e+02
9.760000000000000853e+01 2.482773271634757180e+02
9.800000000000000000e+01 2.478039503543013211e+02
9.840000000000000568e+01 2.473334661459512063e+02
9.880000000000001137e+01 2.468658445209027263e+02
9.920000000000000284e+01 2.464010559009932706e+02
9.960000000000000853e+01 2.459390711391278614e+02
1.000000000000000000e+02 2.454798615111782851e+02
1.004000000000000057e+02 2.450233987080686688e+02
1.008000000000000114e+02 2.445696548280416209e+02
1.012000000000000028e+02 2.441186023691013247e+02
1.016000000000000085e+02 2.436702142216274751e+02
1.020000000000000000e+02 2.432244636611563067e+02
1.024000000000000057e+02 2.427813243413243924e+02
1.028000000000000114e+02 2.423407702869700131e+02
1.032000000000000028e+02 2.419027758873891116e+02
1.036000000000000085e+02 2.414673158897403198e+02
1.040000000000000000e+02 2.410343653925966123e+02
1.044000000000000057e+02 2.406038998396388990e+02
1.048000000000000114e+02 2.401758950134878887e+02
1.052000000000000028e+02 2.397503270296708990e+02
1.056000000000000085e+02 2.393271723307202024e+02
1.060000000000000000e+02 2.389064076803988712e+02
1.064000000000000057e+02 2.384880101580519067e+02
1.068000000000000114e+02 2.380719571530785572e+02
1.072000000000000028e+02 2.376582263595231268e+02
1.076000000000000085e+02 2.372467957707811195e+02
1.080000000000000000e+02 2.368376436744181319e+02
1.084000000000000057e+02 2.364307486470982553e+02
1.088000000000000114e+02 2.360260895496197691e+02
1.092000000000000028e+02 2.356236455220544315e+02
1.096000000000000085e+02 2.352233959789890889e+02
1.100000000000000000e+02 2.348253206048665902e+02
1.104000000000000057e+02 2.344293993494227095e+02
1.108000000000000114e+02 2.340356124232180264e+02
1.112000000000000028e+02 2.336439402932620055e+02
1.116000000000000085e+02 2.332543636787261505e+02
1.120000000000000000e+02 2.328668635467458046e+02
1.124000000000000057e+02 2.324814211083064777e+02
1.128000000000000114e+02 2.320980178142144723e+02
1.132000000000000028e+02 2.317166353511485397e+02
1.136000000000000085e+02 2.313372556377909746e+02
1.140000000000000000e+02 2.309598608210370685e+02
1.144000000000000057e+02 2.305844332722790568e+02
1.148000000000000114e+02 2.302109555837654966e+02
1.152000000000000028e+02 2.298394105650318124e+02
1.156000000000000085e+02 2.294697812394020104e+02
1.160000000000000000e+02 2.291020508405592295e+02
1.164000000000000057e+02 2.287362028091831121e+02
1.168000000000000114e+02 2.283722207896538521e+02
1.172000000000000028e+02 2.280100886268194529e+02
1.176000000000000085e+02 2.276497903628267352e+02
1.180000000000000000e+02 2.272913102340125988e+02
1.184000000000000057e+02 2.269346326678560501e+02
1.188000000000000114e+02 2.265797422799886931e+02
1.192000000000000028e+02 2.262266238712618360e+02
1.196000000000000085e+02 2.258752624248699874e+02
1.200000000000000000e+02 2.255256431035292053e+02
1.204000000000000057e+02 2.251777512467082829e+02
1.208000000000000114e+02 2.248315723679129405e+02
1.212000000000000028e+02 2.244870921520201250e+02
1.216000000000000085e+02 2.241442964526631272e+02
1.220000000000000000e+02 2.238031712896652721e+02
1.224000000000000057e+02 2.234637028465212438e+02
1.228000000000000114e+02 2.231258774679249086e+02
1.232000000000000028e+02 2.227896816573434080e+02
1.236000000000000085e+02 2.224551020746354766e+02
1.240000000000000000e+02 2.221221255337136142e+02
1.244000000000000057e+02 2.217907390002491752e+02
1.248000000000000114e+02 2.214609295894187539e+02
1.252000000000000028e+02 2.211326845636924361e+02
1.256000000000000085e+02 2.208059913306612430e+02
1.260000000000000000e+02 2.204808374409040539e+02
1.264000000000000057e+02 2.201572105858932389e+02
1.268000000000000114e+02 2.198350985959372679e+02
1.272000000000000028e+02 2.195144894381606662e+02
1.276000000000000085e+02 2.191953712145193833e+02
1.280000000000000000e+02 2.188777321598517176e+02
1.284000000000000057e+02 2.185615606399637159e+02
1.288000000000000114e+02 2.182468451497482249e+02
1.291999999999999886e+02 2.179335743113372814e+02
1.296000000000000227e+02 2.176217368722861352e+02
1.300000000000000000e+02 2.173113217037900711e+02
1.304000000000000057e+02 2.170023177989312728e+02
1.308000000000000114e+02 2.166947142709567231e+02
1.311999999999999886e+02 2.163885003515855487e+02
1.316000000000000227e+02 2.160836653893457822e+02
1.320000000000000000e+02 2.157801988479396869e+02
1.324000000000000057e+02 2.154780903046365665e+02
1.328000000000000114e+02 2.151773294486939960e+02
1.331999999999999886e+02 2.148779060798051148e+02
1.336000000000000227e+02 2.145798101065722960e+02
1.340000000000000000e+02 2.142830315450073044e+02
1.344000000000000057e+02 2.139875605170558970e+02
1.348000000000000114e+02 2.136933872491478894e+02
1.351999999999999886e+02 2.134005020707711253e+02
1.356000000000000227e+02 2.131088954130692343e+02
1.360000000000000000e+02 2.128185578074632929e+02
1.364000000000000057e+02 2.125294798842955117e+02
1.368000000000000114e+02 2.122416523714961158e+02
1.371999999999999886e+02 2.119550660932718245e+02
1.376000000000000227e+02 2.116697119688159887e+02
1.380000000000000000e+02 2.113855810110399602e+02
1.384000000000000057e+02 2.111026643253250370e+02
1.388000000000000114e+02 2.108209531082949297e+02
1.392000000000000171e+02 2.105404386466080666e+02
1.395999999999999943e+02 2.102611123157694806e+02
1.400000000000000000e+02 2.099829655789619380e+02
1.404000000000000057e+02 2.097059899858957976e+02
1.408000000000000114e+02 2.094301771716774283e+02
1.412000000000000171e+02 2.091555188556957319e+02
1.415999999999999943e+02 2.088820068405263441e+02
1.420000000000000000e+02 2.086096330108532584e+02
1.424000000000000057e+02 2.083383893324078713e+02
1.428000000000000114e+02 2.080682678509244852e+02
1.432000000000000171e+02 2.077992606911122664e+02
1.435999999999999943e+02 2.075313600556437166e+02
1.440000000000000000e+02 2.072645582241583497e+02
1.444000000000000057e+02 2.069988475522830527e+02
1.448000000000000114e+02 2.067342204706664290e+02
1.452000000000000171e+02 2.064706694840290311e+02
1.455999999999999943e+02 2.062081871702280864e+02
1.460000000000000000e+02 2.059467661793365778e+02
1.464000000000000057e+02 2.056863992327366475e+02
1.468000000000000114e+02 2.054270791222266723e+02
1.472000000000000171e+02 2.051687987091425782e+02
1.475999999999999943e+02 2.049115509234919728e+02
1.480000000000000000e+02 2.046553287631017781e+02
1.484000000000000057e+02 2.044001252927787675e+02
1.488000000000000114e+02 2.041459336434829197e+02
1.492000000000000171e+02 2.038927470115131371e+02
1.495999999999999943e+02 2.036405586577049291e+02
1.500000000000000000e+02 2.033893619066411702e+02
