1.000000000000000000e+01 2.044080957201296371e+02
1.040000000000000036e+01 2.195019988268451243e+02
1.080000000000000071e+01 2.317202200860756989e+02
1.119999999999999929e+01 2.523694313268759117e+02
1.159999999999999964e+01 3.029504757614629398e+02
1.200000000000000000e+01 3.380616251775330738e+02
1.240000000000000036e+01 3.737932771101120011e+02
1.280000000000000071e+01 3.901440799976111862e+02
1.319999999999999929e+01 4.093252664886895786e+02
1.359999999999999964e+01 4.352984781472845270e+02
1.400000000000000000e+01 4.752458568396456826e+02
1.440000000000000036e+01 5.463954709027698300e+02
1.480000000000000071e+01 5.439326923940667484e+02
1.519999999999999929e+01 5.328284972191873976e+02
1.560000000000000142e+01 5.225135865360105072e+02
1.600000000000000000e+01 5.128932284757095204e+02
1.639999999999999858e+01 5.038883515793087327e+02
1.680000000000000071e+01 4.954323034285584413e+02
1.719999999999999929e+01 4.874684042016080525e+02
1.760000000000000142e+01 4.799480722802637160e+02
1.800000000000000000e+01 4.728293687127625731e+02
1.839999999999999858e+01 4.660758531629404047e+02
1.880000000000000071e+01 4.596556747689138547e+02
1.920000000000000284e+01 4.535408424267327518e+02
1.960000000000000142e+01 4.477066337165133518e+02
2.000000000000000000e+01 4.421311121001588162e+02
2.039999999999999858e+01 4.367947295005506589e+02
2.080000000000000071e+01 4.316799968189795322e+02
2.120000000000000284e+01 4.267712089623680072e+02
2.160000000000000142e+01 4.220542139446959595e+02
2.200000000000000000e+01 4.175162178815798484e+02
2.239999999999999858e+01 4.131456194119434713e+02
2.280000000000000071e+01 4.089318683971532664e+02
2.320000000000000284e+01 4.048653447671143226e+02
2.360000000000000142e+01 4.009372541780506367e+02
2.400000000000000000e+01 3.971395377718701525e+02
2.439999999999999858e+01 3.934647938219475236e+02
2.480000000000000071e+01 3.899062094445783373e+02
2.520000000000000284e+01 3.864575008716469711e+02
2.560000000000000142e+01 3.831128610351746602e+02
2.600000000000000000e+01 3.798669134213616303e+02
2.640000000000000213e+01 3.767146713204883213e+02
2.680000000000000071e+01 3.736515017373430965e+02
2.719999999999999929e+01 3.706730933407292810e+02
2.760000000000000142e+01 3.677754279248204057e+02
2.800000000000000000e+01 3.649547549334010910e+02
2.840000000000000213e+01 3.622075686633333476e+02
2.880000000000000071e+01 3.595305878182861079e+02
2.920000000000000284e+01 3.569207371297443387e+02
2.960000000000000142e+01 3.543751308011208039e+02
3.000000000000000000e+01 3.518910575636458589e+02
3.040000000000000213e+01 3.494659671606225970e+02
3.080000000000000071e+01 3.470974581004265929e+02
3.120000000000000284e+01 3.447832665389620388e+02
3.160000000000000142e+01 3.425212561697273941e+02
3.200000000000000000e+01 3.403094090146375947e+02
3.240000000000000568e+01 3.381458170216755548e+02
3.279999999999999716e+01 3.360286743866273582e+02
3.320000000000000284e+01 3.339562705258376809e+02
3.360000000000000142e+01 3.319269836353425376e+02
3.400000000000000000e+01 3.299392747790639646e+02
3.440000000000000568e+01 3.279916824551520449e+02
3.479999999999999716e+01 3.260828175951551771e+02
3.520000000000000284e+01 3.242113589556096258e+02
3.560000000000000142e+01 3.223760488659495991e+02
3.600000000000000000e+01 3.205756893004343624e+02
3.640000000000000568e+01 3.188091382451388540e+02
3.679999999999999716e+01 3.170753063340113158e+02
3.720000000000000284e+01 3.153731537306206860e+02
3.760000000000000142e+01 3.137016872345407705e+02
3.800000000000000000e+01 3.120599575933807159e+02
3.840000000000000568e+01 3.104470570033103058e+02
3.879999999999999716e+01 3.088621167825622820e+02
3.920000000000000284e+01 3.073043052038598262e+02
3.960000000000000142e+01 3.057728254730212143e+02
4.000000000000000000e+01 3.042669138421652519e+02
4.040000000000000568e+01 3.027858378469915124e+02
4.079999999999999716e+01 3.013288946585510644e+02
4.120000000000000284e+01 2.998954095407710270e+02
4.160000000000000142e+01 2.984847344057625946e+02
4.200000000000000000e+01 2.970962464596258314e+02
4.239999999999999858e+01 2.957293469320909480e+02
4.280000000000000426e+01 2.943834598838949432e+02
4.320000000000000284e+01 2.930580310863028899e+02
4.360000000000000142e+01 2.917525269676419271e+02
4.400000000000000000e+01 2.904664336221366625e+02
4.439999999999999858e+01 2.891992558767137780e+02
4.480000000000000426e+01 2.879505164117875893e+02
4.520000000000000284e+01 2.867197549323549310e+02
4.560000000000000142e+01 2.855065273860136585e+02
4.600000000000000000e+01 2.843104052247780942e+02
4.639999999999999858e+01 2.831309747078084911e+02
4.680000000000000426e+01 2.819678362423834983e+02
4.720000000000000284e+01 2.808206037606499308e+02
4.760000000000000142e+01 2.796889041298618395e+02
4.800000000000000000e+01 2.785723765939937948e+02
4.840000000000000568e+01 2.774706722447606921e+02
4.880000000000000426e+01 2.763834535202248048e+02
4.920000000000000284e+01 2.753103937292924002e+02
4.960000000000000142e+01 2.742511766005301865e+02
5.000000000000000000e+01 2.732054958538333267e+02
5.040000000000000568e+01 2.721730547935850382e+02
5.080000000000000426e+01 2.711535659220364778e+02
5.120000000000000284e+01 2.701467505717236008e+02
5.160000000000000142e+01 2.691523385558173231e+02
5.200000000000000000e+01 2.681700678353768126e+02
5.240000000000000568e+01 2.671996842025414480e+02
5.280000000000000426e+01 2.662409409787650816e+02
5.320000000000000284e+01 2.652935987272487068e+02
5.360000000000000142e+01 2.643574249787852750e+02
5.400000000000000000e+01 2.634321939702803093e+02
5.440000000000000568e+01 2.625176863952561348e+02
5.480000000000000426e+01 2.616136891656944385e+02
5.520000000000000284e+01 2.607199951846081944e+02
5.560000000000000142e+01 2.598364031287745775e+02
5.600000000000000000e+01 2.589627172410929461e+02
5.640000000000000568e+01 2.580987471320656823e+02
5.680000000000000426e+01 2.572443075899292921e+02
5.720000000000000284e+01 2.563992183989917066e+02
5.760000000000000142e+01 2.555633041657572448e+02
5.800000000000000000e+01 2.547363941524456550e+02
5.840000000000000568e+01 2.539183221175353253e+02
5.880000000000000426e+01 2.531089261629797988e+02
5.920000000000000284e+01 2.523080485877694059e+02
5.960000000000000142e+01 2.515155357475273377e+02
6.000000000000000000e+01 2.507312379198455687e+02
6.040000000000000568e+01 2.499550091750855643e+02
6.080000000000000426e+01 2.491867072523814102e+02
6.120000000000000284e+01 2.484261934405977570e+02
6.160000000000000142e+01 2.476733324640107696e+02
6.200000000000000000e+01 2.469279923724883474e+02
6.240000000000000568e+01 2.461900444359638982e+02
6.280000000000000426e+01 2.454593630430029521e+02
6.320000000000000284e+01 2.447358256032769077e+02
6.360000000000000142e+01 2.440193124537657354e+02
6.400000000000000000e+01 2.433097067685215507e+02
6.440000000000000568e+01 2.426068944718337548e+02
6.480000000000001137e+01 2.419107641546439140e+02
6.520000000000000284e+01 2.412212069940675008e+02
6.559999999999999432e+01 2.405381166758855898e+02
6.600000000000000000e+01 2.398613893198780715e+02
6.640000000000000568e+01 2.391909234078742941e+02
6.680000000000001137e+01 2.385266197144053422e+02
6.720000000000000284e+01 2.378683812398463431e+02
6.759999999999999432e+01 2.372161131459437229e+02
6.800000000000000000e+01 2.365697226936267725e+02
6.840000000000000568e+01 2.359291191830078560e+02
6.880000000000001137e+01 2.352942138954805387e+02
6.920000000000000284e+01 2.346649200378290629e+02
6.959999999999999432e+01 2.340411526882664646e+02
7.000000000000000000e+01 2.334228287443232830e+02
7.040000000000000568e+01 2.328098668725110656e+02
7.080000000000001137e+01 2.322021874596900943e+02
7.120000000000000284e+01 2.315997125660730944e+02
7.159999999999999432e+01 2.310023658797992994e+02
7.200000000000000000e+01 2.304100726730177087e+02
7.240000000000000568e+01 2.298227597594204212e+02
7.280000000000001137e+01 2.292403554531679788e+02
7.320000000000000284e+01 2.286627895291554466e+02
7.359999999999999432e+01 2.280899931845645199e+02
7.400000000000000000e+01 2.275218990016553562e+02
7.440000000000000568e+01 2.269584409117491646e+02
7.479999999999999716e+01 2.263995541603565584e+02
7.520000000000000284e+01 2.258451752734096658e+02
7.560000000000000853e+01 2.252952420245559892e+02
7.600000000000000000e+01 2.247496934034749074e+02
7.640000000000000568e+01 2.242084695851781362e+02
7.679999999999999716e+01 2.236715119002598442e+02
7.720000000000000284e+01 2.231387628060599866e+02
7.760000000000000853e+01 2.226101658587087115e+02
7.800000000000000000e+01 2.220856656860198370e+02
7.840000000000000568e+01 2.215652079612024181e+02
7.879999999999999716e+01 2.210487393773623808e+02
7.920000000000000284e+01 2.205362076227648060e+02
7.960000000000000853e+01 2.200275613568312849e+02
8.000000000000000000e+01 2.195227501868457125e+02
8.040000000000000568e+01 2.190217246453439373e+02
8.079999999999999716e+01 2.185244361681640726e+02
8.120000000000000284e+01 2.180308370731340801e+02
8.160000000000000853e+01 2.175408805393749674e+02
8.200000000000000000e+01 2.170545205871986241e+02
8.240000000000000568e+01 2.165717120585801183e+02
8.279999999999999716e+01 2.160924105981848982e+02
8.320000000000000284e+01 2.156165726349327656e+02
8.360000000000000853e+01 2.151441553640796371e+02
8.400000000000000000e+01 2.146751167298012319e+02
8.440000000000000568e+01 2.142094154082610373e+02
8.479999999999999716e+01 2.137470107911470336e+02
8.520000000000000284e+01 2.132878629696620578e+02
8.560000000000000853e+01 2.128319327189524870e+02
8.600000000000000000e+01 2.123791814829615987e+02
8.640000000000000568e+01 2.119295713596937105e+02
8.680000000000001137e+01 2.114830650868754844e+02
8.720000000000000284e+01 2.110396260280029139e+02
8.760000000000000853e+01 2.105992181587601522e+02
8.800000000000000000e+01 2.101618060538001203e+02
8.840000000000000568e+01 2.097273548738742193e+02
8.880000000000001137e+01 2.092958303533006301e+02
8.920000000000000284e+01 2.088671987877610547e+02
8.960000000000000853e+01 2.084414270224154109e+02
9.000000000000000000e+01 2.080184824403245898e+02
9.040000000000000568e+01 2.075983329511719830e+02
9.080000000000001137e+01 2.071809469802745696e+02
9.120000000000000284e+01 2.067662934578752925e+02
9.160000000000000853e+01 2.063543418087068630e+02
9.200000000000000000e+01 2.059450619418209953e+02
9.240000000000000568e+01 2.055384242406725548e+02
9.280000000000001137e+01 2.051343995534534201e+02
9.320000000000000284e+01 2.047329591836670488e+02
9.360000000000000853e+01 2.043340748809373224e+02
9.400000000000000000e+01 2.039377188320445953e+02
9.440000000000000568e+01 2.035438636521824378e+02
9.480000000000001137e+01 2.031524823764285941e+02
9.520000000000000284e+01 2.027635484514239010e+02
9.560000000000000853e+01 2.023770357272530305e+02
9.600000000000000000e+01 2.019929184495219943e+02
9.640000000000000568e+01 2.016111712516253078e+02
9.680000000000001137e+01 2.012317691471993726e+02
9.720000000000000284e+01 2.008546875227550004e+02
9.760000000000000853e+01 2.004799021304851578e+02
9.800000000000000000e+01 2.001073890812426441e+02
9.840000000000000568e+01 1.997371248376829556e+02
9.880000000000001137e+01 1.993690862075674772e+02
9.920000000000000284e+01 1.990032503372234203e+02
9.960000000000000853e+01 1.986395947051550479e+02
1.000000000000000000e+02 1.982780971158028365e+02
1.004000000000000057e+02 1.979187356934463082e+02
1.008000000000000114e+02 1.975614888762465284e+02
1.012000000000000028e+02 1.972063354104246287e+02
1.016000000000000085e+02 1.968532543445724059e+02
1.020000000000000000e+02 1.965022250240919846e+02
1.024000000000000057e+02 1.961532270857604772e+02
1.028000000000000114e+02 1.958062404524166595e+02
1.032000000000000028e+02 1.954612453277664486e+02
1.036000000000000085e+02 1.951182221913039427e+02
1.040000000000000000e+02 1.947771517933447853e+02
1.044000000000000057e+02 1.944380151501693774e+02
1.048000000000000114e+02 1.941007935392726438e+02
1.052000000000000028e+02 1.937654684947178794e+02
1.056000000000000085e+02 1.934320218025916347e+02
1.060000000000000000e+02 1.931004354965576226e+02
1.064000000000000057e+02 1.927706918535063210e+02
1.068000000000000114e+02 1.924427733892985088e+02
1.072000000000000028e+02 1.921166628546000084e+02
1.076000000000000085e+02 1.917923432308052440e+02
1.080000000000000000e+02 1.914697977260480002e+02
1.084000000000000057e+02 1.911490097712958232e+02
1.088000000000000114e+02 1.908299630165278700e+02
1.092000000000000028e+02 1.905126413269923376e+02
1.096000000000000085e+02 1.901970287795424497e+02
1.100000000000000000e+02 1.898831096590493246e+02
1.104000000000000057e+02 1.895708684548883696e+02
1.108000000000000114e+02 1.892602898574996857e+02
1.112000000000000028e+02 1.889513587550180489e+02
1.116000000000000085e+02 1.886440602299731495e+02
1.120000000000000000e+02 1.883383795560567933e+02
1.124000000000000057e+02 1.880343021949560125e+02
1.128000000000000114e+02 1.877318137932507227e+02
1.132000000000000028e+02 1.874309001793737082e+02
1.136000000000000085e+02 1.871315473606324531e+02
1.140000000000000000e+02 1.868337415202900331e+02
1.144000000000000057e+02 1.865374690147050671e+02
1.148000000000000114e+02 1.862427163705280009e+02
1.152000000000000028e+02 1.859494702819536087e+02
1.156000000000000085e+02 1.856577176080275819e+02
1.160000000000000000e+02 1.853674453700059246e+02
1.164000000000000057e+02 1.850786407487666736e+02
1.168000000000000114e+02 1.847912910822718686e+02
1.172000000000000028e+02 1.845053838630792029e+02
1.176000000000000085e+02 1.842209067359017922e+02
1.180000000000000000e+02 1.839378474952152374e+02
1.184000000000000057e+02 1.836561940829107584e+02
1.188000000000000114e+02 1.833759345859937469e+02
1.192000000000000028e+02 1.830970572343256038e+02
1.196000000000000085e+02 1.828195503984094330e+02
1.200000000000000000e+02 1.825434025872173720e+02
1.204000000000000057e+02 1.822686024460590488e+02
1.208000000000000114e+02 1.819951387544905970e+02
1.212000000000000028e+02 1.817230004242624091e+02
1.216000000000000085e+02 1.814521764973059135e+02
1.220000000000000000e+02 1.811826561437576117e+02
1.224000000000000057e+02 1.809144286600197802e+02
1.228000000000000114e+02 1.806474834668576648e+02
1.232000000000000028e+02 1.803818101075309528e+02
1.236000000000000085e+02 1.801173982459606862e+02
1.240000000000000000e+02 1.798542376649286325e+02
1.244000000000000057e+02 1.795923182643107907e+02
1.248000000000000114e+02 1.793316300593421033e+02
1.252000000000000028e+02 1.790721631789133994e+02
1.256000000000000085e+02 1.788139078638984074e+02
1.260000000000000000e+02 1.785568544655118330e+02
1.264000000000000057e+02 1.783009934436961146e+02
1.268000000000000114e+02 1.780463153655377084e+02
1.272000000000000028e+02 1.777928109037113984e+02
1.276000000000000085e+02 1.775404708349521457e+02
1.280000000000000000e+02 1.772892860385541383e+02
1.284000000000000057e+02 1.770392474948968129e+02
1.288000000000000114e+02 1.767903462839960014e+02
1.291999999999999886e+02 1.765425735840813957e+02
1.296000000000000227e+02 1.762959206701980577e+02
1.300000000000000000e+02 1.760503789128333096e+02
1.304000000000000057e+02 1.758059397765665608e+02
1.308000000000000114e+02 1.755625948187431220e+02
1.311999999999999886e+02 1.753203356881708146e+02
1.316000000000000227e+02 1.750791541238386912e+02
1.320000000000000000e+02 1.748390419536584659e+02
1.324000000000000057e+02 1.745999910932268051e+02
1.328000000000000114e+02 1.743619935446089073e+02
1.331999999999999886e+02 1.741250413951430573e+02
1.336000000000000227e+02 1.738891268162649908e+02
1.340000000000000000e+02 1.736542420623526368e+02
1.344000000000000057e+02 1.734203794695898750e+02
1.348000000000000114e+02 1.731875314548493066e+02
1.351999999999999886e+02 1.729556905145945223e+02
1.356000000000000227e+02 1.727248492237995379e+02
1.360000000000000000e+02 1.724950002348871294e+02
1.364000000000000057e+02 1.722661362766843069e+02
1.368000000000000114e+02 1.720382501533950403e+02
1.371999999999999886e+02 1.718113347435904359e+02
1.376000000000000227e+02 1.715853829992146586e+02
1.380000000000000000e+02 1.713603879446078793e+02
1.384000000000000057e+02 1.711363426755447108e+02
1.388000000000000114e+02 1.709132403582886468e+02
1.392000000000000171e+02 1.706910742286614777e+02
1.395999999999999943e+02 1.704698375911281687e+02
1.400000000000000000e+02 1.702495238178960619e+02
1.404000000000000057e+02 1.700301263480289151e+02
1.408000000000000114e+02 1.698116386865750371e+02
1.412000000000000171e+02 1.695940544037092366e+02
1.415999999999999943e+02 1.693773671338886402e+02
1.420000000000000000e+02 1.691615705750219831e+02
1.424000000000000057e+02 1.689466584876515185e+02
1.428000000000000114e+02 1.687326246941486829e+02
1.432000000000000171e+02 1.685194630779216425e+02
1.435999999999999943e+02 1.683071675826360547e+02
1.440000000000000000e+02 1.680957322114471140e+02
1.444000000000000057e+02 1.678851510262444720e+02
1.448000000000000114e+02 1.676754181469084131e+02
1.452000000000000171e+02 1.674665277505777112e+02
1.455999999999999943e+02 1.672584740709287132e+02
1.460000000000000000e+02 1.670512513974657907e+02
1.464000000000000057e+02 1.668448540748223650e+02
1.468000000000000114e+02 1.666392765020730167e+02
1.472000000000000171e+02 1.664345131320560256e+02
1.475999999999999943e+02 1.662305584707057449e+02
1.480000000000000000e+02 1.660274070763960879e+02
1.484000000000000057e+02 1.658250535592930817e+02
1.488000000000000114e+02 1.656234925807178229e+02
1.492000000000000171e+02 1.654227188525186421e+02
1.495999999999999943e+02 1.652227271364527894e+02
1.500000000000000000e+02 1.650235122435778123e+02
