1.000000000000000000e+01 3.577807914640105196e+02
1.040000000000000036e+01 3.756604114054304659e+02
1.080000000000000071e+01 3.905581463163788385e+02
1.119999999999999929e+01 4.186304862543888703e+02
1.159999999999999964e+01 4.891881978195672787e+02
1.200000000000000000e+01 5.418411886939018132e+02
1.240000000000000036e+01 5.970665081411656274e+02
1.280000000000000071e+01 6.323875668669768402e+02
1.319999999999999929e+01 6.740904205336894393e+02
1.359999999999999964e+01 7.188195570767746858e+02
1.400000000000000000e+01 7.887956578399873706e+02
1.440000000000000036e+01 9.041410254748301440e+02
1.480000000000000071e+01 9.270204703099502694e+02
1.519999999999999929e+01 9.079066511176189351e+02
1.560000000000000142e+01 8.901736887043824709e+02
1.600000000000000000e+01 8.736531465075786400e+02
1.639999999999999858e+01 8.582048457486163215e+02
1.680000000000000071e+01 8.437109397378725362e+02
1.719999999999999929e+01 8.300714582767326419e+02
1.760000000000000142e+01 8.172009057583276217e+02
1.800000000000000000e+01 8.050256279353894797e+02
1.839999999999999858e+01 7.934817483562628695e+02
1.880000000000000071e+01 7.825135330489245007e+02
1.920000000000000284e+01 7.720720813282422341e+02
1.960000000000000142e+01 7.621142678973732245e+02
2.000000000000000000e+01 7.526018806815912967e+02
2.039999999999999858e+01 7.435009126343733215e+02
2.080000000000000071e+01 7.347809757757651141e+02
2.120000000000000284e+01 7.264148130886698027e+02
2.160000000000000142e+01 7.183778893753062675e+02
2.200000000000000000e+01 7.106480462915890257e+02
2.239999999999999858e+01 7.032052099004818047e+02
2.280000000000000071e+01 6.960311414775682124e+02
2.320000000000000284e+01 6.891092241500915634e+02
2.360000000000000142e+01 6.824242793898508808e+02
2.400000000000000000e+01 6.759624085095508690e+02
2.439999999999999858e+01 6.697108552045363012e+02
2.480000000000000071e+01 6.636578858917054049e+02
2.520000000000000284e+01 6.577926851656926601e+02
2.560000000000000142e+01 6.521052641500683649e+02
2.600000000000000000e+01 6.465863798919639294e+02
2.640000000000000213e+01 6.412274642503398354e+02
2.680000000000000071e+01 6.360205609751023985e+02
2.719999999999999929e+01 6.309582698773920129e+02
2.760000000000000142e+01 6.260336971591732436e+02
2.800000000000000000e+01 6.212404111094849668e+02
2.840000000000000213e+01 6.165724024907403873e+02
2.880000000000000071e+01 6.120240490355220118e+02
2.920000000000000284e+01 6.075900835558308017e+02
2.960000000000000142e+01 6.032655652354544600e+02
3.000000000000000000e+01 5.990458537342368572e+02
3.040000000000000213e+01 5.949265857823429542e+02
3.080000000000000071e+01 5.909036539846206324e+02
3.120000000000000284e+01 5.869731875910133567e+02
3.160000000000000142e+01 5.831315350197145335e+02
3.200000000000000000e+01 5.793752479461422809e+02
3.240000000000000568e+01 5.757010667935577430e+02
3.279999999999999716e+01 5.721059074807930074e+02
3.320000000000000284e+01 5.685868492995584802e+02
3.360000000000000142e+01 5.651411238085795503e+02
3.400000000000000000e+01 5.617661046446544333e+02
3.440000000000000568e+01 5.584592981619384773e+02
3.479999999999999716e+01 5.552183348205642233e+02
3.520000000000000284e+01 5.520409612542857758e+02
3.560000000000000142e+01 5.489250329543849602e+02
3.600000000000000000e+01 5.458685075136947944e+02
3.640000000000000568e+01 5.428694383804556765e+02
3.679999999999999716e+01 5.399259690768752762e+02
3.720000000000000284e+01 5.370363278418284381e+02
3.760000000000000142e+01 5.341988226611937307e+02
3.800000000000000000e+01 5.314118366529040713e+02
3.840000000000000568e+01 5.286738237769999387e+02
3.879999999999999716e+01 5.259833048438147216e+02
3.920000000000000284e+01 5.233388637959649259e+02
3.960000000000000142e+01 5.207391442420951080e+02
4.000000000000000000e+01 5.181828462223541010e+02
4.040000000000000568e+01 5.156687231874064992e+02
4.079999999999999716e+01 5.131955791744192084e+02
4.120000000000000284e+01 5.107622661649331803e+02
4.160000000000000142e+01 5.083676816108538787e+02
4.200000000000000000e+01 5.060107661159903500e+02
4.239999999999999858e+01 5.036905012616454655e+02
4.280000000000000426e+01 5.014059075657399944e+02
4.320000000000000284e+01 4.991560425658251461e+02
4.360000000000000142e+01 4.969399990171452828e+02
4.400000000000000000e+01 4.947569031976271390e+02
4.439999999999999858e+01 4.926059133123383162e+02
4.480000000000000426e+01 4.904862179905437642e+02
4.520000000000000284e+01 4.883970348690446031e+02
4.560000000000000142e+01 4.863376092559667541e+02
4.600000000000000000e+01 4.843072128696288132e+02
4.639999999999999858e+01 4.823051426475210519e+02
4.680000000000000426e+01 4.803307196208132837e+02
4.720000000000000284e+01 4.783832878501434038e+02
4.760000000000000142e+01 4.764622134187647475e+02
4.800000000000000000e+01 4.745668834794082613e+02
4.840000000000000568e+01 4.726967053514899249e+02
4.880000000000000426e+01 4.708511056655302696e+02
4.920000000000000284e+01 4.690295295518797616e+02
4.960000000000000142e+01 4.672314398710486785e+02
5.000000000000000000e+01 4.654563164831278641e+02
5.040000000000000568e+01 4.637036555539636993e+02
5.080000000000000426e+01 4.619729688959079681e+02
5.120000000000000284e+01 4.602637833411141628e+02
5.160000000000000142e+01 4.585756401454867728e+02
5.200000000000000000e+01 4.569080944215180011e+02
5.240000000000000568e+01 4.552607145983621422e+02
5.280000000000000426e+01 4.536330819076055718e+02
5.320000000000000284e+01 4.520247898932926205e+02
5.360000000000000142e+01 4.504354439448594007e+02
5.400000000000000000e+01 4.488646608517109939e+02
5.440000000000000568e+01 4.473120683782623246e+02
5.480000000000000426e+01 4.457773048583341620e+02
5.520000000000000284e+01 4.442600188078644692e+02
5.560000000000000142e+01 4.427598685549601782e+02
5.600000000000000000e+01 4.412765218863751215e+02
5.640000000000000568e+01 4.398096557095532262e+02
5.680000000000000426e+01 4.383589557294292831e+02
5.720000000000000284e+01 4.369241161392276922e+02
5.760000000000000142e+01 4.355048393245441503e+02
5.800000000000000000e+01 4.341008355800372556e+02
5.840000000000000568e+01 4.327118228380959977e+02
5.880000000000000426e+01 4.313375264088879248e+02
5.920000000000000284e+01 4.299776787312217721e+02
5.960000000000000142e+01 4.286320191336973835e+02
6.000000000000000000e+01 4.273002936056389558e+02
6.040000000000000568e+01 4.259822545773413935e+02
6.080000000000000426e+01 4.246776607091807136e+02
6.120000000000000284e+01 4.233862766891687670e+02
6.160000000000000142e+01 4.221078730385522135e+02
6.200000000000000000e+01 4.208422259250787079e+02
6.240000000000000568e+01 4.195891169835734331e+02
6.280000000000000426e+01 4.183483331434901515e+02
6.320000000000000284e+01 4.171196664631127078e+02
6.360000000000000142e+01 4.159029139701086706e+02
6.400000000000000000e+01 4.146978775081460640e+02
6.440000000000000568e+01 4.135043635893002829e+02
6.480000000000001137e+01 4.123221832519946020e+02
6.520000000000000284e+01 4.111511519242290547e+02
6.559999999999999432e+01 4.099910892918645118e+02
6.600000000000000000e+01 4.088418191717428840e+02
6.640000000000000568e+01 4.077031693894326736e+02
6.680000000000001137e+01 4.065749716614010367e+02
6.720000000000000284e+01 4.054570614814231249e+02
6.759999999999999432e+01 4.043492780110499325e+02
6.800000000000000000e+01 4.032514639739611084e+02
6.840000000000000568e+01 4.021634655540431709e+02
6.880000000000001137e+01 4.010851322970343062e+02
6.920000000000000284e+01 4.000163170155925059e+02
6.959999999999999432e+01 3.989568756976420900e+02
7.000000000000000000e+01 3.979066674178691301e+02
7.040000000000000568e+01 3.968655542522342330e+02
7.080000000000001137e+01 3.958334011953841127e+02
7.120000000000000284e+01 3.948100760808444534e+02
7.159999999999999432e+01 3.937954495038826508e+02
7.200000000000000000e+01 3.927893947469377736e+02
7.240000000000000568e+01 3.917917877075136630e+02
7.280000000000001137e+01 3.908025068284409826e+02
7.320000000000000284e+01 3.898214330304158466e+02
7.359999999999999432e+01 3.888484496467267491e+02
7.400000000000000000e+01 3.878834423600868604e+02
7.440000000000000568e+01 3.869262991414908015e+02
7.479999999999999716e+01 3.859769101910191580e+02
7.520000000000000284e+01 3.850351678805185429e+02
7.560000000000000853e+01 3.841009666980848465e+02
7.600000000000000000e+01 3.831742031942852122e+02
7.640000000000000568e+01 3.822547759300529151e+02
7.679999999999999716e+01 3.813425854261932955e+02
7.720000000000000284e+01 3.804375341144429967e+02
7.760000000000000853e+01 3.795395262900264015e+02
7.800000000000000000e+01 3.786484680656523665e+02
7.840000000000000568e+01 3.777642673269035640e+02
7.879999999999999716e+01 3.768868336889652824e+02
7.920000000000000284e+01 3.760160784546484933e+02
7.960000000000000853e+01 3.751519145736593259e+02
8.000000000000000000e+01 3.742942566030735634e+02
8.040000000000000568e+01 3.734430206689715988e+02
8.079999999999999716e+01 3.725981244291958205e+02
8.120000000000000284e+01 3.717594870371901834e+02
8.160000000000000853e+01 3.709270291068848451e+02
8.200000000000000000e+01 3.701006726785911951e+02
8.240000000000000568e+01 3.692803411858716345e+02
8.279999999999999716e+01 3.684659594233526150e+02
8.320000000000000284e+01 3.676574535154474006e+02
8.360000000000000853e+01 3.668547508859599589e+02
8.400000000000000000e+01 3.660577802285394569e+02
8.440000000000000568e+01 3.652664714779575661e+02
8.479999999999999716e+01 3.644807557821818023e+02
8.520000000000000284e+01 3.637005654752181840e+02
8.560000000000000853e+01 3.629258340506989953e+02
8.600000000000000000e+01 3.621564961361906398e+02
8.640000000000000568e+01 3.613924874681984534e+02
8.680000000000001137e+01 3.606337448678478381e+02
8.720000000000000284e+01 3.598802062172166529e+02
8.760000000000000853e+01 3.591318104363015209e+02
8.800000000000000000e+01 3.583884974605970228e+02
8.840000000000000568e+01 3.576502082192671423e+02
8.880000000000001137e+01 3.569168846138924209e+02
8.920000000000000284e+01 3.561884694977729282e+02
8.960000000000000853e+01 3.554649066557724382e+02
9.000000000000000000e+01 3.547461407846842576e+02
9.040000000000000568e+01 3.540321174741044388e+02
9.080000000000001137e+01 3.533227831877965741e+02
9.120000000000000284e+01 3.526180852455332797e+02
9.160000000000000853e+01 3.519179718053990769e+02
9.200000000000000000e+01 3.512223918465429051e+02
9.240000000000000568e+01 3.505312951523634410e+02
9.280000000000001137e+01 3.498446322941182984e+02
9.320000000000000284e+01 3.491623546149414210e+02
9.360000000000000853e+01 3.484844142142575265e+02
9.400000000000000000e+01 3.478107639325833134e+02
9.440000000000000568e+01 3.471413573367012759e+02
9.480000000000001137e+01 3.464761487051985114e+02
9.520000000000000284e+01 3.458150930143575579e+02
9.560000000000000853e+01 3.451581459243896006e+02
9.600000000000000000e+01 3.445052637660016899e+02
9.640000000000000568e+01 3.438564035272858632e+02
9.680000000000001137e+01 3.432115228409231236e+02
9.720000000000000284e+01 3.425705799716931779e+02
9.760000000000000853e+01 3.419335338042794774e+02
9.800000000000000000e+01 3.413003438313633069e+02
9.840000000000000568e+01 3.406709701419983389e+02
9.880000000000001137e+01 3.400453734102569570e+02
9.920000000000000284e+01 3.394235148841418095e+02
9.960000000000000853e+01 3.388053563747549788e+02
1.000000000000000000e+02 3.381908602457171469e+02
1.004000000000000057e+02 3.375799894028312451e+02
1.008000000000000114e+02 3.369727072839820607e+02
1.012000000000000028e+02 3.363689778492676510e+02
1.016000000000000085e+02 3.357687655713535264e+02
1.020000000000000000e+02 3.351720354260465911e+02
1.024000000000000057e+02 3.345787528830809947e+02
1.028000000000000114e+02 3.339888838971103837e+02
1.032000000000000028e+02 3.334023948989021733e+02
1.036000000000000085e+02 3.328192527867272474e+02
1.040000000000000000e+02 3.322394249179409371e+02
1.044000000000000057e+02 3.316628791007493646e+02
1.048000000000000114e+02 3.310895835861570049e+02
1.052000000000000028e+02 3.305195070600907457e+02
1.056000000000000085e+02 3.299526186356953872e+02
1.060000000000000000e+02 3.293888878457958640e+02
1.064000000000000057e+02 3.288282846355238007e+02
1.068000000000000114e+02 3.282707793551017517e+02
1.072000000000000028e+02 3.277163427527825093e+02
1.076000000000000085e+02 3.271649459679392749e+02
1.080000000000000000e+02 3.266165605243028836e+02
1.084000000000000057e+02 3.260711583233424449e+02
1.088000000000000114e+02 3.255287116377858183e+02
1.092000000000000028e+02 3.249891931052754899e+02
1.096000000000000085e+02 3.244525757221583717e+02
1.100000000000000000e+02 3.239188328374046932e+02
1.104000000000000057e+02 3.233879381466532550e+02
1.108000000000000114e+02 3.228598656863799192e+02
1.112000000000000028e+02 3.223345898281863242e+02
1.116000000000000085e+02 3.218120852732060939e+02
1.120000000000000000e+02 3.212923270466252461e+02
1.124000000000000057e+02 3.207752904923147526e+02
1.128000000000000114e+02 3.202609512675709880e+02
1.132000000000000028e+02 3.197492853379640110e+02
1.136000000000000085e+02 3.192402689722889590e+02
1.140000000000000000e+02 3.187338787376181131e+02
1.144000000000000057e+02 3.182300914944534043e+02
1.148000000000000114e+02 3.177288843919741339e+02
1.152000000000000028e+02 3.172302348633799625e+02
1.156000000000000085e+02 3.167341206213253599e+02
1.160000000000000000e+02 3.162405196534443235e+02
1.164000000000000057e+02 3.157494102179632591e+02
1.168000000000000114e+02 3.152607708393987309e+02
1.172000000000000028e+02 3.147745803043402475e+02
1.176000000000000085e+02 3.142908176573139372e+02
1.180000000000000000e+02 3.138094621967267130e+02
1.184000000000000057e+02 3.133304934708884275e+02
1.188000000000000114e+02 3.128538912741112199e+02
1.192000000000000028e+02 3.123796356428817944e+02
1.196000000000000085e+02 3.119077068521084470e+02
1.200000000000000000e+02 3.114380854114385784e+02
1.204000000000000057e+02 3.109707520616456122e+02
1.208000000000000114e+02 3.105056877710855474e+02
1.212000000000000028e+02 3.100428737322176858e+02
1.216000000000000085e+02 3.095822913581929470e+02
1.220000000000000000e+02 3.091239222795047681e+02
1.224000000000000057e+02 3.086677483407020190e+02
1.228000000000000114e+02 3.082137515971635366e+02
1.232000000000000028e+02 3.077619143119318323e+02
1.236000000000000085e+02 3.073122189526054626e+02
1.240000000000000000e+02 3.068646481882877310e+02
1.244000000000000057e+02 3.064191848865922907e+02
1.248000000000000114e+02 3.059758121107017814e+02
1.252000000000000028e+02 3.055345131164818326e+02
1.256000000000000085e+02 3.050952713496450315e+02
1.260000000000000000e+02 3.046580704429682100e+02
1.264000000000000057e+02 3.042228942135582770e+02
1.268000000000000114e+02 3.037897266601673891e+02
1.272000000000000028e+02 3.033585519605569516e+02
1.276000000000000085e+02 3.029293544689070359e+02
1.280000000000000000e+02 3.025021187132724663e+02
1.284000000000000057e+02 3.020768293930847221e+02
1.288000000000000114e+02 3.016534713766960181e+02
1.291999999999999886e+02 3.012320296989685176e+02
1.296000000000000227e+02 3.008124895589038488e+02
1.300000000000000000e+02 3.003948363173156508e+02
1.304000000000000057e+02 2.999790554945415124e+02
1.308000000000000114e+02 2.995651327681947578e+02
1.311999999999999886e+02 2.991530539709555114e+02
1.316000000000000227e+02 2.987428050883993365e+02
1.320000000000000000e+02 2.983343722568635030e+02
1.324000000000000057e+02 2.979277417613493526e+02
1.328000000000000114e+02 2.975229000334609282e+02
1.331999999999999886e+02 2.971198336493782790e+02
1.336000000000000227e+02 2.967185293278649851e+02
1.340000000000000000e+02 2.963189739283103563e+02
1.344000000000000057e+02 2.959211544488028949e+02
1.348000000000000114e+02 2.955250580242377509e+02
1.351999999999999886e+02 2.951306719244550436e+02
1.356000000000000227e+02 2.947379835524088776e+02
1.360000000000000000e+02 2.943469804423679648e+02
1.364000000000000057e+02 2.939576502581448949e+02
1.368000000000000114e+02 2.935699807913555901e+02
1.371999999999999886e+02 2.931839599597065558e+02
1.376000000000000227e+02 2.927995758053111786e+02
1.380000000000000000e+02 2.924168164930330249e+02
1.384000000000000057e+02 2.920356703088559129e+02
1.388000000000000114e+02 2.916561256582819510e+02
1.392000000000000171e+02 2.912781710647532236e+02
1.395999999999999943e+02 2.909017951681015006e+02
1.400000000000000000e+02 2.905269867230209684e+02
1.404000000000000057e+02 2.901537345975668813e+02
1.408000000000000114e+02 2.897820277716772353e+02
1.412000000000000171e+02 2.894118553357191104e+02
1.415999999999999943e+02 2.890432064890574111e+02
1.420000000000000000e+02 2.886760705386462291e+02
1.424000000000000057e+02 2.883104368976433989e+02
1.428000000000000114e+02 2.879462950840463691e+02
1.432000000000000171e+02 2.875836347193491065e+02
1.435999999999999943e+02 2.872224455272212253e+02
1.440000000000000000e+02 2.868627173322066710e+02
1.444000000000000057e+02 2.865044400584432651e+02
1.448000000000000114e+02 2.861476037284024869e+02
1.452000000000000171e+02 2.857921984616480131e+02
1.455999999999999943e+02 2.854382144736140958e+02
1.460000000000000000e+02 2.850856420744025286e+02
1.464000000000000057e+02 2.847344716675983136e+02
1.468000000000000114e+02 2.843846937491031213e+02
1.472000000000000171e+02 2.840362989059871097e+02
1.475999999999999943e+02 2.836892778153578547e+02
1.480000000000000000e+02 2.833436212432466732e+02
1.484000000000000057e+02 2.829993200435116023e+02
1.488000000000000114e+02 2.826563651567576585e+02
1.492000000000000171e+02 2.823147476092720467e+02
1.495999999999999943e+02 2.819744585119770477e+02
1.500000000000000000e+02 2.816354890593974005e+02
