1.000000000000000000e+01 9.100848009291198082e+01
1.040000000000000036e+01 9.368031206283110635e+01
1.080000000000000071e+01 9.651704681299034405e+01
1.119999999999999929e+01 1.022092337919061151e+02
1.159999999999999964e+01 1.092260089458459476e+02
1.200000000000000000e+01 1.098687232499291895e+02
1.240000000000000036e+01 1.058879162649569992e+02
1.280000000000000071e+01 1.023573450465747499e+02
1.319999999999999929e+01 9.919335047150747187e+01
1.359999999999999964e+01 9.633345695424878841e+01
1.400000000000000000e+01 9.372972770635108475e+01
1.440000000000000036e+01 9.134455727964950711e+01
1.480000000000000071e+01 8.934450226238280379e+01
1.519999999999999929e+01 8.756027652348544166e+01
1.560000000000000142e+01 8.590277040791372087e+01
1.600000000000000000e+01 8.437231697816241649e+01
1.639999999999999858e+01 8.293801056354240586e+01
1.680000000000000071e+01 8.158987361969431618e+01
1.719999999999999929e+01 7.772249844118583439e+01
1.760000000000000142e+01 7.638132980240807512e+01
1.800000000000000000e+01 7.511342608394116382e+01
1.839999999999999858e+01 7.391217701383877170e+01
1.880000000000000071e+01 7.277179468706050613e+01
1.920000000000000284e+01 7.168718438414367711e+01
1.960000000000000142e+01 7.065383968886027333e+01
2.000000000000000000e+01 6.966775662280164738e+01
2.039999999999999858e+01 6.872536280852690993e+01
2.080000000000000071e+01 6.782345861628471084e+01
2.120000000000000284e+01 6.695916794574047515e+01
2.160000000000000142e+01 6.612989681412403797e+01
2.200000000000000000e+01 6.490257855951097099e+01
2.239999999999999858e+01 6.416389027714166104e+01
2.280000000000000071e+01 6.345277063362276238e+01
2.320000000000000284e+01 6.276755727534234097e+01
2.360000000000000142e+01 6.211199682804532785e+01
2.400000000000000000e+01 5.747238112722978087e+01
2.439999999999999858e+01 5.682958728975089002e+01
2.480000000000000071e+01 5.620726255631161905e+01
2.520000000000000284e+01 5.560432620883854327e+01
2.560000000000000142e+01 5.501977681348878946e+01
2.600000000000000000e+01 5.445268481064441346e+01
2.640000000000000213e+01 5.390218594265348884e+01
2.680000000000000071e+01 5.336747540863692052e+01
2.719999999999999929e+01 5.284780265235146146e+01
2.760000000000000142e+01 5.234246670295982540e+01
2.800000000000000000e+01 5.185081200013274838e+01
2.840000000000000213e+01 5.136664356184719793e+01
2.880000000000000071e+01 5.088671529599102428e+01
2.920000000000000284e+01 5.041924525629367082e+01
2.960000000000000142e+01 4.996369927285071810e+01
3.000000000000000000e+01 4.951957493697884161e+01
3.040000000000000213e+01 4.908639919831412612e+01
3.080000000000000071e+01 4.866372618169354780e+01
3.120000000000000284e+01 4.825113520032587644e+01
3.160000000000000142e+01 4.784822894462347165e+01
3.200000000000000000e+01 4.745463182853953299e+01
3.240000000000000568e+01 4.670270414320133767e+01
3.279999999999999716e+01 4.635011792775723194e+01
3.320000000000000284e+01 4.600513711804144634e+01
3.360000000000000142e+01 4.566091275703518448e+01
3.400000000000000000e+01 4.531236178020658656e+01
3.440000000000000568e+01 4.497115864667620144e+01
3.479999999999999716e+01 4.463704770338821959e+01
3.520000000000000284e+01 4.430978563496825018e+01
3.560000000000000142e+01 4.398914070558763001e+01
3.600000000000000000e+01 4.367489205720929846e+01
3.640000000000000568e+01 4.336682905930818777e+01
3.679999999999999716e+01 4.306475070564788155e+01
3.720000000000000284e+01 4.276846505412756017e+01
3.760000000000000142e+01 4.267269533300869000e+01
3.800000000000000000e+01 4.239595813481581388e+01
3.840000000000000568e+01 4.212428419931528367e+01
3.879999999999999716e+01 4.185752002255068760e+01
3.920000000000000284e+01 4.159551857244562001e+01
3.960000000000000142e+01 4.133813894063006700e+01
4.000000000000000000e+01 4.108524601697816081e+01
4.040000000000000568e+01 4.083671018512102080e+01
4.079999999999999716e+01 4.059240703734994327e+01
4.120000000000000284e+01 4.035221710746219514e+01
4.160000000000000142e+01 4.010979495554706631e+01
4.200000000000000000e+01 3.986690488653385955e+01
4.239999999999999858e+01 3.962807681352929734e+01
4.280000000000000426e+01 3.939319828010432190e+01
4.320000000000000284e+01 3.916216115970205891e+01
4.360000000000000142e+01 3.893486144291713913e+01
4.400000000000000000e+01 3.871119903744545354e+01
4.439999999999999858e+01 3.849107757981920486e+01
4.480000000000000426e+01 3.827440425811387570e+01
4.520000000000000284e+01 3.806108964487737722e+01
4.560000000000000142e+01 3.785104753959055301e+01
4.600000000000000000e+01 3.764419482002145401e+01
4.639999999999999858e+01 3.743977600107060510e+01
4.680000000000000426e+01 3.723766026814281105e+01
4.720000000000000284e+01 3.703851927013845113e+01
4.760000000000000142e+01 3.684228058043083820e+01
4.800000000000000000e+01 3.664887422618176771e+01
4.840000000000000568e+01 3.645823258217743756e+01
4.880000000000000426e+01 3.646830278713461837e+01
4.920000000000000284e+01 3.630004624684531933e+01
4.960000000000000142e+01 3.613402039076410688e+01
5.000000000000000000e+01 3.597017603217250326e+01
5.040000000000000568e+01 3.580846549727544925e+01
5.080000000000000426e+01 3.564884256565132148e+01
5.120000000000000284e+01 3.549126241355168787e+01
5.160000000000000142e+01 3.533568155989046744e+01
5.200000000000000000e+01 3.518205781477237792e+01
5.240000000000000568e+01 3.503035023042080809e+01
5.280000000000000426e+01 3.488051905437315980e+01
5.320000000000000284e+01 3.473252568482094205e+01
5.360000000000000142e+01 3.458633262797876995e+01
5.400000000000000000e+01 3.444190345737424508e+01
5.440000000000000568e+01 3.451346295238820971e+01
5.480000000000000426e+01 3.437865142640104921e+01
5.520000000000000284e+01 3.424538883772717668e+01
5.560000000000000142e+01 3.411364554985157582e+01
5.600000000000000000e+01 3.398339271708087495e+01
5.640000000000000568e+01 3.385460225754668073e+01
5.680000000000000426e+01 3.372724682732906132e+01
5.720000000000000284e+01 3.360129979564575819e+01
5.760000000000000142e+01 3.346540763315952915e+01
5.800000000000000000e+01 3.334525596637747924e+01
5.840000000000000568e+01 3.322639274072520266e+01
5.880000000000000426e+01 3.310879488424058081e+01
5.920000000000000284e+01 3.299243990198181109e+01
5.960000000000000142e+01 3.287730585754472656e+01
6.000000000000000000e+01 3.276337135530038580e+01
6.040000000000000568e+01 3.265061552332011985e+01
6.080000000000000426e+01 3.253901799695650965e+01
6.120000000000000284e+01 3.242855890305088451e+01
6.160000000000000142e+01 3.231921884473911177e+01
6.200000000000000000e+01 3.221097888682898969e+01
6.240000000000000568e+01 3.210382054172403343e+01
6.280000000000000426e+01 3.199772575586954559e+01
6.320000000000000284e+01 3.189267689669824080e+01
6.360000000000000142e+01 3.178560733441632280e+01
6.400000000000000000e+01 3.167778009317500576e+01
6.440000000000000568e+01 3.157102595221118690e+01
6.480000000000001137e+01 3.146532709297294872e+01
6.520000000000000284e+01 3.136066611037370677e+01
6.559999999999999432e+01 3.125702600049527291e+01
6.600000000000000000e+01 3.115439014873631862e+01
6.640000000000000568e+01 3.105274231838730259e+01
6.680000000000001137e+01 3.095206663961354465e+01
6.720000000000000284e+01 3.085159411620081471e+01
6.759999999999999432e+01 3.075200668311676822e+01
6.800000000000000000e+01 3.065335366682609930e+01
6.840000000000000568e+01 3.055547222929827456e+01
6.880000000000001137e+01 3.045727208603313940e+01
6.920000000000000284e+01 3.035998198571457607e+01
6.959999999999999432e+01 3.026358789065668731e+01
7.000000000000000000e+01 3.016807606547913778e+01
7.040000000000000568e+01 3.007343306876916955e+01
7.080000000000001137e+01 2.997964574502351098e+01
7.120000000000000284e+01 2.988670121685909109e+01
7.159999999999999432e+01 2.979458687748195445e+01
7.200000000000000000e+01 2.970329038340443617e+01
7.240000000000000568e+01 2.961279964740091231e+01
7.280000000000001137e+01 2.952310283169279970e+01
7.320000000000000284e+01 2.943418834135425044e+01
7.359999999999999432e+01 2.934604481792997888e+01
7.400000000000000000e+01 2.925866113325723461e+01
7.440000000000000568e+01 2.917202638348422283e+01
7.479999999999999716e+01 2.908612988327774929e+01
7.520000000000000284e+01 2.900096116021268244e+01
7.560000000000000853e+01 2.891650994933708319e+01
7.600000000000000000e+01 2.883276618790597468e+01
7.640000000000000568e+01 2.874972001027790469e+01
7.679999999999999716e+01 2.866736174296838868e+01
7.720000000000000284e+01 2.858568189985435026e+01
7.760000000000000853e+01 2.850467117752432245e+01
7.800000000000000000e+01 2.842432045076916935e+01
7.840000000000000568e+01 2.834462076820821963e+01
7.879999999999999716e+01 2.826556334804616100e+01
7.920000000000000284e+01 2.818713957395598158e+01
7.960000000000000853e+01 2.810934099108368400e+01
8.000000000000000000e+01 2.803215930217036700e+01
8.040000000000000568e+01 2.795558636378774153e+01
8.079999999999999716e+01 2.787961418268315583e+01
8.120000000000000284e+01 2.780423491223033494e+01
8.160000000000000853e+01 2.772944084898224304e+01
8.200000000000000000e+01 2.768235621495265519e+01
8.240000000000000568e+01 2.760613491085826965e+01
8.279999999999999716e+01 2.753587129625832830e+01
8.320000000000000284e+01 2.746613385978433541e+01
8.360000000000000853e+01 2.739691601276025068e+01
8.400000000000000000e+01 2.732821128204354011e+01
8.440000000000000568e+01 2.743751360216992552e+01
8.479999999999999716e+01 2.737209887134727282e+01
8.520000000000000284e+01 2.730715446212568409e+01
8.560000000000000853e+01 2.724267469195010705e+01
8.600000000000000000e+01 2.717865397468683142e+01
8.640000000000000568e+01 2.711508681851744029e+01
8.680000000000001137e+01 2.705196782388895826e+01
8.720000000000000284e+01 2.698929168151866875e+01
8.760000000000000853e+01 2.692705317045136582e+01
8.800000000000000000e+01 2.686524715616804571e+01
8.840000000000000568e+01 2.680386858874388167e+01
8.880000000000001137e+01 2.674291250105434159e+01
8.920000000000000284e+01 2.668237400702770401e+01
8.960000000000000853e+01 2.662224829994272568e+01
9.000000000000000000e+01 2.656253065077003583e+01
9.040000000000000568e+01 2.650321640655583266e+01
9.080000000000001137e+01 2.644430098884679481e+01
9.120000000000000284e+01 2.638577989215476549e+01
9.160000000000000853e+01 2.632764868246019319e+01
9.200000000000000000e+01 2.626990299575303922e+01
9.240000000000000568e+01 2.621253853661013267e+01
9.280000000000001137e+01 2.615555107680784630e+01
9.320000000000000284e+01 2.609893645396914152e+01
9.360000000000000853e+01 2.604269057024378142e+01
9.400000000000000000e+01 2.598680939102101917e+01
9.440000000000000568e+01 2.593128894367360004e+01
9.480000000000001137e+01 2.587612531633227064e+01
9.520000000000000284e+01 2.582123724194101300e+01
9.560000000000000853e+01 2.576649190315202276e+01
9.600000000000000000e+01 2.571209468224956396e+01
9.640000000000000568e+01 2.565804186262916886e+01
9.680000000000001137e+01 2.560432978338238996e+01
9.720000000000000284e+01 2.555095483822297098e+01
9.760000000000000853e+01 2.549791347443825984e+01
9.800000000000000000e+01 2.544501895975290751e+01
9.840000000000000568e+01 2.539198846351906269e+01
9.880000000000001137e+01 2.533928720580336247e+01
9.920000000000000284e+01 2.528691175907547972e+01
9.960000000000000853e+01 2.523485874585318101e+01
1.000000000000000000e+02 2.518312483776272614e+01
1.004000000000000057e+02 2.513170675462085768e+01
1.008000000000000114e+02 2.508060126353774422e+01
1.012000000000000028e+02 2.502980517804028437e+01
1.016000000000000085e+02 2.497931535721526686e+01
1.020000000000000000e+02 2.492912870487189636e+01
1.024000000000000057e+02 2.487924216872304584e+01
1.028000000000000114e+02 2.482965273958485142e+01
1.032000000000000028e+02 2.478035745059413486e+01
1.036000000000000085e+02 2.473135337644313481e+01
1.040000000000000000e+02 2.468263763263121291e+01
1.044000000000000057e+02 2.463420737473292732e+01
1.048000000000000114e+02 2.458605979768218930e+01
1.052000000000000028e+02 2.453812037753259290e+01
1.056000000000000085e+02 2.449045430855229810e+01
1.060000000000000000e+02 2.444306180126285710e+01
1.064000000000000057e+02 2.439594022929851036e+01
1.068000000000000114e+02 2.434908700160119466e+01
1.072000000000000028e+02 2.430249956181132021e+01
1.076000000000000085e+02 2.425617538767119186e+01
1.080000000000000000e+02 2.421011199044108864e+01
1.084000000000000057e+02 2.416430691432739408e+01
1.088000000000000114e+02 2.411875773592275252e+01
1.092000000000000028e+02 2.407346206365774677e+01
1.096000000000000085e+02 2.402841753726388063e+01
1.100000000000000000e+02 2.398362182724773106e+01
1.104000000000000057e+02 2.393907263437567323e+01
1.108000000000000114e+02 2.390265045807248967e+01
1.112000000000000028e+02 2.385883062087905060e+01
1.116000000000000085e+02 2.381524890111158754e+01
1.120000000000000000e+02 2.377190313217593598e+01
1.124000000000000057e+02 2.372879117510167646e+01
1.128000000000000114e+02 2.368591091808977112e+01
1.132000000000000028e+02 2.364326027606921343e+01
1.136000000000000085e+02 2.360083719026251003e+01
1.140000000000000000e+02 2.355863962775978493e+01
1.144000000000000057e+02 2.351666558110126459e+01
1.148000000000000114e+02 2.347491306786806931e+01
1.152000000000000028e+02 2.343338013028093059e+01
1.156000000000000085e+02 2.339206483480680987e+01
1.160000000000000000e+02 2.335096527177318748e+01
1.164000000000000057e+02 2.332827092111837075e+01
1.168000000000000114e+02 2.328819197867200685e+01
1.172000000000000028e+02 2.324831880267013062e+01
1.176000000000000085e+02 2.320864962115471997e+01
1.180000000000000000e+02 2.316918268357254362e+01
1.184000000000000057e+02 2.312991626044276927e+01
1.188000000000000114e+02 2.309084864303085638e+01
1.192000000000000028e+02 2.305197814302858106e+01
1.196000000000000085e+02 2.301330309224012538e+01
1.200000000000000000e+02 2.297482184227405355e+01
1.204000000000000057e+02 2.293653276424100795e+01
1.208000000000000114e+02 2.289843424845710018e+01
1.212000000000000028e+02 2.286052470415277327e+01
1.216000000000000085e+02 2.282280255918704981e+01
1.220000000000000000e+02 2.278526625976705589e+01
1.224000000000000057e+02 2.274791427017274970e+01
1.228000000000000114e+02 2.271074507248660268e+01
1.232000000000000028e+02 2.267375716632828286e+01
1.236000000000000085e+02 2.263694906859416278e+01
1.240000000000000000e+02 2.260031931320152765e+01
1.244000000000000057e+02 2.256386645083741627e+01
1.248000000000000114e+02 2.252758904871200230e+01
1.252000000000000028e+02 2.249148569031638800e+01
1.256000000000000085e+02 2.245555497518473231e+01
1.260000000000000000e+02 2.241979551866064568e+01
1.264000000000000057e+02 2.238417758857132611e+01
1.268000000000000114e+02 2.234871728459751239e+01
1.272000000000000028e+02 2.231342426735565709e+01
1.276000000000000085e+02 2.227829721378991934e+01
1.280000000000000000e+02 2.224333481552092806e+01
1.284000000000000057e+02 2.220853577863646677e+01
1.288000000000000114e+02 2.217389882348584607e+01
1.291999999999999886e+02 2.213942268447784301e+01
1.296000000000000227e+02 2.210510610988209734e+01
1.300000000000000000e+02 2.205904873947623912e+01
1.304000000000000057e+02 2.202549267460265270e+01
1.308000000000000114e+02 2.199209008515903108e+01
1.311999999999999886e+02 2.195883979132154451e+01
1.316000000000000227e+02 2.192574062600792928e+01
1.320000000000000000e+02 2.189279143470041689e+01
1.324000000000000057e+02 2.185999107527154450e+01
1.328000000000000114e+02 2.182733841781303852e+01
1.331999999999999886e+02 2.179483234446749407e+01
1.336000000000000227e+02 2.176247174926293226e+01
1.340000000000000000e+02 2.173025553795016407e+01
1.344000000000000057e+02 2.169818262784280449e+01
1.348000000000000114e+02 2.166625194765999396e+01
1.351999999999999886e+02 2.163434595275968064e+01
1.356000000000000227e+02 2.160257354595266932e+01
1.360000000000000000e+02 2.157094086994841575e+01
1.364000000000000057e+02 2.153944689266086954e+01
1.368000000000000114e+02 2.150809059270963530e+01
1.371999999999999886e+02 2.147687095927707546e+01
1.376000000000000227e+02 2.144578699196774352e+01
1.380000000000000000e+02 2.141483770067008763e+01
1.384000000000000057e+02 2.138402210542039938e+01
1.388000000000000114e+02 2.135333923626897246e+01
1.392000000000000171e+02 2.132278813314843191e+01
1.395999999999999943e+02 2.129236784574414898e+01
1.400000000000000000e+02 2.126207743336670575e+01
1.404000000000000057e+02 2.123191596482651988e+01
1.408000000000000114e+02 2.120188251831030257e+01
1.412000000000000171e+02 2.117197618125962677e+01
1.415999999999999943e+02 2.114219605025128956e+01
1.420000000000000000e+02 2.111254123087966406e+01
1.424000000000000057e+02 2.108301083764086314e+01
1.428000000000000114e+02 2.105360399381871161e+01
1.432000000000000171e+02 2.102431983137250171e+01
1.435999999999999943e+02 2.099515749082656413e+01
1.440000000000000000e+02 2.096564985566159223e+01
1.444000000000000057e+02 2.093681768570536406e+01
1.448000000000000114e+02 2.090810449235233648e+01
1.452000000000000171e+02 2.087950945051722229e+01
1.455999999999999943e+02 2.085103174315383256e+01
1.460000000000000000e+02 2.082267056115426840e+01
1.464000000000000057e+02 2.079442510324960480e+01
1.468000000000000114e+02 2.076629457591216266e+01
1.472000000000000171e+02 2.073827819325916266e+01
1.475999999999999943e+02 2.071037517695796737e+01
1.480000000000000000e+02 2.068258475613266256e+01
1.484000000000000057e+02 2.065490616727211304e+01
1.488000000000000114e+02 2.062733865413936840e+01
1.492000000000000171e+02 2.059988146768246153e+01
1.495999999999999943e+02 2.057253386594650735e+01
1.500000000000000000e+02 2.054529511398713382e+01
