1.000000000000000000e+01 3.249595239876992423e+02
1.040000000000000036e+01 3.836035790020508216e+02
1.080000000000000071e+01 4.328784527735559209e+02
1.119999999999999929e+01 4.752727287296333429e+02
1.159999999999999964e+01 5.189247029268432243e+02
1.200000000000000000e+01 5.482652508241483247e+02
1.240000000000000036e+01 5.786504161424746826e+02
1.280000000000000071e+01 5.915567818666863786e+02
1.319999999999999929e+01 6.108062268925247054e+02
1.359999999999999964e+01 6.315450730803657962e+02
1.400000000000000000e+01 6.626499587486473501e+02
1.440000000000000036e+01 7.222341995399037842e+02
1.480000000000000071e+01 7.319760165951608997e+02
1.519999999999999929e+01 7.177418592987302191e+02
1.560000000000000142e+01 7.044682646187329738e+02
1.600000000000000000e+01 6.920445156682537799e+02
1.639999999999999858e+01 6.803776781034265468e+02
1.680000000000000071e+01 6.693889902343519225e+02
1.719999999999999929e+01 6.590111276384321854e+02
1.760000000000000142e+01 6.491860988250128912e+02
1.800000000000000000e+01 6.398636043511964999e+02
1.839999999999999858e+01 6.309997416980053231e+02
1.880000000000000071e+01 6.225559717812876670e+02
1.920000000000000284e+01 6.144982859927265508e+02
1.960000000000000142e+01 6.067965287381135795e+02
2.000000000000000000e+01 5.994238418425977670e+02
2.039999999999999858e+01 5.923562054022781922e+02
2.080000000000000071e+01 5.855720556524047424e+02
2.120000000000000284e+01 5.790519648487143058e+02
2.160000000000000142e+01 5.727783714661994736e+02
2.200000000000000000e+01 5.667353515178227781e+02
2.239999999999999858e+01 5.609084237010199558e+02
2.280000000000000071e+01 5.552843825463568237e+02
2.320000000000000284e+01 5.498511548810922704e+02
2.360000000000000142e+01 5.445976758111561367e+02
2.400000000000000000e+01 5.395137811272545605e+02
2.439999999999999858e+01 5.345901135982762753e+02
2.480000000000000071e+01 5.298180410606562418e+02
2.520000000000000284e+01 5.251895845705591910e+02
2.560000000000000142e+01 5.206973551754991831e+02
2.600000000000000000e+01 5.163344980976597753e+02
2.640000000000000213e+01 5.120946433138760767e+02
2.680000000000000071e+01 5.079718616755703238e+02
2.719999999999999929e+01 5.039606258426724139e+02
2.760000000000000142e+01 5.000557754139754252e+02
2.800000000000000000e+01 4.962524857266979552e+02
2.840000000000000213e+01 4.925462398735595571e+02
2.880000000000000071e+01 4.889328035491030278e+02
2.920000000000000284e+01 4.854082023904545622e+02
2.960000000000000142e+01 4.819687015229293365e+02
3.000000000000000000e+01 4.786107870592664995e+02
3.040000000000000213e+01 4.753311493339585354e+02
3.080000000000000071e+01 4.721266676820553130e+02
3.120000000000000284e+01 4.689943965957438650e+02
3.160000000000000142e+01 4.659315531125603229e+02
3.200000000000000000e+01 4.629355053068024404e+02
3.240000000000000568e+01 4.600037617710185032e+02
3.279999999999999716e+01 4.571339619877080054e+02
3.320000000000000284e+01 4.543238675028829903e+02
3.360000000000000142e+01 4.515713538231705115e+02
3.400000000000000000e+01 4.488744029668806661e+02
3.440000000000000568e+01 4.462310966071186726e+02
3.479999999999999716e+01 4.436396097517291537e+02
3.520000000000000284e+01 4.410982049107479952e+02
3.560000000000000142e+01 4.386052267072275868e+02
3.600000000000000000e+01 4.361590968918700923e+02
3.640000000000000568e+01 4.337583097259480382e+02
3.679999999999999716e+01 4.314014277005676945e+02
3.720000000000000284e+01 4.290870775635005430e+02
3.760000000000000142e+01 4.268139466276327880e+02
3.800000000000000000e+01 4.245807793375837491e+02
3.840000000000000568e+01 4.223863740732856513e+02
3.879999999999999716e+01 4.202295801713099763e+02
3.920000000000000284e+01 4.181092951465111014e+02
3.960000000000000142e+01 4.160244620981587218e+02
4.000000000000000000e+01 4.139740672861586290e+02
4.040000000000000568e+01 4.119571378642566515e+02
4.079999999999999716e+01 4.099727397582706772e+02
4.120000000000000284e+01 4.080199756784455758e+02
4.160000000000000142e+01 4.060979832559604574e+02
4.200000000000000000e+01 4.042059332944725725e+02
4.239999999999999858e+01 4.023430281283443719e+02
4.280000000000000426e+01 4.005085000799016939e+02
4.320000000000000284e+01 3.987016100086945585e+02
4.360000000000000142e+01 3.969216459463078763e+02
4.400000000000000000e+01 3.951679218107888687e+02
4.439999999999999858e+01 3.934397761952269548e+02
4.480000000000000426e+01 3.917365712254543269e+02
4.520000000000000284e+01 3.900576914822279946e+02
4.560000000000000142e+01 3.884025429836078160e+02
4.600000000000000000e+01 3.867705522235767717e+02
4.639999999999999858e+01 3.851611652632427649e+02
4.680000000000000426e+01 3.835738468712386293e+02
4.720000000000000284e+01 3.820080797101848020e+02
4.760000000000000142e+01 3.804633635663087716e+02
4.800000000000000000e+01 3.789392146195261830e+02
4.840000000000000568e+01 3.774351647514830006e+02
4.880000000000000426e+01 3.759507608892311055e+02
4.920000000000000284e+01 3.744855643823800619e+02
4.960000000000000142e+01 3.730391504117126829e+02
5.000000000000000000e+01 3.716111074273914596e+02
5.040000000000000568e+01 3.702010366150153686e+02
5.080000000000000426e+01 3.688085513878976371e+02
5.120000000000000284e+01 3.674332769040493076e+02
5.160000000000000142e+01 3.660748496064525739e+02
5.200000000000000000e+01 3.647329167853002332e+02
5.240000000000000568e+01 3.634071361609662176e+02
5.280000000000000426e+01 3.620971754865483376e+02
5.320000000000000284e+01 3.608027121689030992e+02
5.360000000000000142e+01 3.595234329071576553e+02
5.400000000000000000e+01 3.582590333477492095e+02
5.440000000000000568e+01 3.570092177551023838e+02
5.480000000000000426e+01 3.557736986971074202e+02
5.520000000000000284e+01 3.545521967446168219e+02
5.560000000000000142e+01 3.533444401842231741e+02
5.600000000000000000e+01 3.521501647436266467e+02
5.640000000000000568e+01 3.509691133289417735e+02
5.680000000000000426e+01 3.498010357733309093e+02
5.720000000000000284e+01 3.486456885963897321e+02
5.760000000000000142e+01 3.475028347737424497e+02
5.800000000000000000e+01 3.463722435163348337e+02
5.840000000000000568e+01 3.452536900589448692e+02
5.880000000000000426e+01 3.441469554574578069e+02
5.920000000000000284e+01 3.430518263944751993e+02
5.960000000000000142e+01 3.419680949928556970e+02
6.000000000000000000e+01 3.408955586368057880e+02
6.040000000000000568e+01 3.398340198001590693e+02
6.080000000000000426e+01 3.387832858815047530e+02
6.120000000000000284e+01 3.377431690458413414e+02
6.160000000000000142e+01 3.367134860724534065e+02
6.200000000000000000e+01 3.356940582087202074e+02
6.240000000000000568e+01 3.346847110295860261e+02
6.280000000000000426e+01 3.336852743024315942e+02
6.320000000000000284e+01 3.326955818571024110e+02
6.360000000000000142e+01 3.317154714608623181e+02
6.400000000000000000e+01 3.307447846980510917e+02
6.440000000000000568e+01 3.297833668542385794e+02
6.480000000000001137e+01 3.288310668046757428e+02
6.520000000000000284e+01 3.278877369068559915e+02
6.559999999999999432e+01 3.269532328970065578e+02
6.600000000000000000e+01 3.260274137903423366e+02
6.640000000000000568e+01 3.251101417849184259e+02
6.680000000000001137e+01 3.242012821689302200e+02
6.720000000000000284e+01 3.233007032313140598e+02
6.759999999999999432e+01 3.224082761755099114e+02
6.800000000000000000e+01 3.215238750362543669e+02
6.840000000000000568e+01 3.206473765992783456e+02
6.880000000000001137e+01 3.197786603237893246e+02
6.920000000000000284e+01 3.189176082676247006e+02
6.959999999999999432e+01 3.180641050149671401e+02
7.000000000000000000e+01 3.172180376065191467e+02
7.040000000000000568e+01 3.163792954720370858e+02
7.080000000000001137e+01 3.155477703651316688e+02
7.120000000000000284e+01 3.147233563002438359e+02
7.159999999999999432e+01 3.139059494917118514e+02
7.200000000000000000e+01 3.130954482948457098e+02
7.240000000000000568e+01 3.122917531489328553e+02
7.280000000000001137e+01 3.114947665220993827e+02
7.320000000000000284e+01 3.107043928579550993e+02
7.359999999999999432e+01 3.099205385239554289e+02
7.400000000000000000e+01 3.091431117614134791e+02
7.440000000000000568e+01 3.083720226371022477e+02
7.479999999999999716e+01 3.076071829963838127e+02
7.520000000000000284e+01 3.068485064178128710e+02
7.560000000000000853e+01 3.060959081691555070e+02
7.600000000000000000e+01 3.053493051647750463e+02
7.640000000000000568e+01 3.046086159243317297e+02
7.679999999999999716e+01 3.038737605327505662e+02
7.720000000000000284e+01 3.031446606014093277e+02
7.760000000000000853e+01 3.024212392305053072e+02
7.800000000000000000e+01 3.017034209725562732e+02
7.840000000000000568e+01 3.009911317969960010e+02
7.879999999999999716e+01 3.002842990558265228e+02
7.920000000000000284e+01 2.995828514502881603e+02
7.960000000000000853e+01 2.988867189985137429e+02
8.000000000000000000e+01 2.981958330041304635e+02
8.040000000000000568e+01 2.975101260257784475e+02
8.079999999999999716e+01 2.968295318475133513e+02
8.120000000000000284e+01 2.961539854500632600e+02
8.160000000000000853e+01 2.954834229829104402e+02
8.200000000000000000e+01 2.948177817371699803e+02
8.240000000000000568e+01 2.941570001192384893e+02
8.279999999999999716e+01 2.935010176251878420e+02
8.320000000000000284e+01 2.928497748158769696e+02
8.360000000000000853e+01 2.922032132927607222e+02
8.400000000000000000e+01 2.915612756743705063e+02
8.440000000000000568e+01 2.909239055734452677e+02
8.479999999999999716e+01 2.902910475746925272e+02
8.520000000000000284e+01 2.896626472131574133e+02
8.560000000000000853e+01 2.890386509531816159e+02
8.600000000000000000e+01 2.884190061679318546e+02
8.640000000000000568e+01 2.878036611194801253e+02
8.680000000000001137e+01 2.871925649394193556e+02
8.720000000000000284e+01 2.865856676099952551e+02
8.760000000000000853e+01 2.859829199457397522e+02
8.800000000000000000e+01 2.853842735755899866e+02
8.840000000000000568e+01 2.847896809254772847e+02
8.880000000000001137e+01 2.841990952013715628e+02
8.920000000000000284e+01 2.836124703727674614e+02
8.960000000000000853e+01 2.830297611565985108e+02
9.000000000000000000e+01 2.824509230015659682e+02
9.040000000000000568e+01 2.818759120728696530e+02
9.080000000000001137e+01 2.813046852373291244e+02
9.120000000000000284e+01 2.807372000488829826e+02
9.160000000000000853e+01 2.801734147344545818e+02
9.200000000000000000e+01 2.796132881801747203e+02
9.240000000000000568e+01 2.790567799179478357e+02
9.280000000000001137e+01 2.785038501123556216e+02
9.320000000000000284e+01 2.779544595478835731e+02
9.360000000000000853e+01 2.774085696164645469e+02
9.400000000000000000e+01 2.768661423053284807e+02
9.440000000000000568e+01 2.763271401851493465e+02
9.480000000000001137e+01 2.757915263984814374e+02
9.520000000000000284e+01 2.752592646484757779e+02
9.560000000000000853e+01 2.747303191878694406e+02
9.600000000000000000e+01 2.742046548082396384e+02
9.640000000000000568e+01 2.736822368295146930e+02
9.680000000000001137e+01 2.731630310897354548e+02
9.720000000000000284e+01 2.726470039350591605e+02
9.760000000000000853e+01 2.721341222099998163e+02
9.800000000000000000e+01 2.716243532478978295e+02
9.840000000000000568e+01 2.711176648616128091e+02
9.880000000000001137e+01 2.706140253344335633e+02
9.920000000000000284e+01 2.701134034111988171e+02
9.960000000000000853e+01 2.696157682896231336e+02
1.000000000000000000e+02 2.691210896118225833e+02
1.004000000000000057e+02 2.686293374560344773e+02
1.008000000000000114e+02 2.681404823285259909e+02
1.012000000000000028e+02 2.676544951556867886e+02
1.016000000000000085e+02 2.671713472763001960e+02
1.020000000000000000e+02 2.666910104339885947e+02
1.024000000000000057e+02 2.662134567698284400e+02
1.028000000000000114e+02 2.657386588151301225e+02
1.032000000000000028e+02 2.652665894843783576e+02
1.036000000000000085e+02 2.647972220683288924e+02
1.040000000000000000e+02 2.643305302272577819e+02
1.044000000000000057e+02 2.638664879843588551e+02
1.048000000000000114e+02 2.634050697192856774e+02
1.052000000000000028e+02 2.629462501618336319e+02
1.056000000000000085e+02 2.624900043857605283e+02
1.060000000000000000e+02 2.620363078027392589e+02
1.064000000000000057e+02 2.615851361564413082e+02
1.068000000000000114e+02 2.611364655167474780e+02
1.072000000000000028e+02 2.606902722740816216e+02
1.076000000000000085e+02 2.602465331338650003e+02
1.080000000000000000e+02 2.598052251110885322e+02
1.084000000000000057e+02 2.593663255249990698e+02
1.088000000000000114e+02 2.589298119938979994e+02
1.092000000000000028e+02 2.584956624300480144e+02
1.096000000000000085e+02 2.580638550346863553e+02
1.100000000000000000e+02 2.576343682931423587e+02
1.104000000000000057e+02 2.572071809700547647e+02
1.108000000000000114e+02 2.567822721046886727e+02
1.112000000000000028e+02 2.563596210063483340e+02
1.116000000000000085e+02 2.559392072498833386e+02
1.120000000000000000e+02 2.555210106712872857e+02
1.124000000000000057e+02 2.551050113633849890e+02
1.128000000000000114e+02 2.546911896716072192e+02
1.132000000000000028e+02 2.542795261898507704e+02
1.136000000000000085e+02 2.538700017564212601e+02
1.140000000000000000e+02 2.534625974500575296e+02
1.144000000000000057e+02 2.530572945860343737e+02
1.148000000000000114e+02 2.526540747123439132e+02
1.152000000000000028e+02 2.522529196059514902e+02
1.156000000000000085e+02 2.518538112691254582e+02
1.160000000000000000e+02 2.514567319258395344e+02
1.164000000000000057e+02 2.510616640182449828e+02
1.168000000000000114e+02 2.506685902032120055e+02
1.172000000000000028e+02 2.502774933489375542e+02
1.176000000000000085e+02 2.498883565316199338e+02
1.180000000000000000e+02 2.495011630321962173e+02
1.184000000000000057e+02 2.491158963331432403e+02
1.188000000000000114e+02 2.487325401153397024e+02
1.192000000000000028e+02 2.483510782549874989e+02
1.196000000000000085e+02 2.479714948205924543e+02
1.200000000000000000e+02 2.475937740700014729e+02
1.204000000000000057e+02 2.472179004474959925e+02
1.208000000000000114e+02 2.468438585809402923e+02
1.212000000000000028e+02 2.464716332789823241e+02
1.216000000000000085e+02 2.461012095283080043e+02
1.220000000000000000e+02 2.457325724909458131e+02
1.224000000000000057e+02 2.453657075016215003e+02
1.228000000000000114e+02 2.450006000651619900e+02
1.232000000000000028e+02 2.446372358539466347e+02
1.236000000000000085e+02 2.442756007054055658e+02
1.240000000000000000e+02 2.439156806195637728e+02
1.244000000000000057e+02 2.435574617566297206e+02
1.248000000000000114e+02 2.432009304346281340e+02
1.252000000000000028e+02 2.428460731270753001e+02
1.256000000000000085e+02 2.424928764606964933e+02
1.260000000000000000e+02 2.421413272131843542e+02
1.264000000000000057e+02 2.417914123109975719e+02
1.268000000000000114e+02 2.414431188271986741e+02
1.272000000000000028e+02 2.410964339793307829e+02
1.276000000000000085e+02 2.407513451273312910e+02
1.280000000000000000e+02 2.404078397714829975e+02
1.284000000000000057e+02 2.400659055504014532e+02
1.288000000000000114e+02 2.397255302390569796e+02
1.291999999999999886e+02 2.393867017468322729e+02
1.296000000000000227e+02 2.390494081156130051e+02
1.300000000000000000e+02 2.387136375179123320e+02
1.304000000000000057e+02 2.383793782550275466e+02
1.308000000000000114e+02 2.380466187552286215e+02
1.311999999999999886e+02 2.377153475719782989e+02
1.316000000000000227e+02 2.373855533821819961e+02
1.320000000000000000e+02 2.370572249844689452e+02
1.324000000000000057e+02 2.367303512975011017e+02
1.328000000000000114e+02 2.364049213583120945e+02
1.331999999999999886e+02 2.360809243206737165e+02
1.336000000000000227e+02 2.357583494534902684e+02
1.340000000000000000e+02 2.354371861392196195e+02
1.344000000000000057e+02 2.351174238723213250e+02
1.348000000000000114e+02 2.347990522577303238e+02
1.351999999999999886e+02 2.344820610093561868e+02
1.356000000000000227e+02 2.341664399486074899e+02
1.360000000000000000e+02 2.338521790029404599e+02
1.364000000000000057e+02 2.335392682044318633e+02
1.368000000000000114e+02 2.332276976883751445e+02
1.371999999999999886e+02 2.329174576918998696e+02
1.376000000000000227e+02 2.326085385526138225e+02
1.380000000000000000e+02 2.323009307072669003e+02
1.384000000000000057e+02 2.319946246904372629e+02
1.388000000000000114e+02 2.316896111332386852e+02
1.392000000000000171e+02 2.313858807620483731e+02
1.395999999999999943e+02 2.310834243972561808e+02
1.400000000000000000e+02 2.307822329520330413e+02
1.404000000000000057e+02 2.304822974311198607e+02
1.408000000000000114e+02 2.301836089296353407e+02
1.412000000000000171e+02 2.298861586319031289e+02
1.415999999999999943e+02 2.295899378102973287e+02
1.420000000000000000e+02 2.292949378241065119e+02
1.424000000000000057e+02 2.290011501184156941e+02
1.428000000000000114e+02 2.287085662230057892e+02
1.432000000000000171e+02 2.284171777512704864e+02
1.435999999999999943e+02 2.281269763991499531e+02
1.440000000000000000e+02 2.278379539440814483e+02
1.444000000000000057e+02 2.275501022439659096e+02
1.448000000000000114e+02 2.272634132361510808e+02
1.452000000000000171e+02 2.269778789364299030e+02
1.455999999999999943e+02 2.266934914380547070e+02
1.460000000000000000e+02 2.264102429107664420e+02
1.464000000000000057e+02 2.261281255998386825e+02
1.468000000000000114e+02 2.258471318251367279e+02
1.472000000000000171e+02 2.255672539801905714e+02
1.475999999999999943e+02 2.252884845312820232e+02
1.480000000000000000e+02 2.250108160165462436e+02
1.484000000000000057e+02 2.247342410450861507e+02
1.488000000000000114e+02 2.244587522961006414e+02
1.492000000000000171e+02 2.241843425180258009e+02
1.495999999999999943e+02 2.239110045276889593e+02
1.500000000000000000e+02 2.236387312094755941e+02
