1.000000000000000000e+01 1.432002737759913487e+02
1.040000000000000036e+01 1.542941896794255570e+02
1.080000000000000071e+01 1.749946161697862124e+02
1.119999999999999929e+01 1.942181023642721129e+02
1.159999999999999964e+01 2.268542537841778994e+02
1.200000000000000000e+01 2.378434920738773712e+02
1.240000000000000036e+01 2.272857710177952413e+02
1.280000000000000071e+01 2.180687314474446907e+02
1.319999999999999929e+01 2.102702272944605681e+02
1.359999999999999964e+01 2.041852940003566061e+02
1.400000000000000000e+01 1.987103622274311476e+02
1.440000000000000036e+01 1.937477199029825101e+02
1.480000000000000071e+01 1.892779005832233850e+02
1.519999999999999929e+01 1.852340828527443932e+02
1.560000000000000142e+01 1.814993665591653667e+02
1.600000000000000000e+01 1.780355204036568182e+02
1.639999999999999858e+01 1.748107203698296530e+02
1.680000000000000071e+01 1.717982140092090617e+02
1.719999999999999929e+01 1.663784559929163152e+02
1.760000000000000142e+01 1.635848784924189090e+02
1.800000000000000000e+01 1.609542571972401959e+02
1.839999999999999858e+01 1.584711205504541169e+02
1.880000000000000071e+01 1.561219971940087419e+02
1.920000000000000284e+01 1.530131661122648552e+02
1.960000000000000142e+01 1.508958161094611228e+02
2.000000000000000000e+01 1.488825420830691826e+02
2.039999999999999858e+01 1.469649862375509315e+02
2.080000000000000071e+01 1.451357068126353624e+02
2.120000000000000284e+01 1.433880521818282432e+02
2.160000000000000142e+01 1.295404545483112315e+02
2.200000000000000000e+01 1.235035176358797742e+02
2.239999999999999858e+01 1.218807792344226044e+02
2.280000000000000071e+01 1.203200479285012676e+02
2.320000000000000284e+01 1.188141334177001767e+02
2.360000000000000142e+01 1.173586244378263785e+02
2.400000000000000000e+01 1.159541998451261406e+02
2.439999999999999858e+01 1.145978849760046927e+02
2.480000000000000071e+01 1.132869453637655113e+02
2.520000000000000284e+01 1.120188621171606371e+02
2.560000000000000142e+01 1.107913103386127602e+02
2.600000000000000000e+01 1.096021401456353601e+02
2.640000000000000213e+01 1.084493599300901678e+02
2.680000000000000071e+01 1.073311215481292606e+02
2.719999999999999929e+01 1.062457071815418317e+02
2.760000000000000142e+01 1.051915176507817762e+02
2.800000000000000000e+01 1.041670619927766097e+02
2.840000000000000213e+01 1.031709481439733480e+02
2.880000000000000071e+01 1.022018745919624365e+02
2.920000000000000284e+01 1.013666609475447729e+02
2.960000000000000142e+01 1.004261053965337709e+02
3.000000000000000000e+01 9.946647820835437415e+01
3.040000000000000213e+01 9.852678292256405257e+01
3.080000000000000071e+01 9.759330504051224864e+01
3.120000000000000284e+01 9.668343226216556729e+01
3.160000000000000142e+01 9.579618379553129159e+01
3.200000000000000000e+01 9.493063514917460566e+01
3.240000000000000568e+01 9.371862969859017767e+01
3.279999999999999716e+01 9.291735220237254111e+01
3.320000000000000284e+01 9.213460680448221751e+01
3.360000000000000142e+01 9.136968780893526798e+01
3.400000000000000000e+01 9.062192671024727986e+01
3.440000000000000568e+01 8.989068970306890094e+01
3.479999999999999716e+01 8.917526227747538314e+01
3.520000000000000284e+01 8.847281994770484914e+01
3.560000000000000142e+01 8.778521034758381347e+01
3.600000000000000000e+01 8.711191751654887128e+01
3.640000000000000568e+01 8.645245035702106406e+01
3.679999999999999716e+01 8.580634111062643399e+01
3.720000000000000284e+01 8.517314394731678817e+01
3.760000000000000142e+01 8.455243365761208452e+01
3.800000000000000000e+01 8.394380443915314061e+01
3.840000000000000568e+01 8.334686876961194457e+01
3.879999999999999716e+01 8.276125635877318132e+01
3.920000000000000284e+01 8.218661317328208327e+01
3.960000000000000142e+01 8.162260052816627365e+01
4.000000000000000000e+01 8.106889423978167031e+01
4.040000000000000568e+01 8.052518383532553514e+01
4.079999999999999716e+01 7.999117181449543068e+01
4.120000000000000284e+01 7.946657295926961240e+01
4.160000000000000142e+01 7.894488302345962438e+01
4.200000000000000000e+01 7.837111863991248129e+01
4.239999999999999858e+01 7.787165265730391184e+01
4.280000000000000426e+01 7.738063961089827103e+01
4.320000000000000284e+01 7.761110367935691556e+01
4.360000000000000142e+01 7.720246493984963365e+01
4.400000000000000000e+01 7.680002014274728595e+01
4.439999999999999858e+01 7.640361291981763259e+01
4.480000000000000426e+01 7.629897929609637686e+01
4.520000000000000284e+01 7.593198712587754073e+01
4.560000000000000142e+01 7.557020423330948233e+01
4.600000000000000000e+01 7.521350716093962774e+01
4.639999999999999858e+01 7.486177653983340008e+01
4.680000000000000426e+01 7.451489691614068533e+01
4.720000000000000284e+01 7.417275658661080229e+01
4.760000000000000142e+01 7.383524744251171512e+01
4.800000000000000000e+01 7.350226482145055229e+01
4.840000000000000568e+01 7.317370736662424235e+01
4.880000000000000426e+01 7.284947689306314089e+01
4.920000000000000284e+01 7.252828963738326706e+01
4.960000000000000142e+01 7.220807952756140935e+01
5.000000000000000000e+01 7.189201497101448979e+01
5.040000000000000568e+01 7.158000632583812717e+01
5.080000000000000426e+01 7.127196666099824540e+01
5.120000000000000284e+01 7.096781165122017399e+01
5.160000000000000142e+01 7.066745947684051998e+01
5.200000000000000000e+01 7.037083072834479935e+01
5.240000000000000568e+01 7.007784831533423642e+01
5.280000000000000426e+01 6.978843737967913796e+01
5.320000000000000284e+01 6.950252521263247729e+01
5.360000000000000142e+01 6.922004117569140647e+01
5.400000000000000000e+01 6.894091662500727580e+01
5.440000000000000568e+01 6.887934501658817510e+01
5.480000000000000426e+01 6.861293620256941495e+01
5.520000000000000284e+01 6.834958051165868653e+01
5.560000000000000142e+01 6.808921948019828108e+01
5.600000000000000000e+01 6.783179620989074010e+01
5.640000000000000568e+01 6.757725531406175890e+01
5.680000000000000426e+01 6.731354187027501723e+01
5.720000000000000284e+01 6.704641370805268252e+01
5.760000000000000142e+01 6.678234687042007067e+01
5.800000000000000000e+01 6.658207046999478962e+01
5.840000000000000568e+01 6.632772320324370696e+01
5.880000000000000426e+01 6.607619710907060551e+01
5.920000000000000284e+01 6.582721619229511134e+01
5.960000000000000142e+01 6.557668771228497917e+01
6.000000000000000000e+01 6.532890283293633615e+01
6.040000000000000568e+01 6.508381152034034756e+01
6.080000000000000426e+01 6.484136501489068394e+01
6.120000000000000284e+01 6.460151578970317132e+01
6.160000000000000142e+01 6.436421751068695585e+01
6.200000000000000000e+01 6.412942499819004638e+01
6.240000000000000568e+01 6.389709419014606340e+01
6.280000000000000426e+01 6.366718210665331412e+01
6.320000000000000284e+01 6.343964681592026267e+01
6.360000000000000142e+01 6.321444740151586217e+01
6.400000000000000000e+01 6.299154393086547543e+01
6.440000000000000568e+01 6.277089742493692626e+01
6.480000000000001137e+01 6.255246982906365361e+01
6.520000000000000284e+01 6.233622398485481853e+01
6.559999999999999432e+01 6.212212360314460113e+01
6.600000000000000000e+01 6.191013323793560374e+01
6.640000000000000568e+01 6.170021826129325859e+01
6.680000000000001137e+01 6.149220493552094524e+01
6.720000000000000284e+01 6.128491777798895868e+01
6.759999999999999432e+01 6.107956121286219542e+01
6.800000000000000000e+01 6.087616756908629156e+01
6.840000000000000568e+01 6.067470562255167721e+01
6.880000000000001137e+01 6.047514484286971737e+01
6.920000000000000284e+01 6.027745537362291373e+01
6.959999999999999432e+01 6.008160801329970013e+01
7.000000000000000000e+01 5.988757419688577244e+01
7.040000000000000568e+01 5.969532597808547081e+01
7.080000000000001137e+01 5.950483601214779128e+01
7.120000000000000284e+01 5.931607753927291071e+01
7.159999999999999432e+01 5.912902436857594779e+01
7.200000000000000000e+01 5.894365086258597586e+01
7.240000000000000568e+01 5.875993192225961081e+01
7.280000000000001137e+01 5.857784297248839778e+01
7.320000000000000284e+01 5.839735994808151531e+01
7.359999999999999432e+01 5.821845928020499628e+01
7.400000000000000000e+01 5.804111788326007115e+01
7.440000000000000568e+01 5.786531314218417776e+01
7.479999999999999716e+01 5.769102290015818824e+01
7.520000000000000284e+01 5.751822544670464765e+01
7.560000000000000853e+01 5.734689950616282772e+01
7.600000000000000000e+01 5.781756721650573638e+01
7.640000000000000568e+01 5.765645259987388727e+01
7.679999999999999716e+01 5.749666446308705758e+01
7.720000000000000284e+01 5.734977112864751803e+01
7.760000000000000853e+01 5.719314887414721227e+01
7.800000000000000000e+01 5.703779318508902207e+01
7.840000000000000568e+01 5.688368687681062141e+01
7.879999999999999716e+01 5.673081309208551204e+01
7.920000000000000284e+01 5.657915529309168789e+01
7.960000000000000853e+01 5.658626731997899384e+01
8.000000000000000000e+01 5.643913964076546108e+01
8.040000000000000568e+01 5.629315776119039327e+01
8.079999999999999716e+01 5.614830667444881840e+01
8.120000000000000284e+01 5.600457165010848115e+01
8.160000000000000853e+01 5.586193822755139138e+01
8.200000000000000000e+01 5.572039220960571271e+01
8.240000000000000568e+01 5.557604711595558200e+01
8.279999999999999716e+01 5.543817105999573158e+01
8.320000000000000284e+01 5.530132602067549641e+01
8.360000000000000853e+01 5.516549901680501478e+01
8.400000000000000000e+01 5.503067729716701706e+01
8.440000000000000568e+01 5.489684833526385432e+01
8.479999999999999716e+01 5.476399982421153112e+01
8.520000000000000284e+01 5.463211967177554840e+01
8.560000000000000853e+01 5.450119599554436434e+01
8.600000000000000000e+01 5.437121711823548509e+01
8.640000000000000568e+01 5.424217156313022770e+01
8.680000000000001137e+01 5.411404804963275694e+01
8.720000000000000284e+01 5.398683548894954498e+01
8.760000000000000853e+01 5.386043215265883077e+01
8.800000000000000000e+01 5.373489194691417481e+01
8.840000000000000568e+01 5.361023069557467835e+01
8.880000000000001137e+01 5.348643804525049461e+01
8.920000000000000284e+01 5.336350381405536325e+01
8.960000000000000853e+01 5.324141798794526892e+01
9.000000000000000000e+01 5.312017071715279570e+01
9.040000000000000568e+01 5.299975231271409370e+01
9.080000000000001137e+01 5.288015324308588561e+01
9.120000000000000284e+01 5.276136413084927312e+01
9.160000000000000853e+01 5.264337574949831122e+01
9.200000000000000000e+01 5.252617902031022368e+01
9.240000000000000568e+01 5.240976500929517812e+01
9.280000000000001137e+01 5.229412492422306968e+01
9.320000000000000284e+01 5.217925011172499694e+01
9.360000000000000853e+01 5.206513205446734815e+01
9.400000000000000000e+01 5.195176236839614603e+01
9.440000000000000568e+01 5.183913280004976798e+01
9.480000000000001137e+01 5.172723522393798845e+01
9.520000000000000284e+01 5.161606163998526142e+01
9.560000000000000853e+01 5.150575243534455439e+01
9.600000000000000000e+01 5.139617028957884770e+01
9.640000000000000568e+01 5.128727930323722006e+01
9.680000000000001137e+01 5.117907217562589040e+01
9.720000000000000284e+01 5.107154171412557986e+01
9.760000000000000853e+01 5.096468083213593303e+01
9.800000000000000000e+01 5.085829931495518963e+01
9.840000000000000568e+01 5.075211090000896519e+01
9.880000000000001137e+01 5.064657742499763771e+01
9.920000000000000284e+01 5.053859825533152161e+01
9.960000000000000853e+01 5.043468452645241484e+01
1.000000000000000000e+02 5.033133894113782958e+01
1.004000000000000057e+02 5.022861852171179464e+01
1.008000000000000114e+02 5.012651694185953488e+01
1.012000000000000028e+02 5.002502796492191806e+01
1.016000000000000085e+02 4.992414544226392081e+01
1.020000000000000000e+02 4.982386331167947446e+01
1.024000000000000057e+02 4.972417559583132629e+01
1.028000000000000114e+02 4.962507640072541903e+01
1.032000000000000028e+02 4.952655991421869430e+01
1.036000000000000085e+02 4.942862040455941042e+01
1.040000000000000000e+02 4.933125221895933521e+01
1.044000000000000057e+02 4.923444978219675505e+01
1.048000000000000114e+02 4.913820759524972459e+01
1.052000000000000028e+02 4.904252023395864057e+01
1.056000000000000085e+02 4.894738234771750740e+01
1.060000000000000000e+02 4.885278865819296357e+01
1.064000000000000057e+02 4.875873395807079191e+01
1.068000000000000114e+02 4.866521310982865600e+01
1.072000000000000028e+02 4.857222104453491340e+01
1.076000000000000085e+02 4.847975276067253247e+01
1.080000000000000000e+02 4.838780332298775022e+01
1.084000000000000057e+02 4.829636786136250493e+01
1.088000000000000114e+02 4.820544156971046590e+01
1.092000000000000028e+02 4.811501970489586455e+01
1.096000000000000085e+02 4.802509758567441622e+01
1.100000000000000000e+02 4.793567059165628308e+01
1.104000000000000057e+02 4.784673416228992693e+01
1.108000000000000114e+02 4.775813695388565350e+01
1.112000000000000028e+02 4.766996587936783669e+01
1.116000000000000085e+02 4.758227359677969304e+01
1.120000000000000000e+02 4.749505575767541643e+01
1.124000000000000057e+02 4.740830806892545013e+01
1.128000000000000114e+02 4.732202629181293219e+01
1.132000000000000028e+02 4.723620624114799682e+01
1.136000000000000085e+02 4.715084378439962620e+01
1.140000000000000000e+02 4.706593484084487500e+01
1.144000000000000057e+02 4.698147538073458662e+01
1.148000000000000114e+02 4.689746142447578592e+01
1.152000000000000028e+02 4.681388904182982458e+01
1.156000000000000085e+02 4.673075435112632903e+01
1.160000000000000000e+02 4.664805351849234683e+01
1.164000000000000057e+02 4.658397412322499065e+01
1.168000000000000114e+02 4.650272448370158429e+01
1.172000000000000028e+02 4.642189310353137444e+01
1.176000000000000085e+02 4.634147637859880575e+01
1.180000000000000000e+02 4.626147074831262529e+01
1.184000000000000057e+02 4.618187269493082425e+01
1.188000000000000114e+02 4.603779246437387940e+01
1.192000000000000028e+02 4.596051825620371289e+01
1.196000000000000085e+02 4.588363310175971321e+01
1.200000000000000000e+02 4.580713370796275541e+01
1.204000000000000057e+02 4.573101682090693743e+01
1.208000000000000114e+02 4.565527922525961202e+01
1.212000000000000028e+02 4.557991774367226867e+01
1.216000000000000085e+02 4.550492923620281971e+01
1.220000000000000000e+02 4.543031059974829589e+01
1.224000000000000057e+02 4.535605876748837773e+01
1.228000000000000114e+02 4.528217070833894553e+01
1.232000000000000028e+02 4.520864342641581146e+01
1.236000000000000085e+02 4.514009304256033062e+01
1.240000000000000000e+02 4.505618765183152163e+01
1.244000000000000057e+02 4.498440767887010594e+01
1.248000000000000114e+02 4.491297273774630838e+01
1.252000000000000028e+02 4.484188003618318419e+01
1.256000000000000085e+02 4.477112681369027314e+01
1.260000000000000000e+02 4.470071034109723485e+01
1.264000000000000057e+02 4.463062792009592528e+01
1.268000000000000114e+02 4.456087688279055214e+01
1.272000000000000028e+02 4.449145459125594471e+01
1.276000000000000085e+02 4.442235843710358978e+01
1.280000000000000000e+02 4.435358584105546242e+01
1.284000000000000057e+02 4.428513425252533153e+01
1.288000000000000114e+02 4.421700114920735558e+01
1.291999999999999886e+02 4.414918403667206803e+01
1.296000000000000227e+02 4.408168044796926210e+01
1.300000000000000000e+02 4.401448794323790992e+01
1.304000000000000057e+02 4.394760410932276073e+01
1.308000000000000114e+02 4.388102655939770358e+01
1.311999999999999886e+02 4.381475293259552473e+01
1.316000000000000227e+02 4.374878089364405298e+01
1.320000000000000000e+02 4.368310813250860036e+01
1.324000000000000057e+02 4.361773236404044241e+01
1.328000000000000114e+02 4.355265132763137359e+01
1.331999999999999886e+02 4.348786278687407503e+01
1.336000000000000227e+02 4.342336452922815226e+01
1.340000000000000000e+02 4.335915436569207770e+01
1.344000000000000057e+02 4.329523013048032709e+01
1.348000000000000114e+02 4.323158968070612218e+01
1.351999999999999886e+02 4.316811441145741668e+01
1.356000000000000227e+02 4.310491217645623152e+01
1.360000000000000000e+02 4.304198808035235402e+01
1.364000000000000057e+02 4.297934006387960437e+01
1.368000000000000114e+02 4.291694083193142006e+01
1.371999999999999886e+02 4.285480337002515228e+01
1.376000000000000227e+02 4.279293619255928149e+01
1.380000000000000000e+02 4.273133732196635748e+01
1.384000000000000057e+02 4.267000480102256432e+01
1.388000000000000114e+02 4.260893669257809790e+01
1.392000000000000171e+02 4.254813107929187765e+01
1.395999999999999943e+02 4.248758606337057131e+01
1.400000000000000000e+02 4.242729976631196109e+01
1.404000000000000057e+02 4.236727032865216813e+01
1.408000000000000114e+02 4.230749590971719698e+01
1.412000000000000171e+02 4.224797468737821760e+01
1.415999999999999943e+02 4.218870485781096136e+01
1.420000000000000000e+02 4.212968463525873375e+01
1.424000000000000057e+02 4.207049398349692382e+01
1.428000000000000114e+02 4.201106268028271984e+01
1.432000000000000171e+02 4.195188161512712099e+01
1.435999999999999943e+02 4.189294901826254858e+01
1.440000000000000000e+02 4.183426313750954506e+01
1.444000000000000057e+02 4.177582223805150363e+01
1.448000000000000114e+02 4.171762460221327018e+01
1.452000000000000171e+02 4.165966852924291430e+01
1.455999999999999943e+02 4.160195233509700330e+01
1.460000000000000000e+02 4.154447435222922280e+01
1.464000000000000057e+02 4.148723292938229434e+01
1.468000000000000114e+02 4.143022643138299088e+01
1.472000000000000171e+02 4.137345323894040661e+01
1.475999999999999943e+02 4.131691174844733183e+01
1.480000000000000000e+02 4.126060037178454820e+01
1.484000000000000057e+02 4.120451753612822898e+01
1.488000000000000114e+02 4.114845559677080900e+01
1.492000000000000171e+02 4.109258356597405282e+01
1.495999999999999943e+02 4.103693688767233994e+01
1.500000000000000000e+02 4.098151403609749366e+01
