1.000000000000000000e+01 3.137087548866840052e+02
1.040000000000000036e+01 3.450098208763683942e+02
1.080000000000000071e+01 3.858222003564362126e+02
1.119999999999999929e+01 4.342078294097617004e+02
1.159999999999999964e+01 5.432203856803540702e+02
1.200000000000000000e+01 6.042972220336308737e+02
1.240000000000000036e+01 6.733388236182544233e+02
1.280000000000000071e+01 6.926916898569638761e+02
1.319999999999999929e+01 7.225369036714311051e+02
1.359999999999999964e+01 7.491788286704568236e+02
1.400000000000000000e+01 7.889046764103136411e+02
1.440000000000000036e+01 8.746560665212238064e+02
1.480000000000000071e+01 8.845198107654407522e+02
1.519999999999999929e+01 8.665686399923389445e+02
1.560000000000000142e+01 8.498680185320611145e+02
1.600000000000000000e+01 8.342708136367166389e+02
1.639999999999999858e+01 8.196538184664993878e+02
1.680000000000000071e+01 8.059128614067368517e+02
1.719999999999999929e+01 7.929591042278259465e+02
1.760000000000000142e+01 7.807161976903217919e+02
1.800000000000000000e+01 7.691180664628719796e+02
1.839999999999999858e+01 7.581071631858133060e+02
1.880000000000000071e+01 7.476330772280418842e+02
1.920000000000000284e+01 7.376514150397546246e+02
1.960000000000000142e+01 7.281228908921785887e+02
2.000000000000000000e+01 7.190125823220934080e+02
2.039999999999999858e+01 7.102893157749172133e+02
2.080000000000000071e+01 7.019251560927133369e+02
2.120000000000000284e+01 6.938949795142073071e+02
2.160000000000000142e+01 6.861761143509016847e+02
2.200000000000000000e+01 6.787480368977594480e+02
2.239999999999999858e+01 6.715921127240834494e+02
2.280000000000000071e+01 6.646913754801121286e+02
2.320000000000000284e+01 6.580303368983591099e+02
2.360000000000000142e+01 6.515948228754969023e+02
2.400000000000000000e+01 6.453718314711210269e+02
2.439999999999999858e+01 6.393494094136832473e+02
2.480000000000000071e+01 6.335165443058209576e+02
2.520000000000000284e+01 6.278630702049091497e+02
2.560000000000000142e+01 6.223795846454315779e+02
2.600000000000000000e+01 6.170573754872974632e+02
2.640000000000000213e+01 6.118883562336056912e+02
2.680000000000000071e+01 6.068650086742790108e+02
2.719999999999999929e+01 6.019803318876164440e+02
2.760000000000000142e+01 5.972277967773235332e+02
2.800000000000000000e+01 5.926013054436615448e+02
2.840000000000000213e+01 5.880951547885242690e+02
2.880000000000000071e+01 5.837040038391132839e+02
2.920000000000000284e+01 5.794228443463275653e+02
2.960000000000000142e+01 5.752469742743575125e+02
3.000000000000000000e+01 5.711719738491635781e+02
3.040000000000000213e+01 5.671936838770584473e+02
3.080000000000000071e+01 5.633081860817823099e+02
3.120000000000000284e+01 5.595117852402570406e+02
3.160000000000000142e+01 5.558009929245224612e+02
3.200000000000000000e+01 5.521725126808576078e+02
3.240000000000000568e+01 5.486232264973878046e+02
3.279999999999999716e+01 5.451501824290393188e+02
3.320000000000000284e+01 5.417505832639391201e+02
3.360000000000000142e+01 5.384217761286193991e+02
3.400000000000000000e+01 5.351612429409320839e+02
3.440000000000000568e+01 5.319665916296826254e+02
3.479999999999999716e+01 5.288355480488291960e+02
3.520000000000000284e+01 5.257659485218564441e+02
3.560000000000000142e+01 5.227557329587557433e+02
3.600000000000000000e+01 5.198029384940505224e+02
3.640000000000000568e+01 5.169056935996227367e+02
3.679999999999999716e+01 5.140622126307819144e+02
3.720000000000000284e+01 5.112707907681817119e+02
3.760000000000000142e+01 5.085297993218828196e+02
3.800000000000000000e+01 5.058376813671389982e+02
3.840000000000000568e+01 5.031929476844114220e+02
3.879999999999999716e+01 5.005941729787226677e+02
3.920000000000000284e+01 4.980399923557908437e+02
3.960000000000000142e+01 4.955290980344742593e+02
4.000000000000000000e+01 4.930602362769171236e+02
4.040000000000000568e+01 4.906322045194751809e+02
4.079999999999999716e+01 4.882438486889945466e+02
4.120000000000000284e+01 4.858940606903869934e+02
4.160000000000000142e+01 4.835817760526522306e+02
4.200000000000000000e+01 4.813059717216158901e+02
4.239999999999999858e+01 4.790656639886337871e+02
4.280000000000000426e+01 4.768599065454270658e+02
4.320000000000000284e+01 4.746877886560181423e+02
4.360000000000000142e+01 4.725484334374862101e+02
4.400000000000000000e+01 4.704409962419259159e+02
4.439999999999999858e+01 4.683646631326095076e+02
4.480000000000000426e+01 4.663186494479022031e+02
4.520000000000000284e+01 4.643021984469913832e+02
4.560000000000000142e+01 4.623145800319488217e+02
4.600000000000000000e+01 4.603550895410668886e+02
4.639999999999999858e+01 4.584230466087928448e+02
4.680000000000000426e+01 4.565177940879399898e+02
4.720000000000000284e+01 4.546386970301730344e+02
4.760000000000000142e+01 4.527851417210617342e+02
4.800000000000000000e+01 4.509565347662668273e+02
4.840000000000000568e+01 4.491523022256711783e+02
4.880000000000000426e+01 4.473718887924947012e+02
4.920000000000000284e+01 4.456147570146454200e+02
4.960000000000000142e+01 4.438803865557475206e+02
5.000000000000000000e+01 4.421682734934673817e+02
5.040000000000000568e+01 4.404779296529230237e+02
5.080000000000000426e+01 4.388088819731106014e+02
5.120000000000000284e+01 4.371606719044240776e+02
5.160000000000000142e+01 4.355328548354715394e+02
5.200000000000000000e+01 4.339249995475103105e+02
5.240000000000000568e+01 4.323366876949354491e+02
5.280000000000000426e+01 4.307675133103543317e+02
5.320000000000000284e+01 4.292170823328796700e+02
5.360000000000000142e+01 4.276850121583572673e+02
5.400000000000000000e+01 4.261709312103266711e+02
5.440000000000000568e+01 4.246744785305893402e+02
5.480000000000000426e+01 4.231953033883307853e+02
5.520000000000000284e+01 4.217330649068030652e+02
5.560000000000000142e+01 4.202874317066410867e+02
5.600000000000000000e+01 4.188580815649378337e+02
5.640000000000000568e+01 4.174447010892598087e+02
5.680000000000000426e+01 4.160469854058295596e+02
5.720000000000000284e+01 4.146646378611515615e+02
5.760000000000000142e+01 4.132973697363972860e+02
5.800000000000000000e+01 4.119448999739071269e+02
5.840000000000000568e+01 4.106069549152031755e+02
5.880000000000000426e+01 4.092832680499422509e+02
5.920000000000000284e+01 4.079735797752704229e+02
5.960000000000000142e+01 4.066776371650709052e+02
6.000000000000000000e+01 4.053951937486268093e+02
6.040000000000000568e+01 4.041260092982447532e+02
6.080000000000000426e+01 4.028698496254125985e+02
6.120000000000000284e+01 4.016264863850867641e+02
6.160000000000000142e+01 4.003956968877270128e+02
6.200000000000000000e+01 3.991772639187164486e+02
6.240000000000000568e+01 3.979709755648256646e+02
6.280000000000000426e+01 3.967766250473966920e+02
6.320000000000000284e+01 3.955940105619393421e+02
6.360000000000000142e+01 3.944229351238497543e+02
6.400000000000000000e+01 3.932632064199761999e+02
6.440000000000000568e+01 3.921146366657698081e+02
6.480000000000001137e+01 3.909770424677723781e+02
6.520000000000000284e+01 3.898502446912073651e+02
6.559999999999999432e+01 3.887340683324492829e+02
6.600000000000000000e+01 3.876283423961603489e+02
6.640000000000000568e+01 3.865328997768924069e+02
6.680000000000001137e+01 3.854475771449633612e+02
6.720000000000000284e+01 3.843722148364250870e+02
6.759999999999999432e+01 3.833066567469508072e+02
6.800000000000000000e+01 3.822507502294768074e+02
6.840000000000000568e+01 3.812043459954417131e+02
6.880000000000001137e+01 3.801672980194737193e+02
6.920000000000000284e+01 3.791394634473853102e+02
6.959999999999999432e+01 3.781207025073377963e+02
7.000000000000000000e+01 3.771108784240489626e+02
7.040000000000000568e+01 3.761098573359192301e+02
7.080000000000001137e+01 3.751175082149604805e+02
7.120000000000000284e+01 3.741337027894144285e+02
7.159999999999999432e+01 3.731583154689545836e+02
7.200000000000000000e+01 3.721912232723705642e+02
7.240000000000000568e+01 3.712323057576364249e+02
7.280000000000001137e+01 3.702814449542709667e+02
7.320000000000000284e+01 3.693385252979011852e+02
7.359999999999999432e+01 3.684034335669439315e+02
7.400000000000000000e+01 3.674760588213254096e+02
7.440000000000000568e+01 3.665562923431610898e+02
7.479999999999999716e+01 3.656440275793203796e+02
7.520000000000000284e+01 3.647391600858084644e+02
7.560000000000000853e+01 3.638415874738941511e+02
7.600000000000000000e+01 3.629512093579216412e+02
7.640000000000000568e+01 3.620679273047421134e+02
7.679999999999999716e+01 3.611916447847078189e+02
7.720000000000000284e+01 3.603222671241684338e+02
7.760000000000000853e+01 3.594597014594203870e+02
7.800000000000000000e+01 3.586038566920508401e+02
7.840000000000000568e+01 3.577546434456311317e+02
7.879999999999999716e+01 3.569119740237086376e+02
7.920000000000000284e+01 3.560757623690531659e+02
7.960000000000000853e+01 3.552459240241117300e+02
8.000000000000000000e+01 3.544223760926309978e+02
8.040000000000000568e+01 3.536050372024052422e+02
8.079999999999999716e+01 3.527938274691130118e+02
8.120000000000000284e+01 3.519886684612014278e+02
8.160000000000000853e+01 3.511894831657867257e+02
8.200000000000000000e+01 3.503961959555319368e+02
8.240000000000000568e+01 3.496087325564717503e+02
8.279999999999999716e+01 3.488270200167517601e+02
8.320000000000000284e+01 3.480509866762498064e+02
8.360000000000000853e+01 3.472805621370527547e+02
8.400000000000000000e+01 3.465156772347582432e+02
8.440000000000000568e+01 3.457562640105746823e+02
8.479999999999999716e+01 3.450022556841933010e+02
8.520000000000000284e+01 3.442535866274076284e+02
8.560000000000000853e+01 3.435101923384553970e+02
8.600000000000000000e+01 3.427720094170588254e+02
8.640000000000000568e+01 3.420389755401427578e+02
8.680000000000001137e+01 3.413110294382074130e+02
8.720000000000000284e+01 3.405881108723350508e+02
8.760000000000000853e+01 3.398701606118106611e+02
8.800000000000000000e+01 3.391571204123379175e+02
8.840000000000000568e+01 3.384489329948308978e+02
8.880000000000001137e+01 3.377455420247634379e+02
8.920000000000000284e+01 3.370468920920592950e+02
8.960000000000000853e+01 3.363529286915068610e+02
9.000000000000000000e+01 3.356635982036810901e+02
9.040000000000000568e+01 3.349788478763578041e+02
9.080000000000001137e+01 3.342986258064052549e+02
9.120000000000000284e+01 3.336228809221389611e+02
9.160000000000000853e+01 3.329515629661243565e+02
9.200000000000000000e+01 3.322846224784160540e+02
9.240000000000000568e+01 3.316220107802179200e+02
9.280000000000001137e+01 3.309636799579541275e+02
9.320000000000000284e+01 3.303095828477377722e+02
9.360000000000000853e+01 3.296596730202239769e+02
9.400000000000000000e+01 3.290139047658392997e+02
9.440000000000000568e+01 3.283722330803734621e+02
9.480000000000001137e+01 3.277346136509246435e+02
9.520000000000000284e+01 3.271010028421879952e+02
9.560000000000000853e+01 3.264713576830756665e+02
9.600000000000000000e+01 3.258456358536619746e+02
9.640000000000000568e+01 3.252237956724413834e+02
9.680000000000001137e+01 3.246057960838920735e+02
9.720000000000000284e+01 3.239915966463367454e+02
9.760000000000000853e+01 3.233811575200901416e+02
9.800000000000000000e+01 3.227744394558881709e+02
9.840000000000000568e+01 3.221714037835885733e+02
9.880000000000001137e+01 3.215720124011363623e+02
9.920000000000000284e+01 3.209762277637870511e+02
9.960000000000000853e+01 3.203840128735793655e+02
1.000000000000000000e+02 3.197953312690523262e+02
1.004000000000000057e+02 3.192101470151984586e+02
1.008000000000000114e+02 3.186284246936474460e+02
1.012000000000000028e+02 3.180501293930745987e+02
1.016000000000000085e+02 3.174752266998256687e+02
1.020000000000000000e+02 3.169036826887557368e+02
1.024000000000000057e+02 3.163354639142734186e+02
1.028000000000000114e+02 3.157705374015866369e+02
1.032000000000000028e+02 3.152088706381438215e+02
1.036000000000000085e+02 3.146504315652653077e+02
1.040000000000000000e+02 3.140951885699611807e+02
1.044000000000000057e+02 3.135431104769284048e+02
1.048000000000000114e+02 3.129941665407254732e+02
1.052000000000000028e+02 3.124483264381166805e+02
1.056000000000000085e+02 3.119055602605848776e+02
1.060000000000000000e+02 3.113658385070056056e+02
1.064000000000000057e+02 3.108291320764803345e+02
1.068000000000000114e+02 3.102954122613240884e+02
1.072000000000000028e+02 3.097646507402033649e+02
1.076000000000000085e+02 3.092368195714201988e+02
1.080000000000000000e+02 3.087118911863403241e+02
1.084000000000000057e+02 3.081898383829596355e+02
1.088000000000000114e+02 3.076706343196068474e+02
1.092000000000000028e+02 3.071542525087788817e+02
1.096000000000000085e+02 3.066406668111046088e+02
1.100000000000000000e+02 3.061298514294357460e+02
1.104000000000000057e+02 3.056217809030595731e+02
1.108000000000000114e+02 3.051164301020317566e+02
1.112000000000000028e+02 3.046137742216264996e+02
1.116000000000000085e+02 3.041137887769002077e+02
1.120000000000000000e+02 3.036164495973666817e+02
1.124000000000000057e+02 3.031217328217809381e+02
1.128000000000000114e+02 3.026296148930284744e+02
1.132000000000000028e+02 3.021400725531192393e+02
1.136000000000000085e+02 3.016530828382808522e+02
1.140000000000000000e+02 3.011686230741516965e+02
1.144000000000000057e+02 3.006866708710694525e+02
1.148000000000000114e+02 3.002072041194541043e+02
1.152000000000000028e+02 2.997302009852821811e+02
1.156000000000000085e+02 2.992556399056508099e+02
1.160000000000000000e+02 2.987834995844291370e+02
1.164000000000000057e+02 2.983137589879953566e+02
1.168000000000000114e+02 2.978463973410566723e+02
1.172000000000000028e+02 2.973813941225515123e+02
1.176000000000000085e+02 2.969187290616309269e+02
1.180000000000000000e+02 2.964583821337174641e+02
1.184000000000000057e+02 2.960003335566407827e+02
1.188000000000000114e+02 2.955445637868472204e+02
1.192000000000000028e+02 2.950910535156816650e+02
1.196000000000000085e+02 2.946397836657407652e+02
1.200000000000000000e+02 2.941907353872956037e+02
1.204000000000000057e+02 2.937438900547813319e+02
1.208000000000000114e+02 2.932992292633545048e+02
1.212000000000000028e+02 2.928567348255135698e+02
1.216000000000000085e+02 2.924163887677837010e+02
1.220000000000000000e+02 2.919781733274640487e+02
1.224000000000000057e+02 2.915420709494338212e+02
1.228000000000000114e+02 2.911080642830195302e+02
1.232000000000000028e+02 2.906761361789189095e+02
1.236000000000000085e+02 2.902462696861820177e+02
1.240000000000000000e+02 2.898184480492476496e+02
1.244000000000000057e+02 2.893926547050342606e+02
1.248000000000000114e+02 2.889688732800833577e+02
1.252000000000000028e+02 2.885470875877555272e+02
1.256000000000000085e+02 2.881272816254765985e+02
1.260000000000000000e+02 2.877094395720340572e+02
1.264000000000000057e+02 2.872935457849217187e+02
1.268000000000000114e+02 2.868795847977320932e+02
1.272000000000000028e+02 2.864675413175959875e+02
1.276000000000000085e+02 2.860574002226665016e+02
1.280000000000000000e+02 2.856491465596486137e+02
1.284000000000000057e+02 2.852427655413723642e+02
1.288000000000000114e+02 2.848382425444085015e+02
1.291999999999999886e+02 2.844355631067268178e+02
1.296000000000000227e+02 2.840347129253939897e+02
1.300000000000000000e+02 2.836356778543134851e+02
1.304000000000000057e+02 2.832384439020034961e+02
1.308000000000000114e+02 2.828429972294139247e+02
1.311999999999999886e+02 2.824493241477813967e+02
1.316000000000000227e+02 2.820574111165200293e+02
1.320000000000000000e+02 2.816672447411506823e+02
1.324000000000000057e+02 2.812788117712631788e+02
1.328000000000000114e+02 2.808920990985150183e+02
1.331999999999999886e+02 2.805070937546636287e+02
1.336000000000000227e+02 2.801237829096318137e+02
1.340000000000000000e+02 2.797421538696064545e+02
1.344000000000000057e+02 2.793621940751683610e+02
1.348000000000000114e+02 2.789838910994546950e+02
1.351999999999999886e+02 2.786072326463513491e+02
1.356000000000000227e+02 2.782322065487158511e+02
1.360000000000000000e+02 2.778588007666297131e+02
1.364000000000000057e+02 2.774870033856798273e+02
1.368000000000000114e+02 2.771168026152686252e+02
1.371999999999999886e+02 2.767481867869516350e+02
1.376000000000000227e+02 2.763811443528024938e+02
1.380000000000000000e+02 2.760156638838050185e+02
1.384000000000000057e+02 2.756517340682713098e+02
1.388000000000000114e+02 2.752893437102859480e+02
1.392000000000000171e+02 2.749284817281748019e+02
1.395999999999999943e+02 2.745691371529996445e+02
1.400000000000000000e+02 2.742112991270759039e+02
1.404000000000000057e+02 2.738549569025155961e+02
1.408000000000000114e+02 2.735000998397921421e+02
1.412000000000000171e+02 2.731467174063299126e+02
1.415999999999999943e+02 2.727947991751145764e+02
1.420000000000000000e+02 2.724443348233263578e+02
1.424000000000000057e+02 2.720953141309955754e+02
1.428000000000000114e+02 2.717477269796780774e+02
1.432000000000000171e+02 2.714015633511526175e+02
1.435999999999999943e+02 2.710568133261385810e+02
1.440000000000000000e+02 2.707134670830330947e+02
1.444000000000000057e+02 2.703715148966687707e+02
1.448000000000000114e+02 2.700309471370904930e+02
1.452000000000000171e+02 2.696917542683509623e+02
1.455999999999999943e+02 2.693539268473251695e+02
1.460000000000000000e+02 2.690174555225432300e+02
1.464000000000000057e+02 2.686823310330410095e+02
1.468000000000000114e+02 2.683485442072283718e+02
1.472000000000000171e+02 2.680160859617752749e+02
1.475999999999999943e+02 2.676849473005139544e+02
1.480000000000000000e+02 2.673551193133588413e+02
1.484000000000000057e+02 2.670265931752422830e+02
1.488000000000000114e+02 2.666993601450664642e+02
1.492000000000000171e+02 2.663734115646710165e+02
1.495999999999999943e+02 2.660487388578167725e+02
1.500000000000000000e+02 2.657253335291842404e+02
