1.000000000000000000e+01 2.552186016105339945e+02
1.040000000000000036e+01 2.712175118730034455e+02
1.080000000000000071e+01 2.843149684209475936e+02
1.119999999999999929e+01 3.073980556154725150e+02
1.159999999999999964e+01 3.658718782123507367e+02
1.200000000000000000e+01 4.054052055800693779e+02
1.240000000000000036e+01 4.470221007750695321e+02
1.280000000000000071e+01 4.691169331912216762e+02
1.319999999999999929e+01 4.954592229933712701e+02
1.359999999999999964e+01 5.291993139701070277e+02
1.400000000000000000e+01 5.797934622362881782e+02
1.440000000000000036e+01 6.602590275476675288e+02
1.480000000000000071e+01 6.687248810691407925e+02
1.519999999999999929e+01 6.550425023059236764e+02
1.560000000000000142e+01 6.423383621493032933e+02
1.600000000000000000e+01 6.304943372214303281e+02
1.639999999999999858e+01 6.194119392925774719e+02
1.680000000000000071e+01 6.090082315714746528e+02
1.719999999999999929e+01 5.992127506963229280e+02
1.760000000000000142e+01 5.899651514334186686e+02
1.800000000000000000e+01 5.812133798432732874e+02
1.839999999999999858e+01 5.729122389625061942e+02
1.880000000000000071e+01 5.650222501618746946e+02
1.920000000000000284e+01 5.575087400978470669e+02
1.960000000000000142e+01 5.503411018031550839e+02
2.000000000000000000e+01 5.434921916385461600e+02
2.039999999999999858e+01 5.369378332853004849e+02
2.080000000000000071e+01 5.306564068370411178e+02
2.120000000000000284e+01 5.246285061147598299e+02
2.160000000000000142e+01 5.188366511014927482e+02
2.200000000000000000e+01 5.132650452324344315e+02
2.239999999999999858e+01 5.078993694342703975e+02
2.280000000000000071e+01 5.027266064626700199e+02
2.320000000000000284e+01 4.977348903672285587e+02
2.360000000000000142e+01 4.929133769114728238e+02
2.400000000000000000e+01 4.882521315598255569e+02
2.439999999999999858e+01 4.837420322638984658e+02
2.480000000000000071e+01 4.793746847746200501e+02
2.520000000000000284e+01 4.751423486027089211e+02
2.560000000000000142e+01 4.710378720692410184e+02
2.600000000000000000e+01 4.670546351468511830e+02
2.640000000000000213e+01 4.631864990030307467e+02
2.680000000000000071e+01 4.594277613297433049e+02
2.719999999999999929e+01 4.557731166857768699e+02
2.760000000000000142e+01 4.522176211958178556e+02
2.800000000000000000e+01 4.487566610478640428e+02
2.840000000000000213e+01 4.453859243120078872e+02
2.880000000000000071e+01 4.421013756717801471e+02
2.920000000000000284e+01 4.388992337165241793e+02
2.960000000000000142e+01 4.357759504915860589e+02
3.000000000000000000e+01 4.327281930439951907e+02
3.040000000000000213e+01 4.297528267360378322e+02
3.080000000000000071e+01 4.268469001287136848e+02
3.120000000000000284e+01 4.240076312623448302e+02
3.160000000000000142e+01 4.212323951832819375e+02
3.200000000000000000e+01 4.185187125842795126e+02
3.240000000000000568e+01 4.158642394421667632e+02
3.279999999999999716e+01 4.132667575503219268e+02
3.320000000000000284e+01 4.107241658554750074e+02
3.360000000000000142e+01 4.082344725188127654e+02
3.400000000000000000e+01 4.057957876304506044e+02
3.440000000000000568e+01 4.034063165142691787e+02
3.479999999999999716e+01 4.010643535670548658e+02
3.520000000000000284e+01 3.987682765819669157e+02
3.560000000000000142e+01 3.965165415116960617e+02
3.600000000000000000e+01 3.943076776313782261e+02
3.640000000000000568e+01 3.921402830654795366e+02
3.679999999999999716e+01 3.900130206465273659e+02
3.720000000000000284e+01 3.879246140768058240e+02
3.760000000000000142e+01 3.858738443670110314e+02
3.800000000000000000e+01 3.838595465284116131e+02
3.840000000000000568e+01 3.818806064973369416e+02
3.879999999999999716e+01 3.799359582728363876e+02
3.920000000000000284e+01 3.780245812501627825e+02
3.960000000000000142e+01 3.761454977343497603e+02
4.000000000000000000e+01 3.742977706195954397e+02
4.040000000000000568e+01 3.724805012214700355e+02
4.079999999999999716e+01 3.706928272501197625e+02
4.120000000000000284e+01 3.689339209136977047e+02
4.160000000000000142e+01 3.672029871421850657e+02
4.200000000000000000e+01 3.654992619226259762e+02
4.239999999999999858e+01 3.638220107375591397e+02
4.280000000000000426e+01 3.621705270991285488e+02
4.320000000000000284e+01 3.605441311719811210e+02
4.360000000000000142e+01 3.589421684786276501e+02
4.400000000000000000e+01 3.573640086814625647e+02
4.439999999999999858e+01 3.558090444361021127e+02
4.480000000000000426e+01 3.542766903111319152e+02
4.520000000000000284e+01 3.527663817697376771e+02
4.560000000000000142e+01 3.512775742090504991e+02
4.600000000000000000e+01 3.498097420533583204e+02
4.639999999999999858e+01 3.483623778976287895e+02
4.680000000000000426e+01 3.469349916980600597e+02
4.720000000000000284e+01 3.455271100066204326e+02
4.760000000000000142e+01 3.441382752467626460e+02
4.800000000000000000e+01 3.427680450277068758e+02
4.840000000000000568e+01 3.414159914948741061e+02
4.880000000000000426e+01 3.400817007142270540e+02
4.920000000000000284e+01 3.387647720884336877e+02
4.960000000000000142e+01 3.374648178029180485e+02
5.000000000000000000e+01 3.361814622999954167e+02
5.040000000000000568e+01 3.349143417794157926e+02
5.080000000000000426e+01 3.336631037237541477e+02
5.120000000000000284e+01 3.324274064471905490e+02
5.160000000000000142e+01 3.312069186663234746e+02
5.200000000000000000e+01 3.300013190917484280e+02
5.240000000000000568e+01 3.288102960392179170e+02
5.280000000000000426e+01 3.276335470592779302e+02
5.320000000000000284e+01 3.264707785843447709e+02
5.360000000000000142e+01 3.253217055922562508e+02
5.400000000000000000e+01 3.241860512853901923e+02
5.440000000000000568e+01 3.230635467845003745e+02
5.480000000000000426e+01 3.219539308364773547e+02
5.520000000000000284e+01 3.208569495352840590e+02
5.560000000000000142e+01 3.197723560553690163e+02
5.600000000000000000e+01 3.186999103968976215e+02
5.640000000000000568e+01 3.176393791421851915e+02
5.680000000000000426e+01 3.165905352227500771e+02
5.720000000000000284e+01 3.155531576964418150e+02
5.760000000000000142e+01 3.145270315341297760e+02
5.800000000000000000e+01 3.135119474154696491e+02
5.840000000000000568e+01 3.125077015332908559e+02
5.880000000000000426e+01 3.115140954061773755e+02
5.920000000000000284e+01 3.105309356988356626e+02
5.960000000000000142e+01 3.095580340498700593e+02
6.000000000000000000e+01 3.085952069066024706e+02
6.040000000000000568e+01 3.076422753666002450e+02
6.080000000000000426e+01 3.066990650255873447e+02
6.120000000000000284e+01 3.057654058314375334e+02
6.160000000000000142e+01 3.048411319439629210e+02
6.200000000000000000e+01 3.039260816002243359e+02
6.240000000000000568e+01 3.030200969851097170e+02
6.280000000000000426e+01 3.021230241069355316e+02
6.320000000000000284e+01 3.012347126778416282e+02
6.360000000000000142e+01 3.003550159987619850e+02
6.400000000000000000e+01 2.994837908487644995e+02
6.440000000000000568e+01 2.986208973785641660e+02
6.480000000000001137e+01 2.977661990080232499e+02
6.520000000000000284e+01 2.969195623274632680e+02
6.559999999999999432e+01 2.960808570026208031e+02
6.600000000000000000e+01 2.952499556830885581e+02
6.640000000000000568e+01 2.944267339140910735e+02
6.680000000000001137e+01 2.936110700514510086e+02
6.720000000000000284e+01 2.928028451796106424e+02
6.759999999999999432e+01 2.920019430325784242e+02
6.800000000000000000e+01 2.912082499176779606e+02
6.840000000000000568e+01 2.904216546419812630e+02
6.880000000000001137e+01 2.896420484413153531e+02
6.920000000000000284e+01 2.888693249117365554e+02
6.959999999999999432e+01 2.881033799433688500e+02
7.000000000000000000e+01 2.873441116565139168e+02
7.040000000000000568e+01 2.865914203399360076e+02
7.080000000000001137e+01 2.858452083912386570e+02
7.120000000000000284e+01 2.851053802592464876e+02
7.159999999999999432e+01 2.843718423883136666e+02
7.200000000000000000e+01 2.836445031644833534e+02
7.240000000000000568e+01 2.829232728634244154e+02
7.280000000000001137e+01 2.822080636000768550e+02
7.320000000000000284e+01 2.814987892799394444e+02
7.359999999999999432e+01 2.807953655519365839e+02
7.400000000000000000e+01 2.800977097628033334e+02
7.440000000000000568e+01 2.794057409129322309e+02
7.479999999999999716e+01 2.787193796136240280e+02
7.520000000000000284e+01 2.780385480456925507e+02
7.560000000000000853e+01 2.773631699193709892e+02
7.600000000000000000e+01 2.766931704354724388e+02
7.640000000000000568e+01 2.760284762477569984e+02
7.679999999999999716e+01 2.753690154264627949e+02
7.720000000000000284e+01 2.747147174229573920e+02
7.760000000000000853e+01 2.740655130354689391e+02
7.800000000000000000e+01 2.734213343758587484e+02
7.840000000000000568e+01 2.727821148373966480e+02
7.879999999999999716e+01 2.721477890635051153e+02
7.920000000000000284e+01 2.715182929174360993e+02
7.960000000000000853e+01 2.708935634528489800e+02
8.000000000000000000e+01 2.702735388852568121e+02
8.040000000000000568e+01 2.696581585643115773e+02
8.079999999999999716e+01 2.690473629468989998e+02
8.120000000000000284e+01 2.684410935710145054e+02
8.160000000000000853e+01 2.678392930303942876e+02
8.200000000000000000e+01 2.672419049498752202e+02
8.240000000000000568e+01 2.666488739614588894e+02
8.279999999999999716e+01 2.660601456810560990e+02
8.320000000000000284e+01 2.654756666858890526e+02
8.360000000000000853e+01 2.648953844925291605e+02
8.400000000000000000e+01 2.643192475355488114e+02
8.440000000000000568e+01 2.637472051467680103e+02
8.479999999999999716e+01 2.631792075350752498e+02
8.520000000000000284e+01 2.626152057668040243e+02
8.560000000000000853e+01 2.620551517466476525e+02
8.600000000000000000e+01 2.614989981990932506e+02
8.640000000000000568e+01 2.609466986503610428e+02
8.680000000000001137e+01 2.603982074108288316e+02
8.720000000000000284e+01 2.598534795579304841e+02
8.760000000000000853e+01 2.593124709195092805e+02
8.800000000000000000e+01 2.587751380576156635e+02
8.840000000000000568e+01 2.582414382527317684e+02
8.880000000000001137e+01 2.577113294884125025e+02
8.920000000000000284e+01 2.571847704363275398e+02
8.960000000000000853e+01 2.566617204416942286e+02
9.000000000000000000e+01 2.561421395090878832e+02
9.040000000000000568e+01 2.556259882886176911e+02
9.080000000000001137e+01 2.551132280624587167e+02
9.120000000000000284e+01 2.546038207317270974e+02
9.160000000000000853e+01 2.540977288036896198e+02
9.200000000000000000e+01 2.535949153792972197e+02
9.240000000000000568e+01 2.530953441410320863e+02
9.280000000000001137e+01 2.525989793410596747e+02
9.320000000000000284e+01 2.521057857896770997e+02
9.360000000000000853e+01 2.516157288440473394e+02
9.400000000000000000e+01 2.511287743972128510e+02
9.440000000000000568e+01 2.506448888673792510e+02
9.480000000000001137e+01 2.501640391874618388e+02
9.520000000000000284e+01 2.496861927948867503e+02
9.560000000000000853e+01 2.492113176216394379e+02
9.600000000000000000e+01 2.487393820845547339e+02
9.640000000000000568e+01 2.482703550758388928e+02
9.680000000000001137e+01 2.478042059538200306e+02
9.720000000000000284e+01 2.473409045339186036e+02
9.760000000000000853e+01 2.468804210798315353e+02
9.800000000000000000e+01 2.464227262949258659e+02
9.840000000000000568e+01 2.459677913138338567e+02
9.880000000000001137e+01 2.455155876942455109e+02
9.920000000000000284e+01 2.450660874088922299e+02
9.960000000000000853e+01 2.446192628377167750e+02
1.000000000000000000e+02 2.441750867602239623e+02
1.004000000000000057e+02 2.437335323480076568e+02
1.008000000000000114e+02 2.432945731574488661e+02
1.012000000000000028e+02 2.428581831225808685e+02
1.016000000000000085e+02 2.424243365481155763e+02
1.020000000000000000e+02 2.419930081026287780e+02
1.024000000000000057e+02 2.415641728118979756e+02
1.028000000000000114e+02 2.411378060523903173e+02
1.032000000000000028e+02 2.407138835448957934e+02
1.036000000000000085e+02 2.402923813483016886e+02
1.040000000000000000e+02 2.398732758535059304e+02
1.044000000000000057e+02 2.394565437774636223e+02
1.048000000000000114e+02 2.390421621573652260e+02
1.052000000000000028e+02 2.386301083449414477e+02
1.056000000000000085e+02 2.382203600008931232e+02
1.060000000000000000e+02 2.378128950894409286e+02
1.064000000000000057e+02 2.374076918729937518e+02
1.068000000000000114e+02 2.370047289069314616e+02
1.072000000000000028e+02 2.366039850344996012e+02
1.076000000000000085e+02 2.362054393818129938e+02
1.080000000000000000e+02 2.358090713529660434e+02
1.084000000000000057e+02 2.354148606252459501e+02
1.088000000000000114e+02 2.350227871444477046e+02
1.092000000000000028e+02 2.346328311202869372e+02
1.096000000000000085e+02 2.342449730219089759e+02
1.100000000000000000e+02 2.338591935734918934e+02
1.104000000000000057e+02 2.334754737499403063e+02
1.108000000000000114e+02 2.330937947726688435e+02
1.112000000000000028e+02 2.327141381054721023e+02
1.116000000000000085e+02 2.323364854504795858e+02
1.120000000000000000e+02 2.319608187441935740e+02
1.124000000000000057e+02 2.315871201536073158e+02
1.128000000000000114e+02 2.312153720724022037e+02
1.132000000000000028e+02 2.308455571172220289e+02
1.136000000000000085e+02 2.304776581240220139e+02
1.140000000000000000e+02 2.301116581444912299e+02
1.144000000000000057e+02 2.297475404425466934e+02
1.148000000000000114e+02 2.293852884908969259e+02
1.152000000000000028e+02 2.290248859676740381e+02
1.156000000000000085e+02 2.286663167531322927e+02
1.160000000000000000e+02 2.283095649264118094e+02
1.164000000000000057e+02 2.279546147623655088e+02
1.168000000000000114e+02 2.276014507284482704e+02
1.172000000000000028e+02 2.272500574816669143e+02
1.176000000000000085e+02 2.269004198655890150e+02
1.180000000000000000e+02 2.265525229074096956e+02
1.184000000000000057e+02 2.262063518150749246e+02
1.188000000000000114e+02 2.258618919744605478e+02
1.192000000000000028e+02 2.255191289466042122e+02
1.196000000000000085e+02 2.251780484649911784e+02
1.200000000000000000e+02 2.248386364328909792e+02
1.204000000000000057e+02 2.245008789207448672e+02
1.208000000000000114e+02 2.241647621636023757e+02
1.212000000000000028e+02 2.238302725586059694e+02
1.216000000000000085e+02 2.234973966625231014e+02
1.220000000000000000e+02 2.231661211893241727e+02
1.224000000000000057e+02 2.228364330078052831e+02
1.228000000000000114e+02 2.225083191392556614e+02
1.232000000000000028e+02 2.221817667551674162e+02
1.236000000000000085e+02 2.218567631749882025e+02
1.240000000000000000e+02 2.215332958639145318e+02
1.244000000000000057e+02 2.212113524307255830e+02
1.248000000000000114e+02 2.208909206256566904e+02
1.252000000000000028e+02 2.205719883383113427e+02
1.256000000000000085e+02 2.202545435956106701e+02
1.260000000000000000e+02 2.199385745597802497e+02
1.264000000000000057e+02 2.196240695263730629e+02
1.268000000000000114e+02 2.193110169223276102e+02
1.272000000000000028e+02 2.189994053040612130e+02
1.276000000000000085e+02 2.186892233555964822e+02
1.280000000000000000e+02 2.183804598867216669e+02
1.284000000000000057e+02 2.180731038311833458e+02
1.288000000000000114e+02 2.177671442449106678e+02
1.291999999999999886e+02 2.174625703042713383e+02
1.296000000000000227e+02 2.171593713043573644e+02
1.300000000000000000e+02 2.168575366573014662e+02
1.304000000000000057e+02 2.165570558906225074e+02
1.308000000000000114e+02 2.162579186455990339e+02
1.311999999999999886e+02 2.159601146756719743e+02
1.316000000000000227e+02 2.156636338448736865e+02
1.320000000000000000e+02 2.153684661262852842e+02
1.324000000000000057e+02 2.150746016005188324e+02
1.328000000000000114e+02 2.147820304542267991e+02
1.331999999999999886e+02 2.144907429786360069e+02
1.336000000000000227e+02 2.142007295681066239e+02
1.340000000000000000e+02 2.139119807187158244e+02
1.344000000000000057e+02 2.136244870268648413e+02
1.348000000000000114e+02 2.133382391879094655e+02
1.351999999999999886e+02 2.130532279948139944e+02
1.356000000000000227e+02 2.127694443368268367e+02
1.360000000000000000e+02 2.124868791981787695e+02
1.364000000000000057e+02 2.122055236568023702e+02
1.368000000000000114e+02 2.119253688830727924e+02
1.371999999999999886e+02 2.116464061385696311e+02
1.376000000000000227e+02 2.113686267748582281e+02
1.380000000000000000e+02 2.110920222322918676e+02
1.384000000000000057e+02 2.108165840388328149e+02
1.388000000000000114e+02 2.105423038088933367e+02
1.392000000000000171e+02 2.102691732421945403e+02
1.395999999999999943e+02 2.099971841226444553e+02
1.400000000000000000e+02 2.097263283172337935e+02
1.404000000000000057e+02 2.094565977749498984e+02
1.408000000000000114e+02 2.091879845257073498e+02
1.412000000000000171e+02 2.089204806792965314e+02
1.415999999999999943e+02 2.086540784243481994e+02
1.420000000000000000e+02 2.083887700273153598e+02
1.424000000000000057e+02 2.081245478314700392e+02
1.428000000000000114e+02 2.078614042559171935e+02
1.432000000000000171e+02 2.075993317946233105e+02
1.435999999999999943e+02 2.073383230154608157e+02
1.440000000000000000e+02 2.070783705592665456e+02
1.444000000000000057e+02 2.068194671389160817e+02
1.448000000000000114e+02 2.065616055384117544e+02
1.452000000000000171e+02 2.063047786119849434e+02
1.455999999999999943e+02 2.060489792832123044e+02
1.460000000000000000e+02 2.057942005441455251e+02
1.464000000000000057e+02 2.055404354544547800e+02
1.468000000000000114e+02 2.052876771405849752e+02
1.472000000000000171e+02 2.050359187949250952e+02
1.475999999999999943e+02 2.047851536749899424e+02
1.480000000000000000e+02 2.045353751026149780e+02
1.484000000000000057e+02 2.042865764631625041e+02
1.488000000000000114e+02 2.040387512047405778e+02
1.492000000000000171e+02 2.037918928374331813e+02
1.495999999999999943e+02 2.035459949325423565e+02
1.500000000000000000e+02 2.033010511218416241e+02
