1.000000000000000000e+01 2.979690414995437209e+02
1.040000000000000036e+01 3.160089730714742018e+02
1.080000000000000071e+01 3.407272403407361594e+02
1.119999999999999929e+01 3.825907196847972500e+02
1.159999999999999964e+01 4.625991721767555873e+02
1.200000000000000000e+01 5.011234600098704846e+02
1.240000000000000036e+01 5.520482417607597654e+02
1.280000000000000071e+01 5.812490983988398057e+02
1.319999999999999929e+01 5.982583389161376317e+02
1.359999999999999964e+01 6.162339154047283500e+02
1.400000000000000000e+01 6.458774128819844691e+02
1.440000000000000036e+01 6.964008403108854282e+02
1.480000000000000071e+01 6.913417845523406413e+02
1.519999999999999929e+01 6.775837617478449602e+02
1.560000000000000142e+01 6.647488083868270223e+02
1.600000000000000000e+01 6.527321441641310003e+02
1.639999999999999858e+01 6.414454971596825317e+02
1.680000000000000071e+01 6.308138216388289266e+02
1.719999999999999929e+01 6.207727943866317446e+02
1.760000000000000142e+01 6.112668772517199614e+02
1.800000000000000000e+01 6.022477984451982138e+02
1.839999999999999858e+01 5.936733482281609895e+02
1.880000000000000071e+01 5.855064138494547024e+02
1.920000000000000284e+01 5.777141987999483490e+02
1.960000000000000142e+01 5.702675856571573831e+02
2.000000000000000000e+01 5.631406119408692348e+02
2.039999999999999858e+01 5.563100357504519025e+02
2.080000000000000071e+01 5.497549733482172769e+02
2.120000000000000284e+01 5.434565948588135598e+02
2.160000000000000142e+01 5.373978672623213697e+02
2.200000000000000000e+01 5.315633361403039316e+02
2.239999999999999858e+01 5.259389393812932667e+02
2.280000000000000071e+01 5.205118474020868007e+02
2.320000000000000284e+01 5.152703254927783973e+02
2.360000000000000142e+01 5.102036147189281792e+02
2.400000000000000000e+01 5.053018284670005755e+02
2.439999999999999858e+01 5.005558622388475669e+02
2.480000000000000071e+01 4.959573147173606458e+02
2.520000000000000284e+01 4.914984184610432862e+02
2.560000000000000142e+01 4.871719788573399796e+02
2.600000000000000000e+01 4.829713201863372660e+02
2.640000000000000213e+01 4.788902378281605934e+02
2.680000000000000071e+01 4.749229557969844677e+02
2.719999999999999929e+01 4.710640889083036882e+02
2.760000000000000142e+01 4.673086089889123400e+02
2.800000000000000000e+01 4.636518146247886989e+02
2.840000000000000213e+01 4.600893040139221739e+02
2.880000000000000071e+01 4.566169505515129003e+02
2.920000000000000284e+01 4.532308808259467696e+02
2.960000000000000142e+01 4.499274547471227947e+02
3.000000000000000000e+01 4.467032475653815595e+02
3.040000000000000213e+01 4.435550335705628413e+02
3.080000000000000071e+01 4.404797712874574813e+02
3.120000000000000284e+01 4.374745900068523952e+02
3.160000000000000142e+01 4.345367775110988759e+02
3.200000000000000000e+01 4.316637688701464413e+02
3.240000000000000568e+01 4.288531361987000992e+02
3.279999999999999716e+01 4.261025792779201424e+02
3.320000000000000284e+01 4.234099169561661142e+02
3.360000000000000142e+01 4.207730792529551991e+02
3.400000000000000000e+01 4.181901000987381849e+02
3.440000000000000568e+01 4.156591106504773165e+02
3.479999999999999716e+01 4.131783331294933532e+02
3.520000000000000284e+01 4.107460751337335978e+02
3.560000000000000142e+01 4.083607243816295522e+02
3.600000000000000000e+01 4.060207438491355560e+02
3.640000000000000568e+01 4.037246672654476356e+02
3.679999999999999716e+01 4.014710949363684449e+02
3.720000000000000284e+01 3.992586898673533256e+02
3.760000000000000142e+01 3.970861741610084437e+02
3.800000000000000000e+01 3.949523256662364474e+02
3.840000000000000568e+01 3.928559748584017939e+02
3.879999999999999716e+01 3.907960019318171021e+02
3.920000000000000284e+01 3.887713340875872063e+02
3.960000000000000142e+01 3.867809430014028180e+02
4.000000000000000000e+01 3.848238424572580811e+02
4.040000000000000568e+01 3.828990861343319239e+02
4.079999999999999716e+01 3.810057655353833184e+02
4.120000000000000284e+01 3.791430080460351064e+02
4.160000000000000142e+01 3.773099751152316799e+02
4.200000000000000000e+01 3.755058605479814560e+02
4.239999999999999858e+01 3.737298889022434878e+02
4.280000000000000426e+01 3.719813139824938162e+02
4.320000000000000284e+01 3.702594174231188617e+02
4.360000000000000142e+01 3.685635073553425514e+02
4.400000000000000000e+01 3.668929171518963130e+02
4.439999999999999858e+01 3.652470042441050282e+02
4.480000000000000426e+01 3.636251490064748850e+02
4.520000000000000284e+01 3.620267537042579420e+02
4.560000000000000142e+01 3.604512414998112604e+02
4.600000000000000000e+01 3.588980555138894033e+02
4.639999999999999858e+01 3.573666579382981467e+02
4.680000000000000426e+01 3.558565291966058339e+02
4.720000000000000284e+01 3.543671671498515252e+02
4.760000000000000142e+01 3.528980863444103306e+02
4.800000000000000000e+01 3.514488172993872581e+02
4.840000000000000568e+01 3.500189058310936616e+02
4.880000000000000426e+01 3.486079124123374413e+02
4.920000000000000284e+01 3.472154115644152057e+02
4.960000000000000142e+01 3.458409912798438768e+02
5.000000000000000000e+01 3.444842524740013801e+02
5.040000000000000568e+01 3.431448084639750391e+02
5.080000000000000426e+01 3.418222844730272527e+02
5.120000000000000284e+01 3.405163171591976266e+02
5.160000000000000142e+01 3.392265541666573654e+02
5.200000000000000000e+01 3.379526536985238181e+02
5.240000000000000568e+01 3.366942841099267980e+02
5.280000000000000426e+01 3.354511235201964610e+02
5.320000000000000284e+01 3.342228594431148281e+02
5.360000000000000142e+01 3.330091884342415938e+02
5.400000000000000000e+01 3.318098157543836919e+02
5.440000000000000568e+01 3.306244550483415310e+02
5.480000000000000426e+01 3.294528280381125569e+02
5.520000000000000284e+01 3.282946642297877702e+02
5.560000000000000142e+01 3.271497006334212756e+02
5.600000000000000000e+01 3.260176814951960296e+02
5.640000000000000568e+01 3.248983580412506171e+02
5.680000000000000426e+01 3.237914882325696908e+02
5.720000000000000284e+01 3.226968365303736732e+02
5.760000000000000142e+01 3.216141736714801027e+02
5.800000000000000000e+01 3.205432764531354337e+02
5.840000000000000568e+01 3.194839275268484471e+02
5.880000000000000426e+01 3.184359152007808689e+02
5.920000000000000284e+01 3.173990332502770570e+02
5.960000000000000142e+01 3.163730807361374673e+02
6.000000000000000000e+01 3.153578618302638006e+02
6.040000000000000568e+01 3.143531856483227784e+02
6.080000000000000426e+01 3.133588660890955566e+02
6.120000000000000284e+01 3.123747216801986610e+02
6.160000000000000142e+01 3.114005754298788133e+02
6.200000000000000000e+01 3.104362546845985662e+02
6.240000000000000568e+01 3.094815909921471757e+02
6.280000000000000426e+01 3.085364199700247809e+02
6.320000000000000284e+01 3.076005811788579081e+02
6.360000000000000142e+01 3.066739180006230185e+02
6.400000000000000000e+01 3.057562775214595945e+02
6.440000000000000568e+01 3.048475104188718774e+02
6.480000000000001137e+01 3.039474708531225247e+02
6.520000000000000284e+01 3.030560163626374219e+02
6.559999999999999432e+01 3.021730077632444704e+02
6.600000000000000000e+01 3.012983090510833790e+02
6.640000000000000568e+01 3.004317873090255944e+02
6.680000000000001137e+01 2.995733126164579403e+02
6.720000000000000284e+01 2.987227579622846179e+02
6.759999999999999432e+01 2.978799991610152347e+02
6.800000000000000000e+01 2.970449147718058498e+02
6.840000000000000568e+01 2.962173860203349705e+02
6.880000000000001137e+01 2.953972967233937084e+02
6.920000000000000284e+01 2.945845332160810131e+02
6.959999999999999432e+01 2.937789842814972303e+02
7.000000000000000000e+01 2.929805410828348045e+02
7.040000000000000568e+01 2.921890970977698885e+02
7.080000000000001137e+01 2.914045480550630600e+02
7.120000000000000284e+01 2.906267918732809790e+02
7.159999999999999432e+01 2.898557286015557679e+02
7.200000000000000000e+01 2.890912603623017390e+02
7.240000000000000568e+01 2.883332912958143197e+02
7.280000000000001137e+01 2.875817275066759748e+02
7.320000000000000284e+01 2.868364770119022182e+02
7.359999999999999432e+01 2.860974496907593334e+02
7.400000000000000000e+01 2.853645572361906488e+02
7.440000000000000568e+01 2.846377131077912281e+02
7.479999999999999716e+01 2.839168324862714599e+02
7.520000000000000284e+01 2.832018322293550341e+02
7.560000000000000853e+01 2.824926308290576458e+02
7.600000000000000000e+01 2.817891483702956066e+02
7.640000000000000568e+01 2.810913064907744001e+02
7.679999999999999716e+01 2.803990283421127856e+02
7.720000000000000284e+01 2.797122385521546448e+02
7.760000000000000853e+01 2.790308631884290662e+02
7.800000000000000000e+01 2.783548297227137596e+02
7.840000000000000568e+01 2.776840669966655923e+02
7.879999999999999716e+01 2.770185051884786844e+02
7.920000000000000284e+01 2.763580757805340227e+02
7.960000000000000853e+01 2.757027115280064322e+02
8.000000000000000000e+01 2.750523464283944577e+02
8.040000000000000568e+01 2.744069156919423449e+02
8.079999999999999716e+01 2.737663557129219498e+02
8.120000000000000284e+01 2.731306040417463805e+02
8.160000000000000853e+01 2.724995993578862112e+02
8.200000000000000000e+01 2.718732814435608134e+02
8.240000000000000568e+01 2.712515911581792238e+02
8.279999999999999716e+01 2.706344704135053689e+02
8.320000000000000284e+01 2.700218621495221782e+02
8.360000000000000853e+01 2.694137103109736699e+02
8.400000000000000000e+01 2.688099598245599964e+02
8.440000000000000568e+01 2.682105565767655548e+02
8.479999999999999716e+01 2.676154473922996999e+02
8.520000000000000284e+01 2.670245800131281726e+02
8.560000000000000853e+01 2.664379030780787616e+02
8.600000000000000000e+01 2.658553661030001649e+02
8.640000000000000568e+01 2.652769194614577941e+02
8.680000000000001137e+01 2.647025143659495825e+02
8.720000000000000284e+01 2.641321028496239478e+02
8.760000000000000853e+01 2.635656377484849600e+02
8.800000000000000000e+01 2.630030726840697071e+02
8.840000000000000568e+01 2.624443620465818867e+02
8.880000000000001137e+01 2.618894609784690601e+02
8.920000000000000284e+01 2.613383253584275394e+02
8.960000000000000853e+01 2.607909117858247896e+02
9.000000000000000000e+01 2.602471775655233728e+02
9.040000000000000568e+01 2.597070806930963727e+02
9.080000000000001137e+01 2.591705798404213965e+02
9.120000000000000284e+01 2.586376343416422969e+02
9.160000000000000853e+01 2.581082041794862789e+02
9.200000000000000000e+01 2.575822499719279790e+02
9.240000000000000568e+01 2.570597329591877269e+02
9.280000000000001137e+01 2.565406149910558042e+02
9.320000000000000284e+01 2.560248585145322977e+02
9.360000000000000853e+01 2.555124265617731680e+02
9.400000000000000000e+01 2.550032827383343204e+02
9.440000000000000568e+01 2.544973912117040129e+02
9.480000000000001137e+01 2.539947167001160722e+02
9.520000000000000284e+01 2.534952244616352743e+02
9.560000000000000853e+01 2.529988802835070203e+02
9.600000000000000000e+01 2.525056504717646533e+02
9.640000000000000568e+01 2.520155018410855234e+02
9.680000000000001137e+01 2.515284017048902285e+02
9.720000000000000284e+01 2.510443178656774421e+02
9.760000000000000853e+01 2.505632186055875934e+02
9.800000000000000000e+01 2.500850726771892028e+02
9.840000000000000568e+01 2.496098492944821317e+02
9.880000000000001137e+01 2.491375181241106418e+02
9.920000000000000284e+01 2.486680492767816304e+02
9.960000000000000853e+01 2.482014132988814481e+02
1.000000000000000000e+02 2.477375811642865813e+02
1.004000000000000057e+02 2.472765242663625145e+02
1.008000000000000114e+02 2.468182144101453730e+02
1.012000000000000028e+02 2.463626238047029062e+02
1.016000000000000085e+02 2.459097250556673089e+02
1.020000000000000000e+02 2.454594911579380891e+02
1.024000000000000057e+02 2.450118954885484754e+02
1.028000000000000114e+02 2.445669117996921784e+02
1.032000000000000028e+02 2.441245142119055345e+02
1.036000000000000085e+02 2.436846772074010801e+02
1.040000000000000000e+02 2.432473756235491749e+02
1.044000000000000057e+02 2.428125846465026996e+02
1.048000000000000114e+02 2.423802798049624982e+02
1.052000000000000028e+02 2.419504369640783068e+02
1.056000000000000085e+02 2.415230323194833204e+02
1.060000000000000000e+02 2.410980423914574828e+02
1.064000000000000057e+02 2.406754440192174513e+02
1.068000000000000114e+02 2.402552143553287181e+02
1.072000000000000028e+02 2.398373308602384668e+02
1.076000000000000085e+02 2.394217712969240210e+02
1.080000000000000000e+02 2.390085137256559165e+02
1.084000000000000057e+02 2.385975364988716763e+02
1.088000000000000114e+02 2.381888182561574183e+02
1.092000000000000028e+02 2.377823379193352196e+02
1.096000000000000085e+02 2.373780746876532532e+02
1.100000000000000000e+02 2.369760080330761127e+02
1.104000000000000057e+02 2.365761176956729628e+02
1.108000000000000114e+02 2.361783836791014437e+02
1.112000000000000028e+02 2.357827862461838606e+02
1.116000000000000085e+02 2.353893059145750897e+02
1.120000000000000000e+02 2.349979234525186769e+02
1.124000000000000057e+02 2.346086198746891398e+02
1.128000000000000114e+02 2.342213764381191368e+02
1.132000000000000028e+02 2.338361746382089450e+02
1.136000000000000085e+02 2.334529962048158040e+02
1.140000000000000000e+02 2.330718230984225841e+02
1.144000000000000057e+02 2.326926375063822832e+02
1.148000000000000114e+02 2.323154218392378709e+02
1.152000000000000028e+02 2.319401587271149197e+02
1.156000000000000085e+02 2.315668310161855743e+02
1.160000000000000000e+02 2.311954217652024681e+02
1.164000000000000057e+02 2.308259142421001968e+02
1.168000000000000114e+02 2.304582919206637825e+02
1.172000000000000028e+02 2.300925384772618258e+02
1.176000000000000085e+02 2.297286377876428389e+02
1.180000000000000000e+02 2.293665739237941352e+02
1.184000000000000057e+02 2.290063311508607171e+02
1.188000000000000114e+02 2.286478939241239630e+02
1.192000000000000028e+02 2.282912468860373281e+02
1.196000000000000085e+02 2.279363748633193723e+02
1.200000000000000000e+02 2.275832628641016981e+02
1.204000000000000057e+02 2.272318960751306918e+02
1.208000000000000114e+02 2.268822598590227244e+02
1.212000000000000028e+02 2.265343397515700872e+02
1.216000000000000085e+02 2.261881214590982836e+02
1.220000000000000000e+02 2.258435908558721508e+02
1.224000000000000057e+02 2.255007339815502974e+02
1.228000000000000114e+02 2.251595370386869490e+02
1.232000000000000028e+02 2.248199863902800644e+02
1.236000000000000085e+02 2.244820685573641015e+02
1.240000000000000000e+02 2.241457702166475201e+02
1.244000000000000057e+02 2.238110781981931439e+02
1.248000000000000114e+02 2.234779794831413255e+02
1.252000000000000028e+02 2.231464612014735849e+02
1.256000000000000085e+02 2.228165106298177989e+02
1.260000000000000000e+02 2.224881151892922730e+02
1.264000000000000057e+02 2.221612624433889209e+02
1.268000000000000114e+02 2.218359400958939318e+02
1.272000000000000028e+02 2.215121359888467509e+02
1.276000000000000085e+02 2.211898381005339900e+02
1.280000000000000000e+02 2.208690345435196605e+02
1.284000000000000057e+02 2.205497135627105365e+02
1.288000000000000114e+02 2.202318635334549697e+02
1.291999999999999886e+02 2.199154729596757250e+02
1.296000000000000227e+02 2.196005304720348477e+02
1.300000000000000000e+02 2.192870248261315567e+02
1.304000000000000057e+02 2.189749449007304634e+02
1.308000000000000114e+02 2.186642796960212820e+02
1.311999999999999886e+02 2.183550183319081555e+02
1.316000000000000227e+02 2.180471500463289374e+02
1.320000000000000000e+02 2.177406641936030951e+02
1.324000000000000057e+02 2.174355502428075226e+02
1.328000000000000114e+02 2.171317977761811733e+02
1.331999999999999886e+02 2.168293964875554991e+02
1.336000000000000227e+02 2.165283361808127154e+02
1.340000000000000000e+02 2.162286067683693886e+02
1.344000000000000057e+02 2.159301982696858602e+02
1.348000000000000114e+02 2.156331008098005668e+02
1.351999999999999886e+02 2.153373046178895436e+02
1.356000000000000227e+02 2.150428000258487486e+02
1.360000000000000000e+02 2.147495774669015134e+02
1.364000000000000057e+02 2.144576274742278201e+02
1.368000000000000114e+02 2.141669406796170847e+02
1.371999999999999886e+02 2.138775078121426532e+02
1.376000000000000227e+02 2.135893196968586381e+02
1.380000000000000000e+02 2.133023672535175592e+02
1.384000000000000057e+02 2.130166414953092442e+02
1.388000000000000114e+02 2.127321335276205332e+02
1.392000000000000171e+02 2.124488345468143677e+02
1.395999999999999943e+02 2.121667358390296840e+02
1.400000000000000000e+02 2.118858287789998087e+02
1.404000000000000057e+02 2.116061048288903521e+02
1.408000000000000114e+02 2.113275555371556891e+02
1.412000000000000171e+02 2.110501725374137152e+02
1.415999999999999943e+02 2.107739475473385653e+02
1.420000000000000000e+02 2.104988723675708115e+02
1.424000000000000057e+02 2.102249388806451975e+02
1.428000000000000114e+02 2.099521390499353686e+02
1.432000000000000171e+02 2.096804649186148879e+02
1.435999999999999943e+02 2.094099086086350212e+02
1.440000000000000000e+02 2.091404623197180683e+02
1.444000000000000057e+02 2.088721183283671223e+02
1.448000000000000114e+02 2.086048689868905228e+02
1.452000000000000171e+02 2.083387067224420832e+02
1.455999999999999943e+02 2.080736240360757563e+02
1.460000000000000000e+02 2.078096135018151074e+02
1.464000000000000057e+02 2.075466677657372543e+02
1.468000000000000114e+02 2.072847795450707054e+02
1.472000000000000171e+02 2.070239416273069537e+02
1.475999999999999943e+02 2.067641468693258844e+02
1.480000000000000000e+02 2.065053881965344544e+02
1.484000000000000057e+02 2.062476586020181060e+02
1.488000000000000114e+02 2.059909511457057647e+02
1.492000000000000171e+02 2.057352589535466905e+02
1.495999999999999943e+02 2.054805752167001174e+02
1.500000000000000000e+02 2.052268931907372291e+02
