1.000000000000000000e+01 1.211941425850856717e+02
1.040000000000000036e+01 1.238264764826238036e+02
1.080000000000000071e+01 1.247122935257906420e+02
1.119999999999999929e+01 1.268114183514080935e+02
1.159999999999999964e+01 1.330762247294989038e+02
1.200000000000000000e+01 1.363005937923713304e+02
1.240000000000000036e+01 1.315177057909390612e+02
1.280000000000000071e+01 1.272616461181272314e+02
1.319999999999999929e+01 1.235641711263739495e+02
1.359999999999999964e+01 1.205177416834296054e+02
1.400000000000000000e+01 1.177258368319622122e+02
1.440000000000000036e+01 1.151585394520100891e+02
1.480000000000000071e+01 1.128949512926799912e+02
1.519999999999999929e+01 1.107920594048651566e+02
1.560000000000000142e+01 1.088307783146837835e+02
1.600000000000000000e+01 1.069951668291235762e+02
1.639999999999999858e+01 1.052717725697790598e+02
1.680000000000000071e+01 1.036491399426159461e+02
1.719999999999999929e+01 9.804179277639563850e+01
1.760000000000000142e+01 9.653103169214939783e+01
1.800000000000000000e+01 9.510076277750309259e+01
1.839999999999999858e+01 9.374381375627780244e+01
1.880000000000000071e+01 9.245389899238136877e+01
1.920000000000000284e+01 9.122548059852489644e+01
1.960000000000000142e+01 9.005365565087564050e+01
2.000000000000000000e+01 8.893406383261387305e+01
2.039999999999999858e+01 8.786281122119217457e+01
2.080000000000000071e+01 8.683640694852542197e+01
2.120000000000000284e+01 8.585171021189481166e+01
2.160000000000000142e+01 8.080195053342390565e+01
2.200000000000000000e+01 7.982546179953874343e+01
2.239999999999999858e+01 7.888583258610796634e+01
2.280000000000000071e+01 7.798074650302984878e+01
2.320000000000000284e+01 7.710813432800242140e+01
2.360000000000000142e+01 7.627136890196665320e+01
2.400000000000000000e+01 7.546257313570549741e+01
2.439999999999999858e+01 7.468018969050656608e+01
2.480000000000000071e+01 7.392278148261607384e+01
2.520000000000000284e+01 7.318901988468326181e+01
2.560000000000000142e+01 7.247767432368894447e+01
2.600000000000000000e+01 7.178760308270233281e+01
2.640000000000000213e+01 7.111774514403916214e+01
2.680000000000000071e+01 7.046711293632732520e+01
2.719999999999999929e+01 6.983478586864336535e+01
2.760000000000000142e+01 6.921990455207314596e+01
2.800000000000000000e+01 6.911842409013209476e+01
2.840000000000000213e+01 6.856117991593974637e+01
2.880000000000000071e+01 6.801809695422463165e+01
2.920000000000000284e+01 6.748857304341593988e+01
2.960000000000000142e+01 6.696157354001371687e+01
3.000000000000000000e+01 6.643288972975264528e+01
3.040000000000000213e+01 6.591702011324184696e+01
3.080000000000000071e+01 6.541344673578127811e+01
3.120000000000000284e+01 6.492168074021219581e+01
3.160000000000000142e+01 6.444126028419954366e+01
3.200000000000000000e+01 6.397174863795576982e+01
3.240000000000000568e+01 6.314544810992095591e+01
3.279999999999999716e+01 5.928976653022723298e+01
3.320000000000000284e+01 5.886289456455359215e+01
3.360000000000000142e+01 5.844482928360420004e+01
3.400000000000000000e+01 5.803526671244362944e+01
3.440000000000000568e+01 5.763391754553539670e+01
3.479999999999999716e+01 5.723855376334014977e+01
3.520000000000000284e+01 5.684964862732513780e+01
3.560000000000000142e+01 5.646822623325151369e+01
3.600000000000000000e+01 5.609404541334369299e+01
3.640000000000000568e+01 5.572687587663492081e+01
3.679999999999999716e+01 5.536649758023096268e+01
3.720000000000000284e+01 5.501270014478717485e+01
3.760000000000000142e+01 5.466528231054542175e+01
3.800000000000000000e+01 5.432405143062329955e+01
3.840000000000000568e+01 5.398882299855789313e+01
3.879999999999999716e+01 5.365942020738224016e+01
3.920000000000000284e+01 5.333567353776093967e+01
3.960000000000000142e+01 5.301742037293427501e+01
4.000000000000000000e+01 5.270450463841893196e+01
4.040000000000000568e+01 5.239677646459508509e+01
4.079999999999999716e+01 5.209409187047027956e+01
4.120000000000000284e+01 5.179631246705778835e+01
4.160000000000000142e+01 5.149707451426037608e+01
4.200000000000000000e+01 5.119812461298298700e+01
4.239999999999999858e+01 5.090397554341011244e+01
4.280000000000000426e+01 5.061449826352338732e+01
4.320000000000000284e+01 5.059174963599646446e+01
4.360000000000000142e+01 5.033755561067970064e+01
4.400000000000000000e+01 5.008708487775139417e+01
4.439999999999999858e+01 4.984024586136438728e+01
4.480000000000000426e+01 4.959695014686579384e+01
4.520000000000000284e+01 4.935711234052649843e+01
4.560000000000000142e+01 4.912064993686237813e+01
4.600000000000000000e+01 4.888748319306343149e+01
4.639999999999999858e+01 4.865753501008237691e+01
4.680000000000000426e+01 4.843073081996625007e+01
4.720000000000000284e+01 4.820699847904561608e+01
4.760000000000000142e+01 4.798626816662175543e+01
4.800000000000000000e+01 4.776847228881926100e+01
4.840000000000000568e+01 4.755354538729318392e+01
4.880000000000000426e+01 4.734142405250231889e+01
4.920000000000000284e+01 4.713204684127923372e+01
4.960000000000000142e+01 4.692535419844643485e+01
5.000000000000000000e+01 4.672128838224465142e+01
5.040000000000000568e+01 4.651979339335461106e+01
5.080000000000000426e+01 4.632081490730836748e+01
5.120000000000000284e+01 4.612247372877753548e+01
5.160000000000000142e+01 4.591910195917115090e+01
5.200000000000000000e+01 4.571790466139623987e+01
5.240000000000000568e+01 4.551917258017406454e+01
5.280000000000000426e+01 4.532285534973749463e+01
5.320000000000000284e+01 4.512890404260892296e+01
5.360000000000000142e+01 4.493727111695697118e+01
5.400000000000000000e+01 4.474791036629853380e+01
5.440000000000000568e+01 4.477503704885498337e+01
5.480000000000000426e+01 4.459628220689781131e+01
5.520000000000000284e+01 4.441955676924728635e+01
5.560000000000000142e+01 4.424482230342001543e+01
5.600000000000000000e+01 4.407204139352113259e+01
5.640000000000000568e+01 4.390117760580315576e+01
5.680000000000000426e+01 4.372819512367914285e+01
5.720000000000000284e+01 4.355499616174346045e+01
5.760000000000000142e+01 4.338372277167567859e+01
5.800000000000000000e+01 4.321433925176971513e+01
5.840000000000000568e+01 4.304681082550258253e+01
5.880000000000000426e+01 4.288110361079907307e+01
5.920000000000000284e+01 4.271718459053999339e+01
5.960000000000000142e+01 4.255502158425451142e+01
6.000000000000000000e+01 4.239458322094093035e+01
6.040000000000000568e+01 4.223583891296264881e+01
6.080000000000000426e+01 4.207875883096951242e+01
6.120000000000000284e+01 4.192331387979692892e+01
6.160000000000000142e+01 4.179808811348445374e+01
6.200000000000000000e+01 4.164692262469413464e+01
6.240000000000000568e+01 4.149729704545494258e+01
6.280000000000000426e+01 4.134918518745875105e+01
6.320000000000000284e+01 4.120256148541815833e+01
6.360000000000000142e+01 4.105740097805048094e+01
6.400000000000000000e+01 4.091367928976901425e+01
6.440000000000000568e+01 4.077137261305083626e+01
6.480000000000001137e+01 4.063045769145144703e+01
6.520000000000000284e+01 4.049091180323851091e+01
6.559999999999999432e+01 4.035271274561794286e+01
6.600000000000000000e+01 4.021583881952717121e+01
6.640000000000000568e+01 4.008026881497163885e+01
6.680000000000001137e+01 3.994598199688140738e+01
6.720000000000000284e+01 3.981220460883766066e+01
6.759999999999999432e+01 3.967961392771810125e+01
6.800000000000000000e+01 3.954825472119491536e+01
6.840000000000000568e+01 3.941810791473004372e+01
6.880000000000001137e+01 3.928915484693253291e+01
6.920000000000000284e+01 3.916137725808076908e+01
6.959999999999999432e+01 3.903475727903317960e+01
7.000000000000000000e+01 3.890927742051216853e+01
7.040000000000000568e+01 3.878492056274607336e+01
7.080000000000001137e+01 3.866166994545545776e+01
7.120000000000000284e+01 3.853950915817002709e+01
7.159999999999999432e+01 3.841842213086334112e+01
7.200000000000000000e+01 3.829833070812847495e+01
7.240000000000000568e+01 3.817925382982532767e+01
7.280000000000001137e+01 3.806120477524439139e+01
7.320000000000000284e+01 3.794416875931005961e+01
7.359999999999999432e+01 3.782813129435479027e+01
7.400000000000000000e+01 3.771307818244471122e+01
7.440000000000000568e+01 3.759899550794668954e+01
7.479999999999999716e+01 3.748586963032776964e+01
7.520000000000000284e+01 3.737368717717829014e+01
7.560000000000000853e+01 3.726243503745082819e+01
7.600000000000000000e+01 3.736561468490019422e+01
7.640000000000000568e+01 3.725862833217942693e+01
7.679999999999999716e+01 3.715250656167629728e+01
7.720000000000000284e+01 3.704723768660455363e+01
7.760000000000000853e+01 3.694281024163205984e+01
7.800000000000000000e+01 3.683921297748580770e+01
7.840000000000000568e+01 3.673643485571757594e+01
7.879999999999999716e+01 3.663446504362424605e+01
7.920000000000000284e+01 3.653329290931781514e+01
7.960000000000000853e+01 3.643290801693940750e+01
8.000000000000000000e+01 3.633330012201282955e+01
8.040000000000000568e+01 3.623445916693236768e+01
8.079999999999999716e+01 3.643293910803106428e+01
8.120000000000000284e+01 3.634020655708046377e+01
8.160000000000000853e+01 3.624816637185026025e+01
8.200000000000000000e+01 3.615680984878231641e+01
8.240000000000000568e+01 3.606225589776072127e+01
8.279999999999999716e+01 3.597377792146931341e+01
8.320000000000000284e+01 3.588594308966440849e+01
8.360000000000000853e+01 3.578664211562567488e+01
8.400000000000000000e+01 3.570071535124324669e+01
8.440000000000000568e+01 3.561540239909095362e+01
8.479999999999999716e+01 3.553069585531325458e+01
8.520000000000000284e+01 3.544658844182024637e+01
8.560000000000000853e+01 3.536307300353163185e+01
8.600000000000000000e+01 3.528014250569454191e+01
8.640000000000000568e+01 3.519779003127306538e+01
8.680000000000001137e+01 3.511600877840714219e+01
8.720000000000000284e+01 3.503479205793857432e+01
8.760000000000000853e+01 3.495413329100226463e+01
8.800000000000000000e+01 3.487402600668031027e+01
8.840000000000000568e+01 3.479446383971736623e+01
8.880000000000001137e+01 3.471544052829519700e+01
8.920000000000000284e+01 3.463694991186458338e+01
8.960000000000000853e+01 3.455898592903287181e+01
9.000000000000000000e+01 3.448154261550561017e+01
9.040000000000000568e+01 3.440461410208035176e+01
9.080000000000001137e+01 3.432819461269131978e+01
9.120000000000000284e+01 3.425227846250329122e+01
9.160000000000000853e+01 3.417686005605324340e+01
9.200000000000000000e+01 3.410193388543835624e+01
9.240000000000000568e+01 3.402749452854895651e+01
9.280000000000001137e+01 3.395353664734524557e+01
9.320000000000000284e+01 3.388005498617629030e+01
9.360000000000000853e+01 3.380704437014020414e+01
9.400000000000000000e+01 3.373449970348438143e+01
9.440000000000000568e+01 3.366241596804437819e+01
9.480000000000001137e+01 3.359078822172062928e+01
9.520000000000000284e+01 3.351961159699173720e+01
9.560000000000000853e+01 3.344868736557522482e+01
9.600000000000000000e+01 3.337802461988925984e+01
9.640000000000000568e+01 3.330779930122993449e+01
9.680000000000001137e+01 3.323800685221651463e+01
9.720000000000000284e+01 3.316864278214323747e+01
9.760000000000000853e+01 3.309970266572415909e+01
9.800000000000000000e+01 3.303099890975453690e+01
9.840000000000000568e+01 3.296224783410292503e+01
9.880000000000001137e+01 3.289391382060408375e+01
9.920000000000000284e+01 3.282599261455746387e+01
9.960000000000000853e+01 3.275848002218603483e+01
1.000000000000000000e+02 3.269137190951429517e+01
1.004000000000000057e+02 3.262466420127151423e+01
1.008000000000000114e+02 3.255835287981955872e+01
1.012000000000000028e+02 3.249243398410464323e+01
1.016000000000000085e+02 3.242690360863230836e+01
1.020000000000000000e+02 3.236175790246516470e+01
1.024000000000000057e+02 3.229699306824267069e+01
1.028000000000000114e+02 3.223260536122239728e+01
1.032000000000000028e+02 3.216859108834233894e+01
1.036000000000000085e+02 3.210494660730348215e+01
1.040000000000000000e+02 3.204166832567245393e+01
1.044000000000000057e+02 3.197875270000338332e+01
1.048000000000000114e+02 3.191619623497874869e+01
1.052000000000000028e+02 3.185399548256857116e+01
1.056000000000000085e+02 3.179214704120763457e+01
1.060000000000000000e+02 3.173064755499004974e+01
1.064000000000000057e+02 3.166949371288101034e+01
1.068000000000000114e+02 3.160868224794511505e+01
1.072000000000000028e+02 3.154820993659087236e+01
1.076000000000000085e+02 3.148807359783107174e+01
1.080000000000000000e+02 3.142827009255852388e+01
1.084000000000000057e+02 3.136879632283686448e+01
1.088000000000000114e+02 3.130964923120601640e+01
1.092000000000000028e+02 3.125847346268802340e+01
1.096000000000000085e+02 3.120047162845313338e+01
1.100000000000000000e+02 3.114246758509584367e+01
1.104000000000000057e+02 3.108423210898731170e+01
1.108000000000000114e+02 3.102631129741743976e+01
1.112000000000000028e+02 3.096870229728995838e+01
1.116000000000000085e+02 3.091140229179510257e+01
1.120000000000000000e+02 3.085440849981630151e+01
1.124000000000000057e+02 3.079771817534861711e+01
1.128000000000000114e+02 3.074132860692881763e+01
1.132000000000000028e+02 3.068523711707679524e+01
1.136000000000000085e+02 3.062944106174790448e+01
1.140000000000000000e+02 3.057393782979619701e+01
1.144000000000000057e+02 3.051872484244801242e+01
1.148000000000000114e+02 3.046379955278611362e+01
1.152000000000000028e+02 3.040915944524358139e+01
1.156000000000000085e+02 3.035480203510769215e+01
1.160000000000000000e+02 3.030072486803336673e+01
1.164000000000000057e+02 3.026511688569448921e+01
1.168000000000000114e+02 3.021218775196734185e+01
1.172000000000000028e+02 3.015952729935030874e+01
1.176000000000000085e+02 3.010713323626986693e+01
1.180000000000000000e+02 3.005500329858760011e+01
1.184000000000000057e+02 3.000313524917768149e+01
1.188000000000000114e+02 2.992989811800426381e+01
1.192000000000000028e+02 2.987905359859090382e+01
1.196000000000000085e+02 2.982846167387933534e+01
1.200000000000000000e+02 2.977812023064760893e+01
1.204000000000000057e+02 2.972802718052754400e+01
1.208000000000000114e+02 2.967818045962826545e+01
1.212000000000000028e+02 2.962857802816654029e+01
1.216000000000000085e+02 2.957921787010412018e+01
1.220000000000000000e+02 2.953009799279161740e+01
1.224000000000000057e+02 2.948121642661904929e+01
1.228000000000000114e+02 2.943243362664092189e+01
1.232000000000000028e+02 2.938386986321813055e+01
1.236000000000000085e+02 2.933553917155207102e+01
1.240000000000000000e+02 2.928743966786482389e+01
1.244000000000000057e+02 2.923956948977923531e+01
1.248000000000000114e+02 2.919192679600578799e+01
1.252000000000000028e+02 2.914450976603506760e+01
1.256000000000000085e+02 2.909731659983575014e+01
1.260000000000000000e+02 2.905034551755786865e+01
1.264000000000000057e+02 2.900359475924146935e+01
1.268000000000000114e+02 2.895706258453031268e+01
1.272000000000000028e+02 2.891074727239063336e+01
1.276000000000000085e+02 2.886464712083488138e+01
1.280000000000000000e+02 2.881876044665020942e+01
1.284000000000000057e+02 2.877308558513178127e+01
1.288000000000000114e+02 2.872762088982070239e+01
1.291999999999999886e+02 2.868236473224638772e+01
1.296000000000000227e+02 2.863731550167350548e+01
1.300000000000000000e+02 2.859247160485326233e+01
1.304000000000000057e+02 2.854783146577879194e+01
1.308000000000000114e+02 2.850339352544498794e+01
1.311999999999999886e+02 2.845915624161223434e+01
1.316000000000000227e+02 2.841511808857417876e+01
1.320000000000000000e+02 2.837127755692952746e+01
1.324000000000000057e+02 2.832763315335762400e+01
1.328000000000000114e+02 2.828418340039779366e+01
1.331999999999999886e+02 2.824092683623243261e+01
1.336000000000000227e+02 2.819786201447370289e+01
1.340000000000000000e+02 2.815498750395382643e+01
1.344000000000000057e+02 2.811230188851876477e+01
1.348000000000000114e+02 2.806980376682543010e+01
1.351999999999999886e+02 2.802737526753011466e+01
1.356000000000000227e+02 2.798512497005847166e+01
1.360000000000000000e+02 2.794305869700787781e+01
1.364000000000000057e+02 2.790117509941062934e+01
1.368000000000000114e+02 2.785947284219304620e+01
1.371999999999999886e+02 2.781795060399131003e+01
1.376000000000000227e+02 2.777510565031305845e+01
1.380000000000000000e+02 2.773427481516602455e+01
1.384000000000000057e+02 2.769361880756580874e+01
1.388000000000000114e+02 2.765313636823418619e+01
1.392000000000000171e+02 2.761282625063975260e+01
1.395999999999999943e+02 2.757268722083168200e+01
1.400000000000000000e+02 2.753271805727623089e+01
1.404000000000000057e+02 2.749291755069587495e+01
1.408000000000000114e+02 2.745328450391092545e+01
1.412000000000000171e+02 2.741381773168365044e+01
1.415999999999999943e+02 2.737451606056491826e+01
1.420000000000000000e+02 2.733537832874316109e+01
1.424000000000000057e+02 2.729626396312831105e+01
1.428000000000000114e+02 2.725714900076522440e+01
1.432000000000000171e+02 2.721819652135557988e+01
1.435999999999999943e+02 2.717940539017944346e+01
1.440000000000000000e+02 2.714077448365080159e+01
1.444000000000000057e+02 2.710230268917685947e+01
1.448000000000000114e+02 2.706398890501959897e+01
1.452000000000000171e+02 2.702583204015939344e+01
1.455999999999999943e+02 2.698783101416070807e+01
1.460000000000000000e+02 2.694998475703994245e+01
1.464000000000000057e+02 2.691229220913520237e+01
1.468000000000000114e+02 2.687475232097808941e+01
1.472000000000000171e+02 2.683736405316748019e+01
1.475999999999999943e+02 2.680012637624512450e+01
1.480000000000000000e+02 2.679899148814263654e+01
1.484000000000000057e+02 2.676289617454593284e+01
1.488000000000000114e+02 2.672694404349731911e+01
1.492000000000000171e+02 2.669113413692677739e+01
1.495999999999999943e+02 2.665546550578576301e+01
1.500000000000000000e+02 2.661993720993766033e+01
