1.000000000000000000e+01 9.691362102610256102e+01
1.040000000000000036e+01 1.000010352002109784e+02
1.080000000000000071e+01 1.025312287453996873e+02
1.119999999999999929e+01 1.080559391771571143e+02
1.159999999999999964e+01 1.187023211479617117e+02
1.200000000000000000e+01 1.153824117503643549e+02
1.240000000000000036e+01 1.118378981903423011e+02
1.280000000000000071e+01 1.086669457723180585e+02
1.319999999999999929e+01 1.058044173033686945e+02
1.359999999999999964e+01 1.032007586665557000e+02
1.400000000000000000e+01 1.008173475134785662e+02
1.440000000000000036e+01 9.862347654959336296e+01
1.480000000000000071e+01 9.301862606177562043e+01
1.519999999999999929e+01 9.115448654791131844e+01
1.560000000000000142e+01 8.941977620665939241e+01
1.600000000000000000e+01 8.779989932678962816e+01
1.639999999999999858e+01 8.628250088493062719e+01
1.680000000000000071e+01 8.485703624637459086e+01
1.719999999999999929e+01 8.091758135742853142e+01
1.760000000000000142e+01 7.677571520812206529e+01
1.800000000000000000e+01 7.521257441546225664e+01
1.839999999999999858e+01 7.373702361835619001e+01
1.880000000000000071e+01 7.234111773809870272e+01
1.920000000000000284e+01 7.101789180148355740e+01
1.960000000000000142e+01 6.976120985438780053e+01
2.000000000000000000e+01 6.856564155578648467e+01
2.039999999999999858e+01 6.742636062185890466e+01
2.080000000000000071e+01 6.633906066878738272e+01
2.120000000000000284e+01 6.529988502196465561e+01
2.160000000000000142e+01 6.518384962903627411e+01
2.200000000000000000e+01 6.426150949961871106e+01
2.239999999999999858e+01 6.337585506828195037e+01
2.280000000000000071e+01 6.252449964005147365e+01
2.320000000000000284e+01 6.170531500657444468e+01
2.360000000000000142e+01 6.092287460993625103e+01
2.400000000000000000e+01 6.017232933952293905e+01
2.439999999999999858e+01 5.944704916923650728e+01
2.480000000000000071e+01 5.874563796673449900e+01
2.520000000000000284e+01 5.806680581648248562e+01
2.560000000000000142e+01 5.740935880816037695e+01
2.600000000000000000e+01 5.677519602782680863e+01
2.640000000000000213e+01 5.616406396876949714e+01
2.680000000000000071e+01 5.557084761549923257e+01
2.719999999999999929e+01 5.499468157541905100e+01
2.760000000000000142e+01 5.443475820094085549e+01
2.800000000000000000e+01 5.389032270626195498e+01
2.840000000000000213e+01 5.336066878147946113e+01
2.880000000000000071e+01 5.284513464506058256e+01
2.920000000000000284e+01 5.234309948363901555e+01
2.960000000000000142e+01 5.185398023486408903e+01
3.000000000000000000e+01 5.137722867478444755e+01
3.040000000000000213e+01 5.091232877616899799e+01
3.080000000000000071e+01 5.045879430838581925e+01
3.120000000000000284e+01 4.992677709769186833e+01
3.160000000000000142e+01 4.949298940622010434e+01
3.200000000000000000e+01 4.906947383408935082e+01
3.240000000000000568e+01 4.828854442664091096e+01
3.279999999999999716e+01 4.754077198306782037e+01
3.320000000000000284e+01 4.719120815297015525e+01
3.360000000000000142e+01 4.684911272754666101e+01
3.400000000000000000e+01 4.651422120370310154e+01
3.440000000000000568e+01 4.618628208353464260e+01
3.479999999999999716e+01 4.586505605952142872e+01
3.520000000000000284e+01 4.555031526155383403e+01
3.560000000000000142e+01 4.524184256029310092e+01
3.600000000000000000e+01 4.493860688347070464e+01
3.640000000000000568e+01 4.464009705054761667e+01
3.679999999999999716e+01 4.434726036412514816e+01
3.720000000000000284e+01 4.405991826063637973e+01
3.760000000000000142e+01 4.377789997006174616e+01
3.800000000000000000e+01 4.350104208304016140e+01
3.840000000000000568e+01 4.322918814706500257e+01
3.879999999999999716e+01 4.296218828947899482e+01
3.920000000000000284e+01 4.269989886518763456e+01
3.960000000000000142e+01 4.244218212719534478e+01
4.000000000000000000e+01 4.218890591823422653e+01
4.040000000000000568e+01 4.193994338190539395e+01
4.079999999999999716e+01 4.169517269188810360e+01
4.120000000000000284e+01 4.145447679789393902e+01
4.160000000000000142e+01 4.121151252247525321e+01
4.200000000000000000e+01 4.093588498656617247e+01
4.239999999999999858e+01 4.069240394541013472e+01
4.280000000000000426e+01 4.045300373222956836e+01
4.320000000000000284e+01 4.021757121403089741e+01
4.360000000000000142e+01 3.998599761105454320e+01
4.400000000000000000e+01 3.975817828341627802e+01
4.439999999999999858e+01 3.953401253040713925e+01
4.480000000000000426e+01 3.931340340157311175e+01
4.520000000000000284e+01 3.909625751876491506e+01
4.560000000000000142e+01 3.888248490841237981e+01
4.600000000000000000e+01 3.867199884333548709e+01
4.639999999999999858e+01 3.846471569345722230e+01
4.680000000000000426e+01 3.826055478483149130e+01
4.720000000000000284e+01 3.805943826644388395e+01
4.760000000000000142e+01 3.786108219041592804e+01
4.800000000000000000e+01 3.766244974959413128e+01
4.840000000000000568e+01 3.746670660295185940e+01
4.880000000000000426e+01 3.727378308477312885e+01
4.920000000000000284e+01 3.708361186474876092e+01
4.960000000000000142e+01 3.689612784810486801e+01
5.000000000000000000e+01 3.671126808090886584e+01
5.040000000000000568e+01 3.652897166023815601e+01
5.080000000000000426e+01 3.634917964891889142e+01
5.120000000000000284e+01 3.617183499456230322e+01
5.160000000000000142e+01 3.599688245264462694e+01
5.200000000000000000e+01 3.582426851339386076e+01
5.240000000000000568e+01 3.565394133226244833e+01
5.280000000000000426e+01 3.548585066377971486e+01
5.320000000000000284e+01 3.531994779859140721e+01
5.360000000000000142e+01 3.515618550350614413e+01
5.400000000000000000e+01 3.499451796438055595e+01
5.440000000000000568e+01 3.504916090911692805e+01
5.480000000000000426e+01 3.515487073860239775e+01
5.520000000000000284e+01 3.501454976008573539e+01
5.560000000000000142e+01 3.487588308782502367e+01
5.600000000000000000e+01 3.473883820866683436e+01
5.640000000000000568e+01 3.460338350026498233e+01
5.680000000000000426e+01 3.446948819987228774e+01
5.720000000000000284e+01 3.433712237446070503e+01
5.760000000000000142e+01 3.420625689210357478e+01
5.800000000000000000e+01 3.407686339455722191e+01
5.840000000000000568e+01 3.394891427098294656e+01
5.880000000000000426e+01 3.382238263275366563e+01
5.920000000000000284e+01 3.369724228929254650e+01
5.960000000000000142e+01 3.357346772489407272e+01
6.000000000000000000e+01 3.345103407648053917e+01
6.040000000000000568e+01 3.332991711224959630e+01
6.080000000000000426e+01 3.321009321117093549e+01
6.120000000000000284e+01 3.309153934329248159e+01
6.160000000000000142e+01 3.297388242280337778e+01
6.200000000000000000e+01 3.285738382718200512e+01
6.240000000000000568e+01 3.274209847932126394e+01
6.280000000000000426e+01 3.262800530856740266e+01
6.320000000000000284e+01 3.251508375484694113e+01
6.360000000000000142e+01 3.240331375283257387e+01
6.400000000000000000e+01 3.229267571670619930e+01
6.440000000000000568e+01 3.218315052549262134e+01
6.480000000000001137e+01 3.207471950893888391e+01
6.520000000000000284e+01 3.196736443391523963e+01
6.559999999999999432e+01 3.186106749131511151e+01
6.600000000000000000e+01 3.175581128343265291e+01
6.640000000000000568e+01 3.165157881179731092e+01
6.680000000000001137e+01 3.154835346544588504e+01
6.720000000000000284e+01 3.144536552698498610e+01
6.759999999999999432e+01 3.134257393759851951e+01
6.800000000000000000e+01 3.124066908322123837e+01
6.840000000000000568e+01 3.113972381337950424e+01
6.880000000000001137e+01 3.103972308492276966e+01
6.920000000000000284e+01 3.094302149071528873e+01
6.959999999999999432e+01 3.084541011313887182e+01
7.000000000000000000e+01 3.074869158729261542e+01
7.040000000000000568e+01 3.065285230335077671e+01
7.080000000000001137e+01 3.055787894091525914e+01
7.120000000000000284e+01 3.046375846113994257e+01
7.159999999999999432e+01 3.037047809911560137e+01
7.200000000000000000e+01 3.027802535650519999e+01
7.240000000000000568e+01 3.018638799442000220e+01
7.280000000000001137e+01 3.009555402652704714e+01
7.320000000000000284e+01 3.000551171237939130e+01
7.359999999999999432e+01 2.991624955096047955e+01
7.400000000000000000e+01 2.982775627443461275e+01
7.440000000000000568e+01 2.974002084209581653e+01
7.479999999999999716e+01 2.965303243450770765e+01
7.520000000000000284e+01 2.956678044782710302e+01
7.560000000000000853e+01 2.948125448830491280e+01
7.600000000000000000e+01 2.939644436695747842e+01
7.640000000000000568e+01 2.931234009440237287e+01
7.679999999999999716e+01 2.922893187585261288e+01
7.720000000000000284e+01 2.914600300997220828e+01
7.760000000000000853e+01 2.906374276024954639e+01
7.800000000000000000e+01 2.898215234327644652e+01
7.840000000000000568e+01 2.890122266515928473e+01
7.879999999999999716e+01 2.882094480435629436e+01
7.920000000000000284e+01 2.874131000749564535e+01
7.960000000000000853e+01 2.866230968531687395e+01
8.000000000000000000e+01 2.858393540873151295e+01
8.040000000000000568e+01 2.850617890499868423e+01
8.079999999999999716e+01 2.842903205401183087e+01
8.120000000000000284e+01 2.835248688469270562e+01
8.160000000000000853e+01 2.827653557148901342e+01
8.200000000000000000e+01 2.820117043097217646e+01
8.240000000000000568e+01 2.812251137812562973e+01
8.279999999999999716e+01 2.804510623117530699e+01
8.320000000000000284e+01 2.797453078560738504e+01
8.360000000000000853e+01 2.790448151924084641e+01
8.400000000000000000e+01 2.783495185565014296e+01
8.440000000000000568e+01 2.776593533350714438e+01
8.479999999999999716e+01 2.769742560399529197e+01
8.520000000000000284e+01 2.762941642829458289e+01
8.560000000000000853e+01 2.756492606388042788e+01
8.600000000000000000e+01 2.749814189630825467e+01
8.640000000000000568e+01 2.743183844697924201e+01
8.680000000000001137e+01 2.736600991346044864e+01
8.720000000000000284e+01 2.730065059141159622e+01
8.760000000000000853e+01 2.723575487245599902e+01
8.800000000000000000e+01 2.717131724210789656e+01
8.840000000000000568e+01 2.710733227775420673e+01
8.880000000000001137e+01 2.704379464668949140e+01
8.920000000000000284e+01 2.698069910420188933e+01
8.960000000000000853e+01 2.691804049170890778e+01
9.000000000000000000e+01 2.685581373494144231e+01
9.040000000000000568e+01 2.679401384217429438e+01
9.080000000000001137e+01 2.673263590250218869e+01
9.120000000000000284e+01 2.667167508415959531e+01
9.160000000000000853e+01 2.661112663288321656e+01
9.200000000000000000e+01 2.655098587031575619e+01
9.240000000000000568e+01 2.649124819244981666e+01
9.280000000000001137e+01 2.643190906811069141e+01
9.320000000000000284e+01 2.637296403747695450e+01
9.360000000000000853e+01 2.631440871063767162e+01
9.400000000000000000e+01 2.625623876618520924e+01
9.440000000000000568e+01 2.619841556437212304e+01
9.480000000000001137e+01 2.614094503122138491e+01
9.520000000000000284e+01 2.608384754863838140e+01
9.560000000000000853e+01 2.602711905522084379e+01
9.600000000000000000e+01 2.597075555151278081e+01
9.640000000000000568e+01 2.591475309879113098e+01
9.680000000000001137e+01 2.585910781788140866e+01
9.720000000000000284e+01 2.580381588800160131e+01
9.760000000000000853e+01 2.574887354563335151e+01
9.800000000000000000e+01 2.569409385130738244e+01
9.840000000000000568e+01 2.563907050578958291e+01
9.880000000000001137e+01 2.558385738929011666e+01
9.920000000000000284e+01 2.552899142771855878e+01
9.960000000000000853e+01 2.547446896871232980e+01
1.000000000000000000e+02 2.542028641367522468e+01
1.004000000000000057e+02 2.536644021676208283e+01
1.008000000000000114e+02 2.531292688388689882e+01
1.012000000000000028e+02 2.525974297175358885e+01
1.016000000000000085e+02 2.520688508690890473e+01
1.020000000000000000e+02 2.515434988481691647e+01
1.024000000000000057e+02 2.510213406895433863e+01
1.028000000000000114e+02 2.505023438992633800e+01
1.032000000000000028e+02 2.499864764460214417e+01
1.036000000000000085e+02 2.494737067526994423e+01
1.040000000000000000e+02 2.489351461649243902e+01
1.044000000000000057e+02 2.484309772150289319e+01
1.048000000000000114e+02 2.479298007695721751e+01
1.052000000000000028e+02 2.474315871048293403e+01
1.056000000000000085e+02 2.469363069103032160e+01
1.060000000000000000e+02 2.464439312813535565e+01
1.064000000000000057e+02 2.459544317119860324e+01
1.068000000000000114e+02 2.454677800877968963e+01
1.072000000000000028e+02 2.449839486790708065e+01
1.076000000000000085e+02 2.445029101340262301e+01
1.080000000000000000e+02 2.440246374722055833e+01
1.084000000000000057e+02 2.435491040780063088e+01
1.088000000000000114e+02 2.430762836943495842e+01
1.092000000000000028e+02 2.426061504164825777e+01
1.096000000000000085e+02 2.421386786859110529e+01
1.100000000000000000e+02 2.416738432844607587e+01
1.104000000000000057e+02 2.412116193284607135e+01
1.108000000000000114e+02 2.407519822630500173e+01
1.112000000000000028e+02 2.402949078566008367e+01
1.116000000000000085e+02 2.398403721952582401e+01
1.120000000000000000e+02 2.393883516775916576e+01
1.124000000000000057e+02 2.389388230093557652e+01
1.128000000000000114e+02 2.384917631983596209e+01
1.132000000000000028e+02 2.380471495494393253e+01
1.136000000000000085e+02 2.376032526185202443e+01
1.140000000000000000e+02 2.371617352725512262e+01
1.144000000000000057e+02 2.367226064986687462e+01
1.148000000000000114e+02 2.362858446625100584e+01
1.152000000000000028e+02 2.358514284040799680e+01
1.156000000000000085e+02 2.354193366332846082e+01
1.160000000000000000e+02 2.349895485255547101e+01
1.164000000000000057e+02 2.347439571788394375e+01
1.168000000000000114e+02 2.343246628759148464e+01
1.172000000000000028e+02 2.340989301352912122e+01
1.176000000000000085e+02 2.336899908427080064e+01
1.180000000000000000e+02 2.332831679543090075e+01
1.184000000000000057e+02 2.328784430633349345e+01
1.188000000000000114e+02 2.324757979876348912e+01
1.192000000000000028e+02 2.320752147661423948e+01
1.196000000000000085e+02 2.316766756554195439e+01
1.200000000000000000e+02 2.312801631262665580e+01
1.204000000000000057e+02 2.308856598603959753e+01
1.208000000000000114e+02 2.304931487471700180e+01
1.212000000000000028e+02 2.301026128803993487e+01
1.216000000000000085e+02 2.297140355552027202e+01
1.220000000000000000e+02 2.293274002649242505e+01
1.224000000000000057e+02 2.289426906981098497e+01
1.228000000000000114e+02 2.285598907355390352e+01
1.232000000000000028e+02 2.281789844473118833e+01
1.236000000000000085e+02 2.278276998907219664e+01
1.240000000000000000e+02 2.274526675973485368e+01
1.244000000000000057e+02 2.270794723530355697e+01
1.248000000000000114e+02 2.267080990367504612e+01
1.252000000000000028e+02 2.263385327021150317e+01
1.256000000000000085e+02 2.259707585748112280e+01
1.260000000000000000e+02 2.256047620500341822e+01
1.264000000000000057e+02 2.252405286899917058e+01
1.268000000000000114e+02 2.248780442214482278e+01
1.272000000000000028e+02 2.245172945333128567e+01
1.276000000000000085e+02 2.241582656742713198e+01
1.280000000000000000e+02 2.238009438504591841e+01
1.284000000000000057e+02 2.234453154231773198e+01
1.288000000000000114e+02 2.230913669066471527e+01
1.291999999999999886e+02 2.227390849658061356e+01
1.296000000000000227e+02 2.223884564141413733e+01
1.300000000000000000e+02 2.220394682115622587e+01
1.304000000000000057e+02 2.216921074623091314e+01
1.308000000000000114e+02 2.213463614128995260e+01
1.311999999999999886e+02 2.210022174501093417e+01
1.316000000000000227e+02 2.206596630989889718e+01
1.320000000000000000e+02 2.203186860209147468e+01
1.324000000000000057e+02 2.199792740116724588e+01
1.328000000000000114e+02 2.196414149995749199e+01
1.331999999999999886e+02 2.193050970436108926e+01
1.336000000000000227e+02 2.189703083316263132e+01
1.340000000000000000e+02 2.186370038259151727e+01
1.344000000000000057e+02 2.183047054106452833e+01
1.348000000000000114e+02 2.179739039583433424e+01
1.351999999999999886e+02 2.176434232920059131e+01
1.356000000000000227e+02 2.173134096006439009e+01
1.360000000000000000e+02 2.169845791129979773e+01
1.364000000000000057e+02 2.166572139353898763e+01
1.368000000000000114e+02 2.163313031101820627e+01
1.371999999999999886e+02 2.160068357946645534e+01
1.376000000000000227e+02 2.156838012595046550e+01
1.380000000000000000e+02 2.153621888872239509e+01
1.384000000000000057e+02 2.150419881706987724e+01
1.388000000000000114e+02 2.147231887116862481e+01
1.392000000000000171e+02 2.144057802193740869e+01
1.395999999999999943e+02 2.140897525089533815e+01
1.400000000000000000e+02 2.137750955002154640e+01
1.404000000000000057e+02 2.134617992161708599e+01
1.408000000000000114e+02 2.131498537816907302e+01
1.412000000000000171e+02 2.128392494221699849e+01
1.415999999999999943e+02 2.125299764622118914e+01
1.420000000000000000e+02 2.122220253243337140e+01
1.424000000000000057e+02 2.119153865276930659e+01
1.428000000000000114e+02 2.116100506868341569e+01
1.432000000000000171e+02 2.113060085104545394e+01
1.435999999999999943e+02 2.110032508001901519e+01
1.440000000000000000e+02 2.107017684494212872e+01
1.444000000000000057e+02 2.104015524420951877e+01
1.448000000000000114e+02 2.101025938515690683e+01
1.452000000000000171e+02 2.097972701609287327e+01
1.455999999999999943e+02 2.095021109258111380e+01
1.460000000000000000e+02 2.092081757228915251e+01
1.464000000000000057e+02 2.089154560321205167e+01
1.468000000000000114e+02 2.086239434166465401e+01
1.472000000000000171e+02 2.083336295217708667e+01
1.475999999999999943e+02 2.080445060739194929e+01
1.480000000000000000e+02 2.077565648796301900e+01
1.484000000000000057e+02 2.074697978245553998e+01
1.488000000000000114e+02 2.071841968724800864e+01
1.492000000000000171e+02 2.068997540643545108e+01
1.495999999999999943e+02 2.066164615173415342e+01
1.500000000000000000e+02 2.063343114238782761e+01
