1.000000000000000000e+01 1.689445997797641041e+02
1.040000000000000036e+01 1.726711963674665640e+02
1.080000000000000071e+01 1.809866601644030197e+02
1.119999999999999929e+01 1.900633926110641028e+02
1.159999999999999964e+01 2.088088250160986377e+02
1.200000000000000000e+01 2.217680929942208081e+02
1.240000000000000036e+01 2.128023803315129499e+02
1.280000000000000071e+01 2.048961607275908818e+02
1.319999999999999929e+01 1.980226672113122675e+02
1.359999999999999964e+01 1.925638410003874696e+02
1.400000000000000000e+01 1.876088271902333986e+02
1.440000000000000036e+01 1.835342061342262241e+02
1.480000000000000071e+01 1.794607317224265444e+02
1.519999999999999929e+01 1.756997377558242590e+02
1.560000000000000142e+01 1.722588219551026611e+02
1.600000000000000000e+01 1.690561153811885617e+02
1.639999999999999858e+01 1.660620776766158144e+02
1.680000000000000071e+01 1.632518468735734984e+02
1.719999999999999929e+01 1.579939512912986004e+02
1.760000000000000142e+01 1.553437828294167957e+02
1.800000000000000000e+01 1.528405467739180494e+02
1.839999999999999858e+01 1.504708173521028982e+02
1.880000000000000071e+01 1.482228563457196913e+02
1.920000000000000284e+01 1.460863456979174941e+02
1.960000000000000142e+01 1.440521707959796629e+02
2.000000000000000000e+01 1.421122433396227791e+02
2.039999999999999858e+01 1.402739157585117198e+02
2.080000000000000071e+01 1.385372714214157099e+02
2.120000000000000284e+01 1.360096560590956187e+02
2.160000000000000142e+01 1.222745214285550475e+02
2.200000000000000000e+01 1.207176678918329884e+02
2.239999999999999858e+01 1.192189246918626822e+02
2.280000000000000071e+01 1.177746671766277018e+02
2.320000000000000284e+01 1.163816314680004638e+02
2.360000000000000142e+01 1.150399901137089813e+02
2.400000000000000000e+01 1.137314474535453428e+02
2.439999999999999858e+01 1.124657710690443650e+02
2.480000000000000071e+01 1.112406214222586698e+02
2.520000000000000284e+01 1.100538368266476539e+02
2.560000000000000142e+01 1.089034162026801056e+02
2.600000000000000000e+01 1.077875038565398853e+02
2.640000000000000213e+01 1.067043760046632315e+02
2.680000000000000071e+01 1.056524288101288676e+02
2.719999999999999929e+01 1.046268013341562551e+02
2.760000000000000142e+01 1.036104820602322860e+02
2.800000000000000000e+01 1.027616925700855575e+02
2.840000000000000213e+01 1.018051197946122102e+02
2.880000000000000071e+01 1.008737893866497473e+02
2.920000000000000284e+01 9.996659473483632041e+01
2.960000000000000142e+01 9.905109224321242323e+01
3.000000000000000000e+01 9.811527941246865225e+01
3.040000000000000213e+01 9.720324129620310316e+01
3.080000000000000071e+01 9.631398186666125127e+01
3.120000000000000284e+01 9.544656284894330156e+01
3.160000000000000142e+01 9.460009946770614420e+01
3.200000000000000000e+01 9.377375657198598446e+01
3.240000000000000568e+01 9.259948791852650629e+01
3.279999999999999716e+01 9.183569430963842706e+01
3.320000000000000284e+01 9.108900353683172568e+01
3.360000000000000142e+01 9.035878264027753914e+01
3.400000000000000000e+01 8.964443114767639997e+01
3.440000000000000568e+01 8.894537895187302468e+01
3.479999999999999716e+01 8.826108435619809711e+01
3.520000000000000284e+01 8.759103227203537756e+01
3.560000000000000142e+01 8.693473255474660277e+01
3.600000000000000000e+01 8.659286228017636233e+01
3.640000000000000568e+01 8.597544227343414036e+01
3.679999999999999716e+01 8.537010822232826968e+01
3.720000000000000284e+01 8.477646824926301861e+01
3.760000000000000142e+01 8.414734295615578219e+01
3.800000000000000000e+01 8.357896862502094848e+01
3.840000000000000568e+01 8.302114264423070722e+01
3.879999999999999716e+01 8.247354055168645459e+01
3.920000000000000284e+01 8.193585176622460153e+01
3.960000000000000142e+01 8.140777882985292990e+01
4.000000000000000000e+01 8.088903670014019553e+01
4.040000000000000568e+01 8.037935208886955252e+01
4.079999999999999716e+01 7.987846284341014780e+01
4.120000000000000284e+01 7.938611736757216875e+01
4.160000000000000142e+01 7.889584341431289261e+01
4.200000000000000000e+01 7.840928353062633960e+01
4.239999999999999858e+01 7.793085066428186281e+01
4.280000000000000426e+01 7.746012286729158802e+01
4.320000000000000284e+01 7.770827429563793487e+01
4.360000000000000142e+01 7.731687609746114731e+01
4.400000000000000000e+01 7.693124048588441610e+01
4.439999999999999858e+01 7.655122586430462661e+01
4.480000000000000426e+01 7.617630125434723709e+01
4.520000000000000284e+01 7.580531953265867173e+01
4.560000000000000142e+01 7.543958240709234531e+01
4.600000000000000000e+01 7.507896614726061557e+01
4.639999999999999858e+01 7.472335109883027826e+01
4.680000000000000426e+01 7.437262151163004376e+01
4.720000000000000284e+01 7.402666537657032109e+01
4.760000000000000142e+01 7.368537427084294222e+01
4.800000000000000000e+01 7.334864321090890371e+01
4.840000000000000568e+01 7.301637051281245760e+01
4.880000000000000426e+01 7.268845765939362025e+01
4.920000000000000284e+01 7.240817670067904999e+01
4.960000000000000142e+01 7.208906057644092868e+01
5.000000000000000000e+01 7.177401759479637633e+01
5.040000000000000568e+01 7.146296096269983877e+01
5.080000000000000426e+01 7.115580647086969179e+01
5.120000000000000284e+01 7.085247239526647434e+01
5.160000000000000142e+01 7.055287940314116213e+01
5.200000000000000000e+01 7.025695046340366900e+01
5.240000000000000568e+01 6.996461076107867427e+01
5.280000000000000426e+01 6.967578761562941736e+01
5.320000000000000284e+01 6.939041040294371498e+01
5.360000000000000142e+01 6.910841048078944482e+01
5.400000000000000000e+01 6.882972111755807987e+01
5.440000000000000568e+01 6.876853760155698581e+01
5.480000000000000426e+01 6.850247154114137516e+01
5.520000000000000284e+01 6.823951734629696375e+01
5.560000000000000142e+01 6.796591935753328073e+01
5.600000000000000000e+01 6.771338174158063339e+01
5.640000000000000568e+01 6.746361432103499567e+01
5.680000000000000426e+01 6.720456532327307286e+01
5.720000000000000284e+01 6.694199561710753699e+01
5.760000000000000142e+01 6.668238417900327875e+01
5.800000000000000000e+01 6.642567536819767327e+01
5.840000000000000568e+01 6.617181500706359998e+01
5.880000000000000426e+01 6.592075033177182775e+01
5.920000000000000284e+01 6.567242994498060682e+01
5.960000000000000142e+01 6.542680377045354589e+01
6.000000000000000000e+01 6.518382300951384423e+01
6.040000000000000568e+01 6.494344009924705574e+01
6.080000000000000426e+01 6.470560867236983427e+01
6.120000000000000284e+01 6.447028351868644336e+01
6.160000000000000142e+01 6.423742054805902058e+01
6.200000000000000000e+01 6.400697675482173565e+01
6.240000000000000568e+01 6.376327698871006078e+01
6.280000000000000426e+01 6.353736304987823047e+01
6.320000000000000284e+01 6.331375004799850359e+01
6.360000000000000142e+01 6.309239885426767103e+01
6.400000000000000000e+01 6.287327127037255536e+01
6.440000000000000568e+01 6.265633000011037268e+01
6.480000000000001137e+01 6.244153862206412242e+01
6.520000000000000284e+01 6.222886156328623031e+01
6.559999999999999432e+01 6.201826407394680984e+01
6.600000000000000000e+01 6.180971220290503254e+01
6.640000000000000568e+01 6.160317277416382353e+01
6.680000000000001137e+01 6.139697661684398611e+01
6.720000000000000284e+01 6.119193198730783934e+01
6.759999999999999432e+01 6.098877151334983182e+01
6.800000000000000000e+01 6.078752859988821911e+01
6.840000000000000568e+01 6.058817306771393874e+01
6.880000000000001137e+01 6.039067540134912804e+01
6.920000000000000284e+01 6.019491102473602240e+01
6.959999999999999432e+01 6.000081946398101707e+01
7.000000000000000000e+01 5.980850512561085708e+01
7.040000000000000568e+01 5.961794087864240765e+01
7.080000000000001137e+01 5.942910017086550312e+01
7.120000000000000284e+01 5.924195701301621853e+01
7.159999999999999432e+01 5.905648596347715795e+01
7.200000000000000000e+01 5.887266211348406131e+01
7.240000000000000568e+01 5.869046107281949531e+01
7.280000000000001137e+01 5.850985895597380448e+01
7.320000000000000284e+01 5.833083236875648936e+01
7.359999999999999432e+01 5.815335839533972262e+01
7.400000000000000000e+01 5.797741458571821482e+01
7.440000000000000568e+01 5.780297894356962729e+01
7.479999999999999716e+01 5.763002991450012757e+01
7.520000000000000284e+01 5.745854637466094772e+01
7.560000000000000853e+01 5.728850761972223182e+01
7.600000000000000000e+01 5.776043634417073491e+01
7.640000000000000568e+01 5.760055711230623388e+01
7.679999999999999716e+01 5.744197925919925751e+01
7.720000000000000284e+01 5.729212671177786120e+01
7.760000000000000853e+01 5.713602388977075464e+01
7.800000000000000000e+01 5.698117244291590566e+01
7.840000000000000568e+01 5.682755551145392303e+01
7.879999999999999716e+01 5.667515655470000979e+01
7.920000000000000284e+01 5.652395934326959548e+01
7.960000000000000853e+01 5.637394795153558391e+01
8.000000000000000000e+01 5.626154077814464927e+01
8.040000000000000568e+01 5.611534245057732306e+01
8.079999999999999716e+01 5.597026696597811224e+01
8.120000000000000284e+01 5.582629981937332531e+01
8.160000000000000853e+01 5.568342676913434275e+01
8.200000000000000000e+01 5.554163383081876759e+01
8.240000000000000568e+01 5.539703473078186846e+01
8.279999999999999716e+01 5.525889778322543577e+01
8.320000000000000284e+01 5.512178516222900271e+01
8.360000000000000853e+01 5.498568407623639587e+01
8.400000000000000000e+01 5.485058195834142225e+01
8.440000000000000568e+01 5.471646646120258595e+01
8.479999999999999716e+01 5.458337768272674140e+01
8.520000000000000284e+01 5.445135000721190011e+01
8.560000000000000853e+01 5.432026978994426258e+01
8.600000000000000000e+01 5.419012558246215150e+01
8.640000000000000568e+01 5.406090613081918406e+01
8.680000000000001137e+01 5.393260037132505147e+01
8.720000000000000284e+01 5.380519742640027658e+01
8.760000000000000853e+01 5.367868660054174512e+01
8.800000000000000000e+01 5.355305737639503150e+01
8.840000000000000568e+01 5.342829941093062018e+01
8.880000000000001137e+01 5.330440253172046994e+01
8.920000000000000284e+01 5.318135673331190816e+01
8.960000000000000853e+01 5.305915217369581427e+01
9.000000000000000000e+01 5.293777917086637075e+01
9.040000000000000568e+01 5.281722819946920566e+01
9.080000000000001137e+01 5.269748988753570274e+01
9.120000000000000284e+01 5.257855501330038805e+01
9.160000000000000853e+01 5.246041450209931867e+01
9.200000000000000000e+01 5.234305942334671613e+01
9.240000000000000568e+01 5.222648098758770630e+01
9.280000000000001137e+01 5.211067054362481343e+01
9.320000000000000284e+01 5.198866833355955919e+01
9.360000000000000853e+01 5.187421528701835882e+01
9.400000000000000000e+01 5.176050801713255112e+01
9.440000000000000568e+01 5.164753834686579381e+01
9.480000000000001137e+01 5.153529822518816417e+01
9.520000000000000284e+01 5.142377972457485669e+01
9.560000000000000853e+01 5.131312330287357071e+01
9.600000000000000000e+01 5.120319170853800017e+01
9.640000000000000568e+01 5.109394910925421129e+01
9.680000000000001137e+01 5.098538826976029981e+01
9.720000000000000284e+01 5.087750206121105379e+01
9.760000000000000853e+01 5.077028345916811958e+01
9.800000000000000000e+01 5.066354230952389770e+01
9.840000000000000568e+01 5.055699240877333267e+01
9.880000000000001137e+01 5.045109565220296588e+01
9.920000000000000284e+01 5.034584533470163592e+01
9.960000000000000853e+01 5.024123484754702673e+01
1.000000000000000000e+02 5.013725767662677413e+01
1.004000000000000057e+02 5.003390740069956166e+01
1.008000000000000114e+02 4.993117768969513293e+01
1.012000000000000028e+02 4.982906230305235340e+01
1.016000000000000085e+02 4.972755508809413527e+01
1.020000000000000000e+02 4.962652557789876795e+01
1.024000000000000057e+02 4.952604125899775056e+01
1.028000000000000114e+02 4.942614857559286889e+01
1.032000000000000028e+02 4.932684169328447865e+01
1.036000000000000085e+02 4.922811485824860256e+01
1.040000000000000000e+02 4.912996239580823499e+01
1.044000000000000057e+02 4.903237870903541307e+01
1.048000000000000114e+02 4.893535827738341482e+01
1.052000000000000028e+02 4.883889565534838084e+01
1.056000000000000085e+02 4.874298547115947144e+01
1.060000000000000000e+02 4.864762242549683435e+01
1.064000000000000057e+02 4.855280129023707048e+01
1.068000000000000114e+02 4.845851690722476235e+01
1.072000000000000028e+02 4.836476418707024294e+01
1.076000000000000085e+02 4.827153810797226896e+01
1.080000000000000000e+02 4.817883371456557029e+01
1.084000000000000057e+02 4.809357686495168593e+01
1.088000000000000114e+02 4.800214938109980523e+01
1.092000000000000028e+02 4.791122767310739050e+01
1.096000000000000085e+02 4.782080705241730811e+01
1.100000000000000000e+02 4.773088289136876483e+01
1.104000000000000057e+02 4.764145062218118198e+01
1.108000000000000114e+02 4.755250573595898089e+01
1.112000000000000028e+02 4.746632208923553975e+01
1.116000000000000085e+02 4.737855038242906147e+01
1.120000000000000000e+02 4.729125209364800497e+01
1.124000000000000057e+02 4.720442294437057029e+01
1.128000000000000114e+02 4.711805871025790537e+01
1.132000000000000028e+02 4.703215522027262807e+01
1.136000000000000085e+02 4.694670835581479196e+01
1.140000000000000000e+02 4.686171404987504729e+01
1.144000000000000057e+02 4.677716828620428657e+01
1.148000000000000114e+02 4.669306709849990966e+01
1.152000000000000028e+02 4.660940656960767825e+01
1.156000000000000085e+02 4.652618283073937278e+01
1.160000000000000000e+02 4.644339206070557680e+01
1.164000000000000057e+02 4.637922185129174579e+01
1.168000000000000114e+02 4.629788053317194851e+01
1.172000000000000028e+02 4.621695662206389699e+01
1.176000000000000085e+02 4.613644652577551142e+01
1.180000000000000000e+02 4.605634669545739257e+01
1.184000000000000057e+02 4.597665362493084018e+01
1.188000000000000114e+02 4.583247757150428470e+01
1.192000000000000028e+02 4.575510674595535221e+01
1.196000000000000085e+02 4.567812419066974172e+01
1.200000000000000000e+02 4.560152662344835761e+01
1.204000000000000057e+02 4.552531080110188100e+01
1.208000000000000114e+02 4.544940441399675990e+01
1.212000000000000028e+02 4.537387269833203618e+01
1.216000000000000085e+02 4.529871308894980331e+01
1.220000000000000000e+02 4.522392249755209548e+01
1.224000000000000057e+02 4.514949787187644148e+01
1.228000000000000114e+02 4.507543619515404743e+01
1.232000000000000028e+02 4.500173448557815448e+01
1.236000000000000085e+02 4.492838979578210967e+01
1.240000000000000000e+02 4.485534576983195620e+01
1.244000000000000057e+02 4.478265042752363456e+01
1.248000000000000114e+02 4.471030347104484548e+01
1.252000000000000028e+02 4.463830208824627732e+01
1.256000000000000085e+02 4.456664349888567500e+01
1.260000000000000000e+02 4.449532495416158895e+01
1.264000000000000057e+02 4.442434373625545163e+01
1.268000000000000114e+02 4.435369715788179690e+01
1.272000000000000028e+02 4.428338256184639476e+01
1.276000000000000085e+02 4.421339732061233008e+01
1.280000000000000000e+02 4.414373883587362002e+01
1.284000000000000057e+02 4.407440453813643444e+01
1.288000000000000114e+02 4.400539188630759213e+01
1.291999999999999886e+02 4.393669836729021227e+01
1.296000000000000227e+02 4.386832149558649263e+01
1.300000000000000000e+02 4.380025881290736578e+01
1.304000000000000057e+02 4.373250788778879183e+01
1.308000000000000114e+02 4.366336033680714479e+01
1.311999999999999886e+02 4.359645369268152848e+01
1.316000000000000227e+02 4.352985080948849372e+01
1.320000000000000000e+02 4.346354936517219869e+01
1.324000000000000057e+02 4.339754706262609574e+01
1.328000000000000114e+02 4.333184162934773553e+01
1.331999999999999886e+02 4.326643081709936922e+01
1.336000000000000227e+02 4.320131240157416386e+01
1.340000000000000000e+02 4.313648418206827273e+01
1.344000000000000057e+02 4.307194398115817791e+01
1.348000000000000114e+02 4.300768964438348974e+01
1.351999999999999886e+02 4.294360255532307491e+01
1.356000000000000227e+02 4.287979055625443436e+01
1.360000000000000000e+02 4.281625874044748059e+01
1.364000000000000057e+02 4.275300503732082547e+01
1.368000000000000114e+02 4.269002739779591593e+01
1.371999999999999886e+02 4.262732379400951288e+01
1.376000000000000227e+02 4.256489221903078146e+01
1.380000000000000000e+02 4.250273068658303544e+01
1.384000000000000057e+02 4.244083723077017822e+01
1.388000000000000114e+02 4.237920990580723668e+01
1.392000000000000171e+02 4.231784678575557734e+01
1.395999999999999943e+02 4.225674596426213014e+01
1.400000000000000000e+02 4.219590555430303880e+01
1.404000000000000057e+02 4.213532368793119076e+01
1.408000000000000114e+02 4.207490442923666052e+01
1.412000000000000171e+02 4.201335688780118005e+01
1.415999999999999943e+02 4.195355323017832916e+01
1.420000000000000000e+02 4.189400113903408140e+01
1.424000000000000057e+02 4.183428056455438337e+01
1.428000000000000114e+02 4.177432127103410409e+01
1.432000000000000171e+02 4.171461413464762558e+01
1.435999999999999943e+02 4.165515737241499039e+01
1.440000000000000000e+02 4.159594921906720799e+01
1.444000000000000057e+02 4.153698792681952767e+01
1.448000000000000114e+02 4.147827176514871184e+01
1.452000000000000171e+02 4.141979902057337881e+01
1.455999999999999943e+02 4.136156799643801207e+01
1.460000000000000000e+02 4.130357701270019533e+01
1.464000000000000057e+02 4.124582440572122266e+01
1.468000000000000114e+02 4.118830852805981380e+01
1.472000000000000171e+02 4.113102774826913333e+01
1.475999999999999943e+02 4.107398045069686532e+01
1.480000000000000000e+02 4.101716503528832902e+01
1.484000000000000057e+02 4.096057991739256465e+01
1.488000000000000114e+02 4.090422352757152424e+01
1.492000000000000171e+02 4.084809431141189862e+01
1.495999999999999943e+02 4.079219072934004942e+01
1.500000000000000000e+02 4.073651125643954174e+01
