1.000000000000000000e+01 1.725956878796245633e+02
1.040000000000000036e+01 1.762305653580579872e+02
1.080000000000000071e+01 1.844538426888067306e+02
1.119999999999999929e+01 1.948034894427947279e+02
1.159999999999999964e+01 2.138088994697788223e+02
1.200000000000000000e+01 2.257588059619376395e+02
1.240000000000000036e+01 2.167888434582651485e+02
1.280000000000000071e+01 2.083584636710970130e+02
1.319999999999999929e+01 2.014800110119198280e+02
1.359999999999999964e+01 1.960154310195327696e+02
1.400000000000000000e+01 1.910541111531201182e+02
1.440000000000000036e+01 1.865202171607208470e+02
1.480000000000000071e+01 1.823535285595642108e+02
1.519999999999999929e+01 1.784985388473161549e+02
1.560000000000000142e+01 1.749146234854819966e+02
1.600000000000000000e+01 1.715776551380716057e+02
1.639999999999999858e+01 1.684598449766089345e+02
1.680000000000000071e+01 1.655700516069406376e+02
1.719999999999999929e+01 1.602690706827382314e+02
1.760000000000000142e+01 1.575783953523300340e+02
1.800000000000000000e+01 1.550370083248617448e+02
1.839999999999999858e+01 1.526312861521578839e+02
1.880000000000000071e+01 1.505243408612713267e+02
1.920000000000000284e+01 1.483513705691599682e+02
1.960000000000000142e+01 1.462830750786492615e+02
2.000000000000000000e+01 1.443111627779146602e+02
2.039999999999999858e+01 1.424282449968066828e+02
2.080000000000000071e+01 1.406277119573793186e+02
2.120000000000000284e+01 1.389036291471132927e+02
2.160000000000000142e+01 1.250750491858664901e+02
2.200000000000000000e+01 1.234291889698157547e+02
2.239999999999999858e+01 1.218496394051063305e+02
2.280000000000000071e+01 1.203293244162621392e+02
2.320000000000000284e+01 1.181020262356490065e+02
2.360000000000000142e+01 1.167143841316450334e+02
2.400000000000000000e+01 1.153734467167216025e+02
2.439999999999999858e+01 1.140766035374174407e+02
2.480000000000000071e+01 1.128214470209880176e+02
2.520000000000000284e+01 1.116057523854434663e+02
2.560000000000000142e+01 1.104274599552101535e+02
2.600000000000000000e+01 1.092846595460336943e+02
2.640000000000000213e+01 1.080532241647304517e+02
2.680000000000000071e+01 1.069841122614347455e+02
2.719999999999999929e+01 1.059452873447989987e+02
2.760000000000000142e+01 1.049353253091056786e+02
2.800000000000000000e+01 1.039528951828198444e+02
2.840000000000000213e+01 1.029967513613689789e+02
2.880000000000000071e+01 1.020657266242893684e+02
2.920000000000000284e+01 1.011587258440819994e+02
2.960000000000000142e+01 1.002382734502678545e+02
3.000000000000000000e+01 9.928659820383899159e+01
3.040000000000000213e+01 9.835919151562822549e+01
3.080000000000000071e+01 9.745196055154089265e+01
3.120000000000000284e+01 9.656387325125729149e+01
3.160000000000000142e+01 9.569740095926860590e+01
3.200000000000000000e+01 9.485167881004937840e+01
3.240000000000000568e+01 9.365860543665438342e+01
3.279999999999999716e+01 9.287541686862502388e+01
3.320000000000000284e+01 9.210996487735364724e+01
3.360000000000000142e+01 9.136158805966469743e+01
3.400000000000000000e+01 9.062965914680947321e+01
3.440000000000000568e+01 8.991358276568911378e+01
3.479999999999999716e+01 8.921279337748410398e+01
3.520000000000000284e+01 8.852675337726422811e+01
3.560000000000000142e+01 8.785495133988850114e+01
3.600000000000000000e+01 8.728070642386219902e+01
3.640000000000000568e+01 8.663839064340726281e+01
3.679999999999999716e+01 8.600887878319406354e+01
3.720000000000000284e+01 8.539175018330979583e+01
3.760000000000000142e+01 8.478660333070469335e+01
3.800000000000000000e+01 8.419305475058104093e+01
3.840000000000000568e+01 8.361073797541013164e+01
3.879999999999999716e+01 8.327355602727791961e+01
3.920000000000000284e+01 8.272164344804954794e+01
3.960000000000000142e+01 8.217974300788716846e+01
4.000000000000000000e+01 8.164755478185557536e+01
4.040000000000000568e+01 8.112479131142585231e+01
4.079999999999999716e+01 8.061117694441168169e+01
4.120000000000000284e+01 8.010681843132309154e+01
4.160000000000000142e+01 7.960526586763228352e+01
4.200000000000000000e+01 7.910770244741121360e+01
4.239999999999999858e+01 7.861853186241648928e+01
4.280000000000000426e+01 7.813752038780971532e+01
4.320000000000000284e+01 7.837770335669223698e+01
4.360000000000000142e+01 7.797851146093263708e+01
4.400000000000000000e+01 7.758525155750854196e+01
4.439999999999999858e+01 7.719777690617846133e+01
4.480000000000000426e+01 7.681594582701821139e+01
4.520000000000000284e+01 7.643962147735373946e+01
4.560000000000000142e+01 7.606867164063149289e+01
4.600000000000000000e+01 7.570296852647642538e+01
4.639999999999999858e+01 7.534238858124331273e+01
4.680000000000000426e+01 7.498681230841390288e+01
4.720000000000000284e+01 7.459246185036865029e+01
4.760000000000000142e+01 7.424913621139802444e+01
4.800000000000000000e+01 7.391008323499187327e+01
4.840000000000000568e+01 7.357475715937732730e+01
4.880000000000000426e+01 7.324386344898545076e+01
4.920000000000000284e+01 7.291730454930500116e+01
4.960000000000000142e+01 7.259498590078680991e+01
5.000000000000000000e+01 7.227681582122218629e+01
5.040000000000000568e+01 7.196270539373479380e+01
5.080000000000000426e+01 7.165256836007064578e+01
5.120000000000000284e+01 7.134632101889216926e+01
5.160000000000000142e+01 7.104388212880114395e+01
5.200000000000000000e+01 7.074517281583149497e+01
5.240000000000000568e+01 7.045011648517059655e+01
5.280000000000000426e+01 7.015829988385340243e+01
5.320000000000000284e+01 6.986814234803289025e+01
5.360000000000000142e+01 6.958146159465056257e+01
5.400000000000000000e+01 6.929818823388772842e+01
5.440000000000000568e+01 6.923251498617693755e+01
5.480000000000000426e+01 6.896205097860065791e+01
5.520000000000000284e+01 6.869468582543240132e+01
5.560000000000000142e+01 6.843036035926624550e+01
5.600000000000000000e+01 6.816901698878332638e+01
5.640000000000000568e+01 6.791059964503259039e+01
5.680000000000000426e+01 6.764305273404224295e+01
5.720000000000000284e+01 6.737213342451838116e+01
5.760000000000000142e+01 6.710431710935093008e+01
5.800000000000000000e+01 6.683954467624002405e+01
5.840000000000000568e+01 6.657775858376936640e+01
5.880000000000000426e+01 6.631890280797351522e+01
5.920000000000000284e+01 6.603402035268433679e+01
5.960000000000000142e+01 6.581220261846081598e+01
6.000000000000000000e+01 6.556717341012048905e+01
6.040000000000000568e+01 6.532478909986195958e+01
6.080000000000000426e+01 6.508500212538420726e+01
6.120000000000000284e+01 6.484776611861295237e+01
6.160000000000000142e+01 6.461303586729039239e+01
6.200000000000000000e+01 6.438076727806861754e+01
6.240000000000000568e+01 6.415091734103751264e+01
6.280000000000000426e+01 6.392344409562163321e+01
6.320000000000000284e+01 6.369830659778352100e+01
6.360000000000000142e+01 6.347546488847501678e+01
6.400000000000000000e+01 6.325487996328037354e+01
6.440000000000000568e+01 6.303651374319826317e+01
6.480000000000001137e+01 6.282032904651245531e+01
6.520000000000000284e+01 6.260628956170346271e+01
6.559999999999999432e+01 6.239435982135553616e+01
6.600000000000000000e+01 6.218450517701644031e+01
6.640000000000000568e+01 6.197659028715708018e+01
6.680000000000001137e+01 6.177051321394370120e+01
6.720000000000000284e+01 6.156566012084523720e+01
6.759999999999999432e+01 6.136269649648309610e+01
6.800000000000000000e+01 6.116165559080293690e+01
6.840000000000000568e+01 6.096250707414068870e+01
6.880000000000001137e+01 6.076522128493279240e+01
6.920000000000000284e+01 6.056976921086184262e+01
6.959999999999999432e+01 6.037612247065000304e+01
7.000000000000000000e+01 6.018425329647387656e+01
7.040000000000000568e+01 5.999332767136514377e+01
7.080000000000001137e+01 5.980323377466628187e+01
7.120000000000000284e+01 5.961486042951514719e+01
7.159999999999999432e+01 5.942818172435490709e+01
7.200000000000000000e+01 5.924317229238067029e+01
7.240000000000000568e+01 5.905980729687124153e+01
7.280000000000001137e+01 5.887806241700108956e+01
7.320000000000000284e+01 5.869791383411494223e+01
7.359999999999999432e+01 5.851933821844655625e+01
7.400000000000000000e+01 5.833439686073173647e+01
7.440000000000000568e+01 5.815993820215941668e+01
7.479999999999999716e+01 5.798697306336426038e+01
7.520000000000000284e+01 5.781548016485268704e+01
7.560000000000000853e+01 5.764543865050642069e+01
7.600000000000000000e+01 5.811737106677049525e+01
7.640000000000000568e+01 5.795750183354371643e+01
7.679999999999999716e+01 5.779894014503366861e+01
7.720000000000000284e+01 5.764166806112895358e+01
7.760000000000000853e+01 5.748566798714272608e+01
7.800000000000000000e+01 5.733092266525693503e+01
7.840000000000000568e+01 5.717741516622515263e+01
7.879999999999999716e+01 5.702512888132541491e+01
7.920000000000000284e+01 5.687404751455358820e+01
7.960000000000000853e+01 5.672415507504922516e+01
8.000000000000000000e+01 5.657543586974537675e+01
8.040000000000000568e+01 5.642787449623478579e+01
8.079999999999999716e+01 5.628145583584476697e+01
8.120000000000000284e+01 5.613616504691382403e+01
8.160000000000000853e+01 5.599141967923252139e+01
8.200000000000000000e+01 5.584771822933468854e+01
8.240000000000000568e+01 5.570123676783555311e+01
8.279999999999999716e+01 5.556124316732508817e+01
8.320000000000000284e+01 5.542229916969854031e+01
8.360000000000000853e+01 5.528439156039909363e+01
8.400000000000000000e+01 5.518211147385618887e+01
8.440000000000000568e+01 5.504783421650046193e+01
8.479999999999999716e+01 5.491453699206780925e+01
8.520000000000000284e+01 5.478220777762524563e+01
8.560000000000000853e+01 5.465083475745971242e+01
8.600000000000000000e+01 5.452040631847873442e+01
8.640000000000000568e+01 5.439091104573614643e+01
8.680000000000001137e+01 5.426233771807851269e+01
8.720000000000000284e+01 5.413467530390849447e+01
8.760000000000000853e+01 5.400791295706166295e+01
8.800000000000000000e+01 5.388204001279275701e+01
8.840000000000000568e+01 5.375704598386843003e+01
8.880000000000001137e+01 5.363292055676276959e+01
8.920000000000000284e+01 5.350965358795249927e+01
8.960000000000000853e+01 5.338723510030888519e+01
9.000000000000000000e+01 5.327808301454880535e+01
9.040000000000000568e+01 5.315780448996444818e+01
9.080000000000001137e+01 5.303834075367043255e+01
9.120000000000000284e+01 5.291968253035874170e+01
9.160000000000000853e+01 5.280182069304042614e+01
9.200000000000000000e+01 5.268474625999157013e+01
9.240000000000000568e+01 5.256845039177651557e+01
9.280000000000001137e+01 5.245292438834538018e+01
9.320000000000000284e+01 5.233815968620422154e+01
9.360000000000000853e+01 5.222414785565531048e+01
9.400000000000000000e+01 5.211088059810566619e+01
9.440000000000000568e+01 5.199834974344179983e+01
9.480000000000001137e+01 5.188654724746871949e+01
9.520000000000000284e+01 5.177546518941139908e+01
9.560000000000000853e+01 5.166524403378468122e+01
9.600000000000000000e+01 5.155574653562933207e+01
9.640000000000000568e+01 5.144693686914072117e+01
9.680000000000001137e+01 5.133880780549084477e+01
9.720000000000000284e+01 5.123135222219507057e+01
9.760000000000000853e+01 5.112423805132527832e+01
9.800000000000000000e+01 5.101759267223335570e+01
9.840000000000000568e+01 5.091114605530084702e+01
9.880000000000001137e+01 5.080535433096729037e+01
9.920000000000000284e+01 5.070021076327500253e+01
9.960000000000000853e+01 5.059570871321529495e+01
1.000000000000000000e+02 5.049184163693816174e+01
1.004000000000000057e+02 5.038860308400235510e+01
1.008000000000000114e+02 5.028598669566457602e+01
1.012000000000000028e+02 5.018398620320694192e+01
1.016000000000000085e+02 5.008259542630155181e+01
1.020000000000000000e+02 4.998180827141136007e+01
1.024000000000000057e+02 4.988161873022625770e+01
1.028000000000000114e+02 4.978202087813351540e+01
1.032000000000000028e+02 4.968300887272167188e+01
1.036000000000000085e+02 4.958457695231709295e+01
1.040000000000000000e+02 4.948671943455214972e+01
1.044000000000000057e+02 4.938943071496453285e+01
1.048000000000000114e+02 4.929270526562656585e+01
1.052000000000000028e+02 4.919653763380399880e+01
1.056000000000000085e+02 4.910092244064345834e+01
1.060000000000000000e+02 4.900585437988775794e+01
1.064000000000000057e+02 4.891132821661854280e+01
1.068000000000000114e+02 4.881733878602540244e+01
1.072000000000000028e+02 4.872027214868665368e+01
1.076000000000000085e+02 4.862751659509883950e+01
1.080000000000000000e+02 4.853528134599385169e+01
1.084000000000000057e+02 4.844356152080150935e+01
1.088000000000000114e+02 4.835235230303972287e+01
1.092000000000000028e+02 4.826164893923436949e+01
1.096000000000000085e+02 4.817144673786109621e+01
1.100000000000000000e+02 4.808174106830931294e+01
1.104000000000000057e+02 4.799252735986682694e+01
1.108000000000000114e+02 4.790380110072545250e+01
1.112000000000000028e+02 4.781555783700644469e+01
1.116000000000000085e+02 4.772779317180588521e+01
1.120000000000000000e+02 4.764050276425910369e+01
1.124000000000000057e+02 4.755368232862382172e+01
1.128000000000000114e+02 4.746732763338161476e+01
1.132000000000000028e+02 4.739188268692051054e+01
1.136000000000000085e+02 4.730669634402728718e+01
1.140000000000000000e+02 4.722196152148892168e+01
1.144000000000000057e+02 4.713767421535369806e+01
1.148000000000000114e+02 4.705383047139721242e+01
1.152000000000000028e+02 4.697042638432920114e+01
1.156000000000000085e+02 4.688745809701604372e+01
1.160000000000000000e+02 4.680492179971820832e+01
1.164000000000000057e+02 4.674093383213811137e+01
1.168000000000000114e+02 4.665970279670305132e+01
1.172000000000000028e+02 4.657888940893735708e+01
1.176000000000000085e+02 4.649849007311948412e+01
1.180000000000000000e+02 4.641850123690726804e+01
1.184000000000000057e+02 4.633891939066582921e+01
1.188000000000000114e+02 4.619485478828384117e+01
1.192000000000000028e+02 4.611759563715538945e+01
1.196000000000000085e+02 4.604072497631874938e+01
1.200000000000000000e+02 4.596423952026324145e+01
1.204000000000000057e+02 4.588813602252366053e+01
1.208000000000000114e+02 4.581241127508282318e+01
1.212000000000000028e+02 4.573706210778515668e+01
1.216000000000000085e+02 4.566208538776136550e+01
1.220000000000000000e+02 4.558747801886364925e+01
1.224000000000000057e+02 4.551323694111157181e+01
1.228000000000000114e+02 4.543935913014794892e+01
1.232000000000000028e+02 4.536584159670486116e+01
1.236000000000000085e+02 4.529268138607947947e+01
1.240000000000000000e+02 4.521987557761932663e+01
1.244000000000000057e+02 4.514742128421714540e+01
1.248000000000000114e+02 4.507531565181459854e+01
1.252000000000000028e+02 4.500355585891536236e+01
1.256000000000000085e+02 4.493213911610656908e+01
1.260000000000000000e+02 4.486106266558916644e+01
1.264000000000000057e+02 4.479445164561737869e+01
1.268000000000000114e+02 4.472412555299742110e+01
1.272000000000000028e+02 4.465413118537884429e+01
1.276000000000000085e+02 4.458446591137526127e+01
1.280000000000000000e+02 4.451512712893193680e+01
1.284000000000000057e+02 4.444611226490487610e+01
1.288000000000000114e+02 4.437740620842649975e+01
1.291999999999999886e+02 4.430901021925787830e+01
1.296000000000000227e+02 4.424093056189444439e+01
1.300000000000000000e+02 4.417316477664039098e+01
1.304000000000000057e+02 4.410571043067144359e+01
1.308000000000000114e+02 4.403856511765695103e+01
1.311999999999999886e+02 4.397172645738839947e+01
1.316000000000000227e+02 4.390519209541430001e+01
1.320000000000000000e+02 4.383895970268137887e+01
1.324000000000000057e+02 4.377302697518175734e+01
1.328000000000000114e+02 4.370739163360627089e+01
1.331999999999999886e+02 4.364205142300357210e+01
1.336000000000000227e+02 4.357700411244491079e+01
1.340000000000000000e+02 4.351224749469481168e+01
1.344000000000000057e+02 4.344777938588697452e+01
1.348000000000000114e+02 4.338359762520570229e+01
1.351999999999999886e+02 4.331958358996071468e+01
1.356000000000000227e+02 4.325584511624516892e+01
1.360000000000000000e+02 4.319238729122814391e+01
1.364000000000000057e+02 4.312923283123694063e+01
1.368000000000000114e+02 4.306635975688000428e+01
1.371999999999999886e+02 4.300376086661710673e+01
1.376000000000000227e+02 4.294143415134259811e+01
1.380000000000000000e+02 4.287937762262976804e+01
1.384000000000000057e+02 4.281758931245681055e+01
1.388000000000000114e+02 4.275606727293731524e+01
1.392000000000000171e+02 4.269480957605505012e+01
1.395999999999999943e+02 4.263381431340307159e+01
1.400000000000000000e+02 4.257307959592700541e+01
1.404000000000000057e+02 4.251260355367240606e+01
1.408000000000000114e+02 4.245238433553621604e+01
1.412000000000000171e+02 4.239242010902204072e+01
1.415999999999999943e+02 4.233270905999957279e+01
1.420000000000000000e+02 4.227324939246742019e+01
1.424000000000000057e+02 4.221362106001770798e+01
1.428000000000000114e+02 4.215375383028560208e+01
1.432000000000000171e+02 4.209413858272126419e+01
1.435999999999999943e+02 4.203477353755740609e+01
1.440000000000000000e+02 4.197565693267578979e+01
1.444000000000000057e+02 4.191678702338192153e+01
1.448000000000000114e+02 4.185816208218344769e+01
1.452000000000000171e+02 4.179978039857180505e+01
1.455999999999999943e+02 4.174164027880738814e+01
1.460000000000000000e+02 4.168374004570793545e+01
1.464000000000000057e+02 4.162535161333630640e+01
1.468000000000000114e+02 4.156600481959982574e+01
1.472000000000000171e+02 4.150890566468467568e+01
1.475999999999999943e+02 4.145203964943347330e+01
1.480000000000000000e+02 4.139540517582253898e+01
1.484000000000000057e+02 4.133900066121105255e+01
1.488000000000000114e+02 4.128282453815040753e+01
1.492000000000000171e+02 4.122687525419642185e+01
1.495999999999999943e+02 4.117115127172455402e+01
1.500000000000000000e+02 4.111565106774769873e+01
