1.000000000000000000e+01 3.045920579716200791e+02
1.040000000000000036e+01 3.247046918883148692e+02
1.080000000000000071e+01 3.355174469127783254e+02
1.119999999999999929e+01 3.610124076671748981e+02
1.159999999999999964e+01 4.195953037551274747e+02
1.200000000000000000e+01 4.685645428357165656e+02
1.240000000000000036e+01 5.178029273547933826e+02
1.280000000000000071e+01 5.505027280970283527e+02
1.319999999999999929e+01 5.792993868304828311e+02
1.359999999999999964e+01 6.193073543066533375e+02
1.400000000000000000e+01 6.822205115741417103e+02
1.440000000000000036e+01 7.832229996832207917e+02
1.480000000000000071e+01 7.944235911665808771e+02
1.519999999999999929e+01 7.781018020348301434e+02
1.560000000000000142e+01 7.629543851271192807e+02
1.600000000000000000e+01 7.488386805831348738e+02
1.639999999999999858e+01 7.356358655101547583e+02
1.680000000000000071e+01 7.232459747580527392e+02
1.719999999999999929e+01 7.115841523833330484e+02
1.760000000000000142e+01 7.005777864551429275e+02
1.800000000000000000e+01 6.901642890665949608e+02
1.839999999999999858e+01 6.802893550589577671e+02
1.880000000000000071e+01 6.709055809891215176e+02
1.920000000000000284e+01 6.619713586901934832e+02
1.960000000000000142e+01 6.534499806012969430e+02
2.000000000000000000e+01 6.453089101738459021e+02
2.039999999999999858e+01 6.375191822288827552e+02
2.080000000000000071e+01 6.300549065464165324e+02
2.120000000000000284e+01 6.228928541526026947e+02
2.160000000000000142e+01 6.160121103731682979e+02
2.200000000000000000e+01 6.093937821828759525e+02
2.239999999999999858e+01 6.030207500096034892e+02
2.280000000000000071e+01 5.968774561664278053e+02
2.320000000000000284e+01 5.909497236425532947e+02
2.360000000000000142e+01 5.852246001975240688e+02
2.400000000000000000e+01 5.796902236559251378e+02
2.439999999999999858e+01 5.743357050530878496e+02
2.480000000000000071e+01 5.691510268818726672e+02
2.520000000000000284e+01 5.641269541708206816e+02
2.560000000000000142e+01 5.592549565108621437e+02
2.600000000000000000e+01 5.545271394612586846e+02
2.640000000000000213e+01 5.499361840208023295e+02
2.680000000000000071e+01 5.454752930593565452e+02
2.719999999999999929e+01 5.411381437767954594e+02
2.760000000000000142e+01 5.369188453985389060e+02
2.800000000000000000e+01 5.328119014348396831e+02
2.840000000000000213e+01 5.288121759293219384e+02
2.880000000000000071e+01 5.249148632045572640e+02
2.920000000000000284e+01 5.211154606815848638e+02
2.960000000000000142e+01 5.174097444085722373e+02
3.000000000000000000e+01 5.137937469831130102e+02
3.040000000000000213e+01 5.102637375945234908e+02
3.080000000000000071e+01 5.068162039481492229e+02
3.120000000000000284e+01 5.034478358641419504e+02
3.160000000000000142e+01 5.001555103692674038e+02
3.200000000000000000e+01 4.969362781227259802e+02
3.240000000000000568e+01 4.937873510362878733e+02
3.279999999999999716e+01 4.907060909657394632e+02
3.320000000000000284e+01 4.876899993650921488e+02
3.360000000000000142e+01 4.847367078075695304e+02
3.400000000000000000e+01 4.818439692883032421e+02
3.440000000000000568e+01 4.790096502332135060e+02
3.479999999999999716e+01 4.762317231468819614e+02
3.520000000000000284e+01 4.735082598395258628e+02
3.560000000000000142e+01 4.708374251796046792e+02
3.600000000000000000e+01 4.682174713242250164e+02
3.640000000000000568e+01 4.656467323844923953e+02
3.679999999999999716e+01 4.631236194873497993e+02
3.720000000000000284e+01 4.606466161993322430e+02
3.760000000000000142e+01 4.582142742811154221e+02
3.800000000000000000e+01 4.558252097447968936e+02
3.840000000000000568e+01 4.534780991885732533e+02
3.879999999999999716e+01 4.511716763859021739e+02
3.920000000000000284e+01 4.489047291084049220e+02
3.960000000000000142e+01 4.466760961636997536e+02
4.000000000000000000e+01 4.444846646310902543e+02
4.040000000000000568e+01 4.423293672795863358e+02
4.079999999999999716e+01 4.402091801541286031e+02
4.120000000000000284e+01 4.381231203171428206e+02
4.160000000000000142e+01 4.360702437336788648e+02
4.200000000000000000e+01 4.340496432894054806e+02
4.239999999999999858e+01 4.320604469316522227e+02
4.280000000000000426e+01 4.301018159245184052e+02
4.320000000000000284e+01 4.281729432098203461e+02
4.360000000000000142e+01 4.262730518663291832e+02
4.400000000000000000e+01 4.244013936603685693e+02
4.439999999999999858e+01 4.225572476813997582e+02
4.480000000000000426e+01 4.207399190567347205e+02
4.520000000000000284e+01 4.189487377399785260e+02
4.560000000000000142e+01 4.171830573682254908e+02
4.600000000000000000e+01 4.154422541834186404e+02
4.639999999999999858e+01 4.137257260136335617e+02
4.680000000000000426e+01 4.120328913103696777e+02
4.720000000000000284e+01 4.103631882382248932e+02
4.760000000000000142e+01 4.087160738135976317e+02
4.800000000000000000e+01 4.070910230893100561e+02
4.840000000000000568e+01 4.054875283822690335e+02
4.880000000000000426e+01 4.039050985414914976e+02
4.920000000000000284e+01 4.023432582540083331e+02
4.960000000000000142e+01 4.008015473863421789e+02
5.000000000000000000e+01 3.992795203594080817e+02
5.040000000000000568e+01 3.977767455548423072e+02
5.080000000000000426e+01 3.962928047508974601e+02
5.120000000000000284e+01 3.948272925861679710e+02
5.160000000000000142e+01 3.933798160495310299e+02
5.200000000000000000e+01 3.919499939947914413e+02
5.240000000000000568e+01 3.905374566786217088e+02
5.280000000000000426e+01 3.891418453204793195e+02
5.320000000000000284e+01 3.877628116832698879e+02
5.360000000000000142e+01 3.864000176736043386e+02
5.400000000000000000e+01 3.850531349605694800e+02
5.440000000000000568e+01 3.837218446120031103e+02
5.480000000000000426e+01 3.824058367473259068e+02
5.520000000000000284e+01 3.811048102060412930e+02
5.560000000000000142e+01 3.798184722310696202e+02
5.600000000000000000e+01 3.785465381661358037e+02
5.640000000000000568e+01 3.772887311664721892e+02
5.680000000000000426e+01 3.760447819221490136e+02
5.720000000000000284e+01 3.748144283933802399e+02
5.760000000000000142e+01 3.735974155571948927e+02
5.800000000000000000e+01 3.723934951648981837e+02
5.840000000000000568e+01 3.712024255097792320e+02
5.880000000000000426e+01 3.700239712045575402e+02
5.920000000000000284e+01 3.688579029680835220e+02
5.960000000000000142e+01 3.677039974208420290e+02
6.000000000000000000e+01 3.665620368888278904e+02
6.040000000000000568e+01 3.654318092153918087e+02
6.080000000000000426e+01 3.643131075806713852e+02
6.120000000000000284e+01 3.632057303282500129e+02
6.160000000000000142e+01 3.621094807986988258e+02
6.200000000000000000e+01 3.610241671696824710e+02
6.240000000000000568e+01 3.599496023023202156e+02
6.280000000000000426e+01 3.588856035935173736e+02
6.320000000000000284e+01 3.578319928339886360e+02
6.360000000000000142e+01 3.567885960717184730e+02
6.400000000000000000e+01 3.557552434806115116e+02
6.440000000000000568e+01 3.547317692340990334e+02
6.480000000000001137e+01 3.537180113834816666e+02
6.520000000000000284e+01 3.527138117408002813e+02
6.559999999999999432e+01 3.517190157660328396e+02
6.600000000000000000e+01 3.507334724584321748e+02
6.640000000000000568e+01 3.497570342518230291e+02
6.680000000000001137e+01 3.487895569136883296e+02
6.720000000000000284e+01 3.478308994478836667e+02
6.759999999999999432e+01 3.468809240008255301e+02
6.800000000000000000e+01 3.459394957710057383e+02
6.840000000000000568e+01 3.450064829216962039e+02
6.880000000000001137e+01 3.440817564967058502e+02
6.920000000000000284e+01 3.431651903390699090e+02
6.959999999999999432e+01 3.422566610125450097e+02
7.000000000000000000e+01 3.413560477258013179e+02
7.040000000000000568e+01 3.404632322591972411e+02
7.080000000000001137e+01 3.395780988940373391e+02
7.120000000000000284e+01 3.387005343442103822e+02
7.159999999999999432e+01 3.378304276901147887e+02
7.200000000000000000e+01 3.369676703147813441e+02
7.240000000000000568e+01 3.361121558421057784e+02
7.280000000000001137e+01 3.352637800771095726e+02
7.320000000000000284e+01 3.344224409481499833e+02
7.359999999999999432e+01 3.335880384510045360e+02
7.400000000000000000e+01 3.327604745947579659e+02
7.440000000000000568e+01 3.319396533494232244e+02
7.479999999999999716e+01 3.311254805952302149e+02
7.520000000000000284e+01 3.303178640735205818e+02
7.560000000000000853e+01 3.295167133391868788e+02
7.600000000000000000e+01 3.287219397146014330e+02
7.640000000000000568e+01 3.279334562449763553e+02
7.679999999999999716e+01 3.271511776551051298e+02
7.720000000000000284e+01 3.263750203074333740e+02
7.760000000000000853e+01 3.256049021614113599e+02
7.800000000000000000e+01 3.248407427340822551e+02
7.840000000000000568e+01 3.240824630618607216e+02
7.879999999999999716e+01 3.233299856634600360e+02
7.920000000000000284e+01 3.225832345039272582e+02
7.960000000000000853e+01 3.218421349597466019e+02
8.000000000000000000e+01 3.211066137849738880e+02
8.040000000000000568e+01 3.203765990783658140e+02
8.079999999999999716e+01 3.196520202514703328e+02
8.120000000000000284e+01 3.189328079976439767e+02
8.160000000000000853e+01 3.182188942619641239e+02
8.200000000000000000e+01 3.175102122120074455e+02
8.240000000000000568e+01 3.168066962094619612e+02
8.279999999999999716e+01 3.161082817825488860e+02
8.320000000000000284e+01 3.154149055992220383e+02
8.360000000000000853e+01 3.147265054411231517e+02
8.400000000000000000e+01 3.140430201782650101e+02
8.440000000000000568e+01 3.133643897444204072e+02
8.479999999999999716e+01 3.126905551131918628e+02
8.520000000000000284e+01 3.120214582747415761e+02
8.560000000000000853e+01 3.113570422131580813e+02
8.600000000000000000e+01 3.106972508844417575e+02
8.640000000000000568e+01 3.100420291950857745e+02
8.680000000000001137e+01 3.093913229812370673e+02
8.720000000000000284e+01 3.087450789884152300e+02
8.760000000000000853e+01 3.081032448517747184e+02
8.800000000000000000e+01 3.074657690768913199e+02
8.840000000000000568e+01 3.068326010210565755e+02
8.880000000000001137e+01 3.062036908750658313e+02
8.920000000000000284e+01 3.055789896454813857e+02
8.960000000000000853e+01 3.049584491373604465e+02
9.000000000000000000e+01 3.043420219374287967e+02
9.040000000000000568e+01 3.037296613976905064e+02
9.080000000000001137e+01 3.031213216194576034e+02
9.120000000000000284e+01 3.025169574377890740e+02
9.160000000000000853e+01 3.019165244063244700e+02
9.200000000000000000e+01 3.013199787825028579e+02
9.240000000000000568e+01 3.007272775131535241e+02
9.280000000000001137e+01 3.001383782204483737e+02
9.320000000000000284e+01 2.995532391882050547e+02
9.360000000000000853e+01 2.989718193485299480e+02
9.400000000000000000e+01 2.983940782687927822e+02
9.440000000000000568e+01 2.978199761389200830e+02
9.480000000000001137e+01 2.972494737590017735e+02
9.520000000000000284e+01 2.966825325271991574e+02
9.560000000000000853e+01 2.961191144279464424e+02
9.600000000000000000e+01 2.955591820204378450e+02
9.640000000000000568e+01 2.950026984273918060e+02
9.680000000000001137e+01 2.944496273240835649e+02
9.720000000000000284e+01 2.938999329276405774e+02
9.760000000000000853e+01 2.933535799865906029e+02
9.800000000000000000e+01 2.928105337706580826e+02
9.840000000000000568e+01 2.922707600607996028e+02
9.880000000000001137e+01 2.917342251394736650e+02
9.920000000000000284e+01 2.912008957811366372e+02
9.960000000000000853e+01 2.906707392429601668e+02
1.000000000000000000e+02 2.901437232557623247e+02
1.004000000000000057e+02 2.896198160151484444e+02
1.008000000000000114e+02 2.890989861728544952e+02
1.012000000000000028e+02 2.885812028282879851e+02
1.016000000000000085e+02 2.880664355202614502e+02
1.020000000000000000e+02 2.875546542189127877e+02
1.024000000000000057e+02 2.870458293178076588e+02
1.028000000000000114e+02 2.865399316262194134e+02
1.032000000000000028e+02 2.860369323615807957e+02
1.036000000000000085e+02 2.855368031421044748e+02
1.040000000000000000e+02 2.850395159795665450e+02
1.044000000000000057e+02 2.845450432722493588e+02
1.048000000000000114e+02 2.840533577980398832e+02
1.052000000000000028e+02 2.835644327076780655e+02
1.056000000000000085e+02 2.830782415181536180e+02
1.060000000000000000e+02 2.825947581062454219e+02
1.064000000000000057e+02 2.821139567022005394e+02
1.068000000000000114e+02 2.816358118835497635e+02
1.072000000000000028e+02 2.811602985690552714e+02
1.076000000000000085e+02 2.806873920127882229e+02
1.080000000000000000e+02 2.802170677983314704e+02
1.084000000000000057e+02 2.797493018331060171e+02
1.088000000000000114e+02 2.792840703428167330e+02
1.092000000000000028e+02 2.788213498660146570e+02
1.096000000000000085e+02 2.783611172487734393e+02
1.100000000000000000e+02 2.779033496394770282e+02
1.104000000000000057e+02 2.774480244837152441e+02
1.108000000000000114e+02 2.769951195192850264e+02
1.112000000000000028e+02 2.765446127712950215e+02
1.116000000000000085e+02 2.760964825473704423e+02
1.120000000000000000e+02 2.756507074329560396e+02
1.124000000000000057e+02 2.752072662867150825e+02
1.128000000000000114e+02 2.747661382360212201e+02
1.132000000000000028e+02 2.743273026725418617e+02
1.136000000000000085e+02 2.738907392479109149e+02
1.140000000000000000e+02 2.734564278694872996e+02
1.144000000000000057e+02 2.730243486961992403e+02
1.148000000000000114e+02 2.725944821344712636e+02
1.152000000000000028e+02 2.721668088342313467e+02
1.156000000000000085e+02 2.717413096849977592e+02
1.160000000000000000e+02 2.713179658120427575e+02
1.164000000000000057e+02 2.708967585726312564e+02
1.168000000000000114e+02 2.704776695523335661e+02
1.172000000000000028e+02 2.700606805614097539e+02
1.176000000000000085e+02 2.696457736312640350e+02
1.180000000000000000e+02 2.692329310109679454e+02
1.184000000000000057e+02 2.688221351638503620e+02
1.188000000000000114e+02 2.684133687641536881e+02
1.192000000000000028e+02 2.680066146937525673e+02
1.196000000000000085e+02 2.676018560389365462e+02
1.200000000000000000e+02 2.671990760872535020e+02
1.204000000000000057e+02 2.667982583244122452e+02
1.208000000000000114e+02 2.663993864312446362e+02
1.212000000000000028e+02 2.660024442807231253e+02
1.216000000000000085e+02 2.656074159350363857e+02
1.220000000000000000e+02 2.652142856427175275e+02
1.224000000000000057e+02 2.648230378358268240e+02
1.228000000000000114e+02 2.644336571271862795e+02
1.232000000000000028e+02 2.640461283076653558e+02
1.236000000000000085e+02 2.636604363435171194e+02
1.240000000000000000e+02 2.632765663737620798e+02
1.244000000000000057e+02 2.628945037076211975e+02
1.248000000000000114e+02 2.625142338219947646e+02
1.252000000000000028e+02 2.621357423589873861e+02
1.256000000000000085e+02 2.617590151234780933e+02
1.260000000000000000e+02 2.613840380807329780e+02
1.264000000000000057e+02 2.610107973540629587e+02
1.268000000000000114e+02 2.606392792225209973e+02
1.272000000000000028e+02 2.602694701186425164e+02
1.276000000000000085e+02 2.599013566262247537e+02
1.280000000000000000e+02 2.595349254781456807e+02
1.284000000000000057e+02 2.591701635542223130e+02
1.288000000000000114e+02 2.588070578791054572e+02
1.291999999999999886e+02 2.584455956202128277e+02
1.296000000000000227e+02 2.580857640856967237e+02
1.300000000000000000e+02 2.577275507224487683e+02
1.304000000000000057e+02 2.573709431141385267e+02
1.308000000000000114e+02 2.570159289792857180e+02
1.311999999999999886e+02 2.566624961693667615e+02
1.316000000000000227e+02 2.563106326669528698e+02
1.320000000000000000e+02 2.559603265838815105e+02
1.324000000000000057e+02 2.556115661594570838e+02
1.328000000000000114e+02 2.552643397586843435e+02
1.331999999999999886e+02 2.549186358705306930e+02
1.336000000000000227e+02 2.545744431062179274e+02
1.340000000000000000e+02 2.542317501975437608e+02
1.344000000000000057e+02 2.538905459952302976e+02
1.348000000000000114e+02 2.535508194673012099e+02
1.351999999999999886e+02 2.532125596974860287e+02
1.356000000000000227e+02 2.528757558836499584e+02
1.360000000000000000e+02 2.525403973362516581e+02
1.364000000000000057e+02 2.522064734768247831e+02
1.368000000000000114e+02 2.518739738364857885e+02
1.371999999999999886e+02 2.515428880544657204e+02
1.376000000000000227e+02 2.512132058766664500e+02
1.380000000000000000e+02 2.508849171542406111e+02
1.384000000000000057e+02 2.505580118421938778e+02
1.388000000000000114e+02 2.502324799980116836e+02
1.392000000000000171e+02 2.499083117803060645e+02
1.395999999999999943e+02 2.495854974474863752e+02
1.400000000000000000e+02 2.492640273564501285e+02
1.404000000000000057e+02 2.489438919612954919e+02
1.408000000000000114e+02 2.486250818120543613e+02
1.412000000000000171e+02 2.483075875534451313e+02
1.415999999999999943e+02 2.479913999236466111e+02
1.420000000000000000e+02 2.476765097530897890e+02
1.424000000000000057e+02 2.473629079632699472e+02
1.428000000000000114e+02 2.470505855655772791e+02
1.432000000000000171e+02 2.467395336601454119e+02
1.435999999999999943e+02 2.464297434347187163e+02
1.440000000000000000e+02 2.461212061635367547e+02
1.444000000000000057e+02 2.458139132062365775e+02
1.448000000000000114e+02 2.455078560067718740e+02
1.452000000000000171e+02 2.452030260923489493e+02
1.455999999999999943e+02 2.448994150723791563e+02
1.460000000000000000e+02 2.445970146374474155e+02
1.464000000000000057e+02 2.442958165582969343e+02
1.468000000000000114e+02 2.439958126848288771e+02
1.472000000000000171e+02 2.436969949451181492e+02
1.475999999999999943e+02 2.433993553444433360e+02
1.480000000000000000e+02 2.431028859643321027e+02
1.484000000000000057e+02 2.428075789616206066e+02
1.488000000000000114e+02 2.425134265675275174e+02
1.492000000000000171e+02 2.422204210867415384e+02
1.495999999999999943e+02 2.419285548965230248e+02
1.500000000000000000e+02 2.416378204458190737e+02
