1.000000000000000000e+01 3.576462071574637775e+02
1.040000000000000036e+01 3.755109617049700432e+02
1.080000000000000071e+01 3.904132766449509404e+02
1.119999999999999929e+01 4.184806279582351749e+02
1.159999999999999964e+01 4.945114418595480288e+02
1.200000000000000000e+01 5.446801153689751800e+02
1.240000000000000036e+01 5.998300490506641154e+02
1.280000000000000071e+01 6.319177541540332186e+02
1.319999999999999929e+01 6.743836881125629361e+02
1.359999999999999964e+01 7.206490686478546195e+02
1.400000000000000000e+01 7.897806608548232816e+02
1.440000000000000036e+01 9.042889809994762800e+02
1.480000000000000071e+01 9.264030987338010164e+02
1.519999999999999929e+01 9.073313660473064601e+02
1.560000000000000142e+01 8.896353190979759802e+02
1.600000000000000000e+01 8.731473884052185213e+02
1.639999999999999858e+01 8.577280812172774631e+02
1.680000000000000071e+01 8.432601004730149725e+02
1.719999999999999929e+01 8.296439212902510008e+02
1.760000000000000142e+01 8.167944125245024907e+02
1.800000000000000000e+01 8.046382209556295493e+02
1.839999999999999858e+01 7.931117208408642227e+02
1.880000000000000071e+01 7.821593886028095994e+02
1.920000000000000284e+01 7.717325013553195276e+02
1.960000000000000142e+01 7.617880850236792867e+02
2.000000000000000000e+01 7.522880569176426206e+02
2.039999999999999858e+01 7.431985213028434600e+02
2.080000000000000071e+01 7.344891864556888095e+02
2.120000000000000284e+01 7.261328789949964175e+02
2.160000000000000142e+01 7.181051367187593542e+02
2.200000000000000000e+01 7.103838652596404017e+02
2.239999999999999858e+01 7.029490469737409057e+02
2.280000000000000071e+01 6.957824928527276143e+02
2.320000000000000284e+01 6.888676300848671872e+02
2.360000000000000142e+01 6.821893193201447048e+02
2.400000000000000000e+01 6.757336968165755025e+02
2.439999999999999858e+01 6.694880375315403853e+02
2.480000000000000071e+01 6.634406359274806846e+02
2.520000000000000284e+01 6.575807018261739358e+02
2.560000000000000142e+01 6.518982691007928452e+02
2.600000000000000000e+01 6.463841153634814418e+02
2.640000000000000213e+01 6.410296911063003336e+02
2.680000000000000071e+01 6.358270569990291960e+02
2.719999999999999929e+01 6.307688282493386396e+02
2.760000000000000142e+01 6.258481250977656600e+02
2.800000000000000000e+01 6.210585286584444020e+02
2.840000000000000213e+01 6.163940414319807815e+02
2.880000000000000071e+01 6.118490519134376200e+02
2.920000000000000284e+01 6.074183027995187558e+02
2.960000000000000142e+01 6.030968623674096989e+02
3.000000000000000000e+01 5.988800986555854706e+02
3.040000000000000213e+01 5.947636561259780592e+02
3.080000000000000071e+01 5.907434345287121005e+02
3.120000000000000284e+01 5.868155697263160846e+02
3.160000000000000142e+01 5.829764162649125865e+02
3.200000000000000000e+01 5.792225315061706397e+02
3.240000000000000568e+01 5.755506611564502464e+02
3.279999999999999716e+01 5.719577260491292918e+02
3.320000000000000284e+01 5.684408100530414458e+02
3.360000000000000142e+01 5.649971489946676684e+02
3.400000000000000000e+01 5.616241204945239360e+02
3.440000000000000568e+01 5.583192346293484434e+02
3.479999999999999716e+01 5.550801253414650773e+02
3.520000000000000284e+01 5.519045425252444375e+02
3.560000000000000142e+01 5.487903447281016724e+02
3.600000000000000000e+01 5.457354924100699236e+02
3.640000000000000568e+01 5.427380417118217792e+02
3.679999999999999716e+01 5.397961386861509254e+02
3.720000000000000284e+01 5.369080139524759261e+02
3.760000000000000142e+01 5.340719777379708830e+02
3.800000000000000000e+01 5.312864152725023814e+02
3.840000000000000568e+01 5.285497825077457037e+02
3.879999999999999716e+01 5.258606021336883032e+02
3.920000000000000284e+01 5.232174598682668147e+02
3.960000000000000142e+01 5.206190009981439744e+02
4.000000000000000000e+01 5.180639271506623800e+02
4.040000000000000568e+01 5.155509932788284004e+02
4.079999999999999716e+01 5.130790048428096952e+02
4.120000000000000284e+01 5.106468151728990961e+02
4.160000000000000142e+01 5.082533230002128448e+02
4.200000000000000000e+01 5.058974701425882472e+02
4.239999999999999858e+01 5.035782393342116734e+02
4.280000000000000426e+01 5.012946521884861113e+02
4.320000000000000284e+01 4.990457672845203092e+02
4.360000000000000142e+01 4.968306783684179209e+02
4.400000000000000000e+01 4.946485126612699332e+02
4.439999999999999858e+01 4.924984292664044006e+02
4.480000000000000426e+01 4.903796176690447624e+02
4.520000000000000284e+01 4.882912963220721849e+02
4.560000000000000142e+01 4.862327113120750823e+02
4.600000000000000000e+01 4.842031351003270743e+02
4.639999999999999858e+01 4.822018653337380556e+02
4.680000000000000426e+01 4.802282237212034488e+02
4.720000000000000284e+01 4.782815549711174299e+02
4.760000000000000142e+01 4.763612257861337866e+02
4.800000000000000000e+01 4.744666239115390454e+02
4.840000000000000568e+01 4.725971572338775104e+02
4.880000000000000426e+01 4.707522529266988727e+02
4.920000000000000284e+01 4.689313566405315896e+02
4.960000000000000142e+01 4.671339317343838502e+02
5.000000000000000000e+01 4.653594585462652731e+02
5.040000000000000568e+01 4.636074337003966548e+02
5.080000000000000426e+01 4.618773694489343598e+02
5.120000000000000284e+01 4.601687930461827705e+02
5.160000000000000142e+01 4.584812461534075965e+02
5.200000000000000000e+01 4.568142842724865318e+02
5.240000000000000568e+01 4.551674762067506208e+02
5.280000000000000426e+01 4.535404035474790589e+02
5.320000000000000284e+01 4.519326601846082667e+02
5.360000000000000142e+01 4.503438518403112312e+02
5.400000000000000000e+01 4.487735956241849067e+02
5.440000000000000568e+01 4.472215196088681637e+02
5.480000000000000426e+01 4.456872624249830892e+02
5.520000000000000284e+01 4.441704728743622468e+02
5.560000000000000142e+01 4.426708095605902713e+02
5.600000000000000000e+01 4.411879405359439374e+02
5.640000000000000568e+01 4.397215429638747537e+02
5.680000000000000426e+01 4.382713027962254841e+02
5.720000000000000284e+01 4.368369144644238986e+02
5.760000000000000142e+01 4.354180805839383197e+02
5.800000000000000000e+01 4.340145116713252946e+02
5.840000000000000568e+01 4.326259258732349053e+02
5.880000000000000426e+01 4.312520487067790214e+02
5.920000000000000284e+01 4.298926128106994042e+02
5.960000000000000142e+01 4.285473577068077020e+02
6.000000000000000000e+01 4.272160295711942126e+02
6.040000000000000568e+01 4.258983810147369127e+02
6.080000000000000426e+01 4.245941708724618593e+02
6.120000000000000284e+01 4.233031640013357446e+02
6.160000000000000142e+01 4.220251310860920171e+02
6.200000000000000000e+01 4.207598484527125606e+02
6.240000000000000568e+01 4.195070978892112521e+02
6.280000000000000426e+01 4.182666664733804964e+02
6.320000000000000284e+01 4.170383464071811090e+02
6.360000000000000142e+01 4.158219348574745595e+02
6.400000000000000000e+01 4.146172338028104036e+02
6.440000000000000568e+01 4.134240498859969648e+02
6.480000000000001137e+01 4.122421942721972528e+02
6.520000000000000284e+01 4.110714825123070568e+02
6.559999999999999432e+01 4.099117344113816443e+02
6.600000000000000000e+01 4.087627739018919328e+02
6.640000000000000568e+01 4.076244289216003835e+02
6.680000000000001137e+01 4.064965312958581194e+02
6.720000000000000284e+01 4.053789166241332964e+02
6.759999999999999432e+01 4.042714241705931499e+02
6.800000000000000000e+01 4.031738967585670252e+02
6.840000000000000568e+01 4.020861806687283888e+02
6.880000000000001137e+01 4.010081255408410357e+02
6.920000000000000284e+01 3.999395842789230642e+02
6.959999999999999432e+01 3.988804129596857706e+02
7.000000000000000000e+01 3.978304707441183155e+02
7.040000000000000568e+01 3.967896197920846362e+02
7.080000000000001137e+01 3.957577251798172711e+02
7.120000000000000284e+01 3.947346548201880410e+02
7.159999999999999432e+01 3.937202793856463359e+02
7.200000000000000000e+01 3.927144722337210396e+02
7.240000000000000568e+01 3.917171093349832631e+02
7.280000000000001137e+01 3.907280692033747869e+02
7.320000000000000284e+01 3.897472328288108656e+02
7.359999999999999432e+01 3.887744836119687193e+02
7.400000000000000000e+01 3.878097073011788325e+02
7.440000000000000568e+01 3.868527919313394818e+02
7.479999999999999716e+01 3.859036277647750808e+02
7.520000000000000284e+01 3.849621072339691636e+02
7.560000000000000853e+01 3.840281248860990218e+02
7.600000000000000000e+01 3.831015773293061102e+02
7.640000000000000568e+01 3.821823631806376511e+02
7.679999999999999716e+01 3.812703830155984406e+02
7.720000000000000284e+01 3.803655393192535712e+02
7.760000000000000853e+01 3.794677364388267051e+02
7.800000000000000000e+01 3.785768805377376793e+02
7.840000000000000568e+01 3.776928795510308419e+02
7.879999999999999716e+01 3.768156431421413117e+02
7.920000000000000284e+01 3.759450826609545970e+02
7.960000000000000853e+01 3.750811111031111977e+02
8.000000000000000000e+01 3.742236430705147541e+02
8.040000000000000568e+01 3.733725947329996302e+02
8.079999999999999716e+01 3.725278837911200753e+02
8.120000000000000284e+01 3.716894294400195804e+02
8.160000000000000853e+01 3.708571523343457557e+02
8.200000000000000000e+01 3.700309745541730990e+02
8.240000000000000568e+01 3.692108195719001742e+02
8.279999999999999716e+01 3.683966122200894233e+02
8.320000000000000284e+01 3.675882786602152237e+02
8.360000000000000853e+01 3.667857463522927333e+02
8.400000000000000000e+01 3.659889440253559201e+02
8.440000000000000568e+01 3.651978016487584000e+02
8.479999999999999716e+01 3.644122504042687183e+02
8.520000000000000284e+01 3.636322226589348929e+02
8.560000000000000853e+01 3.628576519386929817e+02
8.600000000000000000e+01 3.620884729026948321e+02
8.640000000000000568e+01 3.613246213183331861e+02
8.680000000000001137e+01 3.605660340369408345e+02
8.720000000000000284e+01 3.598126489701421633e+02
8.760000000000000853e+01 3.590644050668367981e+02
8.800000000000000000e+01 3.583212422907957375e+02
8.840000000000000568e+01 3.575831015988499075e+02
8.880000000000001137e+01 3.568499249196532901e+02
8.920000000000000284e+01 3.561216551330013544e+02
8.960000000000000853e+01 3.553982360496903539e+02
9.000000000000000000e+01 3.546796123918981039e+02
9.040000000000000568e+01 3.539657297740710078e+02
9.080000000000001137e+01 3.532565346843030625e+02
9.120000000000000284e+01 3.525519744661903019e+02
9.160000000000000853e+01 3.518519973011467528e+02
9.200000000000000000e+01 3.511565521911695669e+02
9.240000000000000568e+01 3.504655889420365611e+02
9.280000000000001137e+01 3.497790581469270137e+02
9.320000000000000284e+01 3.490969111704507100e+02
9.360000000000000853e+01 3.484191001330736981e+02
9.400000000000000000e+01 3.477455778959294435e+02
9.440000000000000568e+01 3.470762980460043536e+02
9.480000000000001137e+01 3.464112148816858507e+02
9.520000000000000284e+01 3.457502833986634414e+02
9.560000000000000853e+01 3.450934592761714725e+02
9.600000000000000000e+01 3.444406988635653875e+02
9.640000000000000568e+01 3.437919591672203410e+02
9.680000000000001137e+01 3.431471978377439882e+02
9.720000000000000284e+01 3.425063731574941244e+02
9.760000000000000853e+01 3.418694440283926497e+02
9.800000000000000000e+01 3.412363699600274458e+02
9.840000000000000568e+01 3.406071110580350023e+02
9.880000000000001137e+01 3.399816280127537880e+02
9.920000000000000284e+01 3.393598820881441611e+02
9.960000000000000853e+01 3.387418351109636774e+02
1.000000000000000000e+02 3.381274494601941001e+02
1.004000000000000057e+02 3.375166880567114163e+02
1.008000000000000114e+02 3.369095143531921508e+02
1.012000000000000028e+02 3.363058923242513174e+02
1.016000000000000085e+02 3.357057864568026844e+02
1.020000000000000000e+02 3.351091617406393084e+02
1.024000000000000057e+02 3.345159836592243892e+02
1.028000000000000114e+02 3.339262181806902277e+02
1.032000000000000028e+02 3.333398317490378986e+02
1.036000000000000085e+02 3.327567912755318957e+02
1.040000000000000000e+02 3.321770641302870217e+02
1.044000000000000057e+02 3.316006181340397347e+02
1.048000000000000114e+02 3.310274215501008257e+02
1.052000000000000028e+02 3.304574430764841964e+02
1.056000000000000085e+02 3.298906518382073045e+02
1.060000000000000000e+02 3.293270173797581606e+02
1.064000000000000057e+02 3.287665096577262602e+02
1.068000000000000114e+02 3.282090990335912011e+02
1.072000000000000028e+02 3.276547562666665954e+02
1.076000000000000085e+02 3.271034525071941061e+02
1.080000000000000000e+02 3.265551592895851059e+02
1.084000000000000057e+02 3.260098485258052392e+02
1.088000000000000114e+02 3.254674924988980820e+02
1.092000000000000028e+02 3.249280638566464177e+02
1.096000000000000085e+02 3.243915356053639698e+02
1.100000000000000000e+02 3.238578811038192384e+02
1.104000000000000057e+02 3.233270740572832551e+02
1.108000000000000114e+02 3.227990885117025073e+02
1.112000000000000028e+02 3.222738988479902105e+02
1.116000000000000085e+02 3.217514797764360992e+02
1.120000000000000000e+02 3.212318063312301319e+02
1.124000000000000057e+02 3.207148538650980072e+02
1.128000000000000114e+02 3.202005980440444546e+02
1.132000000000000028e+02 3.196890148422052107e+02
1.136000000000000085e+02 3.191800805368002329e+02
1.140000000000000000e+02 3.186737717031896864e+02
1.144000000000000057e+02 3.181700652100282696e+02
1.148000000000000114e+02 3.176689382145162881e+02
1.152000000000000028e+02 3.171703681577448606e+02
1.156000000000000085e+02 3.166743327601333249e+02
1.160000000000000000e+02 3.161808100169561158e+02
1.164000000000000057e+02 3.156897781939581478e+02
1.168000000000000114e+02 3.152012158230551790e+02
1.172000000000000028e+02 3.147151016981184739e+02
1.176000000000000085e+02 3.142314148708414905e+02
1.180000000000000000e+02 3.137501346466855239e+02
1.184000000000000057e+02 3.132712405809045322e+02
1.188000000000000114e+02 3.127947124746462464e+02
1.192000000000000028e+02 3.123205303711269494e+02
1.196000000000000085e+02 3.118486745518801513e+02
1.200000000000000000e+02 3.113791255330762056e+02
1.204000000000000057e+02 3.109118640619115581e+02
1.208000000000000114e+02 3.104468711130661518e+02
1.212000000000000028e+02 3.099841278852273945e+02
1.216000000000000085e+02 3.095236157976792697e+02
1.220000000000000000e+02 3.090653164869552256e+02
1.224000000000000057e+02 3.086092118035530234e+02
1.228000000000000114e+02 3.081552838087110899e+02
1.232000000000000028e+02 3.077035147712434195e+02
1.236000000000000085e+02 3.072538871644337632e+02
1.240000000000000000e+02 3.068063836629862635e+02
1.244000000000000057e+02 3.063609871400319093e+02
1.248000000000000114e+02 3.059176806641893904e+02
1.252000000000000028e+02 3.054764474966801799e+02
1.256000000000000085e+02 3.050372710884939806e+02
1.260000000000000000e+02 3.046001350776077174e+02
1.264000000000000057e+02 3.041650232862523353e+02
1.268000000000000114e+02 3.037319197182297899e+02
1.272000000000000028e+02 3.033008085562779002e+02
1.276000000000000085e+02 3.028716741594813016e+02
1.280000000000000000e+02 3.024445010607291806e+02
1.284000000000000057e+02 3.020192739642176889e+02
1.288000000000000114e+02 3.015959777429958422e+02
1.291999999999999886e+02 3.011745974365554730e+02
1.296000000000000227e+02 3.007551182484625656e+02
1.300000000000000000e+02 3.003375255440300862e+02
1.304000000000000057e+02 2.999218048480317407e+02
1.308000000000000114e+02 2.995079418424548408e+02
1.311999999999999886e+02 2.990959223642919369e+02
1.316000000000000227e+02 2.986857324033706504e+02
1.320000000000000000e+02 2.982773581002216474e+02
1.324000000000000057e+02 2.978707857439812301e+02
1.328000000000000114e+02 2.974660017703310473e+02
1.331999999999999886e+02 2.970629927594729907e+02
1.336000000000000227e+02 2.966617454341369466e+02
1.340000000000000000e+02 2.962622466576243028e+02
1.344000000000000057e+02 2.958644834318822632e+02
1.348000000000000114e+02 2.954684428956122701e+02
1.351999999999999886e+02 2.950741123224089506e+02
1.356000000000000227e+02 2.946814791189303264e+02
1.360000000000000000e+02 2.942905308230991182e+02
1.364000000000000057e+02 2.939012551023328115e+02
1.368000000000000114e+02 2.935136397518037938e+02
1.371999999999999886e+02 2.931276726927279128e+02
1.376000000000000227e+02 2.927433419706811719e+02
1.380000000000000000e+02 2.923606357539433702e+02
1.384000000000000057e+02 2.919795423318699932e+02
1.388000000000000114e+02 2.916000501132900240e+02
1.392000000000000171e+02 2.912221476249289367e+02
1.395999999999999943e+02 2.908458235098586897e+02
1.400000000000000000e+02 2.904710665259713664e+02
1.404000000000000057e+02 2.900978655444786227e+02
1.408000000000000114e+02 2.897262095484338715e+02
1.412000000000000171e+02 2.893560876312793084e+02
1.415999999999999943e+02 2.889874889954149921e+02
1.420000000000000000e+02 2.886204029507917994e+02
1.424000000000000057e+02 2.882548189135253551e+02
1.428000000000000114e+02 2.878907264045330976e+02
1.432000000000000171e+02 2.875281150481922623e+02
1.435999999999999943e+02 2.871669745710187840e+02
1.440000000000000000e+02 2.868072948003667193e+02
1.444000000000000057e+02 2.864490656631488150e+02
1.448000000000000114e+02 2.860922771845764601e+02
1.452000000000000171e+02 2.857369194869187936e+02
1.455999999999999943e+02 2.853829827882816517e+02
1.460000000000000000e+02 2.850304574014053287e+02
1.464000000000000057e+02 2.846793337324799609e+02
1.468000000000000114e+02 2.843296022799805769e+02
1.472000000000000171e+02 2.839812536335188042e+02
1.475999999999999943e+02 2.836342784727120261e+02
1.480000000000000000e+02 2.832886675660706146e+02
1.484000000000000057e+02 2.829444117699015919e+02
1.488000000000000114e+02 2.826015020272285483e+02
1.492000000000000171e+02 2.822599293667281586e+02
1.495999999999999943e+02 2.819196849016830129e+02
1.500000000000000000e+02 2.815807598289493967e+02
