1.000000000000000000e+01 3.344203108687111126e+02
1.040000000000000036e+01 3.729380798864062854e+02
1.080000000000000071e+01 4.121217630116181567e+02
1.119999999999999929e+01 4.676744277575298270e+02
1.159999999999999964e+01 5.694802261368459995e+02
1.200000000000000000e+01 6.460198540862443224e+02
1.240000000000000036e+01 7.126901832710393592e+02
1.280000000000000071e+01 7.523988422581178384e+02
1.319999999999999929e+01 7.713207858470213978e+02
1.359999999999999964e+01 7.864535378446392997e+02
1.400000000000000000e+01 8.135789391472753778e+02
1.440000000000000036e+01 8.550736696174981262e+02
1.480000000000000071e+01 8.464397854949911562e+02
1.519999999999999929e+01 8.293394964182848526e+02
1.560000000000000142e+01 8.133705312787321873e+02
1.600000000000000000e+01 7.984072309995261776e+02
1.639999999999999858e+01 7.843432746189694171e+02
1.680000000000000071e+01 7.710879211263695652e+02
1.719999999999999929e+01 7.585631242171702979e+02
1.760000000000000142e+01 7.467012863259315054e+02
1.800000000000000000e+01 7.354434885124680932e+02
1.839999999999999858e+01 7.247380797508637897e+02
1.880000000000000071e+01 7.145395412524570702e+02
1.920000000000000284e+01 7.048075637740855655e+02
1.960000000000000142e+01 6.955062916540366587e+02
2.000000000000000000e+01 6.866036986611677548e+02
2.039999999999999858e+01 6.780710690041981934e+02
2.080000000000000071e+01 6.698825629421552321e+02
2.120000000000000284e+01 6.620148509848366984e+02
2.160000000000000142e+01 6.544468041028737844e+02
2.200000000000000000e+01 6.471592299809065025e+02
2.239999999999999858e+01 6.401346473574477614e+02
2.280000000000000071e+01 6.333570920541159239e+02
2.320000000000000284e+01 6.268119495159670578e+02
2.360000000000000142e+01 6.204858096450376479e+02
2.400000000000000000e+01 6.143663404711551266e+02
2.439999999999999858e+01 6.084421778126184108e+02
2.480000000000000071e+01 6.027028285684064031e+02
2.520000000000000284e+01 5.971385856789479476e+02
2.560000000000000142e+01 5.917404531138961374e+02
2.600000000000000000e+01 5.865000795080152329e+02
2.640000000000000213e+01 5.814096992820320793e+02
2.680000000000000071e+01 5.764620802633440917e+02
2.719999999999999929e+01 5.716504769690633339e+02
2.760000000000000142e+01 5.669685888367628195e+02
2.800000000000000000e+01 5.624105227910150688e+02
2.840000000000000213e+01 5.579707596200279340e+02
2.880000000000000071e+01 5.536441237093140444e+02
2.920000000000000284e+01 5.494257557407332797e+02
2.960000000000000142e+01 5.453110880173398982e+02
3.000000000000000000e+01 5.412958221188043808e+02
3.040000000000000213e+01 5.373759086300357239e+02
3.080000000000000071e+01 5.335475287180538544e+02
3.120000000000000284e+01 5.298070773600071561e+02
3.160000000000000142e+01 5.261511480492192732e+02
3.200000000000000000e+01 5.225765188268627526e+02
3.240000000000000568e+01 5.190801395047976712e+02
3.279999999999999716e+01 5.156591199606841656e+02
3.320000000000000284e+01 5.123107194000272102e+02
3.360000000000000142e+01 5.090323364916361584e+02
3.400000000000000000e+01 5.058215002933064852e+02
3.440000000000000568e+01 5.026758618935875802e+02
3.479999999999999716e+01 4.995931867034497031e+02
3.520000000000000284e+01 4.965713473386476835e+02
3.560000000000000142e+01 4.936083170397502045e+02
3.600000000000000000e+01 4.907021635822405869e+02
3.640000000000000568e+01 4.878510436339130365e+02
3.679999999999999716e+01 4.850531975210587348e+02
3.720000000000000284e+01 4.823069443687246576e+02
3.760000000000000142e+01 4.796106775837014311e+02
3.800000000000000000e+01 4.769628606518994047e+02
3.840000000000000568e+01 4.743620232244543331e+02
3.879999999999999716e+01 4.718067574692988728e+02
3.920000000000000284e+01 4.692957146670807447e+02
3.960000000000000142e+01 4.668276020322326758e+02
4.000000000000000000e+01 4.644011797417214780e+02
4.040000000000000568e+01 4.620152581555610141e+02
4.079999999999999716e+01 4.596686952145628311e+02
4.120000000000000284e+01 4.573603940020660730e+02
4.160000000000000142e+01 4.550893004575152645e+02
4.200000000000000000e+01 4.528544012307908702e+02
4.239999999999999858e+01 4.506547216671174283e+02
4.280000000000000426e+01 4.484893239132240979e+02
4.320000000000000284e+01 4.463573051361895523e+02
4.360000000000000142e+01 4.442577958470997714e+02
4.400000000000000000e+01 4.421899583222751744e+02
4.439999999999999858e+01 4.401529851154007247e+02
4.480000000000000426e+01 4.381460976544078676e+02
4.520000000000000284e+01 4.361685449174420910e+02
4.560000000000000142e+01 4.342196021826771357e+02
4.600000000000000000e+01 4.322985698471391061e+02
4.639999999999999858e+01 4.304047723100648000e+02
4.680000000000000426e+01 4.285375569166508285e+02
4.720000000000000284e+01 4.266962929583581285e+02
4.760000000000000142e+01 4.248803707262106855e+02
4.800000000000000000e+01 4.230892006137892736e+02
4.840000000000000568e+01 4.213222122668531711e+02
4.880000000000000426e+01 4.195788537767425623e+02
4.920000000000000284e+01 4.178585909149103372e+02
4.960000000000000142e+01 4.161609064061198637e+02
5.000000000000000000e+01 4.144852992380104979e+02
5.040000000000000568e+01 4.128312840048948829e+02
5.080000000000000426e+01 4.111983902837885125e+02
5.120000000000000284e+01 4.095861620408131216e+02
5.160000000000000142e+01 4.079941570662339245e+02
5.200000000000000000e+01 4.064219464365068575e+02
5.240000000000000568e+01 4.048691140018171382e+02
5.280000000000000426e+01 4.033352558976882847e+02
5.320000000000000284e+01 4.018199800793329359e+02
5.360000000000000142e+01 4.003229058774978739e+02
5.400000000000000000e+01 3.988436635746388674e+02
5.440000000000000568e+01 3.973818940003281455e+02
5.480000000000000426e+01 3.959372481448691019e+02
5.520000000000000284e+01 3.945093867901549629e+02
5.560000000000000142e+01 3.930979801568641960e+02
5.600000000000000000e+01 3.917027075671431930e+02
5.640000000000000568e+01 3.903232571219765532e+02
5.680000000000000426e+01 3.889593253924909391e+02
5.720000000000000284e+01 3.876106171244862821e+02
5.760000000000000142e+01 3.862768449555258599e+02
5.800000000000000000e+01 3.849577291439577493e+02
5.840000000000000568e+01 3.836529973092751788e+02
5.880000000000000426e+01 3.823623841832572907e+02
5.920000000000000284e+01 3.810856313713637746e+02
5.960000000000000142e+01 3.798224871238856508e+02
6.000000000000000000e+01 3.785727061163829603e+02
6.040000000000000568e+01 3.773360492389654723e+02
6.080000000000000426e+01 3.761122833939970178e+02
6.120000000000000284e+01 3.749011813018278190e+02
6.160000000000000142e+01 3.737025213141783411e+02
6.200000000000000000e+01 3.725160872348209296e+02
6.240000000000000568e+01 3.713416681472228902e+02
6.280000000000000426e+01 3.701790582488329733e+02
6.320000000000000284e+01 3.690280566917090823e+02
6.360000000000000142e+01 3.678884674292020236e+02
6.400000000000000000e+01 3.667600990684246085e+02
6.440000000000000568e+01 3.656427647282476414e+02
6.480000000000001137e+01 3.645362819025810950e+02
6.520000000000000284e+01 3.634404723287063916e+02
6.559999999999999432e+01 3.623551618604418536e+02
6.600000000000000000e+01 3.612801803459317398e+02
6.640000000000000568e+01 3.602153615098595196e+02
6.680000000000001137e+01 3.591605428398986533e+02
6.720000000000000284e+01 3.581155654772187518e+02
6.759999999999999432e+01 3.570802741108789178e+02
6.800000000000000000e+01 3.560545168759442731e+02
6.840000000000000568e+01 3.550381452551710595e+02
6.880000000000001137e+01 3.540310139841139971e+02
6.920000000000000284e+01 3.530329809595142478e+02
6.959999999999999432e+01 3.520439071508358211e+02
7.000000000000000000e+01 3.510636565148212185e+02
7.040000000000000568e+01 3.500920959129465473e+02
7.080000000000001137e+01 3.491290950316592898e+02
7.120000000000000284e+01 3.481745263052879409e+02
7.159999999999999432e+01 3.472282648415191488e+02
7.200000000000000000e+01 3.462901883493398145e+02
7.240000000000000568e+01 3.453601770693504704e+02
7.280000000000001137e+01 3.444381137063556935e+02
7.320000000000000284e+01 3.435238833641448082e+02
7.359999999999999432e+01 3.426173734823796053e+02
7.400000000000000000e+01 3.417184737755075048e+02
7.440000000000000568e+01 3.408270761736251302e+02
7.479999999999999716e+01 3.399430747652171476e+02
7.520000000000000284e+01 3.390663657417016452e+02
7.560000000000000853e+01 3.381968473437145803e+02
7.600000000000000000e+01 3.373344198090683790e+02
7.640000000000000568e+01 3.364789853223236946e+02
7.679999999999999716e+01 3.356304479659159483e+02
7.720000000000000284e+01 3.347887136727782149e+02
7.760000000000000853e+01 3.339536901804092395e+02
7.800000000000000000e+01 3.331252869863319575e+02
7.840000000000000568e+01 3.323034153048944290e+02
7.879999999999999716e+01 3.314879880253650981e+02
7.920000000000000284e+01 3.306789196712769012e+02
7.960000000000000853e+01 3.298761263609754906e+02
8.000000000000000000e+01 3.290795257693307576e+02
8.040000000000000568e+01 3.282890370905699342e+02
8.079999999999999716e+01 3.275045810021949251e+02
8.120000000000000284e+01 3.267260796299449339e+02
8.160000000000000853e+01 3.259534565137705044e+02
8.200000000000000000e+01 3.251866365747830514e+02
8.240000000000000568e+01 3.244255460831470828e+02
8.279999999999999716e+01 3.236701126268848725e+02
8.320000000000000284e+01 3.229202650815608422e+02
8.360000000000000853e+01 3.221759335808180822e+02
8.400000000000000000e+01 3.214370494877379087e+02
8.440000000000000568e+01 3.207035453669955132e+02
8.479999999999999716e+01 3.199753549577860667e+02
8.520000000000000284e+01 3.192524131474949627e+02
8.560000000000000853e+01 3.185346559460899130e+02
8.600000000000000000e+01 3.178220204612094903e+02
8.640000000000000568e+01 3.171144448739271979e+02
8.680000000000001137e+01 3.164118684151691809e+02
8.720000000000000284e+01 3.157142313427646059e+02
8.760000000000000853e+01 3.150214749191082433e+02
8.800000000000000000e+01 3.143335413894169506e+02
8.840000000000000568e+01 3.136503739605610690e+02
8.880000000000001137e+01 3.129719167804522613e+02
8.920000000000000284e+01 3.122981149179710769e+02
8.960000000000000853e+01 3.116289143434174775e+02
9.000000000000000000e+01 3.109642619094682914e+02
9.040000000000000568e+01 3.103041053326261363e+02
9.080000000000001137e+01 3.096483931751442356e+02
9.120000000000000284e+01 3.089970748274138828e+02
9.160000000000000853e+01 3.083501004907990932e+02
9.200000000000000000e+01 3.077074211609070176e+02
9.240000000000000568e+01 3.070689886112785985e+02
9.280000000000001137e+01 3.064347553774894095e+02
9.320000000000000284e+01 3.058046747416468634e+02
9.360000000000000853e+01 3.051787007172728181e+02
9.400000000000000000e+01 3.045567880345602703e+02
9.440000000000000568e+01 3.039388921259928793e+02
9.480000000000001137e+01 3.033249691123172624e+02
9.520000000000000284e+01 3.027149757888574300e+02
9.560000000000000853e+01 3.021088696121615271e+02
9.600000000000000000e+01 3.015066086869721858e+02
9.640000000000000568e+01 3.009081517535094008e+02
9.680000000000001137e+01 3.003134581750592815e+02
9.720000000000000284e+01 2.997224879258585588e+02
9.760000000000000853e+01 2.991352015792669476e+02
9.800000000000000000e+01 2.985515602962188950e+02
9.840000000000000568e+01 2.979715258139483467e+02
9.880000000000001137e+01 2.973950604349764717e+02
9.920000000000000284e+01 2.968221270163576833e+02
9.960000000000000853e+01 2.962526889591750319e+02
1.000000000000000000e+02 2.956867101982788313e+02
1.004000000000000057e+02 2.951241551922620374e+02
1.008000000000000114e+02 2.945649889136650472e+02
1.012000000000000028e+02 2.940091768394052565e+02
1.016000000000000085e+02 2.934566849414236458e+02
1.020000000000000000e+02 2.929074796775435061e+02
1.024000000000000057e+02 2.923615279825357334e+02
1.028000000000000114e+02 2.918187972593844393e+02
1.032000000000000028e+02 2.912792553707487286e+02
1.036000000000000085e+02 2.907428706306134814e+02
1.040000000000000000e+02 2.902096117961269783e+02
1.044000000000000057e+02 2.896794480596180392e+02
1.048000000000000114e+02 2.891523490407888630e+02
1.052000000000000028e+02 2.886282847790791948e+02
1.056000000000000085e+02 2.881072257261977825e+02
1.060000000000000000e+02 2.875891427388150987e+02
1.064000000000000057e+02 2.870740070714152807e+02
1.068000000000000114e+02 2.865617903693018320e+02
1.072000000000000028e+02 2.860524646617540157e+02
1.076000000000000085e+02 2.855460023553291649e+02
1.080000000000000000e+02 2.850423762273081820e+02
1.084000000000000057e+02 2.845415594192799063e+02
1.088000000000000114e+02 2.840435254308617345e+02
1.092000000000000028e+02 2.835482481135520061e+02
1.096000000000000085e+02 2.830557016647111368e+02
1.100000000000000000e+02 2.825658606216697990e+02
1.104000000000000057e+02 2.820786998559582344e+02
1.108000000000000114e+02 2.815941945676565297e+02
1.112000000000000028e+02 2.811123202798611374e+02
1.116000000000000085e+02 2.806330528332649692e+02
1.120000000000000000e+02 2.801563683808494716e+02
1.124000000000000057e+02 2.796822433826841916e+02
1.128000000000000114e+02 2.792106546008332089e+02
1.132000000000000028e+02 2.787415790943637717e+02
1.136000000000000085e+02 2.782749942144565694e+02
1.140000000000000000e+02 2.778108775996145141e+02
1.144000000000000057e+02 2.773492071709665652e+02
1.148000000000000114e+02 2.768899611276663109e+02
1.152000000000000028e+02 2.764331179423821823e+02
1.156000000000000085e+02 2.759786563568761721e+02
1.160000000000000000e+02 2.755265553776711727e+02
1.164000000000000057e+02 2.750767942718023278e+02
1.168000000000000114e+02 2.746293525626527412e+02
1.172000000000000028e+02 2.741842100258700725e+02
1.176000000000000085e+02 2.737413466853627142e+02
1.180000000000000000e+02 2.733007428093737303e+02
1.184000000000000057e+02 2.728623789066302834e+02
1.188000000000000114e+02 2.724262357225685491e+02
1.192000000000000028e+02 2.719922942356290605e+02
1.196000000000000085e+02 2.715605356536246404e+02
1.200000000000000000e+02 2.711309414101768311e+02
1.204000000000000057e+02 2.707034931612199671e+02
1.208000000000000114e+02 2.702781727815719250e+02
1.212000000000000028e+02 2.698549623615687665e+02
1.216000000000000085e+02 2.694338442037631012e+02
1.220000000000000000e+02 2.690148008196846945e+02
1.224000000000000057e+02 2.685978149266606465e+02
1.228000000000000114e+02 2.681828694446951999e+02
1.232000000000000028e+02 2.677699474934075852e+02
1.236000000000000085e+02 2.673590323890260834e+02
1.240000000000000000e+02 2.669501076414373983e+02
1.244000000000000057e+02 2.665431569512907117e+02
1.248000000000000114e+02 2.661381642071536362e+02
1.252000000000000028e+02 2.657351134827217720e+02
1.256000000000000085e+02 2.653339890340765805e+02
1.260000000000000000e+02 2.649347752969950420e+02
1.264000000000000057e+02 2.645374568843065504e+02
1.268000000000000114e+02 2.641420185832979541e+02
1.272000000000000028e+02 2.637484453531650956e+02
1.276000000000000085e+02 2.633567223225090856e+02
1.280000000000000000e+02 2.629668347868783940e+02
1.284000000000000057e+02 2.625787682063535158e+02
1.288000000000000114e+02 2.621925082031748389e+02
1.291999999999999886e+02 2.618080405594126887e+02
1.296000000000000227e+02 2.614253512146771072e+02
1.300000000000000000e+02 2.610444262638693544e+02
1.304000000000000057e+02 2.606652519549711542e+02
1.308000000000000114e+02 2.602878146868736167e+02
1.311999999999999886e+02 2.599121010072429954e+02
1.316000000000000227e+02 2.595380976104236197e+02
1.320000000000000000e+02 2.591657913353774347e+02
1.324000000000000057e+02 2.587951691636581018e+02
1.328000000000000114e+02 2.584262182174202280e+02
1.331999999999999886e+02 2.580589257574630437e+02
1.336000000000000227e+02 2.576932791813062522e+02
1.340000000000000000e+02 2.573292660212997589e+02
1.344000000000000057e+02 2.569668739427643231e+02
1.348000000000000114e+02 2.566060907421643833e+02
1.351999999999999886e+02 2.562469043453110089e+02
1.356000000000000227e+02 2.558893028055954346e+02
1.360000000000000000e+02 2.555332743022515274e+02
1.364000000000000057e+02 2.551788071386477839e+02
1.368000000000000114e+02 2.548258897406072947e+02
1.371999999999999886e+02 2.544745106547557043e+02
1.376000000000000227e+02 2.541246585468963417e+02
1.380000000000000000e+02 2.537763222004120394e+02
1.384000000000000057e+02 2.534294905146932138e+02
1.388000000000000114e+02 2.530841525035918949e+02
1.392000000000000171e+02 2.527402972939004258e+02
1.395999999999999943e+02 2.523979141238552018e+02
1.400000000000000000e+02 2.520569923416647953e+02
1.404000000000000057e+02 2.517175214040616424e+02
1.408000000000000114e+02 2.513794908748770354e+02
1.412000000000000171e+02 2.510428904236391077e+02
1.415999999999999943e+02 2.507077098241932731e+02
1.420000000000000000e+02 2.503739389533444637e+02
1.424000000000000057e+02 2.500415677895214230e+02
1.428000000000000114e+02 2.497105864114618043e+02
1.432000000000000171e+02 2.493809849969181869e+02
1.435999999999999943e+02 2.490527538213847265e+02
1.440000000000000000e+02 2.487258832568429341e+02
1.444000000000000057e+02 2.484003637705289975e+02
1.448000000000000114e+02 2.480761859237182421e+02
1.452000000000000171e+02 2.477533403705298838e+02
1.455999999999999943e+02 2.474318178567500581e+02
1.460000000000000000e+02 2.471116092186729816e+02
1.464000000000000057e+02 2.467927053819601610e+02
1.468000000000000114e+02 2.464750973605167701e+02
1.472000000000000171e+02 2.461587762553863854e+02
1.475999999999999943e+02 2.458437332536612132e+02
1.480000000000000000e+02 2.455299596274101077e+02
1.484000000000000057e+02 2.452174467326224772e+02
1.488000000000000114e+02 2.449061860081681345e+02
1.492000000000000171e+02 2.445961689747733203e+02
1.495999999999999943e+02 2.442873872340115895e+02
1.500000000000000000e+02 2.439798324673107857e+02
