1.000000000000000000e+01 6.141258312751634207e+01
1.040000000000000036e+01 6.330346238269906678e+01
1.080000000000000071e+01 6.488144834909064684e+01
1.119999999999999929e+01 6.790880015522091639e+01
1.159999999999999964e+01 7.336570009334340625e+01
1.200000000000000000e+01 7.035512923359799231e+01
1.240000000000000036e+01 6.825079022543354768e+01
1.280000000000000071e+01 6.633559787060863755e+01
1.319999999999999929e+01 6.458050637010113348e+01
1.359999999999999964e+01 6.296279014630833615e+01
1.400000000000000000e+01 6.146427947685606341e+01
1.440000000000000036e+01 6.007018856450977751e+01
1.480000000000000071e+01 5.519261443043009052e+01
1.519999999999999929e+01 5.399339196288079989e+01
1.560000000000000142e+01 5.286951248164737649e+01
1.600000000000000000e+01 5.181320038909392878e+01
1.639999999999999858e+01 5.081778206889224236e+01
1.680000000000000071e+01 4.987748918930622466e+01
1.719999999999999929e+01 4.898730401161243009e+01
1.760000000000000142e+01 4.805751786594045427e+01
1.800000000000000000e+01 4.715789183644616855e+01
1.839999999999999858e+01 4.630501213564964758e+01
1.880000000000000071e+01 4.549490517103878062e+01
1.920000000000000284e+01 4.472406028828729063e+01
1.960000000000000142e+01 4.411289780450137243e+01
2.000000000000000000e+01 4.353840631567992148e+01
2.039999999999999858e+01 4.298940068552495575e+01
2.080000000000000071e+01 4.246399982644439319e+01
2.120000000000000284e+01 4.196051326167398088e+01
2.160000000000000142e+01 4.235589765197725853e+01
2.200000000000000000e+01 4.192245618764471260e+01
2.239999999999999858e+01 4.150475391499902855e+01
2.280000000000000071e+01 4.110182977469291643e+01
2.320000000000000284e+01 4.071280372557450988e+01
2.360000000000000142e+01 4.033686811761624824e+01
2.400000000000000000e+01 3.997328016723032107e+01
2.439999999999999858e+01 3.962135537151617370e+01
2.480000000000000071e+01 3.928046172544609504e+01
2.520000000000000284e+01 3.895001462832000527e+01
2.560000000000000142e+01 3.862947238406553652e+01
2.600000000000000000e+01 3.832133819065558811e+01
2.640000000000000213e+01 3.802591922800218072e+01
2.680000000000000071e+01 3.773862137724330523e+01
2.719999999999999929e+01 3.745906412972693289e+01
2.760000000000000142e+01 3.718689180094627034e+01
2.800000000000000000e+01 3.692177147204800747e+01
2.840000000000000213e+01 3.666339113725578613e+01
2.880000000000000071e+01 3.641145803319521690e+01
2.920000000000000284e+01 3.616569712929340596e+01
2.960000000000000142e+01 3.592584976114049766e+01
3.000000000000000000e+01 3.569167239101922462e+01
3.040000000000000213e+01 3.546293548179573918e+01
3.080000000000000071e+01 3.523942247207180145e+01
3.120000000000000284e+01 3.493153929355353426e+01
3.160000000000000142e+01 3.471623784088177445e+01
3.200000000000000000e+01 3.450578701298569229e+01
3.240000000000000568e+01 3.429999901410603513e+01
3.279999999999999716e+01 3.409869622361262032e+01
3.320000000000000284e+01 3.390171049259621583e+01
3.360000000000000142e+01 3.370888249931589797e+01
3.400000000000000000e+01 3.352006115774253203e+01
3.440000000000000568e+01 3.045077932662812259e+01
3.479999999999999716e+01 3.023390946301113757e+01
3.520000000000000284e+01 3.002156484239363721e+01
3.560000000000000142e+01 2.981358839741803735e+01
3.600000000000000000e+01 2.960900660655040184e+01
3.640000000000000568e+01 2.940736339312704217e+01
3.679999999999999716e+01 2.920965893703719729e+01
3.720000000000000284e+01 2.901576538845915820e+01
3.760000000000000142e+01 2.882556065008712665e+01
3.800000000000000000e+01 2.863892804813442794e+01
3.840000000000000568e+01 2.845575602606694332e+01
3.879999999999999716e+01 2.827593785923226477e+01
3.920000000000000284e+01 2.809937138871872975e+01
3.960000000000000142e+01 2.792595877293039663e+01
4.000000000000000000e+01 2.775560625549957905e+01
4.040000000000000568e+01 2.758822394828131053e+01
4.079999999999999716e+01 2.742372562828401072e+01
4.120000000000000284e+01 2.726202854749011806e+01
4.160000000000000142e+01 2.710305325460999626e+01
4.200000000000000000e+01 2.692157818131998326e+01
4.239999999999999858e+01 2.677421125112972788e+01
4.280000000000000426e+01 2.662923408424903826e+01
4.320000000000000284e+01 2.648658213958993102e+01
4.360000000000000142e+01 2.634619329850013969e+01
4.400000000000000000e+01 2.620800774893962881e+01
4.439999999999999858e+01 2.607196787636003421e+01
4.480000000000000426e+01 2.593801816083320233e+01
4.520000000000000284e+01 2.580610508000981795e+01
4.560000000000000142e+01 2.567617701752141457e+01
4.600000000000000000e+01 2.554818417646836082e+01
4.639999999999999858e+01 2.542207849766312933e+01
4.680000000000000426e+01 2.529781358232278876e+01
4.720000000000000284e+01 2.517534461892736175e+01
4.760000000000000142e+01 2.505441954126144566e+01
4.800000000000000000e+01 2.493203223337359020e+01
4.840000000000000568e+01 2.481137803722906554e+01
4.880000000000000426e+01 2.469241592036433630e+01
4.920000000000000284e+01 2.457510620400166346e+01
4.960000000000000142e+01 2.445696795218662700e+01
5.000000000000000000e+01 2.434016794441713927e+01
5.040000000000000568e+01 2.422493156082267518e+01
5.080000000000000426e+01 2.411122387980838866e+01
5.120000000000000284e+01 2.399901106802652961e+01
5.160000000000000142e+01 2.388826033700537366e+01
5.200000000000000000e+01 2.377893990187757822e+01
5.240000000000000568e+01 2.367101894208881419e+01
5.280000000000000426e+01 2.356446756397492237e+01
5.320000000000000284e+01 2.345925676510347202e+01
5.360000000000000142e+01 2.335535840028192212e+01
5.400000000000000000e+01 2.325274514914089963e+01
5.440000000000000568e+01 2.315139048520697784e+01
5.480000000000000426e+01 2.309572147458591473e+01
5.520000000000000284e+01 2.299991171953891467e+01
5.560000000000000142e+01 2.290523363573012716e+01
5.600000000000000000e+01 2.281166495021421525e+01
5.640000000000000568e+01 2.271918400143842831e+01
5.680000000000000426e+01 2.262776971778631818e+01
5.720000000000000284e+01 2.253740159703588120e+01
5.760000000000000142e+01 2.244805968668622853e+01
5.800000000000000000e+01 2.235972456510966211e+01
5.840000000000000568e+01 2.227237732348861243e+01
5.880000000000000426e+01 2.218599954849904776e+01
5.920000000000000284e+01 2.210057330570403167e+01
5.960000000000000142e+01 2.201608112362342951e+01
6.000000000000000000e+01 2.193250597844725291e+01
6.040000000000000568e+01 2.184983127936229863e+01
6.080000000000000426e+01 2.176804085446302395e+01
6.120000000000000284e+01 2.168711893721941664e+01
6.160000000000000142e+01 2.160669952349922340e+01
6.200000000000000000e+01 2.152705090018530143e+01
6.240000000000000568e+01 2.144823473328614227e+01
6.280000000000000426e+01 2.137023652972211352e+01
6.320000000000000284e+01 2.129304214870133194e+01
6.360000000000000142e+01 2.121663779075752387e+01
6.400000000000000000e+01 2.114100998720274305e+01
6.440000000000000568e+01 2.106614558997619113e+01
6.480000000000001137e+01 2.099203176187203113e+01
6.520000000000000284e+01 2.091865596712918673e+01
6.559999999999999432e+01 2.084600596236768055e+01
6.600000000000000000e+01 2.077406978785634095e+01
6.640000000000000568e+01 2.070283575909770946e+01
6.680000000000001137e+01 2.063229245871649908e+01
6.720000000000000284e+01 2.056242872863892401e+01
6.759999999999999432e+01 2.049323366255046608e+01
6.800000000000000000e+01 2.042469659862050690e+01
6.840000000000000568e+01 2.035680711248268437e+01
6.880000000000001137e+01 2.028955501046044319e+01
6.920000000000000284e+01 2.025264924924363186e+01
6.959999999999999432e+01 2.019115186563888642e+01
7.000000000000000000e+01 2.013021078344298331e+01
7.040000000000000568e+01 2.006981755199707607e+01
7.080000000000001137e+01 2.000996390014680060e+01
7.120000000000000284e+01 1.995064173135987673e+01
7.159999999999999432e+01 1.989184311900512370e+01
7.200000000000000000e+01 1.983356030178680385e+01
7.240000000000000568e+01 1.977578567932805242e+01
7.280000000000001137e+01 1.971851180789799685e+01
7.320000000000000284e+01 1.966173139627664312e+01
7.359999999999999432e+01 1.960543730175266575e+01
7.400000000000000000e+01 1.954962252624898156e+01
7.440000000000000568e+01 1.949428021257119070e+01
7.479999999999999716e+01 1.943940364077439398e+01
7.520000000000000284e+01 1.938498622464407362e+01
7.560000000000000853e+01 1.933102150828665344e+01
7.600000000000000000e+01 1.927750316282586596e+01
7.640000000000000568e+01 1.922442498320097570e+01
7.679999999999999716e+01 1.917178088506320321e+01
7.720000000000000284e+01 1.911935780484287051e+01
7.760000000000000853e+01 1.906734857414885198e+01
7.800000000000000000e+01 1.901575790988697534e+01
7.840000000000000568e+01 1.896458015095959126e+01
7.879999999999999716e+01 1.891380974341838339e+01
7.920000000000000284e+01 1.886344123786584959e+01
7.960000000000000853e+01 1.881346928693359644e+01
8.000000000000000000e+01 1.876388864283452307e+01
8.040000000000000568e+01 1.871469415498650335e+01
8.079999999999999716e+01 1.866588076770508664e+01
8.120000000000000284e+01 1.861744351796275510e+01
8.160000000000000853e+01 1.856937753321268758e+01
8.200000000000000000e+01 1.852167802927459306e+01
8.240000000000000568e+01 1.847434030828073048e+01
8.279999999999999716e+01 1.842735975668001913e+01
8.320000000000000284e+01 1.838073184329829957e+01
8.360000000000000853e+01 1.833445211745291559e+01
8.400000000000000000e+01 1.828851620711981951e+01
8.440000000000000568e+01 1.824291981715142441e+01
8.479999999999999716e+01 1.819765872754372893e+01
8.520000000000000284e+01 1.815272879175081400e+01
8.560000000000000853e+01 1.811115036773702514e+01
8.600000000000000000e+01 1.806711277459771026e+01
8.640000000000000568e+01 1.802339256525579714e+01
8.680000000000001137e+01 1.797998589125442237e+01
8.720000000000000284e+01 1.793688896951485390e+01
8.760000000000000853e+01 1.789409808091198428e+01
8.800000000000000000e+01 1.785160956888778472e+01
8.840000000000000568e+01 1.780941983810125606e+01
8.880000000000001137e+01 1.776752535311385373e+01
8.920000000000000284e+01 1.772519406153950428e+01
8.960000000000000853e+01 1.768263168270512864e+01
9.000000000000000000e+01 1.764036658836811711e+01
9.040000000000000568e+01 1.759839529146306347e+01
9.080000000000001137e+01 1.755671436224618276e+01
9.120000000000000284e+01 1.751532042708608117e+01
9.160000000000000853e+01 1.747421016728560872e+01
9.200000000000000000e+01 1.743338031793383891e+01
9.240000000000000568e+01 1.739282766678731207e+01
9.280000000000001137e+01 1.735254905317955121e+01
9.320000000000000284e+01 1.731254136695820733e+01
9.360000000000000853e+01 1.727280154744875418e+01
9.400000000000000000e+01 1.723332658244421367e+01
9.440000000000000568e+01 1.719407912251941184e+01
9.480000000000001137e+01 1.715506636329161694e+01
9.520000000000000284e+01 1.711630993795752431e+01
9.560000000000000853e+01 1.707780701795680756e+01
9.600000000000000000e+01 1.703955481848787912e+01
9.640000000000000568e+01 1.700155059763874021e+01
9.680000000000001137e+01 1.696379165553893031e+01
9.720000000000000284e+01 1.692627533353179103e+01
9.760000000000000853e+01 1.688899901336671405e+01
9.800000000000000000e+01 1.685196011641064473e+01
9.840000000000000568e+01 1.681515610287828721e+01
9.880000000000001137e+01 1.677858447108064155e+01
9.920000000000000284e+01 1.674224275669116935e+01
9.960000000000000853e+01 1.670612853202926473e+01
1.000000000000000000e+02 1.667023940536039817e+01
1.004000000000000057e+02 1.663457302021262052e+01
1.008000000000000114e+02 1.659912705470890160e+01
1.012000000000000028e+02 1.656389922091481992e+01
1.016000000000000085e+02 1.652888726420133025e+01
1.020000000000000000e+02 1.649408896262206525e+01
1.024000000000000057e+02 1.645950212630483378e+01
1.028000000000000114e+02 1.642512459685696768e+01
1.032000000000000028e+02 1.639095424678406232e+01
1.036000000000000085e+02 1.635698897892184789e+01
1.040000000000000000e+02 1.632034096796558487e+01
1.044000000000000057e+02 1.628702950813431016e+01
1.048000000000000114e+02 1.625391569876764919e+01
1.052000000000000028e+02 1.622099757033494427e+01
1.056000000000000085e+02 1.618827318083605604e+01
1.060000000000000000e+02 1.615574061530691807e+01
1.064000000000000057e+02 1.612339798533599122e+01
1.068000000000000114e+02 1.609124342859123047e+01
1.072000000000000028e+02 1.605927510835736172e+01
1.076000000000000085e+02 1.602749121308315239e+01
1.080000000000000000e+02 1.599588995593840224e+01
1.084000000000000057e+02 1.596446957438053715e+01
1.088000000000000114e+02 1.593322832973038672e+01
1.092000000000000028e+02 1.590216450675706028e+01
1.096000000000000085e+02 1.587127641327155914e+01
1.100000000000000000e+02 1.584056237972907155e+01
1.104000000000000057e+02 1.581002075883957225e+01
1.108000000000000114e+02 1.577964992518661091e+01
1.112000000000000028e+02 1.574944827485407295e+01
1.116000000000000085e+02 1.571941422506070296e+01
1.120000000000000000e+02 1.568954621380219905e+01
1.124000000000000057e+02 1.565984269950072516e+01
1.128000000000000114e+02 1.563030216066161238e+01
1.132000000000000028e+02 1.560092309553710344e+01
1.136000000000000085e+02 1.557153331928348017e+01
1.140000000000000000e+02 1.557996296976613237e+01
1.144000000000000057e+02 1.555206207670355134e+01
1.148000000000000114e+02 1.552430873975957581e+01
1.152000000000000028e+02 1.549670164333927325e+01
1.156000000000000085e+02 1.546923948831581797e+01
1.160000000000000000e+02 1.544192099176552802e+01
1.164000000000000057e+02 1.541474488670820975e+01
1.168000000000000114e+02 1.538770992185251174e+01
1.172000000000000028e+02 1.536081486134626317e+01
1.176000000000000085e+02 1.533405848453164566e+01
1.180000000000000000e+02 1.530743958570511865e+01
1.184000000000000057e+02 1.528095697388195973e+01
1.188000000000000114e+02 1.525460947256535604e+01
1.192000000000000028e+02 1.522839591951985483e+01
1.196000000000000085e+02 1.520231516654919091e+01
1.200000000000000000e+02 1.517636607927833303e+01
1.204000000000000057e+02 1.515054753693961231e+01
1.208000000000000114e+02 1.512485843216295045e+01
1.212000000000000028e+02 1.509929767076999596e+01
1.216000000000000085e+02 1.507386417157209912e+01
1.220000000000000000e+02 1.504855686617213806e+01
1.224000000000000057e+02 1.502337469876995613e+01
1.228000000000000114e+02 1.499831662597145510e+01
1.232000000000000028e+02 1.497338161660117528e+01
1.236000000000000085e+02 1.495134302244875357e+01
1.240000000000000000e+02 1.492686446298801428e+01
1.244000000000000057e+02 1.490250495060695712e+01
1.248000000000000114e+02 1.487826350916397367e+01
1.252000000000000028e+02 1.485413917376076576e+01
1.256000000000000085e+02 1.483013099057577477e+01
1.260000000000000000e+02 1.480623801670075679e+01
1.264000000000000057e+02 1.478245931998019813e+01
1.268000000000000114e+02 1.475879397885366018e+01
1.272000000000000028e+02 1.473524108220094320e+01
1.276000000000000085e+02 1.471179972919001067e+01
1.280000000000000000e+02 1.468846902912758523e+01
1.284000000000000057e+02 1.466524810131247492e+01
1.288000000000000114e+02 1.464213607489136493e+01
1.291999999999999886e+02 1.461913208871728287e+01
1.296000000000000227e+02 1.459623529121044072e+01
1.300000000000000000e+02 1.457344484022156905e+01
1.304000000000000057e+02 1.455075990289763155e+01
1.308000000000000114e+02 1.452817965554982393e+01
1.311999999999999886e+02 1.450570328352395677e+01
1.316000000000000227e+02 1.448332998107295566e+01
1.320000000000000000e+02 1.446105895123167429e+01
1.324000000000000057e+02 1.443888940569373958e+01
1.328000000000000114e+02 1.441682056469062978e+01
1.331999999999999886e+02 1.439485165687271184e+01
1.336000000000000227e+02 1.437298191919233759e+01
1.340000000000000000e+02 1.435120726187079043e+01
1.344000000000000057e+02 1.432948028199774981e+01
1.348000000000000114e+02 1.430785047179394098e+01
1.351999999999999886e+02 1.428631709863219790e+01
1.356000000000000227e+02 1.426487943764728428e+01
1.360000000000000000e+02 1.424353677163006360e+01
1.364000000000000057e+02 1.422228839092352359e+01
1.368000000000000114e+02 1.420113359332049896e+01
1.371999999999999886e+02 1.418007168396303541e+01
1.376000000000000227e+02 1.415910197524349456e+01
1.380000000000000000e+02 1.413822378670723268e+01
1.384000000000000057e+02 1.411743644495686922e+01
1.388000000000000114e+02 1.409662953865914048e+01
1.392000000000000171e+02 1.407572875290511760e+01
1.395999999999999943e+02 1.405491863386373197e+01
1.400000000000000000e+02 1.403419851908546079e+01
1.404000000000000057e+02 1.401356775292285128e+01
1.408000000000000114e+02 1.399302568644058553e+01
1.412000000000000171e+02 1.397257167732715111e+01
1.415999999999999943e+02 1.395220508980780494e+01
1.420000000000000000e+02 1.393192529455897954e+01
1.424000000000000057e+02 1.391173166862411037e+01
1.428000000000000114e+02 1.389162359533069058e+01
1.432000000000000171e+02 1.387160046420876469e+01
1.435999999999999943e+02 1.385166167091063372e+01
1.440000000000000000e+02 1.383180661713183746e+01
1.444000000000000057e+02 1.381203471053344245e+01
1.448000000000000114e+02 1.379234536466546501e+01
1.452000000000000171e+02 1.377197662027141334e+01
1.455999999999999943e+02 1.375258175477911848e+01
1.460000000000000000e+02 1.373326701227095192e+01
1.464000000000000057e+02 1.371403183512891388e+01
1.468000000000000114e+02 1.369487567119014848e+01
1.472000000000000171e+02 1.367579797367824312e+01
1.475999999999999943e+02 1.365679820113562037e+01
1.480000000000000000e+02 1.363787581735697607e+01
1.484000000000000057e+02 1.361903029132367493e+01
1.488000000000000114e+02 1.360026109713921016e+01
1.492000000000000171e+02 1.358156771396561879e+01
1.495999999999999943e+02 1.356294962596086506e+01
1.500000000000000000e+02 1.354440632221713514e+01
