1.000000000000000000e+01 2.760544393156238243e+02
1.040000000000000036e+01 2.853559417432093142e+02
1.080000000000000071e+01 2.900107439955734208e+02
1.119999999999999929e+01 2.837910979214114491e+02
1.159999999999999964e+01 2.780245186231260277e+02
1.200000000000000000e+01 2.726558547442857048e+02
1.240000000000000036e+01 2.676391508921861941e+02
1.280000000000000071e+01 2.629357347142779986e+02
1.319999999999999929e+01 2.585127742430033777e+02
1.359999999999999964e+01 2.543421735972740976e+02
1.400000000000000000e+01 2.503997163272706530e+02
1.440000000000000036e+01 2.466643928154535388e+02
1.480000000000000071e+01 2.431178663867059981e+02
1.519999999999999929e+01 2.397440452800562980e+02
1.560000000000000142e+01 2.365287363485693106e+02
1.600000000000000000e+01 2.334593625249709703e+02
1.639999999999999858e+01 2.305247305236232762e+02
1.680000000000000071e+01 2.277148384762199669e+02
1.719999999999999929e+01 2.250207155759318596e+02
1.760000000000000142e+01 2.224342875760465859e+02
1.800000000000000000e+01 2.199482633227154622e+02
1.839999999999999858e+01 2.175560385151899254e+02
1.880000000000000071e+01 2.152516136645819529e+02
1.920000000000000284e+01 2.130295238237670787e+02
1.960000000000000142e+01 2.108847781301259943e+02
2.000000000000000000e+01 2.088128075713053420e+02
2.039999999999999858e+01 2.068094196756723022e+02
2.080000000000000071e+01 2.048707590612520733e+02
2.120000000000000284e+01 2.029932729629215657e+02
2.160000000000000142e+01 2.011736810075358903e+02
2.200000000000000000e+01 1.994089486281600614e+02
2.239999999999999858e+01 1.976962636075732576e+02
2.280000000000000071e+01 1.960330153222811020e+02
2.320000000000000284e+01 1.944167763249765244e+02
2.360000000000000142e+01 1.928452859585264321e+02
2.400000000000000000e+01 1.913164357403374254e+02
2.439999999999999858e+01 1.898282562941114406e+02
2.480000000000000071e+01 1.883789056379405054e+02
2.520000000000000284e+01 1.869666586645201107e+02
2.560000000000000142e+01 1.855898976718855522e+02
2.600000000000000000e+01 1.842471038222156494e+02
2.640000000000000213e+01 1.829368494225024619e+02
2.680000000000000071e+01 1.816577909347233799e+02
2.719999999999999929e+01 1.804086626349767926e+02
2.760000000000000142e+01 1.791882708511753890e+02
2.800000000000000000e+01 1.779954887175947533e+02
2.840000000000000213e+01 1.768292513920790157e+02
2.880000000000000071e+01 1.756885516881829119e+02
2.920000000000000284e+01 1.745724360801467014e+02
2.960000000000000142e+01 1.734800010434722140e+02
3.000000000000000000e+01 1.724103896981104640e+02
3.040000000000000213e+01 1.713627887249737682e+02
3.080000000000000071e+01 1.703364255297198042e+02
3.120000000000000284e+01 1.693305656305902573e+02
3.160000000000000142e+01 1.683445102495764729e+02
3.200000000000000000e+01 1.673775940883746784e+02
3.240000000000000568e+01 1.664291832725237441e+02
3.279999999999999716e+01 1.654986734488242064e+02
3.320000000000000284e+01 1.645854880226447960e+02
3.360000000000000142e+01 1.636890765230626812e+02
3.400000000000000000e+01 1.628089130849682533e+02
3.440000000000000568e+01 1.619444950383239075e+02
3.479999999999999716e+01 1.610953415957066284e+02
3.520000000000000284e+01 1.602609926301031180e+02
3.560000000000000142e+01 1.594410075356782954e+02
3.600000000000000000e+01 1.586349641649089222e+02
3.640000000000000568e+01 1.578424578360755675e+02
3.679999999999999716e+01 1.570631004056485835e+02
3.720000000000000284e+01 1.562965194005872149e+02
3.760000000000000142e+01 1.555423572060111042e+02
3.800000000000000000e+01 1.548002703040945391e+02
3.840000000000000568e+01 1.540699285603924409e+02
3.879999999999999716e+01 1.533510145541269765e+02
3.920000000000000284e+01 1.526432229492543797e+02
3.960000000000000142e+01 1.519462599033963102e+02
4.000000000000000000e+01 1.512598425119571175e+02
4.040000000000000568e+01 1.505836982849677952e+02
4.079999999999999716e+01 1.499175646543914411e+02
4.120000000000000284e+01 1.492611885098074822e+02
4.160000000000000142e+01 1.486143257605529868e+02
4.200000000000000000e+01 1.479767409225501069e+02
4.239999999999999858e+01 1.473482067281830723e+02
4.280000000000000426e+01 1.467285037577136677e+02
4.320000000000000284e+01 1.461174200908378396e+02
4.360000000000000142e+01 1.455147509770879424e+02
4.400000000000000000e+01 1.449202985238840142e+02
4.439999999999999858e+01 1.443338714011217121e+02
4.480000000000000426e+01 1.437552845612660803e+02
4.520000000000000284e+01 1.431843589739944775e+02
4.560000000000000142e+01 1.426209213744983515e+02
4.600000000000000000e+01 1.420648040246180130e+02
4.639999999999999858e+01 1.415158444860395548e+02
4.680000000000000426e+01 1.409738854048378585e+02
4.720000000000000284e+01 1.404387743066979795e+02
4.760000000000000142e+01 1.399103634021920470e+02
4.800000000000000000e+01 1.393885094015302570e+02
4.840000000000000568e+01 1.388730733382443532e+02
4.880000000000000426e+01 1.383639204012958430e+02
4.920000000000000284e+01 1.378609197751355850e+02
4.960000000000000142e+01 1.373639444872713966e+02
5.000000000000000000e+01 1.368728712629287259e+02
5.040000000000000568e+01 1.363875803864161185e+02
5.080000000000000426e+01 1.359079555688307437e+02
5.120000000000000284e+01 1.354338838217633167e+02
5.160000000000000142e+01 1.349652553366814800e+02
5.200000000000000000e+01 1.345019633696913104e+02
5.240000000000000568e+01 1.340439041313944699e+02
5.280000000000000426e+01 1.335909766815757393e+02
5.320000000000000284e+01 1.331430828284712220e+02
5.360000000000000142e+01 1.327001270323826247e+02
5.400000000000000000e+01 1.322620163134172060e+02
5.440000000000000568e+01 1.318286601631442920e+02
5.480000000000000426e+01 1.313999704599737584e+02
5.520000000000000284e+01 1.309758613880709390e+02
5.560000000000000142e+01 1.305562493596339095e+02
5.600000000000000000e+01 1.301410529403691498e+02
5.640000000000000568e+01 1.297301927780105757e+02
5.680000000000000426e+01 1.293235915337346569e+02
5.720000000000000284e+01 1.289211738163348286e+02
5.760000000000000142e+01 1.285228661190226944e+02
5.800000000000000000e+01 1.281285967587338916e+02
5.840000000000000568e+01 1.277382958178206707e+02
5.880000000000000426e+01 1.273518950880212799e+02
5.920000000000000284e+01 1.269693280166007696e+02
5.960000000000000142e+01 1.265905296545643210e+02
6.000000000000000000e+01 1.262154366068490958e+02
6.040000000000000568e+01 1.258439869844054897e+02
6.080000000000000426e+01 1.254761203580831932e+02
6.120000000000000284e+01 1.251117777142419243e+02
6.160000000000000142e+01 1.247509014120110322e+02
6.200000000000000000e+01 1.243934351421253268e+02
6.240000000000000568e+01 1.240393238872688499e+02
6.280000000000000426e+01 1.236885138838617877e+02
6.320000000000000284e+01 1.233409525852276545e+02
6.360000000000000142e+01 1.229965886260830246e+02
6.400000000000000000e+01 1.226553717882931380e+02
6.440000000000000568e+01 1.223172529678402327e+02
6.480000000000001137e+01 1.219821841429543383e+02
6.520000000000000284e+01 1.216501183433576756e+02
6.559999999999999432e+01 1.213210096205773851e+02
6.600000000000000000e+01 1.209948130192823612e+02
6.640000000000000568e+01 1.206714845496026669e+02
6.680000000000001137e+01 1.203509811603921094e+02
6.720000000000000284e+01 1.200332607133951086e+02
6.759999999999999432e+01 1.197182819582832565e+02
6.800000000000000000e+01 1.194060045085254984e+02
6.840000000000000568e+01 1.190963888180604044e+02
6.880000000000001137e+01 1.187893961587378726e+02
6.920000000000000284e+01 1.184849885985015305e+02
6.959999999999999432e+01 1.181831289802818930e+02
7.000000000000000000e+01 1.178837809015742977e+02
7.040000000000000568e+01 1.175869086946739799e+02
7.080000000000001137e+01 1.172924774075447374e+02
7.120000000000000284e+01 1.170004527852958347e+02
7.159999999999999432e+01 1.167108012522457727e+02
7.200000000000000000e+01 1.164234898945495047e+02
7.240000000000000568e+01 1.161384864433695441e+02
7.280000000000001137e+01 1.158557592585698615e+02
7.320000000000000284e+01 1.155752773129140962e+02
7.359999999999999432e+01 1.152970101767490547e+02
7.400000000000000000e+01 1.150209280031565129e+02
7.440000000000000568e+01 1.147470015135561425e+02
7.479999999999999716e+01 1.144752019837431618e+02
7.520000000000000284e+01 1.142055012303456039e+02
7.560000000000000853e+01 1.139378715976860974e+02
7.600000000000000000e+01 1.136722859450340479e+02
7.640000000000000568e+01 1.134087176342343071e+02
7.679999999999999716e+01 1.131471405176993130e+02
7.720000000000000284e+01 1.128875289267521964e+02
7.760000000000000853e+01 1.126298576603086303e+02
7.800000000000000000e+01 1.123741019738858427e+02
7.840000000000000568e+01 1.121202375689274504e+02
7.879999999999999716e+01 1.118682405824338559e+02
7.920000000000000284e+01 1.116180875768871772e+02
7.960000000000000853e+01 1.113697555304616884e+02
8.000000000000000000e+01 1.111232218275093828e+02
8.040000000000000568e+01 1.108784642493122021e+02
8.079999999999999716e+01 1.106354609650915819e+02
8.120000000000000284e+01 1.103941905232671701e+02
8.160000000000000853e+01 1.101546318429567322e+02
8.200000000000000000e+01 1.099167642057086312e+02
8.240000000000000568e+01 1.096805672474604023e+02
8.279999999999999716e+01 1.094460209507152513e+02
8.320000000000000284e+01 1.092131056369299529e+02
8.360000000000000853e+01 1.089818019591073721e+02
8.400000000000000000e+01 1.087520908945868712e+02
8.440000000000000568e+01 1.085239537380266768e+02
8.479999999999999716e+01 1.082973720945719265e+02
8.520000000000000284e+01 1.080723278732027666e+02
8.560000000000000853e+01 1.078488032802566607e+02
8.600000000000000000e+01 1.076267808131198365e+02
8.640000000000000568e+01 1.074062432540823977e+02
8.680000000000001137e+01 1.071871736643522723e+02
8.720000000000000284e+01 1.069695553782229496e+02
8.760000000000000853e+01 1.067533719973903317e+02
8.800000000000000000e+01 1.065386073854147924e+02
8.840000000000000568e+01 1.063252456623228284e+02
8.880000000000001137e+01 1.061132711993457036e+02
8.920000000000000284e+01 1.059026686137895155e+02
8.960000000000000853e+01 1.056934227640337411e+02
9.000000000000000000e+01 1.054855187446542999e+02
9.040000000000000568e+01 1.052789418816670661e+02
9.080000000000001137e+01 1.050736777278887928e+02
9.120000000000000284e+01 1.048697120584118636e+02
9.160000000000000853e+01 1.046670308661892363e+02
9.200000000000000000e+01 1.044656203577273317e+02
9.240000000000000568e+01 1.042654669488823060e+02
9.280000000000001137e+01 1.040665572607583442e+02
9.320000000000000284e+01 1.038688781157038648e+02
9.360000000000000853e+01 1.036724165334034637e+02
9.400000000000000000e+01 1.034771597270627694e+02
9.440000000000000568e+01 1.032830950996835213e+02
9.480000000000001137e+01 1.030902102404263303e+02
9.520000000000000284e+01 1.028984929210589883e+02
9.560000000000000853e+01 1.027079310924874562e+02
9.600000000000000000e+01 1.025185128813676556e+02
9.640000000000000568e+01 1.023302265867957033e+02
9.680000000000001137e+01 1.021430606770743310e+02
9.720000000000000284e+01 1.019570037865536989e+02
9.760000000000000853e+01 1.017720447125442575e+02
9.800000000000000000e+01 1.015881724122999827e+02
9.840000000000000568e+01 1.014053760000697650e+02
9.880000000000001137e+01 1.012236447442157186e+02
9.920000000000000284e+01 1.010429680643957653e+02
9.960000000000000853e+01 1.008633355288096993e+02
1.000000000000000000e+02 1.006847368515063721e+02
1.004000000000000057e+02 1.005071618897506198e+02
1.008000000000000114e+02 1.003306006414485694e+02
1.012000000000000028e+02 1.001550432426294890e+02
1.016000000000000085e+02 9.998047996498270606e+01
1.020000000000000000e+02 9.980690121344863996e+01
1.024000000000000057e+02 9.963429752386176119e+01
1.028000000000000114e+02 9.946265956064513603e+01
1.032000000000000028e+02 9.929197811455404121e+01
1.036000000000000085e+02 9.912224410046863454e+01
1.040000000000000000e+02 9.895344855523350702e+01
1.044000000000000057e+02 9.878558263554333507e+01
1.048000000000000114e+02 9.861863761587349586e+01
1.052000000000000028e+02 9.845260488645433838e+01
1.056000000000000085e+02 9.828747595128811554e+01
1.060000000000000000e+02 9.812324242620766768e+01
1.064000000000000057e+02 9.795989603697532289e+01
1.068000000000000114e+02 9.779742861742172977e+01
1.072000000000000028e+02 9.763583210762317321e+01
1.076000000000000085e+02 9.747509855211623631e+01
1.080000000000000000e+02 9.731522009814973728e+01
1.084000000000000057e+02 9.715618899397192365e+01
1.088000000000000114e+02 9.699799758715309395e+01
1.092000000000000028e+02 9.684063832294197027e+01
1.096000000000000085e+02 9.668410374265566531e+01
1.100000000000000000e+02 9.652838648210199324e+01
1.104000000000000057e+02 9.637347927003347081e+01
1.108000000000000114e+02 9.621937492663235503e+01
1.112000000000000028e+02 9.606606636202607774e+01
1.116000000000000085e+02 9.591354657483176993e+01
1.120000000000000000e+02 9.576180865073013138e+01
1.124000000000000057e+02 9.561084576106705413e+01
1.128000000000000114e+02 9.546065116148295715e+01
1.132000000000000028e+02 9.531121819056888000e+01
1.136000000000000085e+02 9.516254026854898029e+01
1.140000000000000000e+02 9.501461089598834064e+01
1.144000000000000057e+02 9.486742365252614206e+01
1.148000000000000114e+02 9.472097219563315207e+01
1.152000000000000028e+02 9.457525025939310126e+01
1.156000000000000085e+02 9.443025165330746518e+01
1.160000000000000000e+02 9.428597026112316826e+01
1.164000000000000057e+02 9.414240003968239989e+01
1.168000000000000114e+02 9.399953501779440046e+01
1.172000000000000028e+02 9.385736929512857785e+01
1.176000000000000085e+02 9.371589704112841446e+01
1.180000000000000000e+02 9.357511249394576680e+01
1.184000000000000057e+02 9.343500995939510290e+01
1.188000000000000114e+02 9.329558380992732225e+01
1.192000000000000028e+02 9.315682848362239099e+01
1.196000000000000085e+02 9.301873848320107641e+01
1.200000000000000000e+02 9.288130837505428872e+01
1.204000000000000057e+02 9.274453278829081171e+01
1.208000000000000114e+02 9.260840641380227112e+01
1.212000000000000028e+02 9.247292400334514184e+01
1.216000000000000085e+02 9.233808036863945290e+01
1.220000000000000000e+02 9.220387038048397699e+01
1.224000000000000057e+02 9.207028896788723671e+01
1.228000000000000114e+02 9.193733111721427065e+01
1.232000000000000028e+02 9.180499187134880401e+01
1.236000000000000085e+02 9.167326632887005644e+01
1.240000000000000000e+02 9.154214964324472703e+01
1.244000000000000057e+02 9.141163702203292019e+01
1.248000000000000114e+02 9.128172372610835339e+01
1.252000000000000028e+02 9.115240506889237793e+01
1.256000000000000085e+02 9.102367641560122991e+01
1.260000000000000000e+02 9.089553318250682423e+01
1.264000000000000057e+02 9.076797083621009676e+01
1.268000000000000114e+02 9.064098489292739202e+01
1.272000000000000028e+02 9.051457091778900121e+01
1.276000000000000085e+02 9.038872452414983627e+01
1.280000000000000000e+02 9.026344137291221159e+01
1.284000000000000057e+02 9.013871717186005128e+01
1.288000000000000114e+02 9.001454767500464982e+01
1.291999999999999886e+02 8.989092868194147457e+01
1.296000000000000227e+02 8.976785603721820905e+01
1.300000000000000000e+02 8.964532562971315599e+01
1.304000000000000057e+02 8.952333339202446894e+01
1.308000000000000114e+02 8.940187529986957315e+01
1.311999999999999886e+02 8.928094737149466198e+01
1.316000000000000227e+02 8.916054566709416918e+01
1.320000000000000000e+02 8.904066628823990470e+01
1.324000000000000057e+02 8.892130537731968332e+01
1.328000000000000114e+02 8.880245911698543182e+01
1.331999999999999886e+02 8.868412372961020651e+01
1.336000000000000227e+02 8.856629547675431979e+01
1.340000000000000000e+02 8.844897065864026331e+01
1.344000000000000057e+02 8.833214561363621442e+01
1.348000000000000114e+02 8.821581671774801237e+01
1.351999999999999886e+02 8.809998038411936250e+01
1.356000000000000227e+02 8.798463306254026861e+01
1.360000000000000000e+02 8.786977123896338071e+01
1.364000000000000057e+02 8.775539143502814454e+01
1.368000000000000114e+02 8.764149020759263919e+01
1.371999999999999886e+02 8.752806414827300330e+01
1.376000000000000227e+02 8.741510988299012297e+01
1.380000000000000000e+02 8.730262407152360993e+01
1.384000000000000057e+02 8.719060340707295609e+01
1.388000000000000114e+02 8.707904461582553779e+01
1.392000000000000171e+02 8.696794445653159755e+01
1.395999999999999943e+02 8.685729972008572020e+01
1.400000000000000000e+02 8.674710722911507332e+01
1.404000000000000057e+02 8.663736383757421322e+01
1.408000000000000114e+02 8.652806643034590195e+01
1.412000000000000171e+02 8.641921192284840458e+01
1.415999999999999943e+02 8.631079726064888291e+01
1.420000000000000000e+02 8.620281941908258716e+01
1.424000000000000057e+02 8.609527540287825786e+01
1.428000000000000114e+02 8.598816224578902734e+01
1.432000000000000171e+02 8.588147701022907654e+01
1.435999999999999943e+02 8.577521678691600471e+01
1.440000000000000000e+02 8.566937869451842857e+01
1.444000000000000057e+02 8.556395987930910962e+01
1.448000000000000114e+02 8.545895751482342462e+01
1.452000000000000171e+02 8.535436880152275307e+01
1.455999999999999943e+02 8.525019096646323646e+01
1.460000000000000000e+02 8.514642126296934066e+01
1.464000000000000057e+02 8.504305697031243483e+01
1.468000000000000114e+02 8.494009539339410253e+01
1.472000000000000171e+02 8.483753386243434136e+01
1.475999999999999943e+02 8.473536973266418215e+01
1.480000000000000000e+02 8.463360038402305463e+01
1.484000000000000057e+02 8.453222322086057261e+01
1.488000000000000114e+02 8.443123567164279564e+01
1.492000000000000171e+02 8.433063518866271124e+01
1.495999999999999943e+02 8.423041924775498046e+01
1.500000000000000000e+02 8.413058534801510291e+01
