1.000000000000000000e+01 1.533898111333431302e+02
1.040000000000000036e+01 1.675651648239922906e+02
1.080000000000000071e+01 1.788758119934267086e+02
1.119999999999999929e+01 1.970372591570744021e+02
1.159999999999999964e+01 2.357390620581082317e+02
1.200000000000000000e+01 2.655856352573716777e+02
1.240000000000000036e+01 2.946098289288615319e+02
1.280000000000000071e+01 3.091912651710704267e+02
1.319999999999999929e+01 3.203368296078024287e+02
1.359999999999999964e+01 3.385191989075016181e+02
1.400000000000000000e+01 3.676616057416512717e+02
1.440000000000000036e+01 4.154307734892558983e+02
1.480000000000000071e+01 4.158476476789129492e+02
1.519999999999999929e+01 4.073866906916072708e+02
1.560000000000000142e+01 3.995229321399243076e+02
1.600000000000000000e+01 3.921851963330965418e+02
1.639999999999999858e+01 3.853140017444907812e+02
1.680000000000000071e+01 3.788591529648297183e+02
1.719999999999999929e+01 3.727779207410549134e+02
1.760000000000000142e+01 3.670336457768351011e+02
1.800000000000000000e+01 3.615946532041018031e+02
1.839999999999999858e+01 3.564333983694460812e+02
1.880000000000000071e+01 3.515257872714938685e+02
1.920000000000000284e+01 3.468506305463747594e+02
1.960000000000000142e+01 3.423892007565805784e+02
2.000000000000000000e+01 3.381248704360368720e+02
2.039999999999999858e+01 3.340428138805700087e+02
2.080000000000000071e+01 3.301297597080746300e+02
2.120000000000000284e+01 3.263737841897590783e+02
2.160000000000000142e+01 3.227641375752062913e+02
2.200000000000000000e+01 3.192910973088721107e+02
2.239999999999999858e+01 3.159458433108106874e+02
2.280000000000000071e+01 3.127203514740783135e+02
2.320000000000000284e+01 3.096073022902955927e+02
2.360000000000000142e+01 3.066000021075942641e+02
2.400000000000000000e+01 3.036923149915260183e+02
2.439999999999999858e+01 3.008786035289811025e+02
2.480000000000000071e+01 2.981536772098104962e+02
2.520000000000000284e+01 2.955127472572928582e+02
2.560000000000000142e+01 2.929513869694336563e+02
2.600000000000000000e+01 2.904654967879933452e+02
2.640000000000000213e+01 2.880512734385401927e+02
2.680000000000000071e+01 2.857051825884747700e+02
2.719999999999999929e+01 2.834239345553779685e+02
2.760000000000000142e+01 2.812044626687280697e+02
2.800000000000000000e+01 2.790439039467907492e+02
2.840000000000000213e+01 2.769395817995400080e+02
2.880000000000000071e+01 2.748889905095723520e+02
2.920000000000000284e+01 2.728897812775509806e+02
2.960000000000000142e+01 2.709397496479075471e+02
3.000000000000000000e+01 2.690368241552558857e+02
3.040000000000000213e+01 2.671790560529884715e+02
3.080000000000000071e+01 2.653646100034476376e+02
3.120000000000000284e+01 2.635917556243886111e+02
3.160000000000000142e+01 2.618588597995983491e+02
3.200000000000000000e+01 2.601643796728451434e+02
3.240000000000000568e+01 2.585068562540858466e+02
3.279999999999999716e+01 2.568849085752966630e+02
3.320000000000000284e+01 2.552972283406052725e+02
3.360000000000000142e+01 2.537425750217647931e+02
3.400000000000000000e+01 2.522197713555399616e+02
3.440000000000000568e+01 2.507276992044225494e+02
3.479999999999999716e+01 2.492652957463184578e+02
3.520000000000000284e+01 2.478315499625633436e+02
3.560000000000000142e+01 2.464254993968866643e+02
3.600000000000000000e+01 2.450462271608150502e+02
3.640000000000000568e+01 2.436928591635409020e+02
3.679999999999999716e+01 2.423645615465239871e+02
3.720000000000000284e+01 2.410605383050753687e+02
3.760000000000000142e+01 2.397800290809350372e+02
3.800000000000000000e+01 2.385223071114178310e+02
3.840000000000000568e+01 2.372866773220957270e+02
3.879999999999999716e+01 2.360724745512237632e+02
3.920000000000000284e+01 2.348790618952289151e+02
3.960000000000000142e+01 2.337058291655688436e+02
4.000000000000000000e+01 2.325521914481591068e+02
4.040000000000000568e+01 2.314175877573617868e+02
4.079999999999999716e+01 2.303014797772451061e+02
4.120000000000000284e+01 2.292033506834672778e+02
4.160000000000000142e+01 2.281227040397176324e+02
4.200000000000000000e+01 2.270590627631706582e+02
4.239999999999999858e+01 2.260119681538824352e+02
4.280000000000000426e+01 2.249809789834831406e+02
4.320000000000000284e+01 2.239656706389091596e+02
4.360000000000000142e+01 2.229656343172667334e+02
4.400000000000000000e+01 2.219804762682373109e+02
4.439999999999999858e+01 2.210098170807242468e+02
4.480000000000000426e+01 2.200532910107028783e+02
4.520000000000000284e+01 2.191105453474750675e+02
4.560000000000000142e+01 2.181812398157475741e+02
4.600000000000000000e+01 2.172650460111521511e+02
4.639999999999999858e+01 2.163616468670075506e+02
4.680000000000000426e+01 2.154707361502886442e+02
4.720000000000000284e+01 2.145920179849212559e+02
4.760000000000000142e+01 2.137252064006581236e+02
4.800000000000000000e+01 2.128700249059226053e+02
4.840000000000000568e+01 2.120262060831194049e+02
4.880000000000000426e+01 2.111934912050234061e+02
4.920000000000000284e+01 2.103716298709527450e+02
4.960000000000000142e+01 2.095603796615262695e+02
5.000000000000000000e+01 2.087595058108870205e+02
5.040000000000000568e+01 2.079687808953518129e+02
5.080000000000000426e+01 2.071879845375179343e+02
5.120000000000000284e+01 2.064169031249219870e+02
5.160000000000000142e+01 2.056553295424104704e+02
5.200000000000000000e+01 2.049030629174324361e+02
5.240000000000000568e+01 2.041599083775217309e+02
5.280000000000000426e+01 2.034256768192798290e+02
5.320000000000000284e+01 2.027001846882180303e+02
5.360000000000000142e+01 2.019832537688572529e+02
5.400000000000000000e+01 2.012747109845224429e+02
5.440000000000000568e+01 2.005743882063037802e+02
5.480000000000000426e+01 1.998821220706909116e+02
5.520000000000000284e+01 1.991977538054151466e+02
5.560000000000000142e+01 1.985211290630654162e+02
5.600000000000000000e+01 1.978520977620683539e+02
5.640000000000000568e+01 1.971905139346481519e+02
5.680000000000000426e+01 1.965362355814062880e+02
5.720000000000000284e+01 1.958891245321801193e+02
5.760000000000000142e+01 1.952490463128613385e+02
5.800000000000000000e+01 1.946158700178735330e+02
5.840000000000000568e+01 1.939894681880248015e+02
5.880000000000000426e+01 1.933697166934691722e+02
5.920000000000000284e+01 1.927564946215239274e+02
5.960000000000000142e+01 1.921496841691062798e+02
6.000000000000000000e+01 1.915491705395640452e+02
6.040000000000000568e+01 1.909548418436897350e+02
6.080000000000000426e+01 1.903665890047172411e+02
6.120000000000000284e+01 1.897843056671126476e+02
6.160000000000000142e+01 1.892078881089798301e+02
6.200000000000000000e+01 1.886372351579129827e+02
6.240000000000000568e+01 1.880722481101345238e+02
6.280000000000000426e+01 1.875128306527691393e+02
6.320000000000000284e+01 1.869588887891079594e+02
6.360000000000000142e+01 1.864103307667295439e+02
6.400000000000000000e+01 1.858670670083476750e+02
6.440000000000000568e+01 1.853290100452637716e+02
6.480000000000001137e+01 1.847960744533085631e+02
6.520000000000000284e+01 1.842681767911636257e+02
6.559999999999999432e+01 1.837452355409571965e+02
6.600000000000000000e+01 1.832271710510365210e+02
6.640000000000000568e+01 1.827139054808222340e+02
6.680000000000001137e+01 1.822053627476552720e+02
6.720000000000000284e+01 1.817014684755509677e+02
6.759999999999999432e+01 1.812021499457810023e+02
6.800000000000000000e+01 1.807073360492041161e+02
6.840000000000000568e+01 1.802169572402751214e+02
6.880000000000001137e+01 1.797309454926593730e+02
6.920000000000000284e+01 1.792492342563902525e+02
6.959999999999999432e+01 1.787717584165023936e+02
7.000000000000000000e+01 1.782984542530844010e+02
7.040000000000000568e+01 1.778292594026901554e+02
7.080000000000001137e+01 1.773641128210572333e+02
7.120000000000000284e+01 1.769029547470777857e+02
7.159999999999999432e+01 1.764457266679734744e+02
7.200000000000000000e+01 1.759923712856266889e+02
7.240000000000000568e+01 1.755428324840225400e+02
7.280000000000001137e+01 1.750970552977587431e+02
7.320000000000000284e+01 1.746549858815814673e+02
7.359999999999999432e+01 1.742165714809081578e+02
7.400000000000000000e+01 1.737817604032995291e+02
7.440000000000000568e+01 1.733505019908442364e+02
7.479999999999999716e+01 1.729227465934226018e+02
7.520000000000000284e+01 1.724984455428151762e+02
7.560000000000000853e+01 1.720775511276253837e+02
7.600000000000000000e+01 1.716600165689864070e+02
7.640000000000000568e+01 1.712457959970220145e+02
7.679999999999999716e+01 1.708348444280352396e+02
7.720000000000000284e+01 1.704271177423968311e+02
7.760000000000000853e+01 1.700225726631096563e+02
7.800000000000000000e+01 1.696211667350232233e+02
7.840000000000000568e+01 1.692228583046763219e+02
7.879999999999999716e+01 1.688276065007439115e+02
7.920000000000000284e+01 1.684353712150685567e+02
7.960000000000000853e+01 1.680461130842542161e+02
8.000000000000000000e+01 1.676597934718039369e+02
8.040000000000000568e+01 1.672763744507811339e+02
8.079999999999999716e+01 1.668958187869779408e+02
8.120000000000000284e+01 1.665180899225717894e+02
8.160000000000000853e+01 1.661431519602537321e+02
8.200000000000000000e+01 1.657709696478136721e+02
8.240000000000000568e+01 1.654015083631642256e+02
8.279999999999999716e+01 1.650347340997921606e+02
8.320000000000000284e+01 1.646706134526193068e+02
8.360000000000000853e+01 1.643091136042622225e+02
8.400000000000000000e+01 1.639502023116754685e+02
8.440000000000000568e+01 1.635938478931667532e+02
8.479999999999999716e+01 1.632400192157713832e+02
8.520000000000000284e+01 1.628886856829744829e+02
8.560000000000000853e+01 1.625398172227693294e+02
8.600000000000000000e+01 1.621933842760414564e+02
8.640000000000000568e+01 1.618493577852672161e+02
8.680000000000001137e+01 1.615077091835178749e+02
8.720000000000000284e+01 1.611684103837581006e+02
8.760000000000000853e+01 1.608314337684309692e+02
8.800000000000000000e+01 1.604967521793192304e+02
8.840000000000000568e+01 1.601643389076748747e+02
8.880000000000001137e+01 1.598341676846083885e+02
8.920000000000000284e+01 1.595062126717294859e+02
8.960000000000000853e+01 1.591804484520320102e+02
9.000000000000000000e+01 1.588568500210146794e+02
9.040000000000000568e+01 1.585353927780314507e+02
9.080000000000001137e+01 1.582160525178634884e+02
9.120000000000000284e+01 1.578988054225070812e+02
9.160000000000000853e+01 1.575836280531697184e+02
9.200000000000000000e+01 1.572704973424693264e+02
9.240000000000000568e+01 1.569593905868296986e+02
9.280000000000001137e+01 1.566502854390668347e+02
9.320000000000000284e+01 1.563431599011600213e+02
9.360000000000000853e+01 1.560379923172026793e+02
9.400000000000000000e+01 1.557347613665274935e+02
9.440000000000000568e+01 1.554334460570005376e+02
9.480000000000001137e+01 1.551340257184798759e+02
9.520000000000000284e+01 1.548364799964337237e+02
9.560000000000000853e+01 1.545407888457132799e+02
9.600000000000000000e+01 1.542469325244761649e+02
9.640000000000000568e+01 1.539548915882561460e+02
9.680000000000001137e+01 1.536646468841746014e+02
9.720000000000000284e+01 1.533761795452903414e+02
9.760000000000000853e+01 1.530894709850831248e+02
9.800000000000000000e+01 1.528045028920679158e+02
9.840000000000000568e+01 1.525212572245355034e+02
9.880000000000001137e+01 1.522397162054165278e+02
9.920000000000000284e+01 1.519598623172653049e+02
9.960000000000000853e+01 1.516816782973597810e+02
1.000000000000000000e+02 1.514051471329151468e+02
1.004000000000000057e+02 1.511302520564074143e+02
1.008000000000000114e+02 1.508569765410041725e+02
1.012000000000000028e+02 1.505853042960997641e+02
1.016000000000000085e+02 1.503152192629517003e+02
1.020000000000000000e+02 1.500467056104159269e+02
1.024000000000000057e+02 1.497797477307783254e+02
1.028000000000000114e+02 1.495143302356793242e+02
1.032000000000000028e+02 1.492504379521299427e+02
1.036000000000000085e+02 1.489880559186164817e+02
1.040000000000000000e+02 1.487271693812911622e+02
1.044000000000000057e+02 1.484677637902472043e+02
1.048000000000000114e+02 1.482098247958755906e+02
1.052000000000000028e+02 1.479533382453014383e+02
1.056000000000000085e+02 1.476982901788983895e+02
1.060000000000000000e+02 1.474446668268782901e+02
1.064000000000000057e+02 1.471924546059547367e+02
1.068000000000000114e+02 1.469416401160785881e+02
1.072000000000000028e+02 1.466922101372432508e+02
1.076000000000000085e+02 1.464441516263584333e+02
1.080000000000000000e+02 1.461974517141901515e+02
1.084000000000000057e+02 1.459520977023657622e+02
1.088000000000000114e+02 1.457080770604422355e+02
1.092000000000000028e+02 1.454653774230359602e+02
1.096000000000000085e+02 1.452239865870124333e+02
1.100000000000000000e+02 1.449838925087350958e+02
1.104000000000000057e+02 1.447450833013709541e+02
1.108000000000000114e+02 1.445075472322519374e+02
1.112000000000000028e+02 1.442712727202908525e+02
1.116000000000000085e+02 1.440362483334503167e+02
1.120000000000000000e+02 1.438024627862634475e+02
1.124000000000000057e+02 1.435699049374051413e+02
1.128000000000000114e+02 1.433385637873125233e+02
1.132000000000000028e+02 1.431084284758536285e+02
1.136000000000000085e+02 1.428794882800434038e+02
1.140000000000000000e+02 1.426517326118046185e+02
1.144000000000000057e+02 1.424251510157746452e+02
1.148000000000000114e+02 1.421997331671552161e+02
1.152000000000000028e+02 1.419754688696050948e+02
1.156000000000000085e+02 1.417523480531744724e+02
1.160000000000000000e+02 1.415303607722799768e+02
1.164000000000000057e+02 1.413094972037194452e+02
1.168000000000000114e+02 1.410897476447255769e+02
1.172000000000000028e+02 1.408711025110574724e+02
1.176000000000000085e+02 1.406535523351292056e+02
1.180000000000000000e+02 1.404370877641747484e+02
1.184000000000000057e+02 1.402216995584478809e+02
1.188000000000000114e+02 1.400073785894574030e+02
1.192000000000000028e+02 1.397941158382352569e+02
1.196000000000000085e+02 1.395819023936382166e+02
1.200000000000000000e+02 1.393707294506818641e+02
1.204000000000000057e+02 1.391605883089058011e+02
1.208000000000000114e+02 1.389514703707700676e+02
1.212000000000000028e+02 1.387433671400811477e+02
1.216000000000000085e+02 1.385362702204483867e+02
1.220000000000000000e+02 1.383301713137681475e+02
1.224000000000000057e+02 1.381250622187371278e+02
1.228000000000000114e+02 1.379209348293924506e+02
1.232000000000000028e+02 1.377177811336794377e+02
1.236000000000000085e+02 1.375155932120451325e+02
1.240000000000000000e+02 1.373143632360581989e+02
1.244000000000000057e+02 1.371140834670534048e+02
1.248000000000000114e+02 1.369147462548015426e+02
1.252000000000000028e+02 1.367163440362028552e+02
1.256000000000000085e+02 1.365188693340046768e+02
1.260000000000000000e+02 1.363223147555416404e+02
1.264000000000000057e+02 1.361266729914990208e+02
1.268000000000000114e+02 1.359319368146979912e+02
1.272000000000000028e+02 1.357380990789026214e+02
1.276000000000000085e+02 1.355451527176481932e+02
1.280000000000000000e+02 1.353530907430900072e+02
1.284000000000000057e+02 1.351619062448730233e+02
1.288000000000000114e+02 1.349715923890209410e+02
1.291999999999999886e+02 1.347821424168453461e+02
1.296000000000000227e+02 1.345935496438731036e+02
1.300000000000000000e+02 1.344058074587935323e+02
1.304000000000000057e+02 1.342189093224230589e+02
1.308000000000000114e+02 1.340328487666880903e+02
1.311999999999999886e+02 1.338476193936256777e+02
1.316000000000000227e+02 1.336632148744009783e+02
1.320000000000000000e+02 1.334796289483421958e+02
1.324000000000000057e+02 1.332968554219911255e+02
1.328000000000000114e+02 1.331148881681708929e+02
1.331999999999999886e+02 1.329337211250688711e+02
1.336000000000000227e+02 1.327533482953353712e+02
1.340000000000000000e+02 1.325737637451977093e+02
1.344000000000000057e+02 1.323949616035888539e+02
1.348000000000000114e+02 1.322169360612909941e+02
1.351999999999999886e+02 1.320396813700933478e+02
1.356000000000000227e+02 1.318631918419640101e+02
1.360000000000000000e+02 1.316874618482356425e+02
1.364000000000000057e+02 1.315124858188045209e+02
1.368000000000000114e+02 1.313382582413430555e+02
1.371999999999999886e+02 1.311647736605250998e+02
1.376000000000000227e+02 1.309920266772639934e+02
1.380000000000000000e+02 1.308200119479633372e+02
1.384000000000000057e+02 1.306487241837794784e+02
1.388000000000000114e+02 1.304781581498968421e+02
1.392000000000000171e+02 1.303083086648139499e+02
1.395999999999999943e+02 1.301391705996420569e+02
1.400000000000000000e+02 1.299707388774142771e+02
1.404000000000000057e+02 1.298030084724064182e+02
1.408000000000000114e+02 1.296359744094682469e+02
1.412000000000000171e+02 1.294696317633657827e+02
1.415999999999999943e+02 1.293039756581339361e+02
1.420000000000000000e+02 1.291390012664393225e+02
1.424000000000000057e+02 1.289747038089534783e+02
1.428000000000000114e+02 1.288110785537357970e+02
1.432000000000000171e+02 1.286481208156259299e+02
1.435999999999999943e+02 1.284858259556464191e+02
1.440000000000000000e+02 1.283241893804138272e+02
1.444000000000000057e+02 1.281632065415598731e+02
1.448000000000000114e+02 1.280028729351609798e+02
1.452000000000000171e+02 1.278431841011769166e+02
1.455999999999999943e+02 1.276841356228982960e+02
1.460000000000000000e+02 1.275257231264022124e+02
1.464000000000000057e+02 1.273679422800166492e+02
1.468000000000000114e+02 1.272107887937928012e+02
1.472000000000000171e+02 1.270542584189856683e+02
1.475999999999999943e+02 1.268983469475425352e+02
1.480000000000000000e+02 1.267430502115991260e+02
1.484000000000000057e+02 1.265883640829835031e+02
1.488000000000000114e+02 1.264342844727276827e+02
1.492000000000000171e+02 1.262808073305859580e+02
1.495999999999999943e+02 1.261279286445612939e+02
1.500000000000000000e+02 1.259756444404383018e+02
