1.000000000000000000e+01 4.146817467410148765e+02
1.040000000000000036e+01 4.343941678021711823e+02
1.080000000000000071e+01 4.699885759870028323e+02
1.119999999999999929e+01 5.088106127621650216e+02
1.159999999999999964e+01 6.039204499076574848e+02
1.200000000000000000e+01 6.788381069200733009e+02
1.240000000000000036e+01 7.219712484470913978e+02
1.280000000000000071e+01 7.505377621105678827e+02
1.319999999999999929e+01 7.930063701699571084e+02
1.359999999999999964e+01 8.133120464419228028e+02
1.400000000000000000e+01 8.465604313537360213e+02
1.440000000000000036e+01 9.116931470451399946e+02
1.480000000000000071e+01 9.219090948249486246e+02
1.519999999999999929e+01 9.042427043468320562e+02
1.560000000000000142e+01 8.877709655226220775e+02
1.600000000000000000e+01 8.723559119201280510e+02
1.639999999999999858e+01 8.578817151254813780e+02
1.680000000000000071e+01 8.442502062400959630e+02
1.719999999999999929e+01 8.313774768222541525e+02
1.760000000000000142e+01 8.191912605205304772e+02
1.800000000000000000e+01 8.076288891666717973e+02
1.839999999999999858e+01 7.966356781582093163e+02
1.880000000000000071e+01 7.861636371407696515e+02
1.920000000000000284e+01 7.761704303143079642e+02
1.960000000000000142e+01 7.666185304994140779e+02
2.000000000000000000e+01 7.574745251845473604e+02
2.039999999999999858e+01 7.487085429342841962e+02
2.080000000000000071e+01 7.402937759642996980e+02
2.120000000000000284e+01 7.322060801830492665e+02
2.160000000000000142e+01 7.244236381112456229e+02
2.200000000000000000e+01 7.169266731987124786e+02
2.239999999999999858e+01 7.096972064313224564e+02
2.280000000000000071e+01 7.027188479488989969e+02
2.320000000000000284e+01 6.959766178151545546e+02
2.360000000000000142e+01 6.894567911927257455e+02
2.400000000000000000e+01 6.831467640534714292e+02
2.439999999999999858e+01 6.770349362508375179e+02
2.480000000000000071e+01 6.711106093380133188e+02
2.520000000000000284e+01 6.653638969635858302e+02
2.560000000000000142e+01 6.597856460388431969e+02
2.600000000000000000e+01 6.543673671657298883e+02
2.640000000000000213e+01 6.491011730555921986e+02
2.680000000000000071e+01 6.439797238670170145e+02
2.719999999999999929e+01 6.389961785546947795e+02
2.760000000000000142e+01 6.341441514569626179e+02
2.800000000000000000e+01 6.294176734627258156e+02
2.840000000000000213e+01 6.248111571930080572e+02
2.880000000000000071e+01 6.203193657117718658e+02
2.920000000000000284e+01 6.159373843475448211e+02
2.960000000000000142e+01 6.116605952639853285e+02
3.000000000000000000e+01 6.074846544655308662e+02
3.040000000000000213e+01 6.034054709651650228e+02
3.080000000000000071e+01 5.994191878762644592e+02
3.120000000000000284e+01 5.955221652203946405e+02
3.160000000000000142e+01 5.917109642686453981e+02
3.200000000000000000e+01 5.879823332562255018e+02
3.240000000000000568e+01 5.843331943291865400e+02
3.279999999999999716e+01 5.807606315987123935e+02
3.320000000000000284e+01 5.772618801927945924e+02
3.360000000000000142e+01 5.738343162076571389e+02
3.400000000000000000e+01 5.704754474722071791e+02
3.440000000000000568e+01 5.671829050483513583e+02
3.479999999999999716e+01 5.639544353983936844e+02
3.520000000000000284e+01 5.607878931580818289e+02
3.560000000000000142e+01 5.576812344603437168e+02
3.600000000000000000e+01 5.546325107604588993e+02
3.640000000000000568e+01 5.516398631184549686e+02
3.679999999999999716e+01 5.487015168989785252e+02
3.720000000000000284e+01 5.458157768528436691e+02
3.760000000000000142e+01 5.429810225479819792e+02
3.800000000000000000e+01 5.401957041206342183e+02
3.840000000000000568e+01 5.374583383204186475e+02
3.879999999999999716e+01 5.347675048253943260e+02
3.920000000000000284e+01 5.321218428054573906e+02
3.960000000000000142e+01 5.295200477144053366e+02
4.000000000000000000e+01 5.269608682927855625e+02
4.040000000000000568e+01 5.244431037652456098e+02
4.079999999999999716e+01 5.219656012175472597e+02
4.120000000000000284e+01 5.195272531397038165e+02
4.160000000000000142e+01 5.171269951228648551e+02
4.200000000000000000e+01 5.147638036986385259e+02
4.239999999999999858e+01 5.124366943104851089e+02
4.280000000000000426e+01 5.101447194076918095e+02
4.320000000000000284e+01 5.078869666532086171e+02
4.360000000000000142e+01 5.056625572373478121e+02
4.400000000000000000e+01 5.034706442899871490e+02
4.439999999999999858e+01 5.013104113845060965e+02
4.480000000000000426e+01 4.991810711272161143e+02
4.520000000000000284e+01 4.970818638265398022e+02
4.560000000000000142e+01 4.950120562366243462e+02
4.600000000000000000e+01 4.929709403704964643e+02
4.639999999999999858e+01 4.909578323782205871e+02
4.680000000000000426e+01 4.889720714858731299e+02
4.720000000000000284e+01 4.870130189914476659e+02
4.760000000000000142e+01 4.850800573140970755e+02
4.800000000000000000e+01 4.831725890933716983e+02
4.840000000000000568e+01 4.812900363353629132e+02
4.880000000000000426e+01 4.794318396028684219e+02
4.920000000000000284e+01 4.775974572469124269e+02
4.960000000000000142e+01 4.757863646771276080e+02
5.000000000000000000e+01 4.739980536686869073e+02
5.040000000000000568e+01 4.722320317036264896e+02
5.080000000000000426e+01 4.704878213445495021e+02
5.120000000000000284e+01 4.687649596388347959e+02
5.160000000000000142e+01 4.670629975515992101e+02
5.200000000000000000e+01 4.653814994257792250e+02
5.240000000000000568e+01 4.637200424678022159e+02
5.280000000000000426e+01 4.620782162574172389e+02
5.320000000000000284e+01 4.604556222803498713e+02
5.360000000000000142e+01 4.588518734825262868e+02
5.400000000000000000e+01 4.572665938446934888e+02
5.440000000000000568e+01 4.556994179763353259e+02
5.480000000000000426e+01 4.541499907278540036e+02
5.520000000000000284e+01 4.526179668200452397e+02
5.560000000000000142e+01 4.511030104899606954e+02
5.600000000000000000e+01 4.496047951523006532e+02
5.640000000000000568e+01 4.481230030755365874e+02
5.680000000000000426e+01 4.466573250720041415e+02
5.720000000000000284e+01 4.452074602012597779e+02
5.760000000000000142e+01 4.437731154860281322e+02
5.800000000000000000e+01 4.423540056401124616e+02
5.840000000000000568e+01 4.409498528076712205e+02
5.880000000000000426e+01 4.395603863133039226e+02
5.920000000000000284e+01 4.381853424224134983e+02
5.960000000000000142e+01 4.368244641113508919e+02
6.000000000000000000e+01 4.354775008468670876e+02
6.040000000000000568e+01 4.341442083744307183e+02
6.080000000000000426e+01 4.328243485149890830e+02
6.120000000000000284e+01 4.315176889697746674e+02
6.160000000000000142e+01 4.302240031327846737e+02
6.200000000000000000e+01 4.289430699105722624e+02
6.240000000000000568e+01 4.276746735490180527e+02
6.280000000000000426e+01 4.264186034667605441e+02
6.320000000000000284e+01 4.251746540949824862e+02
6.360000000000000142e+01 4.239426247232684659e+02
6.400000000000000000e+01 4.227223193512625699e+02
6.440000000000000568e+01 4.215135465458662338e+02
6.480000000000001137e+01 4.203161193037344106e+02
6.520000000000000284e+01 4.191298549188362017e+02
6.559999999999999432e+01 4.179545748548609936e+02
6.600000000000000000e+01 4.167901046222606283e+02
6.640000000000000568e+01 4.156362736597271805e+02
6.680000000000001137e+01 4.144929152199209739e+02
6.720000000000000284e+01 4.133598662592636970e+02
6.759999999999999432e+01 4.122369673316310923e+02
6.800000000000000000e+01 4.111240624857786088e+02
6.840000000000000568e+01 4.100209991663475080e+02
6.880000000000001137e+01 4.089276281183021524e+02
6.920000000000000284e+01 4.078438032946590397e+02
6.959999999999999432e+01 4.067693817673733179e+02
7.000000000000000000e+01 4.057042236412560214e+02
7.040000000000000568e+01 4.046481919707979387e+02
7.080000000000001137e+01 4.036011526797876172e+02
7.120000000000000284e+01 4.025629744836097075e+02
7.159999999999999432e+01 4.015335288141190517e+02
7.200000000000000000e+01 4.005126897469912706e+02
7.240000000000000568e+01 3.995003339314497453e+02
7.280000000000001137e+01 3.984963405222813435e+02
7.320000000000000284e+01 3.975005911140501098e+02
7.359999999999999432e+01 3.965129696774253603e+02
7.400000000000000000e+01 3.955333624975444877e+02
7.440000000000000568e+01 3.945616581143345343e+02
7.479999999999999716e+01 3.935977472647157924e+02
7.520000000000000284e+01 3.926415228266214399e+02
7.560000000000000853e+01 3.916928797647626084e+02
7.600000000000000000e+01 3.907517150780760744e+02
7.640000000000000568e+01 3.898179277487927266e+02
7.679999999999999716e+01 3.888914186930672940e+02
7.720000000000000284e+01 3.879720907131128911e+02
7.760000000000000853e+01 3.870598484507874559e+02
7.800000000000000000e+01 3.861545983425777422e+02
7.840000000000000568e+01 3.852562485759325455e+02
7.879999999999999716e+01 3.843647090468978149e+02
7.920000000000000284e+01 3.834798913190066969e+02
7.960000000000000853e+01 3.826017085833805140e+02
8.000000000000000000e+01 3.817300756200006049e+02
8.040000000000000568e+01 3.808649087601067436e+02
8.079999999999999716e+01 3.800061258496872938e+02
8.120000000000000284e+01 3.791536462140207959e+02
8.160000000000000853e+01 3.783073906232347099e+02
8.200000000000000000e+01 3.774672812588464694e+02
8.240000000000000568e+01 3.766332416812526276e+02
8.279999999999999716e+01 3.758051967981371035e+02
8.320000000000000284e+01 3.749830728337644814e+02
8.360000000000000853e+01 3.741667972991311331e+02
8.400000000000000000e+01 3.733562989629459139e+02
8.440000000000000568e+01 3.725515078234116118e+02
8.479999999999999716e+01 3.717523550807825359e+02
8.520000000000000284e+01 3.709587731106726665e+02
8.560000000000000853e+01 3.701706954380894672e+02
8.600000000000000000e+01 3.693880567121707372e+02
8.640000000000000568e+01 3.686107926816015947e+02
8.680000000000001137e+01 3.678388401706906166e+02
8.720000000000000284e+01 3.670721370560825676e+02
8.760000000000000853e+01 3.663106222440902116e+02
8.800000000000000000e+01 3.655542356486232052e+02
8.840000000000000568e+01 3.648029181696979322e+02
8.880000000000001137e+01 3.640566116725072447e+02
8.920000000000000284e+01 3.633152589670359589e+02
8.960000000000000853e+01 3.625788037882033450e+02
9.000000000000000000e+01 3.618471907765168112e+02
9.040000000000000568e+01 3.611203654592217731e+02
9.080000000000001137e+01 3.603982742319320778e+02
9.120000000000000284e+01 3.596808643407269415e+02
9.160000000000000853e+01 3.589680838646996790e+02
9.200000000000000000e+01 3.582598816989460602e+02
9.240000000000000568e+01 3.575562075379775138e+02
9.280000000000001137e+01 3.568570118595480380e+02
9.320000000000000284e+01 3.561622459088821984e+02
9.360000000000000853e+01 3.554718616832915927e+02
9.400000000000000000e+01 3.547858119171698945e+02
9.440000000000000568e+01 3.541040500673544784e+02
9.480000000000001137e+01 3.534265302988443977e+02
9.520000000000000284e+01 3.527532074708644245e+02
9.560000000000000853e+01 3.520840371232647499e+02
9.600000000000000000e+01 3.514189754632478753e+02
9.640000000000000568e+01 3.507579793524123488e+02
9.680000000000001137e+01 3.501010062941048773e+02
9.720000000000000284e+01 3.494480144210718890e+02
9.760000000000000853e+01 3.487989624834025904e+02
9.800000000000000000e+01 3.481538098367547036e+02
9.840000000000000568e+01 3.475125164308557828e+02
9.880000000000001137e+01 3.468750427982718634e+02
9.920000000000000284e+01 3.462413500434371372e+02
9.960000000000000853e+01 3.456113998319351026e+02
1.000000000000000000e+02 3.449851543800274953e+02
1.004000000000000057e+02 3.443625764444224728e+02
1.008000000000000114e+02 3.437436293122743791e+02
1.012000000000000028e+02 3.431282767914131000e+02
1.016000000000000085e+02 3.425164832007906739e+02
1.020000000000000000e+02 3.419082133611454992e+02
1.024000000000000057e+02 3.413034325858739635e+02
1.028000000000000114e+02 3.407021066721066518e+02
1.032000000000000028e+02 3.401042018919817451e+02
1.036000000000000085e+02 3.395096849841118569e+02
1.040000000000000000e+02 3.389185231452390212e+02
1.044000000000000057e+02 3.383306840220720915e+02
1.048000000000000114e+02 3.377461357033030254e+02
1.052000000000000028e+02 3.371648467117964856e+02
1.056000000000000085e+02 3.365867859969482083e+02
1.060000000000000000e+02 3.360119229272094117e+02
1.064000000000000057e+02 3.354402272827706497e+02
1.068000000000000114e+02 3.348716692484025543e+02
1.072000000000000028e+02 3.343062194064500545e+02
1.076000000000000085e+02 3.337438487299736494e+02
1.080000000000000000e+02 3.331845285760371667e+02
1.084000000000000057e+02 3.326282306791364931e+02
1.088000000000000114e+02 3.320749271447658089e+02
1.092000000000000028e+02 3.315245904431186545e+02
1.096000000000000085e+02 3.309771934029195108e+02
1.100000000000000000e+02 3.304327092053845831e+02
1.104000000000000057e+02 3.298911113783057090e+02
1.108000000000000114e+02 3.293523737902570474e+02
1.112000000000000028e+02 3.288164706449200025e+02
1.116000000000000085e+02 3.282833764755243919e+02
1.120000000000000000e+02 3.277530661394022786e+02
1.124000000000000057e+02 3.272255148126527615e+02
1.128000000000000114e+02 3.267006979849131199e+02
1.132000000000000028e+02 3.261785914542367095e+02
1.136000000000000085e+02 3.256591713220729503e+02
1.140000000000000000e+02 3.251424139883463909e+02
1.144000000000000057e+02 3.246282961466351367e+02
1.148000000000000114e+02 3.241167947794441488e+02
1.152000000000000028e+02 3.236078871535717099e+02
1.156000000000000085e+02 3.231015508155670659e+02
1.160000000000000000e+02 3.225977635872770293e+02
1.164000000000000057e+02 3.220965035614798921e+02
1.168000000000000114e+02 3.215977490976036961e+02
1.172000000000000028e+02 3.211014788175275498e+02
1.176000000000000085e+02 3.206076716014645740e+02
1.180000000000000000e+02 3.201163065839230626e+02
1.184000000000000057e+02 3.196273631497460315e+02
1.188000000000000114e+02 3.191408209302260275e+02
1.192000000000000028e+02 3.186566597992933225e+02
1.196000000000000085e+02 3.181748598697773787e+02
1.200000000000000000e+02 3.176954014897382308e+02
1.204000000000000057e+02 3.172182652388671613e+02
1.208000000000000114e+02 3.167434319249551322e+02
1.212000000000000028e+02 3.162708825804267008e+02
1.216000000000000085e+02 3.158005984589389072e+02
1.220000000000000000e+02 3.153325610320437136e+02
1.224000000000000057e+02 3.148667519859106960e+02
1.228000000000000114e+02 3.144031532181123794e+02
1.232000000000000028e+02 3.139417468344664712e+02
1.236000000000000085e+02 3.134825151459372137e+02
1.240000000000000000e+02 3.130254406655931234e+02
1.244000000000000057e+02 3.125705061056195859e+02
1.248000000000000114e+02 3.121176943743859624e+02
1.252000000000000028e+02 3.116669885735657317e+02
1.256000000000000085e+02 3.112183719953080754e+02
1.260000000000000000e+02 3.107718281194606789e+02
1.264000000000000057e+02 3.103273406108417589e+02
1.268000000000000114e+02 3.098848933165610902e+02
1.272000000000000028e+02 3.094444702633884390e+02
1.276000000000000085e+02 3.090060556551684385e+02
1.280000000000000000e+02 3.085696338702812227e+02
1.284000000000000057e+02 3.081351894591477958e+02
1.288000000000000114e+02 3.077027071417790580e+02
1.291999999999999886e+02 3.072721718053675772e+02
1.296000000000000227e+02 3.068435685019214816e+02
1.300000000000000000e+02 3.064168824459387679e+02
1.304000000000000057e+02 3.059920990121231625e+02
1.308000000000000114e+02 3.055692037331380675e+02
1.311999999999999886e+02 3.051481822973996145e+02
1.316000000000000227e+02 3.047290205469075204e+02
1.320000000000000000e+02 3.043117044751134586e+02
1.324000000000000057e+02 3.038962202248246740e+02
1.328000000000000114e+02 3.034825540861440345e+02
1.331999999999999886e+02 3.030706924944445291e+02
1.336000000000000227e+02 3.026606220283783273e+02
1.340000000000000000e+02 3.022523294079186940e+02
1.344000000000000057e+02 3.018458014924351573e+02
1.348000000000000114e+02 3.014410252788007369e+02
1.351999999999999886e+02 3.010379878995308331e+02
1.356000000000000227e+02 3.006366766209524712e+02
1.360000000000000000e+02 3.002370788414045251e+02
1.364000000000000057e+02 2.998391820894671582e+02
1.368000000000000114e+02 2.994429740222206533e+02
1.371999999999999886e+02 2.990484424235325491e+02
1.376000000000000227e+02 2.986555752023732566e+02
1.380000000000000000e+02 2.982643603911581636e+02
1.384000000000000057e+02 2.978747861441178770e+02
1.388000000000000114e+02 2.974868407356941020e+02
1.392000000000000171e+02 2.971005125589612135e+02
1.395999999999999943e+02 2.967157901240744877e+02
1.400000000000000000e+02 2.963326620567412419e+02
1.404000000000000057e+02 2.959511170967184626e+02
1.408000000000000114e+02 2.955711440963331142e+02
1.412000000000000171e+02 2.951927320190266073e+02
1.415999999999999943e+02 2.948158699379220025e+02
1.420000000000000000e+02 2.944405470344136688e+02
1.424000000000000057e+02 2.940667525967800202e+02
1.428000000000000114e+02 2.936944760188174541e+02
1.432000000000000171e+02 2.933237067984954365e+02
1.435999999999999943e+02 2.929544345366334710e+02
1.440000000000000000e+02 2.925866489355976796e+02
1.444000000000000057e+02 2.922203397980182444e+02
1.448000000000000114e+02 2.918554970255268586e+02
1.452000000000000171e+02 2.914921106175132763e+02
1.455999999999999943e+02 2.911301706699010197e+02
1.460000000000000000e+02 2.907696673739420703e+02
1.464000000000000057e+02 2.904105910150300929e+02
1.468000000000000114e+02 2.900529319715316205e+02
1.472000000000000171e+02 2.896966807136350894e+02
1.475999999999999943e+02 2.893418278022169829e+02
1.480000000000000000e+02 2.889883638877261660e+02
1.484000000000000057e+02 2.886362797090839081e+02
1.488000000000000114e+02 2.882855660926010160e+02
1.492000000000000171e+02 2.879362139509111103e+02
1.495999999999999943e+02 2.875882142819201590e+02
1.500000000000000000e+02 2.872415581677711884e+02
