1.000000000000000000e+01 5.513676751183013636e+01
1.040000000000000036e+01 5.509937795188454857e+01
1.080000000000000071e+01 5.511053936195813918e+01
1.119999999999999929e+01 5.519279280894227924e+01
1.159999999999999964e+01 5.540694234074354796e+01
1.200000000000000000e+01 5.587416452824587054e+01
1.240000000000000036e+01 5.680031445813859392e+01
1.280000000000000071e+01 5.849008828088735612e+01
1.319999999999999929e+01 6.132982789302025850e+01
1.359999999999999964e+01 6.571546843611479005e+01
1.400000000000000000e+01 7.191524600275857892e+01
1.440000000000000036e+01 7.988911720659240245e+01
1.480000000000000071e+01 8.912881811577150870e+01
1.519999999999999929e+01 9.860916775914600407e+01
1.560000000000000142e+01 1.069240600005508668e+02
1.600000000000000000e+01 1.126101373628313382e+02
1.639999999999999858e+01 1.145642126882677587e+02
1.680000000000000071e+01 1.123925469888818753e+02
1.719999999999999929e+01 1.065403924238614906e+02
1.760000000000000142e+01 9.814334153299515151e+01
1.800000000000000000e+01 8.866838781051232843e+01
1.839999999999999858e+01 7.949997492416423484e+01
1.880000000000000071e+01 7.162923119653784454e+01
1.920000000000000284e+01 6.553250222320534135e+01
1.960000000000000142e+01 6.122943588087185418e+01
2.000000000000000000e+01 5.844483193521376307e+01
2.039999999999999858e+01 5.678555565652580128e+01
2.080000000000000071e+01 5.587224275358279613e+01
2.120000000000000284e+01 5.540672004678165763e+01
2.160000000000000142e+01 5.518655287573709955e+01
2.200000000000000000e+01 5.508979835412701220e+01
2.239999999999999858e+01 5.505033250938132028e+01
2.280000000000000071e+01 5.503567291915405946e+01
2.320000000000000284e+01 5.503152037739489089e+01
2.360000000000000142e+01 5.503276906389633893e+01
2.400000000000000000e+01 5.503914309903995417e+01
2.439999999999999858e+01 5.505359470530742527e+01
2.480000000000000071e+01 5.508202921204637192e+01
2.520000000000000284e+01 5.513324773559548220e+01
2.560000000000000142e+01 5.521815190989004662e+01
2.600000000000000000e+01 5.534746583649804563e+01
2.640000000000000213e+01 5.552779558189260456e+01
2.680000000000000071e+01 5.575685944805517380e+01
2.719999999999999929e+01 5.601984224976860105e+01
2.760000000000000142e+01 5.628930236657614472e+01
2.800000000000000000e+01 5.653016322094231327e+01
2.840000000000000213e+01 5.670902466006516107e+01
2.880000000000000071e+01 5.680439445707342117e+01
2.920000000000000284e+01 5.681318170646772359e+01
2.960000000000000142e+01 5.675011166129051787e+01
3.000000000000000000e+01 5.664021536985771377e+01
3.040000000000000213e+01 5.650821293868213502e+01
3.080000000000000071e+01 5.637012443701485154e+01
3.120000000000000284e+01 5.623083797811533202e+01
3.160000000000000142e+01 5.608774709436589490e+01
3.200000000000000000e+01 5.593730295953698572e+01
3.240000000000000568e+01 5.578033490006886552e+01
3.279999999999999716e+01 5.562351572388099896e+01
3.320000000000000284e+01 5.547702474249851434e+01
3.360000000000000142e+01 5.535048971512559746e+01
3.400000000000000000e+01 5.524966658751908710e+01
3.440000000000000568e+01 5.517527498325483748e+01
3.479999999999999716e+01 5.512393967274577022e+01
3.520000000000000284e+01 5.509022004192758715e+01
3.560000000000000142e+01 5.506857560926410144e+01
3.600000000000000000e+01 5.505457481873000347e+01
3.640000000000000568e+01 5.504524481504613931e+01
3.679999999999999716e+01 5.503884280788220451e+01
3.720000000000000284e+01 5.503441820397268458e+01
3.760000000000000142e+01 5.503142617479406340e+01
3.800000000000000000e+01 5.502949285633039267e+01
3.840000000000000568e+01 5.502831716699240872e+01
3.879999999999999716e+01 5.502765026983835384e+01
3.920000000000000284e+01 5.502730051885518492e+01
3.960000000000000142e+01 5.502713742021403931e+01
4.000000000000000000e+01 5.502709137815008944e+01
4.040000000000000568e+01 5.502716090039147900e+01
4.079999999999999716e+01 5.502744965012732337e+01
4.120000000000000284e+01 5.502826824549362073e+01
4.160000000000000142e+01 5.503035031786957632e+01
4.200000000000000000e+01 5.503523696958433931e+01
4.239999999999999858e+01 5.504585028464929053e+01
4.280000000000000426e+01 5.506716807262296953e+01
4.320000000000000284e+01 5.510671225719960375e+01
4.360000000000000142e+01 5.517432697733818969e+01
4.400000000000000000e+01 5.528061432026116506e+01
4.439999999999999858e+01 5.543365330292522941e+01
4.480000000000000426e+01 5.563440007960003442e+01
4.520000000000000284e+01 5.587228209860201389e+01
4.560000000000000142e+01 5.612335417690995598e+01
4.600000000000000000e+01 5.635318358810548034e+01
4.639999999999999858e+01 5.652495924512611225e+01
4.680000000000000426e+01 5.661068756713442696e+01
4.720000000000000284e+01 5.660115423619670594e+01
4.760000000000000142e+01 5.651011162063522875e+01
4.800000000000000000e+01 5.637043578845138825e+01
4.840000000000000568e+01 5.622384278223243825e+01
4.880000000000000426e+01 5.610927899295461430e+01
4.920000000000000284e+01 5.605666179671291616e+01
4.960000000000000142e+01 5.609169474170817438e+01
5.000000000000000000e+01 5.625444712002877168e+01
5.040000000000000568e+01 5.662984547732453677e+01
5.080000000000000426e+01 5.738227775953608756e+01
5.120000000000000284e+01 5.877930027256371659e+01
5.160000000000000142e+01 6.118283588995290501e+01
5.200000000000000000e+01 6.498540660529297952e+01
5.240000000000000568e+01 7.048118990668702111e+01
5.280000000000000426e+01 7.769105132070112063e+01
5.320000000000000284e+01 8.619998488432247541e+01
5.360000000000000142e+01 9.509287089912231750e+01
5.400000000000000000e+01 1.030629318254293310e+02
5.440000000000000568e+01 1.087047130604686913e+02
5.480000000000000426e+01 1.109111577262280832e+02
5.520000000000000284e+01 1.092234396420687119e+02
5.560000000000000142e+01 1.039826424031178362e+02
5.600000000000000000e+01 9.621466147364243682e+01
5.640000000000000568e+01 8.730121204496532528e+01
5.680000000000000426e+01 7.858098625694634620e+01
5.720000000000000284e+01 7.103701082783540244e+01
5.760000000000000142e+01 6.516229667483609944e+01
5.800000000000000000e+01 6.100283840120018652e+01
5.840000000000000568e+01 5.830855959523168508e+01
5.880000000000000426e+01 5.670537830816856228e+01
5.920000000000000284e+01 5.582660414298036500e+01
5.960000000000000142e+01 5.538204363717271406e+01
6.000000000000000000e+01 5.517435862137417502e+01
6.040000000000000568e+01 5.508501859973001302e+01
6.080000000000000426e+01 5.505022367106180070e+01
6.120000000000000284e+01 5.503894697848309647e+01
6.160000000000000142e+01 5.503746919829044515e+01
6.200000000000000000e+01 5.504018052838097219e+01
6.240000000000000568e+01 5.504479411418385126e+01
6.280000000000000426e+01 5.505016227674951779e+01
6.320000000000000284e+01 5.505548492501682745e+01
6.360000000000000142e+01 5.506025262058745540e+01
6.400000000000000000e+01 5.506460350030269524e+01
6.440000000000000568e+01 5.506992363880760166e+01
6.480000000000001137e+01 5.507955139287278712e+01
6.520000000000000284e+01 5.509939045648038558e+01
6.559999999999999432e+01 5.513810385342105747e+01
6.600000000000000000e+01 5.520640587620471251e+01
6.640000000000000568e+01 5.531494793202475080e+01
6.680000000000001137e+01 5.547063023985505481e+01
6.720000000000000284e+01 5.567197449391736797e+01
6.759999999999999432e+01 5.590522860284499274e+01
6.800000000000000000e+01 5.614350638436675212e+01
6.840000000000000568e+01 5.635076544394332387e+01
6.880000000000001137e+01 5.649057367922701900e+01
6.920000000000000284e+01 5.653712451689199980e+01
6.959999999999999432e+01 5.648425850772377288e+01
7.000000000000000000e+01 5.634855696087714705e+01
7.040000000000000568e+01 5.616495433275250804e+01
7.080000000000001137e+01 5.597650330004127994e+01
7.120000000000000284e+01 5.582217580417731995e+01
7.159999999999999432e+01 5.572687417541401089e+01
7.200000000000000000e+01 5.569641961450910372e+01
7.240000000000000568e+01 5.571826007968326167e+01
7.280000000000001137e+01 5.576696005367031006e+01
7.320000000000000284e+01 5.581251868886695888e+01
7.359999999999999432e+01 5.582908481795010402e+01
7.400000000000000000e+01 5.580162771608176797e+01
7.440000000000000568e+01 5.572873216187051071e+01
7.479999999999999716e+01 5.562097588961232475e+01
7.520000000000000284e+01 5.549593715161820029e+01
7.560000000000000853e+01 5.537203271409580907e+01
7.600000000000000000e+01 5.526350939110832883e+01
7.640000000000000568e+01 5.517801052974252229e+01
7.679999999999999716e+01 5.511680533732820919e+01
7.720000000000000284e+01 5.507674071814947325e+01
7.760000000000000853e+01 5.505265750123740531e+01
7.800000000000000000e+01 5.503932441380610641e+01
7.840000000000000568e+01 5.503251140895602589e+01
7.879999999999999716e+01 5.502929306651153496e+01
7.920000000000000284e+01 5.502788590865244345e+01
7.960000000000000853e+01 5.502731589379271782e+01
8.000000000000000000e+01 5.502710180517948402e+01
8.040000000000000568e+01 5.502702720617178045e+01
8.079999999999999716e+01 5.502700307799509716e+01
8.120000000000000284e+01 5.502699583112545412e+01
8.160000000000000853e+01 5.502699380920540051e+01
8.200000000000000000e+01 5.502699328500819576e+01
8.240000000000000568e+01 5.502699315869368490e+01
8.279999999999999716e+01 5.502699313039705231e+01
8.320000000000000284e+01 5.502699312450289426e+01
8.360000000000000853e+01 5.502699312336110893e+01
8.400000000000000000e+01 5.502699312315539260e+01
8.440000000000000568e+01 5.502699312312099522e+01
8.479999999999999716e+01 5.502699312311627722e+01
8.520000000000000284e+01 5.502699312312014968e+01
8.560000000000000853e+01 5.502699312315073854e+01
8.600000000000000000e+01 5.502699312333917447e+01
8.640000000000000568e+01 5.502699312441545487e+01
8.680000000000001137e+01 5.502699313013341254e+01
8.720000000000000284e+01 5.502699315838666649e+01
8.760000000000000853e+01 5.502699328820689573e+01
8.800000000000000000e+01 5.502699384281332584e+01
8.840000000000000568e+01 5.502699604526504373e+01
8.880000000000001137e+01 5.502700417362414953e+01
8.920000000000000284e+01 5.502703204464742015e+01
8.960000000000000853e+01 5.502712080387910021e+01
9.000000000000000000e+01 5.502738323477385762e+01
9.040000000000000568e+01 5.502810326966085341e+01
9.080000000000001137e+01 5.502993550900381337e+01
9.120000000000000284e+01 5.503425663900416254e+01
9.160000000000000853e+01 5.504369333992048752e+01
9.200000000000000000e+01 5.506275541161686959e+01
9.240000000000000568e+01 5.509832054142106017e+01
9.280000000000001137e+01 5.515949309746034857e+01
9.320000000000000284e+01 5.525623996063951893e+01
9.360000000000000853e+01 5.539641246640697858e+01
9.400000000000000000e+01 5.558144740956308993e+01
9.440000000000000568e+01 5.580206944552443105e+01
9.480000000000001137e+01 5.603615939932212342e+01
9.520000000000000284e+01 5.625087017760884578e+01
9.560000000000000853e+01 5.640964464885279739e+01
9.600000000000000000e+01 5.648243528646009537e+01
9.640000000000000568e+01 5.645539948714235123e+01
9.680000000000001137e+01 5.633601343184370336e+01
9.720000000000000284e+01 5.615136379704884462e+01
9.760000000000000853e+01 5.594040244134657769e+01
9.800000000000000000e+01 5.574342723574508085e+01
9.840000000000000568e+01 5.559264450493598986e+01
9.880000000000001137e+01 5.550636433164194017e+01
9.920000000000000284e+01 5.548734971037429631e+01
9.960000000000000853e+01 5.552442618574733046e+01
1.000000000000000000e+02 5.559618828289660541e+01
1.004000000000000057e+02 5.567603720947887780e+01
1.008000000000000114e+02 5.573800759282605100e+01
1.012000000000000028e+02 5.576250062916140138e+01
1.016000000000000085e+02 5.574050713136053758e+01
1.020000000000000000e+02 5.567489581477083505e+01
1.024000000000000057e+02 5.557822088868122989e+01
1.028000000000000114e+02 5.546789946329250398e+01
1.032000000000000028e+02 5.536068972647588993e+01
1.036000000000000085e+02 5.526851165343794747e+01
1.040000000000000000e+02 5.519678810367395982e+01
1.044000000000000057e+02 5.514523047421191393e+01
1.048000000000000114e+02 5.511005906803879384e+01
1.052000000000000028e+02 5.508640969509296781e+01
1.056000000000000085e+02 5.507004310096107957e+01
1.060000000000000000e+02 5.505807459467697385e+01
1.064000000000000057e+02 5.504892435052232713e+01
1.068000000000000114e+02 5.504189399143981376e+01
1.072000000000000028e+02 5.503674206759386323e+01
1.076000000000000085e+02 5.503350639472291306e+01
1.080000000000000000e+02 5.503276202916617876e+01
1.084000000000000057e+02 5.503662944909080323e+01
1.088000000000000114e+02 5.505122484316947151e+01
1.092000000000000028e+02 5.509184477201710450e+01
1.096000000000000085e+02 5.519274844215883036e+01
1.100000000000000000e+02 5.542326904157903300e+01
1.104000000000000057e+02 5.590999119111434368e+01
1.108000000000000114e+02 5.685969461966899274e+01
1.112000000000000028e+02 5.856981647730177087e+01
1.116000000000000085e+02 6.140559666242911163e+01
1.120000000000000000e+02 6.572292952333589255e+01
1.124000000000000057e+02 7.173131670382228720e+01
1.128000000000000114e+02 7.932417029743001535e+01
1.132000000000000028e+02 8.794242706778152296e+01
1.136000000000000085e+02 9.655682629965330932e+01
1.140000000000000000e+02 1.038289936163463096e+02
1.144000000000000057e+02 1.084381395981789922e+02
1.148000000000000114e+02 1.094701139702869170e+02
1.152000000000000028e+02 1.067127596277926926e+02
1.156000000000000085e+02 1.007269454548960397e+02
1.160000000000000000e+02 9.266073221527565806e+01
1.164000000000000057e+02 8.389094748442474270e+01
1.168000000000000114e+02 7.564521104247768335e+01
1.172000000000000028e+02 6.874412325243658017e+01
1.176000000000000085e+02 6.352647062587901416e+01
1.180000000000000000e+02 5.993198210355332378e+01
1.184000000000000057e+02 5.766332866305124583e+01
1.188000000000000114e+02 5.634670829079914256e+01
1.192000000000000028e+02 5.564227897923547772e+01
1.196000000000000085e+02 5.529416694368019591e+01
1.200000000000000000e+02 5.513505181463946769e+01
1.204000000000000057e+02 5.506772576813411746e+01
1.208000000000000114e+02 5.504138604710699667e+01
1.212000000000000028e+02 5.503201398242287468e+01
1.216000000000000085e+02 5.502943053052014477e+01
1.220000000000000000e+02 5.503010438803153903e+01
1.224000000000000057e+02 5.503381357602150104e+01
1.228000000000000114e+02 5.504251882538729745e+01
1.232000000000000028e+02 5.506032427326304912e+01
1.236000000000000085e+02 5.509372956177732306e+01
1.240000000000000000e+02 5.515146415711497241e+01
1.244000000000000057e+02 5.524322045242011114e+01
1.248000000000000114e+02 5.537684486307921361e+01
1.252000000000000028e+02 5.555420866291826343e+01
1.256000000000000085e+02 5.576697908722908181e+01
1.260000000000000000e+02 5.599435990607170766e+01
1.264000000000000057e+02 5.620485638447370746e+01
1.268000000000000114e+02 5.636280290988359098e+01
1.272000000000000028e+02 5.643812711740091714e+01
1.276000000000000085e+02 5.641580407047639767e+01
1.280000000000000000e+02 5.630103563253513954e+01
1.284000000000000057e+02 5.611789254535942462e+01
1.288000000000000114e+02 5.590213285454493786e+01
1.291999999999999886e+02 5.569142951630655602e+01
1.296000000000000227e+02 5.551687818565751087e+01
1.300000000000000000e+02 5.539826238658394431e+01
1.304000000000000057e+02 5.534324987867158541e+01
1.308000000000000114e+02 5.534898583195106880e+01
1.311999999999999886e+02 5.540429013707662165e+01
1.316000000000000227e+02 5.549162380936066796e+01
1.320000000000000000e+02 5.558918048190393790e+01
1.324000000000000057e+02 5.567391407731135189e+01
1.328000000000000114e+02 5.572572201894031707e+01
1.331999999999999886e+02 5.573186445970021197e+01
1.336000000000000227e+02 5.568992848570665899e+01
1.340000000000000000e+02 5.560790353932299013e+01
1.344000000000000057e+02 5.550114942552887953e+01
1.348000000000000114e+02 5.538746504842300311e+01
1.351999999999999886e+02 5.528223131512355337e+01
1.356000000000000227e+02 5.519531454632402045e+01
1.360000000000000000e+02 5.513037655214809973e+01
1.364000000000000057e+02 5.508613289646040556e+01
1.368000000000000114e+02 5.505850144988004047e+01
1.371999999999999886e+02 5.504262776390773837e+01
1.376000000000000227e+02 5.503421861350519606e+01
1.380000000000000000e+02 5.503010314604066622e+01
1.384000000000000057e+02 5.502823986540752799e+01
1.388000000000000114e+02 5.502745860912300202e+01
1.392000000000000171e+02 5.502715498828467133e+01
1.395999999999999943e+02 5.502704554552925487e+01
1.400000000000000000e+02 5.502700893550294836e+01
1.404000000000000057e+02 5.502699756528036090e+01
1.408000000000000114e+02 5.502699428538958415e+01
1.412000000000000171e+02 5.502699340634500658e+01
1.415999999999999943e+02 5.502699318739636425e+01
1.420000000000000000e+02 5.502699313670252224e+01
1.424000000000000057e+02 5.502699312578968005e+01
1.428000000000000114e+02 5.502699312360511641e+01
1.432000000000000171e+02 5.502699312319838043e+01
1.435999999999999943e+02 5.502699312312794433e+01
1.440000000000000000e+02 5.502699312311659696e+01
1.444000000000000057e+02 5.502699312311489166e+01
1.448000000000000114e+02 5.502699312311465718e+01
1.452000000000000171e+02 5.502699312311462876e+01
1.455999999999999943e+02 5.502699312311462165e+01
1.460000000000000000e+02 5.502699312311462165e+01
1.464000000000000057e+02 5.502699312311462165e+01
1.468000000000000114e+02 5.502699312311462165e+01
1.472000000000000171e+02 5.502699312311462165e+01
1.475999999999999943e+02 5.502699312311462165e+01
1.480000000000000000e+02 5.502699312311462165e+01
1.484000000000000057e+02 5.502699312311462165e+01
1.488000000000000114e+02 5.502699312311462165e+01
1.492000000000000171e+02 5.502699312311462165e+01
1.495999999999999943e+02 5.502699312311462165e+01
1.500000000000000000e+02 5.502699312311462165e+01
