1.000000000000000000e+01 7.986756631929389982e+01
1.040000000000000036e+01 7.908664942569841116e+01
1.080000000000000071e+01 7.675149743245805212e+01
1.119999999999999929e+01 7.431169330549269603e+01
1.159999999999999964e+01 7.056457214547046419e+01
1.200000000000000000e+01 6.814194910109300451e+01
1.240000000000000036e+01 6.595100563242661451e+01
1.280000000000000071e+01 6.395628275303980104e+01
1.319999999999999929e+01 6.212960706752230777e+01
1.359999999999999964e+01 6.044824580089749588e+01
1.400000000000000000e+01 5.889360933253840358e+01
1.440000000000000036e+01 5.745031704442212828e+01
1.480000000000000071e+01 5.610551092333031420e+01
1.519999999999999929e+01 5.485180272649905930e+01
1.560000000000000142e+01 5.378553909058771865e+01
1.600000000000000000e+01 5.278616174084929469e+01
1.639999999999999858e+01 5.183860146608452624e+01
1.680000000000000071e+01 5.093844213157155565e+01
1.719999999999999929e+01 5.008178564729935545e+01
1.760000000000000142e+01 4.926517532867991633e+01
1.800000000000000000e+01 4.848553283013666260e+01
1.839999999999999858e+01 4.774010587171595432e+01
1.880000000000000071e+01 4.702642462131713330e+01
1.920000000000000284e+01 4.634226507308156329e+01
1.960000000000000142e+01 4.568561812193611615e+01
2.000000000000000000e+01 4.505466330736572189e+01
2.039999999999999858e+01 4.396335006341271878e+01
2.080000000000000071e+01 4.338182719752224159e+01
2.120000000000000284e+01 4.282204153982476669e+01
2.160000000000000142e+01 4.137309287253872014e+01
2.200000000000000000e+01 4.086777831948037232e+01
2.239999999999999858e+01 4.038020469331323170e+01
2.280000000000000071e+01 3.990934578970652069e+01
2.320000000000000284e+01 3.945425744616989050e+01
2.360000000000000142e+01 3.901406922078528083e+01
2.400000000000000000e+01 3.858797708852610953e+01
2.439999999999999858e+01 3.817523701013963944e+01
2.480000000000000071e+01 3.777515925207724479e+01
2.520000000000000284e+01 3.738710335521057004e+01
2.560000000000000142e+01 3.700424173059727906e+01
2.600000000000000000e+01 3.663068240203070047e+01
2.640000000000000213e+01 3.626774800514859010e+01
2.680000000000000071e+01 3.591494085548750093e+01
2.719999999999999929e+01 3.557179549195569734e+01
2.760000000000000142e+01 3.523115769379013784e+01
2.800000000000000000e+01 3.489087381533961718e+01
2.840000000000000213e+01 3.455961457009496485e+01
2.880000000000000071e+01 3.423698680549345852e+01
2.920000000000000284e+01 3.392262100797574931e+01
2.960000000000000142e+01 3.361616950237728929e+01
3.000000000000000000e+01 3.331730481646847863e+01
3.040000000000000213e+01 3.302571819300648315e+01
3.080000000000000071e+01 3.274111823380354025e+01
3.120000000000000284e+01 3.246322966216730777e+01
3.160000000000000142e+01 3.219179219167327943e+01
3.200000000000000000e+01 3.192655949062167053e+01
3.240000000000000568e+01 3.175759457049179701e+01
3.279999999999999716e+01 3.150975745166821440e+01
3.320000000000000284e+01 3.126737069386035017e+01
3.360000000000000142e+01 3.103023676544057707e+01
3.400000000000000000e+01 3.079816803793018209e+01
3.440000000000000568e+01 3.057098615552409271e+01
3.479999999999999716e+01 3.034852145306815174e+01
3.520000000000000284e+01 3.013061241814266822e+01
3.560000000000000142e+01 2.991710519334949225e+01
3.600000000000000000e+01 2.990420958529493589e+01
3.640000000000000568e+01 2.970864666951309374e+01
3.679999999999999716e+01 2.951681075929732856e+01
3.720000000000000284e+01 2.932858430518285786e+01
3.760000000000000142e+01 2.914385490014736391e+01
3.800000000000000000e+01 2.896251499318796618e+01
3.840000000000000568e+01 2.878446162220636850e+01
3.879999999999999716e+01 2.860959616467901512e+01
3.920000000000000284e+01 2.843656069852153223e+01
3.960000000000000142e+01 2.826648760488263790e+01
4.000000000000000000e+01 2.809932863104817358e+01
4.040000000000000568e+01 2.793500113346473768e+01
4.079999999999999716e+01 2.777342572307327373e+01
4.120000000000000284e+01 2.761452610196191415e+01
4.160000000000000142e+01 2.745822890995133037e+01
4.200000000000000000e+01 2.730446358040488164e+01
4.239999999999999858e+01 2.715316220461382102e+01
4.280000000000000426e+01 2.700425940416000969e+01
4.320000000000000284e+01 2.685769221070642487e+01
4.360000000000000142e+01 2.671339995270864165e+01
4.400000000000000000e+01 2.657132414858068614e+01
4.439999999999999858e+01 2.643121204104231481e+01
4.480000000000000426e+01 2.629190861408321922e+01
4.520000000000000284e+01 2.615468127975819357e+01
4.560000000000000142e+01 2.601947879575657652e+01
4.600000000000000000e+01 2.588625167838515395e+01
4.639999999999999858e+01 2.575495212554981350e+01
4.680000000000000426e+01 2.562553394382768701e+01
4.720000000000000284e+01 2.545147986659424788e+01
4.760000000000000142e+01 2.533144314881280224e+01
4.800000000000000000e+01 2.521305441602497410e+01
4.840000000000000568e+01 2.509627611444086170e+01
4.880000000000000426e+01 2.498107188035489656e+01
4.920000000000000284e+01 2.486740649202478082e+01
4.960000000000000142e+01 2.475524582390982786e+01
5.000000000000000000e+01 2.464455680313335506e+01
5.040000000000000568e+01 2.453530736804222911e+01
5.080000000000000426e+01 2.442746642874498519e+01
5.120000000000000284e+01 2.432100382951808371e+01
5.160000000000000142e+01 2.421589031297616046e+01
5.200000000000000000e+01 2.411209748590949431e+01
5.240000000000000568e+01 2.400959778669749767e+01
5.280000000000000426e+01 2.390836445421312106e+01
5.320000000000000284e+01 2.380837149813796572e+01
5.360000000000000142e+01 2.370959367061316669e+01
5.400000000000000000e+01 2.361200643915541164e+01
5.440000000000000568e+01 2.351558596077196128e+01
5.480000000000000426e+01 2.342617516431010216e+01
5.520000000000000284e+01 2.333301026387146493e+01
5.560000000000000142e+01 2.323916402213485810e+01
5.600000000000000000e+01 2.314642204643485357e+01
5.640000000000000568e+01 2.305476272085823908e+01
5.680000000000000426e+01 2.296416501903732410e+01
5.720000000000000284e+01 2.287460848359766175e+01
5.760000000000000142e+01 2.278607320647617129e+01
5.800000000000000000e+01 2.269853981006616550e+01
5.840000000000000568e+01 2.261198942914866450e+01
5.880000000000000426e+01 2.252640369357135341e+01
5.920000000000000284e+01 2.244176471163884656e+01
5.960000000000000142e+01 2.235805505418009886e+01
6.000000000000000000e+01 2.227525773926033281e+01
6.040000000000000568e+01 2.219335621750698095e+01
6.080000000000000426e+01 2.211233435802065017e+01
6.120000000000000284e+01 2.203217643484368438e+01
6.160000000000000142e+01 2.195286711396042989e+01
6.200000000000000000e+01 2.187439144080460807e+01
6.240000000000000568e+01 2.179673482825064923e+01
6.280000000000000426e+01 2.171988304506680123e+01
6.320000000000000284e+01 2.164382220480933583e+01
6.360000000000000142e+01 2.156853875513790797e+01
6.400000000000000000e+01 2.149401946753336290e+01
6.440000000000000568e+01 2.142025142740015298e+01
6.480000000000001137e+01 2.134722202453654916e+01
6.520000000000000284e+01 2.131590192460181044e+01
6.559999999999999432e+01 2.124651769706708393e+01
6.600000000000000000e+01 2.117779752627765077e+01
6.640000000000000568e+01 2.110973082845767479e+01
6.680000000000001137e+01 2.104230725495708398e+01
6.720000000000000284e+01 2.097551668557417059e+01
6.759999999999999432e+01 2.090934922210860236e+01
6.800000000000000000e+01 2.084379518213538773e+01
6.840000000000000568e+01 2.077884509299098426e+01
6.880000000000001137e+01 2.071448968596297391e+01
6.920000000000000284e+01 2.065071989067535796e+01
6.959999999999999432e+01 2.058752682966151326e+01
7.000000000000000000e+01 2.052490181311770101e+01
7.040000000000000568e+01 2.046283633382983780e+01
7.080000000000001137e+01 2.040132206226699552e+01
7.120000000000000284e+01 2.034035084183503983e+01
7.159999999999999432e+01 2.027991468428439958e+01
7.200000000000000000e+01 2.022000576526594529e+01
7.240000000000000568e+01 2.016061642002954812e+01
7.280000000000001137e+01 2.010173913925975597e+01
7.320000000000000284e+01 2.004336656504352732e+01
7.359999999999999432e+01 1.998549148696515942e+01
7.400000000000000000e+01 1.992810683832356844e+01
7.440000000000000568e+01 1.987120569246757285e+01
7.479999999999999716e+01 1.981438934674394048e+01
7.520000000000000284e+01 1.975767405767226848e+01
7.560000000000000853e+01 1.970143323265045865e+01
7.600000000000000000e+01 1.964566025602250221e+01
7.640000000000000568e+01 1.959034864089496963e+01
7.679999999999999716e+01 1.953549202592881429e+01
7.720000000000000284e+01 1.948325605359831059e+01
7.760000000000000853e+01 1.943079327928066391e+01
7.800000000000000000e+01 1.937875085535873154e+01
7.840000000000000568e+01 1.932712315374094203e+01
7.879999999999999716e+01 1.927590465163919831e+01
7.920000000000000284e+01 1.922508992904460712e+01
7.960000000000000853e+01 1.917467366627685266e+01
8.000000000000000000e+01 1.912465064160468842e+01
8.040000000000000568e+01 1.907501572893514208e+01
8.079999999999999716e+01 1.902576389556907444e+01
8.120000000000000284e+01 1.897689020002081151e+01
8.160000000000000853e+01 1.892838978989984966e+01
8.200000000000000000e+01 1.888025789985228897e+01
8.240000000000000568e+01 1.883248984956036054e+01
8.279999999999999716e+01 1.878508104179772786e+01
8.320000000000000284e+01 1.873802696053910566e+01
8.360000000000000853e+01 1.869132316912213554e+01
8.400000000000000000e+01 1.864496530845993760e+01
8.440000000000000568e+01 1.859894909530269302e+01
8.479999999999999716e+01 1.855327032054666603e+01
8.520000000000000284e+01 1.850792484758910916e+01
8.560000000000000853e+01 1.846290861072760237e+01
8.600000000000000000e+01 1.843499943348454195e+01
8.640000000000000568e+01 1.839119722204601004e+01
8.680000000000001137e+01 1.834770620396999163e+01
8.720000000000000284e+01 1.830452267958656520e+01
8.760000000000000853e+01 1.826164301074875596e+01
8.800000000000000000e+01 1.821906361952075315e+01
8.840000000000000568e+01 1.817678098690007005e+01
8.880000000000001137e+01 1.813479165157293593e+01
8.920000000000000284e+01 1.809309220870152046e+01
8.960000000000000853e+01 1.805111825465653652e+01
9.000000000000000000e+01 1.800939259593022257e+01
9.040000000000000568e+01 1.796795305957159172e+01
9.080000000000001137e+01 1.792679636500891860e+01
9.120000000000000284e+01 1.788591928427671718e+01
9.160000000000000853e+01 1.784531864093408871e+01
9.200000000000000000e+01 1.780499130901026916e+01
9.240000000000000568e+01 1.776493421197637801e+01
9.280000000000001137e+01 1.772514432174274646e+01
9.320000000000000284e+01 1.768561865768091934e+01
9.360000000000000853e+01 1.764635428566986164e+01
9.400000000000000000e+01 1.760734831716533932e+01
9.440000000000000568e+01 1.756859790829211221e+01
9.480000000000001137e+01 1.753010025895809676e+01
9.520000000000000284e+01 1.749185261198995889e+01
9.560000000000000853e+01 1.745385225228943682e+01
9.600000000000000000e+01 1.741609650600996062e+01
9.640000000000000568e+01 1.737858273975279388e+01
9.680000000000001137e+01 1.734130835978237428e+01
9.720000000000000284e+01 1.730427081126009270e+01
9.760000000000000853e+01 1.726743928957062124e+01
9.800000000000000000e+01 1.723081764364204815e+01
9.840000000000000568e+01 1.719442536836712776e+01
9.880000000000001137e+01 1.715826006232040157e+01
9.920000000000000284e+01 1.712231935924256732e+01
9.960000000000000853e+01 1.708660092738014669e+01
1.000000000000000000e+02 1.705110246884027703e+01
1.004000000000000057e+02 1.701582171896022544e+01
1.008000000000000114e+02 1.698075644569119191e+01
1.012000000000000028e+02 1.694590444899602488e+01
1.016000000000000085e+02 1.691126356026044419e+01
1.020000000000000000e+02 1.687683164171753347e+01
1.024000000000000057e+02 1.684260658588501514e+01
1.028000000000000114e+02 1.680858631501502032e+01
1.032000000000000028e+02 1.677476878055612985e+01
1.036000000000000085e+02 1.675232077908183470e+01
1.040000000000000000e+02 1.671956671418312013e+01
1.044000000000000057e+02 1.668700360130799254e+01
1.048000000000000114e+02 1.665462957643127595e+01
1.052000000000000028e+02 1.662244280100124172e+01
1.056000000000000085e+02 1.659044146149290810e+01
1.060000000000000000e+02 1.655862376897097477e+01
1.064000000000000057e+02 1.652698795866193748e+01
1.068000000000000114e+02 1.649553228953541151e+01
1.072000000000000028e+02 1.646425504389416972e+01
1.076000000000000085e+02 1.643315452697286361e+01
1.080000000000000000e+02 1.640222906654522106e+01
1.084000000000000057e+02 1.637147701253929455e+01
1.088000000000000114e+02 1.634089673666089837e+01
1.092000000000000028e+02 1.631048663202464155e+01
1.096000000000000085e+02 1.628024511279276965e+01
1.100000000000000000e+02 1.625017061382135353e+01
1.104000000000000057e+02 1.621749311018577089e+01
1.108000000000000114e+02 1.618795045238330843e+01
1.112000000000000028e+02 1.615856917384945035e+01
1.116000000000000085e+02 1.612934779630255377e+01
1.120000000000000000e+02 1.610028486044024731e+01
1.124000000000000057e+02 1.607137892562640502e+01
1.128000000000000114e+02 1.604262856958447969e+01
1.132000000000000028e+02 1.601403238809695040e+01
1.136000000000000085e+02 1.598558899471079187e+01
1.140000000000000000e+02 1.595729702044880582e+01
1.144000000000000057e+02 1.592915511352662250e+01
1.148000000000000114e+02 1.590116193907538111e+01
1.152000000000000028e+02 1.587331617886980872e+01
1.156000000000000085e+02 1.584561653106163348e+01
1.160000000000000000e+02 1.581806170991824345e+01
1.164000000000000057e+02 1.579065044556639030e+01
1.168000000000000114e+02 1.576338148374090764e+01
1.172000000000000028e+02 1.573625358553823617e+01
1.176000000000000085e+02 1.570911756392556313e+01
1.180000000000000000e+02 1.568208842182783869e+01
1.184000000000000057e+02 1.565519806429679406e+01
1.188000000000000114e+02 1.562844529686352146e+01
1.192000000000000028e+02 1.560182893946761240e+01
1.196000000000000085e+02 1.557534782623389980e+01
1.200000000000000000e+02 1.554900080525344919e+01
1.204000000000000057e+02 1.552278673836863021e+01
1.208000000000000114e+02 1.549670450096226659e+01
1.212000000000000028e+02 1.547075298175070301e+01
1.216000000000000085e+02 1.544493108258072311e+01
1.220000000000000000e+02 1.541923771823028666e+01
1.224000000000000057e+02 1.539367181621289404e+01
1.228000000000000114e+02 1.536823231658561895e+01
1.232000000000000028e+02 1.534285223681089505e+01
1.236000000000000085e+02 1.531753647466849344e+01
1.240000000000000000e+02 1.529234474521782872e+01
1.244000000000000057e+02 1.526727603048990289e+01
1.248000000000000114e+02 1.524232932422248155e+01
1.252000000000000028e+02 1.521750363168720810e+01
1.256000000000000085e+02 1.519279796951981965e+01
1.260000000000000000e+02 1.516821136555340566e+01
1.264000000000000057e+02 1.514374285865465453e+01
1.268000000000000114e+02 1.511939149856303466e+01
1.272000000000000028e+02 1.509515634573281417e+01
1.276000000000000085e+02 1.507103647117789968e+01
1.280000000000000000e+02 1.504703095631937337e+01
1.284000000000000057e+02 1.502313889283579407e+01
1.288000000000000114e+02 1.499935938251604384e+01
1.291999999999999886e+02 1.497569153711481249e+01
1.296000000000000227e+02 1.495213447821052810e+01
1.300000000000000000e+02 1.492868733706586681e+01
1.304000000000000057e+02 1.490534925449055415e+01
1.308000000000000114e+02 1.488211938070663720e+01
1.311999999999999886e+02 1.485899687521604129e+01
1.316000000000000227e+02 1.483598090667034519e+01
1.320000000000000000e+02 1.481307065274291546e+01
1.324000000000000057e+02 1.479026530000307815e+01
1.328000000000000114e+02 1.476756404379252352e+01
1.331999999999999886e+02 1.474831115907871038e+01
1.336000000000000227e+02 1.472603474450254701e+01
1.340000000000000000e+02 1.470385868640877902e+01
1.344000000000000057e+02 1.468178222663843258e+01
1.348000000000000114e+02 1.465980461506459243e+01
1.351999999999999886e+02 1.463792510948306713e+01
1.356000000000000227e+02 1.461614297550482000e+01
1.360000000000000000e+02 1.459445748645022434e+01
1.364000000000000057e+02 1.457286792324502400e+01
1.368000000000000114e+02 1.455137357431806677e+01
1.371999999999999886e+02 1.452997373550063998e+01
1.376000000000000227e+02 1.450984523472126497e+01
1.380000000000000000e+02 1.448883192107079410e+01
1.384000000000000057e+02 1.446790982840157547e+01
1.388000000000000114e+02 1.444707829201589178e+01
1.392000000000000171e+02 1.442633665401231013e+01
1.395999999999999943e+02 1.440568426319632422e+01
1.400000000000000000e+02 1.438512047499243884e+01
1.404000000000000057e+02 1.436464465135766133e+01
1.408000000000000114e+02 1.434425616069636611e+01
1.412000000000000171e+02 1.432395437777652347e+01
1.415999999999999943e+02 1.430373868364724999e+01
1.420000000000000000e+02 1.428360846555767161e+01
1.424000000000000057e+02 1.426356311687704803e+01
1.428000000000000114e+02 1.424360203701617777e+01
1.432000000000000171e+02 1.422372463135003784e+01
1.435999999999999943e+02 1.420393031114158688e+01
1.440000000000000000e+02 1.418421849346682428e+01
1.444000000000000057e+02 1.416458860114097362e+01
1.448000000000000114e+02 1.414504006264578528e+01
1.452000000000000171e+02 1.412557231205805230e+01
1.455999999999999943e+02 1.410618478897912986e+01
1.460000000000000000e+02 1.408687693846558986e+01
1.464000000000000057e+02 1.406764821096093776e+01
1.468000000000000114e+02 1.404849806222835440e+01
1.472000000000000171e+02 1.402942595328447695e+01
1.475999999999999943e+02 1.401043135033420484e+01
1.480000000000000000e+02 1.399151372470642407e+01
1.484000000000000057e+02 1.397267255279080267e+01
1.488000000000000114e+02 1.395390731597546363e+01
1.492000000000000171e+02 1.393517532357644484e+01
1.495999999999999943e+02 1.391649396278154605e+01
1.500000000000000000e+02 1.389788735426862232e+01
