1.000000000000000000e+01 6.917990513948753062e+01
1.040000000000000036e+01 6.809541935898030829e+01
1.080000000000000071e+01 6.759468907129291892e+01
1.119999999999999929e+01 6.668258430766053380e+01
1.159999999999999964e+01 6.490990861733752126e+01
1.200000000000000000e+01 6.331081013644929101e+01
1.240000000000000036e+01 6.185055551905266924e+01
1.280000000000000071e+01 6.050898996372036720e+01
1.319999999999999929e+01 5.927003866425995682e+01
1.359999999999999964e+01 5.812065298133461511e+01
1.400000000000000000e+01 5.705008466531958788e+01
1.440000000000000036e+01 5.604936998246690649e+01
1.480000000000000071e+01 5.511095334950745439e+01
1.519999999999999929e+01 5.422840666525370779e+01
1.560000000000000142e+01 5.339621605830633655e+01
1.600000000000000000e+01 5.260961722074912927e+01
1.639999999999999858e+01 5.186446645257024102e+01
1.680000000000000071e+01 5.115713840806716917e+01
1.719999999999999929e+01 5.062580137887113096e+01
1.760000000000000142e+01 5.012070672111642011e+01
1.800000000000000000e+01 4.963893471057322415e+01
1.839999999999999858e+01 4.917866115913307112e+01
1.880000000000000071e+01 4.873825804233243275e+01
1.920000000000000284e+01 4.444522627430379202e+01
1.960000000000000142e+01 4.391724746026132209e+01
2.000000000000000000e+01 4.341164218840138744e+01
2.039999999999999858e+01 4.292682663510099417e+01
2.080000000000000071e+01 4.246137183427985917e+01
2.120000000000000284e+01 4.201398451506083376e+01
2.160000000000000142e+01 4.158349078987485825e+01
2.200000000000000000e+01 4.116882220049072316e+01
2.239999999999999858e+01 4.076900372589688004e+01
2.280000000000000071e+01 4.038314343139735030e+01
2.320000000000000284e+01 4.001042349772768603e+01
2.360000000000000142e+01 3.965009241616830593e+01
2.400000000000000000e+01 3.930145817331239755e+01
2.439999999999999858e+01 3.896388227943238292e+01
2.480000000000000071e+01 3.863677451887492964e+01
2.520000000000000284e+01 3.831958832082261779e+01
2.560000000000000142e+01 3.801181666503001111e+01
2.600000000000000000e+01 3.771298845050645809e+01
2.640000000000000213e+01 3.742266526614591271e+01
2.680000000000000071e+01 3.714035104007311361e+01
2.719999999999999929e+01 3.686548716878512266e+01
2.760000000000000142e+01 3.659773999019968471e+01
2.800000000000000000e+01 3.633679909685051257e+01
2.840000000000000213e+01 3.608237285327565047e+01
2.880000000000000071e+01 3.583418695598378179e+01
2.920000000000000284e+01 3.559198312654719132e+01
2.960000000000000142e+01 3.535551792347901312e+01
3.000000000000000000e+01 3.512456166031071092e+01
3.040000000000000213e+01 3.489889741880321594e+01
3.080000000000000071e+01 3.467832014753800252e+01
3.120000000000000284e+01 3.446263583727316870e+01
3.160000000000000142e+01 3.118493494237106489e+01
3.200000000000000000e+01 3.094201658460125870e+01
3.240000000000000568e+01 3.070440534187294901e+01
3.279999999999999716e+01 3.047191002802270887e+01
3.320000000000000284e+01 3.024434898348442857e+01
3.360000000000000142e+01 3.002154947263226603e+01
3.400000000000000000e+01 2.980334712713684553e+01
3.440000000000000568e+01 2.958958543123421236e+01
3.479999999999999716e+01 2.938011524522285356e+01
3.520000000000000284e+01 2.917479436387394287e+01
3.560000000000000142e+01 2.897348710676760675e+01
3.600000000000000000e+01 2.877606393785936234e+01
3.640000000000000568e+01 2.858240111184043641e+01
3.679999999999999716e+01 2.839238034508791841e+01
3.720000000000000284e+01 2.820588850920625035e+01
3.760000000000000142e+01 2.786111744368409404e+01
3.800000000000000000e+01 2.769484460298024686e+01
3.840000000000000568e+01 2.753150543448839116e+01
3.879999999999999716e+01 2.737101397004122560e+01
3.920000000000000284e+01 2.721328773729300110e+01
3.960000000000000142e+01 2.705824757876047215e+01
4.000000000000000000e+01 2.690581748219983638e+01
4.040000000000000568e+01 2.675592442148873218e+01
4.079999999999999716e+01 2.660849820725150039e+01
4.120000000000000284e+01 2.646347134652930322e+01
4.160000000000000142e+01 2.632077891085390675e+01
4.200000000000000000e+01 2.618035841213590942e+01
4.239999999999999858e+01 2.604214968582527945e+01
4.280000000000000426e+01 2.590609478084541450e+01
4.320000000000000284e+01 2.577213785584070393e+01
4.360000000000000142e+01 2.564022508131353106e+01
4.400000000000000000e+01 2.551030454725906793e+01
4.439999999999999858e+01 2.538232617593627793e+01
4.480000000000000426e+01 2.525624163944032219e+01
4.520000000000000284e+01 2.513200428176699575e+01
4.560000000000000142e+01 2.500956904508223033e+01
4.600000000000000000e+01 2.488889239993092062e+01
4.639999999999999858e+01 2.476693502743727748e+01
4.680000000000000426e+01 2.464604958022592029e+01
4.720000000000000284e+01 2.452684176584295983e+01
4.760000000000000142e+01 2.440927290122623461e+01
4.800000000000000000e+01 2.429330554546172394e+01
4.840000000000000568e+01 2.417615936531507259e+01
4.880000000000000426e+01 2.405749097986364760e+01
4.920000000000000284e+01 2.394043377909904180e+01
4.960000000000000142e+01 2.382495148796536455e+01
5.000000000000000000e+01 2.371100896925745616e+01
5.040000000000000568e+01 2.359857217801022955e+01
5.080000000000000426e+01 2.348760811810764793e+01
5.120000000000000284e+01 2.337808480098434316e+01
5.160000000000000142e+01 2.326997120630169391e+01
5.200000000000000000e+01 2.316323724448738020e+01
5.240000000000000568e+01 2.305785372103488129e+01
5.280000000000000426e+01 2.295379230246576796e+01
5.320000000000000284e+01 2.285102548386399235e+01
5.360000000000000142e+01 2.274952655789687128e+01
5.400000000000000000e+01 2.264926958524281986e+01
5.440000000000000568e+01 2.255022936635095476e+01
5.480000000000000426e+01 2.245238141446199265e+01
5.520000000000000284e+01 2.235570192982439508e+01
5.560000000000000142e+01 2.226016777504356270e+01
5.600000000000000000e+01 2.216575645150560092e+01
5.640000000000000568e+01 2.207244607682067539e+01
5.680000000000000426e+01 2.198021536323411240e+01
5.720000000000000284e+01 2.188904359695657220e+01
5.760000000000000142e+01 2.179891061836721988e+01
5.800000000000000000e+01 2.170979680304677473e+01
5.840000000000000568e+01 2.162168304359934012e+01
5.880000000000000426e+01 2.153455073222469096e+01
5.920000000000000284e+01 2.144838174400447883e+01
5.960000000000000142e+01 2.136315842086810335e+01
6.000000000000000000e+01 2.127886355620565695e+01
6.040000000000000568e+01 2.119548038009745028e+01
6.080000000000000426e+01 2.111299254513084378e+01
6.120000000000000284e+01 2.103138411277721076e+01
6.160000000000000142e+01 2.095063954030278452e+01
6.200000000000000000e+01 2.087074366818902860e+01
6.240000000000000568e+01 2.079168170803905014e+01
6.280000000000000426e+01 2.081977487224967049e+01
6.320000000000000284e+01 2.074721591624696515e+01
6.360000000000000142e+01 2.067537668699662134e+01
6.400000000000000000e+01 2.060424530160605627e+01
6.440000000000000568e+01 2.053381015106520024e+01
6.480000000000001137e+01 2.046405989216513177e+01
6.520000000000000284e+01 2.039498343970669936e+01
6.559999999999999432e+01 2.032656995898683761e+01
6.600000000000000000e+01 2.030938483218061918e+01
6.640000000000000568e+01 2.024689322304240235e+01
6.680000000000001137e+01 2.018498018602289790e+01
6.720000000000000284e+01 2.012363674249075984e+01
6.759999999999999432e+01 2.006285410848064288e+01
6.800000000000000000e+01 2.000262368929205437e+01
6.840000000000000568e+01 1.994293707427037887e+01
6.880000000000001137e+01 1.988378603176283121e+01
6.920000000000000284e+01 1.982516250424253457e+01
6.959999999999999432e+01 1.976705860359398059e+01
7.000000000000000000e+01 1.970946660655377514e+01
7.040000000000000568e+01 1.965237895030053039e+01
7.080000000000001137e+01 1.959578822818818722e+01
7.120000000000000284e+01 1.953968718561736750e+01
7.159999999999999432e+01 1.948406871603935286e+01
7.200000000000000000e+01 1.942892585708783315e+01
7.240000000000000568e+01 1.937425178683358951e+01
7.280000000000001137e+01 1.932003982015741173e+01
7.320000000000000284e+01 1.926628340523698668e+01
7.359999999999999432e+01 1.921297612014348744e+01
7.400000000000000000e+01 1.916011166954385203e+01
7.440000000000000568e+01 1.910768388150491148e+01
7.479999999999999716e+01 1.905568670439561174e+01
7.520000000000000284e+01 1.900411420388383732e+01
7.560000000000000853e+01 1.895296056002442242e+01
7.600000000000000000e+01 1.890222006443512726e+01
7.640000000000000568e+01 1.885188711755737501e+01
7.679999999999999716e+01 1.880195622599884331e+01
7.720000000000000284e+01 1.875188496217474210e+01
7.760000000000000853e+01 1.870162359357203385e+01
7.800000000000000000e+01 1.865176121081808702e+01
7.840000000000000568e+01 1.860229250473149776e+01
7.879999999999999716e+01 1.855321226497347098e+01
7.920000000000000284e+01 1.850451537768991273e+01
7.960000000000000853e+01 1.845619682322200816e+01
8.000000000000000000e+01 1.840825167388292627e+01
8.040000000000000568e+01 1.836067509179832768e+01
8.079999999999999716e+01 1.831346232680864716e+01
8.120000000000000284e+01 1.826660871443090883e+01
8.160000000000000853e+01 1.822010967387830860e+01
8.200000000000000000e+01 1.817396070613537162e+01
8.240000000000000568e+01 1.812815739208707910e+01
8.279999999999999716e+01 1.808269539070007070e+01
8.320000000000000284e+01 1.803757043725421028e+01
8.360000000000000853e+01 1.799277834162294454e+01
8.400000000000000000e+01 1.794831498660081337e+01
8.440000000000000568e+01 1.790417632627658406e+01
8.479999999999999716e+01 1.786035838445057067e+01
8.520000000000000284e+01 1.781685725309482393e+01
8.560000000000000853e+01 1.777262979399525733e+01
8.600000000000000000e+01 1.772836169367531056e+01
8.640000000000000568e+01 1.768441314963441968e+01
8.680000000000001137e+01 1.764078030192710855e+01
8.720000000000000284e+01 1.759745935588202315e+01
8.760000000000000853e+01 1.755444658068631725e+01
8.800000000000000000e+01 1.751173830800746956e+01
8.840000000000000568e+01 1.746933093065123899e+01
8.880000000000001137e+01 1.742722090125481316e+01
8.920000000000000284e+01 1.738540473101387107e+01
8.960000000000000853e+01 1.734387898844272513e+01
9.000000000000000000e+01 1.730264029816636295e+01
9.040000000000000568e+01 1.726168533974352215e+01
9.080000000000001137e+01 1.722101084651983882e+01
9.120000000000000284e+01 1.718061360451009278e+01
9.160000000000000853e+01 1.714049045130886384e+01
9.200000000000000000e+01 1.710063827502848710e+01
9.240000000000000568e+01 1.706105401326375670e+01
9.280000000000001137e+01 1.702173465208241154e+01
9.320000000000000284e+01 1.698267722504073873e+01
9.360000000000000853e+01 1.694387881222352021e+01
9.400000000000000000e+01 1.690533653930760494e+01
9.440000000000000568e+01 1.686704757664843513e+01
9.480000000000001137e+01 1.684670784943270405e+01
9.520000000000000284e+01 1.681024459084913403e+01
9.560000000000000853e+01 1.677401400691395139e+01
9.600000000000000000e+01 1.673801360477109412e+01
9.640000000000000568e+01 1.670224092903436386e+01
9.680000000000001137e+01 1.666669356106383759e+01
9.720000000000000284e+01 1.663136911825929332e+01
9.760000000000000853e+01 1.659626525337024106e+01
9.800000000000000000e+01 1.656137965382207966e+01
9.840000000000000568e+01 1.652671004105784647e+01
9.880000000000001137e+01 1.649225416989529691e+01
9.920000000000000284e+01 1.645800982789877409e+01
9.960000000000000853e+01 1.642397483476545261e+01
1.000000000000000000e+02 1.639014704172569026e+01
1.004000000000000057e+02 1.635652433095699365e+01
1.008000000000000114e+02 1.632310461501122845e+01
1.012000000000000028e+02 1.628988583625487507e+01
1.016000000000000085e+02 1.625686596632172254e+01
1.020000000000000000e+02 1.622404300557795409e+01
1.024000000000000057e+02 1.619141498259906697e+01
1.028000000000000114e+02 1.615897995365845219e+01
1.032000000000000028e+02 1.612673600222728609e+01
1.036000000000000085e+02 1.609468123848539634e+01
1.040000000000000000e+02 1.606281379884293514e+01
1.044000000000000057e+02 1.603113184547243009e+01
1.048000000000000114e+02 1.599963356585107377e+01
1.052000000000000028e+02 1.596831717231287762e+01
1.056000000000000085e+02 1.593718090161059919e+01
1.060000000000000000e+02 1.590622301448693143e+01
1.064000000000000057e+02 1.587544179525506038e+01
1.068000000000000114e+02 1.584483555138803190e+01
1.072000000000000028e+02 1.581440261311689000e+01
1.076000000000000085e+02 1.578414133303735767e+01
1.080000000000000000e+02 1.575405008572479737e+01
1.084000000000000057e+02 1.572412726735720412e+01
1.088000000000000114e+02 1.569437129534616915e+01
1.092000000000000028e+02 1.566478060797548899e+01
1.096000000000000085e+02 1.563535366404729743e+01
1.100000000000000000e+02 1.564787730640823860e+01
1.104000000000000057e+02 1.562006090440564243e+01
1.108000000000000114e+02 1.559239371143007702e+01
1.112000000000000028e+02 1.556487437897703785e+01
1.116000000000000085e+02 1.553750157565972856e+01
1.120000000000000000e+02 1.551027398692972348e+01
1.124000000000000057e+02 1.548290872457052636e+01
1.128000000000000114e+02 1.545554728071429196e+01
1.132000000000000028e+02 1.542833058095244780e+01
1.136000000000000085e+02 1.540125733708261890e+01
1.140000000000000000e+02 1.537432627699466892e+01
1.144000000000000057e+02 1.534753614441239122e+01
1.148000000000000114e+02 1.532088569864033190e+01
1.152000000000000028e+02 1.529437371431543014e+01
1.156000000000000085e+02 1.526799898116358278e+01
1.160000000000000000e+02 1.524176030376090196e+01
1.164000000000000057e+02 1.521565650129955038e+01
1.168000000000000114e+02 1.518968640735810993e+01
1.172000000000000028e+02 1.516384886967635914e+01
1.176000000000000085e+02 1.513814274993431042e+01
1.180000000000000000e+02 1.511256692353548914e+01
1.184000000000000057e+02 1.508712027939432332e+01
1.188000000000000114e+02 1.506180171972751047e+01
1.192000000000000028e+02 1.503661015984938842e+01
1.196000000000000085e+02 1.501154452797105776e+01
1.200000000000000000e+02 1.498660376500333946e+01
1.204000000000000057e+02 1.496178682436335095e+01
1.208000000000000114e+02 1.493709267178471478e+01
1.212000000000000028e+02 1.491252028513126682e+01
1.216000000000000085e+02 1.488806865421416958e+01
1.220000000000000000e+02 1.486373678061247006e+01
1.224000000000000057e+02 1.483952367749684242e+01
1.228000000000000114e+02 1.481542836945666153e+01
1.232000000000000028e+02 1.479144989233011387e+01
1.236000000000000085e+02 1.476758729303748474e+01
1.240000000000000000e+02 1.474383962941739057e+01
1.244000000000000057e+02 1.472020597006603992e+01
1.248000000000000114e+02 1.469668539417928343e+01
1.252000000000000028e+02 1.467327699139759645e+01
1.256000000000000085e+02 1.464997986165374577e+01
1.260000000000000000e+02 1.462679311502321156e+01
1.264000000000000057e+02 1.460371587157725415e+01
1.268000000000000114e+02 1.458074726123857090e+01
1.272000000000000028e+02 1.455788642363950203e+01
1.276000000000000085e+02 1.453513250798273049e+01
1.280000000000000000e+02 1.451248467290439947e+01
1.284000000000000057e+02 1.448994208633965819e+01
1.288000000000000114e+02 1.446750392539050623e+01
1.291999999999999886e+02 1.444516937619595076e+01
1.296000000000000227e+02 1.442293763380441618e+01
1.300000000000000000e+02 1.440080790204832439e+01
1.304000000000000057e+02 1.437877939342084410e+01
1.308000000000000114e+02 1.435685132895477523e+01
1.311999999999999886e+02 1.433502293810344774e+01
1.316000000000000227e+02 1.431329345862371127e+01
1.320000000000000000e+02 1.429166213646083783e+01
1.324000000000000057e+02 1.427012822563545313e+01
1.328000000000000114e+02 1.424869098813228163e+01
1.331999999999999886e+02 1.424044898676084969e+01
1.336000000000000227e+02 1.421960472994405578e+01
1.340000000000000000e+02 1.419885246320714778e+01
1.344000000000000057e+02 1.417819150177835041e+01
1.348000000000000114e+02 1.415741720584947494e+01
1.351999999999999886e+02 1.413662155385648234e+01
1.356000000000000227e+02 1.411591714495731686e+01
1.360000000000000000e+02 1.409530330462808934e+01
1.364000000000000057e+02 1.407477936535918417e+01
1.368000000000000114e+02 1.405434466656134695e+01
1.371999999999999886e+02 1.403399855447334943e+01
1.376000000000000227e+02 1.401374038207107020e+01
1.380000000000000000e+02 1.399356950897814400e+01
1.384000000000000057e+02 1.397348530137799116e+01
1.388000000000000114e+02 1.395348713192733037e+01
1.392000000000000171e+02 1.393357437967104495e+01
1.395999999999999943e+02 1.391374642995841526e+01
1.400000000000000000e+02 1.389400267436069214e+01
1.404000000000000057e+02 1.387434251059004886e+01
1.408000000000000114e+02 1.385476534241972679e+01
1.412000000000000171e+02 1.383527057960551154e+01
1.415999999999999943e+02 1.381585763780844367e+01
1.420000000000000000e+02 1.379652593851873021e+01
1.424000000000000057e+02 1.377727490898088547e+01
1.428000000000000114e+02 1.375810398212001040e+01
1.432000000000000171e+02 1.373901259646925155e+01
1.435999999999999943e+02 1.372000019609839327e+01
1.440000000000000000e+02 1.370106623054352823e+01
1.444000000000000057e+02 1.368221015473787183e+01
1.448000000000000114e+02 1.366343142894361051e+01
1.452000000000000171e+02 1.364472951868478390e+01
1.455999999999999943e+02 1.362610389468126115e+01
1.460000000000000000e+02 1.360755403278369080e+01
1.464000000000000057e+02 1.358907941390940799e+01
1.468000000000000114e+02 1.357067952397942534e+01
1.472000000000000171e+02 1.355235385385627467e+01
1.475999999999999943e+02 1.353410189928283458e+01
1.480000000000000000e+02 1.351592316082210665e+01
1.484000000000000057e+02 1.349781714379786735e+01
1.488000000000000114e+02 1.347978335823622587e+01
1.492000000000000171e+02 1.346182131880804178e+01
1.495999999999999943e+02 1.344393054477223259e+01
1.500000000000000000e+02 1.342611055991992686e+01
