1.000000000000000000e+01 1.316862742892417941e+02
1.040000000000000036e+01 1.331674225783990835e+02
1.080000000000000071e+01 1.365777297251194113e+02
1.119999999999999929e+01 1.373908644460642847e+02
1.159999999999999964e+01 1.328177022685487998e+02
1.200000000000000000e+01 1.287122919640949874e+02
1.240000000000000036e+01 1.250426008581386839e+02
1.280000000000000071e+01 1.218348393285130129e+02
1.319999999999999929e+01 1.188860516651494947e+02
1.359999999999999964e+01 1.161666062682103728e+02
1.400000000000000000e+01 1.137272599002471196e+02
1.440000000000000036e+01 1.105880967427950026e+02
1.480000000000000071e+01 1.083590500355357733e+02
1.519999999999999929e+01 1.062679134269396286e+02
1.560000000000000142e+01 1.043004659727761236e+02
1.600000000000000000e+01 1.024445257897441763e+02
1.639999999999999858e+01 1.006813390461801134e+02
1.680000000000000071e+01 9.900218905351381693e+01
1.719999999999999929e+01 9.744749619841974209e+01
1.760000000000000142e+01 9.144042946079756007e+01
1.800000000000000000e+01 9.005679991872253254e+01
1.839999999999999858e+01 8.873291088708577945e+01
1.880000000000000071e+01 8.606872210153699143e+01
1.920000000000000284e+01 8.490737129066897637e+01
1.960000000000000142e+01 8.380818868916398401e+01
2.000000000000000000e+01 8.275067165224837140e+01
2.039999999999999858e+01 8.173212339475864496e+01
2.080000000000000071e+01 8.074013839971584616e+01
2.120000000000000284e+01 7.978312543774734422e+01
2.160000000000000142e+01 7.885739965066431978e+01
2.200000000000000000e+01 7.795226221701859970e+01
2.239999999999999858e+01 7.707734985935448435e+01
2.280000000000000071e+01 7.623097929381700055e+01
2.320000000000000284e+01 7.541159782576679049e+01
2.360000000000000142e+01 7.461777042733861265e+01
2.400000000000000000e+01 7.384429169436285179e+01
2.439999999999999858e+01 7.302534541173959326e+01
2.480000000000000071e+01 7.228007625188604379e+01
2.520000000000000284e+01 7.161970501276924495e+01
2.560000000000000142e+01 7.087702474856266122e+01
2.600000000000000000e+01 7.015571565729182169e+01
2.640000000000000213e+01 6.945475758850707848e+01
2.680000000000000071e+01 6.877319794076508686e+01
2.719999999999999929e+01 6.811014597300199114e+01
2.760000000000000142e+01 6.746476769462083212e+01
2.800000000000000000e+01 6.683457177070218336e+01
2.840000000000000213e+01 6.621990692977195181e+01
2.880000000000000071e+01 6.562077561487498656e+01
2.920000000000000284e+01 6.503652817842632317e+01
2.960000000000000142e+01 6.446662351924877044e+01
3.000000000000000000e+01 6.391111230263419429e+01
3.040000000000000213e+01 6.336867665028512420e+01
3.080000000000000071e+01 6.283880680477446390e+01
3.120000000000000284e+01 6.232102057112213345e+01
3.160000000000000142e+01 6.189579011760766036e+01
3.200000000000000000e+01 6.176444416094737733e+01
3.240000000000000568e+01 6.129512336815435702e+01
3.279999999999999716e+01 6.083585419557416429e+01
3.320000000000000284e+01 6.038628005104207830e+01
3.360000000000000142e+01 5.994606191496319525e+01
3.400000000000000000e+01 5.951487723641924532e+01
3.440000000000000568e+01 5.909241891327961582e+01
3.479999999999999716e+01 5.867839434883048000e+01
3.520000000000000284e+01 5.824132893445503356e+01
3.560000000000000142e+01 5.785133418662007188e+01
3.600000000000000000e+01 5.746870583381578257e+01
3.640000000000000568e+01 5.709321247283920542e+01
3.679999999999999716e+01 5.735977501036326487e+01
3.720000000000000284e+01 5.702386637325700036e+01
3.760000000000000142e+01 5.669371032940291144e+01
3.800000000000000000e+01 5.636914228314854824e+01
3.840000000000000568e+01 5.605000421589380721e+01
3.879999999999999716e+01 5.573614434981682564e+01
3.920000000000000284e+01 5.532210305724417765e+01
3.960000000000000142e+01 5.502128255333987283e+01
4.000000000000000000e+01 5.472222339707066396e+01
4.040000000000000568e+01 5.442790104374677185e+01
4.079999999999999716e+01 5.413684526567796240e+01
4.120000000000000284e+01 5.385001556517558896e+01
4.160000000000000142e+01 5.356760539900605522e+01
4.200000000000000000e+01 5.328950093775007701e+01
4.239999999999999858e+01 5.301559244637594759e+01
4.280000000000000426e+01 5.274368587815901321e+01
4.320000000000000284e+01 5.247215988840370926e+01
4.360000000000000142e+01 5.220466963448994591e+01
4.400000000000000000e+01 5.194111497520336940e+01
4.439999999999999858e+01 5.168139923724265827e+01
4.480000000000000426e+01 5.142542906159079052e+01
4.520000000000000284e+01 5.117311425815383785e+01
4.560000000000000142e+01 5.092436766814433469e+01
4.600000000000000000e+01 5.067910503372561948e+01
4.639999999999999858e+01 5.043724487446686311e+01
4.680000000000000426e+01 5.019870837019136900e+01
4.720000000000000284e+01 5.005363012688995639e+01
4.760000000000000142e+01 4.982590676207984615e+01
4.800000000000000000e+01 4.960118521727549279e+01
4.840000000000000568e+01 4.937939932267557452e+01
4.880000000000000426e+01 4.916048494648447331e+01
4.920000000000000284e+01 4.894389513919962553e+01
4.960000000000000142e+01 4.876875080572928312e+01
5.000000000000000000e+01 4.855659364212716866e+01
5.040000000000000568e+01 4.834712680417540298e+01
5.080000000000000426e+01 4.814029334607779731e+01
5.120000000000000284e+01 4.793603800597945508e+01
5.160000000000000142e+01 4.773430714217157345e+01
5.200000000000000000e+01 4.753555637348005547e+01
5.240000000000000568e+01 4.733924125936604099e+01
5.280000000000000426e+01 4.714528914086084654e+01
5.320000000000000284e+01 4.695365250982763428e+01
5.360000000000000142e+01 4.676439393300795189e+01
5.400000000000000000e+01 4.657740643955830251e+01
5.440000000000000568e+01 4.639259210935576050e+01
5.480000000000000426e+01 4.620990876778071055e+01
5.520000000000000284e+01 4.602931538419122859e+01
5.560000000000000142e+01 4.585077203215125508e+01
5.600000000000000000e+01 4.567423985134217901e+01
5.640000000000000568e+01 4.549968101107398155e+01
5.680000000000000426e+01 4.531779494302796962e+01
5.720000000000000284e+01 4.514693192938410959e+01
5.760000000000000142e+01 4.497794161534997670e+01
5.800000000000000000e+01 4.481078971838640257e+01
5.840000000000000568e+01 4.464544283336337571e+01
5.880000000000000426e+01 4.448186840376925488e+01
5.920000000000000284e+01 4.431980030069912857e+01
5.960000000000000142e+01 4.415855822044557044e+01
6.000000000000000000e+01 4.399900663654828747e+01
6.040000000000000568e+01 4.384111595544673179e+01
6.080000000000000426e+01 4.367747388563311262e+01
6.120000000000000284e+01 4.352311913024730927e+01
6.160000000000000142e+01 4.337012201829570301e+01
6.200000000000000000e+01 4.321861831599274240e+01
6.240000000000000568e+01 4.306863689086130620e+01
6.280000000000000426e+01 4.292015220946493059e+01
6.320000000000000284e+01 4.277313933672383683e+01
6.360000000000000142e+01 4.262757391794831818e+01
6.400000000000000000e+01 4.248343216152889568e+01
6.440000000000000568e+01 4.234069082225471448e+01
6.480000000000001137e+01 4.219932718523368465e+01
6.520000000000000284e+01 4.205931905038859497e+01
6.559999999999999432e+01 4.192064471750501298e+01
6.600000000000000000e+01 4.178328297180788553e+01
6.640000000000000568e+01 4.164721307004469253e+01
6.680000000000001137e+01 4.150725428018610330e+01
6.720000000000000284e+01 4.137475005629585212e+01
6.759999999999999432e+01 4.141546985859496033e+01
6.800000000000000000e+01 4.128753787580336621e+01
6.840000000000000568e+01 4.116057494393789540e+01
6.880000000000001137e+01 4.103475168813268681e+01
6.920000000000000284e+01 4.091005096083373616e+01
6.959999999999999432e+01 4.078645597598173822e+01
7.000000000000000000e+01 4.066395029922333748e+01
7.040000000000000568e+01 4.054251783844587465e+01
7.080000000000001137e+01 4.042214283462274693e+01
7.120000000000000284e+01 4.031656579975910404e+01
7.159999999999999432e+01 4.019976534633988052e+01
7.200000000000000000e+01 4.008365459309879952e+01
7.240000000000000568e+01 3.996821978964004529e+01
7.280000000000001137e+01 3.985376516923054879e+01
7.320000000000000284e+01 3.974027676460129754e+01
7.359999999999999432e+01 3.962774088764587077e+01
7.400000000000000000e+01 3.951614412224675732e+01
7.440000000000000568e+01 3.940547331732686587e+01
7.479999999999999716e+01 3.929571558011763699e+01
7.520000000000000284e+01 3.918685826963597663e+01
7.560000000000000853e+01 3.907888899036226604e+01
7.600000000000000000e+01 3.897179558611222205e+01
7.640000000000000568e+01 3.886934715221121905e+01
7.679999999999999716e+01 3.876421401633549380e+01
7.720000000000000284e+01 3.865991959602395411e+01
7.760000000000000853e+01 3.856913473042379792e+01
7.800000000000000000e+01 3.846659780689520858e+01
7.840000000000000568e+01 3.836486461010941440e+01
7.879999999999999716e+01 3.826392456709546508e+01
7.920000000000000284e+01 3.816376729995419481e+01
7.960000000000000853e+01 3.806438262123115379e+01
8.000000000000000000e+01 3.796576052942359780e+01
8.040000000000000568e+01 3.786789120461673974e+01
8.079999999999999716e+01 3.777076500424519168e+01
8.120000000000000284e+01 3.767437245897507125e+01
8.160000000000000853e+01 3.757870426870294978e+01
8.200000000000000000e+01 3.748375129866758471e+01
8.240000000000000568e+01 3.738950457567068497e+01
8.279999999999999716e+01 3.729558902123073238e+01
8.320000000000000284e+01 3.720225336775472158e+01
8.360000000000000853e+01 3.710980555361663846e+01
8.400000000000000000e+01 3.701811663527111307e+01
8.440000000000000568e+01 3.692706662837569098e+01
8.479999999999999716e+01 3.683663861164563968e+01
8.520000000000000284e+01 3.674685813245418586e+01
8.560000000000000853e+01 3.665771741764852720e+01
8.600000000000000000e+01 3.656917472773080391e+01
8.640000000000000568e+01 3.648124537670264544e+01
8.680000000000001137e+01 3.639393093199587526e+01
8.720000000000000284e+01 3.630722419817369229e+01
8.760000000000000853e+01 3.622111809764576407e+01
8.800000000000000000e+01 3.613560566819094078e+01
8.840000000000000568e+01 3.605068006054345631e+01
8.880000000000001137e+01 3.596633453604076180e+01
8.920000000000000284e+01 3.588256246433103769e+01
8.960000000000000853e+01 3.579226011628885828e+01
9.000000000000000000e+01 3.570961114288550675e+01
9.040000000000000568e+01 3.562751754997536580e+01
9.080000000000001137e+01 3.554597308961930935e+01
9.120000000000000284e+01 3.546497161229901707e+01
9.160000000000000853e+01 3.538450706492615438e+01
9.200000000000000000e+01 3.530457348890070790e+01
9.240000000000000568e+01 3.522516501821703372e+01
9.280000000000001137e+01 3.514627587761620475e+01
9.320000000000000284e+01 3.506790038078331406e+01
9.360000000000000853e+01 3.498940857213514022e+01
9.400000000000000000e+01 3.491220834995839795e+01
9.440000000000000568e+01 3.483550433097133237e+01
9.480000000000001137e+01 3.475929117388613321e+01
9.520000000000000284e+01 3.468356361793647125e+01
9.560000000000000853e+01 3.460829919636302776e+01
9.600000000000000000e+01 3.453333779415907401e+01
9.640000000000000568e+01 3.446195588206898464e+01
9.680000000000001137e+01 3.438865320205582066e+01
9.720000000000000284e+01 3.431580692540624256e+01
9.760000000000000853e+01 3.424341229064267367e+01
9.800000000000000000e+01 3.417146460588173085e+01
9.840000000000000568e+01 3.409995924752747243e+01
9.880000000000001137e+01 3.402889165899470925e+01
9.920000000000000284e+01 3.395825734946137686e+01
9.960000000000000853e+01 3.388805189264925843e+01
1.000000000000000000e+02 3.381827092563226245e+01
1.004000000000000057e+02 3.374891014767165132e+01
1.008000000000000114e+02 3.367996531907726165e+01
1.012000000000000028e+02 3.361143226009431828e+01
1.016000000000000085e+02 3.354330684981485433e+01
1.020000000000000000e+02 3.347558502511345324e+01
1.024000000000000057e+02 3.340984478470628716e+01
1.028000000000000114e+02 3.334309130207174121e+01
1.032000000000000028e+02 3.327672771044971256e+01
1.036000000000000085e+02 3.321075019388345595e+01
1.040000000000000000e+02 3.314515498874320087e+01
1.044000000000000057e+02 3.307993838280432897e+01
1.048000000000000114e+02 3.301509671434533288e+01
1.052000000000000028e+02 3.295062637126517302e+01
1.056000000000000085e+02 3.288652379021939254e+01
1.060000000000000000e+02 3.282278545577460704e+01
1.064000000000000057e+02 3.275940789958092125e+01
1.068000000000000114e+02 3.269638769956166868e+01
1.072000000000000028e+02 3.263372147912041044e+01
1.076000000000000085e+02 3.257140590636424804e+01
1.080000000000000000e+02 3.250943769334350009e+01
1.084000000000000057e+02 3.243986366787623865e+01
1.088000000000000114e+02 3.237892026165270920e+01
1.092000000000000028e+02 3.231825801502181861e+01
1.096000000000000085e+02 3.225793007514702282e+01
1.100000000000000000e+02 3.219765780875565753e+01
1.104000000000000057e+02 3.213769328390567637e+01
1.108000000000000114e+02 3.207805580465056750e+01
1.112000000000000028e+02 3.201874237528021894e+01
1.116000000000000085e+02 3.195975003858384156e+01
1.120000000000000000e+02 3.190107587521371357e+01
1.124000000000000057e+02 3.184275073640169751e+01
1.128000000000000114e+02 3.178485994373970414e+01
1.132000000000000028e+02 3.172727778034440860e+01
1.136000000000000085e+02 3.167000148213365662e+01
1.140000000000000000e+02 3.161302831976036032e+01
1.144000000000000057e+02 3.155635559805107704e+01
1.148000000000000114e+02 3.149998065545577930e+01
1.152000000000000028e+02 3.144390086350826863e+01
1.156000000000000085e+02 3.138811362629732926e+01
1.160000000000000000e+02 3.133458605205553127e+01
1.164000000000000057e+02 3.127940180098964262e+01
1.168000000000000114e+02 3.122450233572890710e+01
1.172000000000000028e+02 3.116988518705228017e+01
1.176000000000000085e+02 3.111554791578202739e+01
1.180000000000000000e+02 3.106148811231351914e+01
1.184000000000000057e+02 3.100770339615401738e+01
1.188000000000000114e+02 3.095419141547032282e+01
1.192000000000000028e+02 3.090094984664488464e+01
1.196000000000000085e+02 3.084797639384039769e+01
1.200000000000000000e+02 3.079526878857265615e+01
1.204000000000000057e+02 3.074282478929126228e+01
1.208000000000000114e+02 3.069064218096835717e+01
1.212000000000000028e+02 3.063871877469491878e+01
1.216000000000000085e+02 3.058705240728463082e+01
1.220000000000000000e+02 3.053563659283524245e+01
1.224000000000000057e+02 3.048440242440281622e+01
1.228000000000000114e+02 3.043342909469588164e+01
1.232000000000000028e+02 3.038272802942179851e+01
1.236000000000000085e+02 3.033227353395513504e+01
1.240000000000000000e+02 3.028206359396144620e+01
1.244000000000000057e+02 3.023209621819664505e+01
1.248000000000000114e+02 3.018236943816654971e+01
1.252000000000000028e+02 3.013740091195478499e+01
1.256000000000000085e+02 3.008855138999075507e+01
1.260000000000000000e+02 3.003993460515101432e+01
1.264000000000000057e+02 2.999154869493361275e+01
1.268000000000000114e+02 2.994339181775479020e+01
1.272000000000000028e+02 2.989546215264675411e+01
1.276000000000000085e+02 2.984775789896070819e+01
1.280000000000000000e+02 2.980027727607517107e+01
1.284000000000000057e+02 2.975301852310942508e+01
1.288000000000000114e+02 2.970597989864192456e+01
1.291999999999999886e+02 2.965915968043366036e+01
1.296000000000000227e+02 2.961255616515625633e+01
1.300000000000000000e+02 2.956616766812491903e+01
1.304000000000000057e+02 2.951850363822912016e+01
1.308000000000000114e+02 2.947256919818907051e+01
1.311999999999999886e+02 2.942677270340006501e+01
1.316000000000000227e+02 2.938106553994581205e+01
1.320000000000000000e+02 2.933556612444708023e+01
1.324000000000000057e+02 2.929027287190539397e+01
1.328000000000000114e+02 2.924611373501113576e+01
1.331999999999999886e+02 2.920133493706828887e+01
1.336000000000000227e+02 2.915675702092358890e+01
1.340000000000000000e+02 2.911237847358697550e+01
1.344000000000000057e+02 2.906819779805795889e+01
1.348000000000000114e+02 2.902421351310832875e+01
1.351999999999999886e+02 2.898042415306833419e+01
1.356000000000000227e+02 2.893682826761646254e+01
1.360000000000000000e+02 2.889342442157269630e+01
1.364000000000000057e+02 2.885021119469513096e+01
1.368000000000000114e+02 2.880718718148000690e+01
1.371999999999999886e+02 2.876435099096490688e+01
1.376000000000000227e+02 2.872168586716036387e+01
1.380000000000000000e+02 2.867917280755557385e+01
1.384000000000000057e+02 2.863684381973151361e+01
1.388000000000000114e+02 2.859469756571071741e+01
1.392000000000000171e+02 2.855273272116163596e+01
1.395999999999999943e+02 2.851094797521960089e+01
1.400000000000000000e+02 2.846934203031063149e+01
1.404000000000000057e+02 2.842791360197814043e+01
1.408000000000000114e+02 2.838652636022771958e+01
1.412000000000000171e+02 2.834530947485222896e+01
1.415999999999999943e+02 2.830426691157758867e+01
1.420000000000000000e+02 2.826339743256133374e+01
1.424000000000000057e+02 2.822269981229304747e+01
1.428000000000000114e+02 2.818217283743637580e+01
1.432000000000000171e+02 2.814181530667342912e+01
1.435999999999999943e+02 2.810160822728189700e+01
1.440000000000000000e+02 2.806155256945696053e+01
1.444000000000000057e+02 2.802166306073078417e+01
1.448000000000000114e+02 2.798193854411272952e+01
1.452000000000000171e+02 2.794237787391567451e+01
1.455999999999999943e+02 2.790391981358427742e+01
1.460000000000000000e+02 2.786472484850514775e+01
1.464000000000000057e+02 2.782569007319667165e+01
1.468000000000000114e+02 2.778681438849878305e+01
1.472000000000000171e+02 2.774809670583306698e+01
1.475999999999999943e+02 2.770953594707169287e+01
1.480000000000000000e+02 2.767113104440839422e+01
1.484000000000000057e+02 2.763288094023131336e+01
1.488000000000000114e+02 2.759478458699785364e+01
1.492000000000000171e+02 2.755684094711139309e+01
1.495999999999999943e+02 2.751904899279972128e+01
1.500000000000000000e+02 2.748140770599546201e+01
