1.000000000000000000e+01 5.300081715611874955e+01
1.040000000000000036e+01 5.170223543503097119e+01
1.080000000000000071e+01 5.050351957728038599e+01
1.119999999999999929e+01 4.939182481447069506e+01
1.159999999999999964e+01 4.835656261587350002e+01
1.200000000000000000e+01 4.738890881303137803e+01
1.240000000000000036e+01 4.648143775168857417e+01
1.280000000000000071e+01 4.562784581591125033e+01
1.319999999999999929e+01 4.482273948673952191e+01
1.359999999999999964e+01 4.406147076413383701e+01
1.400000000000000000e+01 4.334000786458054222e+01
1.440000000000000036e+01 4.265483254490574438e+01
1.480000000000000071e+01 4.200285777020982891e+01
1.519999999999999929e+01 4.138136110070626472e+01
1.560000000000000142e+01 4.078793034930976091e+01
1.600000000000000000e+01 4.022041890957510191e+01
1.639999999999999858e+01 3.968796171732971345e+01
1.680000000000000071e+01 3.923412253142019779e+01
1.719999999999999929e+01 3.893487340118812767e+01
1.760000000000000142e+01 3.864770291459268492e+01
1.800000000000000000e+01 3.837103144902210516e+01
1.839999999999999858e+01 3.810418213663245979e+01
1.880000000000000071e+01 3.784653903379172846e+01
1.920000000000000284e+01 3.759754016722575898e+01
1.960000000000000142e+01 3.735667153361134751e+01
2.000000000000000000e+01 3.712346190102653765e+01
2.039999999999999858e+01 3.689747828792862094e+01
2.080000000000000071e+01 3.667832201714762164e+01
2.120000000000000284e+01 3.646562525994620074e+01
2.160000000000000142e+01 3.625904799941602619e+01
2.200000000000000000e+01 3.605827535405162365e+01
2.239999999999999858e+01 3.586301521180828900e+01
2.280000000000000071e+01 3.567299613272918890e+01
2.320000000000000284e+01 3.548796548465006140e+01
2.360000000000000142e+01 3.530768778181557366e+01
2.400000000000000000e+01 3.513194320067686505e+01
2.439999999999999858e+01 3.496052625084782761e+01
2.480000000000000071e+01 3.479324458230890116e+01
2.520000000000000284e+01 3.462991791256941099e+01
2.560000000000000142e+01 3.447037705971375487e+01
2.600000000000000000e+01 3.431446306913701960e+01
2.640000000000000213e+01 3.416202642337318451e+01
2.680000000000000071e+01 3.401292632578488195e+01
2.719999999999999929e+01 3.386703005005072242e+01
2.760000000000000142e+01 3.372421234838986948e+01
2.800000000000000000e+01 3.358435491232642534e+01
2.840000000000000213e+01 3.344734588054190993e+01
2.880000000000000071e+01 3.331307938900860677e+01
2.920000000000000284e+01 3.318145515915666977e+01
2.960000000000000142e+01 3.305237812031413824e+01
3.000000000000000000e+01 3.292575806308338571e+01
3.040000000000000213e+01 3.280150932068829661e+01
3.080000000000000071e+01 3.267955047565066451e+01
3.120000000000000284e+01 3.255980408943932503e+01
3.160000000000000142e+01 2.947880359667960448e+01
3.200000000000000000e+01 2.932809903641035021e+01
3.240000000000000568e+01 2.918029445240609121e+01
3.279999999999999716e+01 2.903529311200072272e+01
3.320000000000000284e+01 2.889300280905423080e+01
3.360000000000000142e+01 2.875333559347084034e+01
3.400000000000000000e+01 2.861620752028865056e+01
3.440000000000000568e+01 2.848153841668435859e+01
3.479999999999999716e+01 2.834925166539608199e+01
3.520000000000000284e+01 2.821927400321084534e+01
3.560000000000000142e+01 2.809153533328998620e+01
3.600000000000000000e+01 2.796596855022054484e+01
3.640000000000000568e+01 2.784250937678207904e+01
3.679999999999999716e+01 2.772109621151064118e+01
3.720000000000000284e+01 2.760166998622340628e+01
3.760000000000000142e+01 2.748417403274187265e+01
3.800000000000000000e+01 2.736855395811794978e+01
3.840000000000000568e+01 2.725475752772742766e+01
3.879999999999999716e+01 2.714273455564987358e+01
3.920000000000000284e+01 2.703243680180248276e+01
3.960000000000000142e+01 2.692381787534071691e+01
4.000000000000000000e+01 2.681683314387782957e+01
4.040000000000000568e+01 2.671143964811290061e+01
4.079999999999999716e+01 2.660759602148922909e+01
4.120000000000000284e+01 2.650526241453598431e+01
4.160000000000000142e+01 2.640440042357286288e+01
4.200000000000000000e+01 2.379861835956841531e+01
4.239999999999999858e+01 2.368898284656536646e+01
4.280000000000000426e+01 2.358089735384540830e+01
4.320000000000000284e+01 2.347432457134547690e+01
4.360000000000000142e+01 2.336922845430222395e+01
4.400000000000000000e+01 2.326557416810127776e+01
4.439999999999999858e+01 2.316332803605422441e+01
4.480000000000000426e+01 2.306245748992022726e+01
4.520000000000000284e+01 2.296293102300311517e+01
4.560000000000000142e+01 2.286471814566600713e+01
4.600000000000000000e+01 2.276778934311703750e+01
4.639999999999999858e+01 2.266911878362862609e+01
4.680000000000000426e+01 2.257107210402191555e+01
4.720000000000000284e+01 2.247426751628881902e+01
4.760000000000000142e+01 2.237867838398994280e+01
4.800000000000000000e+01 2.228427887574510891e+01
4.840000000000000568e+01 2.219104393391199181e+01
4.880000000000000426e+01 2.209894924475116795e+01
4.920000000000000284e+01 2.200797120999451550e+01
4.960000000000000142e+01 2.191808691973929157e+01
5.000000000000000000e+01 2.182927412659510225e+01
5.040000000000000568e+01 2.174151122101552858e+01
5.080000000000000426e+01 2.165477720775059112e+01
5.120000000000000284e+01 2.156905168335995171e+01
5.160000000000000142e+01 2.148431481473059534e+01
5.200000000000000000e+01 2.140054731854631598e+01
5.240000000000000568e+01 2.131773044165908360e+01
5.280000000000000426e+01 2.123584594231576261e+01
5.320000000000000284e+01 2.115487607219631627e+01
5.360000000000000142e+01 2.107480355922200488e+01
5.400000000000000000e+01 2.099561159109491371e+01
5.440000000000000568e+01 2.091728379953190142e+01
5.480000000000000426e+01 2.083980424515872798e+01
5.520000000000000284e+01 2.076315740303150648e+01
5.560000000000000142e+01 2.068732814875500026e+01
5.600000000000000000e+01 2.061230174516864722e+01
5.640000000000000568e+01 2.053806382957303711e+01
5.680000000000000426e+01 2.046460040147084669e+01
5.720000000000000284e+01 2.039189781079797825e+01
5.760000000000000142e+01 2.031994274662164912e+01
5.800000000000000000e+01 2.024872222628373208e+01
5.840000000000000568e+01 2.017822358496849233e+01
5.880000000000000426e+01 2.010843446567540127e+01
5.920000000000000284e+01 2.003934280957821557e+01
5.960000000000000142e+01 1.997093684675298064e+01
6.000000000000000000e+01 1.990320508725822535e+01
6.040000000000000568e+01 1.983613631255162346e+01
6.080000000000000426e+01 1.976971956722806567e+01
6.120000000000000284e+01 1.970394415106502350e+01
6.160000000000000142e+01 1.963879961136178309e+01
6.200000000000000000e+01 1.957427573555956712e+01
6.240000000000000568e+01 1.951036254413057236e+01
6.280000000000000426e+01 1.944705028372428046e+01
6.320000000000000284e+01 1.938432942056007136e+01
6.360000000000000142e+01 1.932219063405573678e+01
6.400000000000000000e+01 1.926062481068189669e+01
6.440000000000000568e+01 1.919962303803296066e+01
6.480000000000001137e+01 1.913917659910547897e+01
6.520000000000000284e+01 1.907927696677556639e+01
6.559999999999999432e+01 1.901991579846693625e+01
6.600000000000000000e+01 1.901166090463262037e+01
6.640000000000000568e+01 1.895797981547144673e+01
6.680000000000001137e+01 1.890475989199418194e+01
6.720000000000000284e+01 1.885199440411187055e+01
6.759999999999999432e+01 1.879691244730256727e+01
6.800000000000000000e+01 1.874214443660083163e+01
6.840000000000000568e+01 1.868783949461010607e+01
6.880000000000001137e+01 1.863399102847295907e+01
6.920000000000000284e+01 1.858059257727524738e+01
6.959999999999999432e+01 1.852763780864968624e+01
7.000000000000000000e+01 1.847512051548614664e+01
7.040000000000000568e+01 1.842303461274472909e+01
7.080000000000001137e+01 1.837137413436774125e+01
7.120000000000000284e+01 1.832013323028701990e+01
7.159999999999999432e+01 1.826930616352317926e+01
7.200000000000000000e+01 1.821888730737332907e+01
7.240000000000000568e+01 1.816887114268421044e+01
7.280000000000001137e+01 1.811925225520760563e+01
7.320000000000000284e+01 1.807002533303512593e+01
7.359999999999999432e+01 1.802118516410956062e+01
7.400000000000000000e+01 1.797272663381012592e+01
7.440000000000000568e+01 1.792464472260893871e+01
7.479999999999999716e+01 1.787693450379637383e+01
7.520000000000000284e+01 1.782959114127280031e+01
7.560000000000000853e+01 1.778260988740441917e+01
7.600000000000000000e+01 1.773598608094113871e+01
7.640000000000000568e+01 1.768971514499416031e+01
7.679999999999999716e+01 1.764379258507146986e+01
7.720000000000000284e+01 1.759821398716910323e+01
7.760000000000000853e+01 1.755297501591646281e+01
7.800000000000000000e+01 1.750807141277374512e+01
7.840000000000000568e+01 1.746349899427987395e+01
7.879999999999999716e+01 1.741925365034919793e+01
7.920000000000000284e+01 1.737533134261534684e+01
7.960000000000000853e+01 1.733172810282077236e+01
8.000000000000000000e+01 1.728844003125043116e+01
8.040000000000000568e+01 1.724546329520815391e+01
8.079999999999999716e+01 1.720279412753443182e+01
8.120000000000000284e+01 1.716042882516422452e+01
8.160000000000000853e+01 1.711836374772344982e+01
8.200000000000000000e+01 1.707659531616312876e+01
8.240000000000000568e+01 1.703512001142975407e+01
8.279999999999999716e+01 1.699393437317090161e+01
8.320000000000000284e+01 1.695303499847501172e+01
8.360000000000000853e+01 1.691241854064409011e+01
8.400000000000000000e+01 1.687208170799853946e+01
8.440000000000000568e+01 1.683202126271294219e+01
8.479999999999999716e+01 1.679223401968202367e+01
8.520000000000000284e+01 1.675271684541568007e+01
8.560000000000000853e+01 1.671242736010314189e+01
8.600000000000000000e+01 1.667205199294557616e+01
8.640000000000000568e+01 1.663195166879172149e+01
8.680000000000001137e+01 1.659212324010200845e+01
8.720000000000000284e+01 1.655256361004133581e+01
8.760000000000000853e+01 1.651326973142617760e+01
8.800000000000000000e+01 1.647423860569846710e+01
8.840000000000000568e+01 1.643546728192534090e+01
8.880000000000001137e+01 1.639695285582412509e+01
8.920000000000000284e+01 1.635869246881167172e+01
8.960000000000000853e+01 1.632068330707741666e+01
9.000000000000000000e+01 1.628292260067944852e+01
9.040000000000000568e+01 1.624540762266284943e+01
9.080000000000001137e+01 1.620813568819977490e+01
9.120000000000000284e+01 1.617110415375049826e+01
9.160000000000000853e+01 1.613431041624494000e+01
9.200000000000000000e+01 1.609775191228403557e+01
9.240000000000000568e+01 1.606142611736036585e+01
9.280000000000001137e+01 1.602533054509751764e+01
9.320000000000000284e+01 1.598946274650765176e+01
9.360000000000000853e+01 1.595382030926673345e+01
9.400000000000000000e+01 1.591840085700696683e+01
9.440000000000000568e+01 1.588320204862592355e+01
9.480000000000001137e+01 1.584822157761189132e+01
9.520000000000000284e+01 1.581345717138504980e+01
9.560000000000000853e+01 1.577890659065396761e+01
9.600000000000000000e+01 1.574456762878700111e+01
9.640000000000000568e+01 1.571043811119827716e+01
9.680000000000001137e+01 1.567651589474776408e+01
9.720000000000000284e+01 1.564279886715504730e+01
9.760000000000000853e+01 1.560928494642651643e+01
9.800000000000000000e+01 1.557597208029558011e+01
9.840000000000000568e+01 1.554285824567545049e+01
9.880000000000001137e+01 1.550994144812434428e+01
9.920000000000000284e+01 1.547721972132261925e+01
9.960000000000000853e+01 1.544469112656160981e+01
1.000000000000000000e+02 1.541235375224379567e+01
1.004000000000000057e+02 1.538020571339407994e+01
1.008000000000000114e+02 1.534824515118184429e+01
1.012000000000000028e+02 1.531647023245342965e+01
1.016000000000000085e+02 1.528487914927496050e+01
1.020000000000000000e+02 1.525347011848502987e+01
1.024000000000000057e+02 1.522224138125712933e+01
1.028000000000000114e+02 1.519119120267153988e+01
1.032000000000000028e+02 1.516031787129642439e+01
1.036000000000000085e+02 1.512961969877788526e+01
1.040000000000000000e+02 1.509909501943883470e+01
1.044000000000000057e+02 1.521193161255928139e+01
1.048000000000000114e+02 1.518370473697476797e+01
1.052000000000000028e+02 1.515563347710997988e+01
1.056000000000000085e+02 1.512771637921607137e+01
1.060000000000000000e+02 1.509995200872633525e+01
1.064000000000000057e+02 1.507233894992940471e+01
1.068000000000000114e+02 1.504487580564923910e+01
1.072000000000000028e+02 1.501756119693181191e+01
1.076000000000000085e+02 1.499039376273820423e+01
1.080000000000000000e+02 1.496337215964408429e+01
1.084000000000000057e+02 1.493649506154535800e+01
1.088000000000000114e+02 1.490976115936980761e+01
1.092000000000000028e+02 1.488316916079463503e+01
1.096000000000000085e+02 1.485671778996971426e+01
1.100000000000000000e+02 1.487219415111880849e+01
1.104000000000000057e+02 1.484730787107107908e+01
1.108000000000000114e+02 1.482254845687332789e+01
1.112000000000000028e+02 1.479791480992381381e+01
1.116000000000000085e+02 1.477340584505355636e+01
1.120000000000000000e+02 1.474902049031451412e+01
1.124000000000000057e+02 1.472475768677169405e+01
1.128000000000000114e+02 1.470061638829940875e+01
1.132000000000000028e+02 1.467659556138134391e+01
1.136000000000000085e+02 1.465269418491446096e+01
1.140000000000000000e+02 1.462891125001669224e+01
1.144000000000000057e+02 1.460524575983816220e+01
1.148000000000000114e+02 1.458169672937610528e+01
1.152000000000000028e+02 1.455826318529315699e+01
1.156000000000000085e+02 1.453494416573914272e+01
1.160000000000000000e+02 1.451173872017613498e+01
1.164000000000000057e+02 1.448864590920679518e+01
1.168000000000000114e+02 1.446566480440591462e+01
1.172000000000000028e+02 1.444279448815504807e+01
1.176000000000000085e+02 1.442003405348020806e+01
1.180000000000000000e+02 1.439738260389254165e+01
1.184000000000000057e+02 1.437483925323192224e+01
1.188000000000000114e+02 1.435240312551340480e+01
1.192000000000000028e+02 1.433007335477646471e+01
1.196000000000000085e+02 1.430784908493695440e+01
1.200000000000000000e+02 1.428572946964178669e+01
1.204000000000000057e+02 1.426371367212615482e+01
1.208000000000000114e+02 1.424180086507342580e+01
1.212000000000000028e+02 1.421999023047740174e+01
1.216000000000000085e+02 1.419828095950716929e+01
1.220000000000000000e+02 1.417667225237425477e+01
1.224000000000000057e+02 1.415516331820219342e+01
1.228000000000000114e+02 1.413375337489835459e+01
1.232000000000000028e+02 1.411244164902805664e+01
1.236000000000000085e+02 1.409122737569089168e+01
1.240000000000000000e+02 1.407010979839917653e+01
1.244000000000000057e+02 1.404908816895854429e+01
1.248000000000000114e+02 1.402816174735061949e+01
1.252000000000000028e+02 1.400732980161772190e+01
1.256000000000000085e+02 1.398659160774952781e+01
1.260000000000000000e+02 1.396594644957173514e+01
1.264000000000000057e+02 1.394539361863657945e+01
1.268000000000000114e+02 1.392493241411526483e+01
1.272000000000000028e+02 1.390456214269222990e+01
1.276000000000000085e+02 1.388428211846115801e+01
1.280000000000000000e+02 1.386409166282280481e+01
1.284000000000000057e+02 1.384399010438453459e+01
1.288000000000000114e+02 1.382397677886152820e+01
1.291999999999999886e+02 1.380405102897967495e+01
1.296000000000000227e+02 1.378421220438004369e+01
1.300000000000000000e+02 1.376445966152502720e+01
1.304000000000000057e+02 1.374479276360596813e+01
1.308000000000000114e+02 1.372521088045232318e+01
1.311999999999999886e+02 1.370571338844241893e+01
1.316000000000000227e+02 1.368629967041551154e+01
1.320000000000000000e+02 1.366696911558547356e+01
1.324000000000000057e+02 1.364772111945575261e+01
1.328000000000000114e+02 1.362855508373579028e+01
1.331999999999999886e+02 1.360947041625878029e+01
1.336000000000000227e+02 1.359046653090075196e+01
1.340000000000000000e+02 1.357154284750099826e+01
1.344000000000000057e+02 1.355269879178372605e+01
1.348000000000000114e+02 1.353372983307353294e+01
1.351999999999999886e+02 1.351472805759687645e+01
1.356000000000000227e+02 1.349580617098030899e+01
1.360000000000000000e+02 1.347696360386682102e+01
1.364000000000000057e+02 1.345819979263167809e+01
1.368000000000000114e+02 1.343951417930789738e+01
1.371999999999999886e+02 1.342090621151291785e+01
1.376000000000000227e+02 1.340237534237640737e+01
1.380000000000000000e+02 1.338392103046925286e+01
1.384000000000000057e+02 1.336554273973362328e+01
1.388000000000000114e+02 1.334723993941416964e+01
1.392000000000000171e+02 1.332901210399030134e+01
1.395999999999999943e+02 1.331085871310949287e+01
1.400000000000000000e+02 1.329277925152165452e+01
1.404000000000000057e+02 1.327477320901452629e+01
1.408000000000000114e+02 1.325684008035007189e+01
1.412000000000000171e+02 1.323897936520183549e+01
1.415999999999999943e+02 1.322088326507200406e+01
1.420000000000000000e+02 1.320279902883631529e+01
1.424000000000000057e+02 1.318478742567752349e+01
1.428000000000000114e+02 1.316684796268096136e+01
1.432000000000000171e+02 1.314898015165382716e+01
1.435999999999999943e+02 1.313118350906676213e+01
1.440000000000000000e+02 1.311345755599630891e+01
1.444000000000000057e+02 1.309580181806827781e+01
1.448000000000000114e+02 1.307821582540195493e+01
1.452000000000000171e+02 1.306069911255511684e+01
1.455999999999999943e+02 1.304325121846990498e+01
1.460000000000000000e+02 1.302587168641948523e+01
1.464000000000000057e+02 1.300856006395551923e+01
1.468000000000000114e+02 1.299131590285641380e+01
1.472000000000000171e+02 1.297413875907631819e+01
1.475999999999999943e+02 1.295702819269489403e+01
1.480000000000000000e+02 1.293998376786782600e+01
1.484000000000000057e+02 1.292300505277804312e+01
1.488000000000000114e+02 1.290609161958767359e+01
1.492000000000000171e+02 1.288924304439068536e+01
1.495999999999999943e+02 1.287245890716622654e+01
1.500000000000000000e+02 1.285573879173265155e+01
