1.000000000000000000e+01 1.038542052386502093e+02
1.040000000000000036e+01 1.052740500558132339e+02
1.080000000000000071e+01 1.070647293539294225e+02
1.119999999999999929e+01 1.075160060229859766e+02
1.159999999999999964e+01 1.085731412322959812e+02
1.200000000000000000e+01 1.096797063143475270e+02
1.240000000000000036e+01 1.060068693548662964e+02
1.280000000000000071e+01 1.027263687891859263e+02
1.319999999999999929e+01 9.976888986953235872e+01
1.359999999999999964e+01 9.710094569547365495e+01
1.400000000000000000e+01 9.475199419326496297e+01
1.440000000000000036e+01 9.258817365291469059e+01
1.480000000000000071e+01 9.058510635687952117e+01
1.519999999999999929e+01 8.872285635524778513e+01
1.560000000000000142e+01 8.699749414301530237e+01
1.600000000000000000e+01 8.541855371597947055e+01
1.639999999999999858e+01 8.130498413774105870e+01
1.680000000000000071e+01 7.961680410820065390e+01
1.719999999999999929e+01 7.802807972780406942e+01
1.760000000000000142e+01 7.652901273907090740e+01
1.800000000000000000e+01 7.511114689484564622e+01
1.839999999999999858e+01 7.376713497312363188e+01
1.880000000000000071e+01 7.109481003613670680e+01
1.920000000000000284e+01 6.991681552369146857e+01
1.960000000000000142e+01 6.879439315282860434e+01
2.000000000000000000e+01 6.772318210963581464e+01
2.039999999999999858e+01 6.669929683416896182e+01
2.080000000000000071e+01 6.533400797433377249e+01
2.120000000000000284e+01 6.438775029372179404e+01
2.160000000000000142e+01 6.350031720995912110e+01
2.200000000000000000e+01 6.266167212878190185e+01
2.239999999999999858e+01 6.185417667309232570e+01
2.280000000000000071e+01 6.107591740659168522e+01
2.320000000000000284e+01 6.032514357404017602e+01
2.360000000000000142e+01 5.960024955423851623e+01
2.400000000000000000e+01 5.889588292450199702e+01
2.439999999999999858e+01 5.818633440765105291e+01
2.480000000000000071e+01 5.749996789621994253e+01
2.520000000000000284e+01 5.683553622435847785e+01
2.560000000000000142e+01 5.619188476327747850e+01
2.600000000000000000e+01 5.556684375881879134e+01
2.640000000000000213e+01 5.495791670038302357e+01
2.680000000000000071e+01 5.436678992261474264e+01
2.719999999999999929e+01 5.379260596212994727e+01
2.760000000000000142e+01 5.323456439167145504e+01
2.800000000000000000e+01 5.269191701198546696e+01
2.840000000000000213e+01 5.216396353197755076e+01
2.880000000000000071e+01 5.099841543846457625e+01
2.920000000000000284e+01 5.051893922937814096e+01
2.960000000000000142e+01 5.005179076644371605e+01
3.000000000000000000e+01 4.959644557316481439e+01
3.040000000000000213e+01 4.915241007343834667e+01
3.080000000000000071e+01 4.871921927768431715e+01
3.120000000000000284e+01 4.829643467830811687e+01
3.160000000000000142e+01 4.788364233236966072e+01
3.200000000000000000e+01 4.785035944543053432e+01
3.240000000000000568e+01 4.747726782590267192e+01
3.279999999999999716e+01 4.706917192120415905e+01
3.320000000000000284e+01 4.672333345093790768e+01
3.360000000000000142e+01 4.638489153613316773e+01
3.400000000000000000e+01 4.605358311355603007e+01
3.440000000000000568e+01 4.572915813990606182e+01
3.479999999999999716e+01 4.541137876910384819e+01
3.520000000000000284e+01 4.510001859264579593e+01
3.560000000000000142e+01 4.479486193735679933e+01
3.600000000000000000e+01 4.448347010400482304e+01
3.640000000000000568e+01 4.417609014029459757e+01
3.679999999999999716e+01 4.387475134048930414e+01
3.720000000000000284e+01 4.357925635250811780e+01
3.760000000000000142e+01 4.328941679933535625e+01
3.800000000000000000e+01 4.300505275786619563e+01
3.840000000000000568e+01 4.272599227445759595e+01
3.879999999999999716e+01 4.245207091415358036e+01
3.920000000000000284e+01 4.218313134084079508e+01
3.960000000000000142e+01 4.191576720523179489e+01
4.000000000000000000e+01 4.164787784480081001e+01
4.040000000000000568e+01 4.138472664306554094e+01
4.079999999999999716e+01 4.112617433540821565e+01
4.120000000000000284e+01 4.087208735486977673e+01
4.160000000000000142e+01 4.062233753454344054e+01
4.200000000000000000e+01 4.037680182882156288e+01
4.239999999999999858e+01 4.013536205209580032e+01
4.280000000000000426e+01 3.989790463362952266e+01
4.320000000000000284e+01 3.966432038742882327e+01
4.360000000000000142e+01 3.943450429603601037e+01
4.400000000000000000e+01 3.920835530725809548e+01
4.439999999999999858e+01 3.898577614292252491e+01
4.480000000000000426e+01 3.876667311882556533e+01
4.520000000000000284e+01 3.855095597510524641e+01
4.560000000000000142e+01 3.851879136873802167e+01
4.600000000000000000e+01 3.832104373577401191e+01
4.639999999999999858e+01 3.812616954038868045e+01
4.680000000000000426e+01 3.793409925496577273e+01
4.720000000000000284e+01 3.774476569420249206e+01
4.760000000000000142e+01 3.755810391434621920e+01
4.800000000000000000e+01 3.740686004576667756e+01
4.840000000000000568e+01 3.723147345271205921e+01
4.880000000000000426e+01 3.705844994443155827e+01
4.920000000000000284e+01 3.688773640145561217e+01
4.960000000000000142e+01 3.676289947152109505e+01
5.000000000000000000e+01 3.660045862719027809e+01
5.040000000000000568e+01 3.644012852928933199e+01
5.080000000000000426e+01 3.628186342463263259e+01
5.120000000000000284e+01 3.612561894241439830e+01
5.160000000000000142e+01 3.597135204082471205e+01
5.200000000000000000e+01 3.581902095616890591e+01
5.240000000000000568e+01 3.566858515435258425e+01
5.280000000000000426e+01 3.552000528460303741e+01
5.320000000000000284e+01 3.537324313530620401e+01
5.360000000000000142e+01 3.522826159184553063e+01
5.400000000000000000e+01 3.508502459633611181e+01
5.440000000000000568e+01 3.494349710915431473e+01
5.480000000000000426e+01 3.480364507216857817e+01
5.520000000000000284e+01 3.466543537358326432e+01
5.560000000000000142e+01 3.452817144366508728e+01
5.600000000000000000e+01 3.439067636310412013e+01
5.640000000000000568e+01 3.425355403709892244e+01
5.680000000000000426e+01 3.411719789798243596e+01
5.720000000000000284e+01 3.398240952280752225e+01
5.760000000000000142e+01 3.384915883187801455e+01
5.800000000000000000e+01 3.371741655115811653e+01
5.840000000000000568e+01 3.358715418464601044e+01
5.880000000000000426e+01 3.345834398789972397e+01
5.920000000000000284e+01 3.333072454928721129e+01
5.960000000000000142e+01 3.320362018978480734e+01
6.000000000000000000e+01 3.307789991718151157e+01
6.040000000000000568e+01 3.295353858383383994e+01
6.080000000000000426e+01 3.283051167979805030e+01
6.120000000000000284e+01 3.270879531213110880e+01
6.160000000000000142e+01 3.258836618500873783e+01
6.200000000000000000e+01 3.246920158062263795e+01
6.240000000000000568e+01 3.235127934082100154e+01
6.280000000000000426e+01 3.223457784945826177e+01
6.320000000000000284e+01 3.211907601542192481e+01
6.360000000000000142e+01 3.200475325630588230e+01
6.400000000000000000e+01 3.189158948270133109e+01
6.440000000000000568e+01 3.177956508307772410e+01
6.480000000000001137e+01 3.166866090922775712e+01
6.520000000000000284e+01 3.155885826225170732e+01
6.559999999999999432e+01 3.145013887905741612e+01
6.600000000000000000e+01 3.134248491935387193e+01
6.640000000000000568e+01 3.126787996407595216e+01
6.680000000000001137e+01 3.116410394331501266e+01
6.720000000000000284e+01 3.106131665811658138e+01
6.759999999999999432e+01 3.095950235904518877e+01
6.800000000000000000e+01 3.089154269780889095e+01
6.840000000000000568e+01 3.079427001132851416e+01
6.880000000000001137e+01 3.069788880681171150e+01
6.920000000000000284e+01 3.060238540102876215e+01
6.959999999999999432e+01 3.050774640431409068e+01
7.000000000000000000e+01 3.041395871249596539e+01
7.040000000000000568e+01 3.032100949909616361e+01
7.080000000000001137e+01 3.022888620778920910e+01
7.120000000000000284e+01 3.015133249191226739e+01
7.159999999999999432e+01 3.006233004543003773e+01
7.200000000000000000e+01 2.997410268800852151e+01
7.240000000000000568e+01 2.988663910040813576e+01
7.280000000000001137e+01 2.979992819468488463e+01
7.320000000000000284e+01 2.971395910812900354e+01
7.359999999999999432e+01 2.962872119739709476e+01
7.400000000000000000e+01 2.954420403283047847e+01
7.440000000000000568e+01 2.946039739295290616e+01
7.479999999999999716e+01 2.937729125914080441e+01
7.520000000000000284e+01 2.929487581045981415e+01
7.560000000000000853e+01 2.921314141866147196e+01
7.600000000000000000e+01 2.913207864333415387e+01
7.640000000000000568e+01 2.905157935387759238e+01
7.679999999999999716e+01 2.897146588085995234e+01
7.720000000000000284e+01 2.889200039049256219e+01
7.760000000000000853e+01 2.881317409565254195e+01
7.800000000000000000e+01 2.873497837596057281e+01
7.840000000000000568e+01 2.865740477372266426e+01
7.879999999999999716e+01 2.858044498999220906e+01
7.920000000000000284e+01 2.850409088074822961e+01
7.960000000000000853e+01 2.842833445318564145e+01
8.000000000000000000e+01 2.835316786211386386e+01
8.040000000000000568e+01 2.827791708456472719e+01
8.079999999999999716e+01 2.820314246335317421e+01
8.120000000000000284e+01 2.812894370910975184e+01
8.160000000000000853e+01 2.805531339171697880e+01
8.200000000000000000e+01 2.798224421516153271e+01
8.240000000000000568e+01 2.790972901443083032e+01
8.279999999999999716e+01 2.783739448932459482e+01
8.320000000000000284e+01 2.776549112126701147e+01
8.360000000000000853e+01 2.769412579793668527e+01
8.400000000000000000e+01 2.762329177814673642e+01
8.440000000000000568e+01 2.755298243883928677e+01
8.479999999999999716e+01 2.748319127243154725e+01
8.520000000000000284e+01 2.741391188423448710e+01
8.560000000000000853e+01 2.734513798994175815e+01
8.600000000000000000e+01 2.727686341318664986e+01
8.640000000000000568e+01 2.720908208316495802e+01
8.680000000000001137e+01 2.714178803232149662e+01
8.720000000000000284e+01 2.707497539409850162e+01
8.760000000000000853e+01 2.700863840074369548e+01
8.800000000000000000e+01 2.694224576908749924e+01
8.840000000000000568e+01 2.687752374087625640e+01
8.880000000000001137e+01 2.681325393379825073e+01
8.920000000000000284e+01 2.674943104961567286e+01
8.960000000000000853e+01 2.668604987698255115e+01
9.000000000000000000e+01 2.662310528961645772e+01
9.040000000000000568e+01 2.656059224451713163e+01
9.080000000000001137e+01 2.649850578023046666e+01
9.120000000000000284e+01 2.643684101515675522e+01
9.160000000000000853e+01 2.637559314590150450e+01
9.200000000000000000e+01 2.631475744566800046e+01
9.240000000000000568e+01 2.625432926268989675e+01
9.280000000000001137e+01 2.619430401870306824e+01
9.320000000000000284e+01 2.613467720745532219e+01
9.360000000000000853e+01 2.607544439325295826e+01
9.400000000000000000e+01 2.601660120954306876e+01
9.440000000000000568e+01 2.595814335753055246e+01
9.480000000000001137e+01 2.591659718705315640e+01
9.520000000000000284e+01 2.585963856114507919e+01
9.560000000000000853e+01 2.580304615920947953e+01
9.600000000000000000e+01 2.574681602476663045e+01
9.640000000000000568e+01 2.569405164589288049e+01
9.680000000000001137e+01 2.563925390598591747e+01
9.720000000000000284e+01 2.558480110182682665e+01
9.760000000000000853e+01 2.553068958177656000e+01
9.800000000000000000e+01 2.547691574841266515e+01
9.840000000000000568e+01 2.542347605749486306e+01
9.880000000000001137e+01 2.537036701695468111e+01
9.920000000000000284e+01 2.531758518590858031e+01
9.960000000000000853e+01 2.526498265059813875e+01
1.000000000000000000e+02 2.521254594505748514e+01
1.004000000000000057e+02 2.516042924447646811e+01
1.008000000000000114e+02 2.510862926582542798e+01
1.012000000000000028e+02 2.505714277330420003e+01
1.016000000000000085e+02 2.500596657746918083e+01
1.020000000000000000e+02 2.495509753437999478e+01
1.024000000000000057e+02 2.490453254476539868e+01
1.028000000000000114e+02 2.485426855320781669e+01
1.032000000000000028e+02 2.480430254734602613e+01
1.036000000000000085e+02 2.475463155709555707e+01
1.040000000000000000e+02 2.470525265388632619e+01
1.044000000000000057e+02 2.465616294991699675e+01
1.048000000000000114e+02 2.460735959742575218e+01
1.052000000000000028e+02 2.455883978797690759e+01
1.056000000000000085e+02 2.451060075176312836e+01
1.060000000000000000e+02 2.446263975692265191e+01
1.064000000000000057e+02 2.441495410887134909e+01
1.068000000000000114e+02 2.436754114964900708e+01
1.072000000000000028e+02 2.432039825727974858e+01
1.076000000000000085e+02 2.427352284514594771e+01
1.080000000000000000e+02 2.422691236137550774e+01
1.084000000000000057e+02 2.418056428824210968e+01
1.088000000000000114e+02 2.413447614157805532e+01
1.092000000000000028e+02 2.408864547019945590e+01
1.096000000000000085e+02 2.404292937065376989e+01
1.100000000000000000e+02 2.399716021950543166e+01
1.104000000000000057e+02 2.395162204595833444e+01
1.108000000000000114e+02 2.390633483397497372e+01
1.112000000000000028e+02 2.386129625929495290e+01
1.116000000000000085e+02 2.381650402783375853e+01
1.120000000000000000e+02 2.377195587517949349e+01
1.124000000000000057e+02 2.372764956609987763e+01
1.128000000000000114e+02 2.368947175899624824e+01
1.132000000000000028e+02 2.364596459825627761e+01
1.136000000000000085e+02 2.360269006436677941e+01
1.140000000000000000e+02 2.355964606529532190e+01
1.144000000000000057e+02 2.351683053539597523e+01
1.148000000000000114e+02 2.347424143498168547e+01
1.152000000000000028e+02 2.343187674990502245e+01
1.156000000000000085e+02 2.338973449114728353e+01
1.160000000000000000e+02 2.334781269441561591e+01
1.164000000000000057e+02 2.330610941974801520e+01
1.168000000000000114e+02 2.326462275112605482e+01
1.172000000000000028e+02 2.322335079609510800e+01
1.176000000000000085e+02 2.318229168539194518e+01
1.180000000000000000e+02 2.314144357257950091e+01
1.184000000000000057e+02 2.310080463368866788e+01
1.188000000000000114e+02 2.306037306686696198e+01
1.192000000000000028e+02 2.302014709203383447e+01
1.196000000000000085e+02 2.298012495054262416e+01
1.200000000000000000e+02 2.294030490484887252e+01
1.204000000000000057e+02 2.290068523818488799e+01
1.208000000000000114e+02 2.286126425424047426e+01
1.212000000000000028e+02 2.282204027684960579e+01
1.216000000000000085e+02 2.278301164968301151e+01
1.220000000000000000e+02 2.274417673594640377e+01
1.224000000000000057e+02 2.270553391808443067e+01
1.228000000000000114e+02 2.266708159748997886e+01
1.232000000000000028e+02 2.262881819421891194e+01
1.236000000000000085e+02 2.259074214671002778e+01
1.240000000000000000e+02 2.255285191151017798e+01
1.244000000000000057e+02 2.251514596300432203e+01
1.248000000000000114e+02 2.247762279315058720e+01
1.252000000000000028e+02 2.244480051538230114e+01
1.256000000000000085e+02 2.240804033044879162e+01
1.260000000000000000e+02 2.237138709997051933e+01
1.264000000000000057e+02 2.233649602323457373e+01
1.268000000000000114e+02 2.230045126933216793e+01
1.272000000000000028e+02 2.226457752803000645e+01
1.276000000000000085e+02 2.222887343313726660e+01
1.280000000000000000e+02 2.219333763378780588e+01
1.284000000000000057e+02 2.215796879421903043e+01
1.288000000000000114e+02 2.212276559355470340e+01
1.291999999999999886e+02 2.208772672559152284e+01
1.296000000000000227e+02 2.205285089858946179e+01
1.300000000000000000e+02 2.201813683506578911e+01
1.304000000000000057e+02 2.198358327159260028e+01
1.308000000000000114e+02 2.194918895859795427e+01
1.311999999999999886e+02 2.191495266017037480e+01
1.316000000000000227e+02 2.188087315386674092e+01
1.320000000000000000e+02 2.184694923052354909e+01
1.324000000000000057e+02 2.181317969407124480e+01
1.328000000000000114e+02 2.177956336135188664e+01
1.331999999999999886e+02 2.174609906193983377e+01
1.336000000000000227e+02 2.171278563796547445e+01
1.340000000000000000e+02 2.167962194394199571e+01
1.344000000000000057e+02 2.164660684659494905e+01
1.348000000000000114e+02 2.161373922469483944e+01
1.351999999999999886e+02 2.158101796889238244e+01
1.356000000000000227e+02 2.154844198155659996e+01
1.360000000000000000e+02 2.151601017661558046e+01
1.364000000000000057e+02 2.148372147939984700e+01
1.368000000000000114e+02 2.145157482648841452e+01
1.371999999999999886e+02 2.141956916555726309e+01
1.376000000000000227e+02 2.138770345523041883e+01
1.380000000000000000e+02 2.135597666493339730e+01
1.384000000000000057e+02 2.132438777474906644e+01
1.388000000000000114e+02 2.129293577527587900e+01
1.392000000000000171e+02 2.126161966748838950e+01
1.395999999999999943e+02 2.123043846260003065e+01
1.400000000000000000e+02 2.119939118192811733e+01
1.404000000000000057e+02 2.117124601547477880e+01
1.408000000000000114e+02 2.114037674953978296e+01
1.412000000000000171e+02 2.110963375971210709e+01
1.415999999999999943e+02 2.107902131832251058e+01
1.420000000000000000e+02 2.104853849115479747e+01
1.424000000000000057e+02 2.101818435338334012e+01
1.428000000000000114e+02 2.098795798945167235e+01
1.432000000000000171e+02 2.095775540314938823e+01
1.435999999999999943e+02 2.092767753544413978e+01
1.440000000000000000e+02 2.089772533847922276e+01
1.444000000000000057e+02 2.086789792775043395e+01
1.448000000000000114e+02 2.083819442749635442e+01
1.452000000000000171e+02 2.080861397058719220e+01
1.455999999999999943e+02 2.077915569841529475e+01
1.460000000000000000e+02 2.074981876078742715e+01
1.464000000000000057e+02 2.072060231581868806e+01
1.468000000000000114e+02 2.069150552982802083e+01
1.472000000000000171e+02 2.066252757723540157e+01
1.475999999999999943e+02 2.063366764046054769e+01
1.480000000000000000e+02 2.060492490982319680e+01
1.484000000000000057e+02 2.057629858344487417e+01
1.488000000000000114e+02 2.054778786715221628e+01
1.492000000000000171e+02 2.051939197438167639e+01
1.495999999999999943e+02 2.049111012608575066e+01
1.500000000000000000e+02 2.046294155064054010e+01
