1.000000000000000000e+01 3.319485767924995798e+02
1.040000000000000036e+01 3.576557872757908854e+02
1.080000000000000071e+01 3.754679358535807410e+02
1.119999999999999929e+01 3.923361949944107891e+02
1.159999999999999964e+01 4.239014684310647567e+02
1.200000000000000000e+01 4.254495946564097721e+02
1.240000000000000036e+01 4.216408213154599025e+02
1.280000000000000071e+01 4.201313024539098251e+02
1.319999999999999929e+01 4.198755251303675777e+02
1.359999999999999964e+01 4.283696907765778406e+02
1.400000000000000000e+01 4.207567967325275049e+02
1.440000000000000036e+01 4.136115541471713755e+02
1.480000000000000071e+01 4.068845144140145180e+02
1.519999999999999929e+01 4.005336069311866822e+02
1.560000000000000142e+01 3.945227280477762974e+02
1.600000000000000000e+01 3.888206565276340143e+02
1.639999999999999858e+01 3.834002076029697719e+02
1.680000000000000071e+01 3.782375644819932177e+02
1.719999999999999929e+01 3.733117439226328997e+02
1.760000000000000142e+01 3.686041645155818856e+02
1.800000000000000000e+01 3.640982946447830955e+02
1.839999999999999858e+01 3.597793629602758756e+02
1.880000000000000071e+01 3.556341184015440717e+02
1.920000000000000284e+01 3.516506298660468133e+02
1.960000000000000142e+01 3.478181178705983712e+02
2.000000000000000000e+01 3.441268122345785514e+02
2.039999999999999858e+01 3.405678310829528641e+02
2.080000000000000071e+01 3.371330774349073067e+02
2.120000000000000284e+01 3.338151503891668312e+02
2.160000000000000142e+01 3.306072684960981860e+02
2.200000000000000000e+01 3.275032033603101809e+02
2.239999999999999858e+01 3.244972218755823974e+02
2.280000000000000071e+01 3.215840357787287758e+02
2.320000000000000284e+01 3.187587574369894696e+02
2.360000000000000142e+01 3.160168609672307980e+02
2.400000000000000000e+01 3.133541479341137688e+02
2.439999999999999858e+01 3.107667169957418878e+02
2.480000000000000071e+01 3.082509369647373205e+02
2.520000000000000284e+01 3.058034228345903784e+02
2.560000000000000142e+01 3.034210143888920470e+02
2.600000000000000000e+01 3.011007570673961595e+02
2.640000000000000213e+01 2.988398848098816529e+02
2.680000000000000071e+01 2.966358046382128464e+02
2.719999999999999929e+01 2.944860827701671155e+02
2.760000000000000142e+01 2.923884320866264943e+02
2.800000000000000000e+01 2.903407007974827252e+02
2.840000000000000213e+01 2.883408621718130576e+02
2.880000000000000071e+01 2.863870052151269761e+02
2.920000000000000284e+01 2.844773261912443445e+02
2.960000000000000142e+01 2.826101208990423856e+02
3.000000000000000000e+01 2.807837776252190451e+02
3.040000000000000213e+01 2.789967707036465185e+02
3.080000000000000071e+01 2.772476546200472853e+02
3.120000000000000284e+01 2.755350586078067181e+02
3.160000000000000142e+01 2.738576816868979336e+02
3.200000000000000000e+01 2.722142881032719401e+02
3.240000000000000568e+01 2.706037031307633924e+02
3.279999999999999716e+01 2.690248092016809665e+02
3.320000000000000284e+01 2.674765423358640533e+02
3.360000000000000142e+01 2.659578888411745083e+02
3.400000000000000000e+01 2.644678822611878672e+02
3.440000000000000568e+01 2.630056005483359058e+02
3.479999999999999716e+01 2.615701634429369733e+02
3.520000000000000284e+01 2.601607300404994589e+02
3.560000000000000142e+01 2.587764965314100891e+02
3.600000000000000000e+01 2.574166940986525560e+02
3.640000000000000568e+01 2.560805869605750900e+02
3.679999999999999716e+01 2.547674705469457308e+02
3.720000000000000284e+01 2.534766697976270962e+02
3.760000000000000142e+01 2.522075375741821972e+02
3.800000000000000000e+01 2.509594531755995206e+02
3.840000000000000568e+01 2.497318209501146953e+02
3.879999999999999716e+01 2.485240689958134226e+02
3.920000000000000284e+01 2.473356479433405184e+02
3.960000000000000142e+01 2.461660298146148875e+02
4.000000000000000000e+01 2.450147069519688898e+02
4.040000000000000568e+01 2.438811910126028408e+02
4.079999999999999716e+01 2.427650120236683620e+02
4.120000000000000284e+01 2.416657174936810293e+02
4.160000000000000142e+01 2.405828715763136358e+02
4.200000000000000000e+01 2.395160542829360963e+02
4.239999999999999858e+01 2.384648607405600558e+02
4.280000000000000426e+01 2.374289004921084256e+02
4.320000000000000284e+01 2.364077968361675630e+02
4.360000000000000142e+01 2.354011862036032312e+02
4.400000000000000000e+01 2.344087175686163675e+02
4.439999999999999858e+01 2.334300518920005345e+02
4.480000000000000426e+01 2.324648615945283723e+02
4.520000000000000284e+01 2.315128300585488148e+02
4.560000000000000142e+01 2.305736511560152167e+02
4.600000000000000000e+01 2.296470288012954484e+02
4.639999999999999858e+01 2.287326765272313480e+02
4.680000000000000426e+01 2.278303170830255908e+02
4.720000000000000284e+01 2.269396820526315253e+02
4.760000000000000142e+01 2.260605114924167367e+02
4.800000000000000000e+01 2.251925535869523287e+02
4.840000000000000568e+01 2.243355643218619093e+02
4.880000000000000426e+01 2.234893071727339304e+02
4.920000000000000284e+01 2.226535528091680476e+02
4.960000000000000142e+01 2.218280788130895758e+02
5.000000000000000000e+01 2.210126694105204592e+02
5.040000000000000568e+01 2.202071152160515339e+02
5.080000000000000426e+01 2.194112129893052838e+02
5.120000000000000284e+01 2.186247654027280873e+02
5.160000000000000142e+01 2.178475808200913661e+02
5.200000000000000000e+01 2.170794730851175132e+02
5.240000000000000568e+01 2.163202613196879156e+02
5.280000000000000426e+01 2.155697697311201750e+02
5.320000000000000284e+01 2.148278274280341975e+02
5.360000000000000142e+01 2.140942682443561011e+02
5.400000000000000000e+01 2.133689305710370832e+02
5.440000000000000568e+01 2.126516571950871821e+02
5.480000000000000426e+01 2.119422951455508155e+02
5.520000000000000284e+01 2.112406955460699010e+02
5.560000000000000142e+01 2.105467134737038748e+02
5.600000000000000000e+01 2.098602078236923489e+02
5.640000000000000568e+01 2.091810411798664120e+02
5.680000000000000426e+01 2.085090796904303829e+02
5.720000000000000284e+01 2.078441929488514290e+02
5.760000000000000142e+01 2.071862538796093816e+02
5.800000000000000000e+01 2.065351386285736623e+02
5.840000000000000568e+01 2.058907264577854903e+02
5.880000000000000426e+01 2.052528996444373206e+02
5.920000000000000284e+01 2.046215433838517015e+02
5.960000000000000142e+01 2.039965456962732731e+02
6.000000000000000000e+01 2.033777973372968404e+02
6.040000000000000568e+01 2.027651917117646576e+02
6.080000000000000426e+01 2.021586247909739029e+02
6.120000000000000284e+01 2.015579950330449606e+02
6.160000000000000142e+01 2.009632033063078893e+02
6.200000000000000000e+01 2.003741528155718470e+02
6.240000000000000568e+01 1.997907490311502556e+02
6.280000000000000426e+01 1.992128996205197211e+02
6.320000000000000284e+01 1.986405143824977131e+02
6.360000000000000142e+01 1.980735051838288143e+02
6.400000000000000000e+01 1.975117858980771928e+02
6.440000000000000568e+01 1.969552723467241151e+02
6.480000000000001137e+01 1.964038822423789838e+02
6.520000000000000284e+01 1.958575351340125792e+02
6.559999999999999432e+01 1.953161523541286897e+02
6.600000000000000000e+01 1.947796569677925334e+02
6.640000000000000568e+01 1.942479737234397987e+02
6.680000000000001137e+01 1.937210290053915855e+02
6.720000000000000284e+01 1.931987507880072599e+02
6.759999999999999432e+01 1.926810685914066141e+02
6.800000000000000000e+01 1.921679134386995713e+02
6.840000000000000568e+01 1.916592178146620427e+02
6.880000000000001137e+01 1.911549156258002995e+02
6.920000000000000284e+01 1.906549421617491191e+02
6.959999999999999432e+01 1.901592340579508118e+02
7.000000000000000000e+01 1.896677292595653341e+02
7.040000000000000568e+01 1.891803669865629729e+02
7.080000000000001137e+01 1.886970876999548636e+02
7.120000000000000284e+01 1.882178330691163524e+02
7.159999999999999432e+01 1.877425459401626142e+02
7.200000000000000000e+01 1.872711703053354881e+02
7.240000000000000568e+01 1.868036512733644088e+02
7.280000000000001137e+01 1.863399350407641464e+02
7.320000000000000284e+01 1.858799688640343390e+02
7.359999999999999432e+01 1.854237010327282178e+02
7.400000000000000000e+01 1.849710808433570435e+02
7.440000000000000568e+01 1.845220585741015782e+02
7.479999999999999716e+01 1.840765854602989293e+02
7.520000000000000284e+01 1.836346136706784478e+02
7.560000000000000853e+01 1.831960962843190259e+02
7.600000000000000000e+01 1.827609872683016192e+02
7.640000000000000568e+01 1.823292414560325767e+02
7.679999999999999716e+01 1.819008145262145320e+02
7.720000000000000284e+01 1.814756629824406673e+02
7.760000000000000853e+01 1.810537441333919446e+02
7.800000000000000000e+01 1.806350160736153896e+02
7.840000000000000568e+01 1.802194376648636762e+02
7.879999999999999716e+01 1.798069685179764861e+02
7.920000000000000284e+01 1.793975689752851110e+02
7.960000000000000853e+01 1.789912000935228207e+02
8.000000000000000000e+01 1.785878236272229742e+02
8.040000000000000568e+01 1.781874020125894162e+02
8.079999999999999716e+01 1.777898983518226714e+02
8.120000000000000284e+01 1.773952763978867324e+02
8.160000000000000853e+01 1.770035005397024861e+02
8.200000000000000000e+01 1.766145357877525157e+02
8.240000000000000568e+01 1.762283477600851427e+02
8.279999999999999716e+01 1.758449026687032131e+02
8.320000000000000284e+01 1.754641673063264875e+02
8.360000000000000853e+01 1.750861090335145320e+02
8.400000000000000000e+01 1.747106957661388833e+02
8.440000000000000568e+01 1.743378959631934890e+02
8.479999999999999716e+01 1.739676786149323675e+02
8.520000000000000284e+01 1.736000132313239988e+02
8.560000000000000853e+01 1.732348698308130679e+02
8.600000000000000000e+01 1.728722189293789029e+02
8.640000000000000568e+01 1.725120315298824778e+02
8.680000000000001137e+01 1.721542791116921478e+02
8.720000000000000284e+01 1.717989336205799304e+02
8.760000000000000853e+01 1.714459674588797213e+02
8.800000000000000000e+01 1.710953534758997421e+02
8.840000000000000568e+01 1.707470649585812055e+02
8.880000000000001137e+01 1.704010756223958936e+02
8.920000000000000284e+01 1.700573596024751168e+02
8.960000000000000853e+01 1.697158914449638303e+02
9.000000000000000000e+01 1.693766460985921753e+02
9.040000000000000568e+01 1.690395989064586217e+02
9.080000000000001137e+01 1.687047255980186833e+02
9.120000000000000284e+01 1.683720022812721595e+02
9.160000000000000853e+01 1.680414054351439290e+02
9.200000000000000000e+01 1.677129119020526957e+02
9.240000000000000568e+01 1.673864988806613212e+02
9.280000000000001137e+01 1.670621439188044519e+02
9.320000000000000284e+01 1.667398249065880691e+02
9.360000000000000853e+01 1.664195200696553343e+02
9.400000000000000000e+01 1.661012079626151490e+02
9.440000000000000568e+01 1.657848674626278864e+02
9.480000000000001137e+01 1.654704777631443164e+02
9.520000000000000284e+01 1.651580183677930904e+02
9.560000000000000853e+01 1.648474690844128929e+02
9.600000000000000000e+01 1.645388100192250818e+02
9.640000000000000568e+01 1.642320215711428943e+02
9.680000000000001137e+01 1.639270844262135540e+02
9.720000000000000284e+01 1.636239795521893541e+02
9.760000000000000853e+01 1.633226881932246215e+02
9.800000000000000000e+01 1.630231918646945815e+02
9.840000000000000568e+01 1.627254723481332519e+02
9.880000000000001137e+01 1.624295116862869008e+02
9.920000000000000284e+01 1.621352921782800536e+02
9.960000000000000853e+01 1.618427963748908383e+02
1.000000000000000000e+02 1.615520070739330833e+02
1.004000000000000057e+02 1.612629073157420976e+02
1.008000000000000114e+02 1.609754803787611763e+02
1.012000000000000028e+02 1.606897097752267882e+02
1.016000000000000085e+02 1.604055792469490314e+02
1.020000000000000000e+02 1.601230727611857674e+02
1.024000000000000057e+02 1.598421745066069946e+02
1.028000000000000114e+02 1.595628688893481524e+02
1.032000000000000028e+02 1.592851405291491744e+02
1.036000000000000085e+02 1.590089742555774421e+02
1.040000000000000000e+02 1.587343551043328205e+02
1.044000000000000057e+02 1.584612683136319902e+02
1.048000000000000114e+02 1.581896993206704849e+02
1.052000000000000028e+02 1.579196337581605007e+02
1.056000000000000085e+02 1.576510574509423463e+02
1.060000000000000000e+02 1.573839564126678283e+02
1.064000000000000057e+02 1.571183168425534973e+02
1.068000000000000114e+02 1.568541251222028734e+02
1.072000000000000028e+02 1.565913678124942976e+02
1.076000000000000085e+02 1.563300316505346927e+02
1.080000000000000000e+02 1.560701035466761653e+02
1.084000000000000057e+02 1.558115705815947365e+02
1.088000000000000114e+02 1.555544200034289304e+02
1.092000000000000028e+02 1.552986392249779044e+02
1.096000000000000085e+02 1.550442158209561967e+02
1.100000000000000000e+02 1.547911375253050608e+02
1.104000000000000057e+02 1.545393922285582562e+02
1.108000000000000114e+02 1.542889679752611585e+02
1.112000000000000028e+02 1.540398529614419658e+02
1.116000000000000085e+02 1.537920355321337240e+02
1.120000000000000000e+02 1.535455041789462030e+02
1.124000000000000057e+02 1.533002475376856637e+02
1.128000000000000114e+02 1.530562543860226299e+02
1.132000000000000028e+02 1.528135136412053043e+02
1.136000000000000085e+02 1.525720143578182899e+02
1.140000000000000000e+02 1.523317457255856482e+02
1.144000000000000057e+02 1.520926970672162781e+02
1.148000000000000114e+02 1.518548578362922683e+02
1.152000000000000028e+02 1.516182176151974375e+02
1.156000000000000085e+02 1.513827661130866318e+02
1.160000000000000000e+02 1.511484931638939315e+02
1.164000000000000057e+02 1.509153887243792269e+02
1.168000000000000114e+02 1.506834428722122823e+02
1.172000000000000028e+02 1.504526458040932653e+02
1.176000000000000085e+02 1.502229878339092011e+02
1.180000000000000000e+02 1.499944593909253570e+02
1.184000000000000057e+02 1.497670510180106476e+02
1.188000000000000114e+02 1.495407533698966631e+02
1.192000000000000028e+02 1.493155572114692689e+02
1.196000000000000085e+02 1.490914534160920084e+02
1.200000000000000000e+02 1.488684329639612827e+02
1.204000000000000057e+02 1.486464869404912008e+02
1.208000000000000114e+02 1.484256065347292122e+02
1.212000000000000028e+02 1.482057830378003018e+02
1.216000000000000085e+02 1.479870078413800911e+02
1.220000000000000000e+02 1.477692724361959620e+02
1.224000000000000057e+02 1.475525684105552671e+02
1.228000000000000114e+02 1.473368874489006544e+02
1.232000000000000028e+02 1.471222213303911417e+02
1.236000000000000085e+02 1.469085619275093961e+02
1.240000000000000000e+02 1.466959012046935698e+02
1.244000000000000057e+02 1.464842312169940044e+02
1.248000000000000114e+02 1.462735441087538959e+02
1.252000000000000028e+02 1.460638321123134062e+02
1.256000000000000085e+02 1.458550875467369110e+02
1.260000000000000000e+02 1.456473028165626999e+02
1.264000000000000057e+02 1.454404704105748181e+02
1.268000000000000114e+02 1.452345829005964220e+02
1.272000000000000028e+02 1.450296329403045661e+02
1.276000000000000085e+02 1.448256132640651401e+02
1.280000000000000000e+02 1.446225166857888667e+02
1.284000000000000057e+02 1.444203360978065120e+02
1.288000000000000114e+02 1.442190644697639925e+02
1.291999999999999886e+02 1.440186948475362669e+02
1.296000000000000227e+02 1.438192203521599879e+02
1.300000000000000000e+02 1.436206341787847691e+02
1.304000000000000057e+02 1.434229295956417900e+02
1.308000000000000114e+02 1.432260999430304196e+02
1.311999999999999886e+02 1.430301386323220356e+02
1.316000000000000227e+02 1.428350391449802146e+02
1.320000000000000000e+02 1.426407950315984010e+02
1.324000000000000057e+02 1.424473999109526403e+02
1.328000000000000114e+02 1.422548474690711373e+02
1.331999999999999886e+02 1.420631314583189351e+02
1.336000000000000227e+02 1.418722456964974867e+02
1.340000000000000000e+02 1.416821840659603993e+02
1.344000000000000057e+02 1.414929405127422797e+02
1.348000000000000114e+02 1.413045090457031847e+02
1.351999999999999886e+02 1.411168837356863719e+02
1.356000000000000227e+02 1.409300587146905173e+02
1.360000000000000000e+02 1.407440281750548934e+02
1.364000000000000057e+02 1.405587863686582466e+02
1.368000000000000114e+02 1.403743276061303789e+02
1.371999999999999886e+02 1.401906462560769739e+02
1.376000000000000227e+02 1.400077367443163325e+02
1.380000000000000000e+02 1.398255935531290675e+02
1.384000000000000057e+02 1.396442112205192814e+02
1.388000000000000114e+02 1.394635843394880226e+02
1.392000000000000171e+02 1.392837075573179106e+02
1.395999999999999943e+02 1.391045755748697559e+02
1.400000000000000000e+02 1.389261831458896665e+02
1.404000000000000057e+02 1.387485250763275531e+02
1.408000000000000114e+02 1.385715962236664041e+02
1.412000000000000171e+02 1.383953914962619081e+02
1.415999999999999943e+02 1.382199058526924489e+02
1.420000000000000000e+02 1.380451343011195036e+02
1.424000000000000057e+02 1.378710718986577888e+02
1.428000000000000114e+02 1.376977137507553550e+02
1.432000000000000171e+02 1.375250550105830598e+02
1.435999999999999943e+02 1.373530908784339886e+02
1.440000000000000000e+02 1.371818166011314588e+02
1.444000000000000057e+02 1.370112274714465457e+02
1.448000000000000114e+02 1.368413188275247023e+02
1.452000000000000171e+02 1.366720860523206511e+02
1.455999999999999943e+02 1.365035245730422275e+02
1.460000000000000000e+02 1.363356298606026655e+02
1.464000000000000057e+02 1.361683974290810397e+02
1.468000000000000114e+02 1.360018228351910068e+02
1.472000000000000171e+02 1.358359016777575903e+02
1.475999999999999943e+02 1.356706295972014971e+02
1.480000000000000000e+02 1.355060022750316193e+02
1.484000000000000057e+02 1.353420154333448693e+02
1.488000000000000114e+02 1.351786648343335457e+02
1.492000000000000171e+02 1.350159462797998629e+02
1.495999999999999943e+02 1.348538556106779254e+02
1.500000000000000000e+02 1.346923887065626388e+02
