1.000000000000000000e+01 6.875408454045609687e+02
1.040000000000000036e+01 8.013877841673800049e+02
1.080000000000000071e+01 8.511737147300302695e+02
1.119999999999999929e+01 8.956992552362730748e+02
1.159999999999999964e+01 9.577317559668251761e+02
1.200000000000000000e+01 1.005716448291365396e+03
1.240000000000000036e+01 1.016375917309682563e+03
1.280000000000000071e+01 1.083773382531830066e+03
1.319999999999999929e+01 1.106380699806117264e+03
1.359999999999999964e+01 1.130825734591870287e+03
1.400000000000000000e+01 1.119946400163795943e+03
1.440000000000000036e+01 1.097726926692903362e+03
1.480000000000000071e+01 1.076943065587412548e+03
1.519999999999999929e+01 1.057438920070137556e+03
1.560000000000000142e+01 1.039082106986274994e+03
1.600000000000000000e+01 1.021759266025612760e+03
1.639999999999999858e+01 1.005372596628863789e+03
1.680000000000000071e+01 9.898371509812590148e+02
1.719999999999999929e+01 9.750786922372453773e+02
1.760000000000000142e+01 9.610319813850271657e+02
1.800000000000000000e+01 9.476393933818926598e+02
1.839999999999999858e+01 9.348497891950172516e+02
1.880000000000000071e+01 9.226175888516586383e+02
1.920000000000000284e+01 9.109020039186968916e+02
1.960000000000000142e+01 8.996663975643784852e+02
2.000000000000000000e+01 8.888777475586808805e+02
2.039999999999999858e+01 8.785061929620035244e+02
2.080000000000000071e+01 8.685246493329237865e+02
2.120000000000000284e+01 8.589084804043402528e+02
2.160000000000000142e+01 8.496352165822846700e+02
2.200000000000000000e+01 8.406843124921456365e+02
2.239999999999999858e+01 8.320369372633833791e+02
2.280000000000000071e+01 8.236757924019058237e+02
2.320000000000000284e+01 8.155849530203083759e+02
2.360000000000000142e+01 8.077497289334903599e+02
2.400000000000000000e+01 8.001565427210402959e+02
2.439999999999999858e+01 7.927928223389294544e+02
2.480000000000000071e+01 7.856469062550080480e+02
2.520000000000000284e+01 7.787079594037641073e+02
2.560000000000000142e+01 7.719658985199455401e+02
2.600000000000000000e+01 7.654113256290288518e+02
2.640000000000000213e+01 7.590354686538887563e+02
2.680000000000000071e+01 7.528301282482937040e+02
2.719999999999999929e+01 7.467876300945172261e+02
2.760000000000000142e+01 7.409007820088501148e+02
2.800000000000000000e+01 7.351628352886425546e+02
2.840000000000000213e+01 7.295674498105884140e+02
2.880000000000000071e+01 7.241086624545987434e+02
2.920000000000000284e+01 7.187808584827125742e+02
2.960000000000000142e+01 7.135787455495947142e+02
3.000000000000000000e+01 7.084973300615813514e+02
3.040000000000000213e+01 7.035318956359667482e+02
3.080000000000000071e+01 6.986779834422048907e+02
3.120000000000000284e+01 6.939313742326030479e+02
3.160000000000000142e+01 6.892880718925551946e+02
3.200000000000000000e+01 6.847442883598878325e+02
3.240000000000000568e+01 6.802964297798976077e+02
3.279999999999999716e+01 6.759410837775179743e+02
3.320000000000000284e+01 6.716750077410432596e+02
3.360000000000000142e+01 6.674951180232491197e+02
3.400000000000000000e+01 6.633984799757516839e+02
3.440000000000000568e+01 6.593822987412860357e+02
3.479999999999999716e+01 6.554439107363589301e+02
3.520000000000000284e+01 6.515807757636137012e+02
3.560000000000000142e+01 6.477904696993442712e+02
3.600000000000000000e+01 6.440706777069987083e+02
3.640000000000000568e+01 6.404191879323153671e+02
3.679999999999999716e+01 6.368338856400218901e+02
3.720000000000000284e+01 6.333127477558316514e+02
3.760000000000000142e+01 6.298538377808855557e+02
3.800000000000000000e+01 6.264553010488316431e+02
3.840000000000000568e+01 6.231153602984662712e+02
3.879999999999999716e+01 6.198323115373074188e+02
3.920000000000000284e+01 6.166045201736717445e+02
3.960000000000000142e+01 6.134304173968093892e+02
4.000000000000000000e+01 6.103084967864240298e+02
4.040000000000000568e+01 6.072373111345266352e+02
4.079999999999999716e+01 6.042154694640144044e+02
4.120000000000000284e+01 6.012416342296792209e+02
4.160000000000000142e+01 5.983145186885501516e+02
4.200000000000000000e+01 5.954328844275371466e+02
4.239999999999999858e+01 5.925955390373325145e+02
4.280000000000000426e+01 5.898013339224123683e+02
4.320000000000000284e+01 5.870491622377844578e+02
4.360000000000000142e+01 5.843379569438716317e+02
4.400000000000000000e+01 5.816666889715861544e+02
4.439999999999999858e+01 5.790343654902620756e+02
4.480000000000000426e+01 5.764400282716765105e+02
4.520000000000000284e+01 5.738827521438948907e+02
4.560000000000000142e+01 5.713616435291482958e+02
4.600000000000000000e+01 5.688758390603776434e+02
4.639999999999999858e+01 5.664245042714705960e+02
4.680000000000000426e+01 5.640068323565808441e+02
4.720000000000000284e+01 5.616220429942457031e+02
4.760000000000000142e+01 5.592693812323273050e+02
4.800000000000000000e+01 5.569481164300785849e+02
4.840000000000000568e+01 5.546575412538948058e+02
4.880000000000000426e+01 5.523969707235489750e+02
4.920000000000000284e+01 5.501657413059273267e+02
4.960000000000000142e+01 5.479632100534846586e+02
5.000000000000000000e+01 5.457887537848248485e+02
5.040000000000000568e+01 5.436417683049854759e+02
5.080000000000000426e+01 5.415216676631637256e+02
5.120000000000000284e+01 5.394278834457714993e+02
5.160000000000000142e+01 5.373598641028395377e+02
5.200000000000000000e+01 5.353170743059239385e+02
5.240000000000000568e+01 5.332989943357792981e+02
5.280000000000000426e+01 5.313051194981782146e+02
5.320000000000000284e+01 5.293349595663537457e+02
5.360000000000000142e+01 5.273880382486385088e+02
5.400000000000000000e+01 5.254638926799602814e+02
5.440000000000000568e+01 5.235620729359382040e+02
5.480000000000000426e+01 5.216821415683964460e+02
5.520000000000000284e+01 5.198236731611842742e+02
5.560000000000000142e+01 5.179862539052600141e+02
5.600000000000000000e+01 5.161694811920543771e+02
5.640000000000000568e+01 5.143729632241885383e+02
5.680000000000000426e+01 5.125963186426749871e+02
5.720000000000000284e+01 5.108391761697807851e+02
5.760000000000000142e+01 5.091011742667770932e+02
5.800000000000000000e+01 5.073819608058479957e+02
5.840000000000000568e+01 5.056811927554643944e+02
5.880000000000000426e+01 5.039985358785784229e+02
5.920000000000000284e+01 5.023336644430175966e+02
5.960000000000000142e+01 5.006862609435030436e+02
6.000000000000000000e+01 4.990560158347392417e+02
6.040000000000000568e+01 4.974426272750595217e+02
6.080000000000000426e+01 4.958458008801316055e+02
6.120000000000000284e+01 4.942652494862621779e+02
6.160000000000000142e+01 4.927006929228590479e+02
6.200000000000000000e+01 4.911518577936322458e+02
6.240000000000000568e+01 4.896184772661406441e+02
6.280000000000000426e+01 4.881002908693093332e+02
6.320000000000000284e+01 4.865970442985600357e+02
6.360000000000000142e+01 4.851084892282207193e+02
6.400000000000000000e+01 4.836343831308918197e+02
6.440000000000000568e+01 4.821744891034662714e+02
6.480000000000001137e+01 4.807285756995146926e+02
6.520000000000000284e+01 4.792964167677610021e+02
6.559999999999999432e+01 4.778777912963878407e+02
6.600000000000000000e+01 4.764724832629252660e+02
6.640000000000000568e+01 4.750802814894851736e+02
6.680000000000001137e+01 4.737009795031176509e+02
6.720000000000000284e+01 4.723343754010770112e+02
6.759999999999999432e+01 4.709802717207925298e+02
6.800000000000000000e+01 4.696384753143510693e+02
6.840000000000000568e+01 4.683087972273081050e+02
6.880000000000001137e+01 4.669910525816486029e+02
6.920000000000000284e+01 4.656850604627347820e+02
6.959999999999999432e+01 4.643906438100749483e+02
7.000000000000000000e+01 4.631076293117670275e+02
7.040000000000000568e+01 4.618358473024674709e+02
7.080000000000001137e+01 4.605751316647471754e+02
7.120000000000000284e+01 4.593253197337043048e+02
7.159999999999999432e+01 4.580862522047037260e+02
7.200000000000000000e+01 4.568577730441255085e+02
7.240000000000000568e+01 4.556397294030051626e+02
7.280000000000001137e+01 4.544319715334555099e+02
7.320000000000000284e+01 4.532343527077642307e+02
7.359999999999999432e+01 4.520467291400674981e+02
7.400000000000000000e+01 4.508689599105013599e+02
7.440000000000000568e+01 4.497009068917393506e+02
7.479999999999999716e+01 4.485424346778280551e+02
7.520000000000000284e+01 4.473934105152352458e+02
7.560000000000000853e+01 4.462537042360298756e+02
7.600000000000000000e+01 4.451231881931165617e+02
7.640000000000000568e+01 4.440017371974489606e+02
7.679999999999999716e+01 4.428892284571531377e+02
7.720000000000000284e+01 4.417855415184884578e+02
7.760000000000000853e+01 4.406905582085852302e+02
7.800000000000000000e+01 4.396041625798931136e+02
7.840000000000000568e+01 4.385262408562801397e+02
7.879999999999999716e+01 4.374566813807258541e+02
7.920000000000000284e+01 4.363953745645522986e+02
7.960000000000000853e+01 4.353422128381395737e+02
8.000000000000000000e+01 4.342970906030743095e+02
8.040000000000000568e+01 4.332599041856824442e+02
8.079999999999999716e+01 4.322305517919000977e+02
8.120000000000000284e+01 4.312089334634343913e+02
8.160000000000000853e+01 4.301949510351740855e+02
8.200000000000000000e+01 4.291885080938047281e+02
8.240000000000000568e+01 4.281895099375910263e+02
8.279999999999999716e+01 4.271978635372857980e+02
8.320000000000000284e+01 4.262134774981284409e+02
8.360000000000000853e+01 4.252362620228990409e+02
8.400000000000000000e+01 4.242661288759899207e+02
8.440000000000000568e+01 4.233029913484647295e+02
8.479999999999999716e+01 4.223467642240731266e+02
8.520000000000000284e+01 4.213973637461867838e+02
8.560000000000000853e+01 4.204547075856313540e+02
8.600000000000000000e+01 4.195187148093833116e+02
8.640000000000000568e+01 4.185893058501052906e+02
8.680000000000001137e+01 4.176664024764926921e+02
8.720000000000000284e+01 4.167499277644068343e+02
8.760000000000000853e+01 4.158398060687693487e+02
8.800000000000000000e+01 4.149359629961948031e+02
8.840000000000000568e+01 4.140383253783379587e+02
8.880000000000001137e+01 4.131468212459344613e+02
8.920000000000000284e+01 4.122613798035130230e+02
8.960000000000000853e+01 4.113819314047587454e+02
9.000000000000000000e+01 4.105084075285080871e+02
9.040000000000000568e+01 4.096407407553565463e+02
9.080000000000001137e+01 4.087788647448592769e+02
9.120000000000000284e+01 4.079227142133087796e+02
9.160000000000000853e+01 4.070722249120712490e+02
9.200000000000000000e+01 4.062273336064654359e+02
9.240000000000000568e+01 4.053879780551674230e+02
9.280000000000001137e+01 4.045540969901268227e+02
9.320000000000000284e+01 4.037256300969788754e+02
9.360000000000000853e+01 4.029025179959375009e+02
9.400000000000000000e+01 4.020847022231566825e+02
9.440000000000000568e+01 4.012721252125451201e+02
9.480000000000001137e+01 4.004647302780222731e+02
9.520000000000000284e+01 3.996624615962030020e+02
9.560000000000000853e+01 3.988652641894975091e+02
9.600000000000000000e+01 3.980730839096168552e+02
9.640000000000000568e+01 3.972858674214703569e+02
9.680000000000001137e+01 3.965035621874453113e+02
9.720000000000000284e+01 3.957261164520580223e+02
9.760000000000000853e+01 3.949534792269657260e+02
9.800000000000000000e+01 3.941856002763290689e+02
9.840000000000000568e+01 3.934224301025159320e+02
9.880000000000001137e+01 3.926639199321374463e+02
9.920000000000000284e+01 3.919100217024052881e+02
9.960000000000000853e+01 3.911606880478054791e+02
1.000000000000000000e+02 3.904158722870743077e+02
1.004000000000000057e+02 3.896755284104742714e+02
1.008000000000000114e+02 3.889396110673572480e+02
1.012000000000000028e+02 3.882080755540100085e+02
1.016000000000000085e+02 3.874808778017729196e+02
1.020000000000000000e+02 3.867579743654259801e+02
1.024000000000000057e+02 3.860393224118337230e+02
1.028000000000000114e+02 3.853248797088427864e+02
1.032000000000000028e+02 3.846146046144264687e+02
1.036000000000000085e+02 3.839084560660669467e+02
1.040000000000000000e+02 3.832063935703739048e+02
1.044000000000000057e+02 3.825083771929262753e+02
1.048000000000000114e+02 3.818143675483400443e+02
1.052000000000000028e+02 3.811243257905480277e+02
1.056000000000000085e+02 3.804382136032918424e+02
1.060000000000000000e+02 3.797559931908182875e+02
1.064000000000000057e+02 3.790776272687750179e+02
1.068000000000000114e+02 3.784030790553013048e+02
1.072000000000000028e+02 3.777323122623079712e+02
1.076000000000000085e+02 3.770652910869428069e+02
1.080000000000000000e+02 3.764019802032353255e+02
1.084000000000000057e+02 3.757423447539186441e+02
1.088000000000000114e+02 3.750863503424212695e+02
1.092000000000000028e+02 3.744339630250271966e+02
1.096000000000000085e+02 3.737851493031988070e+02
1.100000000000000000e+02 3.731398761160580761e+02
1.104000000000000057e+02 3.724981108330240431e+02
1.108000000000000114e+02 3.718598212466012001e+02
1.112000000000000028e+02 3.712249755653149919e+02
1.116000000000000085e+02 3.705935424067923805e+02
1.120000000000000000e+02 3.699654907909829262e+02
1.124000000000000057e+02 3.693407901335162364e+02
1.128000000000000114e+02 3.687194102391943602e+02
1.132000000000000028e+02 3.681013212956152074e+02
1.136000000000000085e+02 3.674864938669224443e+02
1.140000000000000000e+02 3.668748988876811268e+02
1.144000000000000057e+02 3.662665076568749782e+02
1.148000000000000114e+02 3.656612918320222434e+02
1.152000000000000028e+02 3.650592234234074454e+02
1.156000000000000085e+02 3.644602747884273981e+02
1.160000000000000000e+02 3.638644186260472111e+02
1.164000000000000057e+02 3.632716279713644667e+02
1.168000000000000114e+02 3.626818761902802635e+02
1.172000000000000028e+02 3.620951369742717816e+02
1.176000000000000085e+02 3.615113843352676213e+02
1.180000000000000000e+02 3.609305926006196046e+02
1.184000000000000057e+02 3.603527364081735982e+02
1.188000000000000114e+02 3.597777907014323659e+02
1.192000000000000028e+02 3.592057307248114171e+02
1.196000000000000085e+02 3.586365320189845534e+02
1.200000000000000000e+02 3.580701704163180921e+02
1.204000000000000057e+02 3.575066220363902403e+02
1.208000000000000114e+02 3.569458632815949954e+02
1.212000000000000028e+02 3.563878708328282983e+02
1.216000000000000085e+02 3.558326216452546760e+02
1.220000000000000000e+02 3.552800929441522158e+02
1.224000000000000057e+02 3.547302622208348453e+02
1.228000000000000114e+02 3.541831072286499875e+02
1.232000000000000028e+02 3.536386059790489753e+02
1.236000000000000085e+02 3.530967367377307369e+02
1.240000000000000000e+02 3.525574780208546031e+02
1.244000000000000057e+02 3.520208085913234299e+02
1.248000000000000114e+02 3.514867074551330006e+02
1.252000000000000028e+02 3.509551538577878773e+02
1.256000000000000085e+02 3.504261272807821115e+02
1.260000000000000000e+02 3.498996074381432209e+02
1.264000000000000057e+02 3.493755742730367047e+02
1.268000000000000114e+02 3.488540079544335413e+02
1.272000000000000028e+02 3.483348888738348137e+02
1.276000000000000085e+02 3.478181976420553951e+02
1.280000000000000000e+02 3.473039150860643645e+02
1.284000000000000057e+02 3.467920222458809576e+02
1.288000000000000114e+02 3.462825003715250887e+02
1.291999999999999886e+02 3.457753309200214176e+02
1.296000000000000227e+02 3.452704955524546335e+02
1.300000000000000000e+02 3.447679761310782283e+02
1.304000000000000057e+02 3.442677547164702787e+02
1.308000000000000114e+02 3.437698135647410709e+02
1.311999999999999886e+02 3.432741351247877333e+02
1.316000000000000227e+02 3.427807020355950272e+02
1.320000000000000000e+02 3.422894971235847947e+02
1.324000000000000057e+02 3.418005034000076989e+02
1.328000000000000114e+02 3.413137040583815747e+02
1.331999999999999886e+02 3.408290824719721286e+02
1.336000000000000227e+02 3.403466221913163281e+02
1.340000000000000000e+02 3.398663069417879683e+02
1.344000000000000057e+02 3.393881206212034840e+02
1.348000000000000114e+02 3.389120472974680638e+02
1.351999999999999886e+02 3.384380712062616112e+02
1.356000000000000227e+02 3.379661767487619954e+02
1.360000000000000000e+02 3.374963484894075236e+02
1.364000000000000057e+02 3.370285711536949975e+02
1.368000000000000114e+02 3.365628296260154002e+02
1.371999999999999886e+02 3.360991089475240869e+02
1.376000000000000227e+02 3.356373943140462188e+02
1.380000000000000000e+02 3.351776710740169847e+02
1.384000000000000057e+02 3.347199247264543374e+02
1.388000000000000114e+02 3.342641409189656088e+02
1.392000000000000171e+02 3.338103054457855592e+02
1.395999999999999943e+02 3.333584042458469412e+02
1.400000000000000000e+02 3.329084234008814747e+02
1.404000000000000057e+02 3.324603491335513468e+02
1.408000000000000114e+02 3.320141678056112369e+02
1.412000000000000171e+02 3.315698659160988200e+02
1.415999999999999943e+02 3.311274300995543172e+02
1.420000000000000000e+02 3.306868471242688088e+02
1.424000000000000057e+02 3.302481038905593209e+02
1.428000000000000114e+02 3.298111874290722199e+02
1.432000000000000171e+02 3.293760848991119587e+02
1.435999999999999943e+02 3.289427835869971659e+02
1.440000000000000000e+02 3.285112709044420853e+02
1.444000000000000057e+02 3.280815343869626304e+02
1.448000000000000114e+02 3.276535616923080170e+02
1.452000000000000171e+02 3.272273405989166122e+02
1.455999999999999943e+02 3.268028590043952022e+02
1.460000000000000000e+02 3.263801049240215661e+02
1.464000000000000057e+02 3.259590664892709242e+02
1.468000000000000114e+02 3.255397319463643839e+02
1.472000000000000171e+02 3.251220896548391579e+02
1.475999999999999943e+02 3.247061280861416321e+02
1.480000000000000000e+02 3.242918358222406710e+02
1.484000000000000057e+02 3.238792015542625222e+02
1.488000000000000114e+02 3.234682140811466979e+02
1.492000000000000171e+02 3.230588623083211814e+02
1.495999999999999943e+02 3.226511352463981552e+02
1.500000000000000000e+02 3.222450220098891691e+02
