1.000000000000000000e+01 1.230736254689983866e+02
1.040000000000000036e+01 1.389640682127698597e+02
1.080000000000000071e+01 1.452605613991202063e+02
1.119999999999999929e+01 1.471146394269514985e+02
1.159999999999999964e+01 1.416274039391586825e+02
1.200000000000000000e+01 1.364643680553833178e+02
1.240000000000000036e+01 1.318537945735177743e+02
1.280000000000000071e+01 1.276995486329104779e+02
1.319999999999999929e+01 1.239280791449690469e+02
1.359999999999999964e+01 1.205020042229087665e+02
1.400000000000000000e+01 1.178281119208618577e+02
1.440000000000000036e+01 1.155014218316354970e+02
1.480000000000000071e+01 1.134331872671023120e+02
1.519999999999999929e+01 1.115048088371220558e+02
1.560000000000000142e+01 1.097003993039899541e+02
1.600000000000000000e+01 1.080065542963503447e+02
1.639999999999999858e+01 1.064118657730511757e+02
1.680000000000000071e+01 1.049065486864631396e+02
1.719999999999999929e+01 1.034821506738886683e+02
1.760000000000000142e+01 9.761399346126817989e+01
1.800000000000000000e+01 9.318288241610130740e+01
1.839999999999999858e+01 9.180328006223102477e+01
1.880000000000000071e+01 8.909296622420565370e+01
1.920000000000000284e+01 8.787511542428624978e+01
1.960000000000000142e+01 8.671139930404929430e+01
2.000000000000000000e+01 8.559780653683462504e+01
2.039999999999999858e+01 8.453073666173592926e+01
2.080000000000000071e+01 8.350694683965417653e+01
2.120000000000000284e+01 8.252350689273986006e+01
2.160000000000000142e+01 8.157776113320142031e+01
2.200000000000000000e+01 8.065127680722541470e+01
2.239999999999999858e+01 7.975649144871115936e+01
2.280000000000000071e+01 7.889229057866675987e+01
2.320000000000000284e+01 7.805692449779563447e+01
2.360000000000000142e+01 7.724878314595466122e+01
2.400000000000000000e+01 7.646250521723668214e+01
2.439999999999999858e+01 7.563213530253914030e+01
2.480000000000000071e+01 7.481943577806299572e+01
2.520000000000000284e+01 6.988751277972120590e+01
2.560000000000000142e+01 6.910268079906313687e+01
2.600000000000000000e+01 6.834108290881596304e+01
2.640000000000000213e+01 6.760158287472847860e+01
2.680000000000000071e+01 6.688312157573150785e+01
2.719999999999999929e+01 6.618471034470975667e+01
2.760000000000000142e+01 6.550542500387054190e+01
2.800000000000000000e+01 6.491533749968652955e+01
2.840000000000000213e+01 6.431266578385947241e+01
2.880000000000000071e+01 6.372535833643352277e+01
2.920000000000000284e+01 6.315276107164532959e+01
2.960000000000000142e+01 6.259425876350708506e+01
3.000000000000000000e+01 6.204927209658234943e+01
3.040000000000000213e+01 6.151725498799109459e+01
3.080000000000000071e+01 6.099769215145790469e+01
3.120000000000000284e+01 6.049009687780127820e+01
3.160000000000000142e+01 5.999400900935359715e+01
3.200000000000000000e+01 5.987890142190254039e+01
3.240000000000000568e+01 5.942541338310827825e+01
3.279999999999999716e+01 5.898158481257782171e+01
3.320000000000000284e+01 5.854707210975303155e+01
3.360000000000000142e+01 5.812154878492371779e+01
3.400000000000000000e+01 5.769790825159863346e+01
3.440000000000000568e+01 5.727932410473202651e+01
3.479999999999999716e+01 5.686933056036265555e+01
3.520000000000000284e+01 5.646763368154040563e+01
3.560000000000000142e+01 5.607395351931243255e+01
3.600000000000000000e+01 5.568011564460554297e+01
3.640000000000000568e+01 5.528454433330846740e+01
3.679999999999999716e+01 5.553181751915176534e+01
3.720000000000000284e+01 5.517737063938910325e+01
3.760000000000000142e+01 5.482939213378892873e+01
3.800000000000000000e+01 5.448768409249985467e+01
3.840000000000000568e+01 5.415205706072523384e+01
3.879999999999999716e+01 5.382232957716000499e+01
3.920000000000000284e+01 5.349832774298914018e+01
3.960000000000000142e+01 5.317931054604262897e+01
4.000000000000000000e+01 5.286265923063083250e+01
4.040000000000000568e+01 5.255132358232943801e+01
4.079999999999999716e+01 5.224515384081394131e+01
4.120000000000000284e+01 5.194400614119761883e+01
4.160000000000000142e+01 5.183042548689007845e+01
4.200000000000000000e+01 5.153894165435462327e+01
4.239999999999999858e+01 5.125211846168630103e+01
4.280000000000000426e+01 5.096983104014608301e+01
4.320000000000000284e+01 5.069195918898972764e+01
4.360000000000000142e+01 5.041838715248836422e+01
4.400000000000000000e+01 5.014900340987477989e+01
4.439999999999999858e+01 4.988370047733642565e+01
4.480000000000000426e+01 4.962237472124434845e+01
4.520000000000000284e+01 4.936492618187087089e+01
4.560000000000000142e+01 4.911125840690395705e+01
4.600000000000000000e+01 4.886127829412043155e+01
4.639999999999999858e+01 4.861489594262636160e+01
4.680000000000000426e+01 4.837202451211716436e+01
4.720000000000000284e+01 4.813258008965038925e+01
4.760000000000000142e+01 4.789648156346018482e+01
4.800000000000000000e+01 4.766365050337689269e+01
4.840000000000000568e+01 4.743401104744597063e+01
4.880000000000000426e+01 4.720748979436873327e+01
4.920000000000000284e+01 4.698353092609301740e+01
4.960000000000000142e+01 4.680217651692860414e+01
5.000000000000000000e+01 4.658416283529308544e+01
5.040000000000000568e+01 4.636896389437881538e+01
5.080000000000000426e+01 4.615651922620442349e+01
5.120000000000000284e+01 4.594677018099770294e+01
5.160000000000000142e+01 4.573965985697756764e+01
5.200000000000000000e+01 4.553513303344304575e+01
5.240000000000000568e+01 4.533313610698606766e+01
5.280000000000000426e+01 4.513361703065611152e+01
5.320000000000000284e+01 4.521568162906324062e+01
5.360000000000000142e+01 4.503436788823965742e+01
5.400000000000000000e+01 4.485514858350543221e+01
5.440000000000000568e+01 4.467798330983420385e+01
5.480000000000000426e+01 4.450283275510897596e+01
5.520000000000000284e+01 4.432965866207724304e+01
5.560000000000000142e+01 4.415842379192478973e+01
5.600000000000000000e+01 4.398909188938733905e+01
5.640000000000000568e+01 4.382162764932286336e+01
5.680000000000000426e+01 4.365599668467264394e+01
5.720000000000000284e+01 4.343796098058771094e+01
5.760000000000000142e+01 4.327890077043549866e+01
5.800000000000000000e+01 4.312153893466216203e+01
5.840000000000000568e+01 4.296584506962641115e+01
5.880000000000000426e+01 4.281178953624370820e+01
5.920000000000000284e+01 4.265910904184889318e+01
5.960000000000000142e+01 4.250712604054613308e+01
6.000000000000000000e+01 4.235670768790740226e+01
6.040000000000000568e+01 4.220782699916902914e+01
6.080000000000000426e+01 4.206045764275643251e+01
6.120000000000000284e+01 4.191457391993235859e+01
6.160000000000000142e+01 4.177015074521997207e+01
6.200000000000000000e+01 4.162716362756624733e+01
6.240000000000000568e+01 4.148558865221234271e+01
6.280000000000000426e+01 4.134540246323989976e+01
6.320000000000000284e+01 4.120658224676327563e+01
6.360000000000000142e+01 4.106910571473970606e+01
6.400000000000000000e+01 4.093295108937029170e+01
6.440000000000000568e+01 4.079809708806672575e+01
6.480000000000001137e+01 4.066452290895921351e+01
6.520000000000000284e+01 4.053102580219001538e+01
6.559999999999999432e+01 4.039817200488798221e+01
6.600000000000000000e+01 4.026657890321151712e+01
6.640000000000000568e+01 4.013622632107858124e+01
6.680000000000001137e+01 4.000709453545083250e+01
6.720000000000000284e+01 3.987916426327594621e+01
6.759999999999999432e+01 3.992442461195573600e+01
6.800000000000000000e+01 3.980107875755905411e+01
6.840000000000000568e+01 3.967885298858045928e+01
6.880000000000001137e+01 3.955773007586333279e+01
6.920000000000000284e+01 3.943769316319654195e+01
6.959999999999999432e+01 3.931872575692907645e+01
7.000000000000000000e+01 3.920081171593779601e+01
7.040000000000000568e+01 3.908242183702871131e+01
7.080000000000001137e+01 3.896325937655157645e+01
7.120000000000000284e+01 3.885890497186345272e+01
7.159999999999999432e+01 3.874333666212822180e+01
7.200000000000000000e+01 3.862877469212480719e+01
7.240000000000000568e+01 3.851520424538246345e+01
7.280000000000001137e+01 3.840261081220181438e+01
7.320000000000000284e+01 3.829098018148835081e+01
7.359999999999999432e+01 3.818029843285081881e+01
7.400000000000000000e+01 3.807055192895477091e+01
7.440000000000000568e+01 3.796172730812153162e+01
7.479999999999999716e+01 3.785381147716312000e+01
7.520000000000000284e+01 3.774679160444446779e+01
7.560000000000000853e+01 3.763008493967163304e+01
7.600000000000000000e+01 3.752799477733204014e+01
7.640000000000000568e+01 3.742672031181535885e+01
7.679999999999999716e+01 3.732625053400701631e+01
7.720000000000000284e+01 3.722657464351467382e+01
7.760000000000000853e+01 3.712768204358415147e+01
7.800000000000000000e+01 3.702956233616634307e+01
7.840000000000000568e+01 3.693220531712991317e+01
7.879999999999999716e+01 3.683560097161453939e+01
7.920000000000000284e+01 3.673973946952003899e+01
7.960000000000000853e+01 3.664461116112651951e+01
8.000000000000000000e+01 3.655020657284121199e+01
8.040000000000000568e+01 3.645651640306748931e+01
8.079999999999999716e+01 3.636353151819221097e+01
8.120000000000000284e+01 3.627124294868707466e+01
8.160000000000000853e+01 3.617964188532040026e+01
8.200000000000000000e+01 3.608871967547558057e+01
8.240000000000000568e+01 3.599846781957261044e+01
8.279999999999999716e+01 3.590851170441689533e+01
8.320000000000000284e+01 3.581910051956045038e+01
8.360000000000000853e+01 3.573033988149256146e+01
8.400000000000000000e+01 3.564222179809162583e+01
8.440000000000000568e+01 3.555473841520228007e+01
8.479999999999999716e+01 3.546788201357463777e+01
8.520000000000000284e+01 3.538164500588629835e+01
8.560000000000000853e+01 3.529598792676888763e+01
8.600000000000000000e+01 3.520928714420863059e+01
8.640000000000000568e+01 3.512318958879579611e+01
8.680000000000001137e+01 3.503769692185087337e+01
8.720000000000000284e+01 3.495280204082992270e+01
8.760000000000000853e+01 3.486849796004377566e+01
8.800000000000000000e+01 3.478477780818543863e+01
8.840000000000000568e+01 3.470163482592140980e+01
8.880000000000001137e+01 3.461906236354493416e+01
8.920000000000000284e+01 3.453705387868947696e+01
8.960000000000000853e+01 3.445560293410034092e+01
9.000000000000000000e+01 3.437470319546288522e+01
9.040000000000000568e+01 3.429434842928556293e+01
9.080000000000001137e+01 3.421453250083617093e+01
9.120000000000000284e+01 3.413524937212969235e+01
9.160000000000000853e+01 3.405649309996626073e+01
9.200000000000000000e+01 3.397825783401773947e+01
9.240000000000000568e+01 3.390053781496145291e+01
9.280000000000001137e+01 3.382332737265984690e+01
9.320000000000000284e+01 3.374662092438451566e+01
9.360000000000000853e+01 3.367041297308353620e+01
9.400000000000000000e+01 3.373007709093084117e+01
9.440000000000000568e+01 3.365654518409794349e+01
9.480000000000001137e+01 3.358348055237531327e+01
9.520000000000000284e+01 3.351087821672637546e+01
9.560000000000000853e+01 3.343873327257357175e+01
9.600000000000000000e+01 3.336704088836422955e+01
9.640000000000000568e+01 3.335776218780137015e+01
9.680000000000001137e+01 3.328804414170228654e+01
9.720000000000000284e+01 3.321875552019184852e+01
9.760000000000000853e+01 3.314989187859173114e+01
9.800000000000000000e+01 3.308144883687640458e+01
9.840000000000000568e+01 3.301342207846083454e+01
9.880000000000001137e+01 3.294580734901597197e+01
9.920000000000000284e+01 3.287860045531134290e+01
9.960000000000000853e+01 3.281179726408402075e+01
1.000000000000000000e+02 3.274539370093309998e+01
1.004000000000000057e+02 3.267938574923933004e+01
1.008000000000000114e+02 3.261376944910885811e+01
1.012000000000000028e+02 3.254854089634066128e+01
1.016000000000000085e+02 3.248369624141702872e+01
1.020000000000000000e+02 3.241923168851642600e+01
1.024000000000000057e+02 3.235514349454811622e+01
1.028000000000000114e+02 3.229142796820813999e+01
1.032000000000000028e+02 3.222808146905591542e+01
1.036000000000000085e+02 3.216510040661097491e+01
1.040000000000000000e+02 3.210248123946942655e+01
1.044000000000000057e+02 3.204022047443945809e+01
1.048000000000000114e+02 3.197831466569549264e+01
1.052000000000000028e+02 3.191676041395059471e+01
1.056000000000000085e+02 3.185555436564648346e+01
1.060000000000000000e+02 3.179469321216083699e+01
1.064000000000000057e+02 3.173417368903144720e+01
1.068000000000000114e+02 3.167440994055584014e+01
1.072000000000000028e+02 3.161523821451489624e+01
1.076000000000000085e+02 3.155639157964587937e+01
1.080000000000000000e+02 3.149786701236060793e+01
1.084000000000000057e+02 3.143171160125841368e+01
1.088000000000000114e+02 3.137418720746841672e+01
1.092000000000000028e+02 3.131697484411129295e+01
1.096000000000000085e+02 3.126007163882952256e+01
1.100000000000000000e+02 3.120319921744618341e+01
1.104000000000000057e+02 3.114660990361889503e+01
1.108000000000000114e+02 3.109032325356364979e+01
1.112000000000000028e+02 3.103433652035348445e+01
1.116000000000000085e+02 3.097864699223798368e+01
1.120000000000000000e+02 3.092325199206247532e+01
1.124000000000000057e+02 3.086814887669878615e+01
1.128000000000000114e+02 3.081333503648764349e+01
1.132000000000000028e+02 3.075880789469213283e+01
1.136000000000000085e+02 3.070456490696204810e+01
1.140000000000000000e+02 3.065060356080904924e+01
1.144000000000000057e+02 3.059692137509204102e+01
1.148000000000000114e+02 3.054351589951281909e+01
1.152000000000000028e+02 3.049038471412162821e+01
1.156000000000000085e+02 3.043752542883238377e+01
1.160000000000000000e+02 3.038493568294742175e+01
1.164000000000000057e+02 3.033261314469140046e+01
1.168000000000000114e+02 3.028055551075436824e+01
1.172000000000000028e+02 3.022873045653595625e+01
1.176000000000000085e+02 3.017709488686914909e+01
1.180000000000000000e+02 3.012571727692274592e+01
1.184000000000000057e+02 3.007459544385140759e+01
1.188000000000000114e+02 3.002372723084891959e+01
1.192000000000000028e+02 2.993845695277529373e+01
1.196000000000000085e+02 2.988818766334051702e+01
1.200000000000000000e+02 2.983816605338726902e+01
1.204000000000000057e+02 2.978839005515474625e+01
1.208000000000000114e+02 2.973885762521620535e+01
1.212000000000000028e+02 2.968956674410981122e+01
1.216000000000000085e+02 2.964051541597647343e+01
1.220000000000000000e+02 2.959170166820425862e+01
1.224000000000000057e+02 2.954312355107937549e+01
1.228000000000000114e+02 2.949477913744368962e+01
1.232000000000000028e+02 2.944666652235828863e+01
1.236000000000000085e+02 2.939878382277336755e+01
1.240000000000000000e+02 2.935112917720403303e+01
1.244000000000000057e+02 2.930370074541194114e+01
1.248000000000000114e+02 2.925649670809278291e+01
1.252000000000000028e+02 2.921403487073150629e+01
1.256000000000000085e+02 2.916767612939717580e+01
1.260000000000000000e+02 2.912153436087070446e+01
1.264000000000000057e+02 2.907560784484512340e+01
1.268000000000000114e+02 2.902989488024769216e+01
1.272000000000000028e+02 2.898439378496264496e+01
1.276000000000000085e+02 2.893910289555874726e+01
1.280000000000000000e+02 2.889402056702175869e+01
1.284000000000000057e+02 2.884914517249146115e+01
1.288000000000000114e+02 2.880447510300336234e+01
1.291999999999999886e+02 2.876000876723484723e+01
1.296000000000000227e+02 2.871574459125577761e+01
1.300000000000000000e+02 2.867168101828336191e+01
1.304000000000000057e+02 2.862781650844126347e+01
1.308000000000000114e+02 2.858414953852286189e+01
1.311999999999999886e+02 2.854060655837061233e+01
1.316000000000000227e+02 2.849713907612905217e+01
1.320000000000000000e+02 2.845363486029311062e+01
1.324000000000000057e+02 2.841010425303465325e+01
1.328000000000000114e+02 2.836676845882558240e+01
1.331999999999999886e+02 2.832362601405954550e+01
1.336000000000000227e+02 2.828067547056181041e+01
1.340000000000000000e+02 2.823791539537985429e+01
1.344000000000000057e+02 2.819534437057728127e+01
1.348000000000000114e+02 2.815296099303134270e+01
1.351999999999999886e+02 2.811076387423363698e+01
1.356000000000000227e+02 2.806875164009414547e+01
1.360000000000000000e+02 2.802692293074851904e+01
1.364000000000000057e+02 2.798527640036844844e+01
1.368000000000000114e+02 2.794381071697520724e+01
1.371999999999999886e+02 2.790252456225611866e+01
1.376000000000000227e+02 2.786141663138412383e+01
1.380000000000000000e+02 2.782048563284016396e+01
1.384000000000000057e+02 2.777973028823843293e+01
1.388000000000000114e+02 2.773914933215451839e+01
1.392000000000000171e+02 2.769874151195619660e+01
1.395999999999999943e+02 2.765850558763699851e+01
1.400000000000000000e+02 2.761844033165236212e+01
1.404000000000000057e+02 2.757854452875846363e+01
1.408000000000000114e+02 2.753868191736892257e+01
1.412000000000000171e+02 2.749898173489162190e+01
1.415999999999999943e+02 2.745944801388597512e+01
1.420000000000000000e+02 2.742007958257281786e+01
1.424000000000000057e+02 2.738087528074595411e+01
1.428000000000000114e+02 2.734183395962509167e+01
1.432000000000000171e+02 2.730295448171096240e+01
1.435999999999999943e+02 2.726423572064282297e+01
1.440000000000000000e+02 2.722567656105803025e+01
1.444000000000000057e+02 2.720493950933991556e+01
1.448000000000000114e+02 2.716685432077552065e+01
1.452000000000000171e+02 2.712892452089472428e+01
1.455999999999999943e+02 2.708436230730985628e+01
1.460000000000000000e+02 2.704708120158965556e+01
1.464000000000000057e+02 2.700995070175198265e+01
1.468000000000000114e+02 2.697296978380879295e+01
1.472000000000000171e+02 2.693613743355519219e+01
1.475999999999999943e+02 2.689945264644899581e+01
1.480000000000000000e+02 2.686291442749208613e+01
1.484000000000000057e+02 2.682652179111361335e+01
1.488000000000000114e+02 2.679027376105491598e+01
1.492000000000000171e+02 2.675416937025611830e+01
1.495999999999999943e+02 2.671820766074449693e+01
1.500000000000000000e+02 2.668238768352443557e+01
