1.000000000000000000e+01 6.552545257815470450e+02
1.040000000000000036e+01 7.132091372545853574e+02
1.080000000000000071e+01 7.539200713514467225e+02
1.119999999999999929e+01 8.042576198991265528e+02
1.159999999999999964e+01 8.196744131193327121e+02
1.200000000000000000e+01 8.292430765823445427e+02
1.240000000000000036e+01 8.374225549125488897e+02
1.280000000000000071e+01 9.060148523135103460e+02
1.319999999999999929e+01 9.372350829536861738e+02
1.359999999999999964e+01 9.818092651247153526e+02
1.400000000000000000e+01 9.750150216834670118e+02
1.440000000000000036e+01 9.565996783649117106e+02
1.480000000000000071e+01 9.393682478309788166e+02
1.519999999999999929e+01 9.231901490826121517e+02
1.560000000000000142e+01 9.079549995777127833e+02
1.600000000000000000e+01 8.935686435167617674e+02
1.639999999999999858e+01 8.799501165268975456e+02
1.680000000000000071e+01 8.670292920804890855e+02
1.719999999999999929e+01 8.547450327293948931e+02
1.760000000000000142e+01 8.430437208654959704e+02
1.800000000000000000e+01 8.318780787398268330e+02
1.839999999999999858e+01 8.212062116866093220e+02
1.880000000000000071e+01 8.109908255313890777e+02
1.920000000000000284e+01 8.011985813332285034e+02
1.960000000000000142e+01 7.917995594327612707e+02
2.000000000000000000e+01 7.827668112566882428e+02
2.039999999999999858e+01 7.740759821450035361e+02
2.080000000000000071e+01 7.657049920868228128e+02
2.120000000000000284e+01 7.576337639993610082e+02
2.160000000000000142e+01 7.498439912919943708e+02
2.200000000000000000e+01 7.423189380874648577e+02
2.239999999999999858e+01 7.350432667437712553e+02
2.280000000000000071e+01 7.280028883197323921e+02
2.320000000000000284e+01 7.211848324185971251e+02
2.360000000000000142e+01 7.145771334749724701e+02
2.400000000000000000e+01 7.081687310565816915e+02
2.439999999999999858e+01 7.019493821610192299e+02
2.480000000000000071e+01 6.959095838194646149e+02
2.520000000000000284e+01 6.900405045901702579e+02
2.560000000000000142e+01 6.843339237467666862e+02
2.600000000000000000e+01 6.787821771496796828e+02
2.640000000000000213e+01 6.733781089407402760e+02
2.680000000000000071e+01 6.681150283273550485e+02
2.719999999999999929e+01 6.629866708281367664e+02
2.760000000000000142e+01 6.579871634403991720e+02
2.800000000000000000e+01 6.531109932644698119e+02
2.840000000000000213e+01 6.483529791827709232e+02
2.880000000000000071e+01 6.437082462450453022e+02
2.920000000000000284e+01 6.391722024565842730e+02
2.960000000000000142e+01 6.347405177051216469e+02
3.000000000000000000e+01 6.304091045953116463e+02
3.040000000000000213e+01 6.261741009882482558e+02
3.080000000000000071e+01 6.220318540680921160e+02
3.120000000000000284e+01 6.179789057790987954e+02
3.160000000000000142e+01 6.140119794947453329e+02
3.200000000000000000e+01 6.101279677966222152e+02
3.240000000000000568e+01 6.063239212546556018e+02
3.279999999999999716e+01 6.025970381123518109e+02
3.320000000000000284e+01 5.989446547913595396e+02
3.360000000000000142e+01 5.953642371389374830e+02
3.400000000000000000e+01 5.918533723500713677e+02
3.440000000000000568e+01 5.884097615031708983e+02
3.479999999999999716e+01 5.850312126546037916e+02
3.520000000000000284e+01 5.817156344429180308e+02
3.560000000000000142e+01 5.784610301585605612e+02
3.600000000000000000e+01 5.752654922392832759e+02
3.640000000000000568e+01 5.721271971553311460e+02
3.679999999999999716e+01 5.690444006519796858e+02
3.720000000000000284e+01 5.660154333200777046e+02
3.760000000000000142e+01 5.630386964680150186e+02
3.800000000000000000e+01 5.601126582710038520e+02
3.840000000000000568e+01 5.572358501757735212e+02
3.879999999999999716e+01 5.544068635407601278e+02
3.920000000000000284e+01 5.516243464936537748e+02
3.960000000000000142e+01 5.488870009897716500e+02
4.000000000000000000e+01 5.461935800561582255e+02
4.040000000000000568e+01 5.435428852076270232e+02
4.079999999999999716e+01 5.409337640221236825e+02
4.120000000000000284e+01 5.383651078638538365e+02
4.160000000000000142e+01 5.358358497435860954e+02
4.200000000000000000e+01 5.333449623064047955e+02
4.239999999999999858e+01 5.308914559379802540e+02
4.280000000000000426e+01 5.284743769811464063e+02
4.320000000000000284e+01 5.260928060552211036e+02
4.360000000000000142e+01 5.237458564711071176e+02
4.400000000000000000e+01 5.214326727357472464e+02
4.439999999999999858e+01 5.191524291400060065e+02
4.480000000000000426e+01 5.169043284245005907e+02
4.520000000000000284e+01 5.146876005183146390e+02
4.560000000000000142e+01 5.125015013459088777e+02
4.600000000000000000e+01 5.103453116978876096e+02
4.639999999999999858e+01 5.082183361615980175e+02
4.680000000000000426e+01 5.061199021078282385e+02
4.720000000000000284e+01 5.040493587301402840e+02
4.760000000000000142e+01 5.020060761336175119e+02
4.800000000000000000e+01 4.999894444700340159e+02
4.840000000000000568e+01 4.979988731166615707e+02
4.880000000000000426e+01 4.960337898961188330e+02
4.920000000000000284e+01 4.940936403348489421e+02
4.960000000000000142e+01 4.921778869579714524e+02
5.000000000000000000e+01 4.902860086184082320e+02
5.040000000000000568e+01 4.884174998583187062e+02
5.080000000000000426e+01 4.865718703010135755e+02
5.120000000000000284e+01 4.847486440716320999e+02
5.160000000000000142e+01 4.829473592449799071e+02
5.200000000000000000e+01 4.811675673190279099e+02
5.240000000000000568e+01 4.794088327126656850e+02
5.280000000000000426e+01 4.776707322863946388e+02
5.320000000000000284e+01 4.759528548847243883e+02
5.360000000000000142e+01 4.742548008991158781e+02
5.400000000000000000e+01 4.725761818503821132e+02
5.440000000000000568e+01 4.709166199895287832e+02
5.480000000000000426e+01 4.692757479160712251e+02
5.520000000000000284e+01 4.676532082129285186e+02
5.560000000000000142e+01 4.660486530970455306e+02
5.600000000000000000e+01 4.644617440849435184e+02
5.640000000000000568e+01 4.628921516724489607e+02
5.680000000000000426e+01 4.613395550278897304e+02
5.720000000000000284e+01 4.598036416980937133e+02
5.760000000000000142e+01 4.582841073265575460e+02
5.800000000000000000e+01 4.567806553831935048e+02
5.840000000000000568e+01 4.552929969050921954e+02
5.880000000000000426e+01 4.538208502477738762e+02
5.920000000000000284e+01 4.523639408464241569e+02
5.960000000000000142e+01 4.509220009866463670e+02
6.000000000000000000e+01 4.494947695842787425e+02
6.040000000000000568e+01 4.480819919738580666e+02
6.080000000000000426e+01 4.466834197053250364e+02
6.120000000000000284e+01 4.452988103485959073e+02
6.160000000000000142e+01 4.439279273056408783e+02
6.200000000000000000e+01 4.425705396297271932e+02
6.240000000000000568e+01 4.412264218515073253e+02
6.280000000000000426e+01 4.398953538116448954e+02
6.320000000000000284e+01 4.385771204996892720e+02
6.360000000000000142e+01 4.372715118989230518e+02
6.400000000000000000e+01 4.359783228369219046e+02
6.440000000000000568e+01 4.346973528415776400e+02
6.480000000000001137e+01 4.334284060023508118e+02
6.520000000000000284e+01 4.321712908365265662e+02
6.559999999999999432e+01 4.309258201602619920e+02
6.600000000000000000e+01 4.296918109642228956e+02
6.640000000000000568e+01 4.284690842936165609e+02
6.680000000000001137e+01 4.272574651324371757e+02
6.720000000000000284e+01 4.260567822917498688e+02
6.759999999999999432e+01 4.248668683018466368e+02
6.800000000000000000e+01 4.236875593081161924e+02
6.840000000000000568e+01 4.225186949704768722e+02
6.880000000000001137e+01 4.213601183662278800e+02
6.920000000000000284e+01 4.202116758961831238e+02
6.959999999999999432e+01 4.190732171939557134e+02
7.000000000000000000e+01 4.179445950382687442e+02
7.040000000000000568e+01 4.168256652681731111e+02
7.080000000000001137e+01 4.157162867010590048e+02
7.120000000000000284e+01 4.146163210533516121e+02
7.159999999999999432e+01 4.135256328637879051e+02
7.200000000000000000e+01 4.124440894191756115e+02
7.240000000000000568e+01 4.113715606825394957e+02
7.280000000000001137e+01 4.103079192235630899e+02
7.320000000000000284e+01 4.092530401512414073e+02
7.359999999999999432e+01 4.082068010486601679e+02
7.400000000000000000e+01 4.071690819098225802e+02
7.440000000000000568e+01 4.061397650784488178e+02
7.479999999999999716e+01 4.051187351886735541e+02
7.520000000000000284e+01 4.041058791075737417e+02
7.560000000000000853e+01 4.031010858794595038e+02
7.600000000000000000e+01 4.021042466718639616e+02
7.640000000000000568e+01 4.011152547231707786e+02
7.679999999999999716e+01 4.001340052918214383e+02
7.720000000000000284e+01 3.991603956070458707e+02
7.760000000000000853e+01 3.981943248210612296e+02
7.800000000000000000e+01 3.972356939626895382e+02
7.840000000000000568e+01 3.962844058923419652e+02
7.879999999999999716e+01 3.953403652583239705e+02
7.920000000000000284e+01 3.944034784544149943e+02
7.960000000000000853e+01 3.934736535786782952e+02
8.000000000000000000e+01 3.925508003934598946e+02
8.040000000000000568e+01 3.916348302865349069e+02
8.079999999999999716e+01 3.907256562333633383e+02
8.120000000000000284e+01 3.898231927604174416e+02
8.160000000000000853e+01 3.889273559095450992e+02
8.200000000000000000e+01 3.880380632033336497e+02
8.240000000000000568e+01 3.871552336114430091e+02
8.279999999999999716e+01 3.862787875178735817e+02
8.320000000000000284e+01 3.854086466891403120e+02
8.360000000000000853e+01 3.845447342433222957e+02
8.400000000000000000e+01 3.836869746199600399e+02
8.440000000000000568e+01 3.828352935507709844e+02
8.479999999999999716e+01 3.819896180311616831e+02
8.520000000000000284e+01 3.811498762925049277e+02
8.560000000000000853e+01 3.803159977751624865e+02
8.600000000000000000e+01 3.794879131022275942e+02
8.640000000000000568e+01 3.786655540539643425e+02
8.680000000000001137e+01 3.778488535429232797e+02
8.720000000000000284e+01 3.770377455897113350e+02
8.760000000000000853e+01 3.762321652993950352e+02
8.800000000000000000e+01 3.754320488385200747e+02
8.840000000000000568e+01 3.746373334127246721e+02
8.880000000000001137e+01 3.738479572449309671e+02
8.920000000000000284e+01 3.730638595540972346e+02
8.960000000000000853e+01 3.722849805345108507e+02
9.000000000000000000e+01 3.715112613356097881e+02
9.040000000000000568e+01 3.707426440423136000e+02
9.080000000000001137e+01 3.699790716558501913e+02
9.120000000000000284e+01 3.692204880750629172e+02
9.160000000000000853e+01 3.684668380781844235e+02
9.200000000000000000e+01 3.677180673050630730e+02
9.240000000000000568e+01 3.669741222398287732e+02
9.280000000000001137e+01 3.662349501939851848e+02
9.320000000000000284e+01 3.655004992899163199e+02
9.360000000000000853e+01 3.647707184447951931e+02
9.400000000000000000e+01 3.640455573548832717e+02
9.440000000000000568e+01 3.633249664802087295e+02
9.480000000000001137e+01 3.626088970296141270e+02
9.520000000000000284e+01 3.618973009461615220e+02
9.560000000000000853e+01 3.611901308928856338e+02
9.600000000000000000e+01 3.604873402388856221e+02
9.640000000000000568e+01 3.597888830457447966e+02
9.680000000000001137e+01 3.590947140542706393e+02
9.720000000000000284e+01 3.584047886715448499e+02
9.760000000000000853e+01 3.577190629582752308e+02
9.800000000000000000e+01 3.570374936164425890e+02
9.840000000000000568e+01 3.563600379772310589e+02
9.880000000000001137e+01 3.556866539892390620e+02
9.920000000000000284e+01 3.550173002069577706e+02
9.960000000000000853e+01 3.543519357795144060e+02
1.000000000000000000e+02 3.536905204396705358e+02
1.004000000000000057e+02 3.530330144930700840e+02
1.008000000000000114e+02 3.523793788077288127e+02
1.012000000000000028e+02 3.517295748037604994e+02
1.016000000000000085e+02 3.510835644433317384e+02
1.020000000000000000e+02 3.504413102208418422e+02
1.024000000000000057e+02 3.498027751533190326e+02
1.028000000000000114e+02 3.491679227710288842e+02
1.032000000000000028e+02 3.485367171082903042e+02
1.036000000000000085e+02 3.479091226944907476e+02
1.040000000000000000e+02 3.472851045452993617e+02
1.044000000000000057e+02 3.466646281540691916e+02
1.048000000000000114e+02 3.460476594834265711e+02
1.052000000000000028e+02 3.454341649570411619e+02
1.056000000000000085e+02 3.448241114515727190e+02
1.060000000000000000e+02 3.442174662887896943e+02
1.064000000000000057e+02 3.436141972278561525e+02
1.068000000000000114e+02 3.430142724577817717e+02
1.072000000000000028e+02 3.424176605900313461e+02
1.076000000000000085e+02 3.418243306512902109e+02
1.080000000000000000e+02 3.412342520763800167e+02
1.084000000000000057e+02 3.406473947013244583e+02
1.088000000000000114e+02 3.400637287565569977e+02
1.092000000000000028e+02 3.394832248602706386e+02
1.096000000000000085e+02 3.389058540119044665e+02
1.100000000000000000e+02 3.383315875857639412e+02
1.104000000000000057e+02 3.377603973247721001e+02
1.108000000000000114e+02 3.371922553343482605e+02
1.112000000000000028e+02 3.366271340764104139e+02
1.116000000000000085e+02 3.360650063635000038e+02
1.120000000000000000e+02 3.355058453530244833e+02
1.124000000000000057e+02 3.349496245416160036e+02
1.128000000000000114e+02 3.343963177596024252e+02
1.132000000000000028e+02 3.338458991655893442e+02
1.136000000000000085e+02 3.332983432411490412e+02
1.140000000000000000e+02 3.327536247856155569e+02
1.144000000000000057e+02 3.322117189109807214e+02
1.148000000000000114e+02 3.316726010368927291e+02
1.152000000000000028e+02 3.311362468857505519e+02
1.156000000000000085e+02 3.306026324778952130e+02
1.160000000000000000e+02 3.300717341268944551e+02
1.164000000000000057e+02 3.295435284349181302e+02
1.168000000000000114e+02 3.290179922882037431e+02
1.172000000000000028e+02 3.284951028526081700e+02
1.176000000000000085e+02 3.279748375692453237e+02
1.180000000000000000e+02 3.274571741502070381e+02
1.184000000000000057e+02 3.269420905743648973e+02
1.188000000000000114e+02 3.264295650832523279e+02
1.192000000000000028e+02 3.259195761770236572e+02
1.196000000000000085e+02 3.254121026104899670e+02
1.200000000000000000e+02 3.249071233892292412e+02
1.204000000000000057e+02 3.244046177657684780e+02
1.208000000000000114e+02 3.239045652358381062e+02
1.212000000000000028e+02 3.234069455346947279e+02
1.216000000000000085e+02 3.229117386335128685e+02
1.220000000000000000e+02 3.224189247358424382e+02
1.224000000000000057e+02 3.219284842741321313e+02
1.228000000000000114e+02 3.214403979063158658e+02
1.232000000000000028e+02 3.209546465124614087e+02
1.236000000000000085e+02 3.204712111914807906e+02
1.240000000000000000e+02 3.199900732578993257e+02
1.244000000000000057e+02 3.195112142386836922e+02
1.248000000000000114e+02 3.190346158701266859e+02
1.252000000000000028e+02 3.185602600947885890e+02
1.256000000000000085e+02 3.180881290584919725e+02
1.260000000000000000e+02 3.176182051073716366e+02
1.264000000000000057e+02 3.171504707849754823e+02
1.268000000000000114e+02 3.166849088294177363e+02
1.272000000000000028e+02 3.162215021705823119e+02
1.276000000000000085e+02 3.157602339273746566e+02
1.280000000000000000e+02 3.153010874050224288e+02
1.284000000000000057e+02 3.148440460924234117e+02
1.288000000000000114e+02 3.143890936595391281e+02
1.291999999999999886e+02 3.139362139548343293e+02
1.296000000000000227e+02 3.134853910027601387e+02
1.300000000000000000e+02 3.130366090012811355e+02
1.304000000000000057e+02 3.125898523194447307e+02
1.308000000000000114e+02 3.121451054949922650e+02
1.311999999999999886e+02 3.117023532320112622e+02
1.316000000000000227e+02 3.112615803986266201e+02
1.320000000000000000e+02 3.108227720247325578e+02
1.324000000000000057e+02 3.103859132997617962e+02
1.328000000000000114e+02 3.099509895704923110e+02
1.331999999999999886e+02 3.095179863388921717e+02
1.336000000000000227e+02 3.090868892599991113e+02
1.340000000000000000e+02 3.086576841398367037e+02
1.344000000000000057e+02 3.082303569333643054e+02
1.348000000000000114e+02 3.078048937424617293e+02
1.351999999999999886e+02 3.073812808139468302e+02
1.356000000000000227e+02 3.069595045376264579e+02
1.360000000000000000e+02 3.065395514443788443e+02
1.364000000000000057e+02 3.061214082042675955e+02
1.368000000000000114e+02 3.057050616246869481e+02
1.371999999999999886e+02 3.052904986485368681e+02
1.376000000000000227e+02 3.048777063524277082e+02
1.380000000000000000e+02 3.044666719449148218e+02
1.384000000000000057e+02 3.040573827647602911e+02
1.388000000000000114e+02 3.036498262792244418e+02
1.392000000000000171e+02 3.032439900823829362e+02
1.395999999999999943e+02 3.028398618934724027e+02
1.400000000000000000e+02 3.024374295552615877e+02
1.404000000000000057e+02 3.020366810324485982e+02
1.408000000000000114e+02 3.016376044100838953e+02
1.412000000000000171e+02 3.012401878920179001e+02
1.415999999999999943e+02 3.008444197993736680e+02
1.420000000000000000e+02 3.004502885690424705e+02
1.424000000000000057e+02 3.000577827522042753e+02
1.428000000000000114e+02 2.996668910128706784e+02
1.432000000000000171e+02 2.992776021264506880e+02
1.435999999999999943e+02 2.988899049783387909e+02
1.440000000000000000e+02 2.985037885625251306e+02
1.444000000000000057e+02 2.981192419802266613e+02
1.448000000000000114e+02 2.977362544385402430e+02
1.452000000000000171e+02 2.973548152491158589e+02
1.455999999999999943e+02 2.969749138268501270e+02
1.460000000000000000e+02 2.965965396886000462e+02
1.464000000000000057e+02 2.962196824519162419e+02
1.468000000000000114e+02 2.958443318337958772e+02
1.472000000000000171e+02 2.954704776494535849e+02
1.475999999999999943e+02 2.950981098111118968e+02
1.480000000000000000e+02 2.947272183268094636e+02
1.484000000000000057e+02 2.943577932992268416e+02
1.488000000000000114e+02 2.939898249245312059e+02
1.492000000000000171e+02 2.936233034912365838e+02
1.495999999999999943e+02 2.932582193790822203e+02
1.500000000000000000e+02 2.928945630579273143e+02
