1.000000000000000000e+01 4.151518913396211019e+02
1.040000000000000036e+01 4.438891202995952199e+02
1.080000000000000071e+01 4.747607820735927930e+02
1.119999999999999929e+01 5.146845873843678874e+02
1.159999999999999964e+01 5.506237448578175417e+02
1.200000000000000000e+01 5.971653676419898602e+02
1.240000000000000036e+01 6.355640577810182776e+02
1.280000000000000071e+01 6.422309184814447462e+02
1.319999999999999929e+01 6.623488926860092079e+02
1.359999999999999964e+01 6.821452983393370459e+02
1.400000000000000000e+01 6.863680955851527870e+02
1.440000000000000036e+01 6.973964537569243021e+02
1.480000000000000071e+01 7.169148606507040995e+02
1.519999999999999929e+01 7.038487037796355708e+02
1.560000000000000142e+01 6.916142749498399098e+02
1.600000000000000000e+01 6.801202938383291894e+02
1.639999999999999858e+01 6.692895713455183113e+02
1.680000000000000071e+01 6.590562361712882193e+02
1.719999999999999929e+01 6.493636178096830918e+02
1.760000000000000142e+01 6.401626062542438831e+02
1.800000000000000000e+01 6.314103640680746139e+02
1.839999999999999858e+01 6.230693030298818940e+02
1.880000000000000071e+01 6.151062622538634059e+02
1.920000000000000284e+01 6.074918416891591733e+02
1.960000000000000142e+01 6.001998568350467167e+02
2.000000000000000000e+01 5.932068890142902546e+02
2.039999999999999858e+01 5.864919117022384398e+02
2.080000000000000071e+01 5.800359779237614930e+02
2.120000000000000284e+01 5.738219570824628590e+02
2.160000000000000142e+01 5.678343121044632653e+02
2.200000000000000000e+01 5.620589096901260291e+02
2.239999999999999858e+01 5.564828579317695585e+02
2.280000000000000071e+01 5.510943666881712488e+02
2.320000000000000284e+01 5.458826269901069281e+02
2.360000000000000142e+01 5.408377064456100243e+02
2.400000000000000000e+01 5.359504581635313798e+02
2.439999999999999858e+01 5.312124411524353036e+02
2.480000000000000071e+01 5.266158505037312807e+02
2.520000000000000284e+01 5.221534559520569019e+02
2.560000000000000142e+01 5.178185476366493276e+02
2.600000000000000000e+01 5.136048880758419273e+02
2.640000000000000213e+01 5.095066695214438823e+02
2.680000000000000071e+01 5.055184759872988707e+02
2.719999999999999929e+01 5.016352493519863174e+02
2.760000000000000142e+01 4.978522590235840539e+02
2.800000000000000000e+01 4.941650747279170446e+02
2.840000000000000213e+01 4.905695420433987124e+02
2.880000000000000071e+01 4.870617603575316252e+02
2.920000000000000284e+01 4.836380629640631241e+02
2.960000000000000142e+01 4.802949990570582486e+02
3.000000000000000000e+01 4.770293174098792974e+02
3.040000000000000213e+01 4.738379515541537330e+02
3.080000000000000071e+01 4.707180062970188033e+02
3.120000000000000284e+01 4.676667454348727233e+02
3.160000000000000142e+01 4.646815805390425567e+02
3.200000000000000000e+01 4.617600607036177394e+02
3.240000000000000568e+01 4.588998631585620274e+02
3.279999999999999716e+01 4.560987846623770565e+02
3.320000000000000284e+01 4.533547335983134872e+02
3.360000000000000142e+01 4.506657227066126552e+02
3.400000000000000000e+01 4.480298623926693722e+02
3.440000000000000568e+01 4.454453545575246380e+02
3.479999999999999716e+01 4.429104869027956966e+02
3.520000000000000284e+01 4.404236276671888390e+02
3.560000000000000142e+01 4.379832207561690893e+02
3.600000000000000000e+01 4.355877812302830421e+02
3.640000000000000568e+01 4.332358911210985752e+02
3.679999999999999716e+01 4.309261955468052747e+02
3.720000000000000284e+01 4.286573991022488599e+02
3.760000000000000142e+01 4.264282625006114813e+02
3.800000000000000000e+01 4.242375994461156665e+02
3.840000000000000568e+01 4.220842737190670277e+02
3.879999999999999716e+01 4.199671964562861035e+02
3.920000000000000284e+01 4.178853236115265304e+02
3.960000000000000142e+01 4.158376535818734396e+02
4.000000000000000000e+01 4.138232249873622095e+02
4.040000000000000568e+01 4.118411145921858747e+02
4.079999999999999716e+01 4.098904353568697161e+02
4.120000000000000284e+01 4.079703346117055389e+02
4.160000000000000142e+01 4.060799923425679481e+02
4.200000000000000000e+01 4.042186195809729838e+02
4.239999999999999858e+01 4.023854568909227964e+02
4.280000000000000426e+01 4.005797729456885463e+02
4.320000000000000284e+01 3.988008631882399300e+02
4.360000000000000142e+01 3.970480485695370021e+02
4.400000000000000000e+01 3.953206743593543138e+02
4.439999999999999858e+01 3.936181090247330303e+02
4.480000000000000426e+01 3.919397431715301536e+02
4.520000000000000284e+01 3.902849885448883356e+02
4.560000000000000142e+01 3.886532770847627489e+02
4.600000000000000000e+01 3.870440600329357039e+02
4.639999999999999858e+01 3.854568070882129973e+02
4.680000000000000426e+01 3.838910056067409755e+02
4.720000000000000284e+01 3.823461598446062908e+02
4.760000000000000142e+01 3.808217902400851926e+02
4.800000000000000000e+01 3.793174327330982010e+02
4.840000000000000568e+01 3.778326381195968793e+02
4.880000000000000426e+01 3.763669714387739305e+02
4.920000000000000284e+01 3.749200113911264225e+02
4.960000000000000142e+01 3.734913497855457081e+02
5.000000000000000000e+01 3.720805910137262345e+02
5.040000000000000568e+01 3.706873515503044700e+02
5.080000000000000426e+01 3.693112594772416060e+02
5.120000000000000284e+01 3.679519540310663501e+02
5.160000000000000142e+01 3.666090851716828638e+02
5.200000000000000000e+01 3.652823131715322234e+02
5.240000000000000568e+01 3.639713082239756545e+02
5.280000000000000426e+01 3.626757500698409444e+02
5.320000000000000284e+01 3.613953276411367597e+02
5.360000000000000142e+01 3.601297387210061629e+02
5.400000000000000000e+01 3.588786896190470657e+02
5.440000000000000568e+01 3.576418948611794235e+02
5.480000000000000426e+01 3.564190768932929814e+02
5.520000000000000284e+01 3.552099657979516678e+02
5.560000000000000142e+01 3.540142990234775198e+02
5.600000000000000000e+01 3.528318211247765248e+02
5.640000000000000568e+01 3.516622835153054325e+02
5.680000000000000426e+01 3.505054442296155344e+02
5.720000000000000284e+01 3.493610676959414150e+02
5.760000000000000142e+01 3.482289245183332014e+02
5.800000000000000000e+01 3.471087912678607381e+02
5.840000000000000568e+01 3.460004502824430119e+02
5.880000000000000426e+01 3.449036894748848567e+02
5.920000000000000284e+01 3.438183021487205906e+02
5.960000000000000142e+01 3.427440868214936813e+02
6.000000000000000000e+01 3.416808470551151800e+02
6.040000000000000568e+01 3.406283912929698658e+02
6.080000000000000426e+01 3.395865327034497341e+02
6.120000000000000284e+01 3.385550890296179887e+02
6.160000000000000142e+01 3.375338824447206321e+02
6.200000000000000000e+01 3.365227394132747918e+02
6.240000000000000568e+01 3.355214905574828208e+02
6.280000000000000426e+01 3.345299705287287679e+02
6.320000000000000284e+01 3.335480178839309247e+02
6.360000000000000142e+01 3.325754749665327381e+02
6.400000000000000000e+01 3.316121877919273402e+02
6.440000000000000568e+01 3.306580059371204356e+02
6.480000000000001137e+01 3.297127824344473765e+02
6.520000000000000284e+01 3.287763736691670715e+02
6.559999999999999432e+01 3.278486392807678840e+02
6.600000000000000000e+01 3.269294420678243114e+02
6.640000000000000568e+01 3.260186478962564820e+02
6.680000000000001137e+01 3.251161256108460975e+02
6.720000000000000284e+01 3.242217469498743299e+02
6.759999999999999432e+01 3.233353864627508756e+02
6.800000000000000000e+01 3.224569214305103060e+02
6.840000000000000568e+01 3.215862317890586723e+02
6.880000000000001137e+01 3.207232000550567363e+02
6.920000000000000284e+01 3.198677112543347789e+02
6.959999999999999432e+01 3.190196528527347937e+02
7.000000000000000000e+01 3.181789146892847384e+02
7.040000000000000568e+01 3.173453889116108257e+02
7.080000000000001137e+01 3.165189699135000865e+02
7.120000000000000284e+01 3.156995542745281114e+02
7.159999999999999432e+01 3.148870407016715944e+02
7.200000000000000000e+01 3.140813299728285983e+02
7.240000000000000568e+01 3.132823248821734978e+02
7.280000000000001137e+01 3.124899301872749788e+02
7.320000000000000284e+01 3.117040525579113819e+02
7.359999999999999432e+01 3.109246005265175654e+02
7.400000000000000000e+01 3.101514844402033759e+02
7.440000000000000568e+01 3.093846164142839257e+02
7.479999999999999716e+01 3.086239102872652325e+02
7.520000000000000284e+01 3.078692815772328686e+02
7.560000000000000853e+01 3.071206474395896180e+02
7.600000000000000000e+01 3.063779266260953023e+02
7.640000000000000568e+01 3.056410394451596062e+02
7.679999999999999716e+01 3.049099077233437356e+02
7.720000000000000284e+01 3.041844547680262281e+02
7.760000000000000853e+01 3.034646053311936953e+02
7.800000000000000000e+01 3.027502855743127839e+02
7.840000000000000568e+01 3.020414230342492488e+02
7.879999999999999716e+01 3.013379465901942922e+02
7.920000000000000284e+01 3.006397864315639481e+02
7.960000000000000853e+01 2.999468740268388274e+02
8.000000000000000000e+01 2.992591420933096060e+02
8.040000000000000568e+01 2.985765245676989821e+02
8.079999999999999716e+01 2.978989565776286668e+02
8.120000000000000284e+01 2.972263744139039545e+02
8.160000000000000853e+01 2.965587155035875639e+02
8.200000000000000000e+01 2.958959183838360332e+02
8.240000000000000568e+01 2.952379226764732039e+02
8.279999999999999716e+01 2.945846690632773743e+02
8.320000000000000284e+01 2.939360992619560875e+02
8.360000000000000853e+01 2.932921560027889427e+02
8.400000000000000000e+01 2.926527830059138182e+02
8.440000000000000568e+01 2.920179249592368933e+02
8.479999999999999716e+01 2.913875274969465181e+02
8.520000000000000284e+01 2.907615371786104106e+02
8.560000000000000853e+01 2.901399014688380475e+02
8.600000000000000000e+01 2.895225687174906852e+02
8.640000000000000568e+01 2.889094881404201374e+02
8.680000000000001137e+01 2.883006098007211335e+02
8.720000000000000284e+01 2.876958845904804889e+02
8.760000000000000853e+01 2.870952642130069989e+02
8.800000000000000000e+01 2.864987011655281322e+02
8.840000000000000568e+01 2.859061487223383438e+02
8.880000000000001137e+01 2.853175609183848564e+02
8.920000000000000284e+01 2.847328925332786866e+02
8.960000000000000853e+01 2.841520990757160234e+02
9.000000000000000000e+01 2.835751367682993305e+02
9.040000000000000568e+01 2.830019625327454378e+02
9.080000000000001137e+01 2.824325339754677771e+02
9.120000000000000284e+01 2.818668093735239495e+02
9.160000000000000853e+01 2.813047476609152682e+02
9.200000000000000000e+01 2.807463084152295778e+02
9.240000000000000568e+01 2.801914518446161537e+02
9.280000000000001137e+01 2.796401387750836989e+02
9.320000000000000284e+01 2.790923306381114912e+02
9.360000000000000853e+01 2.785479894585639613e+02
9.400000000000000000e+01 2.780070778429019924e+02
9.440000000000000568e+01 2.774695589676795748e+02
9.480000000000001137e+01 2.769353965683198453e+02
9.520000000000000284e+01 2.764045549281614740e+02
9.560000000000000853e+01 2.758769988677674974e+02
9.600000000000000000e+01 2.753526937344905718e+02
9.640000000000000568e+01 2.748316053922848141e+02
9.680000000000001137e+01 2.743137002117608745e+02
9.720000000000000284e+01 2.737989450604732724e+02
9.760000000000000853e+01 2.732873072934376637e+02
9.800000000000000000e+01 2.727787547438681486e+02
9.840000000000000568e+01 2.722732557141309826e+02
9.880000000000001137e+01 2.717707789669075282e+02
9.920000000000000284e+01 2.712712937165612743e+02
9.960000000000000853e+01 2.707747696207022727e+02
1.000000000000000000e+02 2.702811767719457521e+02
1.004000000000000057e+02 2.697904856898572916e+02
1.008000000000000114e+02 2.693026673130811446e+02
1.012000000000000028e+02 2.688176929916463109e+02
1.016000000000000085e+02 2.683355344794451867e+02
1.020000000000000000e+02 2.678561639268809813e+02
1.024000000000000057e+02 2.673795538736788444e+02
1.028000000000000114e+02 2.669056772418566652e+02
1.032000000000000028e+02 2.664345073288515096e+02
1.036000000000000085e+02 2.659660178007967488e+02
1.040000000000000000e+02 2.655001826859473226e+02
1.044000000000000057e+02 2.650369763682481334e+02
1.048000000000000114e+02 2.645763735810428443e+02
1.052000000000000028e+02 2.641183494009178503e+02
1.056000000000000085e+02 2.636628792416806277e+02
1.060000000000000000e+02 2.632099388484659812e+02
1.064000000000000057e+02 2.627595042919695629e+02
1.068000000000000114e+02 2.623115519628035486e+02
1.072000000000000028e+02 2.618660585659723665e+02
1.076000000000000085e+02 2.614230011154656381e+02
1.080000000000000000e+02 2.609823569289643501e+02
1.084000000000000057e+02 2.605441036226585538e+02
1.088000000000000114e+02 2.601082191061733511e+02
1.092000000000000028e+02 2.596746815776000972e+02
1.096000000000000085e+02 2.592434695186315139e+02
1.100000000000000000e+02 2.588145616897959371e+02
1.104000000000000057e+02 2.583879371257910407e+02
1.108000000000000114e+02 2.579635751309126022e+02
1.112000000000000028e+02 2.575414552745760943e+02
1.116000000000000085e+02 2.571215573869303057e+02
1.120000000000000000e+02 2.567038615545595235e+02
1.124000000000000057e+02 2.562883481162720045e+02
1.128000000000000114e+02 2.558749976589737969e+02
1.132000000000000028e+02 2.554637910136250412e+02
1.136000000000000085e+02 2.550547092512767335e+02
1.140000000000000000e+02 2.546477336791868993e+02
1.144000000000000057e+02 2.542428458370126805e+02
1.148000000000000114e+02 2.538400274930791909e+02
1.152000000000000028e+02 2.534392606407200219e+02
1.156000000000000085e+02 2.530405274946906786e+02
1.160000000000000000e+02 2.526438104876516491e+02
1.164000000000000057e+02 2.522490922667196003e+02
1.168000000000000114e+02 2.518563556900862750e+02
1.172000000000000028e+02 2.514655838237014507e+02
1.176000000000000085e+02 2.510767599380209845e+02
1.180000000000000000e+02 2.506898675048162772e+02
1.184000000000000057e+02 2.503048901940453561e+02
1.188000000000000114e+02 2.499218118707831877e+02
1.192000000000000028e+02 2.495406165922099433e+02
1.196000000000000085e+02 2.491612886046572157e+02
1.200000000000000000e+02 2.487838123407084367e+02
1.204000000000000057e+02 2.484081724163551712e+02
1.208000000000000114e+02 2.480343536282055936e+02
1.212000000000000028e+02 2.476623409507453744e+02
1.216000000000000085e+02 2.472921195336494975e+02
1.220000000000000000e+02 2.469236746991436462e+02
1.224000000000000057e+02 2.465569919394146154e+02
1.228000000000000114e+02 2.461920569140677912e+02
1.232000000000000028e+02 2.458288554476319803e+02
1.236000000000000085e+02 2.454673735271087764e+02
1.240000000000000000e+02 2.451075972995676011e+02
1.244000000000000057e+02 2.447495130697836032e+02
1.248000000000000114e+02 2.443931072979185899e+02
1.252000000000000028e+02 2.440383665972435381e+02
1.256000000000000085e+02 2.436852777319024312e+02
1.260000000000000000e+02 2.433338276147152897e+02
1.264000000000000057e+02 2.429840033050214174e+02
1.268000000000000114e+02 2.426357920065599956e+02
1.272000000000000028e+02 2.422891810653889308e+02
1.276000000000000085e+02 2.419441579678402832e+02
1.280000000000000000e+02 2.416007103385111634e+02
1.284000000000000057e+02 2.412588259382908689e+02
1.288000000000000114e+02 2.409184926624214427e+02
1.291999999999999886e+02 2.405796985385930782e+02
1.296000000000000227e+02 2.402424317250713557e+02
1.300000000000000000e+02 2.399066805088582726e+02
1.304000000000000057e+02 2.395724333038841110e+02
1.308000000000000114e+02 2.392396786492306546e+02
1.311999999999999886e+02 2.389084052073848454e+02
1.316000000000000227e+02 2.385786017625222826e+02
1.320000000000000000e+02 2.382502572188202237e+02
1.324000000000000057e+02 2.379233605987990643e+02
1.328000000000000114e+02 2.375979010416915287e+02
1.331999999999999886e+02 2.372738678018399696e+02
1.336000000000000227e+02 2.369512502471203561e+02
1.340000000000000000e+02 2.366300378573928356e+02
1.344000000000000057e+02 2.363102202229777618e+02
1.348000000000000114e+02 2.359917870431579558e+02
1.351999999999999886e+02 2.356747281247049557e+02
1.356000000000000227e+02 2.353590333804302759e+02
1.360000000000000000e+02 2.350446928277603718e+02
1.364000000000000057e+02 2.347316965873350796e+02
1.368000000000000114e+02 2.344200348816290784e+02
1.371999999999999886e+02 2.341096980335958904e+02
1.376000000000000227e+02 2.338006764653340213e+02
1.380000000000000000e+02 2.334929606967750431e+02
1.384000000000000057e+02 2.331865413443921682e+02
1.388000000000000114e+02 2.328814091199307086e+02
1.392000000000000171e+02 2.325775548291582595e+02
1.395999999999999943e+02 2.322749693706354890e+02
1.400000000000000000e+02 2.319736437345059699e+02
1.404000000000000057e+02 2.316735690013060491e+02
1.408000000000000114e+02 2.313747363407933335e+02
1.412000000000000171e+02 2.310771370107934786e+02
1.415999999999999943e+02 2.307807623560660488e+02
1.420000000000000000e+02 2.304856038071872320e+02
1.424000000000000057e+02 2.301916528794512828e+02
1.428000000000000114e+02 2.298989011717879691e+02
1.432000000000000171e+02 2.296073403656981782e+02
1.435999999999999943e+02 2.293169622242051560e+02
1.440000000000000000e+02 2.290277585908227422e+02
1.444000000000000057e+02 2.287397213885388965e+02
1.448000000000000114e+02 2.284528426188159074e+02
1.452000000000000171e+02 2.281671143606051828e+02
1.455999999999999943e+02 2.278825287693773589e+02
1.460000000000000000e+02 2.275990780761678138e+02
1.464000000000000057e+02 2.273167545866357386e+02
1.468000000000000114e+02 2.270355506801391243e+02
1.472000000000000171e+02 2.267554588088219703e+02
1.475999999999999943e+02 2.264764714967165844e+02
1.480000000000000000e+02 2.261985813388593840e+02
1.484000000000000057e+02 2.259217810004191449e+02
1.488000000000000114e+02 2.256460632158395470e+02
1.492000000000000171e+02 2.253714207879935998e+02
1.495999999999999943e+02 2.250978465873512846e+02
1.500000000000000000e+02 2.248253335511593605e+02
