1.000000000000000000e+01 5.680341260583679741e+02
1.040000000000000036e+01 5.874269283976996121e+02
1.080000000000000071e+01 5.931801536773697308e+02
1.119999999999999929e+01 6.050676092469560672e+02
1.159999999999999964e+01 6.195793640938468343e+02
1.200000000000000000e+01 6.322621684511713056e+02
1.240000000000000036e+01 6.430209349231123497e+02
1.280000000000000071e+01 6.946051333008789470e+02
1.319999999999999929e+01 7.130676829517881288e+02
1.359999999999999964e+01 7.473994666882107367e+02
1.400000000000000000e+01 7.456897802398921158e+02
1.440000000000000036e+01 7.320066055252757451e+02
1.480000000000000071e+01 7.191961848423877655e+02
1.519999999999999929e+01 7.071624681186038970e+02
1.560000000000000142e+01 6.958242794302541370e+02
1.600000000000000000e+01 6.851123830294643540e+02
1.639999999999999858e+01 6.749672439767259675e+02
1.680000000000000071e+01 6.653372936257794663e+02
1.719999999999999929e+01 6.561775683925525300e+02
1.760000000000000142e+01 6.474486287986422894e+02
1.800000000000000000e+01 6.391156918847525503e+02
1.839999999999999858e+01 6.311479281063101325e+02
1.880000000000000071e+01 6.235178864763911406e+02
1.920000000000000284e+01 6.162010207486550826e+02
1.960000000000000142e+01 6.091752959675820875e+02
2.000000000000000000e+01 6.024208595063460052e+02
2.039999999999999858e+01 5.959197642713247660e+02
2.080000000000000071e+01 5.896557344242446561e+02
2.120000000000000284e+01 5.836139660001721268e+02
2.160000000000000142e+01 5.777809563524909890e+02
2.200000000000000000e+01 5.721443575563379227e+02
2.239999999999999858e+01 5.666928498375680192e+02
2.280000000000000071e+01 5.614160318293108958e+02
2.320000000000000284e+01 5.563043250398263808e+02
2.360000000000000142e+01 5.513488903788588686e+02
2.400000000000000000e+01 5.465415549614142492e+02
2.439999999999999858e+01 5.418747477078643442e+02
2.480000000000000071e+01 5.373414425027432344e+02
2.520000000000000284e+01 5.329351078732953511e+02
2.560000000000000142e+01 5.286496623118199523e+02
2.600000000000000000e+01 5.244794345002201226e+02
2.640000000000000213e+01 5.204191278064391781e+02
2.680000000000000071e+01 5.164637885150444845e+02
2.719999999999999929e+01 5.126087773315518916e+02
2.760000000000000142e+01 5.088497437649560879e+02
2.800000000000000000e+01 5.051826030475533571e+02
2.840000000000000213e+01 5.016035152973073536e+02
2.880000000000000071e+01 4.981088666671583383e+02
2.920000000000000284e+01 4.946952522589946284e+02
2.960000000000000142e+01 4.913594606084488987e+02
3.000000000000000000e+01 4.880984595710394274e+02
3.040000000000000213e+01 4.849093834610987983e+02
3.080000000000000071e+01 4.817895213129559124e+02
3.120000000000000284e+01 4.787363061494041290e+02
3.160000000000000142e+01 4.757473051559682631e+02
3.200000000000000000e+01 4.728202106711933084e+02
3.240000000000000568e+01 4.699528319133612513e+02
3.279999999999999716e+01 4.671430873729397035e+02
3.320000000000000284e+01 4.643889978078286731e+02
3.360000000000000142e+01 4.616886797853006215e+02
3.400000000000000000e+01 4.590403397204937050e+02
3.440000000000000568e+01 4.564422683666048215e+02
3.479999999999999716e+01 4.538928357165552825e+02
3.520000000000000284e+01 4.513904862800194451e+02
3.560000000000000142e+01 4.489337347033310266e+02
3.600000000000000000e+01 4.465211617030075217e+02
3.640000000000000568e+01 4.441514102864950928e+02
3.679999999999999716e+01 4.418231822362807861e+02
3.720000000000000284e+01 4.395352348357951655e+02
3.760000000000000142e+01 4.372863778175498055e+02
3.800000000000000000e+01 4.350754705157717694e+02
3.840000000000000568e+01 4.329014192074201333e+02
3.879999999999999716e+01 4.307631746269220798e+02
3.920000000000000284e+01 4.286597296412829792e+02
3.960000000000000142e+01 4.265901170733931735e+02
4.000000000000000000e+01 4.245534076624181807e+02
4.040000000000000568e+01 4.225487081511174097e+02
4.079999999999999716e+01 4.205751594907944764e+02
4.120000000000000284e+01 4.186319351553679553e+02
4.160000000000000142e+01 4.167182395567564868e+02
4.200000000000000000e+01 4.148333065544123315e+02
4.239999999999999858e+01 4.129763980524200520e+02
4.280000000000000426e+01 4.111468026781060416e+02
4.320000000000000284e+01 4.093438345365825626e+02
4.360000000000000142e+01 4.075668320360916823e+02
4.400000000000000000e+01 4.058151567794091648e+02
4.439999999999999858e+01 4.040881925169354076e+02
4.480000000000000426e+01 4.023853441574318595e+02
4.520000000000000284e+01 4.007060368326657454e+02
4.560000000000000142e+01 3.990497150125040093e+02
4.600000000000000000e+01 3.974158416672499925e+02
4.639999999999999858e+01 3.958038974742574396e+02
4.680000000000000426e+01 3.942133800660602674e+02
4.720000000000000284e+01 3.926438033174626980e+02
4.760000000000000142e+01 3.910946966692105207e+02
4.800000000000000000e+01 3.895656044860324982e+02
4.840000000000000568e+01 3.880560854469953256e+02
4.880000000000000426e+01 3.865657119662548666e+02
4.920000000000000284e+01 3.850940696424187308e+02
4.960000000000000142e+01 3.836407567348552448e+02
5.000000000000000000e+01 3.822053836653945496e+02
5.040000000000000568e+01 3.807875725439728853e+02
5.080000000000000426e+01 3.793869567168611638e+02
5.120000000000000284e+01 3.780031803362144274e+02
5.160000000000000142e+01 3.766358979497545079e+02
5.200000000000000000e+01 3.752847741094751655e+02
5.240000000000000568e+01 3.739494829983327691e+02
5.280000000000000426e+01 3.726297080739464036e+02
5.320000000000000284e+01 3.713251417283946694e+02
5.360000000000000142e+01 3.700354849632514629e+02
5.400000000000000000e+01 3.687604470790564051e+02
5.440000000000000568e+01 3.674997453784645813e+02
5.480000000000000426e+01 3.662531048823642550e+02
5.520000000000000284e+01 3.650202580582955534e+02
5.560000000000000142e+01 3.638009445605404721e+02
5.600000000000000000e+01 3.625949109812949587e+02
5.640000000000000568e+01 3.614019106123638494e+02
5.680000000000000426e+01 3.602217032168547917e+02
5.720000000000000284e+01 3.590540548103768401e+02
5.760000000000000142e+01 3.578987374512762472e+02
5.800000000000000000e+01 3.567555290394700478e+02
5.840000000000000568e+01 3.556242131234616295e+02
5.880000000000000426e+01 3.545045787151456125e+02
5.920000000000000284e+01 3.533964201120312509e+02
5.960000000000000142e+01 3.522995367265343702e+02
6.000000000000000000e+01 3.512137329220055335e+02
6.040000000000000568e+01 3.501388178551821397e+02
6.080000000000000426e+01 3.490746053247659120e+02
6.120000000000000284e+01 3.480209136258463900e+02
6.160000000000000142e+01 3.469775654099036615e+02
6.200000000000000000e+01 3.459443875501373213e+02
6.240000000000000568e+01 3.449212110118841679e+02
6.280000000000000426e+01 3.439078707278965794e+02
6.320000000000000284e+01 3.429042054782663627e+02
6.360000000000000142e+01 3.419100577747911984e+02
6.400000000000000000e+01 3.409252737495886549e+02
6.440000000000000568e+01 3.399497030477733688e+02
6.480000000000001137e+01 3.389831987240244189e+02
6.520000000000000284e+01 3.380256171428736138e+02
6.559999999999999432e+01 3.370768178825597943e+02
6.600000000000000000e+01 3.361366636422961847e+02
6.640000000000000568e+01 3.352050201528093112e+02
6.680000000000001137e+01 3.342817560900130616e+02
6.720000000000000284e+01 3.333667429916870333e+02
6.759999999999999432e+01 3.324598551770377526e+02
6.800000000000000000e+01 3.315609696690236206e+02
6.840000000000000568e+01 3.306699661193316615e+02
6.880000000000001137e+01 3.297867267358997196e+02
6.920000000000000284e+01 3.289111362128822407e+02
6.959999999999999432e+01 3.280430816629614128e+02
7.000000000000000000e+01 3.271824525519122062e+02
7.040000000000000568e+01 3.263291406353317825e+02
7.080000000000001137e+01 3.254830398974495438e+02
7.120000000000000284e+01 3.246440464919361375e+02
7.159999999999999432e+01 3.238120586846353604e+02
7.200000000000000000e+01 3.229869767981440418e+02
7.240000000000000568e+01 3.221687031581712404e+02
7.280000000000001137e+01 3.213571420416071192e+02
7.320000000000000284e+01 3.205521996262388029e+02
7.359999999999999432e+01 3.197537839420512569e+02
7.400000000000000000e+01 3.189618048240535018e+02
7.440000000000000568e+01 3.181761738665746861e+02
7.479999999999999716e+01 3.173968043789752755e+02
7.520000000000000284e+01 3.166236113427215741e+02
7.560000000000000853e+01 3.158565113697749780e+02
7.600000000000000000e+01 3.150954226622474152e+02
7.640000000000000568e+01 3.143402649732773853e+02
7.679999999999999716e+01 3.135909595690840774e+02
7.720000000000000284e+01 3.128474291921565964e+02
7.760000000000000853e+01 3.121095980255386735e+02
7.800000000000000000e+01 3.113773916581707226e+02
7.840000000000000568e+01 3.106507370512510988e+02
7.879999999999999716e+01 3.099295625055824530e+02
7.920000000000000284e+01 3.092137976298686795e+02
7.960000000000000853e+01 3.085033733099291453e+02
8.000000000000000000e+01 3.077982216787999050e+02
8.040000000000000568e+01 3.070982760876910334e+02
8.079999999999999716e+01 3.064034710777713144e+02
8.120000000000000284e+01 3.057137423527524334e+02
8.160000000000000853e+01 3.050290267522456702e+02
8.200000000000000000e+01 3.043492622258662550e+02
8.240000000000000568e+01 3.036743878080592935e+02
8.279999999999999716e+01 3.030043435936245828e+02
8.320000000000000284e+01 3.023390707139170672e+02
8.360000000000000853e+01 3.016785113137004259e+02
8.400000000000000000e+01 3.010226085286340094e+02
8.440000000000000568e+01 3.003713064633700469e+02
8.479999999999999716e+01 2.997245501702452088e+02
8.520000000000000284e+01 2.990822856285440139e+02
8.560000000000000853e+01 2.984444597243178805e+02
8.600000000000000000e+01 2.978110202307422014e+02
8.640000000000000568e+01 2.971819157889933081e+02
8.680000000000001137e+01 2.965570958896307729e+02
8.720000000000000284e+01 2.959365108544674285e+02
8.760000000000000853e+01 2.953201118189132899e+02
8.800000000000000000e+01 2.947078507147790560e+02
8.840000000000000568e+01 2.940996802535231609e+02
8.880000000000001137e+01 2.934955539099306634e+02
8.920000000000000284e+01 2.928954259062107894e+02
8.960000000000000853e+01 2.922992511964989717e+02
9.000000000000000000e+01 2.917069854517525869e+02
9.040000000000000568e+01 2.911185850450283397e+02
9.080000000000001137e+01 2.905340070371291858e+02
9.120000000000000284e+01 2.899532091626107899e+02
9.160000000000000853e+01 2.893761498161362056e+02
9.200000000000000000e+01 2.888027880391689450e+02
9.240000000000000568e+01 2.882330835069943191e+02
9.280000000000001137e+01 2.876669965160589300e+02
9.320000000000000284e+01 2.871044879716208129e+02
9.360000000000000853e+01 2.865455193756990866e+02
9.400000000000000000e+01 2.859900528153161190e+02
9.440000000000000568e+01 2.854380509510225465e+02
9.480000000000001137e+01 2.848894770056989501e+02
9.520000000000000284e+01 2.843442947536236147e+02
9.560000000000000853e+01 2.838024685098019972e+02
9.600000000000000000e+01 2.832639631195476682e+02
9.640000000000000568e+01 2.827287439483096705e+02
9.680000000000001137e+01 2.821967768717385638e+02
9.720000000000000284e+01 2.816680282659847308e+02
9.760000000000000853e+01 2.811424649982220672e+02
9.800000000000000000e+01 2.806200544173923390e+02
9.840000000000000568e+01 2.801007643451617355e+02
9.880000000000001137e+01 2.795845630670864352e+02
9.920000000000000284e+01 2.790714193239793985e+02
9.960000000000000853e+01 2.785613023034741786e+02
1.000000000000000000e+02 2.780541816317802386e+02
1.004000000000000057e+02 2.775500273656244303e+02
1.008000000000000114e+02 2.770488099843730652e+02
1.012000000000000028e+02 2.765505003823318475e+02
1.016000000000000085e+02 2.760550698612159977e+02
1.020000000000000000e+02 2.755624901227886312e+02
1.024000000000000057e+02 2.750727332616618241e+02
1.028000000000000114e+02 2.745857717582558166e+02
1.032000000000000028e+02 2.741015784719135695e+02
1.036000000000000085e+02 2.736201266341644214e+02
1.040000000000000000e+02 2.731413898421358226e+02
1.044000000000000057e+02 2.726653420521068938e+02
1.048000000000000114e+02 2.721919575732012504e+02
1.052000000000000028e+02 2.717212110612158540e+02
1.056000000000000085e+02 2.712530775125815126e+02
1.060000000000000000e+02 2.707875322584524156e+02
1.064000000000000057e+02 2.703245509589212929e+02
1.068000000000000114e+02 2.698641095973569008e+02
1.072000000000000028e+02 2.694061844748607655e+02
1.076000000000000085e+02 2.689507522048401142e+02
1.080000000000000000e+02 2.684977897076951194e+02
1.084000000000000057e+02 2.680472742056157358e+02
1.088000000000000114e+02 2.675991832174869955e+02
1.092000000000000028e+02 2.671534945539000319e+02
1.096000000000000085e+02 2.667101863122648524e+02
1.100000000000000000e+02 2.662692368720242939e+02
1.104000000000000057e+02 2.658306248899649518e+02
1.108000000000000114e+02 2.653943292956242885e+02
1.112000000000000028e+02 2.649603292867906248e+02
1.116000000000000085e+02 2.645286043250933972e+02
1.120000000000000000e+02 2.640991341316833996e+02
1.124000000000000057e+02 2.636718986829985738e+02
1.128000000000000114e+02 2.632468782066146105e+02
1.132000000000000028e+02 2.628240531771787687e+02
1.136000000000000085e+02 2.624034043124232767e+02
1.140000000000000000e+02 2.619849125692585403e+02
1.144000000000000057e+02 2.615685591399422947e+02
1.148000000000000114e+02 2.611543254483245278e+02
1.152000000000000028e+02 2.607421931461656186e+02
1.156000000000000085e+02 2.603321441095258137e+02
1.160000000000000000e+02 2.599241604352254740e+02
1.164000000000000057e+02 2.595182244373725666e+02
1.168000000000000114e+02 2.591143186439585406e+02
1.172000000000000028e+02 2.587124257935179799e+02
1.176000000000000085e+02 2.583125288318533990e+02
1.180000000000000000e+02 2.579146109088214871e+02
1.184000000000000057e+02 2.575186553751810834e+02
1.188000000000000114e+02 2.571246457795002129e+02
1.192000000000000028e+02 2.567325658651217850e+02
1.196000000000000085e+02 2.563423995671861348e+02
1.200000000000000000e+02 2.559541310097093856e+02
1.204000000000000057e+02 2.555677445027162662e+02
1.208000000000000114e+02 2.551832245394262202e+02
1.212000000000000028e+02 2.548005557934915828e+02
1.216000000000000085e+02 2.544197231162869741e+02
1.220000000000000000e+02 2.540407115342480893e+02
1.224000000000000057e+02 2.536635062462599421e+02
1.228000000000000114e+02 2.532880926210923462e+02
1.232000000000000028e+02 2.529144561948821490e+02
1.236000000000000085e+02 2.525425826686612254e+02
1.240000000000000000e+02 2.521724579059294342e+02
1.244000000000000057e+02 2.518040679302707758e+02
1.248000000000000114e+02 2.514373989230130064e+02
1.252000000000000028e+02 2.510724372209284354e+02
1.256000000000000085e+02 2.507091693139767301e+02
1.260000000000000000e+02 2.503475818430866866e+02
1.264000000000000057e+02 2.499876615979785299e+02
1.268000000000000114e+02 2.496293955150234467e+02
1.272000000000000028e+02 2.492727706751422829e+02
1.276000000000000085e+02 2.489177743017396551e+02
1.280000000000000000e+02 2.485643937586750667e+02
1.284000000000000057e+02 2.482126165482694944e+02
1.288000000000000114e+02 2.478624303093459105e+02
1.291999999999999886e+02 2.475138228153046498e+02
1.296000000000000227e+02 2.471667819722310355e+02
1.300000000000000000e+02 2.468212958170368836e+02
1.304000000000000057e+02 2.464773525156321625e+02
1.308000000000000114e+02 2.461349403611297078e+02
1.311999999999999886e+02 2.457940477720796366e+02
1.316000000000000227e+02 2.454546632907331798e+02
1.320000000000000000e+02 2.451167755813377198e+02
1.324000000000000057e+02 2.447803734284586881e+02
1.328000000000000114e+02 2.444454457353309067e+02
1.331999999999999886e+02 2.441119815222372722e+02
1.336000000000000227e+02 2.437799699249144396e+02
1.340000000000000000e+02 2.434494001929854505e+02
1.344000000000000057e+02 2.431202616884181111e+02
1.348000000000000114e+02 2.427925438840088361e+02
1.351999999999999886e+02 2.424662363618919017e+02
1.356000000000000227e+02 2.421413288120731124e+02
1.360000000000000000e+02 2.418178110309874853e+02
1.364000000000000057e+02 2.414956729200806649e+02
1.368000000000000114e+02 2.411749044844132186e+02
1.371999999999999886e+02 2.408554958312882661e+02
1.376000000000000227e+02 2.405374371689004249e+02
1.380000000000000000e+02 2.402207188050076638e+02
1.384000000000000057e+02 2.399053311456239044e+02
1.388000000000000114e+02 2.395912646937326826e+02
1.392000000000000171e+02 2.392785100480218148e+02
1.395999999999999943e+02 2.389670579016378724e+02
1.400000000000000000e+02 2.386568990409607238e+02
1.404000000000000057e+02 2.383480243443974587e+02
1.408000000000000114e+02 2.380404247811957532e+02
1.412000000000000171e+02 2.377340914102752549e+02
1.415999999999999943e+02 2.374290153790782369e+02
1.420000000000000000e+02 2.371251879224376751e+02
1.424000000000000057e+02 2.368226003614630599e+02
1.428000000000000114e+02 2.365212441024443706e+02
1.432000000000000171e+02 2.362211106357719359e+02
1.435999999999999943e+02 2.359221915348740879e+02
1.440000000000000000e+02 2.356244784551707596e+02
1.444000000000000057e+02 2.353279631330429993e+02
1.448000000000000114e+02 2.350326373848191110e+02
1.452000000000000171e+02 2.347384931057758308e+02
1.455999999999999943e+02 2.344455222691544520e+02
1.460000000000000000e+02 2.341537169251928105e+02
1.464000000000000057e+02 2.338630692001713669e+02
1.468000000000000114e+02 2.335735712954740677e+02
1.472000000000000171e+02 2.332852154866631338e+02
1.475999999999999943e+02 2.329979941225681159e+02
1.480000000000000000e+02 2.327118996243884510e+02
1.484000000000000057e+02 2.324269244848094900e+02
1.488000000000000114e+02 2.321430612671319977e+02
1.492000000000000171e+02 2.318603026044141870e+02
1.495999999999999943e+02 2.315786411986270821e+02
1.500000000000000000e+02 2.312980698198216487e+02
