1.000000000000000000e+01 6.034221530756195762e+02
1.040000000000000036e+01 6.235482463103608097e+02
1.080000000000000071e+01 6.378953940938386040e+02
1.119999999999999929e+01 6.527698894098091387e+02
1.159999999999999964e+01 6.855720795275675528e+02
1.200000000000000000e+01 7.337667760003695321e+02
1.240000000000000036e+01 7.664367164252334987e+02
1.280000000000000071e+01 8.772302329591657326e+02
1.319999999999999929e+01 9.294458534619685679e+02
1.359999999999999964e+01 9.892536643203900439e+02
1.400000000000000000e+01 1.010106849649078526e+03
1.440000000000000036e+01 1.018694724866035926e+03
1.480000000000000071e+01 1.017687591493726927e+03
1.519999999999999929e+01 9.981471945106774228e+02
1.560000000000000142e+01 9.798642757449216560e+02
1.600000000000000000e+01 9.627009456614995315e+02
1.639999999999999858e+01 9.465404288999513938e+02
1.680000000000000071e+01 9.312829676536988472e+02
1.719999999999999929e+01 9.168426758191739054e+02
1.760000000000000142e+01 9.031450897525235177e+02
1.800000000000000000e+01 8.901252376894302643e+02
1.839999999999999858e+01 8.777261009525183226e+02
1.880000000000000071e+01 8.658973749888872362e+02
1.920000000000000284e+01 8.545944625940421702e+02
1.960000000000000142e+01 8.437776488896189448e+02
2.000000000000000000e+01 8.334114199895362844e+02
2.039999999999999858e+01 8.234638962983735837e+02
2.080000000000000071e+01 8.139063580316108073e+02
2.120000000000000284e+01 8.047128455069047277e+02
2.160000000000000142e+01 7.958598204965005607e+02
2.200000000000000000e+01 7.873258777807093338e+02
2.239999999999999858e+01 7.790914982335236800e+02
2.280000000000000071e+01 7.711388364706531320e+02
2.320000000000000284e+01 7.634515374186515828e+02
2.360000000000000142e+01 7.560145772101242301e+02
2.400000000000000000e+01 7.488141246400035698e+02
2.439999999999999858e+01 7.418374200806823637e+02
2.480000000000000071e+01 7.350726692863944436e+02
2.520000000000000284e+01 7.285089499477677464e+02
2.560000000000000142e+01 7.221361292074411722e+02
2.600000000000000000e+01 7.159447906336367851e+02
2.640000000000000213e+01 7.099261693834836251e+02
2.680000000000000071e+01 7.040720944817360305e+02
2.719999999999999929e+01 6.983749373012537944e+02
2.760000000000000142e+01 6.928275654654154323e+02
2.800000000000000000e+01 6.874233015045247157e+02
2.840000000000000213e+01 6.821558856921722054e+02
2.880000000000000071e+01 6.770194425666466032e+02
2.920000000000000284e+01 6.720084507093896491e+02
2.960000000000000142e+01 6.671177154092716819e+02
3.000000000000000000e+01 6.623423438897870028e+02
3.040000000000000213e+01 6.576777228175571963e+02
3.080000000000000071e+01 6.531194978458872811e+02
3.120000000000000284e+01 6.486635549775051004e+02
3.160000000000000142e+01 6.443060035567907562e+02
3.200000000000000000e+01 6.400431607244204315e+02
3.240000000000000568e+01 6.358715371869369619e+02
3.279999999999999716e+01 6.317878241707809366e+02
3.320000000000000284e+01 6.277888814451081316e+02
3.360000000000000142e+01 6.238717263106663040e+02
3.400000000000000000e+01 6.200335234632798347e+02
3.440000000000000568e+01 6.162715756504173896e+02
3.479999999999999716e+01 6.125833150480023050e+02
3.520000000000000284e+01 6.089662952922927843e+02
3.560000000000000142e+01 6.054181841084066491e+02
3.600000000000000000e+01 6.019367564830315587e+02
3.640000000000000568e+01 5.985198883341464580e+02
3.679999999999999716e+01 5.951655506352619796e+02
3.720000000000000284e+01 5.918718039558484634e+02
3.760000000000000142e+01 5.886367933833248571e+02
3.800000000000000000e+01 5.854587437952807250e+02
3.840000000000000568e+01 5.823359554535513780e+02
3.879999999999999716e+01 5.792667998944041301e+02
3.920000000000000284e+01 5.762497160914452934e+02
3.960000000000000142e+01 5.732832068699879073e+02
4.000000000000000000e+01 5.703658355535047804e+02
4.040000000000000568e+01 5.674962228245171900e+02
4.079999999999999716e+01 5.646730437837973113e+02
4.120000000000000284e+01 5.618950251931578350e+02
4.160000000000000142e+01 5.591609428883562032e+02
4.200000000000000000e+01 5.564696193497719605e+02
4.239999999999999858e+01 5.538199214195431068e+02
4.280000000000000426e+01 5.512107581547819564e+02
4.320000000000000284e+01 5.486410788073268350e+02
4.360000000000000142e+01 5.461098709212631093e+02
4.400000000000000000e+01 5.436161585401348475e+02
4.439999999999999858e+01 5.411590005164119930e+02
4.480000000000000426e+01 5.387374889163484113e+02
4.520000000000000284e+01 5.363507475139043663e+02
4.560000000000000142e+01 5.339979303678774158e+02
4.600000000000000000e+01 5.316782204768370548e+02
4.639999999999999858e+01 5.293908285068566784e+02
4.680000000000000426e+01 5.271349915874063754e+02
4.720000000000000284e+01 5.249099721711095299e+02
4.760000000000000142e+01 5.227150569533789621e+02
4.800000000000000000e+01 5.205495558482286924e+02
4.840000000000000568e+01 5.184128010168277569e+02
4.880000000000000426e+01 5.163041459455961331e+02
4.920000000000000284e+01 5.142229645708704311e+02
4.960000000000000142e+01 5.121686504473698278e+02
5.000000000000000000e+01 5.101406159578821189e+02
5.040000000000000568e+01 5.081382915617665503e+02
5.080000000000000426e+01 5.061611250800249309e+02
5.120000000000000284e+01 5.042085810148498126e+02
5.160000000000000142e+01 5.022801399016908022e+02
5.200000000000000000e+01 5.003752976920085871e+02
5.240000000000000568e+01 4.984935651650062027e+02
5.280000000000000426e+01 4.966344673667358620e+02
5.320000000000000284e+01 4.947975430750797159e+02
5.360000000000000142e+01 4.929823442892010235e+02
5.400000000000000000e+01 4.911884357421456002e+02
5.440000000000000568e+01 4.894153944353590191e+02
5.480000000000000426e+01 4.876628091939575143e+02
5.520000000000000284e+01 4.859302802416635814e+02
5.560000000000000142e+01 4.842174187943817856e+02
5.600000000000000000e+01 4.825238466714520200e+02
5.640000000000000568e+01 4.808491959236739604e+02
5.680000000000000426e+01 4.791931084772515987e+02
5.720000000000000284e+01 4.775552357928539209e+02
5.760000000000000142e+01 4.759352385390356517e+02
5.800000000000000000e+01 4.743327862793070153e+02
5.840000000000000568e+01 4.727475571721785172e+02
5.880000000000000426e+01 4.711792376835485356e+02
5.920000000000000284e+01 4.696275223108327737e+02
5.960000000000000142e+01 4.680921133182749827e+02
6.000000000000000000e+01 4.665727204828996264e+02
6.040000000000000568e+01 4.650690608506070589e+02
6.080000000000000426e+01 4.635808585019315160e+02
6.120000000000000284e+01 4.621078443270097296e+02
6.160000000000000142e+01 4.606497558093374778e+02
6.200000000000000000e+01 4.592063368179045710e+02
6.240000000000000568e+01 4.577773374073295827e+02
6.280000000000000426e+01 4.563625136256295036e+02
6.320000000000000284e+01 4.549616273292805317e+02
6.360000000000000142e+01 4.535744460052449085e+02
6.400000000000000000e+01 4.522007425996548022e+02
6.440000000000000568e+01 4.508402953528570833e+02
6.480000000000001137e+01 4.494928876405446658e+02
6.520000000000000284e+01 4.481583078207059998e+02
6.559999999999999432e+01 4.468363490861432297e+02
6.600000000000000000e+01 4.455268093223209576e+02
6.640000000000000568e+01 4.442294909703159647e+02
6.680000000000001137e+01 4.429442008946549549e+02
6.720000000000000284e+01 4.416707502558318197e+02
6.759999999999999432e+01 4.404089543873122921e+02
6.800000000000000000e+01 4.391586326768368735e+02
6.840000000000000568e+01 4.379196084518466705e+02
6.880000000000001137e+01 4.366917088688624631e+02
6.920000000000000284e+01 4.354747648066567081e+02
6.959999999999999432e+01 4.342686107630646575e+02
7.000000000000000000e+01 4.330730847552882778e+02
7.040000000000000568e+01 4.318880282235544996e+02
7.080000000000001137e+01 4.307132859379940442e+02
7.120000000000000284e+01 4.295487059086126465e+02
7.159999999999999432e+01 4.283941392982366096e+02
7.200000000000000000e+01 4.272494403383135477e+02
7.240000000000000568e+01 4.261144662474599158e+02
7.280000000000001137e+01 4.249890771526493154e+02
7.320000000000000284e+01 4.238731360129393124e+02
7.359999999999999432e+01 4.227665085456425231e+02
7.400000000000000000e+01 4.216690631548472652e+02
7.440000000000000568e+01 4.205806708622016004e+02
7.479999999999999716e+01 4.195012052398747073e+02
7.520000000000000284e+01 4.184305423456156632e+02
7.560000000000000853e+01 4.173685606598316440e+02
7.600000000000000000e+01 4.163151410246124442e+02
7.640000000000000568e+01 4.152701665846287256e+02
7.679999999999999716e+01 4.142335227298376594e+02
7.720000000000000284e+01 4.132050970399299104e+02
7.760000000000000853e+01 4.121847792304550921e+02
7.800000000000000000e+01 4.111724611005678867e+02
7.840000000000000568e+01 4.101680364823338891e+02
7.879999999999999716e+01 4.091714011915440778e+02
7.920000000000000284e+01 4.081824529799817469e+02
7.960000000000000853e+01 4.072010914890936419e+02
8.000000000000000000e+01 4.062272182050145943e+02
8.040000000000000568e+01 4.052607364149010323e+02
8.079999999999999716e+01 4.043015511645264155e+02
8.120000000000000284e+01 4.033495692170968141e+02
8.160000000000000853e+01 4.024046990132454198e+02
8.200000000000000000e+01 4.014668506321646646e+02
8.240000000000000568e+01 4.005359357538391691e+02
8.279999999999999716e+01 3.996118676223430271e+02
8.320000000000000284e+01 3.986945610101640227e+02
8.360000000000000853e+01 3.977839321835230066e+02
8.400000000000000000e+01 3.968798988686549478e+02
8.440000000000000568e+01 3.959823802190188644e+02
8.479999999999999716e+01 3.950912967834093479e+02
8.520000000000000284e+01 3.942065704749375072e+02
8.560000000000000853e+01 3.933281245408547875e+02
8.600000000000000000e+01 3.924558835331929458e+02
8.640000000000000568e+01 3.915897732801926168e+02
8.680000000000001137e+01 3.907297208584974442e+02
8.720000000000000284e+01 3.898756545660880306e+02
8.760000000000000853e+01 3.890275038959327958e+02
8.800000000000000000e+01 3.881851995103345416e+02
8.840000000000000568e+01 3.873486732159486792e+02
8.880000000000001137e+01 3.865178579394546432e+02
8.920000000000000284e+01 3.856926877038594625e+02
8.960000000000000853e+01 3.848730976054130792e+02
9.000000000000000000e+01 3.840590237911194436e+02
9.040000000000000568e+01 3.832504034368216139e+02
9.080000000000001137e+01 3.824471747258469350e+02
9.120000000000000284e+01 3.816492768281932513e+02
9.160000000000000853e+01 3.808566498802409797e+02
9.200000000000000000e+01 3.800692349649749531e+02
9.240000000000000568e+01 3.792869740927008024e+02
9.280000000000001137e+01 3.785098101822420062e+02
9.320000000000000284e+01 3.777376870426024880e+02
9.360000000000000853e+01 3.769705493550817437e+02
9.400000000000000000e+01 3.762083426558294263e+02
9.440000000000000568e+01 3.754510133188259147e+02
9.480000000000001137e+01 3.746985085392776682e+02
9.520000000000000284e+01 3.739507763174142951e+02
9.560000000000000853e+01 3.732077654426767594e+02
9.600000000000000000e+01 3.724694254782852454e+02
9.640000000000000568e+01 3.717357067461753104e+02
9.680000000000001137e+01 3.710065603122935727e+02
9.720000000000000284e+01 3.702819379722408826e+02
9.760000000000000853e+01 3.695617922372539965e+02
9.800000000000000000e+01 3.688460763205180228e+02
9.840000000000000568e+01 3.681347441237966791e+02
9.880000000000001137e+01 3.674277502243758136e+02
9.920000000000000284e+01 3.667250498623084241e+02
9.960000000000000853e+01 3.660265989279545806e+02
1.000000000000000000e+02 3.653323539498072705e+02
1.004000000000000057e+02 3.646422720825977990e+02
1.008000000000000114e+02 3.639563110956711967e+02
1.012000000000000028e+02 3.632744293616259483e+02
1.016000000000000085e+02 3.625965858452104840e+02
1.020000000000000000e+02 3.619227400924694962e+02
1.024000000000000057e+02 3.612528522201330929e+02
1.028000000000000114e+02 3.605868829052435558e+02
1.032000000000000028e+02 3.599247933750118591e+02
1.036000000000000085e+02 3.592665453968987777e+02
1.040000000000000000e+02 3.586121012689155236e+02
1.044000000000000057e+02 3.579614238101358978e+02
1.048000000000000114e+02 3.573144763514171132e+02
1.052000000000000028e+02 3.566712227263220143e+02
1.056000000000000085e+02 3.560316272622383167e+02
1.060000000000000000e+02 3.553956547716898058e+02
1.064000000000000057e+02 3.547632705438341532e+02
1.068000000000000114e+02 3.541344403361432569e+02
1.072000000000000028e+02 3.535091303662610471e+02
1.076000000000000085e+02 3.528873073040344366e+02
1.080000000000000000e+02 3.522689382637124709e+02
1.084000000000000057e+02 3.516539907963110636e+02
1.088000000000000114e+02 3.510424328821374047e+02
1.092000000000000028e+02 3.504342329234706881e+02
1.096000000000000085e+02 3.498293597373960893e+02
1.100000000000000000e+02 3.492277825487873315e+02
1.104000000000000057e+02 3.486294709834336345e+02
1.108000000000000114e+02 3.480343950613096808e+02
1.112000000000000028e+02 3.474425251899825753e+02
1.116000000000000085e+02 3.468538321581543187e+02
1.120000000000000000e+02 3.462682871293358744e+02
1.124000000000000057e+02 3.456858616356487346e+02
1.128000000000000114e+02 3.451065275717529630e+02
1.132000000000000028e+02 3.445302571888973375e+02
1.136000000000000085e+02 3.439570230890878406e+02
1.140000000000000000e+02 3.433867982193743842e+02
1.144000000000000057e+02 3.428195558662500275e+02
1.148000000000000114e+02 3.422552696501625178e+02
1.152000000000000028e+02 3.416939135201329236e+02
1.156000000000000085e+02 3.411354617484816458e+02
1.160000000000000000e+02 3.405798889256575421e+02
1.164000000000000057e+02 3.400271699551674374e+02
1.168000000000000114e+02 3.394772800486060760e+02
1.172000000000000028e+02 3.389301947207807757e+02
1.176000000000000085e+02 3.383858897849317486e+02
1.180000000000000000e+02 3.378443413480439403e+02
1.184000000000000057e+02 3.373055258062492499e+02
1.188000000000000114e+02 3.367694198403164023e+02
1.192000000000000028e+02 3.362360004112273373e+02
1.196000000000000085e+02 3.357052447558369295e+02
1.200000000000000000e+02 3.351771303826163262e+02
1.204000000000000057e+02 3.346516350674745013e+02
1.208000000000000114e+02 3.341287368496608678e+02
1.212000000000000028e+02 3.336084140277425263e+02
1.216000000000000085e+02 3.330906451556580805e+02
1.220000000000000000e+02 3.325754090388439863e+02
1.224000000000000057e+02 3.320626847304337161e+02
1.228000000000000114e+02 3.315524515275263298e+02
1.232000000000000028e+02 3.310446889675240527e+02
1.236000000000000085e+02 3.305393768245373849e+02
1.240000000000000000e+02 3.300364951058555221e+02
1.244000000000000057e+02 3.295360240484816927e+02
1.248000000000000114e+02 3.290379441157310225e+02
1.252000000000000028e+02 3.285422359938900740e+02
1.256000000000000085e+02 3.280488805889370383e+02
1.260000000000000000e+02 3.275578590233203045e+02
1.264000000000000057e+02 3.270691526327958059e+02
1.268000000000000114e+02 3.265827429633195607e+02
1.272000000000000028e+02 3.260986117679969425e+02
1.276000000000000085e+02 3.256167410040850996e+02
1.280000000000000000e+02 3.251371128300488635e+02
1.284000000000000057e+02 3.246597096026686700e+02
1.288000000000000114e+02 3.241845138741990127e+02
1.291999999999999886e+02 3.237115083895769772e+02
1.296000000000000227e+02 3.232406760836793751e+02
1.300000000000000000e+02 3.227720000786280252e+02
1.304000000000000057e+02 3.223054636811407363e+02
1.308000000000000114e+02 3.218410503799295839e+02
1.311999999999999886e+02 3.213787438431432975e+02
1.316000000000000227e+02 3.209185279158529625e+02
1.320000000000000000e+02 3.204603866175824010e+02
1.324000000000000057e+02 3.200043041398791956e+02
1.328000000000000114e+02 3.195502648439280051e+02
1.331999999999999886e+02 3.190982532582039539e+02
1.336000000000000227e+02 3.186482540761659834e+02
1.340000000000000000e+02 3.182002521539889131e+02
1.344000000000000057e+02 3.177542325083339279e+02
1.348000000000000114e+02 3.173101803141559003e+02
1.351999999999999886e+02 3.168680809025478879e+02
1.356000000000000227e+02 3.164279197586214991e+02
1.360000000000000000e+02 3.159896825194219900e+02
1.364000000000000057e+02 3.155533549718783206e+02
1.368000000000000114e+02 3.151189230507871457e+02
1.371999999999999886e+02 3.146863728368293778e+02
1.376000000000000227e+02 3.142556905546198891e+02
1.380000000000000000e+02 3.138268625707891601e+02
1.384000000000000057e+02 3.133998753920952822e+02
1.388000000000000114e+02 3.129747156635680767e+02
1.392000000000000171e+02 3.125513701666820907e+02
1.395999999999999943e+02 3.121298258175595493e+02
1.400000000000000000e+02 3.117100696652025249e+02
1.404000000000000057e+02 3.112920888897531881e+02
1.408000000000000114e+02 3.108758708007819678e+02
1.412000000000000171e+02 3.104614028356029394e+02
1.415999999999999943e+02 3.100486725576167260e+02
1.420000000000000000e+02 3.096376676546783528e+02
1.424000000000000057e+02 3.092283759374922738e+02
1.428000000000000114e+02 3.088207853380322376e+02
1.432000000000000171e+02 3.084148839079857680e+02
1.435999999999999943e+02 3.080106598172231998e+02
1.440000000000000000e+02 3.076081013522910439e+02
1.444000000000000057e+02 3.072071969149282040e+02
1.448000000000000114e+02 3.068079350206057825e+02
1.452000000000000171e+02 3.064103042970896240e+02
1.455999999999999943e+02 3.060142934830242893e+02
1.460000000000000000e+02 3.056198914265398230e+02
1.464000000000000057e+02 3.052270870838790984e+02
1.468000000000000114e+02 3.048358695180475024e+02
1.472000000000000171e+02 3.044462278974813785e+02
1.475999999999999943e+02 3.040581514947385813e+02
1.480000000000000000e+02 3.036716296852076198e+02
1.484000000000000057e+02 3.032866519458373205e+02
1.488000000000000114e+02 3.029032078538851920e+02
1.492000000000000171e+02 3.025212870856845484e+02
1.495999999999999943e+02 3.021408794154307884e+02
1.500000000000000000e+02 3.017619747139848982e+02
