1.000000000000000000e+01 3.515580209425506837e+02
1.040000000000000036e+01 3.952331722531076821e+02
1.080000000000000071e+01 4.486478388758222877e+02
1.119999999999999929e+01 4.881847219487187317e+02
1.159999999999999964e+01 5.411912174903553705e+02
1.200000000000000000e+01 5.882383409101234975e+02
1.240000000000000036e+01 6.104478970079634337e+02
1.280000000000000071e+01 6.498354210086002922e+02
1.319999999999999929e+01 6.685558917562703982e+02
1.359999999999999964e+01 6.912755723637353640e+02
1.400000000000000000e+01 6.833175754298764559e+02
1.440000000000000036e+01 6.698840862485401431e+02
1.480000000000000071e+01 6.573376690739066817e+02
1.519999999999999929e+01 6.455795159659583078e+02
1.560000000000000142e+01 6.345260636208577125e+02
1.600000000000000000e+01 6.241060281801026122e+02
1.639999999999999858e+01 6.142581280240872275e+02
1.680000000000000071e+01 6.049293109362987479e+02
1.719999999999999929e+01 5.960733569666480207e+02
1.760000000000000142e+01 5.876497651777360716e+02
1.800000000000000000e+01 5.796228576827861616e+02
1.839999999999999858e+01 5.719610519640314124e+02
1.880000000000000071e+01 5.646362649146516333e+02
1.920000000000000284e+01 5.576234210027623703e+02
1.960000000000000142e+01 5.509000434835786564e+02
2.000000000000000000e+01 5.444459124036216053e+02
2.039999999999999858e+01 5.382427767376565271e+02
2.080000000000000071e+01 5.322741107130281080e+02
2.120000000000000284e+01 5.265249064441106839e+02
2.160000000000000142e+01 5.209814965899523713e+02
2.200000000000000000e+01 5.156314019816589962e+02
2.239999999999999858e+01 5.104632001303949664e+02
2.280000000000000071e+01 5.054664112864375056e+02
2.320000000000000284e+01 5.006313993222126442e+02
2.360000000000000142e+01 4.959492851932966460e+02
2.400000000000000000e+01 4.914118711178634840e+02
2.439999999999999858e+01 4.870115739274169755e+02
2.480000000000000071e+01 4.827413662954807592e+02
2.520000000000000284e+01 4.785947247582980140e+02
2.560000000000000142e+01 4.745655836118561979e+02
2.600000000000000000e+01 4.706482939100155818e+02
2.640000000000000213e+01 4.668375869049127687e+02
2.680000000000000071e+01 4.631285413676866938e+02
2.719999999999999929e+01 4.595165543085311697e+02
2.760000000000000142e+01 4.559973146829902362e+02
2.800000000000000000e+01 4.525667797286139944e+02
2.840000000000000213e+01 4.492211536244275294e+02
2.880000000000000071e+01 4.459568682066559404e+02
2.920000000000000284e+01 4.427705655090326218e+02
2.960000000000000142e+01 4.396590819257825160e+02
3.000000000000000000e+01 4.366194338208637191e+02
3.040000000000000213e+01 4.336488044289332038e+02
3.080000000000000071e+01 4.307445319123476111e+02
3.120000000000000284e+01 4.279040984547801258e+02
3.160000000000000142e+01 4.251251202861165552e+02
3.200000000000000000e+01 4.224053385455190437e+02
3.240000000000000568e+01 4.197426109001762029e+02
3.279999999999999716e+01 4.171349038465317562e+02
3.320000000000000284e+01 4.145802856288839848e+02
3.360000000000000142e+01 4.120769197173504494e+02
3.400000000000000000e+01 4.096230587934143159e+02
3.440000000000000568e+01 4.072170391967561045e+02
3.479999999999999716e+01 4.048572757918941534e+02
3.520000000000000284e+01 4.025422572174288689e+02
3.560000000000000142e+01 4.002705414844495522e+02
3.600000000000000000e+01 3.980407518940112936e+02
3.640000000000000568e+01 3.958515732465521637e+02
3.679999999999999716e+01 3.937017483187619291e+02
3.720000000000000284e+01 3.915900745857634320e+02
3.760000000000000142e+01 3.895154011685643809e+02
3.800000000000000000e+01 3.874766259886118860e+02
3.840000000000000568e+01 3.854726931129603145e+02
3.879999999999999716e+01 3.835025902750621185e+02
3.920000000000000284e+01 3.815653465575453538e+02
3.960000000000000142e+01 3.796600302245523721e+02
4.000000000000000000e+01 3.777857466923034053e+02
4.040000000000000568e+01 3.759416366275374912e+02
4.079999999999999716e+01 3.741268741643647218e+02
4.120000000000000284e+01 3.723406652308718776e+02
4.160000000000000142e+01 3.705822459775454263e+02
4.200000000000000000e+01 3.688508813002341640e+02
4.239999999999999858e+01 3.671458634509689318e+02
4.280000000000000426e+01 3.654665107305024208e+02
4.320000000000000284e+01 3.638121662569153045e+02
4.360000000000000142e+01 3.621821968050923033e+02
4.400000000000000000e+01 3.605759917122715592e+02
4.439999999999999858e+01 3.589929618452476348e+02
4.480000000000000426e+01 3.574325386251439909e+02
4.520000000000000284e+01 3.558941731059836684e+02
4.560000000000000142e+01 3.543773351035680435e+02
4.600000000000000000e+01 3.528815123714350079e+02
4.639999999999999858e+01 3.514062098209037117e+02
4.680000000000000426e+01 3.499509487824333860e+02
4.720000000000000284e+01 3.485152663057215250e+02
4.760000000000000142e+01 3.470987144961521835e+02
4.800000000000000000e+01 3.457008598853739159e+02
4.840000000000000568e+01 3.443212828339421776e+02
4.880000000000000426e+01 3.429595769641051106e+02
4.920000000000000284e+01 3.416153486209428252e+02
4.960000000000000142e+01 3.402882163601914272e+02
5.000000000000000000e+01 3.389778104612004199e+02
5.040000000000000568e+01 3.376837724635678342e+02
5.080000000000000426e+01 3.364057547261017476e+02
5.120000000000000284e+01 3.351434200068404152e+02
5.160000000000000142e+01 3.338964410629489521e+02
5.200000000000000000e+01 3.326645002693837796e+02
5.240000000000000568e+01 3.314472892552898884e+02
5.280000000000000426e+01 3.302445085571596337e+02
5.320000000000000284e+01 3.290558672878437392e+02
5.360000000000000142e+01 3.278810828205608914e+02
5.400000000000000000e+01 3.267198804871072184e+02
5.440000000000000568e+01 3.255719932895122497e+02
5.480000000000000426e+01 3.244371616244376355e+02
5.520000000000000284e+01 3.233151330196548656e+02
5.560000000000000142e+01 3.222056618819781306e+02
5.600000000000000000e+01 3.211085092560672365e+02
5.640000000000000568e+01 3.200234425935465197e+02
5.680000000000000426e+01 3.189502355319218623e+02
5.720000000000000284e+01 3.178886676828056466e+02
5.760000000000000142e+01 3.168385244289871139e+02
5.800000000000000000e+01 3.157995967299138442e+02
5.840000000000000568e+01 3.147716809351738902e+02
5.880000000000000426e+01 3.137545786055898134e+02
5.920000000000000284e+01 3.127480963415597444e+02
5.960000000000000142e+01 3.117520456182984390e+02
6.000000000000000000e+01 3.107662426276532983e+02
6.040000000000000568e+01 3.097905081261841929e+02
6.080000000000000426e+01 3.088246672892160518e+02
6.120000000000000284e+01 3.078685495705875610e+02
6.160000000000000142e+01 3.069219885678328410e+02
6.200000000000000000e+01 3.059848218925496894e+02
6.240000000000000568e+01 3.050568910457179186e+02
6.280000000000000426e+01 3.041380412977457581e+02
6.320000000000000284e+01 3.032281215730327517e+02
6.360000000000000142e+01 3.023269843388479217e+02
6.400000000000000000e+01 3.014344854983357891e+02
6.440000000000000568e+01 3.005504842874651104e+02
6.480000000000001137e+01 2.996748431757534945e+02
6.520000000000000284e+01 2.988074277706014072e+02
6.559999999999999432e+01 2.979481067250833917e+02
6.600000000000000000e+01 2.970967516490472349e+02
6.640000000000000568e+01 2.962532370233826100e+02
6.680000000000001137e+01 2.954174401173249294e+02
6.720000000000000284e+01 2.945892409086683870e+02
6.759999999999999432e+01 2.937685220067673981e+02
6.800000000000000000e+01 2.929551685782109871e+02
6.840000000000000568e+01 2.921490682750617225e+02
6.880000000000001137e+01 2.913501111655536988e+02
6.920000000000000284e+01 2.905581896671512254e+02
6.959999999999999432e+01 2.897731984818726687e+02
7.000000000000000000e+01 2.889950345337891804e+02
7.040000000000000568e+01 2.882235969086125920e+02
7.080000000000001137e+01 2.874587867952893703e+02
7.120000000000000284e+01 2.867005074295227587e+02
7.159999999999999432e+01 2.859486640391468768e+02
7.200000000000000000e+01 2.852031637912830320e+02
7.240000000000000568e+01 2.844639157412078134e+02
7.280000000000001137e+01 2.837308307828685088e+02
7.320000000000000284e+01 2.830038216009829739e+02
7.359999999999999432e+01 2.822828026246645550e+02
7.400000000000000000e+01 2.815676899825136843e+02
7.440000000000000568e+01 2.808584014591227742e+02
7.479999999999999716e+01 2.801548564529412602e+02
7.520000000000000284e+01 2.794569759354502594e+02
7.560000000000000853e+01 2.787646824115992672e+02
7.600000000000000000e+01 2.780778998814597003e+02
7.640000000000000568e+01 2.773965538030487323e+02
7.679999999999999716e+01 2.767205710562842569e+02
7.720000000000000284e+01 2.760498799080277195e+02
7.760000000000000853e+01 2.753844099781782688e+02
7.800000000000000000e+01 2.747240922067791757e+02
7.840000000000000568e+01 2.740688588221019018e+02
7.879999999999999716e+01 2.734186433096730298e+02
7.920000000000000284e+01 2.727733803822118261e+02
7.960000000000000853e+01 2.721330059504458632e+02
8.000000000000000000e+01 2.714974570947750863e+02
8.040000000000000568e+01 2.708666720377553361e+02
8.079999999999999716e+01 2.702405901173729035e+02
8.120000000000000284e+01 2.696191517610835717e+02
8.160000000000000853e+01 2.690022984605900547e+02
8.200000000000000000e+01 2.683899727473334451e+02
8.240000000000000568e+01 2.677821181686747423e+02
8.279999999999999716e+01 2.671786792647428683e+02
8.320000000000000284e+01 2.665796015459281989e+02
8.360000000000000853e+01 2.659848314709996657e+02
8.400000000000000000e+01 2.653943164258252523e+02
8.440000000000000568e+01 2.648080047026759871e+02
8.479999999999999716e+01 2.642258454800950176e+02
8.520000000000000284e+01 2.636477888033135173e+02
8.560000000000000853e+01 2.630737855651949531e+02
8.600000000000000000e+01 2.625037874876922501e+02
8.640000000000000568e+01 2.619377471038008593e+02
8.680000000000001137e+01 2.613756177399917533e+02
8.720000000000000284e+01 2.608173534991101405e+02
8.760000000000000853e+01 2.602629092437242093e+02
8.800000000000000000e+01 2.597122405799111675e+02
8.840000000000000568e+01 2.591653038414664252e+02
8.880000000000001137e+01 2.586220560745219927e+02
8.920000000000000284e+01 2.580824550225632947e+02
8.960000000000000853e+01 2.575464591118312114e+02
9.000000000000000000e+01 2.570140274370976385e+02
9.040000000000000568e+01 2.564851197478031395e+02
9.080000000000001137e+01 2.559596964345469985e+02
9.120000000000000284e+01 2.554377185159171688e+02
9.160000000000000853e+01 2.549191476256516751e+02
9.200000000000000000e+01 2.544039460001210387e+02
9.240000000000000568e+01 2.538920764661216936e+02
9.280000000000001137e+01 2.533835024289724061e+02
9.320000000000000284e+01 2.528781878609036653e+02
9.360000000000000853e+01 2.523760972897323995e+02
9.400000000000000000e+01 2.518771957878134344e+02
9.440000000000000568e+01 2.513814489612591387e+02
9.480000000000001137e+01 2.508888229394207201e+02
9.520000000000000284e+01 2.503992843646229289e+02
9.560000000000000853e+01 2.499128003821445532e+02
9.600000000000000000e+01 2.494293386304391333e+02
9.640000000000000568e+01 2.489488672315873714e+02
9.680000000000001137e+01 2.484713547819764585e+02
9.720000000000000284e+01 2.479967703431982784e+02
9.760000000000000853e+01 2.475250834331618535e+02
9.800000000000000000e+01 2.470562640174135254e+02
9.840000000000000568e+01 2.465902825006584180e+02
9.880000000000001137e+01 2.461271097184790619e+02
9.920000000000000284e+01 2.456667169292447568e+02
9.960000000000000853e+01 2.452090758062064992e+02
1.000000000000000000e+02 2.447541584297732129e+02
1.004000000000000057e+02 2.443019372799637381e+02
1.008000000000000114e+02 2.438523852290294371e+02
1.012000000000000028e+02 2.434054755342444594e+02
1.016000000000000085e+02 2.429611818308570150e+02
1.020000000000000000e+02 2.425194781251992140e+02
1.024000000000000057e+02 2.420803387879505237e+02
1.028000000000000114e+02 2.416437385475503845e+02
1.032000000000000028e+02 2.412096524837571110e+02
1.036000000000000085e+02 2.407780560213479362e+02
1.040000000000000000e+02 2.403489249239583501e+02
1.044000000000000057e+02 2.399222352880547078e+02
1.048000000000000114e+02 2.394979635370391406e+02
1.052000000000000028e+02 2.390760864154813419e+02
1.056000000000000085e+02 2.386565809834755783e+02
1.060000000000000000e+02 2.382394246111184657e+02
1.064000000000000057e+02 2.378245949731053486e+02
1.068000000000000114e+02 2.374120700434417017e+02
1.072000000000000028e+02 2.370018280902668266e+02
1.076000000000000085e+02 2.365938476707873974e+02
1.080000000000000000e+02 2.361881076263174464e+02
1.084000000000000057e+02 2.357845870774227706e+02
1.088000000000000114e+02 2.353832654191663494e+02
1.092000000000000028e+02 2.349841223164537496e+02
1.096000000000000085e+02 2.345871376994739705e+02
1.100000000000000000e+02 2.341922917592354167e+02
1.104000000000000057e+02 2.337995649431934453e+02
1.108000000000000114e+02 2.334089379509675268e+02
1.112000000000000028e+02 2.330203917301460308e+02
1.116000000000000085e+02 2.326339074721764462e+02
1.120000000000000000e+02 2.322494666083391337e+02
1.124000000000000057e+02 2.318670508058016253e+02
1.128000000000000114e+02 2.314866419637534420e+02
1.132000000000000028e+02 2.311082222096178498e+02
1.136000000000000085e+02 2.307317738953390176e+02
1.140000000000000000e+02 2.303572795937437832e+02
1.144000000000000057e+02 2.299847220949748134e+02
1.148000000000000114e+02 2.296140844029952461e+02
1.152000000000000028e+02 2.292453497321606619e+02
1.156000000000000085e+02 2.288785015038597521e+02
1.160000000000000000e+02 2.285135233432200721e+02
1.164000000000000057e+02 2.281503990758773739e+02
1.168000000000000114e+02 2.277891127248087741e+02
1.172000000000000028e+02 2.274296485072260054e+02
1.176000000000000085e+02 2.270719908315293480e+02
1.180000000000000000e+02 2.267161242943195134e+02
1.184000000000000057e+02 2.263620336774670250e+02
1.188000000000000114e+02 2.260097039452371064e+02
1.192000000000000028e+02 2.256591202414695374e+02
1.196000000000000085e+02 2.253102678868114594e+02
1.200000000000000000e+02 2.249631323760028749e+02
1.204000000000000057e+02 2.246176993752126521e+02
1.208000000000000114e+02 2.242739547194246938e+02
1.212000000000000028e+02 2.239318844098729642e+02
1.216000000000000085e+02 2.235914746115238358e+02
1.220000000000000000e+02 2.232527116506054767e+02
1.224000000000000057e+02 2.229155820121827389e+02
1.228000000000000114e+02 2.225800723377766985e+02
1.232000000000000028e+02 2.222461694230275953e+02
1.236000000000000085e+02 2.219138602154010300e+02
1.240000000000000000e+02 2.215831318119354592e+02
1.244000000000000057e+02 2.212539714570307581e+02
1.248000000000000114e+02 2.209263665402770016e+02
1.252000000000000028e+02 2.206003045943219831e+02
1.256000000000000085e+02 2.202757732927775578e+02
1.260000000000000000e+02 2.199527604481629623e+02
1.264000000000000057e+02 2.196312540098853106e+02
1.268000000000000114e+02 2.193112420622557011e+02
1.272000000000000028e+02 2.189927128225409660e+02
1.276000000000000085e+02 2.186756546390491280e+02
1.280000000000000000e+02 2.183600559892493607e+02
1.284000000000000057e+02 2.180459054779244639e+02
1.288000000000000114e+02 2.177331918353559104e+02
1.291999999999999886e+02 2.174219039155405540e+02
1.296000000000000227e+02 2.171120306944380332e+02
1.300000000000000000e+02 2.168035612682493820e+02
1.304000000000000057e+02 2.164964848517241194e+02
1.308000000000000114e+02 2.161907907764977210e+02
1.311999999999999886e+02 2.158864684894572861e+02
1.316000000000000227e+02 2.155835075511342893e+02
1.320000000000000000e+02 2.152818976341261532e+02
1.324000000000000057e+02 2.149816285215440530e+02
1.328000000000000114e+02 2.146826901054863299e+02
1.331999999999999886e+02 2.143850723855391038e+02
1.336000000000000227e+02 2.140887654673008171e+02
1.340000000000000000e+02 2.137937595609327559e+02
1.344000000000000057e+02 2.135000449797327349e+02
1.348000000000000114e+02 2.132076121387333956e+02
1.351999999999999886e+02 2.129164515533233271e+02
1.356000000000000227e+02 2.126265538378913220e+02
1.360000000000000000e+02 2.123379097044932564e+02
1.364000000000000057e+02 2.120505099615402855e+02
1.368000000000000114e+02 2.117643455125091805e+02
1.371999999999999886e+02 2.114794073546738105e+02
1.376000000000000227e+02 2.111956865778566339e+02
1.380000000000000000e+02 2.109131743632017333e+02
1.384000000000000057e+02 2.106318619819666083e+02
1.388000000000000114e+02 2.103517407943340913e+02
1.392000000000000171e+02 2.100728022482435335e+02
1.395999999999999943e+02 2.097950378782404925e+02
1.400000000000000000e+02 2.095184393043449518e+02
1.404000000000000057e+02 2.092429982309377579e+02
1.408000000000000114e+02 2.089687064456649637e+02
1.412000000000000171e+02 2.086955558183590824e+02
1.415999999999999943e+02 2.084235382999779063e+02
1.420000000000000000e+02 2.081526459215600084e+02
1.424000000000000057e+02 2.078828707931964743e+02
1.428000000000000114e+02 2.076142051030191169e+02
1.432000000000000171e+02 2.073466411162045233e+02
1.435999999999999943e+02 2.070801711739931079e+02
1.440000000000000000e+02 2.068147876927245647e+02
1.444000000000000057e+02 2.065504831628867635e+02
1.448000000000000114e+02 2.062872501481811298e+02
1.452000000000000171e+02 2.060250812846008728e+02
1.455999999999999943e+02 2.057639692795245594e+02
1.460000000000000000e+02 2.055039069108228773e+02
1.464000000000000057e+02 2.052448870259794944e+02
1.468000000000000114e+02 2.049869025412252199e+02
1.472000000000000171e+02 2.047299464406852394e+02
1.475999999999999943e+02 2.044740117755394522e+02
1.480000000000000000e+02 2.042190916631955702e+02
1.484000000000000057e+02 2.039651792864743811e+02
1.488000000000000114e+02 2.037122678928076880e+02
1.492000000000000171e+02 2.034603507934479012e+02
1.495999999999999943e+02 2.032094213626900228e+02
1.500000000000000000e+02 2.029594730371044022e+02
