1.000000000000000000e+01 1.062676706603445211e+02
1.040000000000000036e+01 1.090325459596030129e+02
1.080000000000000071e+01 1.046759999105568824e+02
1.119999999999999929e+01 1.008114222045727075e+02
1.159999999999999964e+01 9.734746559550859502e+01
1.200000000000000000e+01 9.421595614533522678e+01
1.240000000000000036e+01 9.136458905385438811e+01
1.280000000000000071e+01 8.875232416658268164e+01
1.319999999999999929e+01 8.634635484879028411e+01
1.359999999999999964e+01 8.413900838064937204e+01
1.400000000000000000e+01 8.217855537414573064e+01
1.440000000000000036e+01 8.049044787300881865e+01
1.480000000000000071e+01 7.899770377976160773e+01
1.519999999999999929e+01 7.763391530145786135e+01
1.560000000000000142e+01 7.642315924261868076e+01
1.600000000000000000e+01 7.527409305558157371e+01
1.639999999999999858e+01 7.418133500617231846e+01
1.680000000000000071e+01 7.314016544764507444e+01
1.719999999999999929e+01 7.214642240924609951e+01
1.760000000000000142e+01 7.119641710433769788e+01
1.800000000000000000e+01 7.028686493580370609e+01
1.839999999999999858e+01 6.941482868778714987e+01
1.880000000000000071e+01 6.718192715651994718e+01
1.920000000000000284e+01 6.641407353636614630e+01
1.960000000000000142e+01 6.567534954547870996e+01
2.000000000000000000e+01 6.496387390451144483e+01
2.039999999999999858e+01 6.427793626752725231e+01
2.080000000000000071e+01 6.361597729732277884e+01
2.120000000000000284e+01 6.297657155947159424e+01
2.160000000000000142e+01 6.067720030876596127e+01
2.200000000000000000e+01 6.008232533718538093e+01
2.239999999999999858e+01 5.950692401744099413e+01
2.280000000000000071e+01 5.894992377896329572e+01
2.320000000000000284e+01 5.841033438384788212e+01
2.360000000000000142e+01 5.788723986712597736e+01
2.400000000000000000e+01 5.737591476328564966e+01
2.439999999999999858e+01 5.685122110271046836e+01
2.480000000000000071e+01 5.634204454701381337e+01
2.520000000000000284e+01 5.170298923386681622e+01
2.560000000000000142e+01 5.120096653711051715e+01
2.600000000000000000e+01 5.071267077705118709e+01
2.640000000000000213e+01 5.023747571853202487e+01
2.680000000000000071e+01 4.977479487301152261e+01
2.719999999999999929e+01 4.932407828407218631e+01
2.760000000000000142e+01 4.888480962734732316e+01
2.800000000000000000e+01 4.844941089360800390e+01
2.840000000000000213e+01 4.800929583416103696e+01
2.880000000000000071e+01 4.758000437851370634e+01
2.920000000000000284e+01 4.716109607357720535e+01
2.960000000000000142e+01 4.675215527629984535e+01
3.000000000000000000e+01 4.635278937823901657e+01
3.040000000000000213e+01 4.596262718356641130e+01
3.080000000000000071e+01 4.558131742502199302e+01
3.120000000000000284e+01 4.520852740411343262e+01
3.160000000000000142e+01 4.484394174341051098e+01
3.200000000000000000e+01 4.485716957356756041e+01
3.240000000000000568e+01 4.452897853193879740e+01
3.279999999999999716e+01 4.420752960490465000e+01
3.320000000000000284e+01 4.389259348616251799e+01
3.360000000000000142e+01 4.358395169166180239e+01
3.400000000000000000e+01 4.328139590903851541e+01
3.440000000000000568e+01 4.298472739439973367e+01
3.479999999999999716e+01 4.269375641242285724e+01
3.520000000000000284e+01 4.240830171612790878e+01
3.560000000000000142e+01 4.212819006303139702e+01
3.600000000000000000e+01 4.184534814506731237e+01
3.640000000000000568e+01 4.155829614009140727e+01
3.679999999999999716e+01 4.127656082095408863e+01
3.720000000000000284e+01 4.099997943592897798e+01
3.760000000000000142e+01 4.072839614664926700e+01
3.800000000000000000e+01 4.081547886067326658e+01
3.840000000000000568e+01 4.056670995377371014e+01
3.879999999999999716e+01 4.032217322630481959e+01
3.920000000000000284e+01 4.008174905909000074e+01
3.960000000000000142e+01 3.984474826960619254e+01
4.000000000000000000e+01 3.960860162155606901e+01
4.040000000000000568e+01 3.937630623982624201e+01
4.079999999999999716e+01 3.914775764469184338e+01
4.120000000000000284e+01 3.892285530641246538e+01
4.160000000000000142e+01 3.870150245428089875e+01
4.200000000000000000e+01 3.848360589688841316e+01
4.239999999999999858e+01 3.826907585283258584e+01
4.280000000000000426e+01 3.805782579115513187e+01
4.320000000000000284e+01 3.784977228085262624e+01
4.360000000000000142e+01 3.764483484885413844e+01
4.400000000000000000e+01 3.744293584590614188e+01
4.439999999999999858e+01 3.724400031984745851e+01
4.480000000000000426e+01 3.704795589579578063e+01
4.520000000000000284e+01 3.685473266280301630e+01
4.560000000000000142e+01 3.666426306656882161e+01
4.600000000000000000e+01 3.647648180783212979e+01
4.639999999999999858e+01 3.629132574608756556e+01
4.680000000000000426e+01 3.610873380829848855e+01
4.720000000000000284e+01 3.592864690230247504e+01
4.760000000000000142e+01 3.575023630920052398e+01
4.800000000000000000e+01 3.557349606051280944e+01
4.840000000000000568e+01 3.539912309813484370e+01
4.880000000000000426e+01 3.522706459492703601e+01
4.920000000000000284e+01 3.505726936908963864e+01
4.960000000000000142e+01 3.493330592279644264e+01
5.000000000000000000e+01 3.477169550388416042e+01
5.040000000000000568e+01 3.461215447313456650e+01
5.080000000000000426e+01 3.445463870563012421e+01
5.120000000000000284e+01 3.429910539057779317e+01
5.160000000000000142e+01 3.414551298117011413e+01
5.200000000000000000e+01 3.399382114677455036e+01
5.240000000000000568e+01 3.384399072732331604e+01
5.280000000000000426e+01 3.369598368978518721e+01
5.320000000000000284e+01 3.382891945975576675e+01
5.360000000000000142e+01 3.369784922702552876e+01
5.400000000000000000e+01 3.356825858843139798e+01
5.440000000000000568e+01 3.344011959250532584e+01
5.480000000000000426e+01 3.331340502636459888e+01
5.520000000000000284e+01 3.318808839068161376e+01
5.560000000000000142e+01 3.306414387568715085e+01
5.600000000000000000e+01 3.294154633815674771e+01
5.640000000000000568e+01 3.282027127933292121e+01
5.680000000000000426e+01 3.270029482373826824e+01
5.720000000000000284e+01 3.258159369883727408e+01
5.760000000000000142e+01 3.246414521550659060e+01
5.800000000000000000e+01 3.234792724927618934e+01
5.840000000000000568e+01 3.223291822230530101e+01
5.880000000000000426e+01 3.211909708605948310e+01
5.920000000000000284e+01 3.200620891128494350e+01
5.960000000000000142e+01 3.188489938046663497e+01
6.000000000000000000e+01 3.177618336934859400e+01
6.040000000000000568e+01 3.166854915174877050e+01
6.080000000000000426e+01 3.156197869663684230e+01
6.120000000000000284e+01 3.145645439313744518e+01
6.160000000000000142e+01 3.135195903798200590e+01
6.200000000000000000e+01 3.124847582341673302e+01
6.240000000000000568e+01 3.114598832554746366e+01
6.280000000000000426e+01 3.104448049310276758e+01
6.320000000000000284e+01 3.094393663659752036e+01
6.360000000000000142e+01 3.084434141788019446e+01
6.400000000000000000e+01 3.074567984004804799e+01
6.440000000000000568e+01 3.064793723771466105e+01
6.480000000000001137e+01 3.055109926761556594e+01
6.520000000000000284e+01 3.045515189953813007e+01
6.559999999999999432e+01 3.036008140756234752e+01
6.600000000000000000e+01 3.026587436160016864e+01
6.640000000000000568e+01 3.017251761922137021e+01
6.680000000000001137e+01 3.007999831775440924e+01
6.720000000000000284e+01 2.998830386665153114e+01
6.759999999999999432e+01 2.989742194010762688e+01
6.800000000000000000e+01 2.980734046992294850e+01
6.840000000000000568e+01 2.971804763860015441e+01
6.880000000000001137e+01 2.962953187266676380e+01
6.920000000000000284e+01 2.954178183621413467e+01
6.959999999999999432e+01 2.945478642464482988e+01
7.000000000000000000e+01 2.936853475862051965e+01
7.040000000000000568e+01 2.928150277329775619e+01
7.080000000000001137e+01 2.919339874363689091e+01
7.120000000000000284e+01 2.911921729308742357e+01
7.159999999999999432e+01 2.903282960843834459e+01
7.200000000000000000e+01 2.894717793959812013e+01
7.240000000000000568e+01 2.886225180077261854e+01
7.280000000000001137e+01 2.877804091502256512e+01
7.320000000000000284e+01 2.869453520892999165e+01
7.359999999999999432e+01 2.861172480743059765e+01
7.400000000000000000e+01 2.852960002880594104e+01
7.440000000000000568e+01 2.844815137982969588e+01
7.479999999999999716e+01 2.836736955106230695e+01
7.520000000000000284e+01 2.828724541228879374e+01
7.560000000000000853e+01 2.820777000809442114e+01
7.600000000000000000e+01 2.812893455357358263e+01
7.640000000000000568e+01 2.805073043016687251e+01
7.679999999999999716e+01 2.797314918162207675e+01
7.720000000000000284e+01 2.789618251007462391e+01
7.760000000000000853e+01 2.781982227224336413e+01
7.800000000000000000e+01 2.774406047573761214e+01
7.840000000000000568e+01 2.766888927547179122e+01
7.879999999999999716e+01 2.759430097018377381e+01
7.920000000000000284e+01 2.752028799905354006e+01
7.960000000000000853e+01 2.744684293841869405e+01
8.000000000000000000e+01 2.737395849858355845e+01
8.040000000000000568e+01 2.730162752071871424e+01
8.079999999999999716e+01 2.722984297384800101e+01
8.120000000000000284e+01 2.715859795192004711e+01
8.160000000000000853e+01 2.708788567096145528e+01
8.200000000000000000e+01 2.701769946630916408e+01
8.240000000000000568e+01 2.694803278991915008e+01
8.279999999999999716e+01 2.687851294457669127e+01
8.320000000000000284e+01 2.680939100109417694e+01
8.360000000000000853e+01 2.674077442331425658e+01
8.400000000000000000e+01 2.667265703335108640e+01
8.440000000000000568e+01 2.660503275893438513e+01
8.479999999999999716e+01 2.653789563109385341e+01
8.520000000000000284e+01 2.647123978190549920e+01
8.560000000000000853e+01 2.642679801011737695e+01
8.600000000000000000e+01 2.636257892190182872e+01
8.640000000000000568e+01 2.629880870445695251e+01
8.680000000000001137e+01 2.623548209997963454e+01
8.720000000000000284e+01 2.617259393691457348e+01
8.760000000000000853e+01 2.611013912813773175e+01
8.800000000000000000e+01 2.604811266918643753e+01
8.840000000000000568e+01 2.598650963653476254e+01
8.880000000000001137e+01 2.592532518591273316e+01
8.920000000000000284e+01 2.586455455066821685e+01
8.960000000000000853e+01 2.580419304017003768e+01
9.000000000000000000e+01 2.574423603825115237e+01
9.040000000000000568e+01 2.568467900169081020e+01
9.080000000000001137e+01 2.562551745873431486e+01
9.120000000000000284e+01 2.556674700764956754e+01
9.160000000000000853e+01 2.550836331531908741e+01
9.200000000000000000e+01 2.545036211586658226e+01
9.240000000000000568e+01 2.539273920931709938e+01
9.280000000000001137e+01 2.533549046028963403e+01
9.320000000000000284e+01 2.527861179672153114e+01
9.360000000000000853e+01 2.522209920862349009e+01
9.400000000000000000e+01 2.530132773210463171e+01
9.440000000000000568e+01 2.524723071460793733e+01
9.480000000000001137e+01 2.519347287498437638e+01
9.520000000000000284e+01 2.514005063148817243e+01
9.560000000000000853e+01 2.508696045549348241e+01
9.600000000000000000e+01 2.503419887048053383e+01
9.640000000000000568e+01 2.498486983568817976e+01
9.680000000000001137e+01 2.493347469707735087e+01
9.720000000000000284e+01 2.488239220558590858e+01
9.760000000000000853e+01 2.483161915551291798e+01
9.800000000000000000e+01 2.478115238733812831e+01
9.840000000000000568e+01 2.473098878686548119e+01
9.880000000000001137e+01 2.468112528438612685e+01
9.920000000000000284e+01 2.463155885386023769e+01
9.960000000000000853e+01 2.458210302962907434e+01
1.000000000000000000e+02 2.453270235513051034e+01
1.004000000000000057e+02 2.448359400809117403e+01
1.008000000000000114e+02 2.443477507368146817e+01
1.012000000000000028e+02 2.438624267789787581e+01
1.016000000000000085e+02 2.433799398682697657e+01
1.020000000000000000e+02 2.429002620592574502e+01
1.024000000000000057e+02 2.424233657931755914e+01
1.028000000000000114e+02 2.419492238910367377e+01
1.032000000000000028e+02 2.414778095468960117e+01
1.036000000000000085e+02 2.410090963212618931e+01
1.040000000000000000e+02 2.405430581346483621e+01
1.044000000000000057e+02 2.400796692612663819e+01
1.048000000000000114e+02 2.396189043228502058e+01
1.052000000000000028e+02 2.391607382826153128e+01
1.056000000000000085e+02 2.387051464393450573e+01
1.060000000000000000e+02 2.382521044216021622e+01
1.064000000000000057e+02 2.378015881820626731e+01
1.068000000000000114e+02 2.373535739919681831e+01
1.072000000000000028e+02 2.369080384356950830e+01
1.076000000000000085e+02 2.364649584054361497e+01
1.080000000000000000e+02 2.360243110959928714e+01
1.084000000000000057e+02 2.355860739996757403e+01
1.088000000000000114e+02 2.351502249013089596e+01
1.092000000000000028e+02 2.347167418733382149e+01
1.096000000000000085e+02 2.342856032710382408e+01
1.100000000000000000e+02 2.338540323365037210e+01
1.104000000000000057e+02 2.334245591968399580e+01
1.108000000000000114e+02 2.329973862130169948e+01
1.112000000000000028e+02 2.325724926244375723e+01
1.116000000000000085e+02 2.321498579336812185e+01
1.120000000000000000e+02 2.317294619022111846e+01
1.124000000000000057e+02 2.313112845461670730e+01
1.128000000000000114e+02 2.308953061322412736e+01
1.132000000000000028e+02 2.304815071736364374e+01
1.136000000000000085e+02 2.300698684261034899e+01
1.140000000000000000e+02 2.296603708840569524e+01
1.144000000000000057e+02 2.292529957767657933e+01
1.148000000000000114e+02 2.288477245646199165e+01
1.152000000000000028e+02 2.284445389354677047e+01
1.156000000000000085e+02 2.280434208010255404e+01
1.160000000000000000e+02 2.277763034921014551e+01
1.164000000000000057e+02 2.273824952742697647e+01
1.168000000000000114e+02 2.269906771569239723e+01
1.172000000000000028e+02 2.266005316834540295e+01
1.176000000000000085e+02 2.262116336190057808e+01
1.180000000000000000e+02 2.258246733606830503e+01
1.184000000000000057e+02 2.254396346552022834e+01
1.188000000000000114e+02 2.250565014405572128e+01
1.192000000000000028e+02 2.246752578431239300e+01
1.196000000000000085e+02 2.242958881748214139e+01
1.200000000000000000e+02 2.239183769303238591e+01
1.204000000000000057e+02 2.235427087843232741e+01
1.208000000000000114e+02 2.231688685888430967e+01
1.212000000000000028e+02 2.227968413706002693e+01
1.216000000000000085e+02 2.224266123284157004e+01
1.220000000000000000e+02 2.220581668306707712e+01
1.224000000000000057e+02 2.216914904128105235e+01
1.228000000000000114e+02 2.213265687748913280e+01
1.232000000000000028e+02 2.209633877791727485e+01
1.236000000000000085e+02 2.206019334477521099e+01
1.240000000000000000e+02 2.202421919602413425e+01
1.244000000000000057e+02 2.198841496514851457e+01
1.248000000000000114e+02 2.195277930093194385e+01
1.252000000000000028e+02 2.192183047139912588e+01
1.256000000000000085e+02 2.188692982969585543e+01
1.260000000000000000e+02 2.185219170430026026e+01
1.264000000000000057e+02 2.181761482130497498e+01
1.268000000000000114e+02 2.178319792081978790e+01
1.272000000000000028e+02 2.174893975677319347e+01
1.276000000000000085e+02 2.171483909671752599e+01
1.280000000000000000e+02 2.168089472163737597e+01
1.284000000000000057e+02 2.164710542576132113e+01
1.288000000000000114e+02 2.161347001637688692e+01
1.291999999999999886e+02 2.157998731364865108e+01
1.296000000000000227e+02 2.154665615043941784e+01
1.300000000000000000e+02 2.151347537213451844e+01
1.304000000000000057e+02 2.148044383646895739e+01
1.308000000000000114e+02 2.144756041335753949e+01
1.311999999999999886e+02 2.141482398472787452e+01
1.316000000000000227e+02 2.138223344435611040e+01
1.320000000000000000e+02 2.134978769770548368e+01
1.324000000000000057e+02 2.131748566176748838e+01
1.328000000000000114e+02 2.128529854652124698e+01
1.331999999999999886e+02 2.125324915981511609e+01
1.336000000000000227e+02 2.122134037023310782e+01
1.340000000000000000e+02 2.118957113982628471e+01
1.344000000000000057e+02 2.115794044139978780e+01
1.348000000000000114e+02 2.112644725836964099e+01
1.351999999999999886e+02 2.109509058462175446e+01
1.356000000000000227e+02 2.106386942437330489e+01
1.360000000000000000e+02 2.103278279203635748e+01
1.364000000000000057e+02 2.100182971208359817e+01
1.368000000000000114e+02 2.097100921891634329e+01
1.371999999999999886e+02 2.094032035673457770e+01
1.376000000000000227e+02 2.090976217940910331e+01
1.380000000000000000e+02 2.087933375035572325e+01
1.384000000000000057e+02 2.084903414241140851e+01
1.388000000000000114e+02 2.081886243771247536e+01
1.392000000000000171e+02 2.078881772757459956e+01
1.395999999999999943e+02 2.075889911237483432e+01
1.400000000000000000e+02 2.072910570143534059e+01
1.404000000000000057e+02 2.069943661290908921e+01
1.408000000000000114e+02 2.066975591518264821e+01
1.412000000000000171e+02 2.064019317225830008e+01
1.415999999999999943e+02 2.061075273995590607e+01
1.420000000000000000e+02 2.058143376646668798e+01
1.424000000000000057e+02 2.055223540830790796e+01
1.428000000000000114e+02 2.052315683021828363e+01
1.432000000000000171e+02 2.049419720505487774e+01
1.435999999999999943e+02 2.046535571369173567e+01
1.440000000000000000e+02 2.043663154491989786e+01
1.444000000000000057e+02 2.040802389534906069e+01
1.448000000000000114e+02 2.037953196931065492e+01
1.452000000000000171e+02 2.035115497876244461e+01
1.455999999999999943e+02 2.031610540605213444e+01
1.460000000000000000e+02 2.028829705467130040e+01
1.464000000000000057e+02 2.026059970178411973e+01
1.468000000000000114e+02 2.023301259980752675e+01
1.472000000000000171e+02 2.020553500823506710e+01
1.475999999999999943e+02 2.017816619355063068e+01
1.480000000000000000e+02 2.015090542914349925e+01
1.484000000000000057e+02 2.012375199522471192e+01
1.488000000000000114e+02 2.009670517874458540e+01
1.492000000000000171e+02 2.006976427331150603e+01
1.495999999999999943e+02 2.004292857911189429e+01
1.500000000000000000e+02 2.001619740283137006e+01
