1.000000000000000000e+01 5.195595389907329036e+02
1.040000000000000036e+01 5.380781490614571112e+02
1.080000000000000071e+01 5.481980811643363722e+02
1.119999999999999929e+01 5.611979141766485100e+02
1.159999999999999964e+01 5.763032169309092296e+02
1.200000000000000000e+01 5.963388826006748786e+02
1.240000000000000036e+01 6.068886140759686896e+02
1.280000000000000071e+01 6.070900849790609755e+02
1.319999999999999929e+01 6.106678061716092998e+02
1.359999999999999964e+01 6.172679153593371666e+02
1.400000000000000000e+01 6.061922559319989432e+02
1.440000000000000036e+01 5.957963165719290828e+02
1.480000000000000071e+01 5.860085012897085335e+02
1.519999999999999929e+01 5.767678336569058501e+02
1.560000000000000142e+01 5.680219415241574552e+02
1.600000000000000000e+01 5.597255036256121912e+02
1.639999999999999858e+01 5.518390350915602767e+02
1.680000000000000071e+01 5.443279258803197536e+02
1.719999999999999929e+01 5.371616708215092331e+02
1.760000000000000142e+01 5.303132467944000155e+02
1.800000000000000000e+01 5.237586042693670834e+02
1.839999999999999858e+01 5.174762487232170542e+02
1.880000000000000071e+01 5.114468933940506759e+02
1.920000000000000284e+01 5.056531691845449359e+02
1.960000000000000142e+01 5.000793807320696942e+02
2.000000000000000000e+01 4.947113000644557133e+02
2.039999999999999858e+01 4.895359910753964527e+02
2.080000000000000071e+01 4.845416594401394832e+02
2.120000000000000284e+01 4.797175236614618257e+02
2.160000000000000142e+01 4.750537037678152501e+02
2.200000000000000000e+01 4.705411248379772360e+02
2.239999999999999858e+01 4.661714330421566501e+02
2.280000000000000071e+01 4.619369222999073372e+02
2.320000000000000284e+01 4.578304699840281273e+02
2.360000000000000142e+01 4.538454803647623521e+02
2.400000000000000000e+01 4.499758347036523674e+02
2.439999999999999858e+01 4.462158470817930720e+02
2.480000000000000071e+01 4.425602251910255518e+02
2.520000000000000284e+01 4.390040354351095857e+02
2.560000000000000142e+01 4.355426717860087820e+02
2.600000000000000000e+01 4.321718279220139038e+02
2.640000000000000213e+01 4.288874722425573509e+02
2.680000000000000071e+01 4.256858254117248634e+02
2.719999999999999929e+01 4.225633401305634038e+02
2.760000000000000142e+01 4.195166828789390365e+02
2.800000000000000000e+01 4.165427174021617134e+02
2.840000000000000213e+01 4.136384897469209250e+02
2.880000000000000071e+01 4.108012146761132044e+02
2.920000000000000284e+01 4.080282633135716424e+02
2.960000000000000142e+01 4.053171518881250677e+02
3.000000000000000000e+01 4.026655314622622654e+02
3.040000000000000213e+01 4.000711785443777444e+02
3.080000000000000071e+01 3.975319864954320792e+02
3.120000000000000284e+01 3.950459576511535715e+02
3.160000000000000142e+01 3.926111960898722941e+02
3.200000000000000000e+01 3.902259009838917336e+02
3.240000000000000568e+01 3.878883604791407151e+02
3.279999999999999716e+01 3.855969460538363478e+02
3.320000000000000284e+01 3.833501073121492482e+02
3.360000000000000142e+01 3.811463671734938998e+02
3.400000000000000000e+01 3.789843174221445565e+02
3.440000000000000568e+01 3.768626145854893821e+02
3.479999999999999716e+01 3.747799761124192628e+02
3.520000000000000284e+01 3.727351768261891038e+02
3.560000000000000142e+01 3.707270456285938280e+02
3.600000000000000000e+01 3.687544624345448483e+02
3.640000000000000568e+01 3.668163553181271936e+02
3.679999999999999716e+01 3.649116978529925177e+02
3.720000000000000284e+01 3.630395066315431905e+02
3.760000000000000142e+01 3.611988389487824520e+02
3.800000000000000000e+01 3.593887906379851529e+02
3.840000000000000568e+01 3.576084940464952524e+02
3.879999999999999716e+01 3.558571161409861361e+02
3.920000000000000284e+01 3.541338567324492033e+02
3.960000000000000142e+01 3.524379468120195043e+02
4.000000000000000000e+01 3.507686469894997572e+02
4.040000000000000568e+01 3.491252460271323343e+02
4.079999999999999716e+01 3.475070594617875486e+02
4.120000000000000284e+01 3.459134283092976148e+02
4.160000000000000142e+01 3.443437178451792420e+02
4.200000000000000000e+01 3.427973164564445483e+02
4.239999999999999858e+01 3.412736345596292722e+02
4.280000000000000426e+01 3.397721035805435577e+02
4.320000000000000284e+01 3.382921749916038152e+02
4.360000000000000142e+01 3.368333194029247579e+02
4.400000000000000000e+01 3.353950257036362927e+02
4.439999999999999858e+01 3.339768002501622277e+02
4.480000000000000426e+01 3.325781660984371229e+02
4.520000000000000284e+01 3.311986622772651572e+02
4.560000000000000142e+01 3.298378431002226989e+02
4.600000000000000000e+01 3.284952775137018079e+02
4.639999999999999858e+01 3.271705484788598142e+02
4.680000000000000426e+01 3.258632523853981979e+02
4.720000000000000284e+01 3.245729984952423024e+02
4.760000000000000142e+01 3.232994084143273312e+02
4.800000000000000000e+01 3.220421155908168203e+02
4.840000000000000568e+01 3.208007648381988020e+02
4.880000000000000426e+01 3.195750118818057786e+02
4.920000000000000284e+01 3.183645229274044937e+02
4.960000000000000142e+01 3.171689742505910203e+02
5.000000000000000000e+01 3.159880518058094481e+02
5.040000000000000568e+01 3.148214508538893028e+02
5.080000000000000426e+01 3.136688756070695376e+02
5.120000000000000284e+01 3.125300388905414479e+02
5.160000000000000142e+01 3.114046618196060194e+02
5.200000000000000000e+01 3.102924734915962404e+02
5.240000000000000568e+01 3.091932106917693091e+02
5.280000000000000426e+01 3.081066176124231788e+02
5.320000000000000284e+01 3.070324455845360490e+02
5.360000000000000142e+01 3.059704528212715218e+02
5.400000000000000000e+01 3.049204041727311392e+02
5.440000000000000568e+01 3.038820708913738144e+02
5.480000000000000426e+01 3.028552304075539041e+02
5.520000000000000284e+01 3.018396661146663291e+02
5.560000000000000142e+01 3.008351671634107447e+02
5.600000000000000000e+01 2.998415282647224558e+02
5.640000000000000568e+01 2.988585495009365900e+02
5.680000000000000426e+01 2.978860361447817695e+02
5.720000000000000284e+01 2.969237984858212940e+02
5.760000000000000142e+01 2.959716516639783208e+02
5.800000000000000000e+01 2.950294155098072792e+02
5.840000000000000568e+01 2.940969143911864307e+02
5.880000000000000426e+01 2.931739770661295665e+02
5.920000000000000284e+01 2.922604365414276799e+02
5.960000000000000142e+01 2.913561299368483333e+02
6.000000000000000000e+01 2.904608983546360150e+02
6.040000000000000568e+01 2.895745867540687755e+02
6.080000000000000426e+01 2.886970438308405278e+02
6.120000000000000284e+01 2.878281219010498830e+02
6.160000000000000142e+01 2.869676767895882676e+02
6.200000000000000000e+01 2.861155677227307024e+02
6.240000000000000568e+01 2.852716572247425688e+02
6.280000000000000426e+01 2.844358110183250687e+02
6.320000000000000284e+01 2.836078979287314610e+02
6.360000000000000142e+01 2.827877897913949710e+02
6.400000000000000000e+01 2.819753613629160327e+02
6.440000000000000568e+01 2.811704902352643671e+02
6.480000000000001137e+01 2.803730567530607800e+02
6.520000000000000284e+01 2.795829439338061775e+02
6.559999999999999432e+01 2.788000373909350174e+02
6.600000000000000000e+01 2.780242252595757009e+02
6.640000000000000568e+01 2.772553981249043318e+02
6.680000000000001137e+01 2.764934489529856592e+02
6.720000000000000284e+01 2.757382730239999660e+02
6.759999999999999432e+01 2.749897678677573936e+02
6.800000000000000000e+01 2.742478332014086391e+02
6.840000000000000568e+01 2.735123708692626110e+02
6.880000000000001137e+01 2.727832847846281084e+02
6.920000000000000284e+01 2.720604808735984648e+02
6.959999999999999432e+01 2.713438670207021914e+02
7.000000000000000000e+01 2.706333530163480532e+02
7.040000000000000568e+01 2.699288505059927843e+02
7.080000000000001137e+01 2.692302729409665858e+02
7.120000000000000284e+01 2.685375355308911480e+02
7.159999999999999432e+01 2.678505551976302286e+02
7.200000000000000000e+01 2.671692505307142369e+02
7.240000000000000568e+01 2.664935417441832897e+02
7.280000000000001137e+01 2.658233506347952471e+02
7.320000000000000284e+01 2.651586005415481395e+02
7.359999999999999432e+01 2.644992163064675310e+02
7.400000000000000000e+01 2.638451242366130600e+02
7.440000000000000568e+01 2.631962520672589108e+02
7.479999999999999716e+01 2.625525289262050137e+02
7.520000000000000284e+01 2.619138852991792987e+02
7.560000000000000853e+01 2.612802529962898461e+02
7.600000000000000000e+01 2.606515651194909537e+02
7.640000000000000568e+01 2.600277560310258309e+02
7.679999999999999716e+01 2.594087613228123246e+02
7.720000000000000284e+01 2.587945177867368329e+02
7.760000000000000853e+01 2.581849633858267907e+02
7.800000000000000000e+01 2.575800372262691553e+02
7.840000000000000568e+01 2.569796795302461874e+02
7.879999999999999716e+01 2.563838316095611845e+02
7.920000000000000284e+01 2.557924358400254619e+02
7.960000000000000853e+01 2.552054356365822514e+02
8.000000000000000000e+01 2.546227754291412566e+02
8.040000000000000568e+01 2.540444006391006155e+02
8.079999999999999716e+01 2.534702576565326240e+02
8.120000000000000284e+01 2.529002938180121873e+02
8.160000000000000853e+01 2.523344573850647805e+02
8.200000000000000000e+01 2.517726975232153563e+02
8.240000000000000568e+01 2.512149642816170854e+02
8.279999999999999716e+01 2.506612085732417370e+02
8.320000000000000284e+01 2.501113821556132848e+02
8.360000000000000853e+01 2.495654376120665461e+02
8.400000000000000000e+01 2.490233283335149963e+02
8.440000000000000568e+01 2.484850085007104212e+02
8.479999999999999716e+01 2.479504330669795422e+02
8.520000000000000284e+01 2.474195577414218974e+02
8.560000000000000853e+01 2.468923389725547679e+02
8.600000000000000000e+01 2.463687339323907963e+02
8.640000000000000568e+01 2.458487005009352515e+02
8.680000000000001137e+01 2.453321972510892692e+02
8.720000000000000284e+01 2.448191834339472734e+02
8.760000000000000853e+01 2.443096189644751917e+02
8.800000000000000000e+01 2.438034644075598578e+02
8.840000000000000568e+01 2.433006809644156192e+02
8.880000000000001137e+01 2.428012304593396493e+02
8.920000000000000284e+01 2.423050753268043422e+02
8.960000000000000853e+01 2.418121785988761303e+02
9.000000000000000000e+01 2.413225038929526818e+02
9.040000000000000568e+01 2.408360153998071382e+02
9.080000000000001137e+01 2.403526778719312347e+02
9.120000000000000284e+01 2.398724566121685200e+02
9.160000000000000853e+01 2.393953174626288103e+02
9.200000000000000000e+01 2.389212267938759169e+02
9.240000000000000568e+01 2.384501514943802363e+02
9.280000000000001137e+01 2.379820589602295513e+02
9.320000000000000284e+01 2.375169170850891760e+02
9.360000000000000853e+01 2.370546942504054186e+02
9.400000000000000000e+01 2.365953593158451440e+02
9.440000000000000568e+01 2.361388816099641303e+02
9.480000000000001137e+01 2.356852309210986220e+02
9.520000000000000284e+01 2.352343774884732568e+02
9.560000000000000853e+01 2.347862919935192281e+02
9.600000000000000000e+01 2.343409455513971977e+02
9.640000000000000568e+01 2.338983097027186773e+02
9.680000000000001137e+01 2.334583564054615294e+02
9.720000000000000284e+01 2.330210580270722858e+02
9.760000000000000853e+01 2.325863873367522956e+02
9.800000000000000000e+01 2.321543174979213404e+02
9.840000000000000568e+01 2.317248220608539668e+02
9.880000000000001137e+01 2.312978749554845024e+02
9.920000000000000284e+01 2.308734504843758373e+02
9.960000000000000853e+01 2.304515233158469982e+02
1.000000000000000000e+02 2.300320684772564164e+02
1.004000000000000057e+02 2.296150613484359155e+02
1.008000000000000114e+02 2.292004776552715839e+02
1.012000000000000028e+02 2.287882934634277206e+02
1.016000000000000085e+02 2.283784851722099631e+02
1.020000000000000000e+02 2.279710295085643565e+02
1.024000000000000057e+02 2.275659035212082131e+02
1.028000000000000114e+02 2.271630845748896377e+02
1.032000000000000028e+02 2.267625503447726487e+02
1.036000000000000085e+02 2.263642788109439721e+02
1.040000000000000000e+02 2.259682482530392917e+02
1.044000000000000057e+02 2.255744372449846082e+02
1.048000000000000114e+02 2.251828246498519093e+02
1.052000000000000028e+02 2.247933896148230417e+02
1.056000000000000085e+02 2.244061115662628367e+02
1.060000000000000000e+02 2.240209702048954057e+02
1.064000000000000057e+02 2.236379455010830100e+02
1.068000000000000114e+02 2.232570176902045205e+02
1.072000000000000028e+02 2.228781672681301984e+02
1.076000000000000085e+02 2.225013749867917738e+02
1.080000000000000000e+02 2.221266218498441276e+02
1.084000000000000057e+02 2.217538891084173542e+02
1.088000000000000114e+02 2.213831582569561647e+02
1.092000000000000028e+02 2.210144110291455206e+02
1.096000000000000085e+02 2.206476293939188338e+02
1.100000000000000000e+02 2.202827955515486451e+02
1.104000000000000057e+02 2.199198919298162309e+02
1.108000000000000114e+02 2.195589011802588857e+02
1.112000000000000028e+02 2.191998061744933466e+02
1.116000000000000085e+02 2.188425900006125175e+02
1.120000000000000000e+02 2.184872359596553224e+02
1.124000000000000057e+02 2.181337275621456797e+02
1.128000000000000114e+02 2.177820485247019064e+02
1.132000000000000028e+02 2.174321827667119464e+02
1.136000000000000085e+02 2.170841144070750488e+02
1.140000000000000000e+02 2.167378277610073383e+02
1.144000000000000057e+02 2.163933073369097428e+02
1.148000000000000114e+02 2.160505378332975113e+02
1.152000000000000028e+02 2.157095041357889329e+02
1.156000000000000085e+02 2.153701913141530611e+02
1.160000000000000000e+02 2.150325846194140809e+02
1.164000000000000057e+02 2.146966694810112131e+02
1.168000000000000114e+02 2.143624315040137560e+02
1.172000000000000028e+02 2.140298564663885941e+02
1.176000000000000085e+02 2.136989303163202862e+02
1.180000000000000000e+02 2.133696391695817738e+02
1.184000000000000057e+02 2.130419693069546270e+02
1.188000000000000114e+02 2.127159071716985750e+02
1.192000000000000028e+02 2.123914393670675906e+02
1.196000000000000085e+02 2.120685526538730699e+02
1.200000000000000000e+02 2.117472339480925712e+02
1.204000000000000057e+02 2.114274703185224666e+02
1.208000000000000114e+02 2.111092489844743909e+02
1.212000000000000028e+02 2.107925573135142372e+02
1.216000000000000085e+02 2.104773828192423366e+02
1.220000000000000000e+02 2.101637131591150194e+02
1.224000000000000057e+02 2.098515361323051707e+02
1.228000000000000114e+02 2.095408396776024915e+02
1.232000000000000028e+02 2.092316118713511059e+02
1.236000000000000085e+02 2.089238409254252247e+02
1.240000000000000000e+02 2.086175151852404213e+02
1.244000000000000057e+02 2.083126231278015155e+02
1.248000000000000114e+02 2.080091533597848468e+02
1.252000000000000028e+02 2.077070946156547961e+02
1.256000000000000085e+02 2.074064357558139307e+02
1.260000000000000000e+02 2.071071657647860889e+02
1.264000000000000057e+02 2.068092737494310995e+02
1.268000000000000114e+02 2.065127489371914180e+02
1.272000000000000028e+02 2.062175806743690600e+02
1.276000000000000085e+02 2.059237584244333163e+02
1.280000000000000000e+02 2.056312717663572016e+02
1.284000000000000057e+02 2.053401103929834903e+02
1.288000000000000114e+02 2.050502641094185492e+02
1.291999999999999886e+02 2.047617228314543354e+02
1.296000000000000227e+02 2.044744765840171112e+02
1.300000000000000000e+02 2.041885154996431879e+02
1.304000000000000057e+02 2.039038298169805330e+02
1.308000000000000114e+02 2.036204098793157016e+02
1.311999999999999886e+02 2.033382461331265176e+02
1.316000000000000227e+02 2.030573291266581748e+02
1.320000000000000000e+02 2.027776495085246893e+02
1.324000000000000057e+02 2.024991980263326354e+02
1.328000000000000114e+02 2.022219655253289261e+02
1.331999999999999886e+02 2.019459429470705345e+02
1.336000000000000227e+02 2.016711213281169535e+02
1.340000000000000000e+02 2.013974917987440847e+02
1.344000000000000057e+02 2.011250455816794442e+02
1.348000000000000114e+02 2.008537739908585706e+02
1.351999999999999886e+02 2.005836684302011292e+02
1.356000000000000227e+02 2.003147203924083328e+02
1.360000000000000000e+02 2.000469214577788648e+02
1.364000000000000057e+02 1.997802632930450955e+02
1.368000000000000114e+02 1.995147376502272891e+02
1.371999999999999886e+02 1.992503363655073656e+02
1.376000000000000227e+02 1.989870513581200839e+02
1.380000000000000000e+02 1.987248746292627857e+02
1.384000000000000057e+02 1.984637982610218785e+02
1.388000000000000114e+02 1.982038144153173391e+02
1.392000000000000171e+02 1.979449153328635873e+02
1.395999999999999943e+02 1.976870933321469863e+02
1.400000000000000000e+02 1.974303408084198566e+02
1.404000000000000057e+02 1.971746502327099222e+02
1.408000000000000114e+02 1.969200141508461002e+02
1.412000000000000171e+02 1.966664251824988696e+02
1.415999999999999943e+02 1.964138760202361595e+02
1.420000000000000000e+02 1.961623594285943000e+02
1.424000000000000057e+02 1.959118682431624734e+02
1.428000000000000114e+02 1.956623953696826561e+02
1.432000000000000171e+02 1.954139337831625483e+02
1.435999999999999943e+02 1.951664765270028852e+02
1.440000000000000000e+02 1.949200167121377945e+02
1.444000000000000057e+02 1.946745475161883974e+02
1.448000000000000114e+02 1.944300621826299107e+02
1.452000000000000171e+02 1.941865540199708846e+02
1.455999999999999943e+02 1.939440164009452019e+02
1.460000000000000000e+02 1.937024427617163838e+02
1.464000000000000057e+02 1.934618266010939465e+02
1.468000000000000114e+02 1.932221614797617235e+02
1.472000000000000171e+02 1.929834410195175565e+02
1.475999999999999943e+02 1.927456589025246672e+02
1.480000000000000000e+02 1.925088088705742280e+02
1.484000000000000057e+02 1.922728847243588177e+02
1.488000000000000114e+02 1.920378803227569620e+02
1.492000000000000171e+02 1.918037895821280756e+02
1.495999999999999943e+02 1.915706064756179217e+02
1.500000000000000000e+02 1.913383250324744438e+02
