1.000000000000000000e+01 1.125505568114599839e+02
1.040000000000000036e+01 1.175415029534414089e+02
1.080000000000000071e+01 1.241283265449919071e+02
1.119999999999999929e+01 1.257325706858357535e+02
1.159999999999999964e+01 1.216980738137419706e+02
1.200000000000000000e+01 1.204622262760027098e+02
1.240000000000000036e+01 1.168729114190311975e+02
1.280000000000000071e+01 1.136322563287193788e+02
1.319999999999999929e+01 1.106837447250206878e+02
1.359999999999999964e+01 1.080023302885144716e+02
1.400000000000000000e+01 1.056232727587828180e+02
1.440000000000000036e+01 1.034269151340661210e+02
1.480000000000000071e+01 1.015169149763713108e+02
1.519999999999999929e+01 9.972173385865677631e+01
1.560000000000000142e+01 9.802948039049667273e+01
1.600000000000000000e+01 9.643000468573673345e+01
1.639999999999999858e+01 9.492562479444808332e+01
1.680000000000000071e+01 9.355405206259055717e+01
1.719999999999999929e+01 9.225031295735199421e+01
1.760000000000000142e+01 8.649137203591672574e+01
1.800000000000000000e+01 8.398908817817812178e+01
1.839999999999999858e+01 8.292456871900313331e+01
1.880000000000000071e+01 8.050776532531153862e+01
1.920000000000000284e+01 7.956393587575121273e+01
1.960000000000000142e+01 7.865657710971919414e+01
2.000000000000000000e+01 7.778328342301499276e+01
2.039999999999999858e+01 7.694187273536874727e+01
2.080000000000000071e+01 7.613035980485258847e+01
2.120000000000000284e+01 7.534693341703714964e+01
2.160000000000000142e+01 7.456035737527773222e+01
2.200000000000000000e+01 7.378599838354580243e+01
2.239999999999999858e+01 7.303781415729733340e+01
2.280000000000000071e+01 7.231429827443542990e+01
2.320000000000000284e+01 7.161406615727285896e+01
2.360000000000000142e+01 7.093584244003770323e+01
2.400000000000000000e+01 7.027457325715627690e+01
2.439999999999999858e+01 6.956458616425769037e+01
2.480000000000000071e+01 6.886790446707691160e+01
2.520000000000000284e+01 6.819250158920135618e+01
2.560000000000000142e+01 6.753728704318517373e+01
2.600000000000000000e+01 6.690124800007249917e+01
2.640000000000000213e+01 6.672400744467580580e+01
2.680000000000000071e+01 6.613978079468867577e+01
2.719999999999999929e+01 6.557128133472241416e+01
2.760000000000000142e+01 6.501779528991094992e+01
2.800000000000000000e+01 6.447865402848709948e+01
2.840000000000000213e+01 6.395323042319139972e+01
2.880000000000000071e+01 6.344093556735504080e+01
2.920000000000000284e+01 6.294121580526963555e+01
2.960000000000000142e+01 6.245355004169762481e+01
3.000000000000000000e+01 6.197744729985912926e+01
3.040000000000000213e+01 6.151244450107111561e+01
3.080000000000000071e+01 6.105862308444355335e+01
3.120000000000000284e+01 6.061725298528644146e+01
3.160000000000000142e+01 6.018561758779320314e+01
3.200000000000000000e+01 6.013326229887684349e+01
3.240000000000000568e+01 5.974089480357221760e+01
3.279999999999999716e+01 5.935661962345166387e+01
3.320000000000000284e+01 5.898015421664949542e+01
3.360000000000000142e+01 5.861122985749360481e+01
3.400000000000000000e+01 5.824959077123473605e+01
3.440000000000000568e+01 5.789499333463422914e+01
3.479999999999999716e+01 5.754720533652537284e+01
3.520000000000000284e+01 5.720600529306619819e+01
3.560000000000000142e+01 5.687118181293435981e+01
3.600000000000000000e+01 5.654253300818690064e+01
3.640000000000000568e+01 5.620680041165154250e+01
3.679999999999999716e+01 5.652196609325766730e+01
3.720000000000000284e+01 5.623372093299430219e+01
3.760000000000000142e+01 5.595031507487179567e+01
3.800000000000000000e+01 5.567160932998717016e+01
3.840000000000000568e+01 5.539747015999057567e+01
3.879999999999999716e+01 5.512776938157595907e+01
3.920000000000000284e+01 5.486238388984349257e+01
3.960000000000000142e+01 5.460062112607991480e+01
4.000000000000000000e+01 5.433990858134382762e+01
4.040000000000000568e+01 5.408324020591005876e+01
4.079999999999999716e+01 5.383050843838717725e+01
4.120000000000000284e+01 5.358160975561263228e+01
4.160000000000000142e+01 5.333644447735090210e+01
4.200000000000000000e+01 5.058869623936206494e+01
4.239999999999999858e+01 5.033988794455204641e+01
4.280000000000000426e+01 5.009468093659199894e+01
4.320000000000000284e+01 4.985298704047214358e+01
4.360000000000000142e+01 4.961472111969772669e+01
4.400000000000000000e+01 4.937980094152732136e+01
4.439999999999999858e+01 4.914814704950545377e+01
4.480000000000000426e+01 4.891968264282389356e+01
4.520000000000000284e+01 4.869433346208121094e+01
4.560000000000000142e+01 4.847202768104017423e+01
4.600000000000000000e+01 4.825269580401249669e+01
4.639999999999999858e+01 4.803627056852585753e+01
4.680000000000000426e+01 4.782268685295295541e+01
4.720000000000000284e+01 4.761188158880432297e+01
4.760000000000000142e+01 4.740379367740756322e+01
4.800000000000000000e+01 4.719836391071444837e+01
4.840000000000000568e+01 4.697017366662394977e+01
4.880000000000000426e+01 4.677073005384659155e+01
4.920000000000000284e+01 4.657329333431412977e+01
4.960000000000000142e+01 4.641699198339998134e+01
5.000000000000000000e+01 4.622337503136546388e+01
5.040000000000000568e+01 4.603215274100695353e+01
5.080000000000000426e+01 4.584327505500347399e+01
5.120000000000000284e+01 4.565669338970196378e+01
5.160000000000000142e+01 4.547236057921885788e+01
5.200000000000000000e+01 4.529023082213308271e+01
5.240000000000000568e+01 4.511025963062840560e+01
5.280000000000000426e+01 4.493240378195275753e+01
5.320000000000000284e+01 4.475662127206942387e+01
5.360000000000000142e+01 4.458287127138376604e+01
5.400000000000000000e+01 4.441111408243564540e+01
5.440000000000000568e+01 4.424131109945434304e+01
5.480000000000000426e+01 4.407336122751465979e+01
5.520000000000000284e+01 4.390643619261321362e+01
5.560000000000000142e+01 4.374136826760959451e+01
5.600000000000000000e+01 4.357812257223125840e+01
5.640000000000000568e+01 4.341666514858506787e+01
5.680000000000000426e+01 4.325696292972551760e+01
5.720000000000000284e+01 4.309898370953249014e+01
5.760000000000000142e+01 4.294269611383408858e+01
5.800000000000000000e+01 4.278806957271384448e+01
5.840000000000000568e+01 4.263507429394477555e+01
5.880000000000000426e+01 4.248368123749641967e+01
5.920000000000000284e+01 4.233362769769185263e+01
5.960000000000000142e+01 4.218423670384424184e+01
6.000000000000000000e+01 4.203637597523457714e+01
6.040000000000000568e+01 4.189001907958014925e+01
6.080000000000000426e+01 4.174514022682397751e+01
6.120000000000000284e+01 4.160171424904095261e+01
6.160000000000000142e+01 4.145971658111196945e+01
6.200000000000000000e+01 4.131912324213182330e+01
6.240000000000000568e+01 4.118697968727728664e+01
6.280000000000000426e+01 4.105039306081362582e+01
6.320000000000000284e+01 4.091512463600885496e+01
6.360000000000000142e+01 4.078115296705283299e+01
6.400000000000000000e+01 4.064845709863701018e+01
6.440000000000000568e+01 4.051701655151780557e+01
6.480000000000001137e+01 4.038681130859873747e+01
6.520000000000000284e+01 4.025782180150950751e+01
6.559999999999999432e+01 4.013002889766097780e+01
6.600000000000000000e+01 4.000341388775620288e+01
6.640000000000000568e+01 3.987795847373850222e+01
6.680000000000001137e+01 3.975364475715866774e+01
6.720000000000000284e+01 3.963045522794384112e+01
6.759999999999999432e+01 3.967761640373572618e+01
6.800000000000000000e+01 3.955597000744337066e+01
6.840000000000000568e+01 3.943539940417962697e+01
6.880000000000001137e+01 3.931588855314229392e+01
6.920000000000000284e+01 3.919742175043250398e+01
6.959999999999999432e+01 3.907987956781845895e+01
7.000000000000000000e+01 3.896304086592733995e+01
7.040000000000000568e+01 3.884720701622971717e+01
7.080000000000001137e+01 3.873236344968940159e+01
7.120000000000000284e+01 3.863225184165244031e+01
7.159999999999999432e+01 3.852085194202089724e+01
7.200000000000000000e+01 3.841038565955855688e+01
7.240000000000000568e+01 3.830083979653775117e+01
7.280000000000001137e+01 3.819220141821553227e+01
7.320000000000000284e+01 3.808445784606776385e+01
7.359999999999999432e+01 3.797759665123636097e+01
7.400000000000000000e+01 3.787160564818196207e+01
7.440000000000000568e+01 3.776647288853430950e+01
7.479999999999999716e+01 3.766218665513290631e+01
7.520000000000000284e+01 3.755873545625132692e+01
7.560000000000000853e+01 3.745610801999809070e+01
7.600000000000000000e+01 3.735429328888804434e+01
7.640000000000000568e+01 3.725328041457791528e+01
7.679999999999999716e+01 3.715305875276018810e+01
7.720000000000000284e+01 3.705361785820979037e+01
7.760000000000000853e+01 3.695494747997798157e+01
7.800000000000000000e+01 3.686122164550742042e+01
7.840000000000000568e+01 3.676456697013631469e+01
7.879999999999999716e+01 3.666864696492599762e+01
7.920000000000000284e+01 3.657345222078341607e+01
7.960000000000000853e+01 3.647897349832489056e+01
8.000000000000000000e+01 3.638520172392672691e+01
8.040000000000000568e+01 3.629212798588849864e+01
8.079999999999999716e+01 3.619974353070505657e+01
8.120000000000000284e+01 3.610803975944366329e+01
8.160000000000000853e+01 3.601700822422261439e+01
8.200000000000000000e+01 3.592664062478829123e+01
8.240000000000000568e+01 3.583692880518696455e+01
8.279999999999999716e+01 3.574749848735613256e+01
8.320000000000000284e+01 3.565859918772069648e+01
8.360000000000000853e+01 3.557033684161121556e+01
8.400000000000000000e+01 3.548270376793630021e+01
8.440000000000000568e+01 3.539569241597352800e+01
8.479999999999999716e+01 3.530929536251585432e+01
8.520000000000000284e+01 3.522350530909444188e+01
8.560000000000000853e+01 3.513831507927553588e+01
8.600000000000000000e+01 3.505368351889637779e+01
8.640000000000000568e+01 3.496949043038003424e+01
8.680000000000001137e+01 3.488585659743537803e+01
8.720000000000000284e+01 3.480279441999619650e+01
8.760000000000000853e+01 3.472029733859007194e+01
8.800000000000000000e+01 3.463835889947202418e+01
8.840000000000000568e+01 3.455697275243026922e+01
8.880000000000001137e+01 3.447613264864772020e+01
8.920000000000000284e+01 3.439583243861748940e+01
8.960000000000000853e+01 3.431606607011076449e+01
9.000000000000000000e+01 3.423682758619543165e+01
9.040000000000000568e+01 3.415811112330428045e+01
9.080000000000001137e+01 3.407991090935077949e+01
9.120000000000000284e+01 3.400222126189157734e+01
9.160000000000000853e+01 3.392503658633400221e+01
9.200000000000000000e+01 3.384835137418741624e+01
9.240000000000000568e+01 3.377216020135711005e+01
9.280000000000001137e+01 3.369645772647956505e+01
9.320000000000000284e+01 3.362123868929781878e+01
9.360000000000000853e+01 3.354649790907583906e+01
9.400000000000000000e+01 3.347223028305081272e+01
9.440000000000000568e+01 3.339843078492223327e+01
9.480000000000001137e+01 3.332509446337684267e+01
9.520000000000000284e+01 3.325221644064829718e+01
9.560000000000000853e+01 3.318256324456631745e+01
9.600000000000000000e+01 3.311073373527591457e+01
9.640000000000000568e+01 3.304245450958372743e+01
9.680000000000001137e+01 3.297222570588553481e+01
9.720000000000000284e+01 3.290242488494315865e+01
9.760000000000000853e+01 3.283304766794613272e+01
9.800000000000000000e+01 3.276408973901597932e+01
9.840000000000000568e+01 3.269554684404146627e+01
9.880000000000001137e+01 3.262741478954048802e+01
9.920000000000000284e+01 3.255968944154736278e+01
9.960000000000000853e+01 3.249236672452525454e+01
1.000000000000000000e+02 3.242544262030276769e+01
1.004000000000000057e+02 3.235891316703433063e+01
1.008000000000000114e+02 3.229277445818350145e+01
1.012000000000000028e+02 3.222702264152884055e+01
1.016000000000000085e+02 3.216165391819144759e+01
1.020000000000000000e+02 3.209666454168398531e+01
1.024000000000000057e+02 3.203205081698030909e+01
1.028000000000000114e+02 3.196780909960531147e+01
1.032000000000000028e+02 3.190393579474452679e+01
1.036000000000000085e+02 3.184042735637277488e+01
1.040000000000000000e+02 3.177728028640163771e+01
1.044000000000000057e+02 3.185768055651802300e+01
1.048000000000000114e+02 3.179717972057035524e+01
1.052000000000000028e+02 3.173701568023810893e+01
1.056000000000000085e+02 3.167718664847500420e+01
1.060000000000000000e+02 3.161768947865885337e+01
1.064000000000000057e+02 3.155852106574908333e+01
1.068000000000000114e+02 3.149967834557870816e+01
1.072000000000000028e+02 3.144115829416112717e+01
1.076000000000000085e+02 3.138295792701127596e+01
1.080000000000000000e+02 3.132507429848076441e+01
1.084000000000000057e+02 3.125955457367591706e+01
1.088000000000000114e+02 3.120266068883083221e+01
1.092000000000000028e+02 3.114607373079932984e+01
1.096000000000000085e+02 3.108979089961443876e+01
1.100000000000000000e+02 3.103353389217586056e+01
1.104000000000000057e+02 3.097755510193183071e+01
1.108000000000000114e+02 3.092187415363019198e+01
1.112000000000000028e+02 3.086648836764368298e+01
1.116000000000000085e+02 3.081139509831532308e+01
1.120000000000000000e+02 3.075659173340300256e+01
1.124000000000000057e+02 3.070207569353494037e+01
1.128000000000000114e+02 3.064784443167618377e+01
1.132000000000000028e+02 3.059389543260563471e+01
1.136000000000000085e+02 3.054022621240342517e+01
1.140000000000000000e+02 3.048683431794847820e+01
1.144000000000000057e+02 3.043371732642582117e+01
1.148000000000000114e+02 3.037974426780491299e+01
1.152000000000000028e+02 3.032726700141245857e+01
1.156000000000000085e+02 3.027505704334195258e+01
1.160000000000000000e+02 3.022311209106835506e+01
1.164000000000000057e+02 3.017142987001317067e+01
1.168000000000000114e+02 3.012000813310697112e+01
1.172000000000000028e+02 3.006884466036013137e+01
1.176000000000000085e+02 3.001793725844192906e+01
1.180000000000000000e+02 2.996728376026754859e+01
1.184000000000000057e+02 2.991688202459294388e+01
1.188000000000000114e+02 2.986672993561743539e+01
1.192000000000000028e+02 2.981682540259360081e+01
1.196000000000000085e+02 2.976716635944470823e+01
1.200000000000000000e+02 2.971775076438917651e+01
1.204000000000000057e+02 2.966857659957199189e+01
1.208000000000000114e+02 2.961964187070314836e+01
1.212000000000000028e+02 2.957094460670256453e+01
1.216000000000000085e+02 2.952248285935171168e+01
1.220000000000000000e+02 2.947425470295153360e+01
1.224000000000000057e+02 2.942625823398672225e+01
1.228000000000000114e+02 2.937849157079606499e+01
1.232000000000000028e+02 2.933095285324879242e+01
1.236000000000000085e+02 2.928364024242681651e+01
1.240000000000000000e+02 2.923655192031269223e+01
1.244000000000000057e+02 2.918968608948320664e+01
1.248000000000000114e+02 2.914299476445245318e+01
1.252000000000000028e+02 2.910102275869335031e+01
1.256000000000000085e+02 2.905515060421661389e+01
1.260000000000000000e+02 2.900949221518535026e+01
1.264000000000000057e+02 2.896404590811104995e+01
1.268000000000000114e+02 2.891881001818578056e+01
1.272000000000000028e+02 2.887378289901476336e+01
1.276000000000000085e+02 2.882896292235362168e+01
1.280000000000000000e+02 2.878434847785024431e+01
1.284000000000000057e+02 2.873993797279113238e+01
1.288000000000000114e+02 2.869572983185214810e+01
1.291999999999999886e+02 2.865172249685358707e+01
1.296000000000000227e+02 2.860791442651943584e+01
1.300000000000000000e+02 2.856430409624086764e+01
1.304000000000000057e+02 2.852088999784364276e+01
1.308000000000000114e+02 2.847767063935960152e+01
1.311999999999999886e+02 2.843457250141408110e+01
1.316000000000000227e+02 2.839154712248677725e+01
1.320000000000000000e+02 2.834871306975554006e+01
1.324000000000000057e+02 2.830606890696774514e+01
1.328000000000000114e+02 2.826361321305327934e+01
1.331999999999999886e+02 2.822134458191754192e+01
1.336000000000000227e+02 2.817926162223792375e+01
1.340000000000000000e+02 2.813736295726371139e+01
1.344000000000000057e+02 2.809564722461917086e+01
1.348000000000000114e+02 2.805411307611005611e+01
1.351999999999999886e+02 2.801275917753323697e+01
1.356000000000000227e+02 2.797257837782532519e+01
1.360000000000000000e+02 2.793166449628404280e+01
1.364000000000000057e+02 2.789092662589051486e+01
1.368000000000000114e+02 2.785036348821421370e+01
1.371999999999999886e+02 2.780997381790162137e+01
1.376000000000000227e+02 2.776975636250367785e+01
1.380000000000000000e+02 2.772970988230611766e+01
1.384000000000000057e+02 2.768983315016241420e+01
1.388000000000000114e+02 2.765012495132948089e+01
1.392000000000000171e+02 2.761058408330601210e+01
1.395999999999999943e+02 2.757120935567331799e+01
1.400000000000000000e+02 2.753199958993880614e+01
1.404000000000000057e+02 2.749295361938185778e+01
1.408000000000000114e+02 2.745393523041761341e+01
1.412000000000000171e+02 2.741507370794060705e+01
1.415999999999999943e+02 2.737606582846761683e+01
1.420000000000000000e+02 2.733715820625982218e+01
1.424000000000000057e+02 2.729841098223417362e+01
1.428000000000000114e+02 2.725982304147722957e+01
1.432000000000000171e+02 2.722139327998393554e+01
1.435999999999999943e+02 2.718312060452002754e+01
1.440000000000000000e+02 2.714500393248648180e+01
1.444000000000000057e+02 2.710704219178615304e+01
1.448000000000000114e+02 2.706923432069243773e+01
1.452000000000000171e+02 2.703157926771987007e+01
1.455999999999999943e+02 2.699407599149678916e+01
1.460000000000000000e+02 2.695672346063988556e+01
1.464000000000000057e+02 2.691951899240427437e+01
1.468000000000000114e+02 2.688243936927458577e+01
1.472000000000000171e+02 2.684550750064231650e+01
1.475999999999999943e+02 2.680872239410201274e+01
1.480000000000000000e+02 2.677208306662914694e+01
1.484000000000000057e+02 2.673558854446578437e+01
1.488000000000000114e+02 2.669923786300800472e+01
1.492000000000000171e+02 2.666303006669488695e+01
1.495999999999999943e+02 2.662696420889925975e+01
1.500000000000000000e+02 2.659103935181997613e+01
