1.000000000000000000e+01 4.526779521592715696e+02
1.040000000000000036e+01 5.014041610223158614e+02
1.080000000000000071e+01 5.565793685901422805e+02
1.119999999999999929e+01 6.010578525599298700e+02
1.159999999999999964e+01 6.556793508245725661e+02
1.200000000000000000e+01 7.074775390248929625e+02
1.240000000000000036e+01 7.343451188224398720e+02
1.280000000000000071e+01 8.354588038009835600e+02
1.319999999999999929e+01 8.821221651027821054e+02
1.359999999999999964e+01 9.480652204303783037e+02
1.400000000000000000e+01 9.467620918455083938e+02
1.440000000000000036e+01 9.275356658861260257e+02
1.480000000000000071e+01 9.096401352368603739e+02
1.519999999999999929e+01 8.929199879764433945e+02
1.560000000000000142e+01 8.772448103429152297e+02
1.600000000000000000e+01 8.625042003309687288e+02
1.639999999999999858e+01 8.486039057621651409e+02
1.680000000000000071e+01 8.354628491247173088e+02
1.719999999999999929e+01 8.230108055159788591e+02
1.760000000000000142e+01 8.111865689131286672e+02
1.800000000000000000e+01 7.999364885817869890e+02
1.839999999999999858e+01 7.892132895307948957e+02
1.880000000000000071e+01 7.789751134187788466e+02
1.920000000000000284e+01 7.691847323326734340e+02
1.960000000000000142e+01 7.598088994208708300e+02
2.000000000000000000e+01 7.508178088210323722e+02
2.039999999999999858e+01 7.421846435832738962e+02
2.080000000000000071e+01 7.338851949755356827e+02
2.120000000000000284e+01 7.258975401016792830e+02
2.160000000000000142e+01 7.182017674683582982e+02
2.200000000000000000e+01 7.107797422207303271e+02
2.239999999999999858e+01 7.036149043857697052e+02
2.280000000000000071e+01 6.966920947290024060e+02
2.320000000000000284e+01 6.899974038296188610e+02
2.360000000000000142e+01 6.835180407721684333e+02
2.400000000000000000e+01 6.772422184869608373e+02
2.439999999999999858e+01 6.711590532809675551e+02
2.480000000000000071e+01 6.652584765131878157e+02
2.520000000000000284e+01 6.595311567035838607e+02
2.560000000000000142e+01 6.539684306386243406e+02
2.600000000000000000e+01 6.485622422614794687e+02
2.640000000000000213e+01 6.433050883206028630e+02
2.680000000000000071e+01 6.381899699043716510e+02
2.719999999999999929e+01 6.332103491175962517e+02
2.760000000000000142e+01 6.283601102628360877e+02
2.800000000000000000e+01 6.236335249793470439e+02
2.840000000000000213e+01 6.190252208681956745e+02
2.880000000000000071e+01 6.145301531960750481e+02
2.920000000000000284e+01 6.101435793246431558e+02
2.960000000000000142e+01 6.058610355583905402e+02
3.000000000000000000e+01 6.016783161434822205e+02
3.040000000000000213e+01 5.975914541837768184e+02
3.080000000000000071e+01 5.935967042692237783e+02
3.120000000000000284e+01 5.896905266367996319e+02
3.160000000000000142e+01 5.858695727057076965e+02
3.200000000000000000e+01 5.821306718472251305e+02
3.240000000000000568e+01 5.784708192657776635e+02
3.279999999999999716e+01 5.748871648819166467e+02
3.320000000000000284e+01 5.713770031201514712e+02
3.360000000000000142e+01 5.679377635153439314e+02
3.400000000000000000e+01 5.645670020607597053e+02
3.440000000000000568e+01 5.612623932291452320e+02
3.479999999999999716e+01 5.580217226054475077e+02
3.520000000000000284e+01 5.548428800761992079e+02
3.560000000000000142e+01 5.517238535262454207e+02
3.600000000000000000e+01 5.486627229984802625e+02
3.640000000000000568e+01 5.456576552766982786e+02
3.679999999999999716e+01 5.427068988555940905e+02
3.720000000000000284e+01 5.398087792654453096e+02
3.760000000000000142e+01 5.369616947221273904e+02
3.800000000000000000e+01 5.341641120758879424e+02
3.840000000000000568e+01 5.314145630347957194e+02
3.879999999999999716e+01 5.287116406409984393e+02
3.920000000000000284e+01 5.260539959799189091e+02
3.960000000000000142e+01 5.234403351043090424e+02
4.000000000000000000e+01 5.208694161566812681e+02
4.040000000000000568e+01 5.183400466750966871e+02
4.079999999999999716e+01 5.158510810685786510e+02
4.120000000000000284e+01 5.134014182496092644e+02
4.160000000000000142e+01 5.109899994122236535e+02
4.200000000000000000e+01 5.086158059451805116e+02
4.239999999999999858e+01 5.062778574705566825e+02
4.280000000000000426e+01 5.039752099989094063e+02
4.320000000000000284e+01 5.017069541928581771e+02
4.360000000000000142e+01 4.994722137316019825e+02
4.400000000000000000e+01 4.972701437694676656e+02
4.439999999999999858e+01 4.950999294821381795e+02
4.480000000000000426e+01 4.929607846946926202e+02
4.520000000000000284e+01 4.908519505860459731e+02
4.560000000000000142e+01 4.887726944647847631e+02
4.600000000000000000e+01 4.867223086117680850e+02
4.639999999999999858e+01 4.847001091852163199e+02
4.680000000000000426e+01 4.827054351843133873e+02
4.720000000000000284e+01 4.807376474676466387e+02
4.760000000000000142e+01 4.787961278230698099e+02
4.800000000000000000e+01 4.768802780858186452e+02
4.840000000000000568e+01 4.749895193019349335e+02
4.880000000000000426e+01 4.731232909342579660e+02
4.920000000000000284e+01 4.712810501084352950e+02
4.960000000000000142e+01 4.694622708965778770e+02
5.000000000000000000e+01 4.676664436363488448e+02
5.040000000000000568e+01 4.658930742834212424e+02
5.080000000000000426e+01 4.641416837953797767e+02
5.120000000000000284e+01 4.624118075452697099e+02
5.160000000000000142e+01 4.607029947631125992e+02
5.200000000000000000e+01 4.590148080038191551e+02
5.240000000000000568e+01 4.573468226400285062e+02
5.280000000000000426e+01 4.556986263785006486e+02
5.320000000000000284e+01 4.540698187987728716e+02
5.360000000000000142e+01 4.524600109128726331e+02
5.400000000000000000e+01 4.508688247449562709e+02
5.440000000000000568e+01 4.492958929298098383e+02
5.480000000000000426e+01 4.477408583292162803e+02
5.520000000000000284e+01 4.462033736652515472e+02
5.560000000000000142e+01 4.446831011696300493e+02
5.600000000000000000e+01 4.431797122482715281e+02
5.640000000000000568e+01 4.416928871603118978e+02
5.680000000000000426e+01 4.402223147108230705e+02
5.720000000000000284e+01 4.387676919565545290e+02
5.760000000000000142e+01 4.373287239240437998e+02
5.800000000000000000e+01 4.359051233394851579e+02
5.840000000000000568e+01 4.344966103697776703e+02
5.880000000000000426e+01 4.331029123742075058e+02
5.920000000000000284e+01 4.317237636662484306e+02
5.960000000000000142e+01 4.303589052849978884e+02
6.000000000000000000e+01 4.290080847757849369e+02
6.040000000000000568e+01 4.276710559795205882e+02
6.080000000000000426e+01 4.263475788303754825e+02
6.120000000000000284e+01 4.250374191614002370e+02
6.160000000000000142e+01 4.237403485177197808e+02
6.200000000000000000e+01 4.224561439769526601e+02
6.240000000000000568e+01 4.211845879765274958e+02
6.280000000000000426e+01 4.199254681475829898e+02
6.320000000000000284e+01 4.186785771551568587e+02
6.360000000000000142e+01 4.174437125443807872e+02
6.400000000000000000e+01 4.162206765924182719e+02
6.440000000000000568e+01 4.150092761658884797e+02
6.480000000000001137e+01 4.138093225835415296e+02
6.520000000000000284e+01 4.126206314839512856e+02
6.559999999999999432e+01 4.114430226980146585e+02
6.600000000000000000e+01 4.102763201260474943e+02
6.640000000000000568e+01 4.091203516192849747e+02
6.680000000000001137e+01 4.079749488655967866e+02
6.720000000000000284e+01 4.068399472792439724e+02
6.759999999999999432e+01 4.057151858945053959e+02
6.800000000000000000e+01 4.046005072630160271e+02
6.840000000000000568e+01 4.034957573546633398e+02
6.880000000000001137e+01 4.024007854618960209e+02
6.920000000000000284e+01 4.013154441073072007e+02
6.959999999999999432e+01 4.002395889543593626e+02
7.000000000000000000e+01 3.991730787211246252e+02
7.040000000000000568e+01 3.981157750969218796e+02
7.080000000000001137e+01 3.970675426617336257e+02
7.120000000000000284e+01 3.960282488082950749e+02
7.159999999999999432e+01 3.949977636667497336e+02
7.200000000000000000e+01 3.939759600317723880e+02
7.240000000000000568e+01 3.929627132920645067e+02
7.280000000000001137e+01 3.919579013621292347e+02
7.320000000000000284e+01 3.909614046162407135e+02
7.359999999999999432e+01 3.899731058245242821e+02
7.400000000000000000e+01 3.889928900910662151e+02
7.440000000000000568e+01 3.880206447939794998e+02
7.479999999999999716e+01 3.870562595273508464e+02
7.520000000000000284e+01 3.860996260449991837e+02
7.560000000000000853e+01 3.851506382059806697e+02
7.600000000000000000e+01 3.842091919217742770e+02
7.640000000000000568e+01 3.832751851050870755e+02
7.679999999999999716e+01 3.823485176202225944e+02
7.720000000000000284e+01 3.814290912349528071e+02
7.760000000000000853e+01 3.805168095738419538e+02
7.800000000000000000e+01 3.796115780729708149e+02
7.840000000000000568e+01 3.787133039360101066e+02
7.879999999999999716e+01 3.778218960915967841e+02
7.920000000000000284e+01 3.769372651519678357e+02
7.960000000000000853e+01 3.760593233728067730e+02
8.000000000000000000e+01 3.751879846142612678e+02
8.040000000000000568e+01 3.743231643030923124e+02
8.079999999999999716e+01 3.734647793959149453e+02
8.120000000000000284e+01 3.726127483434942178e+02
8.160000000000000853e+01 3.717669910560599646e+02
8.200000000000000000e+01 3.709274288696072972e+02
8.240000000000000568e+01 3.700939845131476886e+02
8.279999999999999716e+01 3.692665820768810363e+02
8.320000000000000284e+01 3.684451469812572100e+02
8.360000000000000853e+01 3.676296059468974136e+02
8.400000000000000000e+01 3.668198869653479051e+02
8.440000000000000568e+01 3.660159192706375961e+02
8.479999999999999716e+01 3.652176333116158276e+02
8.520000000000000284e+01 3.644249607250422400e+02
8.560000000000000853e+01 3.636378343094063439e+02
8.600000000000000000e+01 3.628561879994530841e+02
8.640000000000000568e+01 3.620799568413914358e+02
8.680000000000001137e+01 3.613090769687654529e+02
8.720000000000000284e+01 3.605434855789651465e+02
8.760000000000000853e+01 3.597831209103590595e+02
8.800000000000000000e+01 3.590279222200277900e+02
8.840000000000000568e+01 3.582778297620803869e+02
8.880000000000001137e+01 3.575327847665352010e+02
8.920000000000000284e+01 3.567927294187487064e+02
8.960000000000000853e+01 3.560576068393737614e+02
9.000000000000000000e+01 3.553273610648336103e+02
9.040000000000000568e+01 3.546019370282936620e+02
9.080000000000001137e+01 3.538812805411176896e+02
9.120000000000000284e+01 3.531653382747927026e+02
9.160000000000000853e+01 3.524540577433095336e+02
9.200000000000000000e+01 3.517473872859847575e+02
9.240000000000000568e+01 3.510452760507114931e+02
9.280000000000001137e+01 3.503476739776255613e+02
9.320000000000000284e+01 3.496545317831763100e+02
9.360000000000000853e+01 3.489658009445882954e+02
9.400000000000000000e+01 3.482814336847047798e+02
9.440000000000000568e+01 3.476013829571995188e+02
9.480000000000001137e+01 3.469256024321484233e+02
9.520000000000000284e+01 3.462540464819490467e+02
9.560000000000000853e+01 3.455866701675797685e+02
9.600000000000000000e+01 3.449234292251865668e+02
9.640000000000000568e+01 3.442642800529911256e+02
9.680000000000001137e+01 3.436091796985083420e+02
9.720000000000000284e+01 3.429580858460665809e+02
9.760000000000000853e+01 3.423109568046209006e+02
9.800000000000000000e+01 3.416677514958531106e+02
9.840000000000000568e+01 3.410284294425468943e+02
9.880000000000001137e+01 3.403929507572354964e+02
9.920000000000000284e+01 3.397612761311098666e+02
9.960000000000000853e+01 3.391333668231829392e+02
1.000000000000000000e+02 3.385091846497023766e+02
1.004000000000000057e+02 3.378886919738047254e+02
1.008000000000000114e+02 3.372718516954042229e+02
1.012000000000000028e+02 3.366586272413117626e+02
1.016000000000000085e+02 3.360489825555744119e+02
1.020000000000000000e+02 3.354428820900341179e+02
1.024000000000000057e+02 3.348402907950951999e+02
1.028000000000000114e+02 3.342411741106989211e+02
1.032000000000000028e+02 3.336454979574970707e+02
1.036000000000000085e+02 3.330532287282207449e+02
1.040000000000000000e+02 3.324643332792389288e+02
1.044000000000000057e+02 3.318787789223013647e+02
1.048000000000000114e+02 3.312965334164621254e+02
1.052000000000000028e+02 3.307175649601776968e+02
1.056000000000000085e+02 3.301418421835770118e+02
1.060000000000000000e+02 3.295693341408966717e+02
1.064000000000000057e+02 3.290000103030796481e+02
1.068000000000000114e+02 3.284338405505312721e+02
1.072000000000000028e+02 3.278707951660297795e+02
1.076000000000000085e+02 3.273108448277870934e+02
1.080000000000000000e+02 3.267539606026556385e+02
1.084000000000000057e+02 3.262001139394790812e+02
1.088000000000000114e+02 3.256492766625812010e+02
1.092000000000000028e+02 3.251014209653911848e+02
1.096000000000000085e+02 3.245565194042013104e+02
1.100000000000000000e+02 3.240145448920541753e+02
1.104000000000000057e+02 3.234754706927554366e+02
1.108000000000000114e+02 3.229392704150097870e+02
1.112000000000000028e+02 3.224059180066773820e+02
1.116000000000000085e+02 3.218753877491466824e+02
1.120000000000000000e+02 3.213476542518221208e+02
1.124000000000000057e+02 3.208226924467228400e+02
1.128000000000000114e+02 3.203004775831908546e+02
1.132000000000000028e+02 3.197809852227052829e+02
1.136000000000000085e+02 3.192641912337998633e+02
1.140000000000000000e+02 3.187500717870826747e+02
1.144000000000000057e+02 3.182386033503538556e+02
1.148000000000000114e+02 3.177297626838209794e+02
1.152000000000000028e+02 3.172235268354074265e+02
1.156000000000000085e+02 3.167198731361540922e+02
1.160000000000000000e+02 3.162187791957105674e+02
1.164000000000000057e+02 3.157202228979139704e+02
1.168000000000000114e+02 3.152241823964546938e+02
1.172000000000000028e+02 3.147306361106242889e+02
1.176000000000000085e+02 3.142395627211474789e+02
1.180000000000000000e+02 3.137509411660925593e+02
1.184000000000000057e+02 3.132647506368613790e+02
1.188000000000000114e+02 3.127809705742544111e+02
1.192000000000000028e+02 3.122995806646123356e+02
1.196000000000000085e+02 3.118205608360292445e+02
1.200000000000000000e+02 3.113438912546384358e+02
1.204000000000000057e+02 3.108695523209674434e+02
1.208000000000000114e+02 3.103975246663615621e+02
1.212000000000000028e+02 3.099277891494743926e+02
1.216000000000000085e+02 3.094603268528233571e+02
1.220000000000000000e+02 3.089951190794093350e+02
1.224000000000000057e+02 3.085321473493991107e+02
1.228000000000000114e+02 3.080713933968683591e+02
1.232000000000000028e+02 3.076128391666048856e+02
1.236000000000000085e+02 3.071564668109699028e+02
1.240000000000000000e+02 3.067022586868174585e+02
1.244000000000000057e+02 3.062501973524684900e+02
1.248000000000000114e+02 3.058002655647412098e+02
1.252000000000000028e+02 3.053524462760339588e+02
1.256000000000000085e+02 3.049067226314608661e+02
1.260000000000000000e+02 3.044630779660393500e+02
1.264000000000000057e+02 3.040214958019273581e+02
1.268000000000000114e+02 3.035819598457094912e+02
1.272000000000000028e+02 3.031444539857326959e+02
1.276000000000000085e+02 3.027089622894876015e+02
1.280000000000000000e+02 3.022754690010365834e+02
1.284000000000000057e+02 3.018439585384876409e+02
1.288000000000000114e+02 3.014144154915114768e+02
1.291999999999999886e+02 3.009868246189029151e+02
1.296000000000000227e+02 3.005611708461838703e+02
1.300000000000000000e+02 3.001374392632490071e+02
1.304000000000000057e+02 2.997156151220509059e+02
1.308000000000000114e+02 2.992956838343260415e+02
1.311999999999999886e+02 2.988776309693597568e+02
1.316000000000000227e+02 2.984614422517886965e+02
1.320000000000000000e+02 2.980471035594420641e+02
1.324000000000000057e+02 2.976346009212185777e+02
1.328000000000000114e+02 2.972239205149996906e+02
1.331999999999999886e+02 2.968150486655990790e+02
1.336000000000000227e+02 2.964079718427443026e+02
1.340000000000000000e+02 2.960026766590957550e+02
1.344000000000000057e+02 2.955991498682960241e+02
1.348000000000000114e+02 2.951973783630528487e+02
1.351999999999999886e+02 2.947973491732542470e+02
1.356000000000000227e+02 2.943990494641145688e+02
1.360000000000000000e+02 2.940024665343514698e+02
1.364000000000000057e+02 2.936075878143926730e+02
1.368000000000000114e+02 2.932144008646125144e+02
1.371999999999999886e+02 2.928228933735973669e+02
1.376000000000000227e+02 2.924330531564388593e+02
1.380000000000000000e+02 2.920448681530563135e+02
1.384000000000000057e+02 2.916583264265444768e+02
1.388000000000000114e+02 2.912734161615499033e+02
1.392000000000000171e+02 2.908901256626724035e+02
1.395999999999999943e+02 2.905084433528925274e+02
1.400000000000000000e+02 2.901283577720245148e+02
1.404000000000000057e+02 2.897498575751933458e+02
1.408000000000000114e+02 2.893729315313373149e+02
1.412000000000000171e+02 2.889975685217333421e+02
1.415999999999999943e+02 2.886237575385458740e+02
1.420000000000000000e+02 2.882514876833992048e+02
1.424000000000000057e+02 2.878807481659715677e+02
1.428000000000000114e+02 2.875115283026126463e+02
1.432000000000000171e+02 2.871438175149808671e+02
1.435999999999999943e+02 2.867776053287038849e+02
1.440000000000000000e+02 2.864128813720585072e+02
1.444000000000000057e+02 2.860496353746720501e+02
1.448000000000000114e+02 2.856878571662434183e+02
1.452000000000000171e+02 2.853275366752841364e+02
1.455999999999999943e+02 2.849686639278785947e+02
1.460000000000000000e+02 2.846112290464633361e+02
1.464000000000000057e+02 2.842552222486251026e+02
1.468000000000000114e+02 2.839006338459178096e+02
1.472000000000000171e+02 2.835474542426962898e+02
1.475999999999999943e+02 2.831956739349690793e+02
1.480000000000000000e+02 2.828452835092676310e+02
1.484000000000000057e+02 2.824962736415330369e+02
1.488000000000000114e+02 2.821486350960196887e+02
1.492000000000000171e+02 2.818023587242148551e+02
1.495999999999999943e+02 2.814574354637751412e+02
1.500000000000000000e+02 2.811138563374779551e+02
