1.000000000000000000e+01 1.228932359226716784e+02
1.040000000000000036e+01 1.387436115659158986e+02
1.080000000000000071e+01 1.447743103957586186e+02
1.119999999999999929e+01 1.469188180673092461e+02
1.159999999999999964e+01 1.418483839403411082e+02
1.200000000000000000e+01 1.366368746159876650e+02
1.240000000000000036e+01 1.319865906274421832e+02
1.280000000000000071e+01 1.277992970418381731e+02
1.319999999999999929e+01 1.239999723666751521e+02
1.359999999999999964e+01 1.208253357564762211e+02
1.400000000000000000e+01 1.181492356465037545e+02
1.440000000000000036e+01 1.158208044684317599e+02
1.480000000000000071e+01 1.137511976547255870e+02
1.519999999999999929e+01 1.118217414158279155e+02
1.560000000000000142e+01 1.100164911288665195e+02
1.600000000000000000e+01 1.083219975909261166e+02
1.639999999999999858e+01 1.067268173403046916e+02
1.680000000000000071e+01 1.052211370643126997e+02
1.719999999999999929e+01 1.005669038794258796e+02
1.760000000000000142e+01 9.449073718334112471e+01
1.800000000000000000e+01 9.304980837766595414e+01
1.839999999999999858e+01 9.167879607267299491e+01
1.880000000000000071e+01 8.897628623262133374e+01
1.920000000000000284e+01 8.776553506267505611e+01
1.960000000000000142e+01 8.660828571513586382e+01
2.000000000000000000e+01 8.550058969972593559e+01
2.039999999999999858e+01 8.443890196046106666e+01
2.080000000000000071e+01 8.342002866876674716e+01
2.120000000000000284e+01 8.243165510816233166e+01
2.160000000000000142e+01 8.146749707994973733e+01
2.200000000000000000e+01 8.053813562573917295e+01
2.239999999999999858e+01 7.964146953522971728e+01
2.280000000000000071e+01 7.877557447065950669e+01
2.320000000000000284e+01 7.793868399001613056e+01
2.360000000000000142e+01 7.712917302982467049e+01
2.400000000000000000e+01 7.634166680759368262e+01
2.439999999999999858e+01 7.551019778188631904e+01
2.480000000000000071e+01 7.469651738359884519e+01
2.520000000000000284e+01 6.976372185444162710e+01
2.560000000000000142e+01 6.897811672494776758e+01
2.600000000000000000e+01 6.821583693739511034e+01
2.640000000000000213e+01 6.747573886807009558e+01
2.680000000000000071e+01 6.675675666900386318e+01
2.719999999999999929e+01 6.616704704517958646e+01
2.760000000000000142e+01 6.552963340663808367e+01
2.800000000000000000e+01 6.490914719119444953e+01
2.840000000000000213e+01 6.430483837863140195e+01
2.880000000000000071e+01 6.371600326625151922e+01
2.920000000000000284e+01 6.314198081903280979e+01
2.960000000000000142e+01 6.258214936797767081e+01
3.000000000000000000e+01 6.203592361781983300e+01
3.040000000000000213e+01 6.150275193019253095e+01
3.080000000000000071e+01 6.098211385259939021e+01
3.120000000000000284e+01 6.047351786717199218e+01
3.160000000000000142e+01 5.997649933634139074e+01
3.200000000000000000e+01 5.986052695869537388e+01
3.240000000000000568e+01 5.940623610369543428e+01
3.279999999999999716e+01 5.896166305018736153e+01
3.320000000000000284e+01 5.852361737602461034e+01
3.360000000000000142e+01 5.808705088786422266e+01
3.400000000000000000e+01 5.765967578194241128e+01
3.440000000000000568e+01 5.724116959473443700e+01
3.479999999999999716e+01 5.683122560197807616e+01
3.520000000000000284e+01 5.642955183907147187e+01
3.560000000000000142e+01 5.603587019532328384e+01
3.600000000000000000e+01 5.564200795590228665e+01
3.640000000000000568e+01 5.524639099613670368e+01
3.679999999999999716e+01 5.549359874284137106e+01
3.720000000000000284e+01 5.513906802774859273e+01
3.760000000000000142e+01 5.479098859361612028e+01
3.800000000000000000e+01 5.444916374863373676e+01
3.840000000000000568e+01 5.411340517711566633e+01
3.879999999999999716e+01 5.378353248347880822e+01
3.920000000000000284e+01 5.345937276634846569e+01
3.960000000000000142e+01 5.314018594742414336e+01
4.000000000000000000e+01 5.282335414566391307e+01
4.040000000000000568e+01 5.251182796608744496e+01
4.079999999999999716e+01 5.236212034637371460e+01
4.120000000000000284e+01 5.206360533648354050e+01
4.160000000000000142e+01 5.176991440675334388e+01
4.200000000000000000e+01 5.148091692234402217e+01
4.239999999999999858e+01 5.119648719053663655e+01
4.280000000000000426e+01 5.091650422153099953e+01
4.320000000000000284e+01 5.064085150330750196e+01
4.360000000000000142e+01 5.036941678958101676e+01
4.400000000000000000e+01 5.010209189995363488e+01
4.439999999999999858e+01 4.983877253144247277e+01
4.480000000000000426e+01 4.957935808062202909e+01
4.520000000000000284e+01 4.932375147567995555e+01
4.560000000000000142e+01 4.907185901773654280e+01
4.600000000000000000e+01 4.882359023082893401e+01
4.639999999999999858e+01 4.857885772000365421e+01
4.680000000000000426e+01 4.833757703700324271e+01
4.720000000000000284e+01 4.809966655306961769e+01
4.760000000000000142e+01 4.786504733842109260e+01
4.800000000000000000e+01 4.763370332463549772e+01
4.840000000000000568e+01 4.740566007558486206e+01
4.880000000000000426e+01 4.718063426597470311e+01
4.920000000000000284e+01 4.695807446677869734e+01
4.960000000000000142e+01 4.677709728465187311e+01
5.000000000000000000e+01 4.655924028960166794e+01
5.040000000000000568e+01 4.634420267504251711e+01
5.080000000000000426e+01 4.613192368845976432e+01
5.120000000000000284e+01 4.592234440936545781e+01
5.160000000000000142e+01 4.571540767837380770e+01
5.200000000000000000e+01 4.551105802962371172e+01
5.240000000000000568e+01 4.530924162636247132e+01
5.280000000000000426e+01 4.510990619951644476e+01
5.320000000000000284e+01 4.519215736223303992e+01
5.360000000000000142e+01 4.501103289921203299e+01
5.400000000000000000e+01 4.483200539407012286e+01
5.440000000000000568e+01 4.465503425923267145e+01
5.480000000000000426e+01 4.448008000874108347e+01
5.520000000000000284e+01 4.430710421978359648e+01
5.560000000000000142e+01 4.413606949586747419e+01
5.600000000000000000e+01 4.396693943155005257e+01
5.640000000000000568e+01 4.375868774628075641e+01
5.680000000000000426e+01 4.359649519614914936e+01
5.720000000000000284e+01 4.343606081679462960e+01
5.760000000000000142e+01 4.327735263394468745e+01
5.800000000000000000e+01 4.312033949001864386e+01
5.840000000000000568e+01 4.296499101727003023e+01
5.880000000000000426e+01 4.281127761200869486e+01
5.920000000000000284e+01 4.265893601647954370e+01
5.960000000000000142e+01 4.250728871922731145e+01
6.000000000000000000e+01 4.235720290980903258e+01
6.040000000000000568e+01 4.220865163700347011e+01
6.080000000000000426e+01 4.206160860234798804e+01
6.120000000000000284e+01 4.191604813979803623e+01
6.160000000000000142e+01 4.177194519616079305e+01
6.200000000000000000e+01 4.162927531226847577e+01
6.240000000000000568e+01 4.148801460485795189e+01
6.280000000000000426e+01 4.134813974912577805e+01
6.320000000000000284e+01 4.120962796192861788e+01
6.360000000000000142e+01 4.107245698560109304e+01
6.400000000000000000e+01 4.093660507236415214e+01
6.440000000000000568e+01 4.080078785675263475e+01
6.480000000000001137e+01 4.066566641506486235e+01
6.520000000000000284e+01 4.053183573023591890e+01
6.559999999999999432e+01 4.039927504874448516e+01
6.600000000000000000e+01 4.026796408507942004e+01
6.640000000000000568e+01 4.013788300818782773e+01
6.680000000000001137e+01 4.000901242840150474e+01
6.720000000000000284e+01 3.988133338482173684e+01
6.759999999999999432e+01 3.992683529621088923e+01
6.800000000000000000e+01 3.980372163961081355e+01
6.840000000000000568e+01 3.968171899448974216e+01
6.880000000000001137e+01 3.956081041303727375e+01
6.920000000000000284e+01 3.944097931111738120e+01
6.959999999999999432e+01 3.932220945822443525e+01
7.000000000000000000e+01 3.920448496777817127e+01
7.040000000000000568e+01 3.908627688283880985e+01
7.080000000000001137e+01 3.896728869802240780e+01
7.120000000000000284e+01 3.886310128125310115e+01
7.159999999999999432e+01 3.874769289483939616e+01
7.200000000000000000e+01 3.863328399954806258e+01
7.240000000000000568e+01 3.851985998799439415e+01
7.280000000000001137e+01 3.840740655290808547e+01
7.320000000000000284e+01 3.829590967920162115e+01
7.359999999999999432e+01 3.818535563629449570e+01
7.400000000000000000e+01 3.807573097068349455e+01
7.440000000000000568e+01 3.797637364027522722e+01
7.479999999999999716e+01 3.787117367177037863e+01
7.520000000000000284e+01 3.776682989602210228e+01
7.560000000000000853e+01 3.766333055175222455e+01
7.600000000000000000e+01 3.756066410468877592e+01
7.640000000000000568e+01 3.745881924193264467e+01
7.679999999999999716e+01 3.735778486649490304e+01
7.720000000000000284e+01 3.725755009199863110e+01
7.760000000000000853e+01 3.715810423753939062e+01
7.800000000000000000e+01 3.705943682269874273e+01
7.840000000000000568e+01 3.696153756270548740e+01
7.879999999999999716e+01 3.686439636373940942e+01
7.920000000000000284e+01 3.676800331837255698e+01
7.960000000000000853e+01 3.667234870114344858e+01
8.000000000000000000e+01 3.657742296425943351e+01
8.040000000000000568e+01 3.648321673342296378e+01
8.079999999999999716e+01 3.638972080377756413e+01
8.120000000000000284e+01 3.629692613596940021e+01
8.160000000000000853e+01 3.620482385232052991e+01
8.200000000000000000e+01 3.611340523311024242e+01
8.240000000000000568e+01 3.602266171296069075e+01
8.279999999999999716e+01 3.593221861415108265e+01
8.320000000000000284e+01 3.584232506294539178e+01
8.360000000000000853e+01 3.575308661375065356e+01
8.400000000000000000e+01 3.566449521353753482e+01
8.440000000000000568e+01 3.557567898605089596e+01
8.479999999999999716e+01 3.548731273658265906e+01
8.520000000000000284e+01 3.539958197576468280e+01
8.560000000000000853e+01 3.531247904386648173e+01
8.600000000000000000e+01 3.522596231362791031e+01
8.640000000000000568e+01 3.514004721010815757e+01
8.680000000000001137e+01 3.505473541062143994e+01
8.720000000000000284e+01 3.497001982844385282e+01
8.760000000000000853e+01 3.488589349353446778e+01
8.800000000000000000e+01 3.480234955006459785e+01
8.840000000000000568e+01 3.471938125401104713e+01
8.880000000000001137e+01 3.463698197081114927e+01
8.920000000000000284e+01 3.455514517307812383e+01
8.960000000000000853e+01 3.447386443837446990e+01
9.000000000000000000e+01 3.439313344704201825e+01
9.040000000000000568e+01 3.431294598008673802e+01
9.080000000000001137e+01 3.423329591711676301e+01
9.120000000000000284e+01 3.415417723433193942e+01
9.160000000000000853e+01 3.407558400256357345e+01
9.200000000000000000e+01 3.399751038536267345e+01
9.240000000000000568e+01 3.391995063713544312e+01
9.280000000000001137e+01 3.384289910132451240e+01
9.320000000000000284e+01 3.376635020863475489e+01
9.360000000000000853e+01 3.369029847530217836e+01
9.400000000000000000e+01 3.375011748664495315e+01
9.440000000000000568e+01 3.367673916183674976e+01
9.480000000000001137e+01 3.363693275960548590e+01
9.520000000000000284e+01 3.356487969002765226e+01
9.560000000000000853e+01 3.349327942814388592e+01
9.600000000000000000e+01 3.342212719132248822e+01
9.640000000000000568e+01 3.335452565256761659e+01
9.680000000000001137e+01 3.328497489109197716e+01
9.720000000000000284e+01 3.321585241019019463e+01
9.760000000000000853e+01 3.314715377525090645e+01
9.800000000000000000e+01 3.307887461621284331e+01
9.840000000000000568e+01 3.301101062635367356e+01
9.880000000000001137e+01 3.294355756110661559e+01
9.920000000000000284e+01 3.287651123690421429e+01
9.960000000000000853e+01 3.280986753004834355e+01
1.000000000000000000e+02 3.274362237560589506e+01
1.004000000000000057e+02 3.267777176632938563e+01
1.008000000000000114e+02 3.261231175160186524e+01
1.012000000000000028e+02 3.254723843640539371e+01
1.016000000000000085e+02 3.248254798031252477e+01
1.020000000000000000e+02 3.241823659650030010e+01
1.024000000000000057e+02 3.235430055078584388e+01
1.028000000000000114e+02 3.229073616068335895e+01
1.032000000000000028e+02 3.222753979448174988e+01
1.036000000000000085e+02 3.216470787034235457e+01
1.040000000000000000e+02 3.210223685541637195e+01
1.044000000000000057e+02 3.204012326498134655e+01
1.048000000000000114e+02 3.197836366159630472e+01
1.052000000000000028e+02 3.191695465427505951e+01
1.056000000000000085e+02 3.185596301770351602e+01
1.060000000000000000e+02 3.179550245176995205e+01
1.064000000000000057e+02 3.173537861154340689e+01
1.068000000000000114e+02 3.167558832610169972e+01
1.072000000000000028e+02 3.161612846656736053e+01
1.076000000000000085e+02 3.155699594538949881e+01
1.080000000000000000e+02 3.149818771564071085e+01
1.084000000000000057e+02 3.143175084289775256e+01
1.088000000000000114e+02 3.137394716557822960e+01
1.092000000000000028e+02 3.131645767439692207e+01
1.096000000000000085e+02 3.125927947489068615e+01
1.100000000000000000e+02 3.120213417107198950e+01
1.104000000000000057e+02 3.114527406507777130e+01
1.108000000000000114e+02 3.108871869188829606e+01
1.112000000000000028e+02 3.103246528362090473e+01
1.116000000000000085e+02 3.097651110784474682e+01
1.120000000000000000e+02 3.092085346699530035e+01
1.124000000000000057e+02 3.086548969780059437e+01
1.128000000000000114e+02 3.081041717071904884e+01
1.132000000000000028e+02 3.075563328938862995e+01
1.136000000000000085e+02 3.070113549008688736e+01
1.140000000000000000e+02 3.064692124120189121e+01
1.144000000000000057e+02 3.059298804271352878e+01
1.148000000000000114e+02 3.053933342568513254e+01
1.152000000000000028e+02 3.048595495176508763e+01
1.156000000000000085e+02 3.043285021269820589e+01
1.160000000000000000e+02 3.038001682984667795e+01
1.164000000000000057e+02 3.032745245372029430e+01
1.168000000000000114e+02 3.027515476351589996e+01
1.172000000000000028e+02 3.022309141735802029e+01
1.176000000000000085e+02 3.017121930301915000e+01
1.180000000000000000e+02 3.010554165656353476e+01
1.184000000000000057e+02 3.005433448000818686e+01
1.188000000000000114e+02 3.000338233787940112e+01
1.192000000000000028e+02 2.995268308023303305e+01
1.196000000000000085e+02 2.990223458265854362e+01
1.200000000000000000e+02 2.985203474588823624e+01
1.204000000000000057e+02 2.980208149541369167e+01
1.208000000000000114e+02 2.975237278110951777e+01
1.212000000000000028e+02 2.970290657686392066e+01
1.216000000000000085e+02 2.965368088021629944e+01
1.220000000000000000e+02 2.960469371200137090e+01
1.224000000000000057e+02 2.955594311599990220e+01
1.228000000000000114e+02 2.950742715859593090e+01
1.232000000000000028e+02 2.945914392844007068e+01
1.236000000000000085e+02 2.941109153611913030e+01
1.240000000000000000e+02 2.936326811383160873e+01
1.244000000000000057e+02 2.931567181506907360e+01
1.248000000000000114e+02 2.926830081430337671e+01
1.252000000000000028e+02 2.922567291084154562e+01
1.256000000000000085e+02 2.917914899462043721e+01
1.260000000000000000e+02 2.913284293633409661e+01
1.264000000000000057e+02 2.908675300963381005e+01
1.268000000000000114e+02 2.904087750744988838e+01
1.272000000000000028e+02 2.899521474171414326e+01
1.276000000000000085e+02 2.894976304308715953e+01
1.280000000000000000e+02 2.890452076069044907e+01
1.284000000000000057e+02 2.885948626184320887e+01
1.288000000000000114e+02 2.881465793180372970e+01
1.291999999999999886e+02 2.877003417351526693e+01
1.296000000000000227e+02 2.872561340735632385e+01
1.300000000000000000e+02 2.868137456869368052e+01
1.304000000000000057e+02 2.863713978375898606e+01
1.308000000000000114e+02 2.859310581258353068e+01
1.311999999999999886e+02 2.854919907927319045e+01
1.316000000000000227e+02 2.850537106645625229e+01
1.320000000000000000e+02 2.846174028611746465e+01
1.324000000000000057e+02 2.841830524745982700e+01
1.328000000000000114e+02 2.837506447550815736e+01
1.331999999999999886e+02 2.833201651089287054e+01
1.336000000000000227e+02 2.828915990963736249e+01
1.340000000000000000e+02 2.824649324294895436e+01
1.344000000000000057e+02 2.820401509701324727e+01
1.348000000000000114e+02 2.816172407279202616e+01
1.351999999999999886e+02 2.811961878582432206e+01
1.356000000000000227e+02 2.807769786603089202e+01
1.360000000000000000e+02 2.803595995752183967e+01
1.364000000000000057e+02 2.799440371840735864e+01
1.368000000000000114e+02 2.795302782061166980e+01
1.371999999999999886e+02 2.791183094968986111e+01
1.376000000000000227e+02 2.787081180464778996e+01
1.380000000000000000e+02 2.782996909776484173e+01
1.384000000000000057e+02 2.778930155441954142e+01
1.388000000000000114e+02 2.774880791291803561e+01
1.392000000000000171e+02 2.770848692432524274e+01
1.395999999999999943e+02 2.766833735229874947e+01
1.400000000000000000e+02 2.762835797292532192e+01
1.404000000000000057e+02 2.758854757456005657e+01
1.408000000000000114e+02 2.754876989918339802e+01
1.412000000000000171e+02 2.750915418773834631e+01
1.415999999999999943e+02 2.746970447628798695e+01
1.420000000000000000e+02 2.743041959652571649e+01
1.424000000000000057e+02 2.739129839168714398e+01
1.428000000000000114e+02 2.735233971640328576e+01
1.432000000000000171e+02 2.731781666350060789e+01
1.435999999999999943e+02 2.727936517663113847e+01
1.440000000000000000e+02 2.724107177795966095e+01
1.444000000000000057e+02 2.720293537499073722e+01
1.448000000000000114e+02 2.716495488583217011e+01
1.452000000000000171e+02 2.712712923906252627e+01
1.455999999999999943e+02 2.708267063645818240e+01
1.460000000000000000e+02 2.704549260371147312e+01
1.464000000000000057e+02 2.700846464292384752e+01
1.468000000000000114e+02 2.697158573415136829e+01
1.472000000000000171e+02 2.693485486719423250e+01
1.475999999999999943e+02 2.689827104147678583e+01
1.480000000000000000e+02 2.686183326592935927e+01
1.484000000000000057e+02 2.682554055887192135e+01
1.488000000000000114e+02 2.678939194789942135e+01
1.492000000000000171e+02 2.675338646976888413e+01
1.495999999999999943e+02 2.671752317028816037e+01
1.500000000000000000e+02 2.668180110420632900e+01
