1.000000000000000000e+01 3.991884354706090221e+02
1.040000000000000036e+01 4.337275866930700658e+02
1.080000000000000071e+01 4.850324754337694912e+02
1.119999999999999929e+01 5.609119601793941001e+02
1.159999999999999964e+01 6.293035629068924663e+02
1.200000000000000000e+01 6.715082410221450573e+02
1.240000000000000036e+01 7.207200273293653936e+02
1.280000000000000071e+01 7.763537452743270251e+02
1.319999999999999929e+01 8.313768060255683849e+02
1.359999999999999964e+01 8.752288625040544048e+02
1.400000000000000000e+01 8.666664166296286567e+02
1.440000000000000036e+01 8.666618647015337729e+02
1.480000000000000071e+01 8.492243606145483454e+02
1.519999999999999929e+01 8.329414119073724123e+02
1.560000000000000142e+01 8.176845565119970161e+02
1.600000000000000000e+01 8.033451175180399559e+02
1.639999999999999858e+01 7.898303606358748539e+02
1.680000000000000071e+01 7.770605423660958877e+02
1.719999999999999929e+01 7.649666112064367098e+02
1.760000000000000142e+01 7.534883953899463904e+02
1.800000000000000000e+01 7.425731583475735533e+02
1.839999999999999858e+01 7.321744357213593730e+02
1.880000000000000071e+01 7.222510904931227742e+02
1.920000000000000284e+01 7.127665389019591657e+02
1.960000000000000142e+01 7.036881114078012160e+02
2.000000000000000000e+01 6.949865214032436143e+02
2.039999999999999858e+01 6.866354206100096462e+02
2.080000000000000071e+01 6.786110247518934102e+02
2.120000000000000284e+01 6.708917966097212684e+02
2.160000000000000142e+01 6.634581762420997393e+02
2.200000000000000000e+01 6.562923502158797646e+02
2.239999999999999858e+01 6.493780532885846242e+02
2.280000000000000071e+01 6.427003972349647256e+02
2.320000000000000284e+01 6.362457224946347196e+02
2.360000000000000142e+01 6.300014690991035877e+02
2.400000000000000000e+01 6.239560639605435881e+02
2.439999999999999858e+01 6.180988221061519425e+02
2.480000000000000071e+01 6.124198598473581114e+02
2.520000000000000284e+01 6.069100182026652419e+02
2.560000000000000142e+01 6.015607951621917664e+02
2.600000000000000000e+01 5.963642856031224255e+02
2.640000000000000213e+01 5.913131278477432033e+02
2.680000000000000071e+01 5.864004560069798799e+02
2.719999999999999929e+01 5.816198573782561425e+02
2.760000000000000142e+01 5.769653342717177793e+02
2.800000000000000000e+01 5.724312697271709567e+02
2.840000000000000213e+01 5.680123966584563959e+02
2.880000000000000071e+01 5.637037700248456531e+02
2.920000000000000284e+01 5.595007416823714266e+02
2.960000000000000142e+01 5.553989376133777114e+02
3.000000000000000000e+01 5.513942372713152054e+02
3.040000000000000213e+01 5.474827548109722102e+02
3.080000000000000071e+01 5.436608220028217602e+02
3.120000000000000284e+01 5.399249726546912598e+02
3.160000000000000142e+01 5.362719283851429282e+02
3.200000000000000000e+01 5.326985856112956981e+02
3.240000000000000568e+01 5.292020036297316210e+02
3.279999999999999716e+01 5.257793936829802988e+02
3.320000000000000284e+01 5.224281089161488580e+02
3.360000000000000142e+01 5.191456351388266057e+02
3.400000000000000000e+01 5.159295823166278296e+02
3.440000000000000568e+01 5.127776767248682290e+02
3.479999999999999716e+01 5.096877537039958952e+02
3.520000000000000284e+01 5.066577509626965821e+02
3.560000000000000142e+01 5.036857023801513833e+02
3.600000000000000000e+01 5.007697322638330206e+02
3.640000000000000568e+01 4.979080500235930913e+02
3.679999999999999716e+01 4.950989452266520630e+02
3.720000000000000284e+01 4.923407830015497666e+02
3.760000000000000142e+01 4.896319997621773155e+02
3.800000000000000000e+01 4.869710992257439557e+02
3.840000000000000568e+01 4.843566487009776438e+02
3.879999999999999716e+01 4.817872756250461634e+02
3.920000000000000284e+01 4.792616643296421444e+02
3.960000000000000142e+01 4.767785530184406184e+02
4.000000000000000000e+01 4.743367309397131066e+02
4.040000000000000568e+01 4.719350357393120703e+02
4.079999999999999716e+01 4.695723509805180811e+02
4.120000000000000284e+01 4.672476038184014442e+02
4.160000000000000142e+01 4.649597628173996782e+02
4.200000000000000000e+01 4.627078359017521052e+02
4.239999999999999858e+01 4.604908684292980752e+02
4.280000000000000426e+01 4.583079413799170538e+02
4.320000000000000284e+01 4.561581696505979266e+02
4.360000000000000142e+01 4.540407004497662911e+02
4.400000000000000000e+01 4.519547117840805868e+02
4.439999999999999858e+01 4.498994110314439467e+02
4.480000000000000426e+01 4.478740335944572166e+02
4.520000000000000284e+01 4.458778416289893585e+02
4.560000000000000142e+01 4.439101228429384491e+02
4.600000000000000000e+01 4.419701893606303429e+02
4.639999999999999858e+01 4.400573766486417639e+02
4.680000000000000426e+01 4.381710424991406398e+02
4.720000000000000284e+01 4.363105660671268424e+02
4.760000000000000142e+01 4.344753469582092862e+02
4.800000000000000000e+01 4.326648043638076615e+02
4.840000000000000568e+01 4.308783762408742177e+02
4.880000000000000426e+01 4.291155185334458793e+02
4.920000000000000284e+01 4.273757044335138744e+02
4.960000000000000142e+01 4.256584236788802400e+02
5.000000000000000000e+01 4.239631818858217684e+02
5.040000000000000568e+01 4.222894999145339057e+02
5.080000000000000426e+01 4.206369132654593841e+02
5.120000000000000284e+01 4.190049715047344989e+02
5.160000000000000142e+01 4.173932377171020107e+02
5.200000000000000000e+01 4.158012879847434533e+02
5.240000000000000568e+01 4.142287108905890705e+02
5.280000000000000426e+01 4.126751070447516554e+02
5.320000000000000284e+01 4.111400886328174238e+02
5.360000000000000142e+01 4.096232789848072002e+02
5.400000000000000000e+01 4.081243121636962883e+02
5.440000000000000568e+01 4.066428325724464230e+02
5.480000000000000426e+01 4.051784945785717582e+02
5.520000000000000284e+01 4.037309621553168881e+02
5.560000000000000142e+01 4.022999085385825424e+02
5.600000000000000000e+01 4.008850158987856389e+02
5.640000000000000568e+01 3.994859750268874450e+02
5.680000000000000426e+01 3.981024850338716874e+02
5.720000000000000284e+01 3.967342530629923090e+02
5.760000000000000142e+01 3.953809940141537709e+02
5.800000000000000000e+01 3.940424302798203939e+02
5.840000000000000568e+01 3.927182914918885785e+02
5.880000000000000426e+01 3.914083142789843350e+02
5.920000000000000284e+01 3.901122420336817527e+02
5.960000000000000142e+01 3.888298246891644681e+02
6.000000000000000000e+01 3.875608185048791938e+02
6.040000000000000568e+01 3.863049858607554370e+02
6.080000000000000426e+01 3.850620950595869090e+02
6.120000000000000284e+01 3.838319201371953113e+02
6.160000000000000142e+01 3.826142406800133813e+02
6.200000000000000000e+01 3.814088416497483536e+02
6.240000000000000568e+01 3.802155132147989889e+02
6.280000000000000426e+01 3.790340505881233639e+02
6.320000000000000284e+01 3.778642538712628607e+02
6.360000000000000142e+01 3.767059279042503022e+02
6.400000000000000000e+01 3.755588821211385948e+02
6.440000000000000568e+01 3.744229304109034047e+02
6.480000000000001137e+01 3.732978909834830006e+02
6.520000000000000284e+01 3.721835862407325521e+02
6.559999999999999432e+01 3.710798426520807425e+02
6.600000000000000000e+01 3.699864906346862199e+02
6.640000000000000568e+01 3.689033644379019279e+02
6.680000000000001137e+01 3.678303020318654717e+02
6.720000000000000284e+01 3.667671450000412392e+02
6.759999999999999432e+01 3.657137384355499989e+02
6.800000000000000000e+01 3.646699308411274956e+02
6.840000000000000568e+01 3.636355740325631132e+02
6.880000000000001137e+01 3.626105230454759294e+02
6.920000000000000284e+01 3.615946360452919635e+02
6.959999999999999432e+01 3.605877742402932995e+02
7.000000000000000000e+01 3.595898017976145411e+02
7.040000000000000568e+01 3.586005857620714323e+02
7.080000000000001137e+01 3.576199959777055142e+02
7.120000000000000284e+01 3.566479050119407930e+02
7.159999999999999432e+01 3.556841880822482835e+02
7.200000000000000000e+01 3.547287229852207133e+02
7.240000000000000568e+01 3.537813900279649033e+02
7.280000000000001137e+01 3.528420719617221266e+02
7.320000000000000284e+01 3.519106539176301567e+02
7.359999999999999432e+01 3.509870233445471399e+02
7.400000000000000000e+01 3.500710699488585078e+02
7.440000000000000568e+01 3.491626856361922364e+02
7.479999999999999716e+01 3.482617644549712281e+02
7.520000000000000284e+01 3.473682025417348314e+02
7.560000000000000853e+01 3.464818980681635026e+02
7.600000000000000000e+01 3.456027511897448221e+02
7.640000000000000568e+01 3.447306639960204393e+02
7.679999999999999716e+01 3.438655404623565914e+02
7.720000000000000284e+01 3.430072864031830022e+02
7.760000000000000853e+01 3.421558094266478633e+02
7.800000000000000000e+01 3.413110188906383087e+02
7.840000000000000568e+01 3.404728258601170978e+02
7.879999999999999716e+01 3.396411430657302617e+02
7.920000000000000284e+01 3.388158848636400080e+02
7.960000000000000853e+01 3.379969671965407656e+02
8.000000000000000000e+01 3.371843075558170995e+02
8.040000000000000568e+01 3.363778249448035922e+02
8.079999999999999716e+01 3.355774398431098007e+02
8.120000000000000284e+01 3.347830741719727143e+02
8.160000000000000853e+01 3.339946512606034048e+02
8.200000000000000000e+01 3.332120958134917146e+02
8.240000000000000568e+01 3.324353338786394261e+02
8.279999999999999716e+01 3.316642928166897946e+02
8.320000000000000284e+01 3.308989012709226358e+02
8.360000000000000853e+01 3.301390891380880248e+02
8.400000000000000000e+01 3.293847875400496719e+02
8.440000000000000568e+01 3.286359287962121130e+02
8.479999999999999716e+01 3.278924463967061342e+02
8.520000000000000284e+01 3.271542749763073630e+02
8.560000000000000853e+01 3.264213502890647760e+02
8.600000000000000000e+01 3.256936091836164451e+02
8.640000000000000568e+01 3.249709895791701797e+02
8.680000000000001137e+01 3.242534304421279217e+02
8.720000000000000284e+01 3.235408717633342803e+02
8.760000000000000853e+01 3.228332545359282335e+02
8.800000000000000000e+01 3.221305207337805427e+02
8.840000000000000568e+01 3.214326132904976134e+02
8.880000000000001137e+01 3.207394760789744623e+02
8.920000000000000284e+01 3.200510538914803647e+02
8.960000000000000853e+01 3.193672924202596732e+02
9.000000000000000000e+01 3.186881382386342239e+02
9.040000000000000568e+01 3.180135387825882844e+02
9.080000000000001137e+01 3.173434423328263279e+02
9.120000000000000284e+01 3.166777979972852677e+02
9.160000000000000853e+01 3.160165556940892202e+02
9.200000000000000000e+01 3.153596661349341730e+02
9.240000000000000568e+01 3.147070808088883496e+02
9.280000000000001137e+01 3.140587519665969580e+02
9.320000000000000284e+01 3.134146326048794435e+02
9.360000000000000853e+01 3.127746764517065685e+02
9.400000000000000000e+01 3.121388379515485099e+02
9.440000000000000568e+01 3.115070722510801033e+02
9.480000000000001137e+01 3.108793351852363571e+02
9.520000000000000284e+01 3.102555832636049900e+02
9.560000000000000853e+01 3.096357736571486043e+02
9.600000000000000000e+01 3.090198641852459218e+02
9.640000000000000568e+01 3.084078133030434401e+02
9.680000000000001137e+01 3.077995800891086446e+02
9.720000000000000284e+01 3.071951242333763048e+02
9.760000000000000853e+01 3.065944060253793282e+02
9.800000000000000000e+01 3.059973863427575225e+02
9.840000000000000568e+01 3.054040266400338055e+02
9.880000000000001137e+01 3.048142889376541120e+02
9.920000000000000284e+01 3.042281358112807652e+02
9.960000000000000853e+01 3.036455303813334581e+02
1.000000000000000000e+02 3.030664363027713648e+02
1.004000000000000057e+02 3.024908177551096742e+02
1.008000000000000114e+02 3.019186394326634968e+02
1.012000000000000028e+02 3.013498665350142574e+02
1.016000000000000085e+02 3.007844647576912962e+02
1.020000000000000000e+02 3.002224002830640188e+02
1.024000000000000057e+02 2.996636397714381133e+02
1.028000000000000114e+02 2.991081503523512879e+02
1.032000000000000028e+02 2.985558996160626180e+02
1.036000000000000085e+02 2.980068556052301574e+02
1.040000000000000000e+02 2.974609868067734055e+02
1.044000000000000057e+02 2.969182621439133527e+02
1.048000000000000114e+02 2.963786509683882286e+02
1.052000000000000028e+02 2.958421230528380761e+02
1.056000000000000085e+02 2.953086485833550796e+02
1.060000000000000000e+02 2.947781981521956141e+02
1.064000000000000057e+02 2.942507427506481577e+02
1.068000000000000114e+02 2.937262537620558760e+02
1.072000000000000028e+02 2.932047029549871695e+02
1.076000000000000085e+02 2.926860624765520242e+02
1.080000000000000000e+02 2.921703048458603007e+02
1.084000000000000057e+02 2.916574029476184364e+02
1.088000000000000114e+02 2.911473300258600148e+02
1.092000000000000028e+02 2.906400596778091767e+02
1.096000000000000085e+02 2.901355658478707937e+02
1.100000000000000000e+02 2.896338228217466622e+02
1.104000000000000057e+02 2.891348052206732291e+02
1.108000000000000114e+02 2.886384879957780072e+02
1.112000000000000028e+02 2.881448464225529733e+02
1.116000000000000085e+02 2.876538560954400623e+02
1.120000000000000000e+02 2.871654929225281307e+02
1.124000000000000057e+02 2.866797331203569001e+02
1.128000000000000114e+02 2.861965532088267423e+02
1.132000000000000028e+02 2.857159300062114653e+02
1.136000000000000085e+02 2.852378406242701203e+02
1.140000000000000000e+02 2.847622624634583417e+02
1.144000000000000057e+02 2.842891732082337057e+02
1.148000000000000114e+02 2.838185508224560749e+02
1.152000000000000028e+02 2.833503735448772431e+02
1.156000000000000085e+02 2.828846198847210758e+02
1.160000000000000000e+02 2.824212686173501652e+02
1.164000000000000057e+02 2.819602987800165579e+02
1.168000000000000114e+02 2.815016896676971214e+02
1.172000000000000028e+02 2.810454208290079805e+02
1.176000000000000085e+02 2.805914720621997276e+02
1.180000000000000000e+02 2.801398234112292585e+02
1.184000000000000057e+02 2.796904551619070389e+02
1.188000000000000114e+02 2.792433478381189502e+02
1.192000000000000028e+02 2.787984821981195864e+02
1.196000000000000085e+02 2.783558392308963221e+02
1.200000000000000000e+02 2.779154001526029560e+02
1.204000000000000057e+02 2.774771464030599759e+02
1.208000000000000114e+02 2.770410596423212155e+02
1.212000000000000028e+02 2.766071217473047454e+02
1.216000000000000085e+02 2.761753148084870872e+02
1.220000000000000000e+02 2.757456211266587616e+02
1.224000000000000057e+02 2.753180232097404314e+02
1.228000000000000114e+02 2.748925037696575941e+02
1.232000000000000028e+02 2.744690457192734243e+02
1.236000000000000085e+02 2.740476321693776640e+02
1.240000000000000000e+02 2.736282464257308220e+02
1.244000000000000057e+02 2.732108719861624309e+02
1.248000000000000114e+02 2.727954925377219979e+02
1.252000000000000028e+02 2.723820919538819112e+02
1.256000000000000085e+02 2.719706542917904244e+02
1.260000000000000000e+02 2.715611637895748345e+02
1.264000000000000057e+02 2.711536048636924647e+02
1.268000000000000114e+02 2.707479621063292825e+02
1.272000000000000028e+02 2.703442202828454697e+02
1.276000000000000085e+02 2.699423643292652741e+02
1.280000000000000000e+02 2.695423793498126770e+02
1.284000000000000057e+02 2.691442506144893514e+02
1.288000000000000114e+02 2.687479635566964475e+02
1.291999999999999886e+02 2.683535037708973050e+02
1.296000000000000227e+02 2.679608570103209786e+02
1.300000000000000000e+02 2.675700091847069189e+02
1.304000000000000057e+02 2.671809463580872261e+02
1.308000000000000114e+02 2.667936547466088655e+02
1.311999999999999886e+02 2.664081207163926592e+02
1.316000000000000227e+02 2.660243307814288869e+02
1.320000000000000000e+02 2.656422716015101173e+02
1.324000000000000057e+02 2.652619299801981469e+02
1.328000000000000114e+02 2.648832928628264654e+02
1.331999999999999886e+02 2.645063473345363718e+02
1.336000000000000227e+02 2.641310806183460613e+02
1.340000000000000000e+02 2.637574800732534754e+02
1.344000000000000057e+02 2.633855331923692802e+02
1.348000000000000114e+02 2.630152276010829837e+02
1.351999999999999886e+02 2.626465510552583851e+02
1.356000000000000227e+02 2.622794914394602301e+02
1.360000000000000000e+02 2.619140367652095733e+02
1.364000000000000057e+02 2.615501751692681864e+02
1.368000000000000114e+02 2.611878949119519575e+02
1.371999999999999886e+02 2.608271843754709494e+02
1.376000000000000227e+02 2.604680320622982208e+02
1.380000000000000000e+02 2.601104265935637727e+02
1.384000000000000057e+02 2.597543567074759494e+02
1.388000000000000114e+02 2.593998112577677944e+02
1.392000000000000171e+02 2.590467792121693833e+02
1.395999999999999943e+02 2.586952496509038610e+02
1.400000000000000000e+02 2.583452117652086599e+02
1.404000000000000057e+02 2.579966548558800241e+02
1.408000000000000114e+02 2.576495683318409533e+02
1.412000000000000171e+02 2.573039417087323955e+02
1.415999999999999943e+02 2.569597646075262674e+02
1.420000000000000000e+02 2.566170267531609852e+02
1.424000000000000057e+02 2.562757179731985389e+02
1.428000000000000114e+02 2.559358281965028823e+02
1.432000000000000171e+02 2.555973474519387310e+02
1.435999999999999943e+02 2.552602658670914479e+02
1.440000000000000000e+02 2.549245736670063138e+02
1.444000000000000057e+02 2.545902611729480327e+02
1.448000000000000114e+02 2.542573188011794230e+02
1.452000000000000171e+02 2.539257370617586957e+02
1.455999999999999943e+02 2.535955065573560319e+02
1.460000000000000000e+02 2.532666179820877801e+02
1.464000000000000057e+02 2.529390621203691296e+02
1.468000000000000114e+02 2.526128298457839492e+02
1.472000000000000171e+02 2.522879121199724182e+02
1.475999999999999943e+02 2.519642999915351140e+02
1.480000000000000000e+02 2.516419845949542946e+02
1.484000000000000057e+02 2.513209571495310399e+02
1.488000000000000114e+02 2.510012089583391059e+02
1.492000000000000171e+02 2.506827314071938702e+02
1.495999999999999943e+02 2.503655159636373924e+02
1.500000000000000000e+02 2.500495541759384537e+02
