1.000000000000000000e+01 9.494396675079798342e+01
1.040000000000000036e+01 9.741139956977937686e+01
1.080000000000000071e+01 1.073781446462577094e+02
1.119999999999999929e+01 1.041348555733607952e+02
1.159999999999999964e+01 9.997452740223093315e+01
1.200000000000000000e+01 9.592366615630872673e+01
1.240000000000000036e+01 9.212301250144378173e+01
1.280000000000000071e+01 8.858217626916066934e+01
1.319999999999999929e+01 8.540212741840456090e+01
1.359999999999999964e+01 8.254189153479944707e+01
1.400000000000000000e+01 8.408651022657146257e+01
1.440000000000000036e+01 8.209823843639571805e+01
1.480000000000000071e+01 8.024886423165764882e+01
1.519999999999999929e+01 7.950167406969971751e+01
1.560000000000000142e+01 7.796663187084554636e+01
1.600000000000000000e+01 7.651933088927442839e+01
1.639999999999999858e+01 7.514910489829992457e+01
1.680000000000000071e+01 7.384883540388983647e+01
1.719999999999999929e+01 7.261266623890756478e+01
1.760000000000000142e+01 7.143494948245137266e+01
1.800000000000000000e+01 7.031022439581006722e+01
1.839999999999999858e+01 6.923587004424523172e+01
1.880000000000000071e+01 6.681241631486439303e+01
1.920000000000000284e+01 6.626163813738786246e+01
1.960000000000000142e+01 6.529641775820344662e+01
2.000000000000000000e+01 6.437176773113779404e+01
2.039999999999999858e+01 6.338226979693298802e+01
2.080000000000000071e+01 6.254980034093330232e+01
2.120000000000000284e+01 6.174920377141516070e+01
2.160000000000000142e+01 6.097843728010906261e+01
2.200000000000000000e+01 6.024425772625399134e+01
2.239999999999999858e+01 5.956742113063570798e+01
2.280000000000000071e+01 5.891296897223968188e+01
2.320000000000000284e+01 5.827965588211441883e+01
2.360000000000000142e+01 5.765541629326737905e+01
2.400000000000000000e+01 5.704480980628735409e+01
2.439999999999999858e+01 5.642448289848699972e+01
2.480000000000000071e+01 5.582311224418434392e+01
2.520000000000000284e+01 5.523973583298960222e+01
2.560000000000000142e+01 5.418626028913576675e+01
2.600000000000000000e+01 5.363985901787462751e+01
2.640000000000000213e+01 5.310888213558523319e+01
2.680000000000000071e+01 5.259260969725649204e+01
2.719999999999999929e+01 5.218140581113020460e+01
2.760000000000000142e+01 5.170255181177697779e+01
2.800000000000000000e+01 5.123612925451780598e+01
2.840000000000000213e+01 5.078160180274841196e+01
2.880000000000000071e+01 5.033846524450905235e+01
2.920000000000000284e+01 4.989004361767548801e+01
2.960000000000000142e+01 4.944967678477084405e+01
3.000000000000000000e+01 4.902008018751963903e+01
3.040000000000000213e+01 4.860081598676212877e+01
3.080000000000000071e+01 4.819081687999391761e+01
3.120000000000000284e+01 4.778960157953007126e+01
3.160000000000000142e+01 4.739757143375005199e+01
3.200000000000000000e+01 4.738428470336011600e+01
3.240000000000000568e+01 4.703046158214119998e+01
3.279999999999999716e+01 4.668421875822673428e+01
3.320000000000000284e+01 4.653237147083188319e+01
3.360000000000000142e+01 4.621170909719236874e+01
3.400000000000000000e+01 4.589752110673406094e+01
3.440000000000000568e+01 4.558958853110530640e+01
3.479999999999999716e+01 4.527103365050533057e+01
3.520000000000000284e+01 4.497957740878182875e+01
3.560000000000000142e+01 4.469365987974755683e+01
3.600000000000000000e+01 4.441310465720938794e+01
3.640000000000000568e+01 4.413774320975385734e+01
3.679999999999999716e+01 4.386741442914604505e+01
3.720000000000000284e+01 4.360208455286280582e+01
3.760000000000000142e+01 4.334232891330041326e+01
3.800000000000000000e+01 4.308711468295823011e+01
3.840000000000000568e+01 4.283630944497989645e+01
3.879999999999999716e+01 4.258978617073836404e+01
3.920000000000000284e+01 4.234549791890987080e+01
3.960000000000000142e+01 4.210415085100475352e+01
4.000000000000000000e+01 4.186376865706904482e+01
4.040000000000000568e+01 4.162734415499468099e+01
4.079999999999999716e+01 4.139476877422213619e+01
4.120000000000000284e+01 4.116593809718962405e+01
4.160000000000000142e+01 4.094075165616896328e+01
4.200000000000000000e+01 4.071911274217661258e+01
4.239999999999999858e+01 4.045742195678101893e+01
4.280000000000000426e+01 4.024553226049187771e+01
4.320000000000000284e+01 4.003683587988226833e+01
4.360000000000000142e+01 3.983125262739124395e+01
4.400000000000000000e+01 3.965456452393421216e+01
4.439999999999999858e+01 3.945697049231375786e+01
4.480000000000000426e+01 3.926220250614277063e+01
4.520000000000000284e+01 3.907019322478847556e+01
4.560000000000000142e+01 3.888087754309693622e+01
4.600000000000000000e+01 3.869419249656722570e+01
4.639999999999999858e+01 3.851007717140819864e+01
4.680000000000000426e+01 3.832847261918331583e+01
4.720000000000000284e+01 3.814814047655896445e+01
4.760000000000000142e+01 3.796898545220408749e+01
4.800000000000000000e+01 3.779224215630544137e+01
4.840000000000000568e+01 3.761785629937079278e+01
4.880000000000000426e+01 3.744575243996361991e+01
4.920000000000000284e+01 3.727587802101682257e+01
4.960000000000000142e+01 3.715183597446389996e+01
5.000000000000000000e+01 3.699014729487313247e+01
5.040000000000000568e+01 3.683052810866327320e+01
5.080000000000000426e+01 3.667293407414113204e+01
5.120000000000000284e+01 3.651732218010386077e+01
5.160000000000000142e+01 3.636365069456784482e+01
5.200000000000000000e+01 3.621187911590750730e+01
5.240000000000000568e+01 3.606196812627074877e+01
5.280000000000000426e+01 3.595882360537149935e+01
5.320000000000000284e+01 3.581291047420563700e+01
5.360000000000000142e+01 3.566873173600431102e+01
5.400000000000000000e+01 3.552625292745187124e+01
5.440000000000000568e+01 3.539038549312980564e+01
5.480000000000000426e+01 3.525067729831556562e+01
5.520000000000000284e+01 3.511258177819445336e+01
5.560000000000000142e+01 3.497606782107010304e+01
5.600000000000000000e+01 3.484110515442740308e+01
5.640000000000000568e+01 3.470766431590136847e+01
5.680000000000000426e+01 3.457571662546988023e+01
5.720000000000000284e+01 3.444523415880934891e+01
5.760000000000000142e+01 3.431618972175604654e+01
5.800000000000000000e+01 3.418855682581924782e+01
5.840000000000000568e+01 3.406247307175987515e+01
5.880000000000000426e+01 3.393854726482203432e+01
5.920000000000000284e+01 3.381570573718526163e+01
5.960000000000000142e+01 3.369342654381257063e+01
6.000000000000000000e+01 3.357259288120229712e+01
6.040000000000000568e+01 3.345301010861130209e+01
6.080000000000000426e+01 3.333465663671734802e+01
6.120000000000000284e+01 3.321751139600054614e+01
6.160000000000000142e+01 3.310155382072644414e+01
6.200000000000000000e+01 3.298676383352923835e+01
6.240000000000000568e+01 3.287312183056869941e+01
6.280000000000000426e+01 3.276060866723574350e+01
6.320000000000000284e+01 3.264920564438276784e+01
6.360000000000000142e+01 3.253889449505608411e+01
6.400000000000000000e+01 3.242965737170907659e+01
6.440000000000000568e+01 3.232147683387532311e+01
6.480000000000001137e+01 3.219777045318356556e+01
6.520000000000000284e+01 3.209111814694723108e+01
6.559999999999999432e+01 3.197651787165850834e+01
6.600000000000000000e+01 3.187208867363507991e+01
6.640000000000000568e+01 3.176864438085539888e+01
6.680000000000001137e+01 3.166616945820918261e+01
6.720000000000000284e+01 3.156464871327079180e+01
6.759999999999999432e+01 3.146406728660239338e+01
6.800000000000000000e+01 3.136441064239144083e+01
6.840000000000000568e+01 3.126566455940916711e+01
6.880000000000001137e+01 3.116781512227676387e+01
6.920000000000000284e+01 3.107084871302720330e+01
6.959999999999999432e+01 3.097475200295073705e+01
7.000000000000000000e+01 3.087951194471292027e+01
7.040000000000000568e+01 3.078511576473442801e+01
7.080000000000001137e+01 3.069155095582237180e+01
7.120000000000000284e+01 3.061243917870667630e+01
7.159999999999999432e+01 3.052152254593225678e+01
7.200000000000000000e+01 3.043137862527024851e+01
7.240000000000000568e+01 3.034200980526697933e+01
7.280000000000001137e+01 3.025340493265390407e+01
7.320000000000000284e+01 3.016555307867371738e+01
7.359999999999999432e+01 3.007844353328109577e+01
7.400000000000000000e+01 2.999206579952605978e+01
7.440000000000000568e+01 2.990640958811329142e+01
7.479999999999999716e+01 2.982146481213068512e+01
7.520000000000000284e+01 2.973722158194116361e+01
7.560000000000000853e+01 2.965367020023161615e+01
7.600000000000000000e+01 2.957080115721341684e+01
7.640000000000000568e+01 2.948860512596892391e+01
7.679999999999999716e+01 2.940707295793875886e+01
7.720000000000000284e+01 2.932619567854494491e+01
7.760000000000000853e+01 2.924596448294499140e+01
7.800000000000000000e+01 2.917682506171588130e+01
7.840000000000000568e+01 2.909810030385296642e+01
7.879999999999999716e+01 2.901999487529838717e+01
7.920000000000000284e+01 2.894250061052152745e+01
7.960000000000000853e+01 2.886560949475718729e+01
8.000000000000000000e+01 2.878931366043029172e+01
8.040000000000000568e+01 2.871360538368392668e+01
8.079999999999999716e+01 2.863847708100749045e+01
8.120000000000000284e+01 2.856392130596123025e+01
8.160000000000000853e+01 2.848993074599412978e+01
8.200000000000000000e+01 2.841649821935190801e+01
8.240000000000000568e+01 2.834361667207220137e+01
8.279999999999999716e+01 2.827091291189139355e+01
8.320000000000000284e+01 2.819863752514901023e+01
8.360000000000000853e+01 2.812689750150689605e+01
8.400000000000000000e+01 2.805568619891564097e+01
8.440000000000000568e+01 2.798495990153920587e+01
8.479999999999999716e+01 2.791473532659272294e+01
8.520000000000000284e+01 2.784519838948080661e+01
8.560000000000000853e+01 2.777616262524640334e+01
8.600000000000000000e+01 2.770762198774768592e+01
8.640000000000000568e+01 2.763957053292125110e+01
8.680000000000001137e+01 2.757200241656974526e+01
8.720000000000000284e+01 2.750491189220797139e+01
8.760000000000000853e+01 2.743829330896571861e+01
8.800000000000000000e+01 2.737214110954542790e+01
8.840000000000000568e+01 2.730644982823305966e+01
8.880000000000001137e+01 2.724121408896060359e+01
8.920000000000000284e+01 2.717642860341852895e+01
8.960000000000000853e+01 2.711208816921672593e+01
9.000000000000000000e+01 2.704818766809243158e+01
9.040000000000000568e+01 2.698472206416384012e+01
9.080000000000001137e+01 2.692168640222776688e+01
9.120000000000000284e+01 2.686062316214239232e+01
9.160000000000000853e+01 2.679845081817229158e+01
9.200000000000000000e+01 2.673669461900956179e+01
9.240000000000000568e+01 2.666661490445205729e+01
9.280000000000001137e+01 2.660585137342043893e+01
9.320000000000000284e+01 2.654548913429692192e+01
9.360000000000000853e+01 2.648552374713013080e+01
9.400000000000000000e+01 2.642595084075912126e+01
9.440000000000000568e+01 2.636676611144445559e+01
9.480000000000001137e+01 2.630796532153271272e+01
9.520000000000000284e+01 2.624954429815304380e+01
9.560000000000000853e+01 2.619149893194526157e+01
9.600000000000000000e+01 2.613382517581834463e+01
9.640000000000000568e+01 2.607962642838140255e+01
9.680000000000001137e+01 2.602340348469122944e+01
9.720000000000000284e+01 2.596753455429688628e+01
9.760000000000000853e+01 2.591201589941920247e+01
9.800000000000000000e+01 2.585684383757062932e+01
9.840000000000000568e+01 2.580202724559740801e+01
9.880000000000001137e+01 2.574756030466191703e+01
9.920000000000000284e+01 2.569342858748241198e+01
9.960000000000000853e+01 2.563962863519029156e+01
1.000000000000000000e+02 2.558603925655399891e+01
1.004000000000000057e+02 2.553261848860994476e+01
1.008000000000000114e+02 2.547952157917509908e+01
1.012000000000000028e+02 2.542674523535925246e+01
1.016000000000000085e+02 2.537428621117486927e+01
1.020000000000000000e+02 2.532214130667875196e+01
1.024000000000000057e+02 2.527030736713295767e+01
1.028000000000000114e+02 2.521878128218433801e+01
1.032000000000000028e+02 2.516755998506227243e+01
1.036000000000000085e+02 2.511664045179405491e+01
1.040000000000000000e+02 2.506601970043762151e+01
1.044000000000000057e+02 2.501569479033095078e+01
1.048000000000000114e+02 2.496566282135795234e+01
1.052000000000000028e+02 2.491592093323012591e+01
1.056000000000000085e+02 2.486646630478396247e+01
1.060000000000000000e+02 2.481479804816386903e+01
1.064000000000000057e+02 2.476602564766828962e+01
1.068000000000000114e+02 2.471753154767976213e+01
1.072000000000000028e+02 2.466931308347830054e+01
1.076000000000000085e+02 2.462136762609610230e+01
1.080000000000000000e+02 2.458023872254600306e+01
1.084000000000000057e+02 2.453299535989322067e+01
1.088000000000000114e+02 2.448601639327766577e+01
1.092000000000000028e+02 2.443929933937500110e+01
1.096000000000000085e+02 2.439284174755038492e+01
1.100000000000000000e+02 2.434636566017412207e+01
1.104000000000000057e+02 2.430012381235899710e+01
1.108000000000000114e+02 2.425413616676589612e+01
1.112000000000000028e+02 2.420840037798264888e+01
1.116000000000000085e+02 2.416291413092214668e+01
1.120000000000000000e+02 2.411767514031847526e+01
1.124000000000000057e+02 2.407268115023334687e+01
1.128000000000000114e+02 2.402792993357241613e+01
1.132000000000000028e+02 2.398341929161141195e+01
1.136000000000000085e+02 2.393904318241099816e+01
1.140000000000000000e+02 2.389489852385633739e+01
1.144000000000000057e+02 2.385098892796143133e+01
1.148000000000000114e+02 2.380731229385496306e+01
1.152000000000000028e+02 2.376386654697744660e+01
1.156000000000000085e+02 2.372064963865773990e+01
1.160000000000000000e+02 2.367765954569796349e+01
1.164000000000000057e+02 2.363492912799333112e+01
1.168000000000000114e+02 2.359244478190847971e+01
1.172000000000000028e+02 2.355018077981492297e+01
1.176000000000000085e+02 2.350813520433609582e+01
1.180000000000000000e+02 2.346630616147229631e+01
1.184000000000000057e+02 2.342469178023446830e+01
1.188000000000000114e+02 2.338329021228503279e+01
1.192000000000000028e+02 2.334209963158548717e+01
1.196000000000000085e+02 2.330111823405077232e+01
1.200000000000000000e+02 2.326034423721017319e+01
1.204000000000000057e+02 2.321977587987451841e+01
1.208000000000000114e+02 2.317941142180979597e+01
1.212000000000000028e+02 2.313924914341671624e+01
1.216000000000000085e+02 2.310100401409061277e+01
1.220000000000000000e+02 2.306135362280556933e+01
1.224000000000000057e+02 2.302189967106941992e+01
1.228000000000000114e+02 2.298264052570726790e+01
1.232000000000000028e+02 2.294357457257117616e+01
1.236000000000000085e+02 2.290470021625539232e+01
1.240000000000000000e+02 2.286601587981668615e+01
1.244000000000000057e+02 2.282752000449976748e+01
1.248000000000000114e+02 2.278921104946777376e+01
1.252000000000000028e+02 2.275135060297910883e+01
1.256000000000000085e+02 2.271391886729808363e+01
1.260000000000000000e+02 2.267666684522879450e+01
1.264000000000000057e+02 2.263959308854696673e+01
1.268000000000000114e+02 2.260269616538928972e+01
1.272000000000000028e+02 2.256597466001583285e+01
1.276000000000000085e+02 2.252942717257661442e+01
1.280000000000000000e+02 2.249305231888236278e+01
1.284000000000000057e+02 2.245684873017926009e+01
1.288000000000000114e+02 2.242081505292769705e+01
1.291999999999999886e+02 2.238494994858488596e+01
1.296000000000000227e+02 2.234923937832499163e+01
1.300000000000000000e+02 2.231368680147530625e+01
1.304000000000000057e+02 2.227829886488457944e+01
1.308000000000000114e+02 2.224307428866775638e+01
1.311999999999999886e+02 2.220801180688816956e+01
1.316000000000000227e+02 2.217311016736217510e+01
1.320000000000000000e+02 2.213836813146707527e+01
1.324000000000000057e+02 2.210378447395231660e+01
1.328000000000000114e+02 2.206935798275388549e+01
1.331999999999999886e+02 2.203508745881191544e+01
1.336000000000000227e+02 2.200097171589128919e+01
1.340000000000000000e+02 2.196690605756750614e+01
1.344000000000000057e+02 2.193296261452392315e+01
1.348000000000000114e+02 2.189917127204785885e+01
1.351999999999999886e+02 2.186553088555883306e+01
1.356000000000000227e+02 2.183204032255225613e+01
1.360000000000000000e+02 2.179869846243563458e+01
1.364000000000000057e+02 2.176550419636747691e+01
1.368000000000000114e+02 2.173245642709890291e+01
1.371999999999999886e+02 2.169955406881782523e+01
1.376000000000000227e+02 2.166679604699568529e+01
1.380000000000000000e+02 2.163411654329456368e+01
1.384000000000000057e+02 2.160169022341037959e+01
1.388000000000000114e+02 2.156940490970600877e+01
1.392000000000000171e+02 2.153725957230501464e+01
1.395999999999999943e+02 2.150525319187786266e+01
1.400000000000000000e+02 2.147338475950307668e+01
1.404000000000000057e+02 2.144165327653063002e+01
1.408000000000000114e+02 2.140992269596288011e+01
1.412000000000000171e+02 2.137832246781524503e+01
1.415999999999999943e+02 2.134685683529701805e+01
1.420000000000000000e+02 2.131552483534441933e+01
1.424000000000000057e+02 2.128432551455500032e+01
1.428000000000000114e+02 2.125325792906305367e+01
1.432000000000000171e+02 2.122621458916428239e+01
1.435999999999999943e+02 2.119548323553319946e+01
1.440000000000000000e+02 2.116488045707373900e+01
1.444000000000000057e+02 2.113440534999148923e+01
1.448000000000000114e+02 2.110405701939995282e+01
1.452000000000000171e+02 2.107383457920753500e+01
1.455999999999999943e+02 2.104373715200656747e+01
1.460000000000000000e+02 2.101376386896379245e+01
1.464000000000000057e+02 2.098391386971273675e+01
1.468000000000000114e+02 2.095417077008162110e+01
1.472000000000000171e+02 2.092454251169676382e+01
1.475999999999999943e+02 2.089503514154690222e+01
1.480000000000000000e+02 2.086564783094035036e+01
1.484000000000000057e+02 2.083637975915062412e+01
1.488000000000000114e+02 2.080723011331804173e+01
1.492000000000000171e+02 2.077819808835278792e+01
1.495999999999999943e+02 2.074928288683939570e+01
1.500000000000000000e+02 2.072048371894276997e+01
