1.000000000000000000e+01 1.575709798371798058e+02
1.040000000000000036e+01 1.780698048883394904e+02
1.080000000000000071e+01 2.206668961921743062e+02
1.119999999999999929e+01 2.286848822186992436e+02
1.159999999999999964e+01 2.189196716589164851e+02
1.200000000000000000e+01 2.100446370490317349e+02
1.240000000000000036e+01 2.020816950529638518e+02
1.280000000000000071e+01 1.950194090960658855e+02
1.319999999999999929e+01 1.886942619701789283e+02
1.359999999999999964e+01 1.830015202236250786e+02
1.400000000000000000e+01 1.819767840937919061e+02
1.440000000000000036e+01 1.776432738910893079e+02
1.480000000000000071e+01 1.740092760951098967e+02
1.519999999999999929e+01 1.706911465492763114e+02
1.560000000000000142e+01 1.675991676957963534e+02
1.600000000000000000e+01 1.647075282201651021e+02
1.639999999999999858e+01 1.619923991320142704e+02
1.680000000000000071e+01 1.594355547581138239e+02
1.719999999999999929e+01 1.570216929284099194e+02
1.760000000000000142e+01 1.411855459744622294e+02
1.800000000000000000e+01 1.391298553154912270e+02
1.839999999999999858e+01 1.371694233382124253e+02
1.880000000000000071e+01 1.339009905092354131e+02
1.920000000000000284e+01 1.281170351082719776e+02
1.960000000000000142e+01 1.262852100017526880e+02
2.000000000000000000e+01 1.245318840264454536e+02
2.039999999999999858e+01 1.228514056046313954e+02
2.080000000000000071e+01 1.212386897461597925e+02
2.120000000000000284e+01 1.196891458617218120e+02
2.160000000000000142e+01 1.181986166466705583e+02
2.200000000000000000e+01 1.167719428229451637e+02
2.239999999999999858e+01 1.154281390685439277e+02
2.280000000000000071e+01 1.141306601095043618e+02
2.320000000000000284e+01 1.128768110138399834e+02
2.360000000000000142e+01 1.116641164021236534e+02
2.400000000000000000e+01 1.104329971139558353e+02
2.439999999999999858e+01 1.090808130038730894e+02
2.480000000000000071e+01 1.077465184995458856e+02
2.520000000000000284e+01 1.064551125770236126e+02
2.560000000000000142e+01 1.047171294507299137e+02
2.600000000000000000e+01 1.035084739550360666e+02
2.640000000000000213e+01 1.023363215655979417e+02
2.680000000000000071e+01 1.011988628515687623e+02
2.719999999999999929e+01 1.000944122142618653e+02
2.760000000000000142e+01 9.902139714499101331e+01
2.800000000000000000e+01 9.797834860523221323e+01
2.840000000000000213e+01 9.696389239260466297e+01
2.880000000000000071e+01 9.597674137503125280e+01
2.920000000000000284e+01 9.499948706574501500e+01
2.960000000000000142e+01 9.404478310052513734e+01
3.000000000000000000e+01 9.311470129497894277e+01
3.040000000000000213e+01 9.307663561615702008e+01
3.080000000000000071e+01 9.222954342126749339e+01
3.120000000000000284e+01 9.140298030497501713e+01
3.160000000000000142e+01 9.059612417725423938e+01
3.200000000000000000e+01 9.017810690663077366e+01
3.240000000000000568e+01 8.942924615331249072e+01
3.279999999999999716e+01 8.869727823751712492e+01
3.320000000000000284e+01 8.816865864804137232e+01
3.360000000000000142e+01 8.747983621140950561e+01
3.400000000000000000e+01 8.680577774580348205e+01
3.440000000000000568e+01 8.614595833707228678e+01
3.479999999999999716e+01 8.549987905242086583e+01
3.520000000000000284e+01 8.486706529839857183e+01
3.560000000000000142e+01 8.424706530471492272e+01
3.600000000000000000e+01 8.363944872258655039e+01
3.640000000000000568e+01 8.304380532747985910e+01
3.679999999999999716e+01 8.436517036165768957e+01
3.720000000000000284e+01 8.387211025249798979e+01
3.760000000000000142e+01 8.338852810695203743e+01
3.800000000000000000e+01 8.291325836363088797e+01
3.840000000000000568e+01 8.244605955447170231e+01
3.879999999999999716e+01 8.198670007190756337e+01
3.920000000000000284e+01 8.153495765171922471e+01
3.960000000000000142e+01 8.109004461586957291e+01
4.000000000000000000e+01 8.064929716552958894e+01
4.040000000000000568e+01 8.021562159327332608e+01
4.079999999999999716e+01 7.978882612726980028e+01
4.120000000000000284e+01 7.936872630767605585e+01
4.160000000000000142e+01 7.895514462842940873e+01
4.200000000000000000e+01 7.854791020041173510e+01
4.239999999999999858e+01 7.810335216615332854e+01
4.280000000000000426e+01 7.771125461914922994e+01
4.320000000000000284e+01 7.732494338940526291e+01
4.360000000000000142e+01 7.694427424862330156e+01
4.400000000000000000e+01 7.656910802268673422e+01
4.439999999999999858e+01 7.619931036405206726e+01
4.480000000000000426e+01 7.583475153662779178e+01
4.520000000000000284e+01 7.547530621233669024e+01
4.560000000000000142e+01 7.506211229339010060e+01
4.600000000000000000e+01 7.471199339607220224e+01
4.639999999999999858e+01 7.436667447272405695e+01
4.680000000000000426e+01 7.402604465205551776e+01
4.720000000000000284e+01 7.368881535928730386e+01
4.760000000000000142e+01 7.335484273020281876e+01
4.800000000000000000e+01 7.302531437160696726e+01
4.840000000000000568e+01 7.270013049463121035e+01
4.880000000000000426e+01 7.237919446062730344e+01
4.920000000000000284e+01 7.206095832724861339e+01
4.960000000000000142e+01 7.177563876433890755e+01
5.000000000000000000e+01 7.145480971897428901e+01
5.040000000000000568e+01 7.113813966618114648e+01
5.080000000000000426e+01 7.082553810306472997e+01
5.120000000000000284e+01 7.051691728762304479e+01
5.160000000000000142e+01 7.021219213060732045e+01
5.200000000000000000e+01 6.991128009254477149e+01
5.240000000000000568e+01 6.961410108563325139e+01
5.280000000000000426e+01 6.936552143846219565e+01
5.320000000000000284e+01 6.907596769297137485e+01
5.360000000000000142e+01 6.878990560082641537e+01
5.400000000000000000e+01 6.850678167509171601e+01
5.440000000000000568e+01 6.822643407243879210e+01
5.480000000000000426e+01 6.794937558764235064e+01
5.520000000000000284e+01 6.767554180468594893e+01
5.560000000000000142e+01 6.740487007325850755e+01
5.600000000000000000e+01 6.713729944660566673e+01
5.640000000000000568e+01 6.687277062204887557e+01
5.680000000000000426e+01 6.661122588403779332e+01
5.720000000000000284e+01 6.635260904960850326e+01
5.760000000000000142e+01 6.609686541612785504e+01
5.800000000000000000e+01 6.584394171121124373e+01
5.840000000000000568e+01 6.559394945177173497e+01
5.880000000000000426e+01 6.534747203573584784e+01
5.920000000000000284e+01 6.510341104194424133e+01
5.960000000000000142e+01 6.486106955881072622e+01
6.000000000000000000e+01 6.462129587618099436e+01
6.040000000000000568e+01 6.438404462705881315e+01
6.080000000000000426e+01 6.414927156531915386e+01
6.120000000000000284e+01 6.391693353017248569e+01
6.160000000000000142e+01 6.368698841200241390e+01
6.200000000000000000e+01 6.345939511951416989e+01
6.240000000000000568e+01 6.323411354813486440e+01
6.280000000000000426e+01 6.295825281028539422e+01
6.320000000000000284e+01 6.274249860384997390e+01
6.360000000000000142e+01 6.252887029577892264e+01
6.400000000000000000e+01 6.231733287157248924e+01
6.440000000000000568e+01 6.210785212411715861e+01
6.480000000000001137e+01 6.188382924668590590e+01
6.520000000000000284e+01 6.167782815495289128e+01
6.559999999999999432e+01 6.147379623033018703e+01
6.600000000000000000e+01 6.127170199117330185e+01
6.640000000000000568e+01 6.107151466080842539e+01
6.680000000000001137e+01 6.087320414725609652e+01
6.720000000000000284e+01 6.067674102366596145e+01
6.759999999999999432e+01 6.099812039863506641e+01
6.800000000000000000e+01 6.081197896909627332e+01
6.840000000000000568e+01 6.062752216920642212e+01
6.880000000000001137e+01 6.044472429711678529e+01
6.920000000000000284e+01 6.026356020317817297e+01
6.959999999999999432e+01 6.008400527463761165e+01
7.000000000000000000e+01 5.990603542085422362e+01
7.040000000000000568e+01 5.972962705901332470e+01
7.080000000000001137e+01 5.955475710031902992e+01
7.120000000000000284e+01 5.939503684530966865e+01
7.159999999999999432e+01 5.922215439571160545e+01
7.200000000000000000e+01 5.905007529290500656e+01
7.240000000000000568e+01 5.887947181474529401e+01
7.280000000000001137e+01 5.871032257757494222e+01
7.320000000000000284e+01 5.854260663444625834e+01
7.359999999999999432e+01 5.837630346361835620e+01
7.400000000000000000e+01 5.821139295742509034e+01
7.440000000000000568e+01 5.804785541149956174e+01
7.479999999999999716e+01 5.788567151434142488e+01
7.520000000000000284e+01 5.772482233721477485e+01
7.560000000000000853e+01 5.756528932436344093e+01
7.600000000000000000e+01 5.740705428353265916e+01
7.640000000000000568e+01 5.725009937678520089e+01
7.679999999999999716e+01 5.709440711160151949e+01
7.720000000000000284e+01 5.693996033225334230e+01
7.760000000000000853e+01 5.678674221144095924e+01
7.800000000000000000e+01 5.664138214264548310e+01
7.840000000000000568e+01 5.649049628190052630e+01
7.879999999999999716e+01 5.634079311018695790e+01
7.920000000000000284e+01 5.619225696849859020e+01
7.960000000000000853e+01 5.604487248999615190e+01
8.000000000000000000e+01 5.589862459297586383e+01
8.040000000000000568e+01 5.575349847404494597e+01
8.079999999999999716e+01 5.560947960149727720e+01
8.120000000000000284e+01 5.546655370888174730e+01
8.160000000000000853e+01 5.532470678875702674e+01
8.200000000000000000e+01 5.518392508662638818e+01
8.240000000000000568e+01 5.504419509504602104e+01
8.279999999999999716e+01 5.498969085482828234e+01
8.320000000000000284e+01 5.485332534064370691e+01
8.360000000000000853e+01 5.471795696587428637e+01
8.400000000000000000e+01 5.458357343443852017e+01
8.440000000000000568e+01 5.445016266373306735e+01
8.479999999999999716e+01 5.431772253523389082e+01
8.520000000000000284e+01 5.418640939393978329e+01
8.560000000000000853e+01 5.405603150427781856e+01
8.600000000000000000e+01 5.392647534769325546e+01
8.640000000000000568e+01 5.379779837195605552e+01
8.680000000000001137e+01 5.367001659507972988e+01
8.720000000000000284e+01 5.354311956044517018e+01
8.760000000000000853e+01 5.341709698286248198e+01
8.800000000000000000e+01 5.329193874495545913e+01
8.840000000000000568e+01 5.316763489363924577e+01
8.880000000000001137e+01 5.304417563668825863e+01
8.920000000000000284e+01 5.292155133939185419e+01
8.960000000000000853e+01 5.279975252129466412e+01
9.000000000000000000e+01 5.267876985301965931e+01
9.040000000000000568e+01 5.255859415317097216e+01
9.080000000000001137e+01 5.243921638531422502e+01
9.120000000000000284e+01 5.232062765503235369e+01
9.160000000000000853e+01 5.220281920705426870e+01
9.200000000000000000e+01 5.208578242245461354e+01
9.240000000000000568e+01 5.196077382036912695e+01
9.280000000000001137e+01 5.184542933680474164e+01
9.320000000000000284e+01 5.173083037385478633e+01
9.360000000000000853e+01 5.161696884080515701e+01
9.400000000000000000e+01 5.150383677018687223e+01
9.440000000000000568e+01 5.139168728487736360e+01
9.480000000000001137e+01 5.128033441061384679e+01
9.520000000000000284e+01 5.116968644860233439e+01
9.560000000000000853e+01 5.105973591978651172e+01
9.600000000000000000e+01 5.095047545639586417e+01
9.640000000000000568e+01 5.084500518445889128e+01
9.680000000000001137e+01 5.073782267365403698e+01
9.720000000000000284e+01 5.063130295447803064e+01
9.760000000000000853e+01 5.052543915556901766e+01
9.800000000000000000e+01 5.042022450548943624e+01
9.840000000000000568e+01 5.031565233085693478e+01
9.880000000000001137e+01 5.021171605451801412e+01
9.920000000000000284e+01 5.010840919376327918e+01
9.960000000000000853e+01 5.000572535858304946e+01
1.000000000000000000e+02 4.990354046760521811e+01
1.004000000000000057e+02 4.980180970798788564e+01
1.008000000000000114e+02 4.970068551720990513e+01
1.012000000000000028e+02 4.960016183087700625e+01
1.016000000000000085e+02 4.950023266964071667e+01
1.020000000000000000e+02 4.940089213766442100e+01
1.024000000000000057e+02 4.930213442112308542e+01
1.028000000000000114e+02 4.920395378673588738e+01
1.032000000000000028e+02 4.910634458033110405e+01
1.036000000000000085e+02 4.900930122544204437e+01
1.040000000000000000e+02 4.891281822193349882e+01
1.044000000000000057e+02 4.881689014465794685e+01
1.048000000000000114e+02 4.872151164214049857e+01
1.052000000000000028e+02 4.862667743529215869e+01
1.056000000000000085e+02 4.853238231615048903e+01
1.060000000000000000e+02 4.841075877371864067e+01
1.064000000000000057e+02 4.831789830447800682e+01
1.068000000000000114e+02 4.822555894556436584e+01
1.072000000000000028e+02 4.813373578538860187e+01
1.076000000000000085e+02 4.804242397736771153e+01
1.080000000000000000e+02 4.795816487966205699e+01
1.084000000000000057e+02 4.784417553647450205e+01
1.088000000000000114e+02 4.775562708863314754e+01
1.092000000000000028e+02 4.766756670694173437e+01
1.096000000000000085e+02 4.757998985239585465e+01
1.100000000000000000e+02 4.749261650631111564e+01
1.104000000000000057e+02 4.740569736959766090e+01
1.108000000000000114e+02 4.731925039711271808e+01
1.112000000000000028e+02 4.723327126159554012e+01
1.116000000000000085e+02 4.714775569163090552e+01
1.120000000000000000e+02 4.706269947071969284e+01
1.124000000000000057e+02 4.697809843636819238e+01
1.128000000000000114e+02 4.689394847919601261e+01
1.132000000000000028e+02 4.681024554206213395e+01
1.136000000000000085e+02 4.672698561920829263e+01
1.140000000000000000e+02 4.664416475541989371e+01
1.144000000000000057e+02 4.656177904520338728e+01
1.148000000000000114e+02 4.647982463198025016e+01
1.152000000000000028e+02 4.639829770729684810e+01
1.156000000000000085e+02 4.631719451005000820e+01
1.160000000000000000e+02 4.623651132572775424e+01
1.164000000000000057e+02 4.615627934369182128e+01
1.168000000000000114e+02 4.607648331022336663e+01
1.172000000000000028e+02 4.599709586773604286e+01
1.176000000000000085e+02 4.591785026091348243e+01
1.180000000000000000e+02 4.583868269598687561e+01
1.184000000000000057e+02 4.575991615385238731e+01
1.188000000000000114e+02 4.568154720950889214e+01
1.192000000000000028e+02 4.560357247912246947e+01
1.196000000000000085e+02 4.552598861938849240e+01
1.200000000000000000e+02 4.544879232690586690e+01
1.204000000000000057e+02 4.537198033756289561e+01
1.208000000000000114e+02 4.529554942593496492e+01
1.212000000000000028e+02 4.521949640469330944e+01
1.216000000000000085e+02 4.514381812402499605e+01
1.220000000000000000e+02 4.506851147106362276e+01
1.224000000000000057e+02 4.499357336933061191e+01
1.228000000000000114e+02 4.491900077818688430e+01
1.232000000000000028e+02 4.484479069229459469e+01
1.236000000000000085e+02 4.477094014108876507e+01
1.240000000000000000e+02 4.469744618825862403e+01
1.244000000000000057e+02 4.462430593123840339e+01
1.248000000000000114e+02 4.455151650070740743e+01
1.252000000000000028e+02 4.447933817154076763e+01
1.256000000000000085e+02 4.440774984749756982e+01
1.260000000000000000e+02 4.433650124753728505e+01
1.264000000000000057e+02 4.426558965403703638e+01
1.268000000000000114e+02 4.419501237997071286e+01
1.272000000000000028e+02 4.412476676846481638e+01
1.276000000000000085e+02 4.405485019236213162e+01
1.280000000000000000e+02 4.398526005379326875e+01
1.284000000000000057e+02 4.391599378375553897e+01
1.288000000000000114e+02 4.384704884169953232e+01
1.291999999999999886e+02 4.377842271512268724e+01
1.296000000000000227e+02 4.371011291917010055e+01
1.300000000000000000e+02 4.364211699624230079e+01
1.304000000000000057e+02 4.357443251560970054e+01
1.308000000000000114e+02 4.350705707303389147e+01
1.311999999999999886e+02 4.347364575418519905e+01
1.316000000000000227e+02 4.340632135418857729e+01
1.320000000000000000e+02 4.333930242752113315e+01
1.324000000000000057e+02 4.327258664244367736e+01
1.328000000000000114e+02 4.320617169223510246e+01
1.331999999999999886e+02 4.314005529484647639e+01
1.336000000000000227e+02 4.307423519256099098e+01
1.340000000000000000e+02 4.300860562882191829e+01
1.344000000000000057e+02 4.294323768537446995e+01
1.348000000000000114e+02 4.287816020960929819e+01
1.351999999999999886e+02 4.281337102994056920e+01
1.356000000000000227e+02 4.274886799760197675e+01
1.360000000000000000e+02 4.268464898633780535e+01
1.364000000000000057e+02 4.262071189209910216e+01
1.368000000000000114e+02 4.255705463274479428e+01
1.371999999999999886e+02 4.249367514774782961e+01
1.376000000000000227e+02 4.243057139790608545e+01
1.380000000000000000e+02 4.236774136505801636e+01
1.384000000000000057e+02 4.230518305180289929e+01
1.388000000000000114e+02 4.224289448122575408e+01
1.392000000000000171e+02 4.218087369662659114e+01
1.395999999999999943e+02 4.211911876125411425e+01
1.400000000000000000e+02 4.205762775804367948e+01
1.404000000000000057e+02 4.199639878935946768e+01
1.408000000000000114e+02 4.193529491825628241e+01
1.412000000000000171e+02 4.187444471372275245e+01
1.415999999999999943e+02 4.181385154674679683e+01
1.420000000000000000e+02 4.175351359073490443e+01
1.424000000000000057e+02 4.169342903733485173e+01
1.428000000000000114e+02 4.163359609620091106e+01
1.432000000000000171e+02 4.157790643951000931e+01
1.435999999999999943e+02 4.151864697807334181e+01
1.440000000000000000e+02 4.145963347908070773e+01
1.444000000000000057e+02 4.140086422507030051e+01
1.448000000000000114e+02 4.134233751543293778e+01
1.452000000000000171e+02 4.128445445387863799e+01
1.455999999999999943e+02 4.122681097028929287e+01
1.460000000000000000e+02 4.116940298116269048e+01
1.464000000000000057e+02 4.111222886841233048e+01
1.468000000000000114e+02 4.105528702958389431e+01
1.472000000000000171e+02 4.099857587766067724e+01
1.475999999999999943e+02 4.094209384087194081e+01
1.480000000000000000e+02 4.088583936250418560e+01
1.484000000000000057e+02 4.082981090071523766e+01
1.488000000000000114e+02 4.077400692835124119e+01
1.492000000000000171e+02 4.071842593276637245e+01
1.495999999999999943e+02 4.066306641564510471e+01
1.500000000000000000e+02 4.060792689282742174e+01
