1.000000000000000000e+01 1.147261777991650717e+02
1.040000000000000036e+01 1.122353801029844931e+02
1.080000000000000071e+01 1.098640435891615823e+02
1.119999999999999929e+01 1.053407779941933882e+02
1.159999999999999964e+01 1.016415744913368400e+02
1.200000000000000000e+01 9.860307429577140681e+01
1.240000000000000036e+01 9.556433761201597576e+01
1.280000000000000071e+01 9.278726751036541032e+01
1.319999999999999929e+01 9.023531703335697784e+01
1.359999999999999964e+01 8.789784366686967587e+01
1.400000000000000000e+01 8.582073020598076596e+01
1.440000000000000036e+01 8.388577289446610052e+01
1.480000000000000071e+01 8.214782959263826001e+01
1.519999999999999929e+01 8.051150361205479555e+01
1.560000000000000142e+01 7.896531428078807835e+01
1.600000000000000000e+01 7.750111041584584370e+01
1.639999999999999858e+01 7.611175345559331618e+01
1.680000000000000071e+01 7.479095893618968205e+01
1.719999999999999929e+01 7.353316767985565150e+01
1.760000000000000142e+01 7.233344025015813372e+01
1.800000000000000000e+01 7.118736980868843034e+01
1.839999999999999858e+01 7.002670129748381100e+01
1.880000000000000071e+01 6.758228388513016682e+01
1.920000000000000284e+01 6.601206203838016506e+01
1.960000000000000142e+01 6.508462878554394138e+01
2.000000000000000000e+01 6.419456510069525734e+01
2.039999999999999858e+01 6.333938214914661557e+01
2.080000000000000071e+01 6.251682036042470259e+01
2.120000000000000284e+01 6.172482263955170367e+01
2.160000000000000142e+01 6.096151134936854987e+01
2.200000000000000000e+01 6.022338358205711017e+01
2.239999999999999858e+01 5.951009422628274592e+01
2.280000000000000071e+01 5.882079804613110241e+01
2.320000000000000284e+01 5.815416022621974435e+01
2.360000000000000142e+01 5.750894875700888775e+01
2.400000000000000000e+01 5.687276382941334418e+01
2.439999999999999858e+01 5.622494125083576932e+01
2.480000000000000071e+01 5.559712861041819565e+01
2.520000000000000284e+01 5.498830755773460766e+01
2.560000000000000142e+01 5.439753117740825417e+01
2.600000000000000000e+01 5.382391765026268615e+01
2.640000000000000213e+01 5.324442984294305603e+01
2.680000000000000071e+01 5.270998197384979278e+01
2.719999999999999929e+01 5.219013746739663162e+01
2.760000000000000142e+01 5.168423674258168887e+01
2.800000000000000000e+01 5.119166137448948461e+01
2.840000000000000213e+01 5.071183083925284052e+01
2.880000000000000071e+01 5.024419956916632657e+01
2.920000000000000284e+01 4.978825428352301685e+01
2.960000000000000142e+01 4.934351156509377034e+01
3.000000000000000000e+01 4.890951565590211914e+01
3.040000000000000213e+01 4.852925571985941389e+01
3.080000000000000071e+01 4.812646550370152454e+01
3.120000000000000284e+01 4.773138847018785924e+01
3.160000000000000142e+01 4.734525432772223041e+01
3.200000000000000000e+01 4.733763605976997013e+01
3.240000000000000568e+01 4.698926744279611967e+01
3.279999999999999716e+01 4.664827771282358526e+01
3.320000000000000284e+01 4.631440776377859692e+01
3.360000000000000142e+01 4.598741111667767001e+01
3.400000000000000000e+01 4.566705313607209149e+01
3.440000000000000568e+01 4.535311030532478327e+01
3.479999999999999716e+01 4.504536955555213495e+01
3.520000000000000284e+01 4.474362764358177458e+01
3.560000000000000142e+01 4.444769057473735785e+01
3.600000000000000000e+01 4.421253599387845412e+01
3.640000000000000568e+01 4.392866521541577640e+01
3.679999999999999716e+01 4.364512481043166758e+01
3.720000000000000284e+01 4.336678966547076186e+01
3.760000000000000142e+01 4.309350102495579904e+01
3.800000000000000000e+01 4.282510686283769274e+01
3.840000000000000568e+01 4.256146151888921736e+01
3.879999999999999716e+01 4.230242535881385635e+01
3.920000000000000284e+01 4.204786445634334058e+01
3.960000000000000142e+01 4.179707602262397614e+01
4.000000000000000000e+01 4.154747787405530346e+01
4.040000000000000568e+01 4.130205480842946741e+01
4.079999999999999716e+01 4.106069060299891760e+01
4.120000000000000284e+01 4.082327353540533466e+01
4.160000000000000142e+01 4.059046616694030263e+01
4.200000000000000000e+01 4.036141627987158387e+01
4.239999999999999858e+01 4.013597319053753409e+01
4.280000000000000426e+01 3.991404232200189028e+01
4.320000000000000284e+01 3.969553254949766341e+01
4.360000000000000142e+01 3.948035603954750883e+01
4.400000000000000000e+01 3.926842809817892999e+01
4.439999999999999858e+01 3.906448753980662758e+01
4.480000000000000426e+01 3.886707895165562832e+01
4.520000000000000284e+01 3.867251220875785123e+01
4.560000000000000142e+01 3.848071916545364246e+01
4.600000000000000000e+01 3.829163395052950847e+01
4.639999999999999858e+01 3.810519287031008417e+01
4.680000000000000426e+01 3.792133431675868849e+01
4.720000000000000284e+01 3.773999868028231219e+01
4.760000000000000142e+01 3.753124775712470296e+01
4.800000000000000000e+01 3.735591852545682912e+01
4.840000000000000568e+01 3.718293085905864359e+01
4.880000000000000426e+01 3.701223258921548620e+01
4.920000000000000284e+01 3.684377316616246389e+01
4.960000000000000142e+01 3.672112169913885538e+01
5.000000000000000000e+01 3.656080001940593149e+01
5.040000000000000568e+01 3.640252504877174999e+01
5.080000000000000426e+01 3.624625320211022483e+01
5.120000000000000284e+01 3.609194218827486367e+01
5.160000000000000142e+01 3.593955096098170543e+01
5.200000000000000000e+01 3.578903967195709868e+01
5.240000000000000568e+01 3.563806080586928715e+01
5.280000000000000426e+01 3.548802156959043685e+01
5.320000000000000284e+01 3.533981105361485220e+01
5.360000000000000142e+01 3.519243148528182275e+01
5.400000000000000000e+01 3.504656524581480426e+01
5.440000000000000568e+01 3.490243952699258756e+01
5.480000000000000426e+01 3.476001969401088587e+01
5.520000000000000284e+01 3.461927207329171097e+01
5.560000000000000142e+01 3.448016391835768246e+01
5.600000000000000000e+01 3.434266337717882323e+01
5.640000000000000568e+01 3.420673946091716999e+01
5.680000000000000426e+01 3.407236201399894782e+01
5.720000000000000284e+01 3.393950168544797918e+01
5.760000000000000142e+01 3.380812990141781427e+01
5.800000000000000000e+01 3.367821883886392698e+01
5.840000000000000568e+01 3.354974140030015661e+01
5.880000000000000426e+01 3.342267118958692151e+01
5.920000000000000284e+01 3.329674809533020152e+01
5.960000000000000142e+01 3.317129769272211348e+01
6.000000000000000000e+01 3.304719019968618454e+01
6.040000000000000568e+01 3.293876866220848143e+01
6.080000000000000426e+01 3.281849443662524379e+01
6.120000000000000284e+01 3.269947586315728216e+01
6.160000000000000142e+01 3.258169105134690113e+01
6.200000000000000000e+01 3.251607463272176801e+01
6.240000000000000568e+01 3.240344697747912051e+01
6.280000000000000426e+01 3.229194563556144715e+01
6.320000000000000284e+01 3.218155177905006781e+01
6.360000000000000142e+01 3.207224701926207899e+01
6.400000000000000000e+01 3.196401339363810123e+01
6.440000000000000568e+01 3.185683335310599418e+01
6.480000000000001137e+01 3.175068974990007575e+01
6.520000000000000284e+01 3.164556582581665367e+01
6.559999999999999432e+01 3.154144520088748749e+01
6.600000000000000000e+01 3.143831186245356690e+01
6.640000000000000568e+01 3.133615015462281050e+01
6.680000000000001137e+01 3.123494476809565157e+01
6.720000000000000284e+01 3.113456864915751510e+01
6.759999999999999432e+01 3.103498106121394073e+01
6.800000000000000000e+01 3.093630848057986071e+01
6.840000000000000568e+01 3.083853684849294297e+01
6.880000000000001137e+01 3.074165240779413821e+01
6.920000000000000284e+01 3.064564169464409815e+01
6.959999999999999432e+01 3.055049153051631805e+01
7.000000000000000000e+01 3.045618901445621063e+01
7.040000000000000568e+01 3.036272151559555255e+01
7.080000000000001137e+01 3.027007666591251223e+01
7.120000000000000284e+01 3.019199830002926888e+01
7.159999999999999432e+01 3.010210837978677034e+01
7.200000000000000000e+01 3.001288178753023317e+01
7.240000000000000568e+01 2.992442332683437201e+01
7.280000000000001137e+01 2.983672192953713420e+01
7.320000000000000284e+01 2.974976675039071594e+01
7.359999999999999432e+01 2.966354716130813074e+01
7.400000000000000000e+01 2.957805274579060750e+01
7.440000000000000568e+01 2.949327329352910354e+01
7.479999999999999716e+01 2.940513030503141323e+01
7.520000000000000284e+01 2.932246411143956522e+01
7.560000000000000853e+01 2.924047497815680785e+01
7.600000000000000000e+01 2.915915361641012282e+01
7.640000000000000568e+01 2.907849091560984434e+01
7.679999999999999716e+01 2.899847793896839931e+01
7.720000000000000284e+01 2.891910591925016760e+01
7.760000000000000853e+01 2.884036625464799641e+01
7.800000000000000000e+01 2.876225050478166878e+01
7.840000000000000568e+01 2.868475038681445710e+01
7.879999999999999716e+01 2.860785777168325694e+01
7.920000000000000284e+01 2.853156468043868443e+01
7.960000000000000853e+01 2.845586328069118309e+01
8.000000000000000000e+01 2.838074588315971880e+01
8.040000000000000568e+01 2.830620493831927931e+01
8.079999999999999716e+01 2.823223303314420463e+01
8.120000000000000284e+01 2.815882288794382760e+01
8.160000000000000853e+01 2.808596735328748650e+01
8.200000000000000000e+01 2.801365940701595747e+01
8.240000000000000568e+01 2.794178941234755342e+01
8.279999999999999716e+01 2.787628854076156415e+01
8.320000000000000284e+01 2.780521054180465157e+01
8.360000000000000853e+01 2.773465784240868004e+01
8.400000000000000000e+01 2.766462393443221401e+01
8.440000000000000568e+01 2.759510242255977630e+01
8.479999999999999716e+01 2.752608702179270495e+01
8.520000000000000284e+01 2.745757155500817603e+01
8.560000000000000853e+01 2.738954995058377406e+01
8.600000000000000000e+01 2.732201624008606444e+01
8.640000000000000568e+01 2.725496455602072388e+01
8.680000000000001137e+01 2.718838912964252330e+01
8.720000000000000284e+01 2.712228428882318099e+01
8.760000000000000853e+01 2.705664445597532364e+01
8.800000000000000000e+01 2.699146414603088573e+01
8.840000000000000568e+01 2.692673796447206769e+01
8.880000000000001137e+01 2.686246060541346736e+01
8.920000000000000284e+01 2.679862684973367237e+01
8.960000000000000853e+01 2.673523156325490646e+01
9.000000000000000000e+01 2.667226969496913824e+01
9.040000000000000568e+01 2.660973627530943020e+01
9.080000000000001137e+01 2.655523773047885783e+01
9.120000000000000284e+01 2.649386467444763227e+01
9.160000000000000853e+01 2.643290266286518175e+01
9.200000000000000000e+01 2.637234707711037984e+01
9.240000000000000568e+01 2.631219337121427770e+01
9.280000000000001137e+01 2.625243707039356877e+01
9.320000000000000284e+01 2.619307376962014189e+01
9.360000000000000853e+01 2.613409913222557890e+01
9.400000000000000000e+01 2.607534877467143986e+01
9.440000000000000568e+01 2.601697278383695178e+01
9.480000000000001137e+01 2.595897348371337898e+01
9.520000000000000284e+01 2.590134679657971262e+01
9.560000000000000853e+01 2.584408870649829737e+01
9.600000000000000000e+01 2.578719525811391833e+01
9.640000000000000568e+01 2.573376994012409469e+01
9.680000000000001137e+01 2.567831363606487471e+01
9.720000000000000284e+01 2.562320464239257944e+01
9.760000000000000853e+01 2.556843930669936782e+01
9.800000000000000000e+01 2.551401403036819104e+01
9.840000000000000568e+01 2.545992526755601304e+01
9.880000000000001137e+01 2.540616952420041486e+01
9.920000000000000284e+01 2.535274335704905013e+01
9.960000000000000853e+01 2.529963903437467820e+01
1.000000000000000000e+02 2.524685676783921906e+01
1.004000000000000057e+02 2.519439384713511032e+01
1.008000000000000114e+02 2.514224702775717191e+01
1.012000000000000028e+02 2.509041311136901697e+01
1.016000000000000085e+02 2.503888894495963058e+01
1.020000000000000000e+02 2.498767142001891983e+01
1.024000000000000057e+02 2.493675747173139712e+01
1.028000000000000114e+02 2.488614407818775476e+01
1.032000000000000028e+02 2.483582825961380536e+01
1.036000000000000085e+02 2.478580707761620516e+01
1.040000000000000000e+02 2.473607763444480767e+01
1.044000000000000057e+02 2.468663707227087301e+01
1.048000000000000114e+02 2.463748257248105489e+01
1.052000000000000028e+02 2.458861135498652573e+01
1.056000000000000085e+02 2.454002067754701244e+01
1.060000000000000000e+02 2.449170783510917104e+01
1.064000000000000057e+02 2.444236481038727504e+01
1.068000000000000114e+02 2.439497017479842000e+01
1.072000000000000028e+02 2.434784343596414402e+01
1.076000000000000085e+02 2.430098204899704228e+01
1.080000000000000000e+02 2.425438350289798706e+01
1.084000000000000057e+02 2.420804531997629283e+01
1.088000000000000114e+02 2.415924385785899631e+01
1.092000000000000028e+02 2.411356846839234791e+01
1.096000000000000085e+02 2.406814518389911228e+01
1.100000000000000000e+02 2.402269612595434722e+01
1.104000000000000057e+02 2.397747410771311394e+01
1.108000000000000114e+02 2.393249916873795158e+01
1.112000000000000028e+02 2.388776903939896457e+01
1.116000000000000085e+02 2.384328147929274166e+01
1.120000000000000000e+02 2.379903427675883876e+01
1.124000000000000057e+02 2.375502524840608487e+01
1.128000000000000114e+02 2.371125223864829579e+01
1.132000000000000028e+02 2.366771311924943788e+01
1.136000000000000085e+02 2.362440578887772702e+01
1.140000000000000000e+02 2.358132817266874071e+01
1.144000000000000057e+02 2.353847822179704252e+01
1.148000000000000114e+02 2.349585391305639348e+01
1.152000000000000028e+02 2.345345324844813462e+01
1.156000000000000085e+02 2.341127425477770174e+01
1.160000000000000000e+02 2.336931498325895262e+01
1.164000000000000057e+02 2.332757350912627459e+01
1.168000000000000114e+02 2.328604793125416705e+01
1.172000000000000028e+02 2.324473637178416752e+01
1.176000000000000085e+02 2.320363697575899309e+01
1.180000000000000000e+02 2.316265878211367379e+01
1.184000000000000057e+02 2.312186034275456947e+01
1.188000000000000114e+02 2.308126950050851889e+01
1.192000000000000028e+02 2.304070698365833181e+01
1.196000000000000085e+02 2.300034269230916095e+01
1.200000000000000000e+02 2.296018179928816849e+01
1.204000000000000057e+02 2.292022258121588862e+01
1.208000000000000114e+02 2.288046333518231279e+01
1.212000000000000028e+02 2.284090237843456350e+01
1.216000000000000085e+02 2.280153804807037332e+01
1.220000000000000000e+02 2.276236870073726237e+01
1.224000000000000057e+02 2.272339271233726521e+01
1.228000000000000114e+02 2.268460847773712885e+01
1.232000000000000028e+02 2.264601441048380792e+01
1.236000000000000085e+02 2.260760894252515030e+01
1.240000000000000000e+02 2.256939052393571998e+01
1.244000000000000057e+02 2.253135762264759734e+01
1.248000000000000114e+02 2.249350872418603586e+01
1.252000000000000028e+02 2.246036193557207383e+01
1.256000000000000085e+02 2.242327845116403395e+01
1.260000000000000000e+02 2.238637244283092187e+01
1.264000000000000057e+02 2.234964248219765892e+01
1.268000000000000114e+02 2.231308715701143797e+01
1.272000000000000028e+02 2.227670507090778074e+01
1.276000000000000085e+02 2.224049484318082293e+01
1.280000000000000000e+02 2.220726696254205024e+01
1.284000000000000057e+02 2.217149369689130367e+01
1.288000000000000114e+02 2.213588766666799756e+01
1.291999999999999886e+02 2.210044755671080807e+01
1.296000000000000227e+02 2.206517206636560857e+01
1.300000000000000000e+02 2.203005990927988478e+01
1.304000000000000057e+02 2.199510981320047165e+01
1.308000000000000114e+02 2.196032051977499933e+01
1.311999999999999886e+02 2.192569078435663954e+01
1.316000000000000227e+02 2.189121937581224131e+01
1.320000000000000000e+02 2.185690507633370672e+01
1.324000000000000057e+02 2.182274668125264938e+01
1.328000000000000114e+02 2.178874299885807986e+01
1.331999999999999886e+02 2.175913189094351452e+01
1.336000000000000227e+02 2.172564406786452906e+01
1.340000000000000000e+02 2.169230621138074611e+01
1.344000000000000057e+02 2.165911719101401545e+01
1.348000000000000114e+02 2.162607588824472771e+01
1.351999999999999886e+02 2.159318119634914979e+01
1.356000000000000227e+02 2.156043202023944971e+01
1.360000000000000000e+02 2.152782727630641091e+01
1.364000000000000057e+02 2.149536589226470440e+01
1.368000000000000114e+02 2.146304680700072254e+01
1.371999999999999886e+02 2.143086897042292449e+01
1.376000000000000227e+02 2.139883134331460468e+01
1.380000000000000000e+02 2.136693272560912149e+01
1.384000000000000057e+02 2.133517212431100774e+01
1.388000000000000114e+02 2.130354862064827870e+01
1.392000000000000171e+02 2.127206121850337084e+01
1.395999999999999943e+02 2.124070893191541032e+01
1.400000000000000000e+02 2.120949078494705375e+01
1.404000000000000057e+02 2.117840581155343926e+01
1.408000000000000114e+02 2.114731799696869174e+01
1.412000000000000171e+02 2.111635682307191786e+01
1.415999999999999943e+02 2.108552656457336028e+01
1.420000000000000000e+02 2.105482628955267188e+01
1.424000000000000057e+02 2.102425507539840766e+01
1.428000000000000114e+02 2.099381200868851494e+01
1.432000000000000171e+02 2.096349618507258583e+01
1.435999999999999943e+02 2.093330670915610625e+01
1.440000000000000000e+02 2.090324269438631077e+01
1.444000000000000057e+02 2.087330326293998439e+01
1.448000000000000114e+02 2.084348754561295536e+01
1.452000000000000171e+02 2.081379468171121516e+01
1.455999999999999943e+02 2.078422381894385396e+01
1.460000000000000000e+02 2.075477411331750943e+01
1.464000000000000057e+02 2.072544472903253876e+01
1.468000000000000114e+02 2.069623483838070754e+01
1.472000000000000171e+02 2.066711517041457569e+01
1.475999999999999943e+02 2.063809690227298432e+01
1.480000000000000000e+02 2.060919602500737469e+01
1.484000000000000057e+02 2.058041173926978473e+01
1.488000000000000114e+02 2.055045633829266905e+01
1.492000000000000171e+02 2.052195819099089391e+01
1.495999999999999943e+02 2.049357400729813961e+01
1.500000000000000000e+02 2.046530301988511269e+01
