1.000000000000000000e+01 1.580403868886098167e+02
1.040000000000000036e+01 1.674901000799071937e+02
1.080000000000000071e+01 1.776434586800720012e+02
1.119999999999999929e+01 1.831738888860461429e+02
1.159999999999999964e+01 1.766789263980011810e+02
1.200000000000000000e+01 1.709512571250492385e+02
1.240000000000000036e+01 1.658378402460192831e+02
1.280000000000000071e+01 1.612315218437815361e+02
1.319999999999999929e+01 1.570504476536271170e+02
1.359999999999999964e+01 1.532496487973730268e+02
1.400000000000000000e+01 1.498484419819472464e+02
1.440000000000000036e+01 1.467781588465101947e+02
1.480000000000000071e+01 1.439613916945934307e+02
1.519999999999999929e+01 1.413316880578830137e+02
1.560000000000000142e+01 1.388682874421474196e+02
1.600000000000000000e+01 1.365536169598226479e+02
1.639999999999999858e+01 1.343726739378543016e+02
1.680000000000000071e+01 1.323125511838374280e+02
1.719999999999999929e+01 1.303620670183109951e+02
1.760000000000000142e+01 1.194768131946421335e+02
1.800000000000000000e+01 1.177911286747087729e+02
1.839999999999999858e+01 1.161807930133926163e+02
1.880000000000000071e+01 1.132443562498980043e+02
1.920000000000000284e+01 1.079339670104206022e+02
1.960000000000000142e+01 1.050717272950009260e+02
2.000000000000000000e+01 1.036595556692307269e+02
2.039999999999999858e+01 1.023032188193406569e+02
2.080000000000000071e+01 1.009990106047717404e+02
2.120000000000000284e+01 9.974356899010643929e+01
2.160000000000000142e+01 9.853383520640048232e+01
2.200000000000000000e+01 9.736701878060941340e+01
2.239999999999999858e+01 9.624056744872817148e+01
2.280000000000000071e+01 9.515214115607979295e+01
2.320000000000000284e+01 9.409958949603938549e+01
2.360000000000000142e+01 9.308093205570442308e+01
2.400000000000000000e+01 9.209046456227309818e+01
2.439999999999999858e+01 9.102167974316549248e+01
2.480000000000000071e+01 8.996292126602746464e+01
2.520000000000000284e+01 8.891593351654245225e+01
2.560000000000000142e+01 8.790155217535185272e+01
2.600000000000000000e+01 8.691810665630629273e+01
2.640000000000000213e+01 8.596404443067190471e+01
2.680000000000000071e+01 8.503783299151312747e+01
2.719999999999999929e+01 8.413794812985474891e+01
2.760000000000000142e+01 8.326315528199144467e+01
2.800000000000000000e+01 8.241230235441319962e+01
2.840000000000000213e+01 8.158431031320679949e+01
2.880000000000000071e+01 8.077816730974939219e+01
2.920000000000000284e+01 7.999292337566194533e+01
2.960000000000000142e+01 7.922768562273131465e+01
3.000000000000000000e+01 7.848161389177289493e+01
3.040000000000000213e+01 7.775391680147947682e+01
3.080000000000000071e+01 7.704384815438004352e+01
3.120000000000000284e+01 7.635070366226361216e+01
3.160000000000000142e+01 7.567381795794383947e+01
3.200000000000000000e+01 7.538247019757903900e+01
3.240000000000000568e+01 7.475711661420422161e+01
3.279999999999999716e+01 7.449815114076069733e+01
3.320000000000000284e+01 7.391425572173898217e+01
3.360000000000000142e+01 7.334278032202981024e+01
3.400000000000000000e+01 7.278328811601107873e+01
3.440000000000000568e+01 7.223536361273298212e+01
3.479999999999999716e+01 7.169861132777711532e+01
3.520000000000000284e+01 7.117265455526479911e+01
3.560000000000000142e+01 7.065713423117318825e+01
3.600000000000000000e+01 7.015170788000733637e+01
3.640000000000000568e+01 6.965604863766962751e+01
3.679999999999999716e+01 7.044012870708289142e+01
3.720000000000000284e+01 7.001501906841588152e+01
3.760000000000000142e+01 6.943558749033441302e+01
3.800000000000000000e+01 6.903850128886944049e+01
3.840000000000000568e+01 6.864809007409003527e+01
3.879999999999999716e+01 6.826416612574941212e+01
3.920000000000000284e+01 6.788654910201519499e+01
3.960000000000000142e+01 6.751449139507954555e+01
4.000000000000000000e+01 6.714536752914017370e+01
4.040000000000000568e+01 6.678212047036068100e+01
4.079999999999999716e+01 6.642317347842919162e+01
4.120000000000000284e+01 6.606973735480437426e+01
4.160000000000000142e+01 6.572174439403883639e+01
4.200000000000000000e+01 6.537905418883194386e+01
4.239999999999999858e+01 6.504153139799613825e+01
4.280000000000000426e+01 6.470904551219292955e+01
4.320000000000000284e+01 6.438147063284903027e+01
4.360000000000000142e+01 6.405868526338061031e+01
4.400000000000000000e+01 6.374057211191995975e+01
4.439999999999999858e+01 6.342701790480050761e+01
4.480000000000000426e+01 6.311791321010926481e+01
4.520000000000000284e+01 6.281315227066895091e+01
4.560000000000000142e+01 6.251263284585643021e+01
4.600000000000000000e+01 6.221625606170829315e+01
4.639999999999999858e+01 6.192392626880290152e+01
4.680000000000000426e+01 6.163555090744449672e+01
4.720000000000000284e+01 6.135104037970810253e+01
4.760000000000000142e+01 6.107030792793469942e+01
4.800000000000000000e+01 6.079326951929430578e+01
4.840000000000000568e+01 6.051709965252983636e+01
4.880000000000000426e+01 6.024141114664602270e+01
4.920000000000000284e+01 5.996832535560834998e+01
4.960000000000000142e+01 5.973250907472710480e+01
5.000000000000000000e+01 5.946051819036929942e+01
5.040000000000000568e+01 5.918430626536463990e+01
5.080000000000000426e+01 5.892239550667061820e+01
5.120000000000000284e+01 5.866380293092250753e+01
5.160000000000000142e+01 5.840845835061514890e+01
5.200000000000000000e+01 5.815629365465674994e+01
5.240000000000000568e+01 5.790724272958379260e+01
5.280000000000000426e+01 5.766124138441771407e+01
5.320000000000000284e+01 5.741822727896462908e+01
5.360000000000000142e+01 5.717813985537284083e+01
5.400000000000000000e+01 5.694092027277343959e+01
5.440000000000000568e+01 5.670651134484099032e+01
5.480000000000000426e+01 5.647485748012032758e+01
5.520000000000000284e+01 5.624590462497526744e+01
5.560000000000000142e+01 5.601960020902377124e+01
5.600000000000000000e+01 5.579589309293186261e+01
5.640000000000000568e+01 5.557473351844619458e+01
5.680000000000000426e+01 5.535607306055234744e+01
5.720000000000000284e+01 5.513986458165221904e+01
5.760000000000000142e+01 5.492606218766043469e+01
5.800000000000000000e+01 5.471462118592488366e+01
5.840000000000000568e+01 5.450549804488225902e+01
5.880000000000000426e+01 5.429865035536433737e+01
5.920000000000000284e+01 5.409380240010396079e+01
5.960000000000000142e+01 5.389026454224313056e+01
6.000000000000000000e+01 5.368782200730046839e+01
6.040000000000000568e+01 5.348713749385171923e+01
6.080000000000000426e+01 5.328856098949034958e+01
6.120000000000000284e+01 5.309205557279793197e+01
6.160000000000000142e+01 5.289758522603580104e+01
6.200000000000000000e+01 5.270511480679408578e+01
6.240000000000000568e+01 5.251461002072375095e+01
6.280000000000000426e+01 5.243237303660471582e+01
6.320000000000000284e+01 5.225057801452236816e+01
6.360000000000000142e+01 5.207057864084023890e+01
6.400000000000000000e+01 5.189234529376250293e+01
6.440000000000000568e+01 5.171584903451210380e+01
6.480000000000001137e+01 5.154106158714284192e+01
6.520000000000000284e+01 5.136795531907806378e+01
6.559999999999999432e+01 5.119650322234526385e+01
6.600000000000000000e+01 5.102667889547723235e+01
6.640000000000000568e+01 5.085845652605192413e+01
6.680000000000001137e+01 5.069181087384450279e+01
6.720000000000000284e+01 5.052671725456605145e+01
6.759999999999999432e+01 5.070716745029956485e+01
6.800000000000000000e+01 5.054958107508641518e+01
6.840000000000000568e+01 5.039342367127930089e+01
6.880000000000001137e+01 5.023867345791263972e+01
6.920000000000000284e+01 5.008530912012162162e+01
6.959999999999999432e+01 4.993330979631100064e+01
7.000000000000000000e+01 4.978265506575550603e+01
7.040000000000000568e+01 4.963332493661430078e+01
7.080000000000001137e+01 4.948529983434350044e+01
7.120000000000000284e+01 4.935231653729264423e+01
7.159999999999999432e+01 4.922779579755833623e+01
7.200000000000000000e+01 4.908679166163571495e+01
7.240000000000000568e+01 4.894698423710359947e+01
7.280000000000001137e+01 4.880835642815086572e+01
7.320000000000000284e+01 4.867089148220350125e+01
7.359999999999999432e+01 4.853457298105018225e+01
7.400000000000000000e+01 4.839938483224864996e+01
7.440000000000000568e+01 4.826531126080207201e+01
7.479999999999999716e+01 4.813233680109527057e+01
7.520000000000000284e+01 4.800044628908160860e+01
7.560000000000000853e+01 4.786962485471091355e+01
7.600000000000000000e+01 4.773985791458992622e+01
7.640000000000000568e+01 4.761113116486686181e+01
7.679999999999999716e+01 4.748343057433168468e+01
7.720000000000000284e+01 4.735620533994455172e+01
7.760000000000000853e+01 4.722939751211167447e+01
7.800000000000000000e+01 4.710358811888571751e+01
7.840000000000000568e+01 4.697876393926435412e+01
7.879999999999999716e+01 4.685491199820089037e+01
7.920000000000000284e+01 4.673201956071360996e+01
7.960000000000000853e+01 4.661007412616744006e+01
8.000000000000000000e+01 4.648906342272231029e+01
8.040000000000000568e+01 4.636897540194202350e+01
8.079999999999999716e+01 4.624979823355864994e+01
8.120000000000000284e+01 4.613152030038673956e+01
8.160000000000000853e+01 4.601413019338249910e+01
8.200000000000000000e+01 4.589761670684308115e+01
8.240000000000000568e+01 4.578196883374107529e+01
8.279999999999999716e+01 4.566679430549964280e+01
8.320000000000000284e+01 4.555185473827160081e+01
8.360000000000000853e+01 4.543775907209479215e+01
8.400000000000000000e+01 4.532449689812095528e+01
8.440000000000000568e+01 4.521205798777438645e+01
8.479999999999999716e+01 4.510043228873389864e+01
8.520000000000000284e+01 4.498960992102431078e+01
8.560000000000000853e+01 4.487958117321377216e+01
8.600000000000000000e+01 4.477026830444822281e+01
8.640000000000000568e+01 4.466170758619566072e+01
8.680000000000001137e+01 4.455390770410943446e+01
8.720000000000000284e+01 4.444685972738119517e+01
8.760000000000000853e+01 4.434055487207145063e+01
8.800000000000000000e+01 4.423498449800703725e+01
8.840000000000000568e+01 4.413014010575850676e+01
8.880000000000001137e+01 4.402601333369513981e+01
8.920000000000000284e+01 4.392259595511506376e+01
8.960000000000000853e+01 4.381987987544834340e+01
9.000000000000000000e+01 4.371785712953078473e+01
9.040000000000000568e+01 4.361651987894646965e+01
9.080000000000001137e+01 4.351586040943671208e+01
9.120000000000000284e+01 4.341587112837380147e+01
9.160000000000000853e+01 4.331654456229741612e+01
9.200000000000000000e+01 4.321787335451187317e+01
9.240000000000000568e+01 4.311985026274259525e+01
9.280000000000001137e+01 4.302246815684985393e+01
9.320000000000000284e+01 4.292572001659841874e+01
9.360000000000000853e+01 4.282959892948114344e+01
9.400000000000000000e+01 4.273409808859533143e+01
9.440000000000000568e+01 4.263921079057000441e+01
9.480000000000001137e+01 4.256262914458677926e+01
9.520000000000000284e+01 4.247027662444536844e+01
9.560000000000000853e+01 4.237850573230964812e+01
9.600000000000000000e+01 4.228731032595362649e+01
9.640000000000000568e+01 4.220463390397670622e+01
9.680000000000001137e+01 4.211601398420680198e+01
9.720000000000000284e+01 4.202793943652545039e+01
9.760000000000000853e+01 4.194040462775960521e+01
9.800000000000000000e+01 4.185340400633590718e+01
9.840000000000000568e+01 4.176693210076092555e+01
9.880000000000001137e+01 4.168098351813623026e+01
9.920000000000000284e+01 4.159555294270691661e+01
9.960000000000000853e+01 4.151063513444289299e+01
1.000000000000000000e+02 4.142622492765206488e+01
1.004000000000000057e+02 4.134231722962453404e+01
1.008000000000000114e+02 4.125890701930696736e+01
1.012000000000000028e+02 4.117598934600641059e+01
1.016000000000000085e+02 4.109355932812265877e+01
1.020000000000000000e+02 4.101161215190861498e+01
1.024000000000000057e+02 4.093014307025777043e+01
1.028000000000000114e+02 4.084914740151808132e+01
1.032000000000000028e+02 4.076862052833174488e+01
1.036000000000000085e+02 4.068855789650001498e+01
1.040000000000000000e+02 4.060895501387247464e+01
1.044000000000000057e+02 4.052980744926028223e+01
1.048000000000000114e+02 4.045111083137247476e+01
1.052000000000000028e+02 4.037286084777508677e+01
1.056000000000000085e+02 4.029505324387237408e+01
1.060000000000000000e+02 4.021768382190943214e+01
1.064000000000000057e+02 4.014074843999593867e+01
1.068000000000000114e+02 4.006424301115027475e+01
1.072000000000000028e+02 3.998816350236377559e+01
1.076000000000000085e+02 3.991250593368428667e+01
1.080000000000000000e+02 3.983726637731886910e+01
1.084000000000000057e+02 3.974654110189316469e+01
1.088000000000000114e+02 3.967285589361253528e+01
1.092000000000000028e+02 3.959957481565224668e+01
1.096000000000000085e+02 3.952663614029677319e+01
1.100000000000000000e+02 3.945360872364013716e+01
1.104000000000000057e+02 3.938095602379144111e+01
1.108000000000000114e+02 3.930869674433131422e+01
1.112000000000000028e+02 3.923682729671147484e+01
1.116000000000000085e+02 3.916534413839168849e+01
1.120000000000000000e+02 3.909424377208033263e+01
1.124000000000000057e+02 3.902324115475732924e+01
1.128000000000000114e+02 3.895247565122993194e+01
1.132000000000000028e+02 3.888208608679171618e+01
1.136000000000000085e+02 3.881206909952688733e+01
1.140000000000000000e+02 3.874242136976270956e+01
1.144000000000000057e+02 3.867313961938605615e+01
1.148000000000000114e+02 3.860422061117369452e+01
1.152000000000000028e+02 3.853566114813560262e+01
1.156000000000000085e+02 3.846745807287126695e+01
1.160000000000000000e+02 3.839960826693855012e+01
1.164000000000000057e+02 3.833210865023477965e+01
1.168000000000000114e+02 3.826495618039002977e+01
1.172000000000000028e+02 3.819814785217194242e+01
1.176000000000000085e+02 3.813168069690218687e+01
1.180000000000000000e+02 3.806555178188400390e+01
1.184000000000000057e+02 3.799975820984076336e+01
1.188000000000000114e+02 3.793429711836530061e+01
1.192000000000000028e+02 3.786916567937954881e+01
1.196000000000000085e+02 3.780436109860455218e+01
1.200000000000000000e+02 3.773988061504051217e+01
1.204000000000000057e+02 3.767572150045634771e+01
1.208000000000000114e+02 3.761188105888921029e+01
1.212000000000000028e+02 3.754835662615302994e+01
1.216000000000000085e+02 3.748514556935636932e+01
1.220000000000000000e+02 3.742224528642916681e+01
1.224000000000000057e+02 3.735965320565822623e+01
1.228000000000000114e+02 3.729736678523134685e+01
1.232000000000000028e+02 3.723538351278963887e+01
1.236000000000000085e+02 3.717370090498827295e+01
1.240000000000000000e+02 3.711231650706501028e+01
1.244000000000000057e+02 3.705122789241675463e+01
1.248000000000000114e+02 3.699667498214795103e+01
1.252000000000000028e+02 3.694097267700815479e+01
1.256000000000000085e+02 3.688143957853966981e+01
1.260000000000000000e+02 3.682218902001494598e+01
1.264000000000000057e+02 3.676321874383192778e+01
1.268000000000000114e+02 3.670452651774509434e+01
1.272000000000000028e+02 3.664611013449862043e+01
1.276000000000000085e+02 3.658796741146603893e+01
1.280000000000000000e+02 3.653009619029632660e+01
1.284000000000000057e+02 3.647249433656610762e+01
1.288000000000000114e+02 3.641515973943803886e+01
1.291999999999999886e+02 3.635809031132512104e+01
1.296000000000000227e+02 3.630128398756082930e+01
1.300000000000000000e+02 3.624473872607507730e+01
1.304000000000000057e+02 3.618845250707557426e+01
1.308000000000000114e+02 3.613242333273493045e+01
1.311999999999999886e+02 3.607650514010701670e+01
1.316000000000000227e+02 3.602060197178816026e+01
1.320000000000000000e+02 3.596495191774164368e+01
1.324000000000000057e+02 3.590955305117521590e+01
1.328000000000000114e+02 3.585440346589953720e+01
1.331999999999999886e+02 3.581260056901457034e+01
1.336000000000000227e+02 3.575834572552680868e+01
1.340000000000000000e+02 3.570433204966983709e+01
1.344000000000000057e+02 3.565055773733921995e+01
1.348000000000000114e+02 3.559702100339781339e+01
1.351999999999999886e+02 3.554372008141891826e+01
1.356000000000000227e+02 3.549065322343364670e+01
1.360000000000000000e+02 3.543781869968256615e+01
1.364000000000000057e+02 3.538521479837135075e+01
1.368000000000000114e+02 3.533283982543049717e+01
1.371999999999999886e+02 3.528069210427891278e+01
1.376000000000000227e+02 3.522876997559143319e+01
1.380000000000000000e+02 3.517707179707007015e+01
1.384000000000000057e+02 3.512559594321890444e+01
1.388000000000000114e+02 3.507434080512284424e+01
1.392000000000000171e+02 3.502330479022965903e+01
1.395999999999999943e+02 3.497248632213574382e+01
1.400000000000000000e+02 3.492185967754059561e+01
1.404000000000000057e+02 3.487140555108715034e+01
1.408000000000000114e+02 3.482102957010493327e+01
1.412000000000000171e+02 3.477086064737892457e+01
1.415999999999999943e+02 3.472090249415498420e+01
1.420000000000000000e+02 3.467115362060622630e+01
1.424000000000000057e+02 3.462161255170180851e+01
1.428000000000000114e+02 3.457227782701770025e+01
1.432000000000000171e+02 3.452314800055047073e+01
1.435999999999999943e+02 3.447422164053391214e+01
1.440000000000000000e+02 3.442549732925857597e+01
1.444000000000000057e+02 3.437697366289403789e+01
1.448000000000000114e+02 3.432864925131399758e+01
1.452000000000000171e+02 3.428052271792397931e+01
1.455999999999999943e+02 3.423259269949175376e+01
1.460000000000000000e+02 3.418485784598032495e+01
1.464000000000000057e+02 3.413731682038351067e+01
1.468000000000000114e+02 3.408996829856392452e+01
1.472000000000000171e+02 3.404281096909357274e+01
1.475999999999999943e+02 3.399584353309671769e+01
1.480000000000000000e+02 3.394906470409523536e+01
1.484000000000000057e+02 3.390247320785621099e+01
1.488000000000000114e+02 3.385606778224188673e+01
1.492000000000000171e+02 3.380984717706186871e+01
1.495999999999999943e+02 3.376381015392743734e+01
1.500000000000000000e+02 3.371795548610817406e+01
