1.000000000000000000e+01 6.787173094956187924e+02
1.040000000000000036e+01 7.164191513317286990e+02
1.080000000000000071e+01 7.508149325943825261e+02
1.119999999999999929e+01 7.986369956201245941e+02
1.159999999999999964e+01 8.525591994482288101e+02
1.200000000000000000e+01 8.662828709330512993e+02
1.240000000000000036e+01 8.785265097556334695e+02
1.280000000000000071e+01 9.568141283399468193e+02
1.319999999999999929e+01 9.836587874406502578e+02
1.359999999999999964e+01 1.011766746784161455e+03
1.400000000000000000e+01 1.004285848474392196e+03
1.440000000000000036e+01 9.852300427233961955e+02
1.480000000000000071e+01 9.674003399885646104e+02
1.519999999999999929e+01 9.506624679476642541e+02
1.560000000000000142e+01 9.349026796456694228e+02
1.600000000000000000e+01 9.200237736791984844e+02
1.639999999999999858e+01 9.059420390280208721e+02
1.680000000000000071e+01 8.925848766649269237e+02
1.719999999999999929e+01 8.798889247171707666e+02
1.760000000000000142e+01 8.677985638387049221e+02
1.800000000000000000e+01 8.562647134904602808e+02
1.839999999999999858e+01 8.452438534868942952e+02
1.880000000000000071e+01 8.346972218935914043e+02
1.920000000000000284e+01 8.245901523672339408e+02
1.960000000000000142e+01 8.148915227687859897e+02
2.000000000000000000e+01 8.055732933239812610e+02
2.039999999999999858e+01 7.966101174117443406e+02
2.080000000000000071e+01 7.879790116858231386e+02
2.120000000000000284e+01 7.796590749959168534e+02
2.160000000000000142e+01 7.716312476974205765e+02
2.200000000000000000e+01 7.638781045853226033e+02
2.239999999999999858e+01 7.563836759751122827e+02
2.280000000000000071e+01 7.491332924677476512e+02
2.320000000000000284e+01 7.421134497404805188e+02
2.360000000000000142e+01 7.353116903481503641e+02
2.400000000000000000e+01 7.287165000362909950e+02
2.439999999999999858e+01 7.223172164852231845e+02
2.480000000000000071e+01 7.161039487440980338e+02
2.520000000000000284e+01 7.100675058916187936e+02
2.560000000000000142e+01 7.041993336884066821e+02
2.600000000000000000e+01 6.984914581743990993e+02
2.640000000000000213e+01 6.929364353209316505e+02
2.680000000000000071e+01 6.875273059773229534e+02
2.719999999999999929e+01 6.822575554606410151e+02
2.760000000000000142e+01 6.771210772287429336e+02
2.800000000000000000e+01 6.721121401537284328e+02
2.840000000000000213e+01 6.672253589781164465e+02
2.880000000000000071e+01 6.624556675913702293e+02
2.920000000000000284e+01 6.577982948115131876e+02
2.960000000000000142e+01 6.532487423968125313e+02
3.000000000000000000e+01 6.488027650470037315e+02
3.040000000000000213e+01 6.444563521831597654e+02
3.080000000000000071e+01 6.402057113208576311e+02
3.120000000000000284e+01 6.360472528733645277e+02
3.160000000000000142e+01 6.319775762406907234e+02
3.200000000000000000e+01 6.279934570569698735e+02
3.240000000000000568e+01 6.240918354830880617e+02
3.279999999999999716e+01 6.202698054441088971e+02
3.320000000000000284e+01 6.165246047220773562e+02
3.360000000000000142e+01 6.128536058244731066e+02
3.400000000000000000e+01 6.092543075570766860e+02
3.440000000000000568e+01 6.057243272375023935e+02
3.479999999999999716e+01 6.022613934922521821e+02
3.520000000000000284e+01 5.988633395859754955e+02
3.560000000000000142e+01 5.955280972367881986e+02
3.600000000000000000e+01 5.922536908760815777e+02
3.640000000000000568e+01 5.890382323153236257e+02
3.679999999999999716e+01 5.858799157859748448e+02
3.720000000000000284e+01 5.827770133218737101e+02
3.760000000000000142e+01 5.797278704563234442e+02
3.800000000000000000e+01 5.767309022086957384e+02
3.840000000000000568e+01 5.737845893376738786e+02
3.879999999999999716e+01 5.708874748403256945e+02
3.920000000000000284e+01 5.680381606780620132e+02
3.960000000000000142e+01 5.652353047122066982e+02
4.000000000000000000e+01 5.624776178334107044e+02
4.040000000000000568e+01 5.597638612705018204e+02
4.079999999999999716e+01 5.570928440655927716e+02
4.120000000000000284e+01 5.544634207033730036e+02
4.160000000000000142e+01 5.518744888835210531e+02
4.200000000000000000e+01 5.493249874260802699e+02
4.239999999999999858e+01 5.468138943004695420e+02
4.280000000000000426e+01 5.443402247695496499e+02
4.320000000000000284e+01 5.419030296408474214e+02
4.360000000000000142e+01 5.395013936176662810e+02
4.400000000000000000e+01 5.371344337433718010e+02
4.439999999999999858e+01 5.348012979326608729e+02
4.480000000000000426e+01 5.325011635840966164e+02
4.520000000000000284e+01 5.302332362686187253e+02
4.560000000000000142e+01 5.279967484891369622e+02
4.600000000000000000e+01 5.257909585066746558e+02
4.639999999999999858e+01 5.236151492288634017e+02
4.680000000000000426e+01 5.214686271568907614e+02
4.720000000000000284e+01 5.193507213872875354e+02
4.760000000000000142e+01 5.172607826651895948e+02
4.800000000000000000e+01 5.151981824859547032e+02
4.840000000000000568e+01 5.131623122422264487e+02
4.880000000000000426e+01 5.111525824137411860e+02
4.920000000000000284e+01 5.091684217973534601e+02
4.960000000000000142e+01 5.072092767749342102e+02
5.000000000000000000e+01 5.052746106169464611e+02
5.040000000000000568e+01 5.033639028196532763e+02
5.080000000000000426e+01 5.014766484740443957e+02
5.120000000000000284e+01 4.996123576646967877e+02
5.160000000000000142e+01 4.977705548968949074e+02
5.200000000000000000e+01 4.959507785504483763e+02
5.240000000000000568e+01 4.941525803587417158e+02
5.280000000000000426e+01 4.923755249116425716e+02
5.320000000000000284e+01 4.906191891809836534e+02
5.360000000000000142e+01 4.888831620674085343e+02
5.400000000000000000e+01 4.871670439674512068e+02
5.440000000000000568e+01 4.854704463597835797e+02
5.480000000000000426e+01 4.837929914096320090e+02
5.520000000000000284e+01 4.821343115904226124e+02
5.560000000000000142e+01 4.804940493217721382e+02
5.600000000000000000e+01 4.788718566229921407e+02
5.640000000000000568e+01 4.772673947813228779e+02
5.680000000000000426e+01 4.756803340341609214e+02
5.720000000000000284e+01 4.741103532645818177e+02
5.760000000000000142e+01 4.725571397095068846e+02
5.800000000000000000e+01 4.710203886798904023e+02
5.840000000000000568e+01 4.694998032923488154e+02
5.880000000000000426e+01 4.679950942116769284e+02
5.920000000000000284e+01 4.665059794037319989e+02
5.960000000000000142e+01 4.650321838981936935e+02
6.000000000000000000e+01 4.635734395607349825e+02
6.040000000000000568e+01 4.621294848741638361e+02
6.080000000000000426e+01 4.607000647281190595e+02
6.120000000000000284e+01 4.592849302169255452e+02
6.160000000000000142e+01 4.578838384452392347e+02
6.200000000000000000e+01 4.564965523411221966e+02
6.240000000000000568e+01 4.551228404762186983e+02
6.280000000000000426e+01 4.537624768927106516e+02
6.320000000000000284e+01 4.524152409367522978e+02
6.360000000000000142e+01 4.510809170980978706e+02
6.400000000000000000e+01 4.497592948556522288e+02
6.440000000000000568e+01 4.484501685286829797e+02
6.480000000000001137e+01 4.471533371334543290e+02
6.520000000000000284e+01 4.458686042450448213e+02
6.559999999999999432e+01 4.445957778641317191e+02
6.600000000000000000e+01 4.433346702885294235e+02
6.640000000000000568e+01 4.420850979892823034e+02
6.680000000000001137e+01 4.408468814911219624e+02
6.720000000000000284e+01 4.396198452571073858e+02
6.759999999999999432e+01 4.384038175772754471e+02
6.800000000000000000e+01 4.371986304611363039e+02
6.840000000000000568e+01 4.360041195338599209e+02
6.880000000000001137e+01 4.348201239359997317e+02
6.920000000000000284e+01 4.336464862266169575e+02
6.959999999999999432e+01 4.324830522896637603e+02
7.000000000000000000e+01 4.313296712435002291e+02
7.040000000000000568e+01 4.301861953534198619e+02
7.080000000000001137e+01 4.290524799470647395e+02
7.120000000000000284e+01 4.279283833326195463e+02
7.159999999999999432e+01 4.268137667196750158e+02
7.200000000000000000e+01 4.257084941426594469e+02
7.240000000000000568e+01 4.246124323867389876e+02
7.280000000000001137e+01 4.235254509160938596e+02
7.320000000000000284e+01 4.224474218044782674e+02
7.359999999999999432e+01 4.213782196679823642e+02
7.400000000000000000e+01 4.203177215999087366e+02
7.440000000000000568e+01 4.192658071076893975e+02
7.479999999999999716e+01 4.182223580517661503e+02
7.520000000000000284e+01 4.171872585863601444e+02
7.560000000000000853e+01 4.161603951020661043e+02
7.600000000000000000e+01 4.151416561702011450e+02
7.640000000000000568e+01 4.141309324888459287e+02
7.679999999999999716e+01 4.131281168305191613e+02
7.720000000000000284e+01 4.121331039914241501e+02
7.760000000000000853e+01 4.111457907422136486e+02
7.800000000000000000e+01 4.101660757802200692e+02
7.840000000000000568e+01 4.091938596830962069e+02
7.879999999999999716e+01 4.082290448638214002e+02
7.920000000000000284e+01 4.072715355270233317e+02
7.960000000000000853e+01 4.063212376265700527e+02
8.000000000000000000e+01 4.053780588243895409e+02
8.040000000000000568e+01 4.044419084504746706e+02
8.079999999999999716e+01 4.035126974640323851e+02
8.120000000000000284e+01 4.025903384157396658e+02
8.160000000000000853e+01 4.016747454110686704e+02
8.200000000000000000e+01 4.007658340746446015e+02
8.240000000000000568e+01 3.998635215156027698e+02
8.279999999999999716e+01 3.989677262939115963e+02
8.320000000000000284e+01 3.980783683876300074e+02
8.360000000000000853e+01 3.971953691610677879e+02
8.400000000000000000e+01 3.963186513338205827e+02
8.440000000000000568e+01 3.954481389506494793e+02
8.479999999999999716e+01 3.945837573521810668e+02
8.520000000000000284e+01 3.937254331463977337e+02
8.560000000000000853e+01 3.928730941808960324e+02
8.600000000000000000e+01 3.920266695158870789e+02
8.640000000000000568e+01 3.911860893979165894e+02
8.680000000000001137e+01 3.903512852342809651e+02
8.720000000000000284e+01 3.895221895681179376e+02
8.760000000000000853e+01 3.886987360541515955e+02
8.800000000000000000e+01 3.878808594350701924e+02
8.840000000000000568e+01 3.870684955185176364e+02
8.880000000000001137e+01 3.862615811546811528e+02
8.920000000000000284e+01 3.854600542144547717e+02
8.960000000000000853e+01 3.846638535681623807e+02
9.000000000000000000e+01 3.838729190648235772e+02
9.040000000000000568e+01 3.830871915119452638e+02
9.080000000000001137e+01 3.823066126558238125e+02
9.120000000000000284e+01 3.815311251623420503e+02
9.160000000000000853e+01 3.807606725982469129e+02
9.200000000000000000e+01 3.799951994128933848e+02
9.240000000000000568e+01 3.792346509204405720e+02
9.280000000000001137e+01 3.784789732824872317e+02
9.320000000000000284e+01 3.777281134911342519e+02
9.360000000000000853e+01 3.769820193524602701e+02
9.400000000000000000e+01 3.762406394704004811e+02
9.440000000000000568e+01 3.755039232310147668e+02
9.480000000000001137e+01 3.747718207871366189e+02
9.520000000000000284e+01 3.740442830433897257e+02
9.560000000000000853e+01 3.733212616415627849e+02
9.600000000000000000e+01 3.726027089463328252e+02
9.640000000000000568e+01 3.718885780313263467e+02
9.680000000000001137e+01 3.711788226655094149e+02
9.720000000000000284e+01 3.704733972998969875e+02
9.760000000000000853e+01 3.697722570545736289e+02
9.800000000000000000e+01 3.690753577060165753e+02
9.840000000000000568e+01 3.683826556747109748e+02
9.880000000000001137e+01 3.676941080130534374e+02
9.920000000000000284e+01 3.670096723935313321e+02
9.960000000000000853e+01 3.663293070971742509e+02
1.000000000000000000e+02 3.656529710022674635e+02
1.004000000000000057e+02 3.649806235733221342e+02
1.008000000000000114e+02 3.643122248502944558e+02
1.012000000000000028e+02 3.636477354380476186e+02
1.016000000000000085e+02 3.629871164960492820e+02
1.020000000000000000e+02 3.623303297282997733e+02
1.024000000000000057e+02 3.616773373734834536e+02
1.028000000000000114e+02 3.610281021953381355e+02
1.032000000000000028e+02 3.603825874732370380e+02
1.036000000000000085e+02 3.597407569929769124e+02
1.040000000000000000e+02 3.591025750377680197e+02
1.044000000000000057e+02 3.584680063794201033e+02
1.048000000000000114e+02 3.578370162697192427e+02
1.052000000000000028e+02 3.572095704319909828e+02
1.056000000000000085e+02 3.565856350528455323e+02
1.060000000000000000e+02 3.559651767740988362e+02
1.064000000000000057e+02 3.553481626848663950e+02
1.068000000000000114e+02 3.547345603138256820e+02
1.072000000000000028e+02 3.541243376216413026e+02
1.076000000000000085e+02 3.535174629935509643e+02
1.080000000000000000e+02 3.529139052321060603e+02
1.084000000000000057e+02 3.523136335500651057e+02
1.088000000000000114e+02 3.517166175634348519e+02
1.092000000000000028e+02 3.511228272846556138e+02
1.096000000000000085e+02 3.505322331159279088e+02
1.100000000000000000e+02 3.499448058426766011e+02
1.104000000000000057e+02 3.493605166271486269e+02
1.108000000000000114e+02 3.487793370021423129e+02
1.112000000000000028e+02 3.482012388648638535e+02
1.116000000000000085e+02 3.476261944709087857e+02
1.120000000000000000e+02 3.470541764283648263e+02
1.124000000000000057e+02 3.464851576920339085e+02
1.128000000000000114e+02 3.459191115577691562e+02
1.132000000000000028e+02 3.453560116569265688e+02
1.136000000000000085e+02 3.447958319509255034e+02
1.140000000000000000e+02 3.442385467259186953e+02
1.144000000000000057e+02 3.436841305875657895e+02
1.148000000000000114e+02 3.431325584559122035e+02
1.152000000000000028e+02 3.425838055603657040e+02
1.156000000000000085e+02 3.420378474347735960e+02
1.160000000000000000e+02 3.414946599125943294e+02
1.164000000000000057e+02 3.409542191221633516e+02
1.168000000000000114e+02 3.404165014820506485e+02
1.172000000000000028e+02 3.398814836965072459e+02
1.176000000000000085e+02 3.393491427509998175e+02
1.180000000000000000e+02 3.388194559078297630e+02
1.184000000000000057e+02 3.382924007018371526e+02
1.188000000000000114e+02 3.377679549361849922e+02
1.192000000000000028e+02 3.372460966782239211e+02
1.196000000000000085e+02 3.367268042554348995e+02
1.200000000000000000e+02 3.362100562514480089e+02
1.204000000000000057e+02 3.356958315021360022e+02
1.208000000000000114e+02 3.351841090917806127e+02
1.212000000000000028e+02 3.346748683493103727e+02
1.216000000000000085e+02 3.341680888446077233e+02
1.220000000000000000e+02 3.336637503848849633e+02
1.224000000000000057e+02 3.331618330111263049e+02
1.228000000000000114e+02 3.326623169945964378e+02
1.232000000000000028e+02 3.321651828334106540e+02
1.236000000000000085e+02 3.316704112491698879e+02
1.240000000000000000e+02 3.311779831836555559e+02
1.244000000000000057e+02 3.306878797955842515e+02
1.248000000000000114e+02 3.302000824574217859e+02
1.252000000000000028e+02 3.297145727522535026e+02
1.256000000000000085e+02 3.292313324707112088e+02
1.260000000000000000e+02 3.287503436079551875e+02
1.264000000000000057e+02 3.282715883607095293e+02
1.268000000000000114e+02 3.277950491243498732e+02
1.272000000000000028e+02 3.273207084900436712e+02
1.276000000000000085e+02 3.268485492419397360e+02
1.280000000000000000e+02 3.263785543544074130e+02
1.284000000000000057e+02 3.259107069893248649e+02
1.288000000000000114e+02 3.254449904934135702e+02
1.291999999999999886e+02 3.249813883956201153e+02
1.296000000000000227e+02 3.245198844045426654e+02
1.300000000000000000e+02 3.240604624059027401e+02
1.304000000000000057e+02 3.236031064600594505e+02
1.308000000000000114e+02 3.231478007995675625e+02
1.311999999999999886e+02 3.226945298267769431e+02
1.316000000000000227e+02 3.222432781114721365e+02
1.320000000000000000e+02 3.217940303885538924e+02
1.324000000000000057e+02 3.213467715557583233e+02
1.328000000000000114e+02 3.209014866714152845e+02
1.331999999999999886e+02 3.204581609522448389e+02
1.336000000000000227e+02 3.200167797711901017e+02
1.340000000000000000e+02 3.195773286552870331e+02
1.344000000000000057e+02 3.191397932835693041e+02
1.348000000000000114e+02 3.187041594850081196e+02
1.351999999999999886e+02 3.182704132364863767e+02
1.356000000000000227e+02 3.178385406608063022e+02
1.360000000000000000e+02 3.174085280247298897e+02
1.364000000000000057e+02 3.169803617370515099e+02
1.368000000000000114e+02 3.165540283467022391e+02
1.371999999999999886e+02 3.161295145408850544e+02
1.376000000000000227e+02 3.157068071432403826e+02
1.380000000000000000e+02 3.152858931120417765e+02
1.384000000000000057e+02 3.148667595384201832e+02
1.388000000000000114e+02 3.144493936446174303e+02
1.392000000000000171e+02 3.140337827822677355e+02
1.395999999999999943e+02 3.136199144307065012e+02
1.400000000000000000e+02 3.132077761953063373e+02
1.404000000000000057e+02 3.127973558058398567e+02
1.408000000000000114e+02 3.123886411148682782e+02
1.412000000000000171e+02 3.119816200961552113e+02
1.415999999999999943e+02 3.115762808431066446e+02
1.420000000000000000e+02 3.111726115672341280e+02
1.424000000000000057e+02 3.107706005966431348e+02
1.428000000000000114e+02 3.103702363745447315e+02
1.432000000000000171e+02 3.099715074577906648e+02
1.435999999999999943e+02 3.095744025154307906e+02
1.440000000000000000e+02 3.091789103272937496e+02
1.444000000000000057e+02 3.087850197825888472e+02
1.448000000000000114e+02 3.083927198785299311e+02
1.452000000000000171e+02 3.080019997189806418e+02
1.455999999999999943e+02 3.076128485131197863e+02
1.460000000000000000e+02 3.072252555741281412e+02
1.464000000000000057e+02 3.068392103178940715e+02
1.468000000000000114e+02 3.064547022617402945e+02
1.472000000000000171e+02 3.060717210231687204e+02
1.475999999999999943e+02 3.056902563186250745e+02
1.480000000000000000e+02 3.053102979622819930e+02
1.484000000000000057e+02 3.049318358648398544e+02
1.488000000000000114e+02 3.045548600323470509e+02
1.492000000000000171e+02 3.041793605650361769e+02
1.495999999999999943e+02 3.038053276561789744e+02
1.500000000000000000e+02 3.034327515909574799e+02
