1.000000000000000000e+01 6.487700255359879975e+02
1.040000000000000036e+01 7.617132327002070724e+02
1.080000000000000071e+01 7.725044075446662646e+02
1.119999999999999929e+01 7.983255665580766163e+02
1.159999999999999964e+01 8.194065040038656207e+02
1.200000000000000000e+01 8.401389765576311675e+02
1.240000000000000036e+01 8.529792573937363613e+02
1.280000000000000071e+01 9.107788239354596271e+02
1.319999999999999929e+01 9.434009487971766248e+02
1.359999999999999964e+01 9.690951541425807818e+02
1.400000000000000000e+01 9.670021242983350476e+02
1.440000000000000036e+01 9.477812232680410034e+02
1.480000000000000071e+01 9.298030582863993914e+02
1.519999999999999929e+01 9.129320116782412242e+02
1.560000000000000142e+01 8.970531073949048277e+02
1.600000000000000000e+01 8.820680207743350820e+02
1.639999999999999858e+01 8.678920141757500915e+02
1.680000000000000071e+01 8.544515502088094081e+02
1.719999999999999929e+01 8.416824091663968375e+02
1.760000000000000142e+01 8.295281872556759026e+02
1.800000000000000000e+01 8.179390862951997860e+02
1.839999999999999858e+01 8.068709292151734189e+02
1.880000000000000071e+01 7.962843524231311676e+02
1.920000000000000284e+01 7.861441380999053763e+02
1.960000000000000142e+01 7.764186582267170706e+02
2.000000000000000000e+01 7.670794085852141961e+02
2.039999999999999858e+01 7.581006157778795114e+02
2.080000000000000071e+01 7.494589039411071099e+02
2.120000000000000284e+01 7.411330105853051009e+02
2.160000000000000142e+01 7.331035431208442787e+02
2.200000000000000000e+01 7.253527692770559270e+02
2.239999999999999858e+01 7.178644359109269999e+02
2.280000000000000071e+01 7.106236117185292187e+02
2.320000000000000284e+01 7.036165501691001509e+02
2.360000000000000142e+01 6.968305696265671259e+02
2.400000000000000000e+01 6.902539481419648837e+02
2.439999999999999858e+01 6.838758308198214309e+02
2.480000000000000071e+01 6.776861480030083840e+02
2.520000000000000284e+01 6.716755427998211871e+02
2.560000000000000142e+01 6.658353067066384483e+02
2.600000000000000000e+01 6.601573222691454248e+02
2.640000000000000213e+01 6.546340118824780347e+02
2.680000000000000071e+01 6.492582919617741481e+02
2.719999999999999929e+01 6.440235318243690017e+02
2.760000000000000142e+01 6.389235167170586465e+02
2.800000000000000000e+01 6.339524144996003088e+02
2.840000000000000213e+01 6.291047455614170758e+02
2.880000000000000071e+01 6.243753556043370736e+02
2.920000000000000284e+01 6.197593909718093528e+02
2.960000000000000142e+01 6.152522762457176668e+02
3.000000000000000000e+01 6.108496938667954055e+02
3.040000000000000213e+01 6.065475655646297355e+02
3.080000000000000071e+01 6.023420354091036870e+02
3.120000000000000284e+01 5.982294543174698447e+02
3.160000000000000142e+01 5.942063658706273372e+02
3.200000000000000000e+01 5.902694933090053837e+02
3.240000000000000568e+01 5.864157275931218010e+02
3.279999999999999716e+01 5.826421164266828328e+02
3.320000000000000284e+01 5.789458541512909733e+02
3.360000000000000142e+01 5.753242724316547765e+02
3.400000000000000000e+01 5.717748316588191528e+02
3.440000000000000568e+01 5.682951130065382586e+02
3.479999999999999716e+01 5.648828110826171951e+02
3.520000000000000284e+01 5.615357271229761409e+02
3.560000000000000142e+01 5.582517626814383220e+02
3.600000000000000000e+01 5.550289137728996138e+02
3.640000000000000568e+01 5.518652654316784947e+02
3.679999999999999716e+01 5.487589866505234113e+02
3.720000000000000284e+01 5.457083256690457347e+02
3.760000000000000142e+01 5.427116055832754000e+02
3.800000000000000000e+01 5.397672202506607846e+02
3.840000000000000568e+01 5.368736304671881499e+02
3.879999999999999716e+01 5.340293603954008859e+02
3.920000000000000284e+01 5.312329942239925913e+02
3.960000000000000142e+01 5.284831730413587820e+02
4.000000000000000000e+01 5.257785919070172440e+02
4.040000000000000568e+01 5.231179971062030063e+02
4.079999999999999716e+01 5.205001835741825289e+02
4.120000000000000284e+01 5.179239924779758439e+02
4.160000000000000142e+01 5.153883089441872016e+02
4.200000000000000000e+01 5.128920599225832575e+02
4.239999999999999858e+01 5.104342121758921849e+02
4.280000000000000426e+01 5.080137703870698260e+02
4.320000000000000284e+01 5.056297753759670286e+02
4.360000000000000142e+01 5.032813024179765762e+02
4.400000000000000000e+01 5.009674596578051933e+02
4.439999999999999858e+01 4.986873866120516823e+02
4.480000000000000426e+01 4.964402527547488262e+02
4.520000000000000284e+01 4.942252561804707511e+02
4.560000000000000142e+01 4.920416223400059721e+02
4.600000000000000000e+01 4.898886028439702613e+02
4.639999999999999858e+01 4.877654743300680593e+02
4.680000000000000426e+01 4.856715373900245822e+02
4.720000000000000284e+01 4.836061155524927244e+02
4.760000000000000142e+01 4.815685543185055622e+02
4.800000000000000000e+01 4.795582202462813939e+02
4.840000000000000568e+01 4.775745000824152839e+02
4.880000000000000426e+01 4.756167999366925869e+02
4.920000000000000284e+01 4.736845444979491617e+02
4.960000000000000142e+01 4.717771762885790849e+02
5.000000000000000000e+01 4.698941549554502899e+02
5.040000000000000568e+01 4.680349565951362933e+02
5.080000000000000426e+01 4.661990731115138260e+02
5.120000000000000284e+01 4.643860116038974866e+02
5.160000000000000142e+01 4.625952937840086179e+02
5.200000000000000000e+01 4.608264554201766714e+02
5.240000000000000568e+01 4.590790458072790443e+02
5.280000000000000426e+01 4.573526272610175738e+02
5.320000000000000284e+01 4.556467746352172981e+02
5.360000000000000142e+01 4.539610748609136408e+02
5.400000000000000000e+01 4.522951265060737569e+02
5.440000000000000568e+01 4.506485393548621232e+02
5.480000000000000426e+01 4.490209340054332188e+02
5.520000000000000284e+01 4.474119414852876844e+02
5.560000000000000142e+01 4.458212028832936085e+02
5.600000000000000000e+01 4.442483689975205152e+02
5.640000000000000568e+01 4.426930999980875185e+02
5.680000000000000426e+01 4.411550651042733762e+02
5.720000000000000284e+01 4.396339422751768780e+02
5.760000000000000142e+01 4.381294179132592035e+02
5.800000000000000000e+01 4.366411865801377985e+02
5.840000000000000568e+01 4.351689507240340617e+02
5.880000000000000426e+01 4.337124204183144798e+02
5.920000000000000284e+01 4.322713131105921889e+02
5.960000000000000142e+01 4.308453533818874917e+02
6.000000000000000000e+01 4.294342727153731971e+02
6.040000000000000568e+01 4.280378092742550962e+02
6.080000000000000426e+01 4.266557076883627246e+02
6.120000000000000284e+01 4.252877188490490425e+02
6.160000000000000142e+01 4.239335997120173261e+02
6.200000000000000000e+01 4.225931131077152259e+02
6.240000000000000568e+01 4.212660275589543062e+02
6.280000000000000426e+01 4.199521171054295792e+02
6.320000000000000284e+01 4.186511611348329325e+02
6.360000000000000142e+01 4.173629442202685595e+02
6.400000000000000000e+01 4.160872559636933943e+02
6.440000000000000568e+01 4.148238908451185125e+02
6.480000000000001137e+01 4.135726480773244020e+02
6.520000000000000284e+01 4.123333314658495965e+02
6.559999999999999432e+01 4.111057492740301882e+02
6.600000000000000000e+01 4.098897140928733052e+02
6.640000000000000568e+01 4.086850427155622469e+02
6.680000000000001137e+01 4.074915560163984765e+02
6.720000000000000284e+01 4.063090788339949313e+02
6.759999999999999432e+01 4.051374398585466565e+02
6.800000000000000000e+01 4.039764715230096499e+02
6.840000000000000568e+01 4.028260098980286443e+02
6.880000000000001137e+01 4.016858945904618849e+02
6.920000000000000284e+01 4.005559686453576091e+02
6.959999999999999432e+01 3.994360784512450664e+02
7.000000000000000000e+01 3.983260736486048472e+02
7.040000000000000568e+01 3.972258070413976156e+02
7.080000000000001137e+01 3.961351345115265872e+02
7.120000000000000284e+01 3.950539149361211457e+02
7.159999999999999432e+01 3.939820101075318917e+02
7.200000000000000000e+01 3.929192846559313352e+02
7.240000000000000568e+01 3.918656059744226923e+02
7.280000000000001137e+01 3.908208441465572491e+02
7.320000000000000284e+01 3.897848718761728151e+02
7.359999999999999432e+01 3.887575644194632787e+02
7.400000000000000000e+01 3.877387995191962773e+02
7.440000000000000568e+01 3.867284573409995119e+02
7.479999999999999716e+01 3.857264204116383439e+02
7.520000000000000284e+01 3.847325735592114597e+02
7.560000000000000853e+01 3.837468038551946847e+02
7.600000000000000000e+01 3.827690005582653043e+02
7.640000000000000568e+01 3.817990550598426012e+02
7.679999999999999716e+01 3.808368608312828769e+02
7.720000000000000284e+01 3.798823133726692163e+02
7.760000000000000853e+01 3.789353101631400023e+02
7.800000000000000000e+01 3.779957506127015563e+02
7.840000000000000568e+01 3.770635360154711861e+02
7.879999999999999716e+01 3.761385695043031774e+02
7.920000000000000284e+01 3.752207560067477061e+02
7.960000000000000853e+01 3.743100022022961753e+02
8.000000000000000000e+01 3.734062164808705120e+02
8.040000000000000568e+01 3.725093089025118047e+02
8.079999999999999716e+01 3.716191911582292846e+02
8.120000000000000284e+01 3.707357765319682130e+02
8.160000000000000853e+01 3.698589798636606929e+02
8.200000000000000000e+01 3.689887175133226265e+02
8.240000000000000568e+01 3.681249073261612921e+02
8.279999999999999716e+01 3.672674685986600025e+02
8.320000000000000284e+01 3.664163220456092631e+02
8.360000000000000853e+01 3.655713897680508353e+02
8.400000000000000000e+01 3.647325952221069087e+02
8.440000000000000568e+01 3.638998631886635167e+02
8.479999999999999716e+01 3.630731197438836944e+02
8.520000000000000284e+01 3.622522922305199700e+02
8.560000000000000853e+01 3.614373092300033932e+02
8.600000000000000000e+01 3.606281005352829538e+02
8.640000000000000568e+01 3.598245971243920280e+02
8.680000000000001137e+01 3.590267311347188866e+02
8.720000000000000284e+01 3.582344358379590972e+02
8.760000000000000853e+01 3.574476456157282200e+02
8.800000000000000000e+01 3.566662959358152989e+02
8.840000000000000568e+01 3.558903233290556614e+02
8.880000000000001137e+01 3.551196653668057479e+02
8.920000000000000284e+01 3.543542606389994489e+02
8.960000000000000853e+01 3.535940487327710002e+02
9.000000000000000000e+01 3.528389702116242006e+02
9.040000000000000568e+01 3.520889665951335132e+02
9.080000000000001137e+01 3.513439803391603391e+02
9.120000000000000284e+01 3.506039548165692281e+02
9.160000000000000853e+01 3.498688342984286237e+02
9.200000000000000000e+01 3.491385639356823845e+02
9.240000000000000568e+01 3.484130897412782133e+02
9.280000000000001137e+01 3.476923585727387831e+02
9.320000000000000284e+01 3.469763181151636786e+02
9.360000000000000853e+01 3.462649168646482849e+02
9.400000000000000000e+01 3.455581041121095041e+02
9.440000000000000568e+01 3.448558299275041463e+02
9.480000000000001137e+01 3.441580451444307300e+02
9.520000000000000284e+01 3.434647013451025259e+02
9.560000000000000853e+01 3.427757508456820688e+02
9.600000000000000000e+01 3.420911466819659381e+02
9.640000000000000568e+01 3.414108425954112249e+02
9.680000000000001137e+01 3.407347930194925993e+02
9.720000000000000284e+01 3.400629530663820788e+02
9.760000000000000853e+01 3.393952785139415482e+02
9.800000000000000000e+01 3.387317257930198480e+02
9.840000000000000568e+01 3.380722519750459014e+02
9.880000000000001137e+01 3.374168147599096983e+02
9.920000000000000284e+01 3.367653724641232884e+02
9.960000000000000853e+01 3.361178840092543396e+02
1.000000000000000000e+02 3.354743089106241314e+02
1.004000000000000057e+02 3.348346072662641291e+02
1.008000000000000114e+02 3.341987397461228397e+02
1.012000000000000028e+02 3.335666675815172653e+02
1.016000000000000085e+02 3.329383525548213356e+02
1.020000000000000000e+02 3.323137569893866043e+02
1.024000000000000057e+02 3.316928437396873619e+02
1.028000000000000114e+02 3.310755761816851646e+02
1.032000000000000028e+02 3.304619182034075493e+02
1.036000000000000085e+02 3.298518341957334314e+02
1.040000000000000000e+02 3.292452890433821153e+02
1.044000000000000057e+02 3.286422481160989264e+02
1.048000000000000114e+02 3.280426772600336562e+02
1.052000000000000028e+02 3.274465427893050560e+02
1.056000000000000085e+02 3.268538114777492183e+02
1.060000000000000000e+02 3.262644505508445718e+02
1.064000000000000057e+02 3.256784276778104754e+02
1.068000000000000114e+02 3.250957109638753195e+02
1.072000000000000028e+02 3.245162689427079385e+02
1.076000000000000085e+02 3.239400705690105156e+02
1.080000000000000000e+02 3.233670852112676926e+02
1.084000000000000057e+02 3.227972826446480781e+02
1.088000000000000114e+02 3.222306330440544571e+02
1.092000000000000028e+02 3.216671069773194631e+02
1.096000000000000085e+02 3.211066753985424498e+02
1.100000000000000000e+02 3.205493096415643777e+02
1.104000000000000057e+02 3.199949814135774204e+02
1.108000000000000114e+02 3.194436627888661633e+02
1.112000000000000028e+02 3.188953262026766993e+02
1.116000000000000085e+02 3.183499444452108946e+02
1.120000000000000000e+02 3.178074906557428676e+02
1.124000000000000057e+02 3.172679383168544973e+02
1.128000000000000114e+02 3.167312612487871775e+02
1.132000000000000028e+02 3.161974336039072000e+02
1.136000000000000085e+02 3.156664298612821540e+02
1.140000000000000000e+02 3.151382248213652701e+02
1.144000000000000057e+02 3.146127936007851531e+02
1.148000000000000114e+02 3.140901116272398212e+02
1.152000000000000028e+02 3.135701546344899953e+02
1.156000000000000085e+02 3.130528986574521468e+02
1.160000000000000000e+02 3.125383200273869875e+02
1.164000000000000057e+02 3.120263953671818626e+02
1.168000000000000114e+02 3.115171015867255164e+02
1.172000000000000028e+02 3.110104158783714183e+02
1.176000000000000085e+02 3.105063157124900499e+02
1.180000000000000000e+02 3.100047788331056609e+02
1.184000000000000057e+02 3.095057832536172668e+02
1.188000000000000114e+02 3.090093072526011611e+02
1.192000000000000028e+02 3.085153293696934611e+02
1.196000000000000085e+02 3.080238284015510430e+02
1.200000000000000000e+02 3.075347833978881340e+02
1.204000000000000057e+02 3.070481736575881655e+02
1.208000000000000114e+02 3.065639787248887842e+02
1.212000000000000028e+02 3.060821783856376896e+02
1.216000000000000085e+02 3.056027526636182756e+02
1.220000000000000000e+02 3.051256818169443363e+02
1.224000000000000057e+02 3.046509463345207109e+02
1.228000000000000114e+02 3.041785269325697527e+02
1.232000000000000028e+02 3.037084045512214061e+02
1.236000000000000085e+02 3.032405603511657546e+02
1.240000000000000000e+02 3.027749757103671300e+02
1.244000000000000057e+02 3.023116322208377369e+02
1.248000000000000114e+02 3.018505116854695984e+02
1.252000000000000028e+02 3.013915961149244254e+02
1.256000000000000085e+02 3.009348677245790782e+02
1.260000000000000000e+02 3.004803089315259967e+02
1.264000000000000057e+02 3.000279023516274037e+02
1.268000000000000114e+02 2.995776307966219179e+02
1.272000000000000028e+02 2.991294772712831218e+02
1.276000000000000085e+02 2.986834249706279252e+02
1.280000000000000000e+02 2.982394572771746084e+02
1.284000000000000057e+02 2.977975577582488995e+02
1.288000000000000114e+02 2.973577101633377993e+02
1.291999999999999886e+02 2.969198984214893358e+02
1.296000000000000227e+02 2.964841066387576234e+02
1.300000000000000000e+02 2.960503190956928847e+02
1.304000000000000057e+02 2.956185202448742757e+02
1.308000000000000114e+02 2.951886947084858548e+02
1.311999999999999886e+02 2.947608272759342753e+02
1.316000000000000227e+02 2.943349029015066094e+02
1.320000000000000000e+02 2.939109067020698944e+02
1.324000000000000057e+02 2.934888239548081401e+02
1.328000000000000114e+02 2.930686400949987842e+02
1.331999999999999886e+02 2.926503407138268358e+02
1.336000000000000227e+02 2.922339115562356255e+02
1.340000000000000000e+02 2.918193385188139928e+02
1.344000000000000057e+02 2.914066076477189426e+02
1.348000000000000114e+02 2.909957051366331484e+02
1.351999999999999886e+02 2.905866173247560482e+02
1.356000000000000227e+02 2.901793306948293321e+02
1.360000000000000000e+02 2.897738318711941474e+02
1.364000000000000057e+02 2.893701076178812173e+02
1.368000000000000114e+02 2.889681448367321650e+02
1.371999999999999886e+02 2.885679305655514781e+02
1.376000000000000227e+02 2.881694519762892241e+02
1.380000000000000000e+02 2.877726963732533250e+02
1.384000000000000057e+02 2.873776511913503100e+02
1.388000000000000114e+02 2.869843039943560825e+02
1.392000000000000171e+02 2.865926424732130613e+02
1.395999999999999943e+02 2.862026544443560852e+02
1.400000000000000000e+02 2.858143278480642380e+02
1.404000000000000057e+02 2.854276507468400723e+02
1.408000000000000114e+02 2.850426113238142989e+02
1.412000000000000171e+02 2.846591978811756007e+02
1.415999999999999943e+02 2.842773988386262545e+02
1.420000000000000000e+02 2.838972027318616256e+02
1.424000000000000057e+02 2.835185982110735949e+02
1.428000000000000114e+02 2.831415740394783143e+02
1.432000000000000171e+02 2.827661190918664715e+02
1.435999999999999943e+02 2.823922223531764075e+02
1.440000000000000000e+02 2.820198729170896854e+02
1.444000000000000057e+02 2.816490599846484884e+02
1.448000000000000114e+02 2.812797728628943901e+02
1.452000000000000171e+02 2.809120009635287829e+02
1.455999999999999943e+02 2.805457338015927462e+02
1.460000000000000000e+02 2.801809609941688564e+02
1.464000000000000057e+02 2.798176722591015277e+02
1.468000000000000114e+02 2.794558574137384426e+02
1.472000000000000171e+02 2.790955063736892612e+02
1.475999999999999943e+02 2.787366091516053075e+02
1.480000000000000000e+02 2.783791558559763644e+02
1.484000000000000057e+02 2.780231366899462273e+02
1.488000000000000114e+02 2.776685419501463343e+02
1.492000000000000171e+02 2.773153620255464489e+02
1.495999999999999943e+02 2.769635873963231916e+02
1.500000000000000000e+02 2.766132086327448292e+02
