1.000000000000000000e+01 5.638046207225639819e+02
1.040000000000000036e+01 5.994083802569401769e+02
1.080000000000000071e+01 6.352307754435262268e+02
1.119999999999999929e+01 6.660422672557843953e+02
1.159999999999999964e+01 7.195517808713082104e+02
1.200000000000000000e+01 7.859595562445483665e+02
1.240000000000000036e+01 8.460005921994256823e+02
1.280000000000000071e+01 1.023052036884784343e+03
1.319999999999999929e+01 1.101547019217479374e+03
1.359999999999999964e+01 1.176783308059294995e+03
1.400000000000000000e+01 1.203086661579498013e+03
1.440000000000000036e+01 1.205094011870012082e+03
1.480000000000000071e+01 1.199857999884967285e+03
1.519999999999999929e+01 1.176437177285268490e+03
1.560000000000000142e+01 1.154560899435708507e+03
1.600000000000000000e+01 1.134057164335756852e+03
1.639999999999999858e+01 1.114780474345436915e+03
1.680000000000000071e+01 1.096606696195669883e+03
1.719999999999999929e+01 1.079429107959465227e+03
1.760000000000000142e+01 1.063155318155899295e+03
1.800000000000000000e+01 1.047704835681680834e+03
1.839999999999999858e+01 1.033007132244061495e+03
1.880000000000000071e+01 1.019000082217437239e+03
1.920000000000000284e+01 1.005628695073362906e+03
1.960000000000000142e+01 9.928440770000728435e+02
2.000000000000000000e+01 9.806025737952952568e+02
2.039999999999999858e+01 9.688650584105815824e+02
2.080000000000000071e+01 9.575963348737735714e+02
2.120000000000000284e+01 9.467646365568946294e+02
2.160000000000000142e+01 9.363412014706609625e+02
2.200000000000000000e+01 9.262999108620646211e+02
2.239999999999999858e+01 9.166169801583484968e+02
2.280000000000000071e+01 9.072706934479792835e+02
2.320000000000000284e+01 8.982411743688663819e+02
2.360000000000000142e+01 8.895101875975939265e+02
2.400000000000000000e+01 8.810609661836282385e+02
2.439999999999999858e+01 8.728780608112015216e+02
2.480000000000000071e+01 8.649472077456018724e+02
2.520000000000000284e+01 8.572552127653966636e+02
2.560000000000000142e+01 8.497898488249143156e+02
2.600000000000000000e+01 8.425397655530845213e+02
2.640000000000000213e+01 8.354944089917702286e+02
2.680000000000000071e+01 8.286439502217872359e+02
2.719999999999999929e+01 8.219792217278677526e+02
2.760000000000000142e+01 8.154916605228253275e+02
2.800000000000000000e+01 8.091732571924108015e+02
2.840000000000000213e+01 8.030165101408125565e+02
2.880000000000000071e+01 7.970143844165280598e+02
2.920000000000000284e+01 7.911602745826352248e+02
2.960000000000000142e+01 7.854479711669836206e+02
3.000000000000000000e+01 7.798716302886474523e+02
3.040000000000000213e+01 7.744257461088901664e+02
3.080000000000000071e+01 7.691051257993283343e+02
3.120000000000000284e+01 7.639048667581341761e+02
3.160000000000000142e+01 7.588203358379595329e+02
3.200000000000000000e+01 7.538471503776264626e+02
3.240000000000000568e+01 7.489811608541690475e+02
3.279999999999999716e+01 7.442184349931148972e+02
3.320000000000000284e+01 7.395552431934091828e+02
3.360000000000000142e+01 7.349880451395574710e+02
3.400000000000000000e+01 7.305134774876513575e+02
3.440000000000000568e+01 7.261283425243293550e+02
3.479999999999999716e+01 7.218295977085545019e+02
3.520000000000000284e+01 7.176143460156422407e+02
3.560000000000000142e+01 7.134798270113772105e+02
3.600000000000000000e+01 7.094234085914779371e+02
3.640000000000000568e+01 7.054425793282374570e+02
3.679999999999999716e+01 7.015349413719841323e+02
3.720000000000000284e+01 6.976982038601732938e+02
3.760000000000000142e+01 6.939301767915133041e+02
3.800000000000000000e+01 6.902287653266162124e+02
3.840000000000000568e+01 6.865919644803200299e+02
3.879999999999999716e+01 6.830178541740832543e+02
3.920000000000000284e+01 6.795045946197734565e+02
3.960000000000000142e+01 6.760504220087909744e+02
4.000000000000000000e+01 6.726536444828050207e+02
4.040000000000000568e+01 6.693126383645046644e+02
4.079999999999999716e+01 6.660258446286497929e+02
4.120000000000000284e+01 6.627917655954290694e+02
4.160000000000000142e+01 6.596089618296739445e+02
4.200000000000000000e+01 6.564760492308696485e+02
4.239999999999999858e+01 6.533916963001664726e+02
4.280000000000000426e+01 6.503546215717447012e+02
4.320000000000000284e+01 6.473635911969106473e+02
4.360000000000000142e+01 6.444174166702550792e+02
4.400000000000000000e+01 6.415149526880511530e+02
4.439999999999999858e+01 6.386550951298534073e+02
4.480000000000000426e+01 6.358367791549607091e+02
4.520000000000000284e+01 6.330589774060636046e+02
4.560000000000000142e+01 6.303206983129736045e+02
4.600000000000000000e+01 6.276209844898792198e+02
4.639999999999999858e+01 6.249589112200653744e+02
4.680000000000000426e+01 6.223335850224791557e+02
4.720000000000000284e+01 6.197441422949449361e+02
4.760000000000000142e+01 6.171897480292053615e+02
4.800000000000000000e+01 6.146695945933147414e+02
4.840000000000000568e+01 6.121829005772337950e+02
4.880000000000000426e+01 6.097289096977623331e+02
4.920000000000000284e+01 6.073068897592238500e+02
4.960000000000000142e+01 6.049161316665588402e+02
5.000000000000000000e+01 6.025559484877211389e+02
5.040000000000000568e+01 6.002256745624716814e+02
5.080000000000000426e+01 5.979246646548749595e+02
5.120000000000000284e+01 5.956522931469696687e+02
5.160000000000000142e+01 5.934079532712601122e+02
5.200000000000000000e+01 5.911910563798320482e+02
5.240000000000000568e+01 5.890010312480280845e+02
5.280000000000000426e+01 5.868373234107657481e+02
5.320000000000000284e+01 5.846993945296920856e+02
5.360000000000000142e+01 5.825867217894887062e+02
5.400000000000000000e+01 5.804987973217472472e+02
5.440000000000000568e+01 5.784351276549309659e+02
5.480000000000000426e+01 5.763952331890316145e+02
5.520000000000000284e+01 5.743786476936172676e+02
5.560000000000000142e+01 5.723849178280411252e+02
5.600000000000000000e+01 5.704136026826628267e+02
5.640000000000000568e+01 5.684642733399954295e+02
5.680000000000000426e+01 5.665365124547589630e+02
5.720000000000000284e+01 5.646299138518832024e+02
5.760000000000000142e+01 5.627440821415508481e+02
5.800000000000000000e+01 5.608786323504365328e+02
5.840000000000000568e+01 5.590331895683336825e+02
5.880000000000000426e+01 5.572073886094145792e+02
5.920000000000000284e+01 5.554008736874102397e+02
5.960000000000000142e+01 5.536132981040339018e+02
6.000000000000000000e+01 5.518443239500138588e+02
6.040000000000000568e+01 5.500936218181343520e+02
6.080000000000000426e+01 5.483608705277134732e+02
6.120000000000000284e+01 5.466457568599831802e+02
6.160000000000000142e+01 5.449479753038635863e+02
6.200000000000000000e+01 5.432672278116466487e+02
6.240000000000000568e+01 5.416032235641387160e+02
6.280000000000000426e+01 5.399556787448257182e+02
6.320000000000000284e+01 5.383243163226561592e+02
6.360000000000000142e+01 5.367088658430516261e+02
6.400000000000000000e+01 5.351090632267782894e+02
6.440000000000000568e+01 5.335246505763311688e+02
6.480000000000001137e+01 5.319553759895001122e+02
6.520000000000000284e+01 5.304009933798024576e+02
6.559999999999999432e+01 5.288612623034850913e+02
6.600000000000000000e+01 5.273359477928132719e+02
6.640000000000000568e+01 5.258248201953745138e+02
6.680000000000001137e+01 5.243276550191440037e+02
6.720000000000000284e+01 5.228442327830658769e+02
6.759999999999999432e+01 5.213743388729205890e+02
6.800000000000000000e+01 5.199177634022563552e+02
6.840000000000000568e+01 5.184743010781764951e+02
6.880000000000001137e+01 5.170437510717799796e+02
6.920000000000000284e+01 5.156259168930682790e+02
6.959999999999999432e+01 5.142206062701333167e+02
7.000000000000000000e+01 5.128276310324579299e+02
7.040000000000000568e+01 5.114468069981589906e+02
7.080000000000001137e+01 5.100779538650199356e+02
7.120000000000000284e+01 5.087208951051602526e+02
7.159999999999999432e+01 5.073754578631998129e+02
7.200000000000000000e+01 5.060414728577800361e+02
7.240000000000000568e+01 5.047187742863134758e+02
7.280000000000001137e+01 5.034071997328341581e+02
7.320000000000000284e+01 5.021065900788320846e+02
7.359999999999999432e+01 5.008167894169566807e+02
7.400000000000000000e+01 4.995376449674794230e+02
7.440000000000000568e+01 4.982690069974141807e+02
7.479999999999999716e+01 4.970107287421928390e+02
7.520000000000000284e+01 4.957626663298016183e+02
7.560000000000000853e+01 4.945246787072883308e+02
7.600000000000000000e+01 4.932966275695513332e+02
7.640000000000000568e+01 4.920783772903268982e+02
7.679999999999999716e+01 4.908697948552965045e+02
7.720000000000000284e+01 4.896707497972341798e+02
7.760000000000000853e+01 4.884811141331239241e+02
7.800000000000000000e+01 4.873007623031744515e+02
7.840000000000000568e+01 4.861295711116629263e+02
7.879999999999999716e+01 4.849674196695461319e+02
7.920000000000000284e+01 4.838141893387730761e+02
7.960000000000000853e+01 4.826697636782423615e+02
8.000000000000000000e+01 4.815340283913449753e+02
8.040000000000000568e+01 4.804068712750390091e+02
8.079999999999999716e+01 4.792881821704025924e+02
8.120000000000000284e+01 4.781778529146150163e+02
8.160000000000000853e+01 4.770757772943165378e+02
8.200000000000000000e+01 4.759818510003015035e+02
8.240000000000000568e+01 4.748959715834976691e+02
8.279999999999999716e+01 4.738180384121911288e+02
8.320000000000000284e+01 4.727479526304535966e+02
8.360000000000000853e+01 4.716856171177320221e+02
8.400000000000000000e+01 4.706309364495638192e+02
8.440000000000000568e+01 4.695838168593778619e+02
8.479999999999999716e+01 4.685441662013492987e+02
8.520000000000000284e+01 4.675118939142711270e+02
8.560000000000000853e+01 4.664869109864107486e+02
8.600000000000000000e+01 4.654691299213196203e+02
8.640000000000000568e+01 4.644584647045654719e+02
8.680000000000001137e+01 4.634548307713587292e+02
8.720000000000000284e+01 4.624581449750419893e+02
8.760000000000000853e+01 4.614683255564185060e+02
8.800000000000000000e+01 4.604852921138919442e+02
8.840000000000000568e+01 4.595089655743913113e+02
8.880000000000001137e+01 4.585392681650581039e+02
8.920000000000000284e+01 4.575761233856716217e+02
8.960000000000000853e+01 4.566194559817882350e+02
9.000000000000000000e+01 4.556691919185761890e+02
9.040000000000000568e+01 4.547252583553205341e+02
9.080000000000001137e+01 4.537875836205813584e+02
9.120000000000000284e+01 4.528560971879832096e+02
9.160000000000000853e+01 4.519307296526181972e+02
9.200000000000000000e+01 4.510114127080439062e+02
9.240000000000000568e+01 4.500980791238582697e+02
9.280000000000001137e+01 4.491906627238340661e+02
9.320000000000000284e+01 4.482890983645976917e+02
9.360000000000000853e+01 4.473933219148350418e+02
9.400000000000000000e+01 4.465032702350093246e+02
9.440000000000000568e+01 4.456188811575763680e+02
9.480000000000001137e+01 4.447400934676829820e+02
9.520000000000000284e+01 4.438668468843331993e+02
9.560000000000000853e+01 4.429990820420112527e+02
9.600000000000000000e+01 4.421367404727464532e+02
9.640000000000000568e+01 4.412797645886072360e+02
9.680000000000001137e+01 4.404280976646143699e+02
9.720000000000000284e+01 4.395816838220586078e+02
9.760000000000000853e+01 4.387404680122136256e+02
9.800000000000000000e+01 4.379043960004324845e+02
9.840000000000000568e+01 4.370734143506165879e+02
9.880000000000001137e+01 4.362474704100472991e+02
9.920000000000000284e+01 4.354265122945705002e+02
9.960000000000000853e+01 4.346104888741228365e+02
1.000000000000000000e+02 4.337993497585924274e+02
1.004000000000000057e+02 4.329930452840042676e+02
1.008000000000000114e+02 4.321915264990196874e+02
1.012000000000000028e+02 4.313947451517445302e+02
1.016000000000000085e+02 4.306026536768349615e+02
1.020000000000000000e+02 4.298152051828949425e+02
1.024000000000000057e+02 4.290323534401564984e+02
1.028000000000000114e+02 4.282540528684348260e+02
1.032000000000000028e+02 4.274802585253532925e+02
1.036000000000000085e+02 4.267109260948276415e+02
1.040000000000000000e+02 4.259460118758066187e+02
1.044000000000000057e+02 4.251854727712585600e+02
1.048000000000000114e+02 4.244292662774005294e+02
1.052000000000000028e+02 4.236773504731614821e+02
1.056000000000000085e+02 4.229296840098758139e+02
1.060000000000000000e+02 4.221862261011982014e+02
1.064000000000000057e+02 4.214469365132371763e+02
1.068000000000000114e+02 4.207117755549006688e+02
1.072000000000000028e+02 4.199807040684463573e+02
1.076000000000000085e+02 4.192536834202359728e+02
1.080000000000000000e+02 4.185306754916825867e+02
1.084000000000000057e+02 4.178116426703925868e+02
1.088000000000000114e+02 4.170965478414912013e+02
1.092000000000000028e+02 4.163853543791318543e+02
1.096000000000000085e+02 4.156780261381815080e+02
1.100000000000000000e+02 4.149745274460807423e+02
1.104000000000000057e+02 4.142748230948701007e+02
1.108000000000000114e+02 4.135788783333834431e+02
1.112000000000000028e+02 4.128866588596004021e+02
1.116000000000000085e+02 4.121981308131559558e+02
1.120000000000000000e+02 4.115132607680030787e+02
1.124000000000000057e+02 4.108320157252239255e+02
1.128000000000000114e+02 4.101543631059874997e+02
1.132000000000000028e+02 4.094802707446492605e+02
1.136000000000000085e+02 4.088097068819882907e+02
1.140000000000000000e+02 4.081426401585815711e+02
1.144000000000000057e+02 4.074790396083097335e+02
1.148000000000000114e+02 4.068188746519917913e+02
1.152000000000000028e+02 4.061621150911458926e+02
1.156000000000000085e+02 4.055087311018739342e+02
1.160000000000000000e+02 4.048586932288653202e+02
1.164000000000000057e+02 4.042119723795190680e+02
1.168000000000000114e+02 4.035685398181805112e+02
1.172000000000000028e+02 4.029283671604896995e+02
1.176000000000000085e+02 4.022914263678393922e+02
1.180000000000000000e+02 4.016576897419406009e+02
1.184000000000000057e+02 4.010271299194921539e+02
1.188000000000000114e+02 4.003997198669526369e+02
1.192000000000000028e+02 3.997754328754120934e+02
1.196000000000000085e+02 3.991542425555613818e+02
1.200000000000000000e+02 3.985361228327572576e+02
1.204000000000000057e+02 3.979210479421802233e+02
1.208000000000000114e+02 3.973089924240841810e+02
1.212000000000000028e+02 3.966999311191343054e+02
1.216000000000000085e+02 3.960938391638333655e+02
1.220000000000000000e+02 3.954906919860319476e+02
1.224000000000000057e+02 3.948904653005236014e+02
1.228000000000000114e+02 3.942931351047197950e+02
1.232000000000000028e+02 3.936986776744063832e+02
1.236000000000000085e+02 3.931070695595764164e+02
1.240000000000000000e+02 3.925182875803410525e+02
1.244000000000000057e+02 3.919323088229131145e+02
1.248000000000000114e+02 3.913491106356658520e+02
1.252000000000000028e+02 3.907686706252615068e+02
1.256000000000000085e+02 3.901909666528507614e+02
1.260000000000000000e+02 3.896159768303404007e+02
1.264000000000000057e+02 3.890436795167276500e+02
1.268000000000000114e+02 3.884740533145006793e+02
1.272000000000000028e+02 3.879070770661035112e+02
1.276000000000000085e+02 3.873427298504622058e+02
1.280000000000000000e+02 3.867809909795745398e+02
1.284000000000000057e+02 3.862218399951589163e+02
1.288000000000000114e+02 3.856652566653621648e+02
1.291999999999999886e+02 3.851112209815254914e+02
1.296000000000000227e+02 3.845597131550065910e+02
1.300000000000000000e+02 3.840107136140580906e+02
1.304000000000000057e+02 3.834642030007581752e+02
1.308000000000000114e+02 3.829201621679970913e+02
1.311999999999999886e+02 3.823785721765135577e+02
1.316000000000000227e+02 3.818394142919827345e+02
1.320000000000000000e+02 3.813026699821549528e+02
1.324000000000000057e+02 3.807683209140418512e+02
1.328000000000000114e+02 3.802363489511520811e+02
1.331999999999999886e+02 3.797067361507727696e+02
1.336000000000000227e+02 3.791794647612973677e+02
1.340000000000000000e+02 3.786545172195990858e+02
1.344000000000000057e+02 3.781318761484481001e+02
1.348000000000000114e+02 3.776115243539717312e+02
1.351999999999999886e+02 3.770934448231577107e+02
1.356000000000000227e+02 3.765776207213990006e+02
1.360000000000000000e+02 3.760640353900794253e+02
1.364000000000000057e+02 3.755526723441984700e+02
1.368000000000000114e+02 3.750435152700367780e+02
1.371999999999999886e+02 3.745365480228590513e+02
1.376000000000000227e+02 3.740317546246547522e+02
1.380000000000000000e+02 3.735291192619162075e+02
1.384000000000000057e+02 3.730286262834526951e+02
1.388000000000000114e+02 3.725302601982398869e+02
1.392000000000000171e+02 3.720340056733052165e+02
1.395999999999999943e+02 3.715398475316454210e+02
1.400000000000000000e+02 3.710477707501799500e+02
1.404000000000000057e+02 3.705577604577354123e+02
1.408000000000000114e+02 3.700698019330638999e+02
1.412000000000000171e+02 3.695838806028914405e+02
1.415999999999999943e+02 3.690999820399988494e+02
1.420000000000000000e+02 3.686180919613323681e+02
1.424000000000000057e+02 3.681381962261440322e+02
1.428000000000000114e+02 3.676602808341622222e+02
1.432000000000000171e+02 3.671843319237901824e+02
1.435999999999999943e+02 3.667103357703332449e+02
1.440000000000000000e+02 3.662382787842543053e+02
1.444000000000000057e+02 3.657681475094548205e+02
1.448000000000000114e+02 3.652999286215843995e+02
1.452000000000000171e+02 3.648336089263764279e+02
1.455999999999999943e+02 3.643691753580077375e+02
1.460000000000000000e+02 3.639066149774857877e+02
1.464000000000000057e+02 3.634459149710587553e+02
1.468000000000000114e+02 3.629870626486521132e+02
1.472000000000000171e+02 3.625300454423265819e+02
1.475999999999999943e+02 3.620748509047620587e+02
1.480000000000000000e+02 3.616214667077629201e+02
1.484000000000000057e+02 3.611698806407864595e+02
1.488000000000000114e+02 3.607200806094942322e+02
1.492000000000000171e+02 3.602720546343240358e+02
1.495999999999999943e+02 3.598257908490848536e+02
1.500000000000000000e+02 3.593812774995710697e+02
