1.000000000000000000e+01 1.178506566871485006e+02
1.040000000000000036e+01 1.240408740190804338e+02
1.080000000000000071e+01 1.288143794977405037e+02
1.119999999999999929e+01 1.305427650705013036e+02
1.159999999999999964e+01 1.268091907583339122e+02
1.200000000000000000e+01 1.234752154466042668e+02
1.240000000000000036e+01 1.204677540415298154e+02
1.280000000000000071e+01 1.176272206751896334e+02
1.319999999999999929e+01 1.149567588425092310e+02
1.359999999999999964e+01 1.125118734498123132e+02
1.400000000000000000e+01 1.103355515370657400e+02
1.440000000000000036e+01 1.083040233108072528e+02
1.480000000000000071e+01 1.064006008469008577e+02
1.519999999999999929e+01 1.006311880603967097e+02
1.560000000000000142e+01 9.874184877266598903e+01
1.600000000000000000e+01 9.695863255105675194e+01
1.639999999999999858e+01 9.527154765240081247e+01
1.680000000000000071e+01 9.367192137098061266e+01
1.719999999999999929e+01 9.215217735760074902e+01
1.760000000000000142e+01 8.618832821529645116e+01
1.800000000000000000e+01 8.789034209415980570e+01
1.839999999999999858e+01 8.653808828213045956e+01
1.880000000000000071e+01 8.384885939267564936e+01
1.920000000000000284e+01 8.264666709581851478e+01
1.960000000000000142e+01 8.149389829165127708e+01
2.000000000000000000e+01 8.039222619797921254e+01
2.039999999999999858e+01 7.934348701235404633e+01
2.080000000000000071e+01 7.833425732300993616e+01
2.120000000000000284e+01 7.736203977415613053e+01
2.160000000000000142e+01 7.642455682062394828e+01
2.200000000000000000e+01 7.551972609457607177e+01
2.239999999999999858e+01 7.464563910672389113e+01
2.280000000000000071e+01 7.380054275547526288e+01
2.320000000000000284e+01 7.298282321206576739e+01
2.360000000000000142e+01 7.224812717563602860e+01
2.400000000000000000e+01 7.154651698090231093e+01
2.439999999999999858e+01 7.079662587546386021e+01
2.480000000000000071e+01 7.006049327170049423e+01
2.520000000000000284e+01 6.878808301272255221e+01
2.560000000000000142e+01 6.812497943799445466e+01
2.600000000000000000e+01 6.748064984376614461e+01
2.640000000000000213e+01 6.685419554754034266e+01
2.680000000000000071e+01 6.624477805994948199e+01
2.719999999999999929e+01 6.565161393713302118e+01
2.760000000000000142e+01 6.507397016580966920e+01
2.800000000000000000e+01 6.451116001664794908e+01
2.840000000000000213e+01 6.396253931040953944e+01
2.880000000000000071e+01 6.342750304884240364e+01
2.920000000000000284e+01 6.290548236867081755e+01
2.960000000000000142e+01 6.136905284863007637e+01
3.000000000000000000e+01 6.084698001268631629e+01
3.040000000000000213e+01 6.031096924355011168e+01
3.080000000000000071e+01 5.978741987849861772e+01
3.120000000000000284e+01 5.927585151690452392e+01
3.160000000000000142e+01 5.877580951311180968e+01
3.200000000000000000e+01 5.865677154704658847e+01
3.240000000000000568e+01 5.819938106106831555e+01
3.279999999999999716e+01 5.775168158951356645e+01
3.320000000000000284e+01 5.731333264818901796e+01
3.360000000000000142e+01 5.688401042007814112e+01
3.400000000000000000e+01 5.646340671120707100e+01
3.440000000000000568e+01 5.605122798604988787e+01
3.479999999999999716e+01 5.564719447535468078e+01
3.520000000000000284e+01 5.525103935000136346e+01
3.560000000000000142e+01 5.486250795514889944e+01
3.600000000000000000e+01 5.447445900683841558e+01
3.640000000000000568e+01 5.409204147048360767e+01
3.679999999999999716e+01 5.478565742224795088e+01
3.720000000000000284e+01 5.445782845094805680e+01
3.760000000000000142e+01 5.413571885903641601e+01
3.800000000000000000e+01 5.381916018733033980e+01
3.840000000000000568e+01 5.350799092707583071e+01
3.879999999999999716e+01 5.320205615285308909e+01
3.920000000000000284e+01 5.290120717902057379e+01
3.960000000000000142e+01 5.260472696489417643e+01
4.000000000000000000e+01 5.231001955972925543e+01
4.040000000000000568e+01 5.202005645726602268e+01
4.079999999999999716e+01 5.173470857338344331e+01
4.120000000000000284e+01 5.145385174771928405e+01
4.160000000000000142e+01 5.117736650305401724e+01
4.200000000000000000e+01 5.090513781898097534e+01
4.239999999999999858e+01 5.063705491886761223e+01
4.280000000000000426e+01 5.038313332566487190e+01
4.320000000000000284e+01 5.013548781240245944e+01
4.360000000000000142e+01 4.989169145816698858e+01
4.400000000000000000e+01 4.965325771379423969e+01
4.439999999999999858e+01 4.941816818852689153e+01
4.480000000000000426e+01 4.918634363019985756e+01
4.520000000000000284e+01 4.895770742774616480e+01
4.560000000000000142e+01 4.873218549799273092e+01
4.600000000000000000e+01 4.850970617837528209e+01
4.639999999999999858e+01 4.829020012520732763e+01
4.680000000000000426e+01 4.807360021716515064e+01
4.720000000000000284e+01 4.785984146367326275e+01
4.760000000000000142e+01 4.764886091789752243e+01
4.800000000000000000e+01 4.744059759407294763e+01
4.840000000000000568e+01 4.723499238891170648e+01
4.880000000000000426e+01 4.703198800685411385e+01
4.920000000000000284e+01 4.683104411361978237e+01
4.960000000000000142e+01 4.667128801714739694e+01
5.000000000000000000e+01 4.646994240532766440e+01
5.040000000000000568e+01 4.626996973346912512e+01
5.080000000000000426e+01 4.607247635129628804e+01
5.120000000000000284e+01 4.587741070434547908e+01
5.160000000000000142e+01 4.560883667423634336e+01
5.200000000000000000e+01 4.541970600286446569e+01
5.240000000000000568e+01 4.523282266284532227e+01
5.280000000000000426e+01 4.504814190703166332e+01
5.320000000000000284e+01 4.486562023585020853e+01
5.360000000000000142e+01 4.468521535262303246e+01
5.400000000000000000e+01 4.450688612084181273e+01
5.440000000000000568e+01 4.433059252329411493e+01
5.480000000000000426e+01 4.415629562294715527e+01
5.520000000000000284e+01 4.398395752549970439e+01
5.560000000000000142e+01 4.381354134351852991e+01
5.600000000000000000e+01 4.364501116207996745e+01
5.640000000000000568e+01 4.347833200584233282e+01
5.680000000000000426e+01 4.331346980747873232e+01
5.720000000000000284e+01 4.315039137740419051e+01
5.760000000000000142e+01 4.298906437473417697e+01
5.800000000000000000e+01 4.282945727941580571e+01
5.840000000000000568e+01 4.278417373916774835e+01
5.880000000000000426e+01 4.263125533447340842e+01
5.920000000000000284e+01 4.247968740236448326e+01
5.960000000000000142e+01 4.232879292233806723e+01
6.000000000000000000e+01 4.217799604357047372e+01
6.040000000000000568e+01 4.202857346053514220e+01
6.080000000000000426e+01 4.188067216992756414e+01
6.120000000000000284e+01 4.173426601292982241e+01
6.160000000000000142e+01 4.158932946230552830e+01
6.200000000000000000e+01 4.144583760282128537e+01
6.240000000000000568e+01 4.130376611240743756e+01
6.280000000000000426e+01 4.116309124402505404e+01
6.320000000000000284e+01 4.102378980820805054e+01
6.360000000000000142e+01 4.088583915625096665e+01
6.400000000000000000e+01 4.074921716401420468e+01
6.440000000000000568e+01 4.061390221632002806e+01
6.480000000000001137e+01 4.047987319191410904e+01
6.520000000000000284e+01 4.034710944896837503e+01
6.559999999999999432e+01 4.021559081110224554e+01
6.600000000000000000e+01 4.008529755390051008e+01
6.640000000000000568e+01 3.995621039190706369e+01
6.680000000000001137e+01 3.982851485949554160e+01
6.720000000000000284e+01 3.970222579638241456e+01
6.759999999999999432e+01 3.974908972537789964e+01
6.800000000000000000e+01 3.962731074268781128e+01
6.840000000000000568e+01 3.950661603026765079e+01
6.880000000000001137e+01 3.939240109650263122e+01
6.920000000000000284e+01 3.927608906285617252e+01
6.959999999999999432e+01 3.916078386849679305e+01
7.000000000000000000e+01 3.904647077009543210e+01
7.040000000000000568e+01 3.893313532847373892e+01
7.080000000000001137e+01 3.882076340051380470e+01
7.120000000000000284e+01 3.872309707813272439e+01
7.159999999999999432e+01 3.861411651872543871e+01
7.200000000000000000e+01 3.850604402972990670e+01
7.240000000000000568e+01 3.839886680352403658e+01
7.280000000000001137e+01 3.829257228714321570e+01
7.320000000000000284e+01 3.818714817574733900e+01
7.359999999999999432e+01 3.808258240629281488e+01
7.400000000000000000e+01 3.797886315140220859e+01
7.440000000000000568e+01 3.787597881342429673e+01
7.479999999999999716e+01 3.777391801867702981e+01
7.520000000000000284e+01 3.767266961186751217e+01
7.560000000000000853e+01 3.757222265068183731e+01
7.600000000000000000e+01 3.747256640053921473e+01
7.640000000000000568e+01 3.735684506093995338e+01
7.679999999999999716e+01 3.725878832469542346e+01
7.720000000000000284e+01 3.716148722663527337e+01
7.760000000000000853e+01 3.706493191591425784e+01
7.800000000000000000e+01 3.696823406059588990e+01
7.840000000000000568e+01 3.687214759764729877e+01
7.879999999999999716e+01 3.677678688137980600e+01
7.920000000000000284e+01 3.668214265264994367e+01
7.960000000000000853e+01 3.658820581850826414e+01
8.000000000000000000e+01 3.649496744835467155e+01
8.040000000000000568e+01 3.640241877020261541e+01
8.079999999999999716e+01 3.631055116704845176e+01
8.120000000000000284e+01 3.621935617334258950e+01
8.160000000000000853e+01 3.612882547155881952e+01
8.200000000000000000e+01 3.603895088885892051e+01
8.240000000000000568e+01 3.594972439384905982e+01
8.279999999999999716e+01 3.586077183025272319e+01
8.320000000000000284e+01 3.577234283358588129e+01
8.360000000000000853e+01 3.568454345565134389e+01
8.400000000000000000e+01 3.559736612928485044e+01
8.440000000000000568e+01 3.551080341521715411e+01
8.479999999999999716e+01 3.542484799928917738e+01
8.520000000000000284e+01 3.533949268974142655e+01
8.560000000000000853e+01 3.525473041457509993e+01
8.600000000000000000e+01 3.517043610127062436e+01
8.640000000000000568e+01 3.508654934328572494e+01
8.680000000000001137e+01 3.500323715858908713e+01
8.720000000000000284e+01 3.492049290871676703e+01
8.760000000000000853e+01 3.483831006294531107e+01
8.800000000000000000e+01 3.477367203594314304e+01
8.840000000000000568e+01 3.469368203761692371e+01
8.880000000000001137e+01 3.461422639206926277e+01
8.920000000000000284e+01 3.453529906708487829e+01
8.960000000000000853e+01 3.445689412624180648e+01
9.000000000000000000e+01 3.437900572695325252e+01
9.040000000000000568e+01 3.430162811855828409e+01
9.080000000000001137e+01 3.422475564046007435e+01
9.120000000000000284e+01 3.414838272030998212e+01
9.160000000000000853e+01 3.407250387223665200e+01
9.200000000000000000e+01 3.399711369511823733e+01
9.240000000000000568e+01 3.392220687089692888e+01
9.280000000000001137e+01 3.384777816293441788e+01
9.320000000000000284e+01 3.377382241440709976e+01
9.360000000000000853e+01 3.370033454673990292e+01
9.400000000000000000e+01 3.362730955807772659e+01
9.440000000000000568e+01 3.355474252179319450e+01
9.480000000000001137e+01 3.348262858503012751e+01
9.520000000000000284e+01 3.341096296728116499e+01
9.560000000000000853e+01 3.333974095899910139e+01
9.600000000000000000e+01 3.326895792024071596e+01
9.640000000000000568e+01 3.320171666398506716e+01
9.680000000000001137e+01 3.313267753087629330e+01
9.720000000000000284e+01 3.306425581942000491e+01
9.760000000000000853e+01 3.299624669627000628e+01
9.800000000000000000e+01 3.292864595744577372e+01
9.840000000000000568e+01 3.286121674943405679e+01
9.880000000000001137e+01 3.279418587836003240e+01
9.920000000000000284e+01 3.272755261247711900e+01
9.960000000000000853e+01 3.266131296940906026e+01
1.000000000000000000e+02 3.259546302288904940e+01
1.004000000000000057e+02 3.252999890174147879e+01
1.008000000000000114e+02 3.246491678888614274e+01
1.012000000000000028e+02 3.240021292036454525e+01
1.016000000000000085e+02 3.233588358438760224e+01
1.020000000000000000e+02 3.227192512040426919e+01
1.024000000000000057e+02 3.220833391819038383e+01
1.028000000000000114e+02 3.214510641695745363e+01
1.032000000000000028e+02 3.208223910448066363e+01
1.036000000000000085e+02 3.201972851624569216e+01
1.040000000000000000e+02 3.195757123461390847e+01
1.044000000000000057e+02 3.189576388800534090e+01
1.048000000000000114e+02 3.183430315009915290e+01
1.052000000000000028e+02 3.177318573905100862e+01
1.056000000000000085e+02 3.171240841672707589e+01
1.060000000000000000e+02 3.165196798795405186e+01
1.064000000000000057e+02 3.159186129978503033e+01
1.068000000000000114e+02 3.153208524078058872e+01
1.072000000000000028e+02 3.147262573187711254e+01
1.076000000000000085e+02 3.141330541259702258e+01
1.080000000000000000e+02 3.135430705113266114e+01
1.084000000000000057e+02 3.128767777209194989e+01
1.088000000000000114e+02 3.122967947160067936e+01
1.092000000000000028e+02 3.117199319679060920e+01
1.096000000000000085e+02 3.111944047145276926e+01
1.100000000000000000e+02 3.106235131216288892e+01
1.104000000000000057e+02 3.100554365340369856e+01
1.108000000000000114e+02 3.094903709876312092e+01
1.112000000000000028e+02 3.089282894760071940e+01
1.116000000000000085e+02 3.083691653339280947e+01
1.120000000000000000e+02 3.078129722317660821e+01
1.124000000000000057e+02 3.072596841700540793e+01
1.128000000000000114e+02 3.067092754741462457e+01
1.132000000000000028e+02 3.061617207889836934e+01
1.136000000000000085e+02 3.056169950739639418e+01
1.140000000000000000e+02 3.050750735979112704e+01
1.144000000000000057e+02 3.045359319341449122e+01
1.148000000000000114e+02 3.039995459556442725e+01
1.152000000000000028e+02 3.034658918303074415e+01
1.156000000000000085e+02 3.029349460163022911e+01
1.160000000000000000e+02 3.024066852575067088e+01
1.164000000000000057e+02 3.018810865790365483e+01
1.168000000000000114e+02 3.013581272828596980e+01
1.172000000000000028e+02 3.008377849434937801e+01
1.176000000000000085e+02 3.003200374037851006e+01
1.180000000000000000e+02 2.998048627707686364e+01
1.184000000000000057e+02 2.992922394116051876e+01
1.188000000000000114e+02 2.987821459495961562e+01
1.192000000000000028e+02 2.983248878489074585e+01
1.196000000000000085e+02 2.978218281445514037e+01
1.200000000000000000e+02 2.973212330774699552e+01
1.204000000000000057e+02 2.968230822003455316e+01
1.208000000000000114e+02 2.963271161218382233e+01
1.212000000000000028e+02 2.958333259847366037e+01
1.216000000000000085e+02 2.953419238412071124e+01
1.220000000000000000e+02 2.948528901321671825e+01
1.224000000000000057e+02 2.943662055242878495e+01
1.228000000000000114e+02 2.938818509066337725e+01
1.232000000000000028e+02 2.933998073873633317e+01
1.236000000000000085e+02 2.929200562904897254e+01
1.240000000000000000e+02 2.924425791526995866e+01
1.244000000000000057e+02 2.919673577202298631e+01
1.248000000000000114e+02 2.914943739458007599e+01
1.252000000000000028e+02 2.910688060272246602e+01
1.256000000000000085e+02 2.906042630654113523e+01
1.260000000000000000e+02 2.901418839656994209e+01
1.264000000000000057e+02 2.896816516599123403e+01
1.268000000000000114e+02 2.892235492696327270e+01
1.272000000000000028e+02 2.887675601034797879e+01
1.276000000000000085e+02 2.883136676544361521e+01
1.280000000000000000e+02 2.878618555972202131e+01
1.284000000000000057e+02 2.874121077857054374e+01
1.288000000000000114e+02 2.869644082503839400e+01
1.291999999999999886e+02 2.865187411958735808e+01
1.296000000000000227e+02 2.860750909984693280e+01
1.300000000000000000e+02 2.856334422037357612e+01
1.304000000000000057e+02 2.851937795241411422e+01
1.308000000000000114e+02 2.847559140854751902e+01
1.311999999999999886e+02 2.843191984980181530e+01
1.316000000000000227e+02 2.838832326161553254e+01
1.320000000000000000e+02 2.834492019455155543e+01
1.324000000000000057e+02 2.830170919592345058e+01
1.328000000000000114e+02 2.825868882840589080e+01
1.331999999999999886e+02 2.821443652693796622e+01
1.336000000000000227e+02 2.817193185006758327e+01
1.340000000000000000e+02 2.812961256805144927e+01
1.344000000000000057e+02 2.808747731313965090e+01
1.348000000000000114e+02 2.804552473179724359e+01
1.351999999999999886e+02 2.800375348451357382e+01
1.356000000000000227e+02 2.796216224561486996e+01
1.360000000000000000e+02 2.792074970307988124e+01
1.364000000000000057e+02 2.787951455835845138e+01
1.368000000000000114e+02 2.783845552619313679e+01
1.371999999999999886e+02 2.779757133444365991e+01
1.376000000000000227e+02 2.775686072391422599e+01
1.380000000000000000e+02 2.771632244818361812e+01
1.384000000000000057e+02 2.767595527343799233e+01
1.388000000000000114e+02 2.763575797830642244e+01
1.392000000000000171e+02 2.759572935369900648e+01
1.395999999999999943e+02 2.755586820264758430e+01
1.400000000000000000e+02 2.751617334014896343e+01
1.404000000000000057e+02 2.747664359301063541e+01
1.408000000000000114e+02 2.743714274121439800e+01
1.412000000000000171e+02 2.739780006325977268e+01
1.415999999999999943e+02 2.735861963232793670e+01
1.420000000000000000e+02 2.731960031679807699e+01
1.424000000000000057e+02 2.728074099616533132e+01
1.428000000000000114e+02 2.724204056089996584e+01
1.432000000000000171e+02 2.720349791230871617e+01
1.435999999999999943e+02 2.715944759247214435e+01
1.440000000000000000e+02 2.712147652102840922e+01
1.444000000000000057e+02 2.708365867568105756e+01
1.448000000000000114e+02 2.704599301092287433e+01
1.452000000000000171e+02 2.700847080851266924e+01
1.455999999999999943e+02 2.697102465584952213e+01
1.460000000000000000e+02 2.693372817981530787e+01
1.464000000000000057e+02 2.689658036925543882e+01
1.468000000000000114e+02 2.685958022263323031e+01
1.472000000000000171e+02 2.682272674791195044e+01
1.475999999999999943e+02 2.678601896243862157e+01
1.480000000000000000e+02 2.674945589282955183e+01
1.484000000000000057e+02 2.671303657485755423e+01
1.488000000000000114e+02 2.667676005334094569e+01
1.492000000000000171e+02 2.664062538203404529e+01
1.495999999999999943e+02 2.660463162351939559e+01
1.500000000000000000e+02 2.656877784910157203e+01
