1.000000000000000000e+01 6.387851154785616927e+02
1.040000000000000036e+01 7.143280961048867539e+02
1.080000000000000071e+01 7.376640948374338222e+02
1.119999999999999929e+01 7.663016313200990908e+02
1.159999999999999964e+01 7.925055211194971889e+02
1.200000000000000000e+01 8.051343451453715261e+02
1.240000000000000036e+01 8.039128392053023617e+02
1.280000000000000071e+01 8.481252273614624073e+02
1.319999999999999929e+01 8.591774303286481427e+02
1.359999999999999964e+01 8.657545126553275168e+02
1.400000000000000000e+01 8.550093966526342228e+02
1.440000000000000036e+01 8.388996004054466766e+02
1.480000000000000071e+01 8.237833384841866291e+02
1.519999999999999929e+01 8.095570348733642732e+02
1.560000000000000142e+01 7.961322017304946712e+02
1.600000000000000000e+01 7.834326401291800721e+02
1.639999999999999858e+01 7.713922663041671512e+02
1.680000000000000071e+01 7.599534012741620472e+02
1.719999999999999929e+01 7.490654091565595536e+02
1.760000000000000142e+01 7.386836015718172348e+02
1.800000000000000000e+01 7.287683476762740611e+02
1.839999999999999858e+01 7.192843449210594144e+02
1.880000000000000071e+01 7.102000167482190136e+02
1.920000000000000284e+01 7.014870114918672925e+02
1.960000000000000142e+01 6.931197826722113859e+02
2.000000000000000000e+01 6.850752352743857045e+02
2.039999999999999858e+01 6.773324259177459226e+02
2.080000000000000071e+01 6.698723073407827542e+02
2.120000000000000284e+01 6.626775095610872768e+02
2.160000000000000142e+01 6.557321515681687742e+02
2.200000000000000000e+01 6.490216785773551464e+02
2.239999999999999858e+01 6.425327207944249039e+02
2.280000000000000071e+01 6.362529703713080380e+02
2.320000000000000284e+01 6.301710738166061674e+02
2.360000000000000142e+01 6.242765375935007341e+02
2.400000000000000000e+01 6.185596450166366367e+02
2.439999999999999858e+01 6.130113828677364154e+02
2.480000000000000071e+01 6.076233764016155874e+02
2.520000000000000284e+01 6.023878316212563959e+02
2.560000000000000142e+01 5.972974838714832231e+02
2.600000000000000000e+01 5.923455519425209559e+02
2.640000000000000213e+01 5.875256969927960427e+02
2.680000000000000071e+01 5.828319856991017787e+02
2.719999999999999929e+01 5.782588571252043721e+02
2.760000000000000142e+01 5.738010928698886346e+02
2.800000000000000000e+01 5.694537901146021568e+02
2.840000000000000213e+01 5.652123372410901538e+02
2.880000000000000071e+01 5.610723917321862473e+02
2.920000000000000284e+01 5.570298601054882965e+02
2.960000000000000142e+01 5.530808796609837827e+02
3.000000000000000000e+01 5.492218018506164299e+02
3.040000000000000213e+01 5.454491771010101502e+02
3.080000000000000071e+01 5.417597409406372435e+02
3.120000000000000284e+01 5.381504013001026578e+02
3.160000000000000142e+01 5.346182268693327160e+02
3.200000000000000000e+01 5.311604364086139185e+02
3.240000000000000568e+01 5.277743889219136690e+02
3.279999999999999716e+01 5.244575746109668444e+02
3.320000000000000284e+01 5.212076065374184282e+02
3.360000000000000142e+01 5.180222129280660965e+02
3.400000000000000000e+01 5.148992300650476182e+02
3.440000000000000568e+01 5.118365957088478808e+02
3.479999999999999716e+01 5.088323430073002100e+02
3.520000000000000284e+01 5.058845948484766950e+02
3.560000000000000142e+01 5.029915586195264723e+02
3.600000000000000000e+01 5.001515213372376252e+02
3.640000000000000568e+01 4.973628451193975479e+02
3.679999999999999716e+01 4.946239629689725348e+02
3.720000000000000284e+01 4.919333748457551110e+02
3.760000000000000142e+01 4.892896440024824756e+02
3.800000000000000000e+01 4.866913935645302445e+02
3.840000000000000568e+01 4.841373033341824339e+02
3.879999999999999716e+01 4.816261068021696019e+02
3.920000000000000284e+01 4.791565883506988257e+02
3.960000000000000142e+01 4.767275806335717903e+02
4.000000000000000000e+01 4.743379621202283261e+02
4.040000000000000568e+01 4.719866547916773811e+02
4.079999999999999716e+01 4.696726219772808690e+02
4.120000000000000284e+01 4.673948663222861342e+02
4.160000000000000142e+01 4.651524278768231397e+02
4.200000000000000000e+01 4.629443822978431626e+02
4.239999999999999858e+01 4.607698391561598328e+02
4.280000000000000426e+01 4.586279403413761884e+02
4.320000000000000284e+01 4.565178585580492836e+02
4.360000000000000142e+01 4.544387959069641738e+02
4.400000000000000000e+01 4.523899825458549913e+02
4.439999999999999858e+01 4.503706754243501109e+02
4.480000000000000426e+01 4.483801570883044860e+02
4.520000000000000284e+01 4.464177345490509197e+02
4.560000000000000142e+01 4.444827382134251366e+02
4.600000000000000000e+01 4.425745208707273832e+02
4.639999999999999858e+01 4.406924567330605669e+02
4.680000000000000426e+01 4.388359405257384651e+02
4.720000000000000284e+01 4.370043866246930975e+02
4.760000000000000142e+01 4.351972282380281172e+02
4.800000000000000000e+01 4.334139166290605090e+02
4.840000000000000568e+01 4.316539203783798939e+02
4.880000000000000426e+01 4.299167246826203836e+02
4.920000000000000284e+01 4.282018306877985196e+02
4.960000000000000142e+01 4.265087548552127714e+02
5.000000000000000000e+01 4.248370283580364912e+02
5.040000000000000568e+01 4.231861965068542872e+02
5.080000000000000426e+01 4.215558182025122278e+02
5.120000000000000284e+01 4.199454654147512542e+02
5.160000000000000142e+01 4.183547226851989649e+02
5.200000000000000000e+01 4.167831866533768448e+02
5.240000000000000568e+01 4.152304656044720446e+02
5.280000000000000426e+01 4.136961790376976751e+02
5.320000000000000284e+01 4.121799572541382304e+02
5.360000000000000142e+01 4.106814409630459863e+02
5.400000000000000000e+01 4.092002809056164097e+02
5.440000000000000568e+01 4.077361374953296718e+02
5.480000000000000426e+01 4.062886804739999320e+02
5.520000000000000284e+01 4.048575885827243610e+02
5.560000000000000142e+01 4.034425492469744086e+02
5.600000000000000000e+01 4.020432582751119526e+02
5.640000000000000568e+01 4.006594195696579277e+02
5.680000000000000426e+01 3.992907448506785499e+02
5.720000000000000284e+01 3.979369533906898369e+02
5.760000000000000142e+01 3.965977717605173325e+02
5.800000000000000000e+01 3.952729335855763679e+02
5.840000000000000568e+01 3.939621793120716120e+02
5.880000000000000426e+01 3.926652559826399056e+02
5.920000000000000284e+01 3.913819170209866911e+02
5.960000000000000142e+01 3.901119220250933495e+02
6.000000000000000000e+01 3.888550365685922543e+02
6.040000000000000568e+01 3.876110320099304545e+02
6.080000000000000426e+01 3.863796853089627916e+02
6.120000000000000284e+01 3.851607788506327665e+02
6.160000000000000142e+01 3.839541002754197621e+02
6.200000000000000000e+01 3.827594423162462363e+02
6.240000000000000568e+01 3.815766026415555530e+02
6.280000000000000426e+01 3.804053837042847022e+02
6.320000000000000284e+01 3.792455925964720791e+02
6.360000000000000142e+01 3.780970409092519731e+02
6.400000000000000000e+01 3.769595445980017416e+02
6.440000000000000568e+01 3.758329238524161724e+02
6.480000000000001137e+01 3.747170029713004169e+02
6.520000000000000284e+01 3.736116102418756668e+02
6.559999999999999432e+01 3.725165778234095342e+02
6.600000000000000000e+01 3.714317416349860537e+02
6.640000000000000568e+01 3.703569412472438671e+02
6.680000000000001137e+01 3.692920197779154137e+02
6.720000000000000284e+01 3.682368237910109769e+02
6.759999999999999432e+01 3.671912031994979770e+02
6.800000000000000000e+01 3.661550111713321485e+02
6.840000000000000568e+01 3.651281040387048620e+02
6.880000000000001137e+01 3.641103412103767027e+02
6.920000000000000284e+01 3.631015850869738983e+02
6.959999999999999432e+01 3.621017009791297596e+02
7.000000000000000000e+01 3.611105570283575048e+02
7.040000000000000568e+01 3.601280241305491359e+02
7.080000000000001137e+01 3.591539758619951499e+02
7.120000000000000284e+01 3.581882884078292477e+02
7.159999999999999432e+01 3.572308404928031678e+02
7.200000000000000000e+01 3.562815133143026287e+02
7.240000000000000568e+01 3.553401904775194566e+02
7.280000000000001137e+01 3.544067579326966211e+02
7.320000000000000284e+01 3.534811039143696121e+02
7.359999999999999432e+01 3.525631188825285562e+02
7.400000000000000000e+01 3.516526954656291082e+02
7.440000000000000568e+01 3.507497284053850990e+02
7.479999999999999716e+01 3.498541145032755253e+02
7.520000000000000284e+01 3.489657525687041471e+02
7.560000000000000853e+01 3.480845433687513832e+02
7.600000000000000000e+01 3.472103895794610366e+02
7.640000000000000568e+01 3.463431957386054592e+02
7.679999999999999716e+01 3.454828681998783395e+02
7.720000000000000284e+01 3.446293150884619649e+02
7.760000000000000853e+01 3.437824462579219471e+02
7.800000000000000000e+01 3.429421732483822325e+02
7.840000000000000568e+01 3.421084092459349222e+02
7.879999999999999716e+01 3.412810690432427236e+02
7.920000000000000284e+01 3.404600690012929931e+02
7.960000000000000853e+01 3.396453270122619870e+02
8.000000000000000000e+01 3.388367624634533399e+02
8.040000000000000568e+01 3.380342962022732536e+02
8.079999999999999716e+01 3.372378505022067543e+02
8.120000000000000284e+01 3.364473490297622220e+02
8.160000000000000853e+01 3.356627168123508227e+02
8.200000000000000000e+01 3.348838802070710585e+02
8.240000000000000568e+01 3.341107668703662057e+02
8.279999999999999716e+01 3.333433057285274117e+02
8.320000000000000284e+01 3.325814269490152242e+02
8.360000000000000853e+01 3.318250619125706748e+02
8.400000000000000000e+01 3.310741431860922148e+02
8.440000000000000568e+01 3.303286044962519554e+02
8.479999999999999716e+01 3.295883807038301256e+02
8.520000000000000284e+01 3.288534077787414276e+02
8.560000000000000853e+01 3.281236227757336223e+02
8.600000000000000000e+01 3.273989638107360065e+02
8.640000000000000568e+01 3.266793700378376570e+02
8.680000000000001137e+01 3.259647816268756060e+02
8.720000000000000284e+01 3.252551397416136751e+02
8.760000000000000853e+01 3.245503865184932693e+02
8.800000000000000000e+01 3.238504650459402683e+02
8.840000000000000568e+01 3.231553193442080669e+02
8.880000000000001137e+01 3.224648943457425503e+02
8.920000000000000284e+01 3.217791358760520666e+02
8.960000000000000853e+01 3.210979906350675606e+02
9.000000000000000000e+01 3.204214061789780885e+02
9.040000000000000568e+01 3.197493309025257986e+02
9.080000000000001137e+01 3.190817140217500878e+02
9.120000000000000284e+01 3.184185055571637122e+02
9.160000000000000853e+01 3.177596563173505047e+02
9.200000000000000000e+01 3.171051178829717401e+02
9.240000000000000568e+01 3.164548425911682443e+02
9.280000000000001137e+01 3.158087835203482427e+02
9.320000000000000284e+01 3.151668944753480446e+02
9.360000000000000853e+01 3.145291299729561842e+02
9.400000000000000000e+01 3.138954452277895371e+02
9.440000000000000568e+01 3.132657961385115755e+02
9.480000000000001137e+01 3.126401392743838983e+02
9.520000000000000284e+01 3.120184318621393800e+02
9.560000000000000853e+01 3.114006317731705167e+02
9.600000000000000000e+01 3.107866975110217709e+02
9.640000000000000568e+01 3.101765881991792639e+02
9.680000000000001137e+01 3.095702635691473006e+02
9.720000000000000284e+01 3.089676839488064388e+02
9.760000000000000853e+01 3.083688102510428735e+02
9.800000000000000000e+01 3.077736039626429942e+02
9.840000000000000568e+01 3.071820271334457289e+02
9.880000000000001137e+01 3.065940423657448832e+02
9.920000000000000284e+01 3.060096128039356245e+02
9.960000000000000853e+01 3.054287021243974891e+02
1.000000000000000000e+02 3.048512745256088010e+02
1.004000000000000057e+02 3.042772947184848817e+02
1.008000000000000114e+02 3.037067279169347103e+02
1.012000000000000028e+02 3.031395398286309160e+02
1.016000000000000085e+02 3.025756966459855448e+02
1.020000000000000000e+02 3.020151650373285861e+02
1.024000000000000057e+02 3.014579121382816993e+02
1.028000000000000114e+02 3.009039055433232193e+02
1.032000000000000028e+02 3.003531132975398918e+02
1.036000000000000085e+02 2.998055038885584054e+02
1.040000000000000000e+02 2.992610462386546146e+02
1.044000000000000057e+02 2.987197096970342614e+02
1.048000000000000114e+02 2.981814640322812693e+02
1.052000000000000028e+02 2.976462794249690091e+02
1.056000000000000085e+02 2.971141264604310663e+02
1.060000000000000000e+02 2.965849761216866227e+02
1.064000000000000057e+02 2.960587997825169850e+02
1.068000000000000114e+02 2.955355692006900767e+02
1.072000000000000028e+02 2.950152565113272090e+02
1.076000000000000085e+02 2.944978342204109367e+02
1.080000000000000000e+02 2.939832751984290553e+02
1.084000000000000057e+02 2.934715526741518374e+02
1.088000000000000114e+02 2.929626402285384756e+02
1.092000000000000028e+02 2.924565117887714791e+02
1.096000000000000085e+02 2.919531416224128293e+02
1.100000000000000000e+02 2.914525043316824053e+02
1.104000000000000057e+02 2.909545748478525979e+02
1.108000000000000114e+02 2.904593284257584287e+02
1.112000000000000028e+02 2.899667406384194237e+02
1.116000000000000085e+02 2.894767873717703424e+02
1.120000000000000000e+02 2.889894448194996812e+02
1.124000000000000057e+02 2.885046894779904960e+02
1.128000000000000114e+02 2.880224981413643377e+02
1.132000000000000028e+02 2.875428478966239254e+02
1.136000000000000085e+02 2.870657161188922828e+02
1.140000000000000000e+02 2.865910804667470870e+02
1.144000000000000057e+02 2.861189188776465926e+02
1.148000000000000114e+02 2.856492095634470161e+02
1.152000000000000028e+02 2.851819310060060388e+02
1.156000000000000085e+02 2.847170619528746442e+02
1.160000000000000000e+02 2.842545814130713211e+02
1.164000000000000057e+02 2.837944686529389742e+02
1.168000000000000114e+02 2.833367031920822683e+02
1.172000000000000028e+02 2.828812647993830751e+02
1.176000000000000085e+02 2.824281334890927155e+02
1.180000000000000000e+02 2.819772895169990079e+02
1.184000000000000057e+02 2.815287133766664169e+02
1.188000000000000114e+02 2.810823857957480527e+02
1.192000000000000028e+02 2.806382877323671323e+02
1.196000000000000085e+02 2.801964003715672220e+02
1.200000000000000000e+02 2.797567051218290999e+02
1.204000000000000057e+02 2.793191836116529885e+02
1.208000000000000114e+02 2.788838176862048499e+02
1.212000000000000028e+02 2.784505894040249814e+02
1.216000000000000085e+02 2.780194810337976605e+02
1.220000000000000000e+02 2.775904750511809880e+02
1.224000000000000057e+02 2.771635541356944827e+02
1.228000000000000114e+02 2.767387011676649990e+02
1.232000000000000028e+02 2.763158992252272697e+02
1.236000000000000085e+02 2.758951315813800989e+02
1.240000000000000000e+02 2.754763817010958746e+02
1.244000000000000057e+02 2.750596332384824905e+02
1.248000000000000114e+02 2.746448700339964830e+02
1.252000000000000028e+02 2.742320761117064762e+02
1.256000000000000085e+02 2.738212356766057951e+02
1.260000000000000000e+02 2.734123331119729414e+02
1.264000000000000057e+02 2.730053529767794771e+02
1.268000000000000114e+02 2.726002800031434958e+02
1.272000000000000028e+02 2.721970990938289674e+02
1.276000000000000085e+02 2.717957953197883398e+02
1.280000000000000000e+02 2.713963539177492521e+02
1.284000000000000057e+02 2.709987602878427424e+02
1.288000000000000114e+02 2.706029999912738617e+02
1.291999999999999886e+02 2.702090587480322483e+02
1.296000000000000227e+02 2.698169224346422084e+02
1.300000000000000000e+02 2.694265770819530985e+02
1.304000000000000057e+02 2.690380088729660315e+02
1.308000000000000114e+02 2.686512041406996332e+02
1.311999999999999886e+02 2.682661493660914402e+02
1.316000000000000227e+02 2.678828311759350527e+02
1.320000000000000000e+02 2.675012363408536658e+02
1.324000000000000057e+02 2.671213517733067420e+02
1.328000000000000114e+02 2.667431645256307888e+02
1.331999999999999886e+02 2.663666617881136744e+02
1.336000000000000227e+02 2.659918308871008321e+02
1.340000000000000000e+02 2.656186592831338658e+02
1.344000000000000057e+02 2.652471345691192823e+02
1.348000000000000114e+02 2.648772444685292839e+02
1.351999999999999886e+02 2.645089768336304132e+02
1.356000000000000227e+02 2.641423196437438037e+02
1.360000000000000000e+02 2.637772610035326011e+02
1.364000000000000057e+02 2.634137891413181478e+02
1.368000000000000114e+02 2.630518924074240203e+02
1.371999999999999886e+02 2.626915592725466695e+02
1.376000000000000227e+02 2.623327783261531749e+02
1.380000000000000000e+02 2.619755382749048636e+02
1.384000000000000057e+02 2.616198279411062231e+02
1.388000000000000114e+02 2.612656362611796226e+02
1.392000000000000171e+02 2.609129522841640210e+02
1.395999999999999943e+02 2.605617651702380044e+02
1.400000000000000000e+02 2.602120641892664707e+02
1.404000000000000057e+02 2.598638387193707331e+02
1.408000000000000114e+02 2.595170782455214749e+02
1.412000000000000171e+02 2.591717723581533619e+02
1.415999999999999943e+02 2.588279107518025057e+02
1.420000000000000000e+02 2.584854832237653568e+02
1.424000000000000057e+02 2.581444796727777771e+02
1.428000000000000114e+02 2.578048900977162248e+02
1.432000000000000171e+02 2.574667045963180954e+02
1.435999999999999943e+02 2.571299133639230377e+02
1.440000000000000000e+02 2.567945066922331989e+02
1.444000000000000057e+02 2.564604749680926261e+02
1.448000000000000114e+02 2.561278086722865055e+02
1.452000000000000171e+02 2.557964983783579100e+02
1.455999999999999943e+02 2.554665347514431915e+02
1.460000000000000000e+02 2.551379085471253916e+02
1.464000000000000057e+02 2.548106106103048774e+02
1.468000000000000114e+02 2.544846318740877109e+02
1.472000000000000171e+02 2.541599633586901632e+02
1.475999999999999943e+02 2.538365961703607354e+02
1.480000000000000000e+02 2.535145215003179260e+02
1.484000000000000057e+02 2.531937306237041412e+02
1.488000000000000114e+02 2.528742148985556923e+02
1.492000000000000171e+02 2.525559657647875156e+02
1.495999999999999943e+02 2.522389747431940918e+02
1.500000000000000000e+02 2.519232334344641799e+02
