1.000000000000000000e+01 4.053617368768677807e+02
1.040000000000000036e+01 4.816525447563125226e+02
1.080000000000000071e+01 5.033264308505311533e+02
1.119999999999999929e+01 5.289588474404237104e+02
1.159999999999999964e+01 5.247768559236823194e+02
1.200000000000000000e+01 5.171466073504125234e+02
1.240000000000000036e+01 5.102929326326351429e+02
1.280000000000000071e+01 5.041124065719041027e+02
1.319999999999999929e+01 4.994980341676831017e+02
1.359999999999999964e+01 4.973471702394948579e+02
1.400000000000000000e+01 5.004602542517760071e+02
1.440000000000000036e+01 4.909683511860566796e+02
1.480000000000000071e+01 4.820497269389914550e+02
1.519999999999999929e+01 4.736465137347552741e+02
1.560000000000000142e+01 4.657089807341267260e+02
1.600000000000000000e+01 4.581940722905272878e+02
1.639999999999999858e+01 4.510642648592090609e+02
1.680000000000000071e+01 4.442866611836218453e+02
1.719999999999999929e+01 4.378322640914169597e+02
1.760000000000000142e+01 4.316753882247172101e+02
1.800000000000000000e+01 4.257931790630392470e+02
1.839999999999999858e+01 4.201652163631412122e+02
1.880000000000000071e+01 4.147731847034724524e+02
1.920000000000000284e+01 4.096005978699416801e+02
1.960000000000000142e+01 4.046325668087382610e+02
2.000000000000000000e+01 3.998556031069513210e+02
2.039999999999999858e+01 3.952574516525143054e+02
2.080000000000000071e+01 3.908269474177625398e+02
2.120000000000000284e+01 3.865538923090114736e+02
2.160000000000000142e+01 3.824289488021337888e+02
2.200000000000000000e+01 3.784435476949253143e+02
2.239999999999999858e+01 3.745898077905657146e+02
2.280000000000000071e+01 3.708604657119745411e+02
2.320000000000000284e+01 3.672488143562753748e+02
2.360000000000000142e+01 3.637486487484756594e+02
2.400000000000000000e+01 3.603542182564917766e+02
2.439999999999999858e+01 3.570601842954928316e+02
2.480000000000000071e+01 3.538615827857244085e+02
2.520000000000000284e+01 3.507537907403600457e+02
2.560000000000000142e+01 3.477324964530931197e+02
2.600000000000000000e+01 3.447936728327768492e+02
2.640000000000000213e+01 3.419335534972905180e+02
2.680000000000000071e+01 3.391486112932866490e+02
2.719999999999999929e+01 3.364355389543727028e+02
2.760000000000000142e+01 3.337912316491114098e+02
2.800000000000000000e+01 3.312127712031740430e+02
2.840000000000000213e+01 3.286974118080468656e+02
2.880000000000000071e+01 3.262425670526596946e+02
2.920000000000000284e+01 3.238457981348486214e+02
2.960000000000000142e+01 3.215048031272183380e+02
3.000000000000000000e+01 3.192174071871803562e+02
3.040000000000000213e+01 3.169815536140889662e+02
3.080000000000000071e+01 3.147952956677879683e+02
3.120000000000000284e+01 3.126567890727698682e+02
3.160000000000000142e+01 3.105642851407599778e+02
3.200000000000000000e+01 3.085161244520576247e+02
3.240000000000000568e+01 3.065107310425339620e+02
3.279999999999999716e+01 3.045466070489483172e+02
3.320000000000000284e+01 3.026223277703074928e+02
3.360000000000000142e+01 3.007365371074419045e+02
3.400000000000000000e+01 2.988879433469034552e+02
3.440000000000000568e+01 2.970753152587570867e+02
3.479999999999999716e+01 2.952974784809111952e+02
3.520000000000000284e+01 2.935533121653552371e+02
3.560000000000000142e+01 2.918417458640918767e+02
3.600000000000000000e+01 2.901617566347043748e+02
3.640000000000000568e+01 2.885123663474172417e+02
3.679999999999999716e+01 2.868926391772228612e+02
3.720000000000000284e+01 2.853016792661754835e+02
3.760000000000000142e+01 2.837386285423272625e+02
3.800000000000000000e+01 2.822026646830082655e+02
3.840000000000000568e+01 2.806929992112576429e+02
3.879999999999999716e+01 2.792088757152053518e+02
3.920000000000000284e+01 2.777495681810970041e+02
3.960000000000000142e+01 2.763143794314613046e+02
4.000000000000000000e+01 2.749026396606459457e+02
4.040000000000000568e+01 2.735137050606057869e+02
4.079999999999999716e+01 2.721469565304223011e+02
4.120000000000000284e+01 2.708017984635720268e+02
4.160000000000000142e+01 2.694776576074514196e+02
4.200000000000000000e+01 2.681739819901087003e+02
4.239999999999999858e+01 2.668902399095379110e+02
4.280000000000000426e+01 2.656259189812578825e+02
4.320000000000000284e+01 2.643805252402322026e+02
4.360000000000000142e+01 2.631535822934944235e+02
4.400000000000000000e+01 2.619446305201175846e+02
4.439999999999999858e+01 2.607532263154263887e+02
4.480000000000000426e+01 2.595789413765795643e+02
4.520000000000000284e+01 2.584213620268648697e+02
4.560000000000000142e+01 2.572800885762455323e+02
4.600000000000000000e+01 2.561547347158744969e+02
4.639999999999999858e+01 2.550449269444591494e+02
4.680000000000000426e+01 2.539503040245087391e+02
4.720000000000000284e+01 2.528705164666381506e+02
4.760000000000000142e+01 2.518052260402269553e+02
4.800000000000000000e+01 2.507541053088533545e+02
4.840000000000000568e+01 2.497168371890294338e+02
4.880000000000000426e+01 2.486931145308658984e+02
4.920000000000000284e+01 2.476826397193847527e+02
4.960000000000000142e+01 2.466851242952884888e+02
5.000000000000000000e+01 2.457002885940673025e+02
5.040000000000000568e+01 2.447278614024056651e+02
5.080000000000000426e+01 2.437675796309122234e+02
5.120000000000000284e+01 2.428191880022617397e+02
5.160000000000000142e+01 2.418824387538988390e+02
5.200000000000000000e+01 2.409570913545010740e+02
5.240000000000000568e+01 2.400429122334560361e+02
5.280000000000000426e+01 2.391396745226487610e+02
5.320000000000000284e+01 2.382471578099021485e+02
5.360000000000000142e+01 2.373651479034516569e+02
5.400000000000000000e+01 2.364934366068741554e+02
5.440000000000000568e+01 2.356318215039257211e+02
5.480000000000000426e+01 2.347801057527748867e+02
5.520000000000000284e+01 2.339380978891504128e+02
5.560000000000000142e+01 2.331056116379473906e+02
5.600000000000000000e+01 2.322824657328670810e+02
5.640000000000000568e+01 2.314684837436852263e+02
5.680000000000000426e+01 2.306634939107711375e+02
5.720000000000000284e+01 2.298673289864989897e+02
5.760000000000000142e+01 2.290798260832138737e+02
5.800000000000000000e+01 2.283008265274335997e+02
5.840000000000000568e+01 2.275301757199867438e+02
5.880000000000000426e+01 2.267677230018011016e+02
5.920000000000000284e+01 2.260133215250747298e+02
5.960000000000000142e+01 2.252668281295764530e+02
6.000000000000000000e+01 2.245281032238343073e+02
6.040000000000000568e+01 2.237970106709851734e+02
6.080000000000000426e+01 2.230734176790712127e+02
6.120000000000000284e+01 2.223571946955779026e+02
6.160000000000000142e+01 2.216482153060224789e+02
6.200000000000000000e+01 2.209463561364079283e+02
6.240000000000000568e+01 2.202514967593708093e+02
6.280000000000000426e+01 2.195635196038569461e+02
6.320000000000000284e+01 2.188823098681700685e+02
6.360000000000000142e+01 2.182077554362443834e+02
6.400000000000000000e+01 2.175397467970011576e+02
6.440000000000000568e+01 2.168781769666546211e+02
6.480000000000001137e+01 2.162229414138413972e+02
6.520000000000000284e+01 2.155739379874516715e+02
6.559999999999999432e+01 2.149310668470482710e+02
6.600000000000000000e+01 2.142942303957634635e+02
6.640000000000000568e+01 2.136633332155707308e+02
6.680000000000001137e+01 2.130382820048315011e+02
6.720000000000000284e+01 2.124189855180233053e+02
6.759999999999999432e+01 2.118053545075598265e+02
6.800000000000000000e+01 2.111973016676167276e+02
6.840000000000000568e+01 2.105947415798824522e+02
6.880000000000001137e+01 2.099975906611560674e+02
6.920000000000000284e+01 2.094057671127183085e+02
6.959999999999999432e+01 2.088191908714043734e+02
7.000000000000000000e+01 2.082377835623128703e+02
7.040000000000000568e+01 2.076614684530842680e+02
7.080000000000001137e+01 2.070901704096895060e+02
7.120000000000000284e+01 2.065238158536685660e+02
7.159999999999999432e+01 2.059623327207639250e+02
7.200000000000000000e+01 2.054056504208947729e+02
7.240000000000000568e+01 2.048536997994214630e+02
7.280000000000001137e+01 2.043064130996501433e+02
7.320000000000000284e+01 2.037637239265318385e+02
7.359999999999999432e+01 2.032255672115107927e+02
7.400000000000000000e+01 2.026918791784790415e+02
7.440000000000000568e+01 2.021625973107962295e+02
7.479999999999999716e+01 2.016376603193361063e+02
7.520000000000000284e+01 2.011170081115209314e+02
7.560000000000000853e+01 2.006005817613083764e+02
7.600000000000000000e+01 2.000883234800969035e+02
7.640000000000000568e+01 1.995801765885155419e+02
7.679999999999999716e+01 1.990760854890671965e+02
7.720000000000000284e+01 1.985759956395942254e+02
7.760000000000000853e+01 1.980798535275383188e+02
7.800000000000000000e+01 1.975876066449657174e+02
7.840000000000000568e+01 1.970992034643309410e+02
7.879999999999999716e+01 1.966145934149543564e+02
7.920000000000000284e+01 1.961337268601874371e+02
7.960000000000000853e+01 1.956565550752430909e+02
8.000000000000000000e+01 1.951830302256672098e+02
8.040000000000000568e+01 1.947131053464308934e+02
8.079999999999999716e+01 1.942467343216214886e+02
8.120000000000000284e+01 1.937838718647113865e+02
8.160000000000000853e+01 1.933244734993874090e+02
8.200000000000000000e+01 1.928684955409198665e+02
8.240000000000000568e+01 1.924158950780542909e+02
8.279999999999999716e+01 1.919666299554090187e+02
8.320000000000000284e+01 1.915206587563610015e+02
8.360000000000000853e+01 1.910779407864045538e+02
8.400000000000000000e+01 1.906384360569672367e+02
8.440000000000000568e+01 1.902021052696685786e+02
8.479999999999999716e+01 1.897689098010068278e+02
8.520000000000000284e+01 1.893388116874601792e+02
8.560000000000000853e+01 1.889117736109895134e+02
8.600000000000000000e+01 1.884877588849294909e+02
8.640000000000000568e+01 1.880667314402560919e+02
8.680000000000001137e+01 1.876486558122185215e+02
8.720000000000000284e+01 1.872334971273241706e+02
8.760000000000000853e+01 1.868212210906655173e+02
8.800000000000000000e+01 1.864117939735788809e+02
8.840000000000000568e+01 1.860051826016238010e+02
8.880000000000001137e+01 1.856013543428746004e+02
8.920000000000000284e+01 1.852002770965129343e+02
8.960000000000000853e+01 1.848019192817135377e+02
9.000000000000000000e+01 1.844062498268141894e+02
9.040000000000000568e+01 1.840132381587598900e+02
9.080000000000001137e+01 1.836228541928152822e+02
9.120000000000000284e+01 1.832350683225352554e+02
9.160000000000000853e+01 1.828498514099873091e+02
9.200000000000000000e+01 1.824671747762182008e+02
9.240000000000000568e+01 1.820870101919564661e+02
9.280000000000001137e+01 1.817093298685457796e+02
9.320000000000000284e+01 1.813341064491009718e+02
9.360000000000000853e+01 1.809613129998803913e+02
9.400000000000000000e+01 1.805909230018696974e+02
9.440000000000000568e+01 1.802229103425686105e+02
9.480000000000001137e+01 1.798572493079776962e+02
9.520000000000000284e+01 1.794939145747765963e+02
9.560000000000000853e+01 1.791328812026907258e+02
9.600000000000000000e+01 1.787741246270392139e+02
9.640000000000000568e+01 1.784176206514605383e+02
9.680000000000001137e+01 1.780633454408095986e+02
9.720000000000000284e+01 1.777112755142224501e+02
9.760000000000000853e+01 1.773613877383427848e+02
9.800000000000000000e+01 1.770136593207080011e+02
9.840000000000000568e+01 1.766680678032871015e+02
9.880000000000001137e+01 1.763245910561697656e+02
9.920000000000000284e+01 1.759832072713998059e+02
9.960000000000000853e+01 1.756438949569504189e+02
1.000000000000000000e+02 1.753066329308373099e+02
1.004000000000000057e+02 1.749714003153652868e+02
1.008000000000000114e+02 1.746381765315056498e+02
1.012000000000000028e+02 1.743069412934002003e+02
1.016000000000000085e+02 1.739776746029885430e+02
1.020000000000000000e+02 1.736503567447562375e+02
1.024000000000000057e+02 1.733249682805992222e+02
1.028000000000000114e+02 1.730014900448027220e+02
1.032000000000000028e+02 1.726799031391310280e+02
1.036000000000000085e+02 1.723601889280249964e+02
1.040000000000000000e+02 1.720423290339055598e+02
1.044000000000000057e+02 1.717263053325789883e+02
1.048000000000000114e+02 1.714120999487426786e+02
1.052000000000000028e+02 1.710996952515878888e+02
1.056000000000000085e+02 1.707890738504975729e+02
1.060000000000000000e+02 1.704802185908366141e+02
1.064000000000000057e+02 1.701731125498320694e+02
1.068000000000000114e+02 1.698677390325413512e+02
1.072000000000000028e+02 1.695640815679059870e+02
1.076000000000000085e+02 1.692621239048887674e+02
1.080000000000000000e+02 1.689618500086925224e+02
1.084000000000000057e+02 1.686632440570579377e+02
1.088000000000000114e+02 1.683662904366390194e+02
1.092000000000000028e+02 1.680709737394542458e+02
1.096000000000000085e+02 1.677772787594104500e+02
1.100000000000000000e+02 1.674851904888998320e+02
1.104000000000000057e+02 1.671946941154661772e+02
1.108000000000000114e+02 1.669057750185392877e+02
1.112000000000000028e+02 1.666184187662371983e+02
1.116000000000000085e+02 1.663326111122324278e+02
1.120000000000000000e+02 1.660483379926821499e+02
1.124000000000000057e+02 1.657655855232206932e+02
1.128000000000000114e+02 1.654843399960121246e+02
1.132000000000000028e+02 1.652045878768622060e+02
1.136000000000000085e+02 1.649263158023881317e+02
1.140000000000000000e+02 1.646495105772442855e+02
1.144000000000000057e+02 1.643741591714034485e+02
1.148000000000000114e+02 1.641002487174913824e+02
1.152000000000000028e+02 1.638277665081741361e+02
1.156000000000000085e+02 1.635566999935965953e+02
1.160000000000000000e+02 1.632870367788709416e+02
1.164000000000000057e+02 1.630187646216142525e+02
1.168000000000000114e+02 1.627518714295337077e+02
1.172000000000000028e+02 1.624863452580586625e+02
1.176000000000000085e+02 1.622221743080183103e+02
1.180000000000000000e+02 1.619593469233637961e+02
1.184000000000000057e+02 1.616978515889342702e+02
1.188000000000000114e+02 1.614376769282651196e+02
1.192000000000000028e+02 1.611788117014380646e+02
1.196000000000000085e+02 1.609212448029722395e+02
1.200000000000000000e+02 1.606649652597542683e+02
1.204000000000000057e+02 1.604099622290084142e+02
1.208000000000000114e+02 1.601562249963035640e+02
1.212000000000000028e+02 1.599037429735983835e+02
1.216000000000000085e+02 1.596525056973222547e+02
1.220000000000000000e+02 1.594025028264922526e+02
1.224000000000000057e+02 1.591537241408645116e+02
1.228000000000000114e+02 1.589061595391198694e+02
1.232000000000000028e+02 1.586597990370830473e+02
1.236000000000000085e+02 1.584146327659737210e+02
1.240000000000000000e+02 1.581706509706904171e+02
1.244000000000000057e+02 1.579278440081247368e+02
1.248000000000000114e+02 1.576862023455065867e+02
1.252000000000000028e+02 1.574457165587793952e+02
1.256000000000000085e+02 1.572063773310041199e+02
1.260000000000000000e+02 1.569681754507921596e+02
1.264000000000000057e+02 1.567311018107663187e+02
1.268000000000000114e+02 1.564951474060490568e+02
1.272000000000000028e+02 1.562603033327776814e+02
1.276000000000000085e+02 1.560265607866457174e+02
1.280000000000000000e+02 1.557939110614701690e+02
1.284000000000000057e+02 1.555623455477837354e+02
1.288000000000000114e+02 1.553318557314519808e+02
1.291999999999999886e+02 1.551024331923145780e+02
1.296000000000000227e+02 1.548740696028498576e+02
1.300000000000000000e+02 1.546467567268633729e+02
1.304000000000000057e+02 1.544204864181981520e+02
1.308000000000000114e+02 1.541952506194680268e+02
1.311999999999999886e+02 1.539710413608121371e+02
1.316000000000000227e+02 1.537478507586712908e+02
1.320000000000000000e+02 1.535256710145849581e+02
1.324000000000000057e+02 1.533044944140085590e+02
1.328000000000000114e+02 1.530843133251513848e+02
1.331999999999999886e+02 1.528651201978337326e+02
1.336000000000000227e+02 1.526469075623632534e+02
1.340000000000000000e+02 1.524296680284309389e+02
1.344000000000000057e+02 1.522133942840246164e+02
1.348000000000000114e+02 1.519980790943611737e+02
1.351999999999999886e+02 1.517837153008368603e+02
1.356000000000000227e+02 1.515702958199940440e+02
1.360000000000000000e+02 1.513578136425063292e+02
1.364000000000000057e+02 1.511462618321794764e+02
1.368000000000000114e+02 1.509356335249690915e+02
1.371999999999999886e+02 1.507259219280146851e+02
1.376000000000000227e+02 1.505171203186889670e+02
1.380000000000000000e+02 1.503092220436633966e+02
1.384000000000000057e+02 1.501022205179882292e+02
1.388000000000000114e+02 1.498961092241879101e+02
1.392000000000000171e+02 1.496908817113709915e+02
1.395999999999999943e+02 1.494865315943543465e+02
1.400000000000000000e+02 1.492830525528015073e+02
1.404000000000000057e+02 1.490804383303747898e+02
1.408000000000000114e+02 1.488786827339009733e+02
1.412000000000000171e+02 1.486777796325504255e+02
1.415999999999999943e+02 1.484777229570287602e+02
1.420000000000000000e+02 1.482785066987821949e+02
1.424000000000000057e+02 1.480801249092144189e+02
1.428000000000000114e+02 1.478825716989165642e+02
1.432000000000000171e+02 1.476858412369089706e+02
1.435999999999999943e+02 1.474899277498948891e+02
1.440000000000000000e+02 1.472948255215257234e+02
1.444000000000000057e+02 1.471005288916777829e+02
1.448000000000000114e+02 1.469070322557403756e+02
1.452000000000000171e+02 1.467143300639147014e+02
1.455999999999999943e+02 1.465224168205238016e+02
1.460000000000000000e+02 1.463312870833328247e+02
1.464000000000000057e+02 1.461409354628800941e+02
1.468000000000000114e+02 1.459513566218181495e+02
1.472000000000000171e+02 1.457625452742648520e+02
1.475999999999999943e+02 1.455744961851645769e+02
1.480000000000000000e+02 1.453872041696588155e+02
1.484000000000000057e+02 1.452006640924664964e+02
1.488000000000000114e+02 1.450148708672736575e+02
1.492000000000000171e+02 1.448298194561321282e+02
1.495999999999999943e+02 1.446455048688674765e+02
1.500000000000000000e+02 1.444619221624956253e+02
