1.000000000000000000e+01 1.025987913551299755e+02
1.040000000000000036e+01 1.002536409115436129e+02
1.080000000000000071e+01 9.956609806841017019e+01
1.119999999999999929e+01 9.690475631153891811e+01
1.159999999999999964e+01 9.459363447380599155e+01
1.200000000000000000e+01 9.248644665787162467e+01
1.240000000000000036e+01 8.738147206145154655e+01
1.280000000000000071e+01 8.530873347143385388e+01
1.319999999999999929e+01 8.338719670930370853e+01
1.359999999999999964e+01 8.161739314278941038e+01
1.400000000000000000e+01 8.005417763201019454e+01
1.440000000000000036e+01 7.858309588666379852e+01
1.480000000000000071e+01 7.645830230448973452e+01
1.519999999999999929e+01 7.492134155925043615e+01
1.560000000000000142e+01 7.347289408540976297e+01
1.600000000000000000e+01 7.210440215135737674e+01
1.639999999999999858e+01 7.080846198674825587e+01
1.680000000000000071e+01 6.957862541212000451e+01
1.719999999999999929e+01 6.840924262430277736e+01
1.760000000000000142e+01 6.729533621161610313e+01
1.800000000000000000e+01 6.624388308886676668e+01
1.839999999999999858e+01 6.527729256566206573e+01
1.880000000000000071e+01 6.298906209254550959e+01
1.920000000000000284e+01 6.216766914327538274e+01
1.960000000000000142e+01 6.137715749552863542e+01
2.000000000000000000e+01 6.061560253793518882e+01
2.039999999999999858e+01 5.988124696661901680e+01
2.080000000000000071e+01 5.917248220888362198e+01
2.120000000000000284e+01 5.848783234523956764e+01
2.160000000000000142e+01 5.782594013694484403e+01
2.200000000000000000e+01 5.718555483663023153e+01
2.239999999999999858e+01 5.656552151587615640e+01
2.280000000000000071e+01 5.596477168890562126e+01
2.320000000000000284e+01 5.538231504823031059e+01
2.360000000000000142e+01 5.481723215794195880e+01
2.400000000000000000e+01 5.426479130645501670e+01
2.439999999999999858e+01 5.279646584628919470e+01
2.480000000000000071e+01 5.226195435131525358e+01
2.520000000000000284e+01 5.174219199989961737e+01
2.560000000000000142e+01 5.068827332902954907e+01
2.600000000000000000e+01 5.020740135703888285e+01
2.640000000000000213e+01 4.973924206207229304e+01
2.680000000000000071e+01 4.928323695400671767e+01
2.719999999999999929e+01 4.883886165829843407e+01
2.760000000000000142e+01 4.840562326061672138e+01
2.800000000000000000e+01 4.798305790144910077e+01
2.840000000000000213e+01 4.757072859318436997e+01
2.880000000000000071e+01 4.716822323562772112e+01
2.920000000000000284e+01 4.677515280886485982e+01
2.960000000000000142e+01 4.639114972494728306e+01
3.000000000000000000e+01 4.601586632207801841e+01
3.040000000000000213e+01 4.564731478017073840e+01
3.080000000000000071e+01 4.527023558939558256e+01
3.120000000000000284e+01 4.490157253750587785e+01
3.160000000000000142e+01 4.454100886310088470e+01
3.200000000000000000e+01 4.455815275027568845e+01
3.240000000000000568e+01 4.423377127154830646e+01
3.279999999999999716e+01 4.391247115133330681e+01
3.320000000000000284e+01 4.359149810455379281e+01
3.360000000000000142e+01 4.327698853074095098e+01
3.400000000000000000e+01 4.296872340639316690e+01
3.440000000000000568e+01 4.266649406359196206e+01
3.479999999999999716e+01 4.237010156492851110e+01
3.520000000000000284e+01 4.207935612416096660e+01
3.560000000000000142e+01 4.179407656868345100e+01
3.600000000000000000e+01 4.151408984027119686e+01
3.640000000000000568e+01 4.123923053090877033e+01
3.679999999999999716e+01 4.096934045081263776e+01
3.720000000000000284e+01 4.070426822603131001e+01
3.760000000000000142e+01 4.044386892324997262e+01
3.800000000000000000e+01 4.048949811222035322e+01
3.840000000000000568e+01 4.024573632810523094e+01
3.879999999999999716e+01 4.000616980087967534e+01
3.920000000000000284e+01 3.977067703540661370e+01
3.960000000000000142e+01 3.953856717231715123e+01
4.000000000000000000e+01 3.930726948155316336e+01
4.040000000000000568e+01 3.907977976260957576e+01
4.079999999999999716e+01 3.885599236522108413e+01
4.120000000000000284e+01 3.863580573153394226e+01
4.160000000000000142e+01 3.841912219372925108e+01
4.200000000000000000e+01 3.820584778377600799e+01
4.239999999999999858e+01 3.799589205446186213e+01
4.280000000000000426e+01 3.795407495685540056e+01
4.320000000000000284e+01 3.775632394264408731e+01
4.360000000000000142e+01 3.756152684624992588e+01
4.400000000000000000e+01 3.736960895784724102e+01
4.439999999999999858e+01 3.718049821101027419e+01
4.480000000000000426e+01 3.699412506315132987e+01
4.520000000000000284e+01 3.681084650180497420e+01
4.560000000000000142e+01 3.663090091202747089e+01
4.600000000000000000e+01 3.645344880695109424e+01
4.639999999999999858e+01 3.627843286025841252e+01
4.680000000000000426e+01 3.610579758074871393e+01
4.720000000000000284e+01 3.593548923721471766e+01
4.760000000000000142e+01 3.576745578705708795e+01
4.800000000000000000e+01 3.560164680841808149e+01
4.840000000000000568e+01 3.543801343563065842e+01
4.880000000000000426e+01 3.527650829779257435e+01
4.920000000000000284e+01 3.511708546028779665e+01
4.960000000000000142e+01 3.500331847331786150e+01
5.000000000000000000e+01 3.485173344293489350e+01
5.040000000000000568e+01 3.470205140714878667e+01
5.080000000000000426e+01 3.455423274562271274e+01
5.120000000000000284e+01 3.440823898738202047e+01
5.160000000000000142e+01 3.426403276813444876e+01
5.200000000000000000e+01 3.412157778951878839e+01
5.240000000000000568e+01 3.398083878017939696e+01
5.280000000000000426e+01 3.384133734538353622e+01
5.320000000000000284e+01 3.370327864510171878e+01
5.360000000000000142e+01 3.356683929099533259e+01
5.400000000000000000e+01 3.332754468194412567e+01
5.440000000000000568e+01 3.319859168247069192e+01
5.480000000000000426e+01 3.307108031025707362e+01
5.520000000000000284e+01 3.294498369455267550e+01
5.560000000000000142e+01 3.282027566491856874e+01
5.600000000000000000e+01 3.269693072778895981e+01
5.640000000000000568e+01 3.257492404398995234e+01
5.680000000000000426e+01 3.245423140716930277e+01
5.720000000000000284e+01 3.233482922309393359e+01
5.760000000000000142e+01 3.221669448977368688e+01
5.800000000000000000e+01 3.209980477837277135e+01
5.840000000000000568e+01 3.198413821487183739e+01
5.880000000000000426e+01 3.186967346244606603e+01
5.920000000000000284e+01 3.175615531115450807e+01
5.960000000000000142e+01 3.164291408578747422e+01
6.000000000000000000e+01 3.153082460774960083e+01
6.040000000000000568e+01 3.141986736014330361e+01
6.080000000000000426e+01 3.131002328789758593e+01
6.120000000000000284e+01 3.120127378375077853e+01
6.160000000000000142e+01 3.109360067475208567e+01
6.200000000000000000e+01 3.098698620925901537e+01
6.240000000000000568e+01 3.088067924285688193e+01
6.280000000000000426e+01 3.077267880288129476e+01
6.320000000000000284e+01 3.066573574907091881e+01
6.360000000000000142e+01 3.055983250549142127e+01
6.400000000000000000e+01 3.045495190717027612e+01
6.440000000000000568e+01 3.032806517133336044e+01
6.480000000000001137e+01 3.022739993071837006e+01
6.520000000000000284e+01 3.012768143144817046e+01
6.559999999999999432e+01 3.002889451684160349e+01
6.600000000000000000e+01 2.993102437187539522e+01
6.640000000000000568e+01 2.983405651328642350e+01
6.680000000000001137e+01 2.973797678002335232e+01
6.720000000000000284e+01 2.964277132403306325e+01
6.759999999999999432e+01 2.954842660136815269e+01
6.800000000000000000e+01 2.945492936360231795e+01
6.840000000000000568e+01 2.936226664954104137e+01
6.880000000000001137e+01 2.927042577721563532e+01
6.920000000000000284e+01 2.917939433614927225e+01
6.959999999999999432e+01 2.908916017988407532e+01
7.000000000000000000e+01 2.899971141875898084e+01
7.040000000000000568e+01 2.891103641292836812e+01
7.080000000000001137e+01 2.882312376561201717e+01
7.120000000000000284e+01 2.874971826336900449e+01
7.159999999999999432e+01 2.866480270780047590e+01
7.200000000000000000e+01 2.858060200133667195e+01
7.240000000000000568e+01 2.849710588331918615e+01
7.280000000000001137e+01 2.853112406870184969e+01
7.320000000000000284e+01 2.844989474044331956e+01
7.359999999999999432e+01 2.836932544656540145e+01
7.400000000000000000e+01 2.828940703645168142e+01
7.440000000000000568e+01 2.821013053806587578e+01
7.479999999999999716e+01 2.813148715347566764e+01
7.520000000000000284e+01 2.805346825451328030e+01
7.560000000000000853e+01 2.797606537856766096e+01
7.600000000000000000e+01 2.789927022450380178e+01
7.640000000000000568e+01 2.782233641857188999e+01
7.679999999999999716e+01 2.774559781670497927e+01
7.720000000000000284e+01 2.766945632536468480e+01
7.760000000000000853e+01 2.759390402629644967e+01
7.800000000000000000e+01 2.751893314904610577e+01
7.840000000000000568e+01 2.744453606741613783e+01
7.879999999999999716e+01 2.737070529602537761e+01
7.920000000000000284e+01 2.729743348696871408e+01
7.960000000000000853e+01 2.722471342657313187e+01
8.000000000000000000e+01 2.715253803224719675e+01
8.040000000000000568e+01 2.708090034942041768e+01
8.079999999999999716e+01 2.700979354856978887e+01
8.120000000000000284e+01 2.693921092233041037e+01
8.160000000000000853e+01 2.686914588268743387e+01
8.200000000000000000e+01 2.679959195824666551e+01
8.240000000000000568e+01 2.673054279158120750e+01
8.279999999999999716e+01 2.666162587347917423e+01
8.320000000000000284e+01 2.659318172305205508e+01
8.360000000000000853e+01 2.652657056660974888e+01
8.400000000000000000e+01 2.646043930792583154e+01
8.440000000000000568e+01 2.639478216990038106e+01
8.479999999999999716e+01 2.632959347254724491e+01
8.520000000000000284e+01 2.626486763090045073e+01
8.560000000000000853e+01 2.620059915297554198e+01
8.600000000000000000e+01 2.613678263778446009e+01
8.640000000000000568e+01 2.607341277340188412e+01
8.680000000000001137e+01 2.601048433508185553e+01
8.720000000000000284e+01 2.594799218342283353e+01
8.760000000000000853e+01 2.588593126258000154e+01
8.800000000000000000e+01 2.582429659852304837e+01
8.840000000000000568e+01 2.576308329733843294e+01
8.880000000000001137e+01 2.570228654357448050e+01
8.920000000000000284e+01 2.564190159862821972e+01
8.960000000000000853e+01 2.558192379917266734e+01
9.000000000000000000e+01 2.552234855562328519e+01
9.040000000000000568e+01 2.548249469801501021e+01
9.080000000000001137e+01 2.542498319109051153e+01
9.120000000000000284e+01 2.536784772358922169e+01
9.160000000000000853e+01 2.531108417837815239e+01
9.200000000000000000e+01 2.525468850128229548e+01
9.240000000000000568e+01 2.519865669985018286e+01
9.280000000000001137e+01 2.514298484214887708e+01
9.320000000000000284e+01 2.508766905558776017e+01
9.360000000000000853e+01 2.503270552577011898e+01
9.400000000000000000e+01 2.497809049537183768e+01
9.440000000000000568e+01 2.492382026304649756e+01
9.480000000000001137e+01 2.477341410137903921e+01
9.520000000000000284e+01 2.472053868764965756e+01
9.560000000000000853e+01 2.466799615578468519e+01
9.600000000000000000e+01 2.461578299255900504e+01
9.640000000000000568e+01 2.456700312134083575e+01
9.680000000000001137e+01 2.451615785303432915e+01
9.720000000000000284e+01 2.446562590431423345e+01
9.760000000000000853e+01 2.441540403599056930e+01
9.800000000000000000e+01 2.436548905580900026e+01
9.840000000000000568e+01 2.431587781757586697e+01
9.880000000000001137e+01 2.426656722030315905e+01
9.920000000000000284e+01 2.421755420737291331e+01
9.960000000000000853e+01 2.416883576572044490e+01
1.000000000000000000e+02 2.412040892503603828e+01
1.004000000000000057e+02 2.407227075698445162e+01
1.008000000000000114e+02 2.402441837444195727e+01
1.012000000000000028e+02 2.397684893075018664e+01
1.016000000000000085e+02 2.392955961898666573e+01
1.020000000000000000e+02 2.388254767125127387e+01
1.024000000000000057e+02 2.383581035796847303e+01
1.028000000000000114e+02 2.378934498720473556e+01
1.032000000000000028e+02 2.374314890400091471e+01
1.036000000000000085e+02 2.369721948971895387e+01
1.040000000000000000e+02 2.365155416140287414e+01
1.044000000000000057e+02 2.360589668193227553e+01
1.048000000000000114e+02 2.356040322597520742e+01
1.052000000000000028e+02 2.351516960505753318e+01
1.056000000000000085e+02 2.347019332965753335e+01
1.060000000000000000e+02 2.342547194367450913e+01
1.064000000000000057e+02 2.338038055255366743e+01
1.068000000000000114e+02 2.333424338243419172e+01
1.072000000000000028e+02 2.328835758399731048e+01
1.076000000000000085e+02 2.324272081563194092e+01
1.080000000000000000e+02 2.319733076655375470e+01
1.084000000000000057e+02 2.315218515628184548e+01
1.088000000000000114e+02 2.310728173412621800e+01
1.092000000000000028e+02 2.306261827868582515e+01
1.096000000000000085e+02 2.301819259735705714e+01
1.100000000000000000e+02 2.297372698672076297e+01
1.104000000000000057e+02 2.292947443234962179e+01
1.108000000000000114e+02 2.288545514368214029e+01
1.112000000000000028e+02 2.284166701846838521e+01
1.116000000000000085e+02 2.279810798123352811e+01
1.120000000000000000e+02 2.275477598283802649e+01
1.124000000000000057e+02 2.271166900004660505e+01
1.128000000000000114e+02 2.266878503510590193e+01
1.132000000000000028e+02 2.262612211533050299e+01
1.136000000000000085e+02 2.258367829269717220e+01
1.140000000000000000e+02 2.254145164344719277e+01
1.144000000000000057e+02 2.249944026769642491e+01
1.148000000000000114e+02 2.245764228905314752e+01
1.152000000000000028e+02 2.241605585424327174e+01
1.156000000000000085e+02 2.237467913274291575e+01
1.160000000000000000e+02 2.233351031641814899e+01
1.164000000000000057e+02 2.229254761917160721e+01
1.168000000000000114e+02 2.225178927659603900e+01
1.172000000000000028e+02 2.221123354563445673e+01
1.176000000000000085e+02 2.217087870424675344e+01
1.180000000000000000e+02 2.213072305108280702e+01
1.184000000000000057e+02 2.209076490516165236e+01
1.188000000000000114e+02 2.214201858370558895e+01
1.192000000000000028e+02 2.210320598769482814e+01
1.196000000000000085e+02 2.206458321511100351e+01
1.200000000000000000e+02 2.202614868277964888e+01
1.204000000000000057e+02 2.199793990864417736e+01
1.208000000000000114e+02 2.196017629204333232e+01
1.212000000000000028e+02 2.192259396821864215e+01
1.216000000000000085e+02 2.188519145192906379e+01
1.220000000000000000e+02 2.184796727512041059e+01
1.224000000000000057e+02 2.181091998666885701e+01
1.228000000000000114e+02 2.177404815212913647e+01
1.232000000000000028e+02 2.173735035348723699e+01
1.236000000000000085e+02 2.170082518891768331e+01
1.240000000000000000e+02 2.166447127254512139e+01
1.244000000000000057e+02 2.162828723421024080e+01
1.248000000000000114e+02 2.159227171923989275e+01
1.252000000000000028e+02 2.156094299238350231e+01
1.256000000000000085e+02 2.152566240368765094e+01
1.260000000000000000e+02 2.149054427870196804e+01
1.264000000000000057e+02 2.145558734075633467e+01
1.268000000000000114e+02 2.142079032735837529e+01
1.272000000000000028e+02 2.138615198999030653e+01
1.276000000000000085e+02 2.135167109390928175e+01
1.280000000000000000e+02 2.131734641795128482e+01
1.284000000000000057e+02 2.128317675433835277e+01
1.288000000000000114e+02 2.124916090848926231e+01
1.291999999999999886e+02 2.121529769883338190e+01
1.296000000000000227e+02 2.118158595662780641e+01
1.300000000000000000e+02 2.114802452577761116e+01
1.304000000000000057e+02 2.111461226265917901e+01
1.308000000000000114e+02 2.108134803594655082e+01
1.311999999999999886e+02 2.104823072644077442e+01
1.316000000000000227e+02 2.101614351676233383e+01
1.320000000000000000e+02 2.098435042498833525e+01
1.324000000000000057e+02 2.095270017421873376e+01
1.328000000000000114e+02 2.092119168603171175e+01
1.331999999999999886e+02 2.088982389341409629e+01
1.336000000000000227e+02 2.085859574060617305e+01
1.340000000000000000e+02 2.082750618294914702e+01
1.344000000000000057e+02 2.079655418673510070e+01
1.348000000000000114e+02 2.076573872905943574e+01
1.351999999999999886e+02 2.073505879767572679e+01
1.356000000000000227e+02 2.070451339085300901e+01
1.360000000000000000e+02 2.067410151723534639e+01
1.364000000000000057e+02 2.064381956098668880e+01
1.368000000000000114e+02 2.061362765288583176e+01
1.371999999999999886e+02 2.058356658483668866e+01
1.376000000000000227e+02 2.055363540407322276e+01
1.380000000000000000e+02 2.052383316754980314e+01
1.384000000000000057e+02 2.049415894181374398e+01
1.388000000000000114e+02 2.046461180287990089e+01
1.392000000000000171e+02 2.043519083610726739e+01
1.395999999999999943e+02 2.040589513607754313e+01
1.400000000000000000e+02 2.037672380647559578e+01
1.404000000000000057e+02 2.034767595997189105e+01
1.408000000000000114e+02 2.031861565962209326e+01
1.412000000000000171e+02 2.028967246424610238e+01
1.415999999999999943e+02 2.026085072462686654e+01
1.420000000000000000e+02 2.023214958406118669e+01
1.424000000000000057e+02 2.020356819431150797e+01
1.428000000000000114e+02 2.017510571549844300e+01
1.432000000000000171e+02 2.014676131599493303e+01
1.435999999999999943e+02 2.011853417232212848e+01
1.440000000000000000e+02 2.009042346904673337e+01
1.444000000000000057e+02 2.006242839868004779e+01
1.448000000000000114e+02 2.003454816157854168e+01
1.452000000000000171e+02 2.000678196584586743e+01
1.455999999999999943e+02 1.990311051195956793e+01
1.460000000000000000e+02 1.987572665391680715e+01
1.464000000000000057e+02 1.984845296816378379e+01
1.468000000000000114e+02 1.982128870800160314e+01
1.472000000000000171e+02 1.979423313382926608e+01
1.475999999999999943e+02 1.976728551305691894e+01
1.480000000000000000e+02 1.974044512002038942e+01
1.484000000000000057e+02 1.971371123589700147e+01
1.488000000000000114e+02 1.968708314862268338e+01
1.492000000000000171e+02 1.966056015281017011e+01
1.495999999999999943e+02 1.963414154966862313e+01
1.500000000000000000e+02 1.960782664692421662e+01
