1.000000000000000000e+01 3.335290126940371920e+02
1.040000000000000036e+01 3.591470870840536236e+02
1.080000000000000071e+01 3.768788784425129279e+02
1.119999999999999929e+01 3.936743594013699408e+02
1.159999999999999964e+01 4.251734400043357027e+02
1.200000000000000000e+01 4.266611290887248060e+02
1.240000000000000036e+01 4.227969764358052771e+02
1.280000000000000071e+01 4.212365450589167608e+02
1.319999999999999929e+01 4.209338182933609573e+02
1.359999999999999964e+01 4.293845657428037157e+02
1.400000000000000000e+01 4.217314125377593541e+02
1.440000000000000036e+01 4.145487473788899138e+02
1.480000000000000071e+01 4.077868409977943998e+02
1.519999999999999929e+01 4.014033774198777564e+02
1.560000000000000142e+01 3.953620375824028770e+02
1.600000000000000000e+01 3.896314104016468605e+02
1.639999999999999858e+01 3.841841431775483215e+02
1.680000000000000071e+01 3.789962700564187799e+02
1.719999999999999929e+01 3.740466750506959102e+02
1.760000000000000142e+01 3.693166581694206911e+02
1.800000000000000000e+01 3.647895815561279278e+02
1.839999999999999858e+01 3.604505784117740745e+02
1.880000000000000071e+01 3.562863116946045920e+02
1.920000000000000284e+01 3.522847726541272664e+02
1.960000000000000142e+01 3.484351115162593260e+02
2.000000000000000000e+01 3.447274943235512410e+02
2.039999999999999858e+01 3.411529812078114787e+02
2.080000000000000071e+01 3.377034223438518552e+02
2.120000000000000284e+01 3.343713685812269887e+02
2.160000000000000142e+01 3.311499943322277204e+02
2.200000000000000000e+01 3.280330307499238529e+02
2.239999999999999858e+01 3.250147075897503441e+02
2.280000000000000071e+01 3.220897024342103236e+02
2.320000000000000284e+01 3.192530961893331778e+02
2.360000000000000142e+01 3.165003339461108567e+02
2.400000000000000000e+01 3.138271904497617584e+02
2.439999999999999858e+01 3.112297395416510426e+02
2.480000000000000071e+01 3.087043270386570839e+02
2.520000000000000284e+01 3.062475465971163544e+02
2.560000000000000142e+01 3.038562181766145045e+02
2.600000000000000000e+01 3.015273687755493484e+02
2.640000000000000213e+01 2.992582151576830825e+02
2.680000000000000071e+01 2.970461483285594113e+02
2.719999999999999929e+01 2.948887195540297625e+02
2.760000000000000142e+01 2.927836277413287007e+02
2.800000000000000000e+01 2.907287080270353954e+02
2.840000000000000213e+01 2.887219214365932771e+02
2.880000000000000071e+01 2.867613454974078877e+02
2.920000000000000284e+01 2.848451657023987877e+02
2.960000000000000142e+01 2.829716677336379007e+02
3.000000000000000000e+01 2.811392303666880821e+02
3.040000000000000213e+01 2.793463189857433804e+02
3.080000000000000071e+01 2.775914796478832614e+02
3.120000000000000284e+01 2.758733336418832778e+02
3.160000000000000142e+01 2.741905724932267390e+02
3.200000000000000000e+01 2.725419533723747350e+02
3.240000000000000568e+01 2.709262948680810155e+02
3.279999999999999716e+01 2.693424730916864860e+02
3.320000000000000284e+01 2.677894180819627650e+02
3.360000000000000142e+01 2.662661104832847627e+02
3.400000000000000000e+01 2.647715784727274695e+02
3.440000000000000568e+01 2.633048949141851836e+02
3.479999999999999716e+01 2.618651747198131261e+02
3.520000000000000284e+01 2.604515724010517488e+02
3.560000000000000142e+01 2.590632797932343578e+02
3.600000000000000000e+01 2.576995239393222050e+02
3.640000000000000568e+01 2.563595651196937411e+02
3.679999999999999716e+01 2.550426950161443642e+02
3.720000000000000284e+01 2.537482349993527464e+02
3.760000000000000142e+01 2.524755345300573595e+02
3.800000000000000000e+01 2.512239696650688643e+02
3.840000000000000568e+01 2.499929416600395200e+02
3.879999999999999716e+01 2.487818756616226494e+02
3.920000000000000284e+01 2.475902194822995170e+02
3.960000000000000142e+01 2.464174424517315174e+02
4.000000000000000000e+01 2.452630343390161158e+02
4.040000000000000568e+01 2.441265043407013877e+02
4.079999999999999716e+01 2.430073801298406408e+02
4.120000000000000284e+01 2.419052069617569032e+02
4.160000000000000142e+01 2.408195468325412492e+02
4.200000000000000000e+01 2.397499776866252432e+02
4.239999999999999858e+01 2.386960926700628818e+02
4.280000000000000426e+01 2.376574994264202019e+02
4.320000000000000284e+01 2.366338194324108599e+02
4.360000000000000142e+01 2.356246873706406291e+02
4.400000000000000000e+01 2.346297505370197882e+02
4.439999999999999858e+01 2.336486682805902717e+02
4.480000000000000426e+01 2.326811114736800619e+02
4.520000000000000284e+01 2.317267620104539105e+02
4.560000000000000142e+01 2.307853123320679174e+02
4.600000000000000000e+01 2.298564649767677679e+02
4.639999999999999858e+01 2.289399321533878719e+02
4.680000000000000426e+01 2.280354353368192335e+02
4.720000000000000284e+01 2.271427048841132432e+02
4.760000000000000142e+01 2.262614796699828617e+02
4.800000000000000000e+01 2.253915067405465606e+02
4.840000000000000568e+01 2.245325409842408249e+02
4.880000000000000426e+01 2.236843448188986656e+02
4.920000000000000284e+01 2.228466878940584479e+02
4.960000000000000142e+01 2.220193468076311660e+02
5.000000000000000000e+01 2.212021048361094984e+02
5.040000000000000568e+01 2.203947516775577355e+02
5.080000000000000426e+01 2.195970832066680600e+02
5.120000000000000284e+01 2.188089012412165175e+02
5.160000000000000142e+01 2.180300133192950796e+02
5.200000000000000000e+01 2.172602324867315247e+02
5.240000000000000568e+01 2.164993770941502191e+02
5.280000000000000426e+01 2.157472706031584266e+02
5.320000000000000284e+01 2.150037414011744374e+02
5.360000000000000142e+01 2.142686226244428838e+02
5.400000000000000000e+01 2.135417519888126776e+02
5.440000000000000568e+01 2.128229716278740682e+02
5.480000000000000426e+01 2.121121279380795670e+02
5.520000000000000284e+01 2.114090714304924177e+02
5.560000000000000142e+01 2.107136565888296786e+02
5.600000000000000000e+01 2.100257417334832724e+02
5.640000000000000568e+01 2.093451888912239838e+02
5.680000000000000426e+01 2.086718636703075163e+02
5.720000000000000284e+01 2.080056351407189368e+02
5.760000000000000142e+01 2.073463757193062520e+02
5.800000000000000000e+01 2.066939610595678118e+02
5.840000000000000568e+01 2.060482699458716525e+02
5.880000000000000426e+01 2.054091841918961450e+02
5.920000000000000284e+01 2.047765885430935100e+02
5.960000000000000142e+01 2.041503705829890123e+02
6.000000000000000000e+01 2.035304206431365515e+02
6.040000000000000568e+01 2.029166317165644102e+02
6.080000000000000426e+01 2.023088993745496680e+02
6.120000000000000284e+01 2.017071216865716110e+02
6.160000000000000142e+01 2.011111991433008370e+02
6.200000000000000000e+01 2.005210345824876015e+02
6.240000000000000568e+01 1.999365331176215363e+02
6.280000000000000426e+01 1.993576020692399879e+02
6.320000000000000284e+01 1.987841508987695249e+02
6.360000000000000142e+01 1.982160911447892886e+02
6.400000000000000000e+01 1.976533363616137819e+02
6.440000000000000568e+01 1.970958020600926375e+02
6.480000000000001137e+01 1.965434056505361013e+02
6.520000000000000284e+01 1.959960663876735509e+02
6.559999999999999432e+01 1.954537053175613437e+02
6.600000000000000000e+01 1.949162452263576029e+02
6.640000000000000568e+01 1.943836105908874856e+02
6.680000000000001137e+01 1.938557275309235024e+02
6.720000000000000284e+01 1.933325237631127038e+02
6.759999999999999432e+01 1.928139285564820966e+02
6.800000000000000000e+01 1.922998726894592210e+02
6.840000000000000568e+01 1.917902884083468109e+02
6.880000000000001137e+01 1.912851093871938417e+02
6.920000000000000284e+01 1.907842706890069735e+02
6.959999999999999432e+01 1.902877087282500668e+02
7.000000000000000000e+01 1.897953612345812076e+02
7.040000000000000568e+01 1.893071672177785558e+02
7.080000000000001137e+01 1.888230669338100824e+02
7.120000000000000284e+01 1.883430018520019757e+02
7.159999999999999432e+01 1.878669146232647904e+02
7.200000000000000000e+01 1.873947490493359851e+02
7.240000000000000568e+01 1.869264500530019291e+02
7.280000000000001137e+01 1.864619636492612074e+02
7.320000000000000284e+01 1.860012369173948059e+02
7.359999999999999432e+01 1.855442179739096673e+02
7.400000000000000000e+01 1.850908559463223924e+02
7.440000000000000568e+01 1.846411009477540688e+02
7.479999999999999716e+01 1.841949040523046506e+02
7.520000000000000284e+01 1.837522172711799158e+02
7.560000000000000853e+01 1.833129935295435757e+02
7.600000000000000000e+01 1.828771866440682174e+02
7.640000000000000568e+01 1.824447513011605793e+02
7.679999999999999716e+01 1.820156430358372290e+02
7.720000000000000284e+01 1.815898182112271684e+02
7.760000000000000853e+01 1.811672339986801319e+02
7.800000000000000000e+01 1.807478483584590947e+02
7.840000000000000568e+01 1.803316200209965530e+02
7.879999999999999716e+01 1.799185084686956202e+02
7.920000000000000284e+01 1.795084739182567262e+02
7.960000000000000853e+01 1.791014773035125529e+02
8.000000000000000000e+01 1.786974802587533020e+02
8.040000000000000568e+01 1.782964451025263486e+02
8.079999999999999716e+01 1.778983348218940819e+02
8.120000000000000284e+01 1.775031130571343283e+02
8.160000000000000853e+01 1.771107440868696301e+02
8.200000000000000000e+01 1.767211928136099459e+02
8.240000000000000568e+01 1.763344247496961259e+02
8.279999999999999716e+01 1.759504060036304622e+02
8.320000000000000284e+01 1.755691032667822640e+02
8.360000000000000853e+01 1.751904838004560645e+02
8.400000000000000000e+01 1.748145154233102687e+02
8.440000000000000568e+01 1.744411664991160933e+02
8.479999999999999716e+01 1.740704059248448630e+02
8.520000000000000284e+01 1.737022031190742553e+02
8.560000000000000853e+01 1.733365280107022954e+02
8.600000000000000000e+01 1.729733510279604047e+02
8.640000000000000568e+01 1.726126430877159237e+02
8.680000000000001137e+01 1.722543755850545608e+02
8.720000000000000284e+01 1.718985203831349224e+02
8.760000000000000853e+01 1.715450498033060569e+02
8.800000000000000000e+01 1.711939366154803110e+02
8.840000000000000568e+01 1.708451540287537966e+02
8.880000000000001137e+01 1.704986756822666223e+02
8.920000000000000284e+01 1.701544756362957855e+02
8.960000000000000853e+01 1.698125283635737901e+02
9.000000000000000000e+01 1.694728087408264798e+02
9.040000000000000568e+01 1.691352920405226428e+02
9.080000000000001137e+01 1.687999539228304400e+02
9.120000000000000284e+01 1.684667704277734401e+02
9.160000000000000853e+01 1.681357179675808879e+02
9.200000000000000000e+01 1.678067733192265507e+02
9.240000000000000568e+01 1.674799136171503733e+02
9.280000000000001137e+01 1.671551163461580529e+02
9.320000000000000284e+01 1.668323593344932192e+02
9.360000000000000853e+01 1.665116207470766767e+02
9.400000000000000000e+01 1.661928790789092432e+02
9.440000000000000568e+01 1.658761131486321858e+02
9.480000000000001137e+01 1.655613020922417888e+02
9.520000000000000284e+01 1.652484253569529642e+02
9.560000000000000853e+01 1.649374626952082394e+02
9.600000000000000000e+01 1.646283941588275752e+02
9.640000000000000568e+01 1.643212000932961701e+02
9.680000000000001137e+01 1.640158611321843978e+02
9.720000000000000284e+01 1.637123581916986268e+02
9.760000000000000853e+01 1.634106724653576634e+02
9.800000000000000000e+01 1.631107854187918065e+02
9.840000000000000568e+01 1.628126787846614718e+02
9.880000000000001137e+01 1.625163345576919767e+02
9.920000000000000284e+01 1.622217349898210159e+02
9.960000000000000853e+01 1.619288625854564998e+02
1.000000000000000000e+02 1.616377000968410300e+02
1.004000000000000057e+02 1.613482305195207402e+02
1.008000000000000114e+02 1.610604370879154033e+02
1.012000000000000028e+02 1.607743032709874740e+02
1.016000000000000085e+02 1.604898127680068001e+02
1.020000000000000000e+02 1.602069495044094651e+02
1.024000000000000057e+02 1.599256976277472972e+02
1.028000000000000114e+02 1.596460415037264511e+02
1.032000000000000028e+02 1.593679657123324773e+02
1.036000000000000085e+02 1.590914550440391224e+02
1.040000000000000000e+02 1.588164944961002334e+02
1.044000000000000057e+02 1.585430692689204193e+02
1.048000000000000114e+02 1.582711647625047249e+02
1.052000000000000028e+02 1.580007665729834798e+02
1.056000000000000085e+02 1.577318604892116412e+02
1.060000000000000000e+02 1.574644324894401848e+02
1.064000000000000057e+02 1.571984687380577270e+02
1.068000000000000114e+02 1.569339555824012677e+02
1.072000000000000028e+02 1.566708795496329003e+02
1.076000000000000085e+02 1.564092273436828009e+02
1.080000000000000000e+02 1.561489858422550014e+02
1.084000000000000057e+02 1.558901420938960314e+02
1.088000000000000114e+02 1.556326833151231313e+02
1.092000000000000028e+02 1.553765968876125214e+02
1.096000000000000085e+02 1.551218703554446847e+02
1.100000000000000000e+02 1.548684914224060094e+02
1.104000000000000057e+02 1.546164479493453712e+02
1.108000000000000114e+02 1.543657279515844891e+02
1.112000000000000028e+02 1.541163195963799808e+02
1.116000000000000085e+02 1.538682112004369458e+02
1.120000000000000000e+02 1.536213912274724862e+02
1.124000000000000057e+02 1.533758482858270611e+02
1.128000000000000114e+02 1.531315711261242996e+02
1.132000000000000028e+02 1.528885486389766868e+02
1.136000000000000085e+02 1.526467698527364121e+02
1.140000000000000000e+02 1.524062239312908673e+02
1.144000000000000057e+02 1.521669001719009486e+02
1.148000000000000114e+02 1.519287880030818769e+02
1.152000000000000028e+02 1.516918769825250308e+02
1.156000000000000085e+02 1.514561567950601102e+02
1.160000000000000000e+02 1.512216172506567204e+02
1.164000000000000057e+02 1.509882482824643262e+02
1.168000000000000114e+02 1.507560399448900910e+02
1.172000000000000028e+02 1.505249824117126423e+02
1.176000000000000085e+02 1.502950659742328412e+02
1.180000000000000000e+02 1.500662810394588575e+02
1.184000000000000057e+02 1.498386181283257770e+02
1.188000000000000114e+02 1.496120678739487744e+02
1.192000000000000028e+02 1.493866210199090858e+02
1.196000000000000085e+02 1.491622684185720402e+02
1.200000000000000000e+02 1.489390010294364401e+02
1.204000000000000057e+02 1.487168099175145244e+02
1.208000000000000114e+02 1.484956862517420859e+02
1.212000000000000028e+02 1.482756213034178074e+02
1.216000000000000085e+02 1.480566064446712176e+02
1.220000000000000000e+02 1.478386331469590402e+02
1.224000000000000057e+02 1.476216929795885449e+02
1.228000000000000114e+02 1.474057776082683233e+02
1.232000000000000028e+02 1.471908787936846181e+02
1.236000000000000085e+02 1.469769883901041965e+02
1.240000000000000000e+02 1.467640983440018374e+02
1.244000000000000057e+02 1.465522006927126313e+02
1.248000000000000114e+02 1.463412875631084376e+02
1.252000000000000028e+02 1.461313511702979895e+02
1.256000000000000085e+02 1.459223838163498783e+02
1.260000000000000000e+02 1.457143778890384169e+02
1.264000000000000057e+02 1.455073258606116440e+02
1.268000000000000114e+02 1.453012202865807581e+02
1.272000000000000028e+02 1.450960538045310955e+02
1.276000000000000085e+02 1.448918191329536000e+02
1.280000000000000000e+02 1.446885090700971261e+02
1.284000000000000057e+02 1.444861164928400967e+02
1.288000000000000114e+02 1.442846343555822273e+02
1.291999999999999886e+02 1.440840556891549795e+02
1.296000000000000227e+02 1.438843735997508873e+02
1.300000000000000000e+02 1.436855812678716404e+02
1.304000000000000057e+02 1.434876719472934496e+02
1.308000000000000114e+02 1.432906389640505154e+02
1.311999999999999886e+02 1.430944757154358342e+02
1.316000000000000227e+02 1.428991756690183195e+02
1.320000000000000000e+02 1.427047323616775714e+02
1.324000000000000057e+02 1.425111393986536825e+02
1.328000000000000114e+02 1.423183904526140111e+02
1.331999999999999886e+02 1.421264792627348754e+02
1.336000000000000227e+02 1.419353996337987098e+02
1.340000000000000000e+02 1.417451454353068243e+02
1.344000000000000057e+02 1.415557106006058916e+02
1.348000000000000114e+02 1.413670891260294695e+02
1.351999999999999886e+02 1.411792750700536203e+02
1.356000000000000227e+02 1.409922625524662863e+02
1.360000000000000000e+02 1.408060457535501939e+02
1.364000000000000057e+02 1.406206189132794009e+02
1.368000000000000114e+02 1.404359763305283764e+02
1.371999999999999886e+02 1.402521123622945254e+02
1.376000000000000227e+02 1.400690214229328490e+02
1.380000000000000000e+02 1.398866979834031667e+02
1.384000000000000057e+02 1.397051365705292483e+02
1.388000000000000114e+02 1.395243317662700520e+02
1.392000000000000171e+02 1.393442782070024180e+02
1.395999999999999943e+02 1.391649705828153287e+02
1.400000000000000000e+02 1.389864036368152256e+02
1.404000000000000057e+02 1.388085721644424382e+02
1.408000000000000114e+02 1.386314710127985279e+02
1.412000000000000171e+02 1.384550950799838915e+02
1.415999999999999943e+02 1.382794393144459093e+02
1.420000000000000000e+02 1.381044987143376375e+02
1.424000000000000057e+02 1.379302683268859369e+02
1.428000000000000114e+02 1.377567432477697764e+02
1.432000000000000171e+02 1.375839186205082001e+02
1.435999999999999943e+02 1.374117896358575877e+02
1.440000000000000000e+02 1.372403515312184368e+02
1.444000000000000057e+02 1.370695995900508422e+02
1.448000000000000114e+02 1.368995291412997233e+02
1.452000000000000171e+02 1.367301355588279819e+02
1.455999999999999943e+02 1.365614142608586974e+02
1.460000000000000000e+02 1.363933607094261049e+02
1.464000000000000057e+02 1.362259704098342468e+02
1.468000000000000114e+02 1.360592389101243498e+02
1.472000000000000171e+02 1.358931618005501036e+02
1.475999999999999943e+02 1.357277347130604994e+02
1.480000000000000000e+02 1.355629533207909958e+02
1.484000000000000057e+02 1.353988133375617906e+02
1.488000000000000114e+02 1.352353105173839367e+02
1.492000000000000171e+02 1.350724406539725067e+02
1.495999999999999943e+02 1.349101995802672320e+02
1.500000000000000000e+02 1.347485831679600210e+02
