1.000000000000000000e+01 3.754344831668888673e+02
1.040000000000000036e+01 3.881415644637564810e+02
1.080000000000000071e+01 3.908990820037573712e+02
1.119999999999999929e+01 3.966254343717533857e+02
1.159999999999999964e+01 4.044035091755690701e+02
1.200000000000000000e+01 4.052114874682407617e+02
1.240000000000000036e+01 4.015283690597175337e+02
1.280000000000000071e+01 4.267513071170819217e+02
1.319999999999999929e+01 4.354149285266632887e+02
1.359999999999999964e+01 4.520173788297067290e+02
1.400000000000000000e+01 4.506052387018801824e+02
1.440000000000000036e+01 4.432138697273855428e+02
1.480000000000000071e+01 4.362673497277442038e+02
1.519999999999999929e+01 4.297183030593678268e+02
1.560000000000000142e+01 4.235265616566541667e+02
1.600000000000000000e+01 4.176577554170069106e+02
1.639999999999999858e+01 4.120822352567764710e+02
1.680000000000000071e+01 4.067742379686122263e+02
1.719999999999999929e+01 4.017112299166057028e+02
1.760000000000000142e+01 3.968733850769145874e+02
1.800000000000000000e+01 3.922431654252309841e+02
1.839999999999999858e+01 3.878049802890428737e+02
1.880000000000000071e+01 3.835449073307934214e+02
1.920000000000000284e+01 3.794504621418552119e+02
1.960000000000000142e+01 3.755104065492945438e+02
2.000000000000000000e+01 3.717145880273836838e+02
2.039999999999999858e+01 3.680538043062903171e+02
2.080000000000000071e+01 3.645196885475158979e+02
2.120000000000000284e+01 3.611046114249736547e+02
2.160000000000000142e+01 3.578015971935158746e+02
2.200000000000000000e+01 3.546042514012881384e+02
2.239999999999999858e+01 3.515066983504518134e+02
2.280000000000000071e+01 3.485035267631457145e+02
2.320000000000000284e+01 3.455897423886153774e+02
2.360000000000000142e+01 3.427607265100072027e+02
2.400000000000000000e+01 3.400121994879982594e+02
2.439999999999999858e+01 3.373401886227650266e+02
2.480000000000000071e+01 3.347409997330554461e+02
2.520000000000000284e+01 3.322111919469368218e+02
2.560000000000000142e+01 3.297475552774644143e+02
2.600000000000000000e+01 3.273470906214507181e+02
2.640000000000000213e+01 3.250069918733574923e+02
2.680000000000000071e+01 3.227246298911768463e+02
2.719999999999999929e+01 3.204975380886790504e+02
2.760000000000000142e+01 3.183233994599056587e+02
2.800000000000000000e+01 3.162000348683486095e+02
2.840000000000000213e+01 3.141253924557300365e+02
2.880000000000000071e+01 3.120975380443824179e+02
2.920000000000000284e+01 3.101146464234919904e+02
2.960000000000000142e+01 3.081749934233715749e+02
3.000000000000000000e+01 3.062769486938454975e+02
3.040000000000000213e+01 3.044189691130869164e+02
3.080000000000000071e+01 3.025995927620866723e+02
3.120000000000000284e+01 3.008174334075823140e+02
3.160000000000000142e+01 2.990711754429091798e+02
3.200000000000000000e+01 2.973595692419999068e+02
3.240000000000000568e+01 2.956814268867846636e+02
3.279999999999999716e+01 2.940356182326371481e+02
3.320000000000000284e+01 2.924210672803494049e+02
3.360000000000000142e+01 2.908367488265005818e+02
3.400000000000000000e+01 2.892816853670422574e+02
3.440000000000000568e+01 2.877549442315450960e+02
3.479999999999999716e+01 2.862556349278538619e+02
3.520000000000000284e+01 2.847829066789440731e+02
3.560000000000000142e+01 2.833359461355817643e+02
3.600000000000000000e+01 2.819139752499962128e+02
3.640000000000000568e+01 2.805162492972033306e+02
3.679999999999999716e+01 2.791420550318939604e+02
3.720000000000000284e+01 2.777907089699366452e+02
3.760000000000000142e+01 2.764615557845609715e+02
3.800000000000000000e+01 2.751539668081980494e+02
3.840000000000000568e+01 2.738673386317715313e+02
3.879999999999999716e+01 2.726010917939623255e+02
3.920000000000000284e+01 2.713546695536343236e+02
3.960000000000000142e+01 2.701275367391961026e+02
4.000000000000000000e+01 2.689191786692136930e+02
4.040000000000000568e+01 2.677291001390699989e+02
4.079999999999999716e+01 2.665568244689040966e+02
4.120000000000000284e+01 2.654018926084591499e+02
4.160000000000000142e+01 2.642638622948270495e+02
4.200000000000000000e+01 2.631423072594017185e+02
4.239999999999999858e+01 2.620368164806495201e+02
4.280000000000000426e+01 2.609469934795749282e+02
4.320000000000000284e+01 2.598724556550013176e+02
4.360000000000000142e+01 2.588128336560144476e+02
4.400000000000000000e+01 2.577677707891156160e+02
4.439999999999999858e+01 2.567369224578195031e+02
4.480000000000000426e+01 2.557199556326023924e+02
4.520000000000000284e+01 2.547165483492601652e+02
4.560000000000000142e+01 2.537263892338795017e+02
4.600000000000000000e+01 2.527491770527556696e+02
4.639999999999999858e+01 2.517846202857119522e+02
4.680000000000000426e+01 2.508324367213830897e+02
4.720000000000000284e+01 2.498923530731296125e+02
4.760000000000000142e+01 2.489641046143408971e+02
4.800000000000000000e+01 2.480474348319719127e+02
4.840000000000000568e+01 2.471420950972381263e+02
4.880000000000000426e+01 2.462478443524645968e+02
4.920000000000000284e+01 2.453644488131547803e+02
4.960000000000000142e+01 2.444916816844043126e+02
5.000000000000000000e+01 2.436293228908465665e+02
5.040000000000000568e+01 2.427771588193657522e+02
5.080000000000000426e+01 2.419349820738655410e+02
5.120000000000000284e+01 2.411025912414266941e+02
5.160000000000000142e+01 2.402797906692288734e+02
5.200000000000000000e+01 2.394663902516513758e+02
5.240000000000000568e+01 2.386622052270042786e+02
5.280000000000000426e+01 2.378670559833767015e+02
5.320000000000000284e+01 2.370807678731177646e+02
5.360000000000000142e+01 2.363031710354977690e+02
5.400000000000000000e+01 2.355341002271238153e+02
5.440000000000000568e+01 2.347733946597091972e+02
5.480000000000000426e+01 2.340208978448194159e+02
5.520000000000000284e+01 2.332764574452417037e+02
5.560000000000000142e+01 2.325399251326431624e+02
5.600000000000000000e+01 2.318111564512036580e+02
5.640000000000000568e+01 2.310900106869277693e+02
5.680000000000000426e+01 2.303763507423553278e+02
5.720000000000000284e+01 2.296700430164086981e+02
5.760000000000000142e+01 2.289709572891259199e+02
5.800000000000000000e+01 2.282789666110472240e+02
5.840000000000000568e+01 2.275939471970314685e+02
5.880000000000000426e+01 2.269157783242939388e+02
5.920000000000000284e+01 2.262443422344661030e+02
5.960000000000000142e+01 2.255795240394909058e+02
6.000000000000000000e+01 2.249212116311759928e+02
6.040000000000000568e+01 2.242692955942364108e+02
6.080000000000000426e+01 2.236236691226681046e+02
6.120000000000000284e+01 2.229842279393012632e+02
6.160000000000000142e+01 2.223508702183910373e+02
6.200000000000000000e+01 2.217234965111095448e+02
6.240000000000000568e+01 2.211020096738112386e+02
6.280000000000000426e+01 2.204863147989491949e+02
6.320000000000000284e+01 2.198763191485269601e+02
6.360000000000000142e+01 2.192719320899757918e+02
6.400000000000000000e+01 2.186730650343528168e+02
6.440000000000000568e+01 2.180796313767607444e+02
6.480000000000001137e+01 2.174915464388952842e+02
6.520000000000000284e+01 2.169087274136294923e+02
6.559999999999999432e+01 2.163310933115511148e+02
6.600000000000000000e+01 2.157585649093697384e+02
6.640000000000000568e+01 2.151910647001186589e+02
6.680000000000001137e+01 2.146285168450754099e+02
6.720000000000000284e+01 2.140708471273327120e+02
6.759999999999999432e+01 2.135179829069518291e+02
6.800000000000000000e+01 2.129698530776348662e+02
6.840000000000000568e+01 2.124263880248555267e+02
6.880000000000001137e+01 2.118875195853892137e+02
6.920000000000000284e+01 2.113531810081890967e+02
6.959999999999999432e+01 2.108233069165532072e+02
7.000000000000000000e+01 2.102978332715334204e+02
7.040000000000000568e+01 2.097766973365378931e+02
7.080000000000001137e+01 2.092598376430808571e+02
7.120000000000000284e+01 2.087471939576357727e+02
7.159999999999999432e+01 2.082387072495496909e+02
7.200000000000000000e+01 2.077343196599791781e+02
7.240000000000000568e+01 2.072339744718089491e+02
7.280000000000001137e+01 2.067376160805162897e+02
7.320000000000000284e+01 2.062451899659465084e+02
7.359999999999999432e+01 2.057566426649657672e+02
7.400000000000000000e+01 2.052719217449584335e+02
7.440000000000000568e+01 2.047909757781389430e+02
7.479999999999999716e+01 2.043137543166480157e+02
7.520000000000000284e+01 2.038402078684050878e+02
7.560000000000000853e+01 2.033702878736896196e+02
7.600000000000000000e+01 2.029039466824259534e+02
7.640000000000000568e+01 2.024411375321454898e+02
7.679999999999999716e+01 2.019818145266039551e+02
7.720000000000000284e+01 2.015259326150287507e+02
7.760000000000000853e+01 2.010734475719763168e+02
7.800000000000000000e+01 2.006243159777772860e+02
7.840000000000000568e+01 2.001784951995490474e+02
7.879999999999999716e+01 1.997359433727568785e+02
7.920000000000000284e+01 1.992966193833046020e+02
7.960000000000000853e+01 1.988604828501362931e+02
8.000000000000000000e+01 1.984274941083328940e+02
8.040000000000000568e+01 1.979976141926860294e+02
8.079999999999999716e+01 1.975708048217336170e+02
8.120000000000000284e+01 1.971470283822417855e+02
8.160000000000000853e+01 1.967262479141184883e+02
8.200000000000000000e+01 1.963084270957445483e+02
8.240000000000000568e+01 1.958935302297080341e+02
8.279999999999999716e+01 1.954815222289296344e+02
8.320000000000000284e+01 1.950723686031659270e+02
8.360000000000000853e+01 1.946660354458781796e+02
8.400000000000000000e+01 1.942624894214555979e+02
8.440000000000000568e+01 1.938616977527805432e+02
8.479999999999999716e+01 1.934636282091267958e+02
8.520000000000000284e+01 1.930682490943781033e+02
8.560000000000000853e+01 1.926755292355587699e+02
8.600000000000000000e+01 1.922854379716653170e+02
8.640000000000000568e+01 1.918979451427908884e+02
8.680000000000001137e+01 1.915130210795321091e+02
8.720000000000000284e+01 1.911306365926712374e+02
8.760000000000000853e+01 1.907507629631234352e+02
8.800000000000000000e+01 1.903733719321426747e+02
8.840000000000000568e+01 1.899984356917773880e+02
8.880000000000001137e+01 1.896259268755685525e+02
8.920000000000000284e+01 1.892558185494834788e+02
8.960000000000000853e+01 1.888880842030771134e+02
9.000000000000000000e+01 1.885226977408755147e+02
9.040000000000000568e+01 1.881596334739735141e+02
9.080000000000001137e+01 1.877988661118413347e+02
9.120000000000000284e+01 1.874403707543334008e+02
9.160000000000000853e+01 1.870841228838935422e+02
9.200000000000000000e+01 1.867300983579513058e+02
9.240000000000000568e+01 1.863782734015032077e+02
9.280000000000001137e+01 1.860286245998736945e+02
9.320000000000000284e+01 1.856811288916515537e+02
9.360000000000000853e+01 1.853357635617952326e+02
9.400000000000000000e+01 1.849925062349038285e+02
9.440000000000000568e+01 1.846513348686476661e+02
9.480000000000001137e+01 1.843122277473550810e+02
9.520000000000000284e+01 1.839751634757505485e+02
9.560000000000000853e+01 1.836401209728395827e+02
9.600000000000000000e+01 1.833070794659371359e+02
9.640000000000000568e+01 1.829760184848348956e+02
9.680000000000001137e+01 1.826469178561038689e+02
9.720000000000000284e+01 1.823197576975282459e+02
9.760000000000000853e+01 1.819945184126678157e+02
9.800000000000000000e+01 1.816711806855444706e+02
9.840000000000000568e+01 1.813497254754497021e+02
9.880000000000001137e+01 1.810301340118701887e+02
9.920000000000000284e+01 1.807123877895280657e+02
9.960000000000000853e+01 1.803964685635326077e+02
1.000000000000000000e+02 1.800823583446405962e+02
1.004000000000000057e+02 1.797700393946227280e+02
1.008000000000000114e+02 1.794594942217325695e+02
1.012000000000000028e+02 1.791507055762760956e+02
1.016000000000000085e+02 1.788436564462784872e+02
1.020000000000000000e+02 1.785383300532466535e+02
1.024000000000000057e+02 1.782347098480236411e+02
1.028000000000000114e+02 1.779327795067337661e+02
1.032000000000000028e+02 1.776325229268155397e+02
1.036000000000000085e+02 1.773339242231399169e+02
1.040000000000000000e+02 1.770369677242125590e+02
1.044000000000000057e+02 1.767416379684570131e+02
1.048000000000000114e+02 1.764479197005773585e+02
1.052000000000000028e+02 1.761557978679979328e+02
1.056000000000000085e+02 1.758652576173786315e+02
1.060000000000000000e+02 1.755762842912034785e+02
1.064000000000000057e+02 1.752888634244408479e+02
1.068000000000000114e+02 1.750029807412736034e+02
1.072000000000000028e+02 1.747186221518972218e+02
1.076000000000000085e+02 1.744357737493843672e+02
1.080000000000000000e+02 1.741544218066143230e+02
1.084000000000000057e+02 1.738745527732656342e+02
1.088000000000000114e+02 1.735961532728702537e+02
1.092000000000000028e+02 1.733192100999281706e+02
1.096000000000000085e+02 1.730437102170804735e+02
1.100000000000000000e+02 1.727696407523397966e+02
1.104000000000000057e+02 1.724969889963767855e+02
1.108000000000000114e+02 1.722257423998611046e+02
1.112000000000000028e+02 1.719558885708557057e+02
1.116000000000000085e+02 1.716874152722631379e+02
1.120000000000000000e+02 1.714203104193227887e+02
1.124000000000000057e+02 1.711545620771573510e+02
1.128000000000000114e+02 1.708901584583682336e+02
1.132000000000000028e+02 1.706270879206780648e+02
1.136000000000000085e+02 1.703653389646191272e+02
1.140000000000000000e+02 1.701049002312674077e+02
1.144000000000000057e+02 1.698457605000203614e+02
1.148000000000000114e+02 1.695879086864181602e+02
1.152000000000000028e+02 1.693313338400063515e+02
1.156000000000000085e+02 1.690760251422404679e+02
1.160000000000000000e+02 1.688219719044301996e+02
1.164000000000000057e+02 1.685691635657230734e+02
1.168000000000000114e+02 1.683175896911266705e+02
1.172000000000000028e+02 1.680672399695680497e+02
1.176000000000000085e+02 1.678181042119900894e+02
1.180000000000000000e+02 1.675701723494835846e+02
1.184000000000000057e+02 1.673234344314544160e+02
1.188000000000000114e+02 1.670778806238253082e+02
1.192000000000000028e+02 1.668335012072701886e+02
1.196000000000000085e+02 1.665902865754826223e+02
1.200000000000000000e+02 1.663482272334753418e+02
1.204000000000000057e+02 1.661073137959114945e+02
1.208000000000000114e+02 1.658675369854665576e+02
1.212000000000000028e+02 1.656288876312202092e+02
1.216000000000000085e+02 1.653913566670774458e+02
1.220000000000000000e+02 1.651549351302188597e+02
1.224000000000000057e+02 1.649196141595782592e+02
1.228000000000000114e+02 1.646853849943488513e+02
1.232000000000000028e+02 1.644522389725151754e+02
1.236000000000000085e+02 1.642201675294121515e+02
1.240000000000000000e+02 1.639891621963097350e+02
1.244000000000000057e+02 1.637592145990226413e+02
1.248000000000000114e+02 1.635303164565451652e+02
1.252000000000000028e+02 1.633024595797094207e+02
1.256000000000000085e+02 1.630756358698682220e+02
1.260000000000000000e+02 1.628498373176003611e+02
1.264000000000000057e+02 1.626250560014391056e+02
1.268000000000000114e+02 1.624012840866224963e+02
1.272000000000000028e+02 1.621785138238657566e+02
1.276000000000000085e+02 1.619567375481549050e+02
1.280000000000000000e+02 1.617359476775610858e+02
1.284000000000000057e+02 1.615161367120756211e+02
1.288000000000000114e+02 1.612972972324648708e+02
1.291999999999999886e+02 1.610794218991450748e+02
1.296000000000000227e+02 1.608625034510756393e+02
1.300000000000000000e+02 1.606465347046724332e+02
1.304000000000000057e+02 1.604315085527383928e+02
1.308000000000000114e+02 1.602174179634128564e+02
1.311999999999999886e+02 1.600042559791388612e+02
1.316000000000000227e+02 1.597920157156466985e+02
1.320000000000000000e+02 1.595806903609559697e+02
1.324000000000000057e+02 1.593702731743932191e+02
1.328000000000000114e+02 1.591607574856262772e+02
1.331999999999999886e+02 1.589521366937150049e+02
1.336000000000000227e+02 1.587444042661769004e+02
1.340000000000000000e+02 1.585375537380691071e+02
1.344000000000000057e+02 1.583315787110849158e+02
1.348000000000000114e+02 1.581264728526651879e+02
1.351999999999999886e+02 1.579222298951242180e+02
1.356000000000000227e+02 1.577188436347903178e+02
1.360000000000000000e+02 1.575163079311598153e+02
1.364000000000000057e+02 1.573146167060649532e+02
1.368000000000000114e+02 1.571137639428553427e+02
1.371999999999999886e+02 1.569137436855925500e+02
1.376000000000000227e+02 1.567145500382573857e+02
1.380000000000000000e+02 1.565161771639703545e+02
1.384000000000000057e+02 1.563186192842240132e+02
1.388000000000000114e+02 1.561218706781279195e+02
1.392000000000000171e+02 1.559259256816654329e+02
1.395999999999999943e+02 1.557307786869623669e+02
1.400000000000000000e+02 1.555364241415667834e+02
1.404000000000000057e+02 1.553428565477407801e+02
1.408000000000000114e+02 1.551500704617629083e+02
1.412000000000000171e+02 1.549580604932414190e+02
1.415999999999999943e+02 1.547668213044386505e+02
1.420000000000000000e+02 1.545763476096055342e+02
1.424000000000000057e+02 1.543866341743265593e+02
1.428000000000000114e+02 1.541976758148749411e+02
1.432000000000000171e+02 1.540094673975774526e+02
1.435999999999999943e+02 1.538220038381894028e+02
1.440000000000000000e+02 1.536352801012788518e+02
1.444000000000000057e+02 1.534492911996202622e+02
1.448000000000000114e+02 1.532640321935977852e+02
1.452000000000000171e+02 1.530794981906170449e+02
1.455999999999999943e+02 1.528956843445261882e+02
1.460000000000000000e+02 1.527125858550456599e+02
1.464000000000000057e+02 1.525301979672061634e+02
1.468000000000000114e+02 1.523485159707959724e+02
1.472000000000000171e+02 1.521675351998153474e+02
1.475999999999999943e+02 1.519872510319401044e+02
1.480000000000000000e+02 1.518076588879924600e+02
1.484000000000000057e+02 1.516287542314202312e+02
1.488000000000000114e+02 1.514505325677835117e+02
1.492000000000000171e+02 1.512729894442488785e+02
1.495999999999999943e+02 1.510961204490912166e+02
1.500000000000000000e+02 1.509199212112027340e+02
