1.000000000000000000e+01 9.224762422493361669e+01
1.040000000000000036e+01 9.233933022289956227e+01
1.080000000000000071e+01 9.273893033245595063e+01
1.119999999999999929e+01 9.690351626794020490e+01
1.159999999999999964e+01 9.751046795295988545e+01
1.200000000000000000e+01 9.959145534029605074e+01
1.240000000000000036e+01 9.328844956264103416e+01
1.280000000000000071e+01 9.053229494926273446e+01
1.319999999999999929e+01 8.800052567302367379e+01
1.359999999999999964e+01 8.570157472587639802e+01
1.400000000000000000e+01 8.367549838127571604e+01
1.440000000000000036e+01 8.179615598970639212e+01
1.480000000000000071e+01 8.004524341794862607e+01
1.519999999999999929e+01 7.840767947441931085e+01
1.560000000000000142e+01 7.718515122842443077e+01
1.600000000000000000e+01 7.563060496336382243e+01
1.639999999999999858e+01 7.415773657824713894e+01
1.680000000000000071e+01 7.276782784429413198e+01
1.719999999999999929e+01 7.145297391803234177e+01
1.760000000000000142e+01 7.020632558484047081e+01
1.800000000000000000e+01 6.904150194051720746e+01
1.839999999999999858e+01 6.794338515601782547e+01
1.880000000000000071e+01 6.549842463010624272e+01
1.920000000000000284e+01 6.453124940194702219e+01
1.960000000000000142e+01 6.360481272811374254e+01
2.000000000000000000e+01 6.271623718324012486e+01
2.039999999999999858e+01 6.186292938112744366e+01
2.080000000000000071e+01 6.049842743355987551e+01
2.120000000000000284e+01 6.082766027521346075e+01
2.160000000000000142e+01 6.008133685418212622e+01
2.200000000000000000e+01 5.936111810771738817e+01
2.239999999999999858e+01 5.866549785690015995e+01
2.280000000000000071e+01 5.799309028944129096e+01
2.320000000000000284e+01 5.734261773856107425e+01
2.360000000000000142e+01 5.668803031341364829e+01
2.400000000000000000e+01 5.603009727231214043e+01
2.439999999999999858e+01 5.536520634749111736e+01
2.480000000000000071e+01 5.472183366345919353e+01
2.520000000000000284e+01 5.409883484495244943e+01
2.560000000000000142e+01 5.349514957980939300e+01
2.600000000000000000e+01 5.290979377924321625e+01
2.640000000000000213e+01 5.234185262066059607e+01
2.680000000000000071e+01 5.180659525533867793e+01
2.719999999999999929e+01 5.130212862479663727e+01
2.760000000000000142e+01 5.131048309425816001e+01
2.800000000000000000e+01 5.084094421079061021e+01
2.840000000000000213e+01 5.038358160566585298e+01
2.880000000000000071e+01 4.993786467381602279e+01
2.920000000000000284e+01 4.950329516039677458e+01
2.960000000000000142e+01 4.907940463660275299e+01
3.000000000000000000e+01 4.866575221457339495e+01
3.040000000000000213e+01 4.826192247484127051e+01
3.080000000000000071e+01 4.786752358314670630e+01
3.120000000000000284e+01 4.748218557633184389e+01
3.160000000000000142e+01 4.710784544508828731e+01
3.200000000000000000e+01 4.711944973882410892e+01
3.240000000000000568e+01 4.678960308797458367e+01
3.279999999999999716e+01 4.646646741571989025e+01
3.320000000000000284e+01 4.538304008259379430e+01
3.360000000000000142e+01 4.508400542714813497e+01
3.400000000000000000e+01 4.479087331712663911e+01
3.440000000000000568e+01 4.450344656136829968e+01
3.479999999999999716e+01 4.422153722406805088e+01
3.520000000000000284e+01 4.394496606749068235e+01
3.560000000000000142e+01 4.367356203548061444e+01
3.600000000000000000e+01 4.324640635537544853e+01
3.640000000000000568e+01 4.298683101957858099e+01
3.679999999999999716e+01 4.273189705667766702e+01
3.720000000000000284e+01 4.248146449971515182e+01
3.760000000000000142e+01 4.223539929692370265e+01
3.800000000000000000e+01 4.199357299170077340e+01
3.840000000000000568e+01 4.175586242359520384e+01
3.879999999999999716e+01 4.152214944868923396e+01
3.920000000000000284e+01 4.129232067790172778e+01
3.960000000000000142e+01 4.106569295883267756e+01
4.000000000000000000e+01 4.082856013403014117e+01
4.040000000000000568e+01 4.058754892458760111e+01
4.079999999999999716e+01 4.034591060813208685e+01
4.120000000000000284e+01 4.010831745029840789e+01
4.160000000000000142e+01 3.987465727731265019e+01
4.200000000000000000e+01 3.964482224203920424e+01
4.239999999999999858e+01 3.941870861071434007e+01
4.280000000000000426e+01 3.919621656245356434e+01
4.320000000000000284e+01 3.897725000063335443e+01
4.360000000000000142e+01 3.876171637532124237e+01
4.400000000000000000e+01 3.854952651599375457e+01
4.439999999999999858e+01 3.834059447384180430e+01
4.480000000000000426e+01 3.813483737301780963e+01
4.520000000000000284e+01 3.793217527022902402e+01
4.560000000000000142e+01 3.773253102212639476e+01
4.600000000000000000e+01 3.763235323470983928e+01
4.639999999999999858e+01 3.743805977201469659e+01
4.680000000000000426e+01 3.724658025860903621e+01
4.720000000000000284e+01 3.705784708737469657e+01
4.760000000000000142e+01 3.724042426679503137e+01
4.800000000000000000e+01 3.706401066845022996e+01
4.840000000000000568e+01 3.689001085855795736e+01
4.880000000000000426e+01 3.671836942741116872e+01
4.920000000000000284e+01 3.654903274501470634e+01
4.960000000000000142e+01 3.642556699203581161e+01
5.000000000000000000e+01 3.626449121430331957e+01
5.040000000000000568e+01 3.610551968335692408e+01
5.080000000000000426e+01 3.594860629149502529e+01
5.120000000000000284e+01 3.579549387700040342e+01
5.160000000000000142e+01 3.564501464907766604e+01
5.200000000000000000e+01 3.549639283384149735e+01
5.240000000000000568e+01 3.534959009178452760e+01
5.280000000000000426e+01 3.520456918865608742e+01
5.320000000000000284e+01 3.506129395467831955e+01
5.360000000000000142e+01 3.491972924559162550e+01
5.400000000000000000e+01 3.477984090543325379e+01
5.440000000000000568e+01 3.464159573095822253e+01
5.480000000000000426e+01 3.450496143761760948e+01
5.520000000000000284e+01 3.436990662701403920e+01
5.560000000000000142e+01 3.423847989066496211e+01
5.600000000000000000e+01 3.410959814742182061e+01
5.640000000000000568e+01 3.398214375979328139e+01
5.680000000000000426e+01 3.380060405054702954e+01
5.720000000000000284e+01 3.367631593432163584e+01
5.760000000000000142e+01 3.355337816180587396e+01
5.800000000000000000e+01 3.343176594220261677e+01
5.840000000000000568e+01 3.331145512575665180e+01
5.880000000000000426e+01 3.319242218239953246e+01
5.920000000000000284e+01 3.307440978789183106e+01
5.960000000000000142e+01 3.295674622829886147e+01
6.000000000000000000e+01 3.284030435866802122e+01
6.040000000000000568e+01 3.272506276506290135e+01
6.080000000000000426e+01 3.261100056179073192e+01
6.120000000000000284e+01 3.249809737462358328e+01
6.160000000000000142e+01 3.238633332467038883e+01
6.200000000000000000e+01 3.227568901287004621e+01
6.240000000000000568e+01 3.216614550507732417e+01
6.280000000000000426e+01 3.205616294004978073e+01
6.320000000000000284e+01 3.194726677253104441e+01
6.360000000000000142e+01 3.183944629607640309e+01
6.400000000000000000e+01 3.173268357191410871e+01
6.440000000000000568e+01 3.154319600188304662e+01
6.480000000000001137e+01 3.143788113306452914e+01
6.520000000000000284e+01 3.133358808567543363e+01
6.559999999999999432e+01 3.123030024720989672e+01
6.600000000000000000e+01 3.112800138311268938e+01
6.640000000000000568e+01 3.102667562574420046e+01
6.680000000000001137e+01 3.092630746373832196e+01
6.720000000000000284e+01 3.082688173173659152e+01
6.759999999999999432e+01 3.072838360048319117e+01
6.800000000000000000e+01 3.063079856726554340e+01
6.840000000000000568e+01 3.053411244668651392e+01
6.880000000000001137e+01 3.043831136175455754e+01
6.920000000000000284e+01 3.037112316691252545e+01
6.959999999999999432e+01 3.027775790271837053e+01
7.000000000000000000e+01 3.018522734340463387e+01
7.040000000000000568e+01 3.009351898006082493e+01
7.080000000000001137e+01 3.000262056603905592e+01
7.120000000000000284e+01 2.992627605670204360e+01
7.159999999999999432e+01 2.983846744061755629e+01
7.200000000000000000e+01 2.975141882485383604e+01
7.240000000000000568e+01 2.966511917058653580e+01
7.280000000000001137e+01 2.957955766350637461e+01
7.320000000000000284e+01 2.949447365121675801e+01
7.359999999999999432e+01 2.940935981638184060e+01
7.400000000000000000e+01 2.932496689950692215e+01
7.440000000000000568e+01 2.924128464541974637e+01
7.479999999999999716e+01 2.915830300340872583e+01
7.520000000000000284e+01 2.907601212198808227e+01
7.560000000000000853e+01 2.899452234794448913e+01
7.600000000000000000e+01 2.891386377084751302e+01
7.640000000000000568e+01 2.883386121559285442e+01
7.679999999999999716e+01 2.875450572212240630e+01
7.720000000000000284e+01 2.867578850186564665e+01
7.760000000000000853e+01 2.859770093352531362e+01
7.800000000000000000e+01 2.852023455898937954e+01
7.840000000000000568e+01 2.844338107936484050e+01
7.879999999999999716e+01 2.836713235112908649e+01
7.920000000000000284e+01 2.829148038239466700e+01
7.960000000000000853e+01 2.821641732928357271e+01
8.000000000000000000e+01 2.814193549240726355e+01
8.040000000000000568e+01 2.806802731344870949e+01
8.079999999999999716e+01 2.799468537184310435e+01
8.120000000000000284e+01 2.792190238155379234e+01
8.160000000000000853e+01 2.784967118794022412e+01
8.200000000000000000e+01 2.777798476471480171e+01
8.240000000000000568e+01 2.770683621098572047e+01
8.279999999999999716e+01 2.762247038335989657e+01
8.320000000000000284e+01 2.755154190334238251e+01
8.360000000000000853e+01 2.748364453550839670e+01
8.400000000000000000e+01 2.741624003758749240e+01
8.440000000000000568e+01 2.734932236956511176e+01
8.479999999999999716e+01 2.728288559551072012e+01
8.520000000000000284e+01 2.721692388127010886e+01
8.560000000000000853e+01 2.715143149222009811e+01
8.600000000000000000e+01 2.708640279108375637e+01
8.640000000000000568e+01 2.702183223580408367e+01
8.680000000000001137e+01 2.695771437747447763e+01
8.720000000000000284e+01 2.689404385832403221e+01
8.760000000000000853e+01 2.683081540975607027e+01
8.800000000000000000e+01 2.676802385043819399e+01
8.840000000000000568e+01 2.670566408444226170e+01
8.880000000000001137e+01 2.664373109943281293e+01
8.920000000000000284e+01 2.658221996490233607e+01
8.960000000000000853e+01 2.652103242046970877e+01
9.000000000000000000e+01 2.645987458571434559e+01
9.040000000000000568e+01 2.639913066569508260e+01
9.080000000000001137e+01 2.633879593152325782e+01
9.120000000000000284e+01 2.627886573030463424e+01
9.160000000000000853e+01 2.621933548356730626e+01
9.200000000000000000e+01 2.616020068572936097e+01
9.240000000000000568e+01 2.610145690260504381e+01
9.280000000000001137e+01 2.604309976994836262e+01
9.320000000000000284e+01 2.598493872086789480e+01
9.360000000000000853e+01 2.592655201824889133e+01
9.400000000000000000e+01 2.586854694421896284e+01
9.440000000000000568e+01 2.581091931105882509e+01
9.480000000000001137e+01 2.575366499542032628e+01
9.520000000000000284e+01 2.569677993705598595e+01
9.560000000000000853e+01 2.564026013757919031e+01
9.600000000000000000e+01 2.558410165925405977e+01
9.640000000000000568e+01 2.553140800845706337e+01
9.680000000000001137e+01 2.547668008645448268e+01
9.720000000000000284e+01 2.542229620747623287e+01
9.760000000000000853e+01 2.538103084683647381e+01
9.800000000000000000e+01 2.532743450066519131e+01
9.840000000000000568e+01 2.527417046128827849e+01
9.880000000000001137e+01 2.522123526556245920e+01
9.920000000000000284e+01 2.516862550093803108e+01
9.960000000000000853e+01 2.511633780450938858e+01
1.000000000000000000e+02 2.506436886208723536e+01
1.004000000000000057e+02 2.501271540729196730e+01
1.008000000000000114e+02 2.496137422066772515e+01
1.012000000000000028e+02 2.491034212881632470e+01
1.016000000000000085e+02 2.485961600355085821e+01
1.020000000000000000e+02 2.480919276106815019e+01
1.024000000000000057e+02 2.475906936113974766e+01
1.028000000000000114e+02 2.470924280632092263e+01
1.032000000000000028e+02 2.465971014117716820e+01
1.036000000000000085e+02 2.461046845152775120e+01
1.040000000000000000e+02 2.456151486370591641e+01
1.044000000000000057e+02 2.453395013836906458e+01
1.048000000000000114e+02 2.448611453276944872e+01
1.052000000000000028e+02 2.443859645529353486e+01
1.056000000000000085e+02 2.439150403184249427e+01
1.060000000000000000e+02 2.434467808062798611e+01
1.064000000000000057e+02 2.429811606319736939e+01
1.068000000000000114e+02 2.425181547503090229e+01
1.072000000000000028e+02 2.420577384495869921e+01
1.076000000000000085e+02 2.415998873458970664e+01
1.080000000000000000e+02 2.411445773775279378e+01
1.084000000000000057e+02 2.406917847994936110e+01
1.088000000000000114e+02 2.402414861781737088e+01
1.092000000000000028e+02 2.397936583860642656e+01
1.096000000000000085e+02 2.393482785966364190e+01
1.100000000000000000e+02 2.389025688879869946e+01
1.104000000000000057e+02 2.384590582406950432e+01
1.108000000000000114e+02 2.380179478863507825e+01
1.112000000000000028e+02 2.375792159518048408e+01
1.116000000000000085e+02 2.371428408436006308e+01
1.120000000000000000e+02 2.367088012433766764e+01
1.124000000000000057e+02 2.362770761033611322e+01
1.128000000000000114e+02 2.358476446419568973e+01
1.132000000000000028e+02 2.354204863394139124e+01
1.136000000000000085e+02 2.349193158475378951e+01
1.140000000000000000e+02 2.344972767945746384e+01
1.144000000000000057e+02 2.340774498149949423e+01
1.148000000000000114e+02 2.336598153821427459e+01
1.152000000000000028e+02 2.332443542112895685e+01
1.156000000000000085e+02 2.328312670287278507e+01
1.160000000000000000e+02 2.324205664103464386e+01
1.164000000000000057e+02 2.320119792733498798e+01
1.168000000000000114e+02 2.316054872529116793e+01
1.172000000000000028e+02 2.312010722087850212e+01
1.176000000000000085e+02 2.307987162217643018e+01
1.180000000000000000e+02 2.303984015902146965e+01
1.184000000000000057e+02 2.300001108266676297e+01
1.188000000000000114e+02 2.296038266544824680e+01
1.192000000000000028e+02 2.292095320045708107e+01
1.196000000000000085e+02 2.288172100121836294e+01
1.200000000000000000e+02 2.284268440137594069e+01
1.204000000000000057e+02 2.280384175438308958e+01
1.208000000000000114e+02 2.276519143319908522e+01
1.212000000000000028e+02 2.272673182999142583e+01
1.216000000000000085e+02 2.268846135584362145e+01
1.220000000000000000e+02 2.265026961500111824e+01
1.224000000000000057e+02 2.261219835447107229e+01
1.228000000000000114e+02 2.257431313907105519e+01
1.232000000000000028e+02 2.253661243386603630e+01
1.236000000000000085e+02 2.249909472174285696e+01
1.240000000000000000e+02 2.246175850314356381e+01
1.244000000000000057e+02 2.242460229580361641e+01
1.248000000000000114e+02 2.238762463449490170e+01
1.252000000000000028e+02 2.235534367493556474e+01
1.256000000000000085e+02 2.231912065963858538e+01
1.260000000000000000e+02 2.228306980809223958e+01
1.264000000000000057e+02 2.224718973901224217e+01
1.268000000000000114e+02 2.221147908671488480e+01
1.272000000000000028e+02 2.217593650088988255e+01
1.276000000000000085e+02 2.214056064637725996e+01
1.280000000000000000e+02 2.209993878839344816e+01
1.284000000000000057e+02 2.206500726525993983e+01
1.288000000000000114e+02 2.203023781105918744e+01
1.291999999999999886e+02 2.199562915714771094e+01
1.296000000000000227e+02 2.196118004884673525e+01
1.300000000000000000e+02 2.192688924524424010e+01
1.304000000000000057e+02 2.189275551900040995e+01
1.308000000000000114e+02 2.186356978586868038e+01
1.311999999999999886e+02 2.182982970751947605e+01
1.316000000000000227e+02 2.179624268039282242e+01
1.320000000000000000e+02 2.176280753296655490e+01
1.324000000000000057e+02 2.172952310632991058e+01
1.328000000000000114e+02 2.169638825400866011e+01
1.331999999999999886e+02 2.166340184179328787e+01
1.336000000000000227e+02 2.163056274756990760e+01
1.340000000000000000e+02 2.159786986115419438e+01
1.344000000000000057e+02 2.156532208412799179e+01
1.348000000000000114e+02 2.153291832967872210e+01
1.351999999999999886e+02 2.150065752244141493e+01
1.356000000000000227e+02 2.146853859834346068e+01
1.360000000000000000e+02 2.143656050445181194e+01
1.364000000000000057e+02 2.140472219882282090e+01
1.368000000000000114e+02 2.137302265035450333e+01
1.371999999999999886e+02 2.134146083864122545e+01
1.376000000000000227e+02 2.131003575383080673e+01
1.380000000000000000e+02 2.127874639648391764e+01
1.384000000000000057e+02 2.124759177743578320e+01
1.388000000000000114e+02 2.121657091766015313e+01
1.392000000000000171e+02 2.118568284813545333e+01
1.395999999999999943e+02 2.115492660971307259e+01
1.400000000000000000e+02 2.112429916500646598e+01
1.404000000000000057e+02 2.109372538764871408e+01
1.408000000000000114e+02 2.106314580055938634e+01
1.412000000000000171e+02 2.103268991170941860e+01
1.415999999999999943e+02 2.100236202159815235e+01
1.420000000000000000e+02 2.097216122379594339e+01
1.424000000000000057e+02 2.094208662088795947e+01
1.428000000000000114e+02 2.091213732435888417e+01
1.432000000000000171e+02 2.088231245447933304e+01
1.435999999999999943e+02 2.085261114019411366e+01
1.440000000000000000e+02 2.082303251901216612e+01
1.444000000000000057e+02 2.079357573689826921e+01
1.448000000000000114e+02 2.076423994816635599e+01
1.452000000000000171e+02 2.073502431537453106e+01
1.455999999999999943e+02 2.070592800922163690e+01
1.460000000000000000e+02 2.067695020844548282e+01
1.464000000000000057e+02 2.064809009972256248e+01
1.468000000000000114e+02 2.061934687756933471e+01
1.472000000000000171e+02 2.059071974424497498e+01
1.475999999999999943e+02 2.056220790965565115e+01
1.480000000000000000e+02 2.053381059126018471e+01
1.484000000000000057e+02 2.050552701397717570e+01
1.488000000000000114e+02 2.047735641009351326e+01
1.492000000000000171e+02 2.044929801917425749e+01
1.495999999999999943e+02 2.041797628629779027e+01
1.500000000000000000e+02 2.039022073658412992e+01
