1.000000000000000000e+01 9.768851505674574298e+01
1.040000000000000036e+01 9.789600181066634832e+01
1.080000000000000071e+01 9.679810609418855449e+01
1.119999999999999929e+01 9.409687509176056608e+01
1.159999999999999964e+01 9.175757435081872870e+01
1.200000000000000000e+01 8.963030993190650975e+01
1.240000000000000036e+01 8.768200373012487603e+01
1.280000000000000071e+01 8.588670482420877761e+01
1.319999999999999929e+01 8.422366133384491604e+01
1.359999999999999964e+01 8.269497954007519525e+01
1.400000000000000000e+01 8.135696885551669766e+01
1.440000000000000036e+01 8.009650436205711799e+01
1.480000000000000071e+01 7.816894819888949542e+01
1.519999999999999929e+01 7.681693874687763923e+01
1.560000000000000142e+01 7.554214539587533750e+01
1.600000000000000000e+01 7.433690430743087063e+01
1.639999999999999858e+01 7.119801661003515392e+01
1.680000000000000071e+01 6.989526866725336163e+01
1.719999999999999929e+01 6.865981339839439102e+01
1.760000000000000142e+01 6.748584983541583426e+01
1.800000000000000000e+01 6.636826940092846883e+01
1.839999999999999858e+01 6.532092807116900701e+01
1.880000000000000071e+01 6.295872396722350572e+01
1.920000000000000284e+01 6.206944559498294467e+01
1.960000000000000142e+01 6.121653331064031534e+01
2.000000000000000000e+01 6.039753203150630156e+01
2.039999999999999858e+01 5.961021647841067050e+01
2.080000000000000071e+01 5.885256387534539613e+01
2.120000000000000284e+01 5.812273055370410191e+01
2.160000000000000142e+01 5.744893025146375010e+01
2.200000000000000000e+01 5.681799605342293802e+01
2.239999999999999858e+01 5.620767886741300856e+01
2.280000000000000071e+01 5.561685586653099733e+01
2.320000000000000284e+01 5.504448953392309818e+01
2.360000000000000142e+01 5.448961939880114613e+01
2.400000000000000000e+01 5.394747807174768184e+01
2.439999999999999858e+01 5.248950788445191051e+01
2.480000000000000071e+01 5.196538044580185556e+01
2.520000000000000284e+01 5.145600750746149288e+01
2.560000000000000142e+01 5.096069283585345033e+01
2.600000000000000000e+01 5.047878602649699786e+01
2.640000000000000213e+01 5.000967865873985829e+01
2.680000000000000071e+01 4.955280084039186050e+01
2.719999999999999929e+01 4.823274349025530938e+01
2.760000000000000142e+01 4.780718351791411891e+01
2.800000000000000000e+01 4.739207365696255891e+01
2.840000000000000213e+01 4.698698560733340202e+01
2.880000000000000071e+01 4.659151562324598927e+01
2.920000000000000284e+01 4.620528270873403898e+01
2.960000000000000142e+01 4.582792697441750818e+01
3.000000000000000000e+01 4.545910813860781730e+01
3.040000000000000213e+01 4.509684545114580345e+01
3.080000000000000071e+01 4.472588617120526067e+01
3.120000000000000284e+01 4.436318056455272085e+01
3.160000000000000142e+01 4.400841806717559024e+01
3.200000000000000000e+01 4.403121279053749504e+01
3.240000000000000568e+01 4.371233747519861623e+01
3.279999999999999716e+01 4.339080158710635970e+01
3.320000000000000284e+01 4.306529961949632934e+01
3.360000000000000142e+01 4.274649674885409212e+01
3.400000000000000000e+01 4.243416110926049356e+01
3.440000000000000568e+01 4.212807203153368363e+01
3.479999999999999716e+01 4.182801935299617924e+01
3.520000000000000284e+01 4.153380277880232541e+01
3.560000000000000142e+01 4.124523129031644686e+01
3.600000000000000000e+01 4.096212259648236653e+01
3.640000000000000568e+01 4.068430262452569934e+01
3.679999999999999716e+01 4.041160504668604148e+01
3.720000000000000284e+01 4.014387083999280037e+01
3.760000000000000142e+01 3.988094787638259220e+01
3.800000000000000000e+01 3.992418495328334416e+01
3.840000000000000568e+01 3.967815622669176889e+01
3.879999999999999716e+01 3.943644191364914775e+01
3.920000000000000284e+01 3.919891484752083244e+01
3.960000000000000142e+01 3.916726290392141152e+01
4.000000000000000000e+01 3.895012584200348016e+01
4.040000000000000568e+01 3.873652158338342844e+01
4.079999999999999716e+01 3.852635210813210165e+01
4.120000000000000284e+01 3.831952320971551273e+01
4.160000000000000142e+01 3.811594430530023914e+01
4.200000000000000000e+01 3.791552825750172673e+01
4.239999999999999858e+01 3.771819120676627080e+01
4.280000000000000426e+01 3.752385241364379453e+01
4.320000000000000284e+01 3.733243411026705871e+01
4.360000000000000142e+01 3.714386136040764796e+01
4.400000000000000000e+01 3.695806192752817765e+01
4.439999999999999858e+01 3.677496615029516391e+01
4.480000000000000426e+01 3.659450682505784869e+01
4.520000000000000284e+01 3.641704321412058221e+01
4.560000000000000142e+01 3.624281591507748601e+01
4.600000000000000000e+01 3.607098759324897230e+01
4.639999999999999858e+01 3.589911396763543650e+01
4.680000000000000426e+01 3.572838524542464000e+01
4.720000000000000284e+01 3.555994310962302762e+01
4.760000000000000142e+01 3.539373678028580628e+01
4.800000000000000000e+01 3.522971704961916828e+01
4.840000000000000568e+01 3.506783621959520758e+01
4.880000000000000426e+01 3.490804804258380045e+01
4.920000000000000284e+01 3.475030766482957745e+01
4.960000000000000142e+01 3.463818967684225214e+01
5.000000000000000000e+01 3.448822118619703048e+01
5.040000000000000568e+01 3.434012419532282934e+01
5.080000000000000426e+01 3.419386001279671206e+01
5.120000000000000284e+01 3.404939106257430836e+01
5.160000000000000142e+01 3.390668084275814209e+01
5.200000000000000000e+01 3.376569388622480261e+01
5.240000000000000568e+01 3.362639572301211643e+01
5.280000000000000426e+01 3.348875284437363575e+01
5.320000000000000284e+01 3.335273266841312534e+01
5.360000000000000142e+01 3.321830350721737801e+01
5.400000000000000000e+01 3.298099142791558336e+01
5.440000000000000568e+01 3.285399394188868882e+01
5.480000000000000426e+01 3.279686086989177340e+01
5.520000000000000284e+01 3.267531557228303996e+01
5.560000000000000142e+01 3.255509222639246047e+01
5.600000000000000000e+01 3.243616676508168695e+01
5.640000000000000568e+01 3.231851573467457683e+01
5.680000000000000426e+01 3.220211627486951755e+01
5.720000000000000284e+01 3.208694609945443688e+01
5.760000000000000142e+01 3.197298347778636440e+01
5.800000000000000000e+01 3.186020721700024438e+01
5.840000000000000568e+01 3.174859664491268418e+01
5.880000000000000426e+01 3.163813159358909033e+01
5.920000000000000284e+01 3.152855799017184779e+01
5.960000000000000142e+01 3.141920726581890833e+01
6.000000000000000000e+01 3.131095531863277870e+01
6.040000000000000568e+01 3.120378367974676337e+01
6.080000000000000426e+01 3.109767431441558472e+01
6.120000000000000284e+01 3.099260960892088690e+01
6.160000000000000142e+01 3.088857235795831713e+01
6.200000000000000000e+01 3.078554575248515945e+01
6.240000000000000568e+01 3.068277956645618332e+01
6.280000000000000426e+01 3.057829194055750577e+01
6.320000000000000284e+01 3.047488586758949225e+01
6.360000000000000142e+01 3.037247710154059632e+01
6.400000000000000000e+01 3.027104918281219526e+01
6.440000000000000568e+01 3.017058603554150764e+01
6.480000000000001137e+01 3.007107195608599426e+01
6.520000000000000284e+01 2.997249160192914275e+01
6.559999999999999432e+01 2.987482998098925080e+01
6.600000000000000000e+01 2.977807244131420816e+01
6.640000000000000568e+01 2.968220466114568268e+01
6.680000000000001137e+01 2.958721263933726675e+01
6.720000000000000284e+01 2.949308268611165573e+01
6.759999999999999432e+01 2.939980141414281434e+01
6.800000000000000000e+01 2.930735572994959881e+01
6.840000000000000568e+01 2.921573282558810547e+01
6.880000000000001137e+01 2.912492017063052430e+01
6.920000000000000284e+01 2.903490550441879847e+01
6.959999999999999432e+01 2.894567682858209068e+01
7.000000000000000000e+01 2.885722239980745840e+01
7.040000000000000568e+01 2.876953072285365209e+01
7.080000000000001137e+01 2.868259054379828044e+01
7.120000000000000284e+01 2.861014679031096364e+01
7.159999999999999432e+01 2.852618240335709743e+01
7.200000000000000000e+01 2.844292242298755724e+01
7.240000000000000568e+01 2.834410777628932010e+01
7.280000000000001137e+01 2.837965498881664317e+01
7.320000000000000284e+01 2.829993323607575917e+01
7.359999999999999432e+01 2.822085047007244540e+01
7.400000000000000000e+01 2.814239793461217687e+01
7.440000000000000568e+01 2.806456704279045056e+01
7.479999999999999716e+01 2.798734937277963297e+01
7.520000000000000284e+01 2.791073666374383322e+01
7.560000000000000853e+01 2.783472081187703040e+01
7.600000000000000000e+01 2.775929386656030928e+01
7.640000000000000568e+01 2.768444802663371718e+01
7.679999999999999716e+01 2.761017563677894415e+01
7.720000000000000284e+01 2.753646918400880139e+01
7.760000000000000853e+01 2.746332129425984903e+01
7.800000000000000000e+01 2.739072472908456035e+01
7.840000000000000568e+01 2.731867238243964380e+01
7.879999999999999716e+01 2.724715727756714756e+01
7.920000000000000284e+01 2.717617256396532355e+01
7.960000000000000853e+01 2.710571151444601412e+01
8.000000000000000000e+01 2.703576752227590418e+01
8.040000000000000568e+01 2.696633409839849094e+01
8.079999999999999716e+01 2.689740486873441583e+01
8.120000000000000284e+01 2.682897357155734852e+01
8.160000000000000853e+01 2.676077499735923482e+01
8.200000000000000000e+01 2.669281177904462510e+01
8.240000000000000568e+01 2.662533548564176300e+01
8.279999999999999716e+01 2.655797388405176918e+01
8.320000000000000284e+01 2.649106776396342866e+01
8.360000000000000853e+01 2.642597761686499425e+01
8.400000000000000000e+01 2.636135060644235040e+01
8.440000000000000568e+01 2.629718121037065615e+01
8.479999999999999716e+01 2.623346399842683141e+01
8.520000000000000284e+01 2.617019363051741720e+01
8.560000000000000853e+01 2.610736485475798219e+01
8.600000000000000000e+01 2.604497250560257271e+01
8.640000000000000568e+01 2.598301150202141230e+01
8.680000000000001137e+01 2.592147684572567812e+01
8.720000000000000284e+01 2.586036361943768824e+01
8.760000000000000853e+01 2.579966698520529178e+01
8.800000000000000000e+01 2.573938218275898748e+01
8.840000000000000568e+01 2.567950452791062688e+01
8.880000000000001137e+01 2.562002941099238029e+01
8.920000000000000284e+01 2.556095229533472235e+01
8.960000000000000853e+01 2.550226871578249899e+01
9.000000000000000000e+01 2.544397427724761940e+01
9.040000000000000568e+01 2.538606465329767659e+01
9.080000000000001137e+01 2.532853558477911093e+01
9.120000000000000284e+01 2.527138287847416009e+01
9.160000000000000853e+01 2.521460240579049383e+01
9.200000000000000000e+01 2.516755088433596654e+01
9.240000000000000568e+01 2.511193946412825184e+01
9.280000000000001137e+01 2.505668462707765087e+01
9.320000000000000284e+01 2.500178253259496586e+01
9.360000000000000853e+01 2.494722939799903827e+01
9.400000000000000000e+01 2.489302149739522818e+01
9.440000000000000568e+01 2.483915516058057449e+01
9.480000000000001137e+01 2.468914969099765244e+01
9.520000000000000284e+01 2.463667179649878136e+01
9.560000000000000853e+01 2.458452364129738754e+01
9.600000000000000000e+01 2.453270174217103872e+01
9.640000000000000568e+01 2.448431005220693635e+01
9.680000000000001137e+01 2.443384991174536935e+01
9.720000000000000284e+01 2.438370006661534006e+01
9.760000000000000853e+01 2.433385730650027057e+01
9.800000000000000000e+01 2.428431846773954561e+01
9.840000000000000568e+01 2.423508043245477950e+01
9.880000000000001137e+01 2.418614012769610611e+01
9.920000000000000284e+01 2.413749452460795908e+01
9.960000000000000853e+01 2.408914063761383062e+01
1.000000000000000000e+02 2.404107552361942624e+01
1.004000000000000057e+02 2.399329628123384595e+01
1.008000000000000114e+02 2.394580005000821643e+01
1.012000000000000028e+02 2.389858400969130159e+01
1.016000000000000085e+02 2.385164537950176111e+01
1.020000000000000000e+02 2.380498141741644602e+01
1.024000000000000057e+02 2.375853339167308320e+01
1.028000000000000114e+02 2.371232089800854936e+01
1.032000000000000028e+02 2.366637483333375513e+01
1.036000000000000085e+02 2.362069261943505794e+01
1.040000000000000000e+02 2.357527171308671754e+01
1.044000000000000057e+02 2.353010960543958063e+01
1.048000000000000114e+02 2.348520382142282514e+01
1.052000000000000028e+02 2.344055191915849434e+01
1.056000000000000085e+02 2.339615148938841571e+01
1.060000000000000000e+02 2.335200015491322745e+01
1.064000000000000057e+02 2.330747309874506357e+01
1.068000000000000114e+02 2.326189462328284918e+01
1.072000000000000028e+02 2.321656195418690771e+01
1.076000000000000085e+02 2.317147282357046834e+01
1.080000000000000000e+02 2.312662499314410525e+01
1.084000000000000057e+02 2.308201625371704679e+01
1.088000000000000114e+02 2.303764442470881590e+01
1.092000000000000028e+02 2.299350735367080745e+01
1.096000000000000085e+02 2.294960291581779188e+01
1.100000000000000000e+02 2.290565347443743605e+01
1.104000000000000057e+02 2.286191208071957703e+01
1.108000000000000114e+02 2.281839900865171700e+01
1.112000000000000028e+02 2.277511221948567410e+01
1.116000000000000085e+02 2.273204970022161575e+01
1.120000000000000000e+02 2.268920946318824861e+01
1.124000000000000057e+02 2.264658954563133619e+01
1.128000000000000114e+02 2.260418800931046945e+01
1.132000000000000028e+02 2.256200294010374208e+01
1.136000000000000085e+02 2.252042323384866762e+01
1.140000000000000000e+02 2.247884172809231274e+01
1.144000000000000057e+02 2.243747050417819366e+01
1.148000000000000114e+02 2.239630773899340710e+01
1.152000000000000028e+02 2.235535163181216234e+01
1.156000000000000085e+02 2.231460040394057032e+01
1.160000000000000000e+02 2.227405229836833556e+01
1.164000000000000057e+02 2.223370557942716275e+01
1.168000000000000114e+02 2.219355853245578558e+01
1.172000000000000028e+02 2.215360946347141180e+01
1.176000000000000085e+02 2.211385669884742455e+01
1.180000000000000000e+02 2.207429858499732944e+01
1.184000000000000057e+02 2.203493348806458840e+01
1.188000000000000114e+02 2.208677577176714024e+01
1.192000000000000028e+02 2.204854738296231531e+01
1.196000000000000085e+02 2.201050446490036450e+01
1.200000000000000000e+02 2.197264547907681020e+01
1.204000000000000057e+02 2.193496890504171049e+01
1.208000000000000114e+02 2.189747324012610719e+01
1.212000000000000028e+02 2.186015699917347987e+01
1.216000000000000085e+02 2.182301871427623752e+01
1.220000000000000000e+02 2.178605693451694947e+01
1.224000000000000057e+02 2.174927022571444724e+01
1.228000000000000114e+02 2.171265717017449504e+01
1.232000000000000028e+02 2.167621636644503624e+01
1.236000000000000085e+02 2.163994642907587007e+01
1.240000000000000000e+02 2.160384598838268388e+01
1.244000000000000057e+02 2.156791369021534877e+01
1.248000000000000114e+02 2.153214819573038241e+01
1.252000000000000028e+02 2.150103815861001877e+01
1.256000000000000085e+02 2.146593291287299365e+01
1.260000000000000000e+02 2.143098885148775068e+01
1.264000000000000057e+02 2.139620470940696961e+01
1.268000000000000114e+02 2.136157923563760619e+01
1.272000000000000028e+02 2.132711119303912994e+01
1.276000000000000085e+02 2.129279935812532187e+01
1.280000000000000000e+02 2.125864252086951822e+01
1.284000000000000057e+02 2.122463948451326132e+01
1.288000000000000114e+02 2.119078906537831841e+01
1.291999999999999886e+02 2.115709009268191920e+01
1.296000000000000227e+02 2.112354140835518024e+01
1.300000000000000000e+02 2.109014186686471248e+01
1.304000000000000057e+02 2.105689033503725938e+01
1.308000000000000114e+02 2.102378569188730495e+01
1.311999999999999886e+02 2.099082682844772307e+01
1.316000000000000227e+02 2.095889693746345728e+01
1.320000000000000000e+02 2.092726004702996789e+01
1.324000000000000057e+02 2.089576489016066319e+01
1.328000000000000114e+02 2.086441039824350696e+01
1.331999999999999886e+02 2.083319551397266167e+01
1.336000000000000227e+02 2.080211919119443564e+01
1.340000000000000000e+02 2.077118039475598721e+01
1.344000000000000057e+02 2.074037810035638074e+01
1.348000000000000114e+02 2.070971129440021485e+01
1.351999999999999886e+02 2.067917897385358827e+01
1.356000000000000227e+02 2.064878014610252421e+01
1.360000000000000000e+02 2.061851382881362937e+01
1.364000000000000057e+02 2.058837904979706934e+01
1.368000000000000114e+02 2.055837484687178218e+01
1.371999999999999886e+02 2.052850026773289827e+01
1.376000000000000227e+02 2.049644287903672435e+01
1.380000000000000000e+02 2.046704377899574467e+01
1.384000000000000057e+02 2.043776996600887585e+01
1.388000000000000114e+02 2.040862054131779502e+01
1.392000000000000171e+02 2.037959461521038662e+01
1.395999999999999943e+02 2.035069130690358463e+01
1.400000000000000000e+02 2.032190974442800169e+01
1.404000000000000057e+02 2.029324906451450516e+01
1.408000000000000114e+02 2.026457335399785364e+01
1.412000000000000171e+02 2.023601219519974137e+01
1.415999999999999943e+02 2.020756996213152235e+01
1.420000000000000000e+02 2.017924582104885189e+01
1.424000000000000057e+02 2.015103894640728655e+01
1.428000000000000114e+02 2.012294852075853768e+01
1.432000000000000171e+02 2.009497373464829550e+01
1.435999999999999943e+02 2.006711378651571209e+01
1.440000000000000000e+02 2.003936788259429846e+01
1.444000000000000057e+02 2.001173523681447719e+01
1.448000000000000114e+02 1.998421507070754188e+01
1.452000000000000171e+02 1.995680661331110528e+01
1.455999999999999943e+02 1.985349058579907577e+01
1.460000000000000000e+02 1.982645986263070270e+01
1.464000000000000057e+02 1.979953704048318031e+01
1.468000000000000114e+02 1.977272139266069217e+01
1.472000000000000171e+02 1.974601219934051954e+01
1.475999999999999943e+02 1.971940874748934647e+01
1.480000000000000000e+02 1.969291033078082265e+01
1.484000000000000057e+02 1.966651624951431998e+01
1.488000000000000114e+02 1.964022581053499650e+01
1.492000000000000171e+02 1.961403832715485152e+01
1.495999999999999943e+02 1.958795311907517700e+01
1.500000000000000000e+02 1.956195868303477425e+01
