1.000000000000000000e+01 1.106998246358389792e+02
1.040000000000000036e+01 1.069019316673431916e+02
1.080000000000000071e+01 1.027479110383816874e+02
1.119999999999999929e+01 9.921827906636380590e+01
1.159999999999999964e+01 9.601795384938122879e+01
1.200000000000000000e+01 9.309794875019684923e+01
1.240000000000000036e+01 9.041903502632057155e+01
1.280000000000000071e+01 8.794934909708817372e+01
1.319999999999999929e+01 8.566268695319655535e+01
1.359999999999999964e+01 8.357519771739060843e+01
1.400000000000000000e+01 8.180898579457434039e+01
1.440000000000000036e+01 8.014545993567338655e+01
1.480000000000000071e+01 7.857479216412139067e+01
1.519999999999999929e+01 7.708844803461391848e+01
1.560000000000000142e+01 7.573937016653096066e+01
1.600000000000000000e+01 7.446356362280162955e+01
1.639999999999999858e+01 7.324605705173823367e+01
1.680000000000000071e+01 7.208245053585483220e+01
1.719999999999999929e+01 7.096880265574027646e+01
1.760000000000000142e+01 6.990156996533011124e+01
1.800000000000000000e+01 6.887755608370352434e+01
1.839999999999999858e+01 6.789386862603079464e+01
1.880000000000000071e+01 6.415639409338123755e+01
1.920000000000000284e+01 6.331932208129472883e+01
1.960000000000000142e+01 6.251293285658385912e+01
2.000000000000000000e+01 6.173536713215798954e+01
2.039999999999999858e+01 6.098492148439547123e+01
2.080000000000000071e+01 6.026003177477177530e+01
2.120000000000000284e+01 5.955925869684296714e+01
2.160000000000000142e+01 5.797171818840186575e+01
2.200000000000000000e+01 5.733021303387512546e+01
2.239999999999999858e+01 5.670884031453316965e+01
2.280000000000000071e+01 5.610655631546305955e+01
2.320000000000000284e+01 5.552239207659724229e+01
2.360000000000000142e+01 5.495544660555826511e+01
2.400000000000000000e+01 5.439712749616371923e+01
2.439999999999999858e+01 5.379795208953148489e+01
2.480000000000000071e+01 5.321642605739394583e+01
2.520000000000000284e+01 5.265169115453716131e+01
2.560000000000000142e+01 5.210294662986615322e+01
2.600000000000000000e+01 5.156944435704949825e+01
2.640000000000000213e+01 5.105048446084140323e+01
2.680000000000000071e+01 5.054541138042550585e+01
2.719999999999999929e+01 5.005361031900470437e+01
2.760000000000000142e+01 4.956778545474994502e+01
2.800000000000000000e+01 4.908564967046507377e+01
2.840000000000000213e+01 4.861574658149071126e+01
2.880000000000000071e+01 4.815756264735962588e+01
2.920000000000000284e+01 4.771061408546067639e+01
2.960000000000000142e+01 4.727444468740826977e+01
3.000000000000000000e+01 4.684862382829200556e+01
3.040000000000000213e+01 4.643274464897233145e+01
3.080000000000000071e+01 4.602642239390765155e+01
3.120000000000000284e+01 4.562929288901304403e+01
3.160000000000000142e+01 4.524101114580878402e+01
3.200000000000000000e+01 4.560106674650712932e+01
3.240000000000000568e+01 4.527125277212010701e+01
3.279999999999999716e+01 4.494813634527650947e+01
3.320000000000000284e+01 4.463149213891233558e+01
3.360000000000000142e+01 4.432110533815573916e+01
3.400000000000000000e+01 4.401677101646177448e+01
3.440000000000000568e+01 4.371829355649781945e+01
3.479999999999999716e+01 4.342548611202911246e+01
3.520000000000000284e+01 4.313817010741168190e+01
3.560000000000000142e+01 4.285617477162139721e+01
3.600000000000000000e+01 4.277569483682452756e+01
3.640000000000000568e+01 4.251343150396539272e+01
3.679999999999999716e+01 4.225576443897763568e+01
3.720000000000000284e+01 4.200256000467867068e+01
3.760000000000000142e+01 4.175368995192766874e+01
3.800000000000000000e+01 4.150903114327607568e+01
3.840000000000000568e+01 4.126846529375193739e+01
3.879999999999999716e+01 4.103187872753619558e+01
3.920000000000000284e+01 4.079916214939257202e+01
3.960000000000000142e+01 4.056906188373760358e+01
4.000000000000000000e+01 4.033655916576093148e+01
4.040000000000000568e+01 4.010776322619180689e+01
4.079999999999999716e+01 3.988257559869980184e+01
4.120000000000000284e+01 3.966090145338025508e+01
4.160000000000000142e+01 3.944264942550906738e+01
4.200000000000000000e+01 3.922773145406954143e+01
4.239999999999999858e+01 3.901606262939750991e+01
4.280000000000000426e+01 3.880756104934169315e+01
4.320000000000000284e+01 3.860214768338163083e+01
4.360000000000000142e+01 3.839974624418704252e+01
4.400000000000000000e+01 3.820028306614143077e+01
4.439999999999999858e+01 3.800349062194477057e+01
4.480000000000000426e+01 3.780819956076723543e+01
4.520000000000000284e+01 3.761566329847493506e+01
4.560000000000000142e+01 3.742581699911484350e+01
4.600000000000000000e+01 3.723859795111368953e+01
4.639999999999999858e+01 3.705394547841262920e+01
4.680000000000000426e+01 3.687180085611146296e+01
4.720000000000000284e+01 3.669210723035382671e+01
4.760000000000000142e+01 3.651480954220313890e+01
4.800000000000000000e+01 3.633985445527655145e+01
4.840000000000000568e+01 3.616719028691892390e+01
4.880000000000000426e+01 3.599676694271380484e+01
4.920000000000000284e+01 3.582853585414162012e+01
4.960000000000000142e+01 3.574968612766542009e+01
5.000000000000000000e+01 3.559331073637209641e+01
5.040000000000000568e+01 3.543889131945024928e+01
5.080000000000000426e+01 3.528638704665932124e+01
5.120000000000000284e+01 3.513575827675957441e+01
5.160000000000000142e+01 3.498696651321002093e+01
5.200000000000000000e+01 3.483997436187328844e+01
5.240000000000000568e+01 3.469474549062001500e+01
5.280000000000000426e+01 3.455124459073313403e+01
5.320000000000000284e+01 3.440943734001728416e+01
5.360000000000000142e+01 3.426929036752520119e+01
5.400000000000000000e+01 3.413077121981749684e+01
5.440000000000000568e+01 3.399384832867770001e+01
5.480000000000000426e+01 3.386435689561107409e+01
5.520000000000000284e+01 3.373280197016264026e+01
5.560000000000000142e+01 3.360272487479326031e+01
5.600000000000000000e+01 3.347409784451252790e+01
5.640000000000000568e+01 3.334689384263874246e+01
5.680000000000000426e+01 3.322108653633681996e+01
5.720000000000000284e+01 3.309665027315575969e+01
5.760000000000000142e+01 3.297356005851776217e+01
5.800000000000000000e+01 3.285179153411355202e+01
5.840000000000000568e+01 3.273132095716098178e+01
5.880000000000000426e+01 3.261212518048633058e+01
5.920000000000000284e+01 3.249371284664680104e+01
5.960000000000000142e+01 3.237476321781326760e+01
6.000000000000000000e+01 3.225704411319389919e+01
6.040000000000000568e+01 3.214053425235112371e+01
6.080000000000000426e+01 3.202521286812436330e+01
6.120000000000000284e+01 3.191105969079677607e+01
6.160000000000000142e+01 3.179805493285577711e+01
6.200000000000000000e+01 3.168617927432069337e+01
6.240000000000000568e+01 3.157541384861307421e+01
6.280000000000000426e+01 3.146574022894608547e+01
6.320000000000000284e+01 3.135714041521029927e+01
6.360000000000000142e+01 3.124959682133491867e+01
6.400000000000000000e+01 3.114309226310400192e+01
6.440000000000000568e+01 3.103760994640851578e+01
6.480000000000001137e+01 3.093313345591583996e+01
6.520000000000000284e+01 3.082914424873780490e+01
6.559999999999999432e+01 3.072573423395488490e+01
6.600000000000000000e+01 3.062329282809741926e+01
6.640000000000000568e+01 3.052180486185394415e+01
6.680000000000001137e+01 3.042125549737813017e+01
6.720000000000000284e+01 3.032163021902247380e+01
6.759999999999999432e+01 3.022291482438713928e+01
6.800000000000000000e+01 3.012509541567079907e+01
6.840000000000000568e+01 3.002815839131198317e+01
6.880000000000001137e+01 2.993209043790915302e+01
6.920000000000000284e+01 2.983687852240873184e+01
6.959999999999999432e+01 2.974250988455055378e+01
7.000000000000000000e+01 2.964897202956088762e+01
7.040000000000000568e+01 2.955625272108338208e+01
7.080000000000001137e+01 2.946433997433884144e+01
7.120000000000000284e+01 2.940073394310818600e+01
7.159999999999999432e+01 2.931341058935778676e+01
7.200000000000000000e+01 2.922682986082594780e+01
7.240000000000000568e+01 2.914098116900120417e+01
7.280000000000001137e+01 2.905585413647978754e+01
7.320000000000000284e+01 2.897143859157007739e+01
7.359999999999999432e+01 2.888772456306494263e+01
7.400000000000000000e+01 2.880470227517583481e+01
7.440000000000000568e+01 2.872236214262290233e+01
7.479999999999999716e+01 2.864069476587521024e+01
7.520000000000000284e+01 2.855969092653591090e+01
7.560000000000000853e+01 2.847934158286695805e+01
7.600000000000000000e+01 2.839963786544859303e+01
7.640000000000000568e+01 2.832057107296864729e+01
7.679999999999999716e+01 2.824213266813722356e+01
7.720000000000000284e+01 2.816648587933658732e+01
7.760000000000000853e+01 2.809078171359579557e+01
7.800000000000000000e+01 2.801566498028172703e+01
7.840000000000000568e+01 2.794112802091395054e+01
7.879999999999999716e+01 2.786716331673841296e+01
7.920000000000000284e+01 2.779376348545764586e+01
7.960000000000000853e+01 2.772092127805395023e+01
8.000000000000000000e+01 2.764862957570302626e+01
8.040000000000000568e+01 2.757688138677436029e+01
8.079999999999999716e+01 2.750566984391610958e+01
8.120000000000000284e+01 2.743498820122125181e+01
8.160000000000000853e+01 2.736482983147252668e+01
8.200000000000000000e+01 2.729518822346354767e+01
8.240000000000000568e+01 2.722605697939360425e+01
8.279999999999999716e+01 2.715669728598874855e+01
8.320000000000000284e+01 2.708761775152390783e+01
8.360000000000000853e+01 2.701903965838400623e+01
8.400000000000000000e+01 2.695095689603163436e+01
8.440000000000000568e+01 2.688336345811324080e+01
8.479999999999999716e+01 2.681625344018098644e+01
8.520000000000000284e+01 2.674962103747534314e+01
8.560000000000000853e+01 2.668346054276636181e+01
8.600000000000000000e+01 2.661776634425205401e+01
8.640000000000000568e+01 2.655253292351179795e+01
8.680000000000001137e+01 2.648775485351333003e+01
8.720000000000000284e+01 2.642342679667153860e+01
8.760000000000000853e+01 2.635954350295749293e+01
8.800000000000000000e+01 2.629609980805619074e+01
8.840000000000000568e+01 2.623309063157154597e+01
8.880000000000001137e+01 2.617051097527716763e+01
8.920000000000000284e+01 2.610835592141156880e+01
8.960000000000000853e+01 2.604605957023082397e+01
9.000000000000000000e+01 2.598414327154000958e+01
9.040000000000000568e+01 2.592264340564548419e+01
9.080000000000001137e+01 2.586155527032202173e+01
9.120000000000000284e+01 2.580087423765309396e+01
9.160000000000000853e+01 2.574059575252440624e+01
9.200000000000000000e+01 2.568071533115475447e+01
9.240000000000000568e+01 2.562122855966298829e+01
9.280000000000001137e+01 2.556213109267004668e+01
9.320000000000000284e+01 2.550341865193506052e+01
9.360000000000000853e+01 2.544508702502457709e+01
9.400000000000000000e+01 2.538713206401392952e+01
9.440000000000000568e+01 2.532954968421976361e+01
9.480000000000001137e+01 2.527233586296305745e+01
9.520000000000000284e+01 2.521548663836147597e+01
9.560000000000000853e+01 2.515899810815051652e+01
9.600000000000000000e+01 2.510286642853241545e+01
9.640000000000000568e+01 2.505330258233791341e+01
9.680000000000001137e+01 2.499931228178991560e+01
9.720000000000000284e+01 2.494565600583094067e+01
9.760000000000000853e+01 2.489233027769078177e+01
9.800000000000000000e+01 2.483933167130641806e+01
9.840000000000000568e+01 2.478665681037240631e+01
9.880000000000001137e+01 2.473430236741301869e+01
9.920000000000000284e+01 2.468226506287548006e+01
9.960000000000000853e+01 2.463054166424372227e+01
1.000000000000000000e+02 2.457912898517211175e+01
1.004000000000000057e+02 2.452802388463867089e+01
1.008000000000000114e+02 2.447722326611723176e+01
1.012000000000000028e+02 2.442672407676802493e+01
1.016000000000000085e+02 2.437652330664620948e+01
1.020000000000000000e+02 2.432661798792794627e+01
1.024000000000000057e+02 2.427700519415342129e+01
1.028000000000000114e+02 2.422768203948656662e+01
1.032000000000000028e+02 2.417864567799082565e+01
1.036000000000000085e+02 2.414106216669355831e+01
1.040000000000000000e+02 2.409325504329867940e+01
1.044000000000000057e+02 2.404572059889637714e+01
1.048000000000000114e+02 2.399845621310444699e+01
1.052000000000000028e+02 2.395145930084289887e+01
1.056000000000000085e+02 2.390472731172318177e+01
1.060000000000000000e+02 2.385825772945008794e+01
1.064000000000000057e+02 2.381204807123644684e+01
1.068000000000000114e+02 2.376609588722988775e+01
1.072000000000000028e+02 2.372039875995173830e+01
1.076000000000000085e+02 2.367495430374745169e+01
1.080000000000000000e+02 2.362976016424849490e+01
1.084000000000000057e+02 2.358481401784529297e+01
1.088000000000000114e+02 2.354011357117106584e+01
1.092000000000000028e+02 2.349565656059615293e+01
1.096000000000000085e+02 2.345144075173271148e+01
1.100000000000000000e+02 2.340691286068665988e+01
1.104000000000000057e+02 2.336258095414022051e+01
1.108000000000000114e+02 2.331848751955823218e+01
1.112000000000000028e+02 2.327463039452853621e+01
1.116000000000000085e+02 2.323100744412878882e+01
1.120000000000000000e+02 2.318761656047766095e+01
1.124000000000000057e+02 2.314445566229490225e+01
1.128000000000000114e+02 2.310152269447022633e+01
1.132000000000000028e+02 2.305881562764063020e+01
1.136000000000000085e+02 2.301633245777609460e+01
1.140000000000000000e+02 2.297407120577343420e+01
1.144000000000000057e+02 2.293202991705801708e+01
1.148000000000000114e+02 2.289020666119332859e+01
1.152000000000000028e+02 2.284859953149803857e+01
1.156000000000000085e+02 2.280720664467057190e+01
1.160000000000000000e+02 2.276602614042084127e+01
1.164000000000000057e+02 2.272505618110907832e+01
1.168000000000000114e+02 2.268429495139159968e+01
1.172000000000000028e+02 2.264374065787331247e+01
1.176000000000000085e+02 2.260324356219918229e+01
1.180000000000000000e+02 2.256291813056373741e+01
1.184000000000000057e+02 2.252279573115321654e+01
1.188000000000000114e+02 2.248287464038095251e+01
1.192000000000000028e+02 2.244315315517756204e+01
1.196000000000000085e+02 2.240362959267729437e+01
1.200000000000000000e+02 2.236430228991017088e+01
1.204000000000000057e+02 2.232516960349976642e+01
1.208000000000000114e+02 2.228622990936672821e+01
1.212000000000000028e+02 2.224748160243767003e+01
1.216000000000000085e+02 2.220892309635946305e+01
1.220000000000000000e+02 2.217055282321874188e+01
1.224000000000000057e+02 2.213236923326656580e+01
1.228000000000000114e+02 2.209437079464809983e+01
1.232000000000000028e+02 2.205655599313715243e+01
1.236000000000000085e+02 2.201892333187558037e+01
1.240000000000000000e+02 2.198147133111737261e+01
1.244000000000000057e+02 2.194419852797728865e+01
1.248000000000000114e+02 2.190710347618409060e+01
1.252000000000000028e+02 2.187922395416252996e+01
1.256000000000000085e+02 2.184328389698783823e+01
1.260000000000000000e+02 2.180751317699944636e+01
1.264000000000000057e+02 2.177191044855334923e+01
1.268000000000000114e+02 2.173647438101195917e+01
1.272000000000000028e+02 2.170120365852892519e+01
1.276000000000000085e+02 2.166609697983778560e+01
1.280000000000000000e+02 2.163115305804427990e+01
1.284000000000000057e+02 2.159637062042227384e+01
1.288000000000000114e+02 2.156174840821324779e+01
1.291999999999999886e+02 2.152728517642922768e+01
1.296000000000000227e+02 2.149297969365906980e+01
1.300000000000000000e+02 2.145883074187820228e+01
1.304000000000000057e+02 2.142483711626146103e+01
1.308000000000000114e+02 2.139099762499920843e+01
1.311999999999999886e+02 2.135731108911660314e+01
1.316000000000000227e+02 2.132377634229585439e+01
1.320000000000000000e+02 2.129039223070156339e+01
1.324000000000000057e+02 2.125715761280893901e+01
1.328000000000000114e+02 2.122407135923494081e+01
1.331999999999999886e+02 2.119447750711377054e+01
1.336000000000000227e+02 2.116190367045142651e+01
1.340000000000000000e+02 2.112947350365142896e+01
1.344000000000000057e+02 2.109718593686973875e+01
1.348000000000000114e+02 2.106503991144831645e+01
1.351999999999999886e+02 2.103303437976461510e+01
1.356000000000000227e+02 2.100116830508370214e+01
1.360000000000000000e+02 2.096944066141271179e+01
1.364000000000000057e+02 2.093785043335766716e+01
1.368000000000000114e+02 2.090639661598272880e+01
1.371999999999999886e+02 2.087507821467160340e+01
1.376000000000000227e+02 2.084389424499129007e+01
1.380000000000000000e+02 2.081284373255796538e+01
1.384000000000000057e+02 2.078192571290504986e+01
1.388000000000000114e+02 2.075113923135341665e+01
1.392000000000000171e+02 2.072048334288361815e+01
1.395999999999999943e+02 2.068995711201016974e+01
1.400000000000000000e+02 2.065955961265786556e+01
1.404000000000000057e+02 2.062928992804003769e+01
1.408000000000000114e+02 2.059887703356951505e+01
1.412000000000000171e+02 2.056858088772658277e+01
1.415999999999999943e+02 2.053841102456490830e+01
1.420000000000000000e+02 2.050836655491961835e+01
1.424000000000000057e+02 2.047844659841573645e+01
1.428000000000000114e+02 2.044865028335652113e+01
1.432000000000000171e+02 2.041897674661342066e+01
1.435999999999999943e+02 2.038942513351783958e+01
1.440000000000000000e+02 2.035999459775443299e+01
1.444000000000000057e+02 2.033068430125618420e+01
1.448000000000000114e+02 2.030149341410104213e+01
1.452000000000000171e+02 2.027242111441007921e+01
1.455999999999999943e+02 2.024346658824731193e+01
1.460000000000000000e+02 2.021462902952094609e+01
1.464000000000000057e+02 2.018590763988622072e+01
1.468000000000000114e+02 2.015730162864960207e+01
1.472000000000000171e+02 2.012881021267452653e+01
1.475999999999999943e+02 2.010043261628852207e+01
1.480000000000000000e+02 2.007216807119172231e+01
1.484000000000000057e+02 2.004401581636672702e+01
1.488000000000000114e+02 2.001597509798990515e+01
1.492000000000000171e+02 1.998800299216231480e+01
1.495999999999999943e+02 1.996011665606734198e+01
1.500000000000000000e+02 1.993233998087841030e+01
