1.000000000000000000e+01 4.709401676735231490e+02
1.040000000000000036e+01 5.379768091052369527e+02
1.080000000000000071e+01 5.740818285053799173e+02
1.119999999999999929e+01 6.080268727253843508e+02
1.159999999999999964e+01 6.584060647591628594e+02
1.200000000000000000e+01 6.573813582100021904e+02
1.240000000000000036e+01 6.513493584373959493e+02
1.280000000000000071e+01 6.764960701246641293e+02
1.319999999999999929e+01 6.863082964793313749e+02
1.359999999999999964e+01 7.127790132255405524e+02
1.400000000000000000e+01 7.050971018112832098e+02
1.440000000000000036e+01 6.918724233785237629e+02
1.480000000000000071e+01 6.794797433230402248e+02
1.519999999999999929e+01 6.678299993253224329e+02
1.560000000000000142e+01 6.568474779448234813e+02
1.600000000000000000e+01 6.464672663461774391e+02
1.639999999999999858e+01 6.366332893596545546e+02
1.680000000000000071e+01 6.272967761560656754e+02
1.719999999999999929e+01 6.184150475034855390e+02
1.760000000000000142e+01 6.099505458036876462e+02
1.800000000000000000e+01 6.018700514431044439e+02
1.839999999999999858e+01 5.941440438492957128e+02
1.880000000000000071e+01 5.867461761658238402e+02
1.920000000000000284e+01 5.796528400267798133e+02
1.960000000000000142e+01 5.728428024332553150e+02
2.000000000000000000e+01 5.662969008138142044e+02
2.039999999999999858e+01 5.599977854015677394e+02
2.080000000000000071e+01 5.539297003664055410e+02
2.120000000000000284e+01 5.480782969016358948e+02
2.160000000000000142e+01 5.424304728212923692e+02
2.200000000000000000e+01 5.369742342792976615e+02
2.239999999999999858e+01 5.316985760484768662e+02
2.280000000000000071e+01 5.265933774502954066e+02
2.320000000000000284e+01 5.216493115454213694e+02
2.360000000000000142e+01 5.168577656108971041e+02
2.400000000000000000e+01 5.122107712645674837e+02
2.439999999999999858e+01 5.077009428687767922e+02
2.480000000000000071e+01 5.033214230664659681e+02
2.520000000000000284e+01 4.990658344839447409e+02
2.560000000000000142e+01 4.949282367837319612e+02
2.600000000000000000e+01 4.909030883742086644e+02
2.640000000000000213e+01 4.869852121853193694e+02
2.680000000000000071e+01 4.831697650050762718e+02
2.719999999999999929e+01 4.794522099432788309e+02
2.760000000000000142e+01 4.758282916491303922e+02
2.800000000000000000e+01 4.722940139603159082e+02
2.840000000000000213e+01 4.688456197042181657e+02
2.880000000000000071e+01 4.654795724085945494e+02
2.920000000000000284e+01 4.621925397102997977e+02
2.960000000000000142e+01 4.589813782773791218e+02
3.000000000000000000e+01 4.558431200828106284e+02
3.040000000000000213e+01 4.527749598879199198e+02
3.080000000000000071e+01 4.497742438105432825e+02
3.120000000000000284e+01 4.468384588677542979e+02
3.160000000000000142e+01 4.439652233957734779e+02
3.200000000000000000e+01 4.411522782607987665e+02
3.240000000000000568e+01 4.383974787842030310e+02
3.279999999999999716e+01 4.356987873140136003e+02
3.320000000000000284e+01 4.330542663820133384e+02
3.360000000000000142e+01 4.304620723923196692e+02
3.400000000000000000e+01 4.279204497930172693e+02
3.440000000000000568e+01 4.254277256874796649e+02
3.479999999999999716e+01 4.229823048464578505e+02
3.520000000000000284e+01 4.205826650859681877e+02
3.560000000000000142e+01 4.182273529794965725e+02
3.600000000000000000e+01 4.159149798761422403e+02
3.640000000000000568e+01 4.136442181990786935e+02
3.679999999999999716e+01 4.114137980011694822e+02
3.720000000000000284e+01 4.092225037567651498e+02
3.760000000000000142e+01 4.070691713706694941e+02
3.800000000000000000e+01 4.049526853870124796e+02
3.840000000000000568e+01 4.028719763823442577e+02
3.879999999999999716e+01 4.008260185286670776e+02
3.920000000000000284e+01 3.988138273133987468e+02
3.960000000000000142e+01 3.968344574043955504e+02
4.000000000000000000e+01 3.948870006491943059e+02
4.040000000000000568e+01 3.929705841985625625e+02
4.079999999999999716e+01 3.910843687452805284e+02
4.120000000000000284e+01 3.892275468698436498e+02
4.160000000000000142e+01 3.873993414854562616e+02
4.200000000000000000e+01 3.855990043753154737e+02
4.239999999999999858e+01 3.838258148157453888e+02
4.280000000000000426e+01 3.820790782792635127e+02
4.320000000000000284e+01 3.803581252121207399e+02
4.360000000000000142e+01 3.786623098812917192e+02
4.400000000000000000e+01 3.769910092862755846e+02
4.439999999999999858e+01 3.753436221314247518e+02
4.480000000000000426e+01 3.737195678548429214e+02
4.520000000000000284e+01 3.721182857101925947e+02
4.560000000000000142e+01 3.705392338980198588e+02
4.600000000000000000e+01 3.689818887434589101e+02
4.639999999999999858e+01 3.674457439174024671e+02
4.680000000000000426e+01 3.659303096984361900e+02
4.720000000000000284e+01 3.644351122730278689e+02
4.760000000000000142e+01 3.629596930716399470e+02
4.800000000000000000e+01 3.615036081385937337e+02
4.840000000000000568e+01 3.600664275336699234e+02
4.880000000000000426e+01 3.586477347635627098e+02
4.920000000000000284e+01 3.572471262414365469e+02
4.960000000000000142e+01 3.558642107729494342e+02
5.000000000000000000e+01 3.544986090672206274e+02
5.040000000000000568e+01 3.531499532713150415e+02
5.080000000000000426e+01 3.518178865269152880e+02
5.120000000000000284e+01 3.505020625479369869e+02
5.160000000000000142e+01 3.492021452179221228e+02
5.200000000000000000e+01 3.479178082061205259e+02
5.240000000000000568e+01 3.466487346012393118e+02
5.280000000000000426e+01 3.453946165619020121e+02
5.320000000000000284e+01 3.441551549829210330e+02
5.360000000000000142e+01 3.429300591765406807e+02
5.400000000000000000e+01 3.417190465678602891e+02
5.440000000000000568e+01 3.405218424036946203e+02
5.480000000000000426e+01 3.393381794741743533e+02
5.520000000000000284e+01 3.381677978464285843e+02
5.560000000000000142e+01 3.370104446097344066e+02
5.600000000000000000e+01 3.358658736315492206e+02
5.640000000000000568e+01 3.347338453238811553e+02
5.680000000000000426e+01 3.336141264194802716e+02
5.720000000000000284e+01 3.325064897573645339e+02
5.760000000000000142e+01 3.314107140772223374e+02
5.800000000000000000e+01 3.303265838222587831e+02
5.840000000000000568e+01 3.292538889500767709e+02
5.880000000000000426e+01 3.281924247512084776e+02
5.920000000000000284e+01 3.271419916749306935e+02
5.960000000000000142e+01 3.261023951620219350e+02
6.000000000000000000e+01 3.250734454841330603e+02
6.040000000000000568e+01 3.240549575894655732e+02
6.080000000000000426e+01 3.230467509544638460e+02
6.120000000000000284e+01 3.220486494412467096e+02
6.160000000000000142e+01 3.210604811605148825e+02
6.200000000000000000e+01 3.200820783396892466e+02
6.240000000000000568e+01 3.191132771960411674e+02
6.280000000000000426e+01 3.181539178145957862e+02
6.320000000000000284e+01 3.172038440305939844e+02
6.360000000000000142e+01 3.162629033163134977e+02
6.400000000000000000e+01 3.153309466720593264e+02
6.440000000000000568e+01 3.144078285211406865e+02
6.480000000000001137e+01 3.134934066086647135e+02
6.520000000000000284e+01 3.125875419039817871e+02
6.559999999999999432e+01 3.116900985066278622e+02
6.600000000000000000e+01 3.108009435556164703e+02
6.640000000000000568e+01 3.099199471419391330e+02
6.680000000000001137e+01 3.090469822241400948e+02
6.720000000000000284e+01 3.081819245468396389e+02
6.759999999999999432e+01 3.073246525620824059e+02
6.800000000000000000e+01 3.064750473533972013e+02
6.840000000000000568e+01 3.056329925624568205e+02
6.880000000000001137e+01 3.047983743182334706e+02
6.920000000000000284e+01 3.039710811685496878e+02
6.959999999999999432e+01 3.031510040139290254e+02
7.000000000000000000e+01 3.023380360436555065e+02
7.040000000000000568e+01 3.015320726739551560e+02
7.080000000000001137e+01 3.007330114882157091e+02
7.120000000000000284e+01 2.999407521791668501e+02
7.159999999999999432e+01 2.991551964929432188e+02
7.200000000000000000e+01 2.983762481749591871e+02
7.240000000000000568e+01 2.976038129175263407e+02
7.280000000000001137e+01 2.968377983091461942e+02
7.320000000000000284e+01 2.960781137854163489e+02
7.359999999999999432e+01 2.953246705814890447e+02
7.400000000000000000e+01 2.945773816860235570e+02
7.440000000000000568e+01 2.938361617965784376e+02
7.479999999999999716e+01 2.931009272763893136e+02
7.520000000000000284e+01 2.923715961124818818e+02
7.560000000000000853e+01 2.916480878750715533e+02
7.600000000000000000e+01 2.909303236782033082e+02
7.640000000000000568e+01 2.902182261415863422e+02
7.679999999999999716e+01 2.895117193535816682e+02
7.720000000000000284e+01 2.888107288353007789e+02
7.760000000000000853e+01 2.881151815057766044e+02
7.800000000000000000e+01 2.874250056481685078e+02
7.840000000000000568e+01 2.867401308769658499e+02
7.879999999999999716e+01 2.860604881061539686e+02
7.920000000000000284e+01 2.853860095183109706e+02
7.960000000000000853e+01 2.847166285346017958e+02
8.000000000000000000e+01 2.840522797856395982e+02
8.040000000000000568e+01 2.833928990831845454e+02
8.079999999999999716e+01 2.827384233926518959e+02
8.120000000000000284e+01 2.820887908064016187e+02
8.160000000000000853e+01 2.814439405177839717e+02
8.200000000000000000e+01 2.808038127959151780e+02
8.240000000000000568e+01 2.801683489611591540e+02
8.279999999999999716e+01 2.795374913612922683e+02
8.320000000000000284e+01 2.789111833483286205e+02
8.360000000000000853e+01 2.782893692559833880e+02
8.400000000000000000e+01 2.776719943777551407e+02
8.440000000000000568e+01 2.770590049456048405e+02
8.479999999999999716e+01 2.764503481092152697e+02
8.520000000000000284e+01 2.758459719158091730e+02
8.560000000000000853e+01 2.752458252905106519e+02
8.600000000000000000e+01 2.746498580172309403e+02
8.640000000000000568e+01 2.740580207200636664e+02
8.680000000000001137e+01 2.734702648451719824e+02
8.720000000000000284e+01 2.728865426431534615e+02
8.760000000000000853e+01 2.723068071518665079e+02
8.800000000000000000e+01 2.717310121797059992e+02
8.840000000000000568e+01 2.711591122893123043e+02
8.880000000000001137e+01 2.705910627817014529e+02
8.920000000000000284e+01 2.700268196808036123e+02
8.960000000000000853e+01 2.694663397183973075e+02
9.000000000000000000e+01 2.689095803194270502e+02
9.040000000000000568e+01 2.683564995876936337e+02
9.080000000000001137e+01 2.678070562919053259e+02
9.120000000000000284e+01 2.672612098520793324e+02
9.160000000000000853e+01 2.667189203262831256e+02
9.200000000000000000e+01 2.661801483977062617e+02
9.240000000000000568e+01 2.656448553620517714e+02
9.280000000000001137e+01 2.651130031152385413e+02
9.320000000000000284e+01 2.645845541414058175e+02
9.360000000000000853e+01 2.640594715012106235e+02
9.400000000000000000e+01 2.635377188204096228e+02
9.440000000000000568e+01 2.630192602787175247e+02
9.480000000000001137e+01 2.625040605989344158e+02
9.520000000000000284e+01 2.619920850363332647e+02
9.560000000000000853e+01 2.614832993683015161e+02
9.600000000000000000e+01 2.609776698842288738e+02
9.640000000000000568e+01 2.604751633756344518e+02
9.680000000000001137e+01 2.599757471265268123e+02
9.720000000000000284e+01 2.594793889039899568e+02
9.760000000000000853e+01 2.589860569489899262e+02
9.800000000000000000e+01 2.584957199673947912e+02
9.840000000000000568e+01 2.580083471212026893e+02
9.880000000000001137e+01 2.575239080199726232e+02
9.920000000000000284e+01 2.570423727124517654e+02
9.960000000000000853e+01 2.565637116783946112e+02
1.000000000000000000e+02 2.560878958205676099e+02
1.004000000000000057e+02 2.556148964569366626e+02
1.008000000000000114e+02 2.551446853130294130e+02
1.012000000000000028e+02 2.546772345144702854e+02
1.016000000000000085e+02 2.542125165796827275e+02
1.020000000000000000e+02 2.537505044127537133e+02
1.024000000000000057e+02 2.532911712964570654e+02
1.028000000000000114e+02 2.528344908854311370e+02
1.032000000000000028e+02 2.523804371995067868e+02
1.036000000000000085e+02 2.519289846171814133e+02
1.040000000000000000e+02 2.514801078692361216e+02
1.044000000000000057e+02 2.510337820324914162e+02
1.048000000000000114e+02 2.505899825236983816e+02
1.052000000000000028e+02 2.501486850935615962e+02
1.056000000000000085e+02 2.497098658208909683e+02
1.060000000000000000e+02 2.492735011068782569e+02
1.064000000000000057e+02 2.488395676694960912e+02
1.068000000000000114e+02 2.484080425380159909e+02
1.072000000000000028e+02 2.479789030476420351e+02
1.076000000000000085e+02 2.475521268342581891e+02
1.080000000000000000e+02 2.471276918292855385e+02
1.084000000000000057e+02 2.467055762546472124e+02
1.088000000000000114e+02 2.462857586178382121e+02
1.092000000000000028e+02 2.458682177070976422e+02
1.096000000000000085e+02 2.454529325866809302e+02
1.100000000000000000e+02 2.450398825922286790e+02
1.104000000000000057e+02 2.446290473262314720e+02
1.108000000000000114e+02 2.442204066535870766e+02
1.112000000000000028e+02 2.438139406972475740e+02
1.116000000000000085e+02 2.434096298339556483e+02
1.120000000000000000e+02 2.430074546900666235e+02
1.124000000000000057e+02 2.426073961374544297e+02
1.128000000000000114e+02 2.422094352894999929e+02
1.132000000000000028e+02 2.418135534971599441e+02
1.136000000000000085e+02 2.414197323451130615e+02
1.140000000000000000e+02 2.410279536479838214e+02
1.144000000000000057e+02 2.406381994466397884e+02
1.148000000000000114e+02 2.402504520045631011e+02
1.152000000000000028e+02 2.398646938042917327e+02
1.156000000000000085e+02 2.394809075439313801e+02
1.160000000000000000e+02 2.390990761337352524e+02
1.164000000000000057e+02 2.387191826927492571e+02
1.168000000000000114e+02 2.383412105455233529e+02
1.172000000000000028e+02 2.379651432188855154e+02
1.176000000000000085e+02 2.375909644387777462e+02
1.180000000000000000e+02 2.372186581271527359e+02
1.184000000000000057e+02 2.368482083989298417e+02
1.188000000000000114e+02 2.364795995590083919e+02
1.192000000000000028e+02 2.361128160993381471e+02
1.196000000000000085e+02 2.357478426960445290e+02
1.200000000000000000e+02 2.353846642066083632e+02
1.204000000000000057e+02 2.350232656670977747e+02
1.208000000000000114e+02 2.346636322894527780e+02
1.212000000000000028e+02 2.343057494588192924e+02
1.216000000000000085e+02 2.339496027309333215e+02
1.220000000000000000e+02 2.335951778295531653e+02
1.224000000000000057e+02 2.332424606439391255e+02
1.228000000000000114e+02 2.328914372263791392e+02
1.232000000000000028e+02 2.325420937897600311e+02
1.236000000000000085e+02 2.321944167051826753e+02
1.240000000000000000e+02 2.318483924996209566e+02
1.244000000000000057e+02 2.315040078536223689e+02
1.248000000000000114e+02 2.311612495990510467e+02
1.252000000000000028e+02 2.308201047168706737e+02
1.256000000000000085e+02 2.304805603349672083e+02
1.260000000000000000e+02 2.301426037260110320e+02
1.264000000000000057e+02 2.298062223053564423e+02
1.268000000000000114e+02 2.294714036289788055e+02
1.272000000000000028e+02 2.291381353914484862e+02
1.276000000000000085e+02 2.288064054239398502e+02
1.280000000000000000e+02 2.284762016922755379e+02
1.284000000000000057e+02 2.281475122950054697e+02
1.288000000000000114e+02 2.278203254615183369e+02
1.291999999999999886e+02 2.274946295501871703e+02
1.296000000000000227e+02 2.271704130465460594e+02
1.300000000000000000e+02 2.268476645614991014e+02
1.304000000000000057e+02 2.265263728295598753e+02
1.308000000000000114e+02 2.262065267071210997e+02
1.311999999999999886e+02 2.258881151707543040e+02
1.316000000000000227e+02 2.255711273155380354e+02
1.320000000000000000e+02 2.252555523534149984e+02
1.324000000000000057e+02 2.249413796115767354e+02
1.328000000000000114e+02 2.246285985308756779e+02
1.331999999999999886e+02 2.243171986642642253e+02
1.336000000000000227e+02 2.240071696752593766e+02
1.340000000000000000e+02 2.236985013364341910e+02
1.344000000000000057e+02 2.233911835279334923e+02
1.348000000000000114e+02 2.230852062360144998e+02
1.351999999999999886e+02 2.227805595516119581e+02
1.356000000000000227e+02 2.224772336689268855e+02
1.360000000000000000e+02 2.221752188840383155e+02
1.364000000000000057e+02 2.218745055935385722e+02
1.368000000000000114e+02 2.215750842931900024e+02
1.371999999999999886e+02 2.212769455766043336e+02
1.376000000000000227e+02 2.209800801339434315e+02
1.380000000000000000e+02 2.206844787506411194e+02
1.384000000000000057e+02 2.203901323061454036e+02
1.388000000000000114e+02 2.200970317726817029e+02
1.392000000000000171e+02 2.198051682140352057e+02
1.395999999999999943e+02 2.195145327843534346e+02
1.400000000000000000e+02 2.192251167269675989e+02
1.404000000000000057e+02 2.189369113732326753e+02
1.408000000000000114e+02 2.186499081413866179e+02
1.412000000000000171e+02 2.183640985354267627e+02
1.415999999999999943e+02 2.180794741440044504e+02
1.420000000000000000e+02 2.177960266393373558e+02
1.424000000000000057e+02 2.175137477761383025e+02
1.428000000000000114e+02 2.172326293905613852e+02
1.432000000000000171e+02 2.169526633991644076e+02
1.435999999999999943e+02 2.166738417978874907e+02
1.440000000000000000e+02 2.163961566610473710e+02
1.444000000000000057e+02 2.161196001403476430e+02
1.448000000000000114e+02 2.158441644639040362e+02
1.452000000000000171e+02 2.155698419352849555e+02
1.455999999999999943e+02 2.152966249325664876e+02
1.460000000000000000e+02 2.150245059074020446e+02
1.464000000000000057e+02 2.147534773841060485e+02
1.468000000000000114e+02 2.144835319587521383e+02
1.472000000000000171e+02 2.142146622982842814e+02
1.475999999999999943e+02 2.139468611396418680e+02
1.480000000000000000e+02 2.136801212888980785e+02
1.484000000000000057e+02 2.134144356204107567e+02
1.488000000000000114e+02 2.131497970759866121e+02
1.492000000000000171e+02 2.128861986640575310e+02
1.495999999999999943e+02 2.126236334588693921e+02
1.500000000000000000e+02 2.123620945996829619e+02
