1.000000000000000000e+01 4.934185386516293192e+02
1.040000000000000036e+01 5.049415596808082682e+02
1.080000000000000071e+01 5.132713384579320746e+02
1.119999999999999929e+01 5.319310292541836134e+02
1.159999999999999964e+01 5.480488349283344860e+02
1.200000000000000000e+01 5.592642211942563790e+02
1.240000000000000036e+01 5.625539177160060262e+02
1.280000000000000071e+01 5.957149967215411834e+02
1.319999999999999929e+01 6.154451242975893592e+02
1.359999999999999964e+01 6.440125615506377699e+02
1.400000000000000000e+01 6.565029166526936706e+02
1.440000000000000036e+01 6.681631686617425885e+02
1.480000000000000071e+01 6.861113714074645031e+02
1.519999999999999929e+01 6.736423112948702965e+02
1.560000000000000142e+01 6.619574350420257360e+02
1.600000000000000000e+01 6.509709339840370603e+02
1.639999999999999858e+01 6.406103144695141509e+02
1.680000000000000071e+01 6.308137519873471319e+02
1.719999999999999929e+01 6.215280784094281898e+02
1.760000000000000142e+01 6.127072272085273426e+02
1.800000000000000000e+01 6.043110159501056842e+02
1.839999999999999858e+01 5.963041811717781684e+02
1.880000000000000071e+01 5.886556048597984727e+02
1.920000000000000284e+01 5.813376882718144998e+02
1.960000000000000142e+01 5.743258404159416841e+02
2.000000000000000000e+01 5.675980567104569445e+02
2.039999999999999858e+01 5.611345692727462620e+02
2.080000000000000071e+01 5.549175546176952594e+02
2.120000000000000284e+01 5.489308877526927972e+02
2.160000000000000142e+01 5.431599340584079982e+02
2.200000000000000000e+01 5.375913721628654685e+02
2.239999999999999858e+01 5.322130424066078831e+02
2.280000000000000071e+01 5.270138165695075259e+02
2.320000000000000284e+01 5.219834853647141699e+02
2.360000000000000142e+01 5.171126608602660326e+02
2.400000000000000000e+01 5.123926915066788297e+02
2.439999999999999858e+01 5.078155878610075433e+02
2.480000000000000071e+01 5.033739574281783007e+02
2.520000000000000284e+01 4.990609473067202089e+02
2.560000000000000142e+01 4.948701935420627365e+02
2.600000000000000000e+01 4.907957762667645056e+02
2.640000000000000213e+01 4.868321798515164005e+02
2.680000000000000071e+01 4.829742574098202681e+02
2.719999999999999929e+01 4.792171990978162626e+02
2.760000000000000142e+01 4.755565037327191931e+02
2.800000000000000000e+01 4.719879533218033316e+02
2.840000000000000213e+01 4.685075901513098415e+02
2.880000000000000071e+01 4.651116961330089907e+02
2.920000000000000284e+01 4.617967741470181977e+02
2.960000000000000142e+01 4.585595311541403589e+02
3.000000000000000000e+01 4.553968628804815353e+02
3.040000000000000213e+01 4.523058399022965546e+02
3.080000000000000071e+01 4.492836949805841300e+02
3.120000000000000284e+01 4.463278115134771156e+02
3.160000000000000142e+01 4.434357129904503267e+02
3.200000000000000000e+01 4.406050533461515215e+02
3.240000000000000568e+01 4.378336081236176369e+02
3.279999999999999716e+01 4.351192663670128695e+02
3.320000000000000284e+01 4.324600231730578912e+02
3.360000000000000142e+01 4.298539728382114049e+02
3.400000000000000000e+01 4.272993025455539282e+02
3.440000000000000568e+01 4.247942865413793925e+02
3.479999999999999716e+01 4.223372807568051144e+02
3.520000000000000284e+01 4.199267178343934575e+02
3.560000000000000142e+01 4.175611025239028322e+02
3.600000000000000000e+01 4.152390074149320753e+02
3.640000000000000568e+01 4.129590689774530006e+02
3.679999999999999716e+01 4.107199838840920165e+02
3.720000000000000284e+01 4.085205055905660174e+02
3.760000000000000142e+01 4.063594411529483637e+02
3.800000000000000000e+01 4.042356482624589944e+02
3.840000000000000568e+01 4.021480324802828363e+02
3.879999999999999716e+01 4.000955446565317857e+02
3.920000000000000284e+01 3.980771785189159573e+02
3.960000000000000142e+01 3.960919684179901878e+02
4.000000000000000000e+01 3.941389872170040007e+02
4.040000000000000568e+01 3.922173443154406414e+02
4.079999999999999716e+01 3.903261837962688787e+02
4.120000000000000284e+01 3.884646826877941521e+02
4.160000000000000142e+01 3.866320493317605838e+02
4.200000000000000000e+01 3.848275218500567121e+02
4.239999999999999858e+01 3.830503667030086490e+02
4.280000000000000426e+01 3.812998773328189372e+02
4.320000000000000284e+01 3.795753728862275125e+02
4.360000000000000142e+01 3.778761970109488288e+02
4.400000000000000000e+01 3.762017167208625779e+02
4.439999999999999858e+01 3.745513213253362323e+02
4.480000000000000426e+01 3.729244214184062685e+02
4.520000000000000284e+01 3.713204479238805220e+02
4.560000000000000142e+01 3.697388511927128434e+02
4.600000000000000000e+01 3.681791001492828741e+02
4.639999999999999858e+01 3.666406814834571719e+02
4.680000000000000426e+01 3.651230988855406849e+02
4.720000000000000284e+01 3.636258723214344286e+02
4.760000000000000142e+01 3.621485373455125796e+02
4.800000000000000000e+01 3.606906444489022761e+02
4.840000000000000568e+01 3.592517584410207974e+02
4.880000000000000426e+01 3.578314578623686657e+02
4.920000000000000284e+01 3.564293344267156272e+02
4.960000000000000142e+01 3.550449924909489710e+02
5.000000000000000000e+01 3.536780485509651726e+02
5.040000000000000568e+01 3.523281307620982261e+02
5.080000000000000426e+01 3.509948784826763699e+02
5.120000000000000284e+01 3.496779418393932701e+02
5.160000000000000142e+01 3.483769813132648778e+02
5.200000000000000000e+01 3.470916673450219037e+02
5.240000000000000568e+01 3.458216799588632853e+02
5.280000000000000426e+01 3.445667084035638936e+02
5.320000000000000284e+01 3.433264508099914565e+02
5.360000000000000142e+01 3.421006138641501479e+02
5.400000000000000000e+01 3.408889124949195661e+02
5.440000000000000568e+01 3.396910695757111966e+02
5.480000000000000426e+01 3.385068156393110712e+02
5.520000000000000284e+01 3.373358886052203047e+02
5.560000000000000142e+01 3.361780335188502704e+02
5.600000000000000000e+01 3.350330023019613463e+02
5.640000000000000568e+01 3.339005535137769130e+02
5.680000000000000426e+01 3.327804521222320204e+02
5.720000000000000284e+01 3.316724692848505356e+02
5.760000000000000142e+01 3.305763821387726580e+02
5.800000000000000000e+01 3.294919735994825487e+02
5.840000000000000568e+01 3.284190321678106557e+02
5.880000000000000426e+01 3.273573517448099892e+02
5.920000000000000284e+01 3.263067314541259520e+02
5.960000000000000142e+01 3.252669754715049066e+02
6.000000000000000000e+01 3.242378928610995672e+02
6.040000000000000568e+01 3.232192974182555645e+02
6.080000000000000426e+01 3.222110075184721723e+02
6.120000000000000284e+01 3.212128459722551952e+02
6.160000000000000142e+01 3.202246398855883172e+02
6.200000000000000000e+01 3.192462205257672849e+02
6.240000000000000568e+01 3.182774231923539219e+02
6.280000000000000426e+01 3.173180870930194715e+02
6.320000000000000284e+01 3.163680552240577981e+02
6.360000000000000142e+01 3.154271742553629565e+02
6.400000000000000000e+01 3.144952944196729732e+02
6.440000000000000568e+01 3.135722694058935076e+02
6.480000000000001137e+01 3.126579562563243826e+02
6.520000000000000284e+01 3.117522152676204428e+02
6.559999999999999432e+01 3.108549098953261591e+02
6.600000000000000000e+01 3.099659066618327188e+02
6.640000000000000568e+01 3.090850750676117968e+02
6.680000000000001137e+01 3.082122875055895861e+02
6.720000000000000284e+01 3.073474191785285825e+02
6.759999999999999432e+01 3.064903480192937195e+02
6.800000000000000000e+01 3.056409546138835367e+02
6.840000000000000568e+01 3.047991221271129234e+02
6.880000000000001137e+01 3.039647362308401171e+02
6.920000000000000284e+01 3.031376850346351262e+02
6.959999999999999432e+01 3.023178590187911254e+02
7.000000000000000000e+01 3.015051509695862819e+02
7.040000000000000568e+01 3.006994559167054604e+02
7.080000000000001137e+01 2.999006710727381915e+02
7.120000000000000284e+01 2.991086957746707640e+02
7.159999999999999432e+01 2.983234314272946222e+02
7.200000000000000000e+01 2.975447814484581954e+02
7.240000000000000568e+01 2.967726512160899119e+02
7.280000000000001137e+01 2.960069480169255485e+02
7.320000000000000284e+01 2.952475809968751719e+02
7.359999999999999432e+01 2.944944611129673149e+02
7.400000000000000000e+01 2.937475010868118375e+02
7.440000000000000568e+01 2.930066153595245169e+02
7.479999999999999716e+01 2.922717200480592510e+02
7.520000000000000284e+01 2.915427329028951817e+02
7.560000000000000853e+01 2.908195732670310463e+02
7.600000000000000000e+01 2.901021620362375302e+02
7.640000000000000568e+01 2.893904216205213515e+02
7.679999999999999716e+01 2.886842759067601492e+02
7.720000000000000284e+01 2.879836502224636661e+02
7.760000000000000853e+01 2.872884713006222341e+02
7.800000000000000000e+01 2.865986672456038491e+02
7.840000000000000568e+01 2.859141675000630016e+02
7.879999999999999716e+01 2.852349028128257373e+02
7.920000000000000284e+01 2.845608052077170669e+02
7.960000000000000853e+01 2.838918079532978140e+02
8.000000000000000000e+01 2.832278455334796945e+02
8.040000000000000568e+01 2.825688536189888964e+02
8.079999999999999716e+01 2.819147690396487178e+02
8.120000000000000284e+01 2.812655297574535780e+02
8.160000000000000853e+01 2.806210748404080277e+02
8.200000000000000000e+01 2.799813444371054061e+02
8.240000000000000568e+01 2.793462797520194272e+02
8.279999999999999716e+01 2.787158230214885748e+02
8.320000000000000284e+01 2.780899174903670996e+02
8.360000000000000853e+01 2.774685073893227241e+02
8.400000000000000000e+01 2.768515379127589995e+02
8.440000000000000568e+01 2.762389551973419088e+02
8.479999999999999716e+01 2.756307063011129230e+02
8.520000000000000284e+01 2.750267391831664554e+02
8.560000000000000853e+01 2.744270026838768786e+02
8.600000000000000000e+01 2.738314465056554923e+02
8.640000000000000568e+01 2.732400211942215833e+02
8.680000000000001137e+01 2.726526781203710925e+02
8.720000000000000284e+01 2.720693694622271437e+02
8.760000000000000853e+01 2.714900481879577114e+02
8.800000000000000000e+01 2.709146680389460471e+02
8.840000000000000568e+01 2.703431835133986851e+02
8.880000000000001137e+01 2.697755498503794911e+02
8.920000000000000284e+01 2.692117230142548578e+02
8.960000000000000853e+01 2.686516596795387386e+02
9.000000000000000000e+01 2.680953172161251246e+02
9.040000000000000568e+01 2.675426536748955186e+02
9.080000000000001137e+01 2.669936277736912871e+02
9.120000000000000284e+01 2.664481988836394635e+02
9.160000000000000853e+01 2.659063270158208070e+02
9.200000000000000000e+01 2.653679728082714746e+02
9.240000000000000568e+01 2.648330975133072229e+02
9.280000000000001137e+01 2.643016629851608741e+02
9.320000000000000284e+01 2.637736316679245760e+02
9.360000000000000853e+01 2.632489665837871371e+02
9.400000000000000000e+01 2.627276313215585333e+02
9.440000000000000568e+01 2.622095900254728349e+02
9.480000000000001137e+01 2.616948073842619920e+02
9.520000000000000284e+01 2.611832486204923498e+02
9.560000000000000853e+01 2.606748794801569602e+02
9.600000000000000000e+01 2.601696662225155023e+02
9.640000000000000568e+01 2.596675756101762431e+02
9.680000000000001137e+01 2.591685748994115670e+02
9.720000000000000284e+01 2.586726318307023007e+02
9.760000000000000853e+01 2.581797146195028176e+02
9.800000000000000000e+01 2.576897919472223748e+02
9.840000000000000568e+01 2.572028329524152355e+02
9.880000000000001137e+01 2.567188072221749735e+02
9.920000000000000284e+01 2.562376847837268201e+02
9.960000000000000853e+01 2.557594360962128519e+02
1.000000000000000000e+02 2.552840320426647054e+02
1.004000000000000057e+02 2.548114439221591283e+02
1.008000000000000114e+02 2.543416434421503709e+02
1.012000000000000028e+02 2.538746027109763475e+02
1.016000000000000085e+02 2.534102942305323722e+02
1.020000000000000000e+02 2.529486908891092298e+02
1.024000000000000057e+02 2.524897659543899522e+02
1.028000000000000114e+02 2.520334930666029152e+02
1.032000000000000028e+02 2.515798462318252291e+02
1.036000000000000085e+02 2.511287998154336094e+02
1.040000000000000000e+02 2.506803285356992888e+02
1.044000000000000057e+02 2.502344074575215700e+02
1.048000000000000114e+02 2.497910119862986562e+02
1.052000000000000028e+02 2.493501178619299594e+02
1.056000000000000085e+02 2.489117011529486660e+02
1.060000000000000000e+02 2.484757382507796137e+02
1.064000000000000057e+02 2.480422058641201772e+02
1.068000000000000114e+02 2.476110810134405824e+02
1.072000000000000028e+02 2.471823410256012323e+02
1.076000000000000085e+02 2.467559635285834077e+02
1.080000000000000000e+02 2.463319264463308969e+02
1.084000000000000057e+02 2.459102079936999417e+02
1.088000000000000114e+02 2.454907866715143143e+02
1.092000000000000028e+02 2.450736412617237079e+02
1.096000000000000085e+02 2.446587508226618297e+02
1.100000000000000000e+02 2.442460946844029763e+02
1.104000000000000057e+02 2.438356524442134514e+02
1.108000000000000114e+02 2.434274039620966619e+02
1.112000000000000028e+02 2.430213293564288790e+02
1.116000000000000085e+02 2.426174089996837040e+02
1.120000000000000000e+02 2.422156235142431342e+02
1.124000000000000057e+02 2.418159537682930704e+02
1.128000000000000114e+02 2.414183808718015598e+02
1.132000000000000028e+02 2.410228861725771594e+02
1.136000000000000085e+02 2.406294512524062554e+02
1.140000000000000000e+02 2.402380579232671209e+02
1.144000000000000057e+02 2.398486882236185238e+02
1.148000000000000114e+02 2.394613244147625153e+02
1.152000000000000028e+02 2.390759489772773350e+02
1.156000000000000085e+02 2.386925446075215405e+02
1.160000000000000000e+02 2.383110942142053545e+02
1.164000000000000057e+02 2.379315809150292864e+02
1.168000000000000114e+02 2.375539880333874407e+02
1.172000000000000028e+02 2.371782990951349177e+02
1.176000000000000085e+02 2.368044978254168598e+02
1.180000000000000000e+02 2.364325681455587755e+02
1.184000000000000057e+02 2.360624941700157535e+02
1.188000000000000114e+02 2.356942602033804519e+02
1.192000000000000028e+02 2.353278507374467665e+02
1.196000000000000085e+02 2.349632504483300295e+02
1.200000000000000000e+02 2.346004441936408966e+02
1.204000000000000057e+02 2.342394170097120991e+02
1.208000000000000114e+02 2.338801541088777185e+02
1.212000000000000028e+02 2.335226408768025408e+02
1.216000000000000085e+02 2.331668628698610632e+02
1.220000000000000000e+02 2.328128058125652728e+02
1.224000000000000057e+02 2.324604555950396616e+02
1.228000000000000114e+02 2.321097982705430809e+02
1.232000000000000028e+02 2.317608200530351041e+02
1.236000000000000085e+02 2.314135073147875232e+02
1.240000000000000000e+02 2.310678465840392732e+02
1.244000000000000057e+02 2.307238245426934782e+02
1.248000000000000114e+02 2.303814280240564472e+02
1.252000000000000028e+02 2.300406440106173136e+02
1.256000000000000085e+02 2.297014596318673512e+02
1.260000000000000000e+02 2.293638621621586253e+02
1.264000000000000057e+02 2.290278390186004458e+02
1.268000000000000114e+02 2.286933777589935914e+02
1.272000000000000028e+02 2.283604660798007728e+02
1.276000000000000085e+02 2.280290918141533325e+02
1.280000000000000000e+02 2.276992429298923071e+02
1.284000000000000057e+02 2.273709075276448743e+02
1.288000000000000114e+02 2.270440738389334570e+02
1.291999999999999886e+02 2.267187302243183922e+02
1.296000000000000227e+02 2.263948651715724338e+02
1.300000000000000000e+02 2.260724672938875415e+02
1.304000000000000057e+02 2.257515253281115974e+02
1.308000000000000114e+02 2.254320281330163027e+02
1.311999999999999886e+02 2.251139646875945459e+02
1.316000000000000227e+02 2.247973240893866205e+02
1.320000000000000000e+02 2.244820955528354034e+02
1.324000000000000057e+02 2.241682684076689895e+02
1.328000000000000114e+02 2.238558320973110085e+02
1.331999999999999886e+02 2.235447761773179707e+02
1.336000000000000227e+02 2.232350903138420222e+02
1.340000000000000000e+02 2.229267642821209847e+02
1.344000000000000057e+02 2.226197879649919287e+02
1.348000000000000114e+02 2.223141513514310930e+02
1.351999999999999886e+02 2.220098445351165708e+02
1.356000000000000227e+02 2.217068577130163476e+02
1.360000000000000000e+02 2.214051811839983088e+02
1.364000000000000057e+02 2.211048053474641222e+02
1.368000000000000114e+02 2.208057207020048338e+02
1.371999999999999886e+02 2.205079178440788894e+02
1.376000000000000227e+02 2.202113874667115283e+02
1.380000000000000000e+02 2.199161203582158350e+02
1.384000000000000057e+02 2.196221074009332597e+02
1.388000000000000114e+02 2.193293395699962502e+02
1.392000000000000171e+02 2.190378079321092173e+02
1.395999999999999943e+02 2.187475036443503882e+02
1.400000000000000000e+02 2.184584179529917378e+02
1.404000000000000057e+02 2.181705421923387576e+02
1.408000000000000114e+02 2.178838677835879594e+02
1.412000000000000171e+02 2.175983862337029393e+02
1.415999999999999943e+02 2.173140891343082330e+02
1.420000000000000000e+02 2.170309681606002243e+02
1.424000000000000057e+02 2.167490150702758456e+02
1.428000000000000114e+02 2.164682217024775355e+02
1.432000000000000171e+02 2.161885799767549656e+02
1.435999999999999943e+02 2.159100818920429674e+02
1.440000000000000000e+02 2.156327195256553750e+02
1.444000000000000057e+02 2.153564850322941595e+02
1.448000000000000114e+02 2.150813706430745924e+02
1.452000000000000171e+02 2.148073686645647342e+02
1.455999999999999943e+02 2.145344714778399862e+02
1.460000000000000000e+02 2.142626715375521940e+02
1.464000000000000057e+02 2.139919613710129909e+02
1.468000000000000114e+02 2.137223335772910104e+02
1.472000000000000171e+02 2.134537808263228840e+02
1.475999999999999943e+02 2.131862958580377949e+02
1.480000000000000000e+02 2.129198714814950222e+02
1.484000000000000057e+02 2.126545005740348415e+02
1.488000000000000114e+02 2.123901760804421883e+02
1.492000000000000171e+02 2.121268910121222007e+02
1.495999999999999943e+02 2.118646384462890069e+02
1.500000000000000000e+02 2.116034115251661376e+02
