1.000000000000000000e+01 2.939157429800618502e+02
1.040000000000000036e+01 3.720231251709860203e+02
1.080000000000000071e+01 3.693106640048549707e+02
1.119999999999999929e+01 3.805396211095406329e+02
1.159999999999999964e+01 3.834422295592265755e+02
1.200000000000000000e+01 3.882422786314076575e+02
1.240000000000000036e+01 3.948872525330307894e+02
1.280000000000000071e+01 4.032741697154118015e+02
1.319999999999999929e+01 4.150070626972597552e+02
1.359999999999999964e+01 4.314626869611993811e+02
1.400000000000000000e+01 4.344076703281235723e+02
1.440000000000000036e+01 4.258961058845670777e+02
1.480000000000000071e+01 4.179309585161498148e+02
1.519999999999999929e+01 4.104528628871325964e+02
1.560000000000000142e+01 4.034114777085072774e+02
1.600000000000000000e+01 3.967637378073827108e+02
1.639999999999999858e+01 3.904725137924891669e+02
1.680000000000000071e+01 3.845055692109525012e+02
1.719999999999999929e+01 3.788347386055498305e+02
1.760000000000000142e+01 3.734352721362569127e+02
1.800000000000000000e+01 3.682853075347932190e+02
1.839999999999999858e+01 3.633654406159860173e+02
1.880000000000000071e+01 3.586583729354070442e+02
1.920000000000000284e+01 3.541486204554313417e+02
1.960000000000000142e+01 3.498222709116183751e+02
2.000000000000000000e+01 3.456667803901842717e+02
2.039999999999999858e+01 3.416708017275644806e+02
2.080000000000000071e+01 3.378240389254881393e+02
2.120000000000000284e+01 3.341171229796760258e+02
2.160000000000000142e+01 3.305415054462022795e+02
2.200000000000000000e+01 3.270893667876136988e+02
2.239999999999999858e+01 3.237535371023617472e+02
2.280000000000000071e+01 3.205274272835422380e+02
2.320000000000000284e+01 3.174049690041081817e+02
2.360000000000000142e+01 3.143805622063619580e+02
2.400000000000000000e+01 3.114490289992295402e+02
2.439999999999999858e+01 3.086055730494357476e+02
2.480000000000000071e+01 3.058457437012891091e+02
2.520000000000000284e+01 3.031654041813449680e+02
2.560000000000000142e+01 3.005607033441593785e+02
2.600000000000000000e+01 2.980280504979241414e+02
2.640000000000000213e+01 2.955640929173081304e+02
2.680000000000000071e+01 2.931656957079565586e+02
2.719999999999999929e+01 2.908299237349209534e+02
2.760000000000000142e+01 2.885540253674745372e+02
2.800000000000000000e+01 2.863354178266648660e+02
2.840000000000000213e+01 2.841716739506460954e+02
2.880000000000000071e+01 2.820605102172094121e+02
2.920000000000000284e+01 2.799997758837021138e+02
2.960000000000000142e+01 2.779874431222856401e+02
3.000000000000000000e+01 2.760215980437109238e+02
3.040000000000000213e+01 2.741004325158912707e+02
3.080000000000000071e+01 2.722222366948458330e+02
3.120000000000000284e+01 2.703853921953567578e+02
3.160000000000000142e+01 2.685883658371550951e+02
3.200000000000000000e+01 2.668297039098084724e+02
3.240000000000000568e+01 2.651080269059013972e+02
3.279999999999999716e+01 2.634220246776979479e+02
3.320000000000000284e+01 2.617704519773809011e+02
3.360000000000000142e+01 2.601521243452614272e+02
3.400000000000000000e+01 2.585659143141326695e+02
3.440000000000000568e+01 2.570107479012725094e+02
3.479999999999999716e+01 2.554856013625354478e+02
3.520000000000000284e+01 2.539894981855751723e+02
3.560000000000000142e+01 2.525215063015382952e+02
3.600000000000000000e+01 2.510807354966127320e+02
3.640000000000000568e+01 2.496663350066297653e+02
3.679999999999999716e+01 2.482774912795353828e+02
3.720000000000000284e+01 2.469134258919871172e+02
3.760000000000000142e+01 2.455733936076222506e+02
3.800000000000000000e+01 2.442566805656936140e+02
3.840000000000000568e+01 2.429626025898036232e+02
3.879999999999999716e+01 2.416905036073910082e+02
3.920000000000000284e+01 2.404397541714603221e+02
3.960000000000000142e+01 2.392097500767904705e+02
4.000000000000000000e+01 2.379999110635347961e+02
4.040000000000000568e+01 2.368096796017354677e+02
4.079999999999999716e+01 2.356385197508212741e+02
4.120000000000000284e+01 2.344859160886607015e+02
4.160000000000000142e+01 2.333513727051878277e+02
4.200000000000000000e+01 2.322344122560300548e+02
4.239999999999999858e+01 2.311345750719373484e+02
4.280000000000000426e+01 2.300514183201481728e+02
4.320000000000000284e+01 2.289845152141355697e+02
4.360000000000000142e+01 2.279334542684548524e+02
4.400000000000000000e+01 2.268978385956693273e+02
4.439999999999999858e+01 2.258772852425639712e+02
4.480000000000000426e+01 2.248714245630659434e+02
4.520000000000000284e+01 2.238798996254897702e+02
4.560000000000000142e+01 2.229023656518969858e+02
4.600000000000000000e+01 2.219384894875283294e+02
4.639999999999999858e+01 2.209879490984113772e+02
4.680000000000000426e+01 2.200504330953860403e+02
4.720000000000000284e+01 2.191256402829155263e+02
4.760000000000000142e+01 2.182132792311651883e+02
4.800000000000000000e+01 2.173130678699398288e+02
4.840000000000000568e+01 2.164247331031665169e+02
4.880000000000000426e+01 2.155480104427008428e+02
4.920000000000000284e+01 2.146826436603185755e+02
4.960000000000000142e+01 2.138283844568308325e+02
5.000000000000000000e+01 2.129849921473317806e+02
5.040000000000000568e+01 2.121522333616546234e+02
5.080000000000000426e+01 2.113298817591717977e+02
5.120000000000000284e+01 2.105177177571312370e+02
5.160000000000000142e+01 2.097155282717738487e+02
5.200000000000000000e+01 2.089231064715245907e+02
5.240000000000000568e+01 2.081402515415953189e+02
5.280000000000000426e+01 2.073667684593781928e+02
5.320000000000000284e+01 2.066024677800489542e+02
5.360000000000000142e+01 2.058471654318330195e+02
5.400000000000000000e+01 2.051006825204229642e+02
5.440000000000000568e+01 2.043628451420655097e+02
5.480000000000000426e+01 2.036334842048671021e+02
5.520000000000000284e+01 2.029124352578913602e+02
5.560000000000000142e+01 2.021995383276498330e+02
5.600000000000000000e+01 2.014946377616095958e+02
5.640000000000000568e+01 2.007975820783630070e+02
5.680000000000000426e+01 2.001082238241261280e+02
5.720000000000000284e+01 1.994264194352514039e+02
5.760000000000000142e+01 1.987520291064577407e+02
5.800000000000000000e+01 1.980849166644979675e+02
5.840000000000000568e+01 1.974249494470009267e+02
5.880000000000000426e+01 1.967719981862364307e+02
5.920000000000000284e+01 1.961259368975701136e+02
5.960000000000000142e+01 1.954866427723838740e+02
6.000000000000000000e+01 1.948539960752518425e+02
6.040000000000000568e+01 1.942278800451733503e+02
6.080000000000000426e+01 1.936081808006736651e+02
6.120000000000000284e+01 1.929947872485947755e+02
6.160000000000000142e+01 1.923875909964069706e+02
6.200000000000000000e+01 1.917864862678815143e+02
6.240000000000000568e+01 1.911913698219725291e+02
6.280000000000000426e+01 1.906021408747644159e+02
6.320000000000000284e+01 1.900187010243481609e+02
6.360000000000000142e+01 1.894409541784974067e+02
6.400000000000000000e+01 1.888688064850215085e+02
6.440000000000000568e+01 1.883021662646786183e+02
6.480000000000001137e+01 1.877409439465378966e+02
6.520000000000000284e+01 1.871850520056860034e+02
6.559999999999999432e+01 1.866344049031773409e+02
6.600000000000000000e+01 1.860889190281332901e+02
6.640000000000000568e+01 1.855485126418994923e+02
6.680000000000001137e+01 1.850131058241746302e+02
6.720000000000000284e+01 1.844826204210303331e+02
6.759999999999999432e+01 1.839569799947418005e+02
6.800000000000000000e+01 1.834361097753566696e+02
6.840000000000000568e+01 1.829199366139302469e+02
6.880000000000001137e+01 1.824083889373597742e+02
6.920000000000000284e+01 1.819013967047535516e+02
6.959999999999999432e+01 1.813988913652729877e+02
7.000000000000000000e+01 1.809008058173893403e+02
7.040000000000000568e+01 1.804070743694997816e+02
7.080000000000001137e+01 1.799176327018475092e+02
7.120000000000000284e+01 1.794324178296977266e+02
7.159999999999999432e+01 1.789513680677178229e+02
7.200000000000000000e+01 1.784744229955178980e+02
7.240000000000000568e+01 1.780015234243054181e+02
7.280000000000001137e+01 1.775326113646122792e+02
7.320000000000000284e+01 1.770676299950532098e+02
7.359999999999999432e+01 1.766065236320774261e+02
7.400000000000000000e+01 1.761492377006750303e+02
7.440000000000000568e+01 1.756957187060046977e+02
7.479999999999999716e+01 1.752459142059057911e+02
7.520000000000000284e+01 1.747997727842652012e+02
7.560000000000000853e+01 1.743572440252052331e+02
7.600000000000000000e+01 1.739182784880644590e+02
7.640000000000000568e+01 1.734828276831416645e+02
7.679999999999999716e+01 1.730508440481763728e+02
7.720000000000000284e+01 1.726222809255383766e+02
7.760000000000000853e+01 1.721970925401027728e+02
7.800000000000000000e+01 1.717752339777843815e+02
7.840000000000000568e+01 1.713566611647099762e+02
7.879999999999999716e+01 1.709413308470047639e+02
7.920000000000000284e+01 1.705292005711726802e+02
7.960000000000000853e+01 1.701202286650491828e+02
8.000000000000000000e+01 1.697143742193076150e+02
8.040000000000000568e+01 1.693115970694994132e+02
8.079999999999999716e+01 1.689118577786104538e+02
8.120000000000000284e+01 1.685151176201159728e+02
8.160000000000000853e+01 1.681213385615174332e+02
8.200000000000000000e+01 1.677304832483444557e+02
8.240000000000000568e+01 1.673425149886073200e+02
8.279999999999999716e+01 1.669573977376844880e+02
8.320000000000000284e+01 1.665750960836307399e+02
8.360000000000000853e+01 1.661955752328925655e+02
8.400000000000000000e+01 1.658188009964168259e+02
8.440000000000000568e+01 1.654447397761408070e+02
8.479999999999999716e+01 1.650733585518505038e+02
8.520000000000000284e+01 1.647046248683955412e+02
8.560000000000000853e+01 1.643385068232499862e+02
8.600000000000000000e+01 1.639749730544064903e+02
8.640000000000000568e+01 1.636139927285951217e+02
8.680000000000001137e+01 1.632555355298150630e+02
8.720000000000000284e+01 1.628995716481701947e+02
8.760000000000000853e+01 1.625460717689987860e+02
8.800000000000000000e+01 1.621950070622884539e+02
8.840000000000000568e+01 1.618463491723669279e+02
8.880000000000001137e+01 1.615000702078609152e+02
8.920000000000000284e+01 1.611561427319142865e+02
8.960000000000000853e+01 1.608145397526579359e+02
9.000000000000000000e+01 1.604752347139237543e+02
9.040000000000000568e+01 1.601382014861947596e+02
9.080000000000001137e+01 1.598034143577853854e+02
9.120000000000000284e+01 1.594708480262438286e+02
9.160000000000000853e+01 1.591404775899708852e+02
9.200000000000000000e+01 1.588122785400477994e+02
9.240000000000000568e+01 1.584862267522681805e+02
9.280000000000001137e+01 1.581622984793669389e+02
9.320000000000000284e+01 1.578404703434410976e+02
9.360000000000000853e+01 1.575207193285565381e+02
9.400000000000000000e+01 1.572030227735357926e+02
9.440000000000000568e+01 1.568873583649206296e+02
9.480000000000001137e+01 1.565737041301062504e+02
9.520000000000000284e+01 1.562620384306397625e+02
9.560000000000000853e+01 1.559523399556805714e+02
9.600000000000000000e+01 1.556445877156166659e+02
9.640000000000000568e+01 1.553387610358325333e+02
9.680000000000001137e+01 1.550348395506254633e+02
9.720000000000000284e+01 1.547328031972646158e+02
9.760000000000000853e+01 1.544326322101902917e+02
9.800000000000000000e+01 1.541343071153481219e+02
9.840000000000000568e+01 1.538378087246559289e+02
9.880000000000001137e+01 1.535431181305983728e+02
9.920000000000000284e+01 1.532502167009465666e+02
9.960000000000000853e+01 1.529590860735991384e+02
1.000000000000000000e+02 1.526697081515410730e+02
1.004000000000000057e+02 1.523820650979180868e+02
1.008000000000000114e+02 1.520961393312219343e+02
1.012000000000000028e+02 1.518119135205855343e+02
1.016000000000000085e+02 1.515293705811830023e+02
1.020000000000000000e+02 1.512484936697336479e+02
1.024000000000000057e+02 1.509692661801058193e+02
1.028000000000000114e+02 1.506916717390186591e+02
1.032000000000000028e+02 1.504156942018390453e+02
1.036000000000000085e+02 1.501413176484711300e+02
1.040000000000000000e+02 1.498685263793362026e+02
1.044000000000000057e+02 1.495973049114405455e+02
1.048000000000000114e+02 1.493276379745288125e+02
1.052000000000000028e+02 1.490595105073209368e+02
1.056000000000000085e+02 1.487929076538304116e+02
1.060000000000000000e+02 1.485278147597616680e+02
1.064000000000000057e+02 1.482642173689848448e+02
1.068000000000000114e+02 1.480021012200859047e+02
1.072000000000000028e+02 1.477414522429896806e+02
1.076000000000000085e+02 1.474822565556550558e+02
1.080000000000000000e+02 1.472245004608396073e+02
1.084000000000000057e+02 1.469681704429322053e+02
1.088000000000000114e+02 1.467132531648519489e+02
1.092000000000000028e+02 1.464597354650121304e+02
1.096000000000000085e+02 1.462076043543466426e+02
1.100000000000000000e+02 1.459568470133987148e+02
1.104000000000000057e+02 1.457074507894688509e+02
1.108000000000000114e+02 1.454594031938222258e+02
1.112000000000000028e+02 1.452126918989525279e+02
1.116000000000000085e+02 1.449673047359018767e+02
1.120000000000000000e+02 1.447232296916353391e+02
1.124000000000000057e+02 1.444804549064683101e+02
1.128000000000000114e+02 1.442389686715455923e+02
1.132000000000000028e+02 1.439987594263718051e+02
1.136000000000000085e+02 1.437598157563905090e+02
1.140000000000000000e+02 1.435221263906119589e+02
1.144000000000000057e+02 1.432856801992876967e+02
1.148000000000000114e+02 1.430504661916316991e+02
1.152000000000000028e+02 1.428164735135857484e+02
1.156000000000000085e+02 1.425836914456294267e+02
1.160000000000000000e+02 1.423521094006323153e+02
1.164000000000000057e+02 1.421217169217486855e+02
1.168000000000000114e+02 1.418925036803526325e+02
1.172000000000000028e+02 1.416644594740135972e+02
1.176000000000000085e+02 1.414375742245105698e+02
1.180000000000000000e+02 1.412118379758847766e+02
1.184000000000000057e+02 1.409872408925295986e+02
1.188000000000000114e+02 1.407637732573168137e+02
1.192000000000000028e+02 1.405414254697589342e+02
1.196000000000000085e+02 1.403201880442055085e+02
1.200000000000000000e+02 1.401000516080746081e+02
1.204000000000000057e+02 1.398810069001167449e+02
1.208000000000000114e+02 1.396630447687117567e+02
1.212000000000000028e+02 1.394461561701976109e+02
1.216000000000000085e+02 1.392303321672297329e+02
1.220000000000000000e+02 1.390155639271720247e+02
1.224000000000000057e+02 1.388018427205160776e+02
1.228000000000000114e+02 1.385891599193309105e+02
1.232000000000000028e+02 1.383775069957405321e+02
1.236000000000000085e+02 1.381668755204293291e+02
1.240000000000000000e+02 1.379572571611751641e+02
1.244000000000000057e+02 1.377486436814087938e+02
1.248000000000000114e+02 1.375410269387994617e+02
1.252000000000000028e+02 1.373343988838664131e+02
1.256000000000000085e+02 1.371287515586148515e+02
1.260000000000000000e+02 1.369240770951967363e+02
1.264000000000000057e+02 1.367203677145955965e+02
1.268000000000000114e+02 1.365176157253345650e+02
1.272000000000000028e+02 1.363158135222076339e+02
1.276000000000000085e+02 1.361149535850331063e+02
1.280000000000000000e+02 1.359150284774292174e+02
1.284000000000000057e+02 1.357160308456114137e+02
1.288000000000000114e+02 1.355179534172106344e+02
1.291999999999999886e+02 1.353207890001121427e+02
1.296000000000000227e+02 1.351245304813147072e+02
1.300000000000000000e+02 1.349291708258097628e+02
1.304000000000000057e+02 1.347347030754795867e+02
1.308000000000000114e+02 1.345411203480149993e+02
1.311999999999999886e+02 1.343484158358513696e+02
1.316000000000000227e+02 1.341565828051227243e+02
1.320000000000000000e+02 1.339656145946343599e+02
1.324000000000000057e+02 1.337755046148521387e+02
1.328000000000000114e+02 1.335862463469097463e+02
1.331999999999999886e+02 1.333978333416323494e+02
1.336000000000000227e+02 1.332102592185765673e+02
1.340000000000000000e+02 1.330235176650871836e+02
1.344000000000000057e+02 1.328376024353692060e+02
1.348000000000000114e+02 1.326525073495756430e+02
1.351999999999999886e+02 1.324682262929103445e+02
1.356000000000000227e+02 1.322847532147460470e+02
1.360000000000000000e+02 1.321020821277568871e+02
1.364000000000000057e+02 1.319202071070650391e+02
1.368000000000000114e+02 1.317391222894017915e+02
1.371999999999999886e+02 1.315588218722821523e+02
1.376000000000000227e+02 1.313793001131930964e+02
1.380000000000000000e+02 1.312005513287950009e+02
1.384000000000000057e+02 1.310225698941360974e+02
1.388000000000000114e+02 1.308453502418796859e+02
1.392000000000000171e+02 1.306688868615438537e+02
1.395999999999999943e+02 1.304931742987534165e+02
1.400000000000000000e+02 1.303182071545040230e+02
1.404000000000000057e+02 1.301439800844378567e+02
1.408000000000000114e+02 1.299704877981311029e+02
1.412000000000000171e+02 1.297977250583927002e+02
1.415999999999999943e+02 1.296256866805742618e+02
1.420000000000000000e+02 1.294543675318908527e+02
1.424000000000000057e+02 1.292837625307526821e+02
1.428000000000000114e+02 1.291138666461071409e+02
1.432000000000000171e+02 1.289446748967912129e+02
1.435999999999999943e+02 1.287761823508942314e+02
1.440000000000000000e+02 1.286083841251301862e+02
1.444000000000000057e+02 1.284412753842203188e+02
1.448000000000000114e+02 1.282748513402849539e+02
1.452000000000000171e+02 1.281091072522446268e+02
1.455999999999999943e+02 1.279440384252310565e+02
1.460000000000000000e+02 1.277796402100064483e+02
1.464000000000000057e+02 1.276159080023923025e+02
1.468000000000000114e+02 1.274528372427066927e+02
1.472000000000000171e+02 1.272904234152101139e+02
1.475999999999999943e+02 1.271286620475598568e+02
1.480000000000000000e+02 1.269675487102726805e+02
1.484000000000000057e+02 1.268070790161956722e+02
1.488000000000000114e+02 1.266472486199847793e+02
1.492000000000000171e+02 1.264880532175916983e+02
1.495999999999999943e+02 1.263294885457579824e+02
1.500000000000000000e+02 1.261715503815170791e+02
