1.000000000000000000e+01 6.892387526450496580e+02
1.040000000000000036e+01 8.028971767300213287e+02
1.080000000000000071e+01 8.068731944538307062e+02
1.119999999999999929e+01 8.225816520307678275e+02
1.159999999999999964e+01 8.448353363835170740e+02
1.200000000000000000e+01 8.465717784978498912e+02
1.240000000000000036e+01 8.442321237475226781e+02
1.280000000000000071e+01 8.425090999956928499e+02
1.319999999999999929e+01 8.497377143070518741e+02
1.359999999999999964e+01 8.553790180360172144e+02
1.400000000000000000e+01 8.513326555187486520e+02
1.440000000000000036e+01 8.362248370618873423e+02
1.480000000000000071e+01 8.220025118009659764e+02
1.519999999999999929e+01 8.085766699816783785e+02
1.560000000000000142e+01 7.958709429500893293e+02
1.600000000000000000e+01 7.838192963500725909e+02
1.639999999999999858e+01 7.723642341207334994e+02
1.680000000000000071e+01 7.614553812756906837e+02
1.719999999999999929e+01 7.510483521611383821e+02
1.760000000000000142e+01 7.411038369957360601e+02
1.800000000000000000e+01 7.315868574778410220e+02
1.839999999999999858e+01 7.224661548698558136e+02
1.880000000000000071e+01 7.137136829844494059e+02
1.920000000000000284e+01 7.053041850348338357e+02
1.960000000000000142e+01 6.972148381186339066e+02
2.000000000000000000e+01 6.894249526852629515e+02
2.039999999999999858e+01 6.819157170344437873e+02
2.080000000000000071e+01 6.746699789480400113e+02
2.120000000000000284e+01 6.676720581375096799e+02
2.160000000000000142e+01 6.609075844157127904e+02
2.200000000000000000e+01 6.543633574617740578e+02
2.239999999999999858e+01 6.480272248050222288e+02
2.280000000000000071e+01 6.418879752558921155e+02
2.320000000000000284e+01 6.359352454932835599e+02
2.360000000000000142e+01 6.301594379057419246e+02
2.400000000000000000e+01 6.245516480980912775e+02
2.439999999999999858e+01 6.191036007312457059e+02
2.480000000000000071e+01 6.138075925727276854e+02
2.520000000000000284e+01 6.086564418081900385e+02
2.560000000000000142e+01 6.036434428071765979e+02
2.600000000000000000e+01 5.987623256551789837e+02
2.640000000000000213e+01 5.940072198632307163e+02
2.680000000000000071e+01 5.893726217494238426e+02
2.719999999999999929e+01 5.848533650567014774e+02
2.760000000000000142e+01 5.804445944303901115e+02
2.800000000000000000e+01 5.761417414290277748e+02
2.840000000000000213e+01 5.719405027846796656e+02
2.880000000000000071e+01 5.678368206652904746e+02
2.920000000000000284e+01 5.638268647227780548e+02
2.960000000000000142e+01 5.599070157372990479e+02
3.000000000000000000e+01 5.560738506911511649e+02
3.040000000000000213e+01 5.523241291256629211e+02
3.080000000000000071e+01 5.486547806516352921e+02
3.120000000000000284e+01 5.450628934988491210e+02
3.160000000000000142e+01 5.415457040031619727e+02
3.200000000000000000e+01 5.381005869410597597e+02
3.240000000000000568e+01 5.347250466314557116e+02
3.279999999999999716e+01 5.314167087332198207e+02
3.320000000000000284e+01 5.281733126745543814e+02
3.360000000000000142e+01 5.249927046570555831e+02
3.400000000000000000e+01 5.218728311832190911e+02
3.440000000000000568e+01 5.188117330613852118e+02
3.479999999999999716e+01 5.158075398467505011e+02
3.520000000000000284e+01 5.128584646811787024e+02
3.560000000000000142e+01 5.099627994981995016e+02
3.600000000000000000e+01 5.071189105628221796e+02
3.640000000000000568e+01 5.043252343186920825e+02
3.679999999999999716e+01 5.015802735176999931e+02
3.720000000000000284e+01 4.988825936094639246e+02
3.760000000000000142e+01 4.962308193701753680e+02
3.800000000000000000e+01 4.936236317521522778e+02
3.840000000000000568e+01 4.910597649371156876e+02
3.879999999999999716e+01 4.885380035776979639e+02
3.920000000000000284e+01 4.860571802130467631e+02
3.960000000000000142e+01 4.836161728456058881e+02
4.000000000000000000e+01 4.812139026672489877e+02
4.040000000000000568e+01 4.788493319239454422e+02
4.079999999999999716e+01 4.765214619090271526e+02
4.120000000000000284e+01 4.742293310759500855e+02
4.160000000000000142e+01 4.719720132621798712e+02
4.200000000000000000e+01 4.697486160165046840e+02
4.239999999999999858e+01 4.675582790226881684e+02
4.280000000000000426e+01 4.654001726129386043e+02
4.320000000000000284e+01 4.632734963651682847e+02
4.360000000000000142e+01 4.611774777784906973e+02
4.400000000000000000e+01 4.591113710218164670e+02
4.439999999999999858e+01 4.570744557508047592e+02
4.480000000000000426e+01 4.550660359887725690e+02
4.520000000000000284e+01 4.530854390674957699e+02
4.560000000000000142e+01 4.511320146241270095e+02
4.600000000000000000e+01 4.492051336507317956e+02
4.639999999999999858e+01 4.473041875931952518e+02
4.680000000000000426e+01 4.454285874964789969e+02
4.720000000000000284e+01 4.435777631934220153e+02
4.760000000000000142e+01 4.417511625344749291e+02
4.800000000000000000e+01 4.399482506559346575e+02
4.840000000000000568e+01 4.381685092844151654e+02
4.880000000000000426e+01 4.364114360754401787e+02
4.920000000000000284e+01 4.346765439841877878e+02
4.960000000000000142e+01 4.329633606665464640e+02
5.000000000000000000e+01 4.312714279087624050e+02
5.040000000000000568e+01 4.296003010840720435e+02
5.080000000000000426e+01 4.279495486348149029e+02
5.120000000000000284e+01 4.263187515786210042e+02
5.160000000000000142e+01 4.247075030373528648e+02
5.200000000000000000e+01 4.231154077875696657e+02
5.240000000000000568e+01 4.215420818313523910e+02
5.280000000000000426e+01 4.199871519864065021e+02
5.320000000000000284e+01 4.184502554944202757e+02
5.360000000000000142e+01 4.169310396467209330e+02
5.400000000000000000e+01 4.154291614263311772e+02
5.440000000000000568e+01 4.139442871655750764e+02
5.480000000000000426e+01 4.124760922184427727e+02
5.520000000000000284e+01 4.110242606469595330e+02
5.560000000000000142e+01 4.095884849208576952e+02
5.600000000000000000e+01 4.081684656298850769e+02
5.640000000000000568e+01 4.067639112081221242e+02
5.680000000000000426e+01 4.053745376697203255e+02
5.720000000000000284e+01 4.040000683555011847e+02
5.760000000000000142e+01 4.026402336898915451e+02
5.800000000000000000e+01 4.012947709476979981e+02
5.840000000000000568e+01 3.999634240302505646e+02
5.880000000000000426e+01 3.986459432504731240e+02
5.920000000000000284e+01 3.973420851264597786e+02
5.960000000000000142e+01 3.960516121831611827e+02
6.000000000000000000e+01 3.947742927618052136e+02
6.040000000000000568e+01 3.935099008366966586e+02
6.080000000000000426e+01 3.922582158390586073e+02
6.120000000000000284e+01 3.910190224875963168e+02
6.160000000000000142e+01 3.897921106254827919e+02
6.200000000000000000e+01 3.885772750634766908e+02
6.240000000000000568e+01 3.873743154289031736e+02
6.280000000000000426e+01 3.861830360202375232e+02
6.320000000000000284e+01 3.850032456670468264e+02
6.360000000000000142e+01 3.838347575950579653e+02
6.400000000000000000e+01 3.826773892961301158e+02
6.440000000000000568e+01 3.815309624029204087e+02
6.480000000000001137e+01 3.803953025680460200e+02
6.520000000000000284e+01 3.792702393475481131e+02
6.559999999999999432e+01 3.781556060884822728e+02
6.600000000000000000e+01 3.770512398204581928e+02
6.640000000000000568e+01 3.759569811509689998e+02
6.680000000000001137e+01 3.748726741643509968e+02
6.720000000000000284e+01 3.737981663242275090e+02
6.759999999999999432e+01 3.727333083792942716e+02
6.800000000000000000e+01 3.716779542723114673e+02
6.840000000000000568e+01 3.706319610521732102e+02
6.880000000000001137e+01 3.695951887889332284e+02
6.920000000000000284e+01 3.685675004916678859e+02
6.959999999999999432e+01 3.675487620290655286e+02
7.000000000000000000e+01 3.665388420526360846e+02
7.040000000000000568e+01 3.655376119224373497e+02
7.080000000000001137e+01 3.645449456352225752e+02
7.120000000000000284e+01 3.635607197549145440e+02
7.159999999999999432e+01 3.625848133453185937e+02
7.200000000000000000e+01 3.616171079049884156e+02
7.240000000000000568e+01 3.606574873041651017e+02
7.280000000000001137e+01 3.597058377237091236e+02
7.320000000000000284e+01 3.587620475959534474e+02
7.359999999999999432e+01 3.578260075474046289e+02
7.400000000000000000e+01 3.568976103432248692e+02
7.440000000000000568e+01 3.559767508334296053e+02
7.479999999999999716e+01 3.550633259007373681e+02
7.520000000000000284e+01 3.541572344100131318e+02
7.560000000000000853e+01 3.532583771592464927e+02
7.600000000000000000e+01 3.523666568320113583e+02
7.640000000000000568e+01 3.514819779513521780e+02
7.679999999999999716e+01 3.506042468350486274e+02
7.720000000000000284e+01 3.497333715522079274e+02
7.760000000000000853e+01 3.488692618811395505e+02
7.800000000000000000e+01 3.480118292684678636e+02
7.840000000000000568e+01 3.471609867894385957e+02
7.879999999999999716e+01 3.463166491093790569e+02
7.920000000000000284e+01 3.454787324462721472e+02
7.960000000000000853e+01 3.446471545344061269e+02
8.000000000000000000e+01 3.438218345890639398e+02
8.040000000000000568e+01 3.430026932722166748e+02
8.079999999999999716e+01 3.421896526591875727e+02
8.120000000000000284e+01 3.413826362062542330e+02
8.160000000000000853e+01 3.405815687191580423e+02
8.200000000000000000e+01 3.397863763224911509e+02
8.240000000000000568e+01 3.389969864299298479e+02
8.279999999999999716e+01 3.382133277152909727e+02
8.320000000000000284e+01 3.374353300843804959e+02
8.360000000000000853e+01 3.366629246476103958e+02
8.400000000000000000e+01 3.358960436933598430e+02
8.440000000000000568e+01 3.351346206620546582e+02
8.479999999999999716e+01 3.343785901209448070e+02
8.520000000000000284e+01 3.336278877395552627e+02
8.560000000000000853e+01 3.328824502657911353e+02
8.600000000000000000e+01 3.321422155026745031e+02
8.640000000000000568e+01 3.314071222856955501e+02
8.680000000000001137e+01 3.306771104607560687e+02
8.720000000000000284e+01 3.299521208626900375e+02
8.760000000000000853e+01 3.292320952943408656e+02
8.800000000000000000e+01 3.285169765061797875e+02
8.840000000000000568e+01 3.278067081764488080e+02
8.880000000000001137e+01 3.271012348918115435e+02
8.920000000000000284e+01 3.264005021284969530e+02
8.960000000000000853e+01 3.257044562339213485e+02
9.000000000000000000e+01 3.250130444087748174e+02
9.040000000000000568e+01 3.243262146895563092e+02
9.080000000000001137e+01 3.236439159315467009e+02
9.120000000000000284e+01 3.229660977922055736e+02
9.160000000000000853e+01 3.222927107149775452e+02
9.200000000000000000e+01 3.216237059135007712e+02
9.240000000000000568e+01 3.209590353562005021e+02
9.280000000000001137e+01 3.202986517512609339e+02
9.320000000000000284e+01 3.196425085319615391e+02
9.360000000000000853e+01 3.189905598423688389e+02
9.400000000000000000e+01 3.183427605233734994e+02
9.440000000000000568e+01 3.176990660990620654e+02
9.480000000000001137e+01 3.170594327634143497e+02
9.520000000000000284e+01 3.164238173673176675e+02
9.560000000000000853e+01 3.157921774058881965e+02
9.600000000000000000e+01 3.151644710060915031e+02
9.640000000000000568e+01 3.145406569146539368e+02
9.680000000000001137e+01 3.139206944862561386e+02
9.720000000000000284e+01 3.133045436720016141e+02
9.760000000000000853e+01 3.126921650081526423e+02
9.800000000000000000e+01 3.120835196051260141e+02
9.840000000000000568e+01 3.114785691367413847e+02
9.880000000000001137e+01 3.108772758297159839e+02
9.920000000000000284e+01 3.102796024533988088e+02
9.960000000000000853e+01 3.096855123097368505e+02
1.000000000000000000e+02 3.090949692234691497e+02
1.004000000000000057e+02 3.085079375325405522e+02
1.008000000000000114e+02 3.079243820787309005e+02
1.012000000000000028e+02 3.073442681984927276e+02
1.016000000000000085e+02 3.067675617139930182e+02
1.020000000000000000e+02 3.061942289243530695e+02
1.024000000000000057e+02 3.056242365970809942e+02
1.028000000000000114e+02 3.050575519596930576e+02
1.032000000000000028e+02 3.044941426915174816e+02
1.036000000000000085e+02 3.039339769156770217e+02
1.040000000000000000e+02 3.033770231912453141e+02
1.044000000000000057e+02 3.028232505055725596e+02
1.048000000000000114e+02 3.022726282667766782e+02
1.052000000000000028e+02 3.017251262963943645e+02
1.056000000000000085e+02 3.011807148221902821e+02
1.060000000000000000e+02 3.006393644711183697e+02
1.064000000000000057e+02 3.001010462624318507e+02
1.068000000000000114e+02 2.995657316009395572e+02
1.072000000000000028e+02 2.990333922704029419e+02
1.076000000000000085e+02 2.985040004270717304e+02
1.080000000000000000e+02 2.979775285933545206e+02
1.084000000000000057e+02 2.974539496516204622e+02
1.088000000000000114e+02 2.969332368381291758e+02
1.092000000000000028e+02 2.964153637370859542e+02
1.096000000000000085e+02 2.959003042748188932e+02
1.100000000000000000e+02 2.953880327140753366e+02
1.104000000000000057e+02 2.948785236484339407e+02
1.108000000000000114e+02 2.943717519968307101e+02
1.112000000000000028e+02 2.938676929981957073e+02
1.116000000000000085e+02 2.933663222061975375e+02
1.120000000000000000e+02 2.928676154840933350e+02
1.124000000000000057e+02 2.923715489996820907e+02
1.128000000000000114e+02 2.918780992203578535e+02
1.132000000000000028e+02 2.913872429082620101e+02
1.136000000000000085e+02 2.908989571155308340e+02
1.140000000000000000e+02 2.904132191796365987e+02
1.144000000000000057e+02 2.899300067188206640e+02
1.148000000000000114e+02 2.894492976276154650e+02
1.152000000000000028e+02 2.889710700724540402e+02
1.156000000000000085e+02 2.884953024873645404e+02
1.160000000000000000e+02 2.880219735697484111e+02
1.164000000000000057e+02 2.875510622762399180e+02
1.168000000000000114e+02 2.870825478186449686e+02
1.172000000000000028e+02 2.866164096599576396e+02
1.176000000000000085e+02 2.861526275104536126e+02
1.180000000000000000e+02 2.856911813238563127e+02
1.184000000000000057e+02 2.852320512935772285e+02
1.188000000000000114e+02 2.847752178490262054e+02
1.192000000000000028e+02 2.843206616519914860e+02
1.196000000000000085e+02 2.838683635930878495e+02
1.200000000000000000e+02 2.834183047882706319e+02
1.204000000000000057e+02 2.829704665754147186e+02
1.208000000000000114e+02 2.825248305109578837e+02
1.212000000000000028e+02 2.820813783666047243e+02
1.216000000000000085e+02 2.816400921260924406e+02
1.220000000000000000e+02 2.812009539820159034e+02
1.224000000000000057e+02 2.807639463327099065e+02
1.228000000000000114e+02 2.803290517791900811e+02
1.232000000000000028e+02 2.798962531221471295e+02
1.236000000000000085e+02 2.794655333589977317e+02
1.240000000000000000e+02 2.790368756809872366e+02
1.244000000000000057e+02 2.786102634703449326e+02
1.248000000000000114e+02 2.781856802974904781e+02
1.252000000000000028e+02 2.777631099182904109e+02
1.256000000000000085e+02 2.773425362713629170e+02
1.260000000000000000e+02 2.769239434754313720e+02
1.264000000000000057e+02 2.765073158267235840e+02
1.268000000000000114e+02 2.760926377964183871e+02
1.272000000000000028e+02 2.756798940281357773e+02
1.276000000000000085e+02 2.752690693354717268e+02
1.280000000000000000e+02 2.748601486995762571e+02
1.284000000000000057e+02 2.744531172667731198e+02
1.288000000000000114e+02 2.740479603462212026e+02
1.291999999999999886e+02 2.736446634076163491e+02
1.296000000000000227e+02 2.732432120789326291e+02
1.300000000000000000e+02 2.728435921442030576e+02
1.304000000000000057e+02 2.724457895413373194e+02
1.308000000000000114e+02 2.720497903599778056e+02
1.311999999999999886e+02 2.716555808393917459e+02
1.316000000000000227e+02 2.712631473663986981e+02
1.320000000000000000e+02 2.708724764733341317e+02
1.324000000000000057e+02 2.704835548360466646e+02
1.328000000000000114e+02 2.700963692719287224e+02
1.331999999999999886e+02 2.697109067379811336e+02
1.336000000000000227e+02 2.693271543289092733e+02
1.340000000000000000e+02 2.689450992752517777e+02
1.344000000000000057e+02 2.685647289415389309e+02
1.348000000000000114e+02 2.681860308244832822e+02
1.351999999999999886e+02 2.678089925511989691e+02
1.356000000000000227e+02 2.674336018774505419e+02
1.360000000000000000e+02 2.670598466859312339e+02
1.364000000000000057e+02 2.666877149845682879e+02
1.368000000000000114e+02 2.663171949048569900e+02
1.371999999999999886e+02 2.659482747002208498e+02
1.376000000000000227e+02 2.655809427443994082e+02
1.380000000000000000e+02 2.652151875298611117e+02
1.384000000000000057e+02 2.648509976662424492e+02
1.388000000000000114e+02 2.644883618788120430e+02
1.392000000000000171e+02 2.641272690069588407e+02
1.395999999999999943e+02 2.637677080027054899e+02
1.400000000000000000e+02 2.634096679292441650e+02
1.404000000000000057e+02 2.630531379594970076e+02
1.408000000000000114e+02 2.626981073746978268e+02
1.412000000000000171e+02 2.623445655629976727e+02
1.415999999999999943e+02 2.619925020180912725e+02
1.420000000000000000e+02 2.616419063378658620e+02
1.424000000000000057e+02 2.612927682230703113e+02
1.428000000000000114e+02 2.609450774760060767e+02
1.432000000000000171e+02 2.605988239992370836e+02
1.435999999999999943e+02 2.602539977943216627e+02
1.440000000000000000e+02 2.599105889605617108e+02
1.444000000000000057e+02 2.595685876937731678e+02
1.448000000000000114e+02 2.592279842850744558e+02
1.452000000000000171e+02 2.588887691196936771e+02
1.455999999999999943e+02 2.585509326757938311e+02
1.460000000000000000e+02 2.582144655233165622e+02
1.464000000000000057e+02 2.578793583228427906e+02
1.468000000000000114e+02 2.575456018244713050e+02
1.472000000000000171e+02 2.572131868667137837e+02
1.475999999999999943e+02 2.568821043754066409e+02
1.480000000000000000e+02 2.565523453626393575e+02
1.484000000000000057e+02 2.562239009256989561e+02
1.488000000000000114e+02 2.558967622460300504e+02
1.492000000000000171e+02 2.555709205882104698e+02
1.495999999999999943e+02 2.552463672989420616e+02
1.500000000000000000e+02 2.549230938060568405e+02
