1.000000000000000000e+01 4.023451835947215613e+02
1.040000000000000036e+01 4.389984959788124002e+02
1.080000000000000071e+01 4.422217600073394692e+02
1.119999999999999929e+01 4.469349199201554939e+02
1.159999999999999964e+01 4.587705294560462903e+02
1.200000000000000000e+01 4.555598496847531464e+02
1.240000000000000036e+01 4.512907611143924669e+02
1.280000000000000071e+01 4.504788216411545818e+02
1.319999999999999929e+01 4.529886194800892554e+02
1.359999999999999964e+01 4.450009773379103422e+02
1.400000000000000000e+01 4.374948119165192679e+02
1.440000000000000036e+01 4.304203667796726904e+02
1.480000000000000071e+01 4.237351142612246804e+02
1.519999999999999929e+01 4.174024119405421516e+02
1.560000000000000142e+01 4.113904611974621730e+02
1.600000000000000000e+01 4.056714887069365432e+02
1.639999999999999858e+01 4.002210952433470084e+02
1.680000000000000071e+01 3.950177319173450314e+02
1.719999999999999929e+01 3.900422747608395184e+02
1.760000000000000142e+01 3.852776761174677631e+02
1.800000000000000000e+01 3.807086766594186429e+02
1.839999999999999858e+01 3.763215657266998733e+02
1.880000000000000071e+01 3.721039805251017469e+02
1.920000000000000284e+01 3.680447368278423710e+02
1.960000000000000142e+01 3.641336854101752465e+02
2.000000000000000000e+01 3.603615896495127799e+02
2.039999999999999858e+01 3.567200206466604868e+02
2.080000000000000071e+01 3.532012669383923935e+02
2.120000000000000284e+01 3.497982564296279406e+02
2.160000000000000142e+01 3.465044886126894426e+02
2.200000000000000000e+01 3.433139754893888380e+02
2.239999999999999858e+01 3.402211898897753599e+02
2.280000000000000071e+01 3.372210201048490603e+02
2.320000000000000284e+01 3.343087299312450682e+02
2.360000000000000142e+01 3.314799233728395507e+02
2.400000000000000000e+01 3.287305133643812383e+02
2.439999999999999858e+01 3.260566939809965561e+02
2.480000000000000071e+01 3.234549156789660174e+02
2.520000000000000284e+01 3.209218631808271311e+02
2.560000000000000142e+01 3.184544356742349009e+02
2.600000000000000000e+01 3.160497290411891527e+02
2.640000000000000213e+01 3.137050198738664335e+02
2.680000000000000071e+01 3.114177510667151410e+02
2.719999999999999929e+01 3.091855188027565191e+02
2.760000000000000142e+01 3.070060607760528910e+02
2.800000000000000000e+01 3.048772455127732428e+02
2.840000000000000213e+01 3.027970626707777910e+02
2.880000000000000071e+01 3.007636142126444838e+02
2.920000000000000284e+01 2.987751063599559984e+02
2.960000000000000142e+01 2.968298422477871554e+02
3.000000000000000000e+01 2.949262152079510315e+02
3.040000000000000213e+01 2.930627026178908636e+02
3.080000000000000071e+01 2.912378602593581718e+02
3.120000000000000284e+01 2.894503171373194732e+02
3.160000000000000142e+01 2.876987707150495908e+02
3.200000000000000000e+01 2.859819825261885740e+02
3.240000000000000568e+01 2.842987741287717540e+02
3.279999999999999716e+01 2.826480233699561495e+02
3.320000000000000284e+01 2.810286609334417562e+02
3.360000000000000142e+01 2.794396671444762319e+02
3.400000000000000000e+01 2.778800690098812538e+02
3.440000000000000568e+01 2.763489374728060852e+02
3.479999999999999716e+01 2.748453848639163652e+02
3.520000000000000284e+01 2.733685625325127830e+02
3.560000000000000142e+01 2.719176586426623317e+02
3.600000000000000000e+01 2.704918961208411474e+02
3.640000000000000568e+01 2.690905307428523088e+02
3.679999999999999716e+01 2.677128493489166203e+02
3.720000000000000284e+01 2.663581681768457656e+02
3.760000000000000142e+01 2.650258313041190377e+02
3.800000000000000000e+01 2.637152091905019802e+02
3.840000000000000568e+01 2.624256973135810540e+02
3.879999999999999716e+01 2.611567148902514646e+02
3.920000000000000284e+01 2.599077036777937906e+02
3.960000000000000142e+01 2.586781268487144416e+02
4.000000000000000000e+01 2.574674679340135981e+02
4.040000000000000568e+01 2.562752298299903941e+02
4.079999999999999716e+01 2.551009338640886313e+02
4.120000000000000284e+01 2.539441189156591463e+02
4.160000000000000142e+01 2.528043405878412386e+02
4.200000000000000000e+01 2.516811704270654673e+02
4.239999999999999858e+01 2.505741951869591446e+02
4.280000000000000426e+01 2.494830161336805645e+02
4.320000000000000284e+01 2.484072483899406336e+02
4.360000000000000142e+01 2.473465203151758942e+02
4.400000000000000000e+01 2.463004729195278060e+02
4.439999999999999858e+01 2.452687593094609610e+02
4.480000000000000426e+01 2.442510441630072933e+02
4.520000000000000284e+01 2.432470032327747731e+02
4.560000000000000142e+01 2.422563228749905022e+02
4.600000000000000000e+01 2.412786996029739157e+02
4.639999999999999858e+01 2.403138396635469860e+02
4.680000000000000426e+01 2.393614586349955289e+02
4.720000000000000284e+01 2.384212810452901863e+02
4.760000000000000142e+01 2.374930400093649610e+02
4.800000000000000000e+01 2.365764768843329762e+02
4.840000000000000568e+01 2.356713409415958154e+02
4.880000000000000426e+01 2.347773890548705822e+02
4.920000000000000284e+01 2.338943854032249305e+02
4.960000000000000142e+01 2.330221011882702555e+02
5.000000000000000000e+01 2.321603143647174647e+02
5.040000000000000568e+01 2.313088093835512495e+02
5.080000000000000426e+01 2.304673769471280025e+02
5.120000000000000284e+01 2.296358137755433404e+02
5.160000000000000142e+01 2.288139223836605254e+02
5.200000000000000000e+01 2.280015108682242726e+02
5.240000000000000568e+01 2.271983927045246219e+02
5.280000000000000426e+01 2.264043865521041994e+02
5.320000000000000284e+01 2.256193160690360742e+02
5.360000000000000142e+01 2.248430097343266425e+02
5.400000000000000000e+01 2.240753006780236376e+02
5.440000000000000568e+01 2.233160265186365905e+02
5.480000000000000426e+01 2.225650292074981849e+02
5.520000000000000284e+01 2.218221548797162370e+02
5.560000000000000142e+01 2.210872537113896783e+02
5.600000000000000000e+01 2.203601797827756457e+02
5.640000000000000568e+01 2.196407909471172957e+02
5.680000000000000426e+01 2.189289487048548892e+02
5.720000000000000284e+01 2.182245180829602873e+02
5.760000000000000142e+01 2.175273675191489247e+02
5.800000000000000000e+01 2.168373687507365162e+02
5.840000000000000568e+01 2.161543967079207107e+02
5.880000000000000426e+01 2.154783294112805834e+02
5.920000000000000284e+01 2.148090478732962652e+02
5.960000000000000142e+01 2.141464360037040535e+02
6.000000000000000000e+01 2.134903805185098804e+02
6.040000000000000568e+01 2.128407708524949840e+02
6.080000000000000426e+01 2.121974990750546226e+02
6.120000000000000284e+01 2.115604598092222091e+02
6.160000000000000142e+01 2.109295501537339419e+02
6.200000000000000000e+01 2.103046696080014328e+02
6.240000000000000568e+01 2.096857199998632950e+02
6.280000000000000426e+01 2.090726054159943885e+02
6.320000000000000284e+01 2.084652321348578994e+02
6.360000000000000142e+01 2.078635085620893506e+02
6.400000000000000000e+01 2.072673451682106815e+02
6.440000000000000568e+01 2.066766544285725331e+02
6.480000000000001137e+01 2.060913507654332193e+02
6.520000000000000284e+01 2.055113504920828973e+02
6.559999999999999432e+01 2.049365717589284941e+02
6.600000000000000000e+01 2.043669345014583314e+02
6.640000000000000568e+01 2.038023603900087437e+02
6.680000000000001137e+01 2.032427727812589069e+02
6.720000000000000284e+01 2.026880966713844714e+02
6.759999999999999432e+01 2.021382586508020154e+02
6.800000000000000000e+01 2.015931868604418469e+02
6.840000000000000568e+01 2.010528109494863997e+02
6.880000000000001137e+01 2.005170620345184886e+02
6.920000000000000284e+01 1.999858726600219825e+02
6.959999999999999432e+01 1.994591767601830270e+02
7.000000000000000000e+01 1.989369096219413109e+02
7.040000000000000568e+01 1.984190078492423197e+02
7.080000000000001137e+01 1.979054093284456712e+02
7.120000000000000284e+01 1.973960531948441144e+02
7.159999999999999432e+01 1.968908798002521507e+02
7.200000000000000000e+01 1.963898306816230956e+02
7.240000000000000568e+01 1.958928485306571474e+02
7.280000000000001137e+01 1.953998771643618966e+02
7.320000000000000284e+01 1.949108614965318793e+02
7.359999999999999432e+01 1.944257475101115631e+02
7.400000000000000000e+01 1.939444822304109266e+02
7.440000000000000568e+01 1.934670136991416882e+02
7.479999999999999716e+01 1.929932909492445674e+02
7.520000000000000284e+01 1.925232639804794417e+02
7.560000000000000853e+01 1.920568837357511143e+02
7.600000000000000000e+01 1.915941020781439761e+02
7.640000000000000568e+01 1.911348717686410623e+02
7.679999999999999716e+01 1.906791464445032034e+02
7.720000000000000284e+01 1.902268805982852200e+02
7.760000000000000853e+01 1.897780295574667662e+02
7.800000000000000000e+01 1.893325494646771290e+02
7.840000000000000568e+01 1.888903972584924134e+02
7.879999999999999716e+01 1.884515306547876037e+02
7.920000000000000284e+01 1.880159081286213905e+02
7.960000000000000853e+01 1.875834888966395511e+02
8.000000000000000000e+01 1.871542328999760230e+02
8.040000000000000568e+01 1.867281007876370040e+02
8.079999999999999716e+01 1.863050539003515951e+02
8.120000000000000284e+01 1.858850542548729265e+02
8.160000000000000853e+01 1.854680645287155016e+02
8.200000000000000000e+01 1.850540480453145165e+02
8.240000000000000568e+01 1.846429687595923781e+02
8.279999999999999716e+01 1.842347912439210518e+02
8.320000000000000284e+01 1.838294806744651169e+02
8.360000000000000853e+01 1.834270028178957546e+02
8.400000000000000000e+01 1.830273240184614849e+02
8.440000000000000568e+01 1.826304111854060466e+02
8.479999999999999716e+01 1.822362317807216527e+02
8.520000000000000284e+01 1.818447538072268799e+02
8.560000000000000853e+01 1.814559457969597815e+02
8.600000000000000000e+01 1.810697767998755126e+02
8.640000000000000568e+01 1.806862163728396524e+02
8.680000000000001137e+01 1.803052345689077356e+02
8.720000000000000284e+01 1.799268019268823764e+02
8.760000000000000853e+01 1.795508894611392918e+02
8.800000000000000000e+01 1.791774686517146620e+02
8.840000000000000568e+01 1.788065114346446762e+02
8.880000000000001137e+01 1.784379901925510694e+02
8.920000000000000284e+01 1.780718777454641781e+02
8.960000000000000853e+01 1.777081473418771793e+02
9.000000000000000000e+01 1.773467726500240076e+02
9.040000000000000568e+01 1.769877277493749261e+02
9.080000000000001137e+01 1.766309871223429582e+02
9.120000000000000284e+01 1.762765256461947558e+02
9.160000000000000853e+01 1.759243185851608473e+02
9.200000000000000000e+01 1.755743415827385832e+02
9.240000000000000568e+01 1.752265706541825239e+02
9.280000000000001137e+01 1.748809821791768400e+02
9.320000000000000284e+01 1.745375528946848078e+02
9.360000000000000853e+01 1.741962598879698021e+02
9.400000000000000000e+01 1.738570805897833793e+02
9.440000000000000568e+01 1.735199927677152800e+02
9.480000000000001137e+01 1.731849745197015693e+02
9.520000000000000284e+01 1.728520042676854587e+02
9.560000000000000853e+01 1.725210607514273988e+02
9.600000000000000000e+01 1.721921230224597821e+02
9.640000000000000568e+01 1.718651704381826164e+02
9.680000000000001137e+01 1.715401826560959080e+02
9.720000000000000284e+01 1.712171396281655120e+02
9.760000000000000853e+01 1.708960215953181319e+02
9.800000000000000000e+01 1.705768090820626526e+02
9.840000000000000568e+01 1.702594828912339437e+02
9.880000000000001137e+01 1.699440240988559481e+02
9.920000000000000284e+01 1.696304140491209012e+02
9.960000000000000853e+01 1.693186343494816128e+02
1.000000000000000000e+02 1.690086668658535416e+02
1.004000000000000057e+02 1.687004937179241608e+02
1.008000000000000114e+02 1.683940972745664340e+02
1.012000000000000028e+02 1.680894601493538687e+02
1.016000000000000085e+02 1.677865651961744788e+02
1.020000000000000000e+02 1.674853955049408682e+02
1.024000000000000057e+02 1.671859343973940781e+02
1.028000000000000114e+02 1.668881654229991796e+02
1.032000000000000028e+02 1.665920723549293427e+02
1.036000000000000085e+02 1.662976391861369052e+02
1.040000000000000000e+02 1.660048501255091082e+02
1.044000000000000057e+02 1.657136895941056309e+02
1.048000000000000114e+02 1.654241422214772115e+02
1.052000000000000028e+02 1.651361928420616607e+02
1.056000000000000085e+02 1.648498264916568132e+02
1.060000000000000000e+02 1.645650284039675455e+02
1.064000000000000057e+02 1.642817840072253830e+02
1.068000000000000114e+02 1.640000789208786216e+02
1.072000000000000028e+02 1.637198989523520822e+02
1.076000000000000085e+02 1.634412300938730027e+02
1.080000000000000000e+02 1.631640585193638628e+02
1.084000000000000057e+02 1.628883705813980214e+02
1.088000000000000114e+02 1.626141528082186483e+02
1.092000000000000028e+02 1.623413919008183370e+02
1.096000000000000085e+02 1.620700747300779199e+02
1.100000000000000000e+02 1.618001883339636038e+02
1.104000000000000057e+02 1.615317199147808651e+02
1.108000000000000114e+02 1.612646568364831978e+02
1.112000000000000028e+02 1.609989866220353747e+02
1.116000000000000085e+02 1.607346969508286065e+02
1.120000000000000000e+02 1.604717756561483952e+02
1.124000000000000057e+02 1.602102107226912153e+02
1.128000000000000114e+02 1.599499902841312178e+02
1.132000000000000028e+02 1.596911026207345685e+02
1.136000000000000085e+02 1.594335361570203418e+02
1.140000000000000000e+02 1.591772794594677691e+02
1.144000000000000057e+02 1.589223212342670308e+02
1.148000000000000114e+02 1.586686503251152089e+02
1.152000000000000028e+02 1.584162557110532248e+02
1.156000000000000085e+02 1.581651265043456647e+02
1.160000000000000000e+02 1.579152519484007371e+02
1.164000000000000057e+02 1.576666214157300772e+02
1.168000000000000114e+02 1.574192244059475740e+02
1.172000000000000028e+02 1.571730505438059424e+02
1.176000000000000085e+02 1.569280895772708107e+02
1.180000000000000000e+02 1.566843313756306202e+02
1.184000000000000057e+02 1.564417659276426207e+02
1.188000000000000114e+02 1.562003833397131984e+02
1.192000000000000028e+02 1.559601738341120267e+02
1.196000000000000085e+02 1.557211277472199527e+02
1.200000000000000000e+02 1.554832355278087732e+02
1.204000000000000057e+02 1.552464877353531847e+02
1.208000000000000114e+02 1.550108750383735128e+02
1.212000000000000028e+02 1.547763882128091097e+02
1.216000000000000085e+02 1.545430181404211112e+02
1.220000000000000000e+02 1.543107558072247230e+02
1.224000000000000057e+02 1.540795923019494467e+02
1.228000000000000114e+02 1.538495188145278405e+02
1.232000000000000028e+02 1.536205266346107692e+02
1.236000000000000085e+02 1.533926071501099386e+02
1.240000000000000000e+02 1.531657518457659535e+02
1.244000000000000057e+02 1.529399523017428919e+02
1.248000000000000114e+02 1.527152001922464706e+02
1.252000000000000028e+02 1.524914872841681301e+02
1.256000000000000085e+02 1.522688054357521139e+02
1.260000000000000000e+02 1.520471465952864492e+02
1.264000000000000057e+02 1.518265027998168932e+02
1.268000000000000114e+02 1.516068661738830201e+02
1.272000000000000028e+02 1.513882289282770728e+02
1.276000000000000085e+02 1.511705833588236203e+02
1.280000000000000000e+02 1.509539218451807301e+02
1.284000000000000057e+02 1.507382368496620586e+02
1.288000000000000114e+02 1.505235209160786383e+02
1.291999999999999886e+02 1.503097666686011848e+02
1.296000000000000227e+02 1.500969668106412769e+02
1.300000000000000000e+02 1.498851141237522029e+02
1.304000000000000057e+02 1.496742014665479132e+02
1.308000000000000114e+02 1.494642217736407019e+02
1.311999999999999886e+02 1.492551680545967940e+02
1.316000000000000227e+02 1.490470333929090998e+02
1.320000000000000000e+02 1.488398109449880167e+02
1.324000000000000057e+02 1.486334939391680336e+02
1.328000000000000114e+02 1.484280756747320424e+02
1.331999999999999886e+02 1.482235495209511100e+02
1.336000000000000227e+02 1.480199089161402526e+02
1.340000000000000000e+02 1.478171473667301825e+02
1.344000000000000057e+02 1.476152584463541189e+02
1.348000000000000114e+02 1.474142357949494908e+02
1.351999999999999886e+02 1.472140731178744204e+02
1.356000000000000227e+02 1.470147641850387572e+02
1.360000000000000000e+02 1.468163028300492670e+02
1.364000000000000057e+02 1.466186829493682922e+02
1.368000000000000114e+02 1.464218985014866234e+02
1.371999999999999886e+02 1.462259435061092177e+02
1.376000000000000227e+02 1.460308120433543309e+02
1.380000000000000000e+02 1.458364982529652423e+02
1.384000000000000057e+02 1.456429963335346542e+02
1.388000000000000114e+02 1.454503005417417967e+02
1.392000000000000171e+02 1.452584051916009003e+02
1.395999999999999943e+02 1.450673046537224309e+02
1.400000000000000000e+02 1.448769933545852666e+02
1.404000000000000057e+02 1.446874657758208116e+02
1.408000000000000114e+02 1.444987164535082798e+02
1.412000000000000171e+02 1.443107399774807504e+02
1.415999999999999943e+02 1.441235309906423367e+02
1.420000000000000000e+02 1.439370841882957848e+02
1.424000000000000057e+02 1.437513943174807878e+02
1.428000000000000114e+02 1.435664561763221059e+02
1.432000000000000171e+02 1.433822646133882586e+02
1.435999999999999943e+02 1.431988145270596249e+02
1.440000000000000000e+02 1.430161008649064911e+02
1.444000000000000057e+02 1.428341186230766198e+02
1.448000000000000114e+02 1.426528628456921410e+02
1.452000000000000171e+02 1.424723286242552263e+02
1.455999999999999943e+02 1.422925110970637377e+02
1.460000000000000000e+02 1.421134054486345235e+02
1.464000000000000057e+02 1.419350069091363764e+02
1.468000000000000114e+02 1.417573107538309500e+02
1.472000000000000171e+02 1.415803123025223158e+02
1.475999999999999943e+02 1.414040069190147619e+02
1.480000000000000000e+02 1.412283900105784369e+02
1.484000000000000057e+02 1.410534570274233204e+02
1.488000000000000114e+02 1.408792034621806408e+02
1.492000000000000171e+02 1.407056248493921373e+02
1.495999999999999943e+02 1.405327167650068816e+02
1.500000000000000000e+02 1.403604748258854329e+02
