1.000000000000000000e+01 4.486834430021303888e+02
1.040000000000000036e+01 5.099520285390914296e+02
1.080000000000000071e+01 5.523530866981315057e+02
1.119999999999999929e+01 5.846550151838417833e+02
1.159999999999999964e+01 6.377562000515629279e+02
1.200000000000000000e+01 6.703526146355420678e+02
1.240000000000000036e+01 6.674333647086918972e+02
1.280000000000000071e+01 6.529148521204496092e+02
1.319999999999999929e+01 6.394159817260523369e+02
1.359999999999999964e+01 6.268180089939621666e+02
1.400000000000000000e+01 6.150211496131624926e+02
1.440000000000000036e+01 6.039407898701713293e+02
1.480000000000000071e+01 5.935045957722938965e+02
1.519999999999999929e+01 5.836502767374607856e+02
1.560000000000000142e+01 5.743238338146228443e+02
1.600000000000000000e+01 5.654781718362280571e+02
1.639999999999999858e+01 5.570719885450848778e+02
1.680000000000000071e+01 5.490688770521363722e+02
1.719999999999999929e+01 5.414365944090775429e+02
1.760000000000000142e+01 5.341464608304208923e+02
1.800000000000000000e+01 5.271728626215833629e+02
1.839999999999999858e+01 5.204928381286021022e+02
1.880000000000000071e+01 5.140857306759762650e+02
1.920000000000000284e+01 5.079328959524634115e+02
1.960000000000000142e+01 5.020174539548854682e+02
2.000000000000000000e+01 4.963240776293680483e+02
2.039999999999999858e+01 4.908388119169085257e+02
2.080000000000000071e+01 4.855489181307327158e+02
2.120000000000000284e+01 4.804427395505623508e+02
2.160000000000000142e+01 4.755095848756976693e+02
2.200000000000000000e+01 4.707396267808679227e+02
2.239999999999999858e+01 4.661238133008043860e+02
2.280000000000000071e+01 4.616537901576945160e+02
2.320000000000000284e+01 4.573218324601042468e+02
2.360000000000000142e+01 4.531207844580020492e+02
2.400000000000000000e+01 4.490440062480815300e+02
2.439999999999999858e+01 4.450853264959340549e+02
2.480000000000000071e+01 4.412390003840233703e+02
2.520000000000000284e+01 4.374996721125882004e+02
2.560000000000000142e+01 4.338623413790743371e+02
2.600000000000000000e+01 4.303223333440922715e+02
2.640000000000000213e+01 4.268752716610927678e+02
2.680000000000000071e+01 4.235170542052836140e+02
2.719999999999999929e+01 4.202438311866526988e+02
2.760000000000000142e+01 4.170519853738394431e+02
2.800000000000000000e+01 4.139381141912564885e+02
2.840000000000000213e+01 4.108990134823179687e+02
2.880000000000000071e+01 4.079316627577248937e+02
2.920000000000000284e+01 4.050332117701701122e+02
2.960000000000000142e+01 4.022009682761404292e+02
3.000000000000000000e+01 3.994323868621700058e+02
3.040000000000000213e+01 3.967250587273478573e+02
3.080000000000000071e+01 3.940767023264226054e+02
3.120000000000000284e+01 3.914851547887592460e+02
3.160000000000000142e+01 3.889483640379239091e+02
3.200000000000000000e+01 3.864643815449946942e+02
3.240000000000000568e+01 3.840313556559839299e+02
3.279999999999999716e+01 3.816475254401602228e+02
3.320000000000000284e+01 3.793112150116875796e+02
3.360000000000000142e+01 3.770208282819634178e+02
3.400000000000000000e+01 3.747748441044125229e+02
3.440000000000000568e+01 3.725718117773846529e+02
3.479999999999999716e+01 3.704103468742239329e+02
3.520000000000000284e+01 3.682891273726402801e+02
3.560000000000000142e+01 3.662068900582223705e+02
3.600000000000000000e+01 3.641624271793492653e+02
3.640000000000000568e+01 3.621545833329114998e+02
3.679999999999999716e+01 3.601822525621855107e+02
3.720000000000000284e+01 3.582443756499230858e+02
3.760000000000000142e+01 3.563399375912684945e+02
3.800000000000000000e+01 3.544679652324990684e+02
3.840000000000000568e+01 3.526275250628357867e+02
3.879999999999999716e+01 3.508177211476894399e+02
3.920000000000000284e+01 3.490376931927208375e+02
3.960000000000000142e+01 3.472866147290058620e+02
4.000000000000000000e+01 3.455636914104211428e+02
4.040000000000000568e+01 3.438681594151106538e+02
4.079999999999999716e+01 3.421992839435704354e+02
4.120000000000000284e+01 3.405563578065001593e+02
4.160000000000000142e+01 3.389387000961278318e+02
4.200000000000000000e+01 3.373456549352167144e+02
4.239999999999999858e+01 3.357765902984250488e+02
4.280000000000000426e+01 3.342308969011091904e+02
4.320000000000000284e+01 3.327079871510376279e+02
4.360000000000000142e+01 3.312072941588378967e+02
4.400000000000000000e+01 3.297282708033116023e+02
4.439999999999999858e+01 3.282703888480468777e+02
4.480000000000000426e+01 3.268331381060223180e+02
4.520000000000000284e+01 3.254160256491409200e+02
4.560000000000000142e+01 3.240185750598566301e+02
4.600000000000000000e+01 3.226403257222606840e+02
4.639999999999999858e+01 3.212808321501843238e+02
4.680000000000000426e+01 3.199396633500483063e+02
4.720000000000000284e+01 3.186164022163464438e+02
4.760000000000000142e+01 3.173106449578016850e+02
4.800000000000000000e+01 3.160220005523655686e+02
4.840000000000000568e+01 3.147500902293564877e+02
4.880000000000000426e+01 3.134945469771509465e+02
4.920000000000000284e+01 3.122550150749445947e+02
4.960000000000000142e+01 3.110311496472002659e+02
5.000000000000000000e+01 3.098226162394917651e+02
5.040000000000000568e+01 3.086290904145355967e+02
5.080000000000000426e+01 3.074502573672802441e+02
5.120000000000000284e+01 3.062858115579975333e+02
5.160000000000000142e+01 3.051354563623857530e+02
5.200000000000000000e+01 3.039989037377571890e+02
5.240000000000000568e+01 3.028758739044398567e+02
5.280000000000000426e+01 3.017660950415805701e+02
5.320000000000000284e+01 3.006693029965813366e+02
5.360000000000000142e+01 2.995852410074513159e+02
5.400000000000000000e+01 2.985136594374001220e+02
5.440000000000000568e+01 2.974543155210373016e+02
5.480000000000000426e+01 2.964069731215796537e+02
5.520000000000000284e+01 2.953714024985068818e+02
5.560000000000000142e+01 2.943473800851357396e+02
5.600000000000000000e+01 2.933346882756145533e+02
5.640000000000000568e+01 2.923331152208685353e+02
5.680000000000000426e+01 2.913424546330542739e+02
5.720000000000000284e+01 2.903625055981053720e+02
5.760000000000000142e+01 2.893930723959746842e+02
5.800000000000000000e+01 2.884339643282028760e+02
5.840000000000000568e+01 2.874849955524603615e+02
5.880000000000000426e+01 2.865459849237320782e+02
5.920000000000000284e+01 2.856167558418300132e+02
5.960000000000000142e+01 2.846971361049380107e+02
6.000000000000000000e+01 2.837869577689068024e+02
6.040000000000000568e+01 2.828860570120348825e+02
6.080000000000000426e+01 2.819942740050819339e+02
6.120000000000000284e+01 2.811114527862776526e+02
6.160000000000000142e+01 2.802374411411000210e+02
6.200000000000000000e+01 2.793720904866075898e+02
6.240000000000000568e+01 2.785152557601240915e+02
6.280000000000000426e+01 2.776667953120817742e+02
6.320000000000000284e+01 2.768265708028406493e+02
6.360000000000000142e+01 2.759944471033102786e+02
6.400000000000000000e+01 2.751702921992088591e+02
6.440000000000000568e+01 2.743539770988027726e+02
6.480000000000001137e+01 2.735453757439776723e+02
6.520000000000000284e+01 2.727443649244999619e+02
6.559999999999999432e+01 2.719508241953325864e+02
6.600000000000000000e+01 2.711646357968785424e+02
6.640000000000000568e+01 2.703856845780293270e+02
6.680000000000001137e+01 2.696138579219017402e+02
6.720000000000000284e+01 2.688490456741527623e+02
6.759999999999999432e+01 2.680911400737677468e+02
6.800000000000000000e+01 2.673400356862204035e+02
6.840000000000000568e+01 2.665956293389091343e+02
6.880000000000001137e+01 2.658578200587786569e+02
6.920000000000000284e+01 2.651265090120402306e+02
6.959999999999999432e+01 2.644015994459055037e+02
7.000000000000000000e+01 2.636829966322572432e+02
7.040000000000000568e+01 2.629706078131788445e+02
7.080000000000001137e+01 2.622643421482719077e+02
7.120000000000000284e+01 2.615641106636921904e+02
7.159999999999999432e+01 2.608698262028374870e+02
7.200000000000000000e+01 2.601814033786246796e+02
7.240000000000000568e+01 2.594987585272963884e+02
7.280000000000001137e+01 2.588218096636978771e+02
7.320000000000000284e+01 2.581504764379704966e+02
7.359999999999999432e+01 2.574846800936078353e+02
7.400000000000000000e+01 2.568243434268246119e+02
7.440000000000000568e+01 2.561693907471897660e+02
7.479999999999999716e+01 2.555197478394773327e+02
7.520000000000000284e+01 2.548753419266904530e+02
7.560000000000000853e+01 2.542361016342167090e+02
7.600000000000000000e+01 2.536019569550731489e+02
7.640000000000000568e+01 2.529728392162022033e+02
7.679999999999999716e+01 2.523486810457822571e+02
7.720000000000000284e+01 2.517294163415140247e+02
7.760000000000000853e+01 2.511149802398520592e+02
7.800000000000000000e+01 2.505053090861447629e+02
7.840000000000000568e+01 2.499003404056537363e+02
7.879999999999999716e+01 2.493000128754208049e+02
7.920000000000000284e+01 2.487042662969534490e+02
7.960000000000000853e+01 2.481130415697011529e+02
8.000000000000000000e+01 2.475262806652955874e+02
8.040000000000000568e+01 2.469439266025272843e+02
8.079999999999999716e+01 2.463659234230371453e+02
8.120000000000000284e+01 2.457922161676942778e+02
8.160000000000000853e+01 2.452227508536422533e+02
8.200000000000000000e+01 2.446574744519872127e+02
8.240000000000000568e+01 2.440963348661088901e+02
8.279999999999999716e+01 2.435392809105740071e+02
8.320000000000000284e+01 2.429862622906313447e+02
8.360000000000000853e+01 2.424372295822708736e+02
8.400000000000000000e+01 2.418921342128268464e+02
8.440000000000000568e+01 2.413509284421091365e+02
8.479999999999999716e+01 2.408135653440452302e+02
8.520000000000000284e+01 2.402799987888159308e+02
8.560000000000000853e+01 2.397501834254699702e+02
8.600000000000000000e+01 2.392240746650022061e+02
8.640000000000000568e+01 2.387016286638802853e+02
8.680000000000001137e+01 2.381828023080065577e+02
8.720000000000000284e+01 2.376675531971013413e+02
8.760000000000000853e+01 2.371558396294938120e+02
8.800000000000000000e+01 2.366476205873092340e+02
8.840000000000000568e+01 2.361428557220395987e+02
8.880000000000001137e+01 2.356415053404856792e+02
8.920000000000000284e+01 2.351435303910602954e+02
8.960000000000000853e+01 2.346488924504400018e+02
9.000000000000000000e+01 2.341575537105575791e+02
9.040000000000000568e+01 2.336694769659217741e+02
9.080000000000001137e+01 2.331846256012572383e+02
9.120000000000000284e+01 2.327029635794535238e+02
9.160000000000000853e+01 2.322244554298148955e+02
9.200000000000000000e+01 2.317490662366017489e+02
9.240000000000000568e+01 2.312767616278547109e+02
9.280000000000001137e+01 2.308075077644944315e+02
9.320000000000000284e+01 2.303412713296875722e+02
9.360000000000000853e+01 2.298780195184718309e+02
9.400000000000000000e+01 2.294177200276336634e+02
9.440000000000000568e+01 2.289603410458294945e+02
9.480000000000001137e+01 2.285058512439448180e+02
9.520000000000000284e+01 2.280542197656843655e+02
9.560000000000000853e+01 2.276054162183863241e+02
9.600000000000000000e+01 2.271594106640544055e+02
9.640000000000000568e+01 2.267161736106022829e+02
9.680000000000001137e+01 2.262756760033031753e+02
9.720000000000000284e+01 2.258378892164405158e+02
9.760000000000000853e+01 2.254027850451532515e+02
9.800000000000000000e+01 2.249703356974697215e+02
9.840000000000000568e+01 2.245405137865265601e+02
9.880000000000001137e+01 2.241132923229663447e+02
9.920000000000000284e+01 2.236886447075098090e+02
9.960000000000000853e+01 2.232665447236971659e+02
1.000000000000000000e+02 2.228469665307947025e+02
1.004000000000000057e+02 2.224298846568623560e+02
1.008000000000000114e+02 2.220152739919766134e+02
1.012000000000000028e+02 2.216031097816066335e+02
1.016000000000000085e+02 2.211933676201372521e+02
1.020000000000000000e+02 2.207860234445375909e+02
1.024000000000000057e+02 2.203810535281685929e+02
1.028000000000000114e+02 2.199784344747286013e+02
1.032000000000000028e+02 2.195781432123313550e+02
1.036000000000000085e+02 2.191801569877133318e+02
1.040000000000000000e+02 2.187844533605690458e+02
1.044000000000000057e+02 2.183910101980069669e+02
1.048000000000000114e+02 2.179998056691281647e+02
1.052000000000000028e+02 2.176108182397193787e+02
1.056000000000000085e+02 2.172240266670615938e+02
1.060000000000000000e+02 2.168394099948490066e+02
1.064000000000000057e+02 2.164569475482163057e+02
1.068000000000000114e+02 2.160766189288713690e+02
1.072000000000000028e+02 2.156984040103309326e+02
1.076000000000000085e+02 2.153222829332567017e+02
1.080000000000000000e+02 2.149482361008888063e+02
1.084000000000000057e+02 2.145762441745749527e+02
1.088000000000000114e+02 2.142062880693928264e+02
1.092000000000000028e+02 2.138383489498625920e+02
1.096000000000000085e+02 2.134724082257485236e+02
1.100000000000000000e+02 2.131084475479467528e+02
1.104000000000000057e+02 2.127464488044570317e+02
1.108000000000000114e+02 2.123863941164374580e+02
1.112000000000000028e+02 2.120282658343384981e+02
1.116000000000000085e+02 2.116720465341160491e+02
1.120000000000000000e+02 2.113177190135208150e+02
1.124000000000000057e+02 2.109652662884619190e+02
1.128000000000000114e+02 2.106146715894436454e+02
1.132000000000000028e+02 2.102659183580737761e+02
1.136000000000000085e+02 2.099189902436403656e+02
1.140000000000000000e+02 2.095738710997570706e+02
1.144000000000000057e+02 2.092305449810746723e+02
1.148000000000000114e+02 2.088889961400571451e+02
1.152000000000000028e+02 2.085492090238206799e+02
1.156000000000000085e+02 2.082111682710348646e+02
1.160000000000000000e+02 2.078748587088840623e+02
1.164000000000000057e+02 2.075402653500874237e+02
1.168000000000000114e+02 2.072073733899768513e+02
1.172000000000000028e+02 2.068761682036308684e+02
1.176000000000000085e+02 2.065466353430639401e+02
1.180000000000000000e+02 2.062187605344688279e+02
1.184000000000000057e+02 2.058925296755120939e+02
1.188000000000000114e+02 2.055679288326809342e+02
1.192000000000000028e+02 2.052449442386793805e+02
1.196000000000000085e+02 2.049235622898747806e+02
1.200000000000000000e+02 2.046037695437913158e+02
1.204000000000000057e+02 2.042855527166508125e+02
1.208000000000000114e+02 2.039688986809594269e+02
1.212000000000000028e+02 2.036537944631390644e+02
1.216000000000000085e+02 2.033402272412028537e+02
1.220000000000000000e+02 2.030281843424732813e+02
1.224000000000000057e+02 2.027176532413425605e+02
1.228000000000000114e+02 2.024086215570741842e+02
1.232000000000000028e+02 2.021010770516438697e+02
1.236000000000000085e+02 2.017950076276211178e+02
1.240000000000000000e+02 2.014904013260879765e+02
1.244000000000000057e+02 2.011872463245962876e+02
1.248000000000000114e+02 2.008855309351613414e+02
1.252000000000000028e+02 2.005852436022917686e+02
1.256000000000000085e+02 2.002863729010547900e+02
1.260000000000000000e+02 1.999889075351756844e+02
1.264000000000000057e+02 1.996928363351714211e+02
1.268000000000000114e+02 1.993981482565173167e+02
1.272000000000000028e+02 1.991048323778458951e+02
1.276000000000000085e+02 1.988128778991777779e+02
1.280000000000000000e+02 1.985222741401834128e+02
1.284000000000000057e+02 1.982330105384753267e+02
1.288000000000000114e+02 1.979450766479303354e+02
1.291999999999999886e+02 1.976584621370406296e+02
1.296000000000000227e+02 1.973731567872934818e+02
1.300000000000000000e+02 1.970891504915795451e+02
1.304000000000000057e+02 1.968064332526275280e+02
1.308000000000000114e+02 1.965249951814666076e+02
1.311999999999999886e+02 1.962448264959151913e+02
1.316000000000000227e+02 1.959659175190943472e+02
1.320000000000000000e+02 1.956882586779682640e+02
1.324000000000000057e+02 1.954118405019079319e+02
1.328000000000000114e+02 1.951366536212799190e+02
1.331999999999999886e+02 1.948626887660586249e+02
1.336000000000000227e+02 1.945899367644619531e+02
1.340000000000000000e+02 1.943183885416101191e+02
1.344000000000000057e+02 1.940480351182060588e+02
1.348000000000000114e+02 1.937788676092386311e+02
1.351999999999999886e+02 1.935108772227069949e+02
1.356000000000000227e+02 1.932440552583658757e+02
1.360000000000000000e+02 1.929783931064919784e+02
1.364000000000000057e+02 1.927138822466703516e+02
1.368000000000000114e+02 1.924505142466008749e+02
1.371999999999999886e+02 1.921882807609237602e+02
1.376000000000000227e+02 1.919271735300650903e+02
1.380000000000000000e+02 1.916671843791001777e+02
1.384000000000000057e+02 1.914083052166358812e+02
1.388000000000000114e+02 1.911505280337108275e+02
1.392000000000000171e+02 1.908938449027131981e+02
1.395999999999999943e+02 1.906382479763163360e+02
1.400000000000000000e+02 1.903837294864306671e+02
1.404000000000000057e+02 1.901302817431731000e+02
1.408000000000000114e+02 1.898778971338523718e+02
1.412000000000000171e+02 1.896265681219705357e+02
1.415999999999999943e+02 1.893762872462401674e+02
1.420000000000000000e+02 1.891270471196176572e+02
1.424000000000000057e+02 1.888788404283508555e+02
1.428000000000000114e+02 1.886316599310422077e+02
1.432000000000000171e+02 1.883854984577262712e+02
1.435999999999999943e+02 1.881403489089619825e+02
1.440000000000000000e+02 1.878962042549383682e+02
1.444000000000000057e+02 1.876530575345950069e+02
1.448000000000000114e+02 1.874109018547551671e+02
1.452000000000000171e+02 1.871697303892730986e+02
1.455999999999999943e+02 1.869295363781937169e+02
1.460000000000000000e+02 1.866903131269259575e+02
1.464000000000000057e+02 1.864520540054278115e+02
1.468000000000000114e+02 1.862147524474048055e+02
1.472000000000000171e+02 1.859784019495198208e+02
1.475999999999999943e+02 1.857429960706152485e+02
1.480000000000000000e+02 1.855085284309471376e+02
1.484000000000000057e+02 1.852749927114301158e+02
1.488000000000000114e+02 1.850423826528947302e+02
1.492000000000000171e+02 1.848106920553549060e+02
1.495999999999999943e+02 1.845799147772869162e+02
1.500000000000000000e+02 1.843500447349191234e+02
