1.000000000000000000e+01 5.414314403803625737e+02
1.040000000000000036e+01 6.058182633550958371e+02
1.080000000000000071e+01 6.647255403181302427e+02
1.119999999999999929e+01 7.067953900180735900e+02
1.159999999999999964e+01 7.496559838627645149e+02
1.200000000000000000e+01 7.838111329267026122e+02
1.240000000000000036e+01 8.099794268002483477e+02
1.280000000000000071e+01 8.802118124257319778e+02
1.319999999999999929e+01 9.223351321216605356e+02
1.359999999999999964e+01 9.706166764242344698e+02
1.400000000000000000e+01 9.633901585902560782e+02
1.440000000000000036e+01 9.446216210199689840e+02
1.480000000000000071e+01 9.271026734686661257e+02
1.519999999999999929e+01 9.106919542795870939e+02
1.560000000000000142e+01 8.952703292441909753e+02
1.600000000000000000e+01 8.807364790238028718e+02
1.639999999999999858e+01 8.670035317167120184e+02
1.680000000000000071e+01 8.539964559853452783e+02
1.719999999999999929e+01 8.416500169491771430e+02
1.760000000000000142e+01 8.299071547566962863e+02
1.800000000000000000e+01 8.187176849277793735e+02
1.839999999999999858e+01 8.080372466594387788e+02
1.880000000000000071e+01 7.978264443563476789e+02
1.920000000000000284e+01 7.880501412724568127e+02
1.960000000000000142e+01 7.786768740235012274e+02
2.000000000000000000e+01 7.696783639781490365e+02
2.039999999999999858e+01 7.610291069198233345e+02
2.080000000000000071e+01 7.527060264151606361e+02
2.120000000000000284e+01 7.446881793934088591e+02
2.160000000000000142e+01 7.369565047912682303e+02
2.200000000000000000e+01 7.294936079337529691e+02
2.239999999999999858e+01 7.222835747365813859e+02
2.280000000000000071e+01 7.153118109265117255e+02
2.320000000000000284e+01 7.085649023545917089e+02
2.360000000000000142e+01 7.020304931768040433e+02
2.400000000000000000e+01 6.956971792371437004e+02
2.439999999999999858e+01 6.895544144400728328e+02
2.480000000000000071e+01 6.835924282657083495e+02
2.520000000000000284e+01 6.778021528797991095e+02
2.560000000000000142e+01 6.721751585353040355e+02
2.600000000000000000e+01 6.667035961639043080e+02
2.640000000000000213e+01 6.613801462224905663e+02
2.680000000000000071e+01 6.561979729981791252e+02
2.719999999999999929e+01 6.511506836909685489e+02
2.760000000000000142e+01 6.462322916899727261e+02
2.800000000000000000e+01 6.414371835405694355e+02
2.840000000000000213e+01 6.367600891685235638e+02
2.880000000000000071e+01 6.321960549853398561e+02
2.920000000000000284e+01 6.277404195485656828e+02
2.960000000000000142e+01 6.233887914929277940e+02
3.000000000000000000e+01 6.191370294842591875e+02
3.040000000000000213e+01 6.149812239790973081e+02
3.080000000000000071e+01 6.109176805994612778e+02
3.120000000000000284e+01 6.069429049552576316e+02
3.160000000000000142e+01 6.030535887666283088e+02
3.200000000000000000e+01 5.992465971557670628e+02
3.240000000000000568e+01 5.955189569926972126e+02
3.279999999999999716e+01 5.918678461925459260e+02
3.320000000000000284e+01 5.882905838732310713e+02
3.360000000000000142e+01 5.847846212924598603e+02
3.400000000000000000e+01 5.813475334916622614e+02
3.440000000000000568e+01 5.779770115821892205e+02
3.479999999999999716e+01 5.746708556158574766e+02
3.520000000000000284e+01 5.714269679879075738e+02
3.560000000000000142e+01 5.682433473257202650e+02
3.600000000000000000e+01 5.651180828213134646e+02
3.640000000000000568e+01 5.620493489697977338e+02
3.679999999999999716e+01 5.590354006796524118e+02
3.720000000000000284e+01 5.560745687239780182e+02
3.760000000000000142e+01 5.531652555048049180e+02
3.800000000000000000e+01 5.503059311051569011e+02
3.840000000000000568e+01 5.474951296059130073e+02
3.879999999999999716e+01 5.447314456466056072e+02
3.920000000000000284e+01 5.420135312111765415e+02
3.960000000000000142e+01 5.393400926214067113e+02
4.000000000000000000e+01 5.367098877222495048e+02
4.040000000000000568e+01 5.341217232446822436e+02
4.079999999999999716e+01 5.315744523329113917e+02
4.120000000000000284e+01 5.290669722238990289e+02
4.160000000000000142e+01 5.265982220681786430e+02
4.200000000000000000e+01 5.241671808818496174e+02
4.239999999999999858e+01 5.217728656204668596e+02
4.280000000000000426e+01 5.194143293662959877e+02
4.320000000000000284e+01 5.170906596210870703e+02
4.360000000000000142e+01 5.148009766971472345e+02
4.400000000000000000e+01 5.125444322000545299e+02
4.439999999999999858e+01 5.103202075968731037e+02
4.480000000000000426e+01 5.081275128642043910e+02
4.520000000000000284e+01 5.059655852108385261e+02
4.560000000000000142e+01 5.038336878701605883e+02
4.600000000000000000e+01 5.017311089578322481e+02
4.639999999999999858e+01 4.996571603905986763e+02
4.680000000000000426e+01 4.976111768623690068e+02
4.720000000000000284e+01 4.955925148740027453e+02
4.760000000000000142e+01 4.936005518134863337e+02
4.800000000000000000e+01 4.916346850834192992e+02
4.840000000000000568e+01 4.896943312729466697e+02
4.880000000000000426e+01 4.877789253714735196e+02
4.920000000000000284e+01 4.858879200216775871e+02
4.960000000000000142e+01 4.840207848095097916e+02
5.000000000000000000e+01 4.821770055890268623e+02
5.040000000000000568e+01 4.803560838400418902e+02
5.080000000000000426e+01 4.785575360567168559e+02
5.120000000000000284e+01 4.767808931653406717e+02
5.160000000000000142e+01 4.750256999696533740e+02
5.200000000000000000e+01 4.732915146221804434e+02
5.240000000000000568e+01 4.715779081201417284e+02
5.280000000000000426e+01 4.698844638245889200e+02
5.320000000000000284e+01 4.682107770015119286e+02
5.360000000000000142e+01 4.665564543837299425e+02
5.400000000000000000e+01 4.649211137524609967e+02
5.440000000000000568e+01 4.633043835375259505e+02
5.480000000000000426e+01 4.617059024352114989e+02
5.520000000000000284e+01 4.601253190428712969e+02
5.560000000000000142e+01 4.585622915094035648e+02
5.600000000000000000e+01 4.570164872007896975e+02
5.640000000000000568e+01 4.554875823799324053e+02
5.680000000000000426e+01 4.539752619000694835e+02
5.720000000000000284e+01 4.524792189110878553e+02
5.760000000000000142e+01 4.509991545780959541e+02
5.800000000000000000e+01 4.495347778116532709e+02
5.840000000000000568e+01 4.480858050090859024e+02
5.880000000000000426e+01 4.466519598063540002e+02
5.920000000000000284e+01 4.452329728399598707e+02
5.960000000000000142e+01 4.438285815184220269e+02
6.000000000000000000e+01 4.424385298028588522e+02
6.040000000000000568e+01 4.410625679962555523e+02
6.080000000000000426e+01 4.397004525410087012e+02
6.120000000000000284e+01 4.383519458243648614e+02
6.160000000000000142e+01 4.370168159913910131e+02
6.200000000000000000e+01 4.356948367651325498e+02
6.240000000000000568e+01 4.343857872736323884e+02
6.280000000000000426e+01 4.330894518835046938e+02
6.320000000000000284e+01 4.318056200397683142e+02
6.360000000000000142e+01 4.305340861116627025e+02
6.400000000000000000e+01 4.292746492441837063e+02
6.440000000000000568e+01 4.280271132150876383e+02
6.480000000000001137e+01 4.267912862971278969e+02
6.520000000000000284e+01 4.255669811252956265e+02
6.559999999999999432e+01 4.243540145688533585e+02
6.600000000000000000e+01 4.231522076079540966e+02
6.640000000000000568e+01 4.219613852146552517e+02
6.680000000000001137e+01 4.207813762381402967e+02
6.720000000000000284e+01 4.196120132939736322e+02
6.759999999999999432e+01 4.184531326572219996e+02
6.800000000000000000e+01 4.173045741592814011e+02
6.840000000000000568e+01 4.161661810882609416e+02
6.880000000000001137e+01 4.150378000927751145e+02
6.920000000000000284e+01 4.139192810890106671e+02
6.959999999999999432e+01 4.128104771709333818e+02
7.000000000000000000e+01 4.117112445235125051e+02
7.040000000000000568e+01 4.106214423388399268e+02
7.080000000000001137e+01 4.095409327350342323e+02
7.120000000000000284e+01 4.084695806778155998e+02
7.159999999999999432e+01 4.074072539046527481e+02
7.200000000000000000e+01 4.063538228513781405e+02
7.240000000000000568e+01 4.053091605811802083e+02
7.280000000000001137e+01 4.042731427158785209e+02
7.320000000000000284e+01 4.032456473693976022e+02
7.359999999999999432e+01 4.022265550833561747e+02
7.400000000000000000e+01 4.012157487646899767e+02
7.440000000000000568e+01 4.002131136252365309e+02
7.479999999999999716e+01 3.992185371232055218e+02
7.520000000000000284e+01 3.982319089064659465e+02
7.560000000000000853e+01 3.972531207575855206e+02
7.600000000000000000e+01 3.962820665405564569e+02
7.640000000000000568e+01 3.953186421491458304e+02
7.679999999999999716e+01 3.943627454568156736e+02
7.720000000000000284e+01 3.934142762681519798e+02
7.760000000000000853e+01 3.924731362717518550e+02
7.800000000000000000e+01 3.915392289945168613e+02
7.840000000000000568e+01 3.906124597573011670e+02
7.879999999999999716e+01 3.896927356318701072e+02
7.920000000000000284e+01 3.887799653991199307e+02
7.960000000000000853e+01 3.878740595085186555e+02
8.000000000000000000e+01 3.869749300387225048e+02
8.040000000000000568e+01 3.860824906593308015e+02
8.079999999999999716e+01 3.851966565937380551e+02
8.120000000000000284e+01 3.843173445830474293e+02
8.160000000000000853e+01 3.834444728510090954e+02
8.200000000000000000e+01 3.825779610699499926e+02
8.240000000000000568e+01 3.817177303276602061e+02
8.279999999999999716e+01 3.808637030952064606e+02
8.320000000000000284e+01 3.800158031956402738e+02
8.360000000000000853e+01 3.791739557735721746e+02
8.400000000000000000e+01 3.783380872655839084e+02
8.440000000000000568e+01 3.775081253714500349e+02
8.479999999999999716e+01 3.766839990261453295e+02
8.520000000000000284e+01 3.758656383726096806e+02
8.560000000000000853e+01 3.750529747352485401e+02
8.600000000000000000e+01 3.742459405941438035e+02
8.640000000000000568e+01 3.734444695599544275e+02
8.680000000000001137e+01 3.726484963494833664e+02
8.720000000000000284e+01 3.718579567618904775e+02
8.760000000000000853e+01 3.710727876555312150e+02
8.800000000000000000e+01 3.702929269254029805e+02
8.840000000000000568e+01 3.695183134811773016e+02
8.880000000000001137e+01 3.687488872258025481e+02
8.920000000000000284e+01 3.679845890346589954e+02
8.960000000000000853e+01 3.672253607352486142e+02
9.000000000000000000e+01 3.664711450874042384e+02
9.040000000000000568e+01 3.657218857640021383e+02
9.080000000000001137e+01 3.649775273321628219e+02
9.120000000000000284e+01 3.642380152349252285e+02
9.160000000000000853e+01 3.635032957733808416e+02
9.200000000000000000e+01 3.627733160892537967e+02
9.240000000000000568e+01 3.620480241479133952e+02
9.280000000000001137e+01 3.613273687218068631e+02
9.320000000000000284e+01 3.606112993743003017e+02
9.360000000000000853e+01 3.598997664439151549e+02
9.400000000000000000e+01 3.591927210289492791e+02
9.440000000000000568e+01 3.584901149724712468e+02
9.480000000000001137e+01 3.577919008476781642e+02
9.520000000000000284e+01 3.570980319436046670e+02
9.560000000000000853e+01 3.564084622511750808e+02
9.600000000000000000e+01 3.557231464495878299e+02
9.640000000000000568e+01 3.550420398930235137e+02
9.680000000000001137e+01 3.543650985976663605e+02
9.720000000000000284e+01 3.536922792290322946e+02
9.760000000000000853e+01 3.530235390895924183e+02
9.800000000000000000e+01 3.523588361066873063e+02
9.840000000000000568e+01 3.516981288207192620e+02
9.880000000000001137e+01 3.510413763736204373e+02
9.920000000000000284e+01 3.503885384975844772e+02
9.960000000000000853e+01 3.497395755040577114e+02
1.000000000000000000e+02 3.490944482729805145e+02
1.004000000000000057e+02 3.484531182422751954e+02
1.008000000000000114e+02 3.478155473975695031e+02
1.012000000000000028e+02 3.471816982621535885e+02
1.016000000000000085e+02 3.465515338871614404e+02
1.020000000000000000e+02 3.459250178419723625e+02
1.024000000000000057e+02 3.453021142048256706e+02
1.028000000000000114e+02 3.446827875536437205e+02
1.032000000000000028e+02 3.440670029570578663e+02
1.036000000000000085e+02 3.434547259656306437e+02
1.040000000000000000e+02 3.428459226032713900e+02
1.044000000000000057e+02 3.422405593588384818e+02
1.048000000000000114e+02 3.416386031779238692e+02
1.052000000000000028e+02 3.410400214548154736e+02
1.056000000000000085e+02 3.404447820246332981e+02
1.060000000000000000e+02 3.398528531556330563e+02
1.064000000000000057e+02 3.392642035416751582e+02
1.068000000000000114e+02 3.386788022948542221e+02
1.072000000000000028e+02 3.380966189382841662e+02
1.076000000000000085e+02 3.375176233990360970e+02
1.080000000000000000e+02 3.369417860012245569e+02
1.084000000000000057e+02 3.363690774592389516e+02
1.088000000000000114e+02 3.357994688711158346e+02
1.092000000000000028e+02 3.352329317120495489e+02
1.096000000000000085e+02 3.346694378280366209e+02
1.100000000000000000e+02 3.341089594296516339e+02
1.104000000000000057e+02 3.335514690859512825e+02
1.108000000000000114e+02 3.329969397185025741e+02
1.112000000000000028e+02 3.324453445955335269e+02
1.116000000000000085e+02 3.318966573262021029e+02
1.120000000000000000e+02 3.313508518549818405e+02
1.124000000000000057e+02 3.308079024561596952e+02
1.128000000000000114e+02 3.302677837284455791e+02
1.132000000000000028e+02 3.297304705896891619e+02
1.136000000000000085e+02 3.291959382717016069e+02
1.140000000000000000e+02 3.286641623151813292e+02
1.144000000000000057e+02 3.281351185647390594e+02
1.148000000000000114e+02 3.276087831640219292e+02
1.152000000000000028e+02 3.270851325509323715e+02
1.156000000000000085e+02 3.265641434529416074e+02
1.160000000000000000e+02 3.260457928824938563e+02
1.164000000000000057e+02 3.255300581325000167e+02
1.168000000000000114e+02 3.250169167719192274e+02
1.172000000000000028e+02 3.245063466414243862e+02
1.176000000000000085e+02 3.239983258491523657e+02
1.180000000000000000e+02 3.234928327665347183e+02
1.184000000000000057e+02 3.229898460242083047e+02
1.188000000000000114e+02 3.224893445080038532e+02
1.192000000000000028e+02 3.219913073550100648e+02
1.196000000000000085e+02 3.214957139497127514e+02
1.200000000000000000e+02 3.210025439202056532e+02
1.204000000000000057e+02 3.205117771344737321e+02
1.208000000000000114e+02 3.200233936967443924e+02
1.212000000000000028e+02 3.195373739439075393e+02
1.216000000000000085e+02 3.190536984420022577e+02
1.220000000000000000e+02 3.185723479827674964e+02
1.224000000000000057e+02 3.180933035802574977e+02
1.228000000000000114e+02 3.176165464675186172e+02
1.232000000000000028e+02 3.171420580933272504e+02
1.236000000000000085e+02 3.166698201189869337e+02
1.240000000000000000e+02 3.161998144151846759e+02
1.244000000000000057e+02 3.157320230589026551e+02
1.248000000000000114e+02 3.152664283303873844e+02
1.252000000000000028e+02 3.148030127101720836e+02
1.256000000000000085e+02 3.143417588761532215e+02
1.260000000000000000e+02 3.138826497007191847e+02
1.264000000000000057e+02 3.134256682479298206e+02
1.268000000000000114e+02 3.129707977707464579e+02
1.272000000000000028e+02 3.125180217083106982e+02
1.276000000000000085e+02 3.120673236832712973e+02
1.280000000000000000e+02 3.116186874991582272e+02
1.284000000000000057e+02 3.111720971378023819e+02
1.288000000000000114e+02 3.107275367568007027e+02
1.291999999999999886e+02 3.102849906870252994e+02
1.296000000000000227e+02 3.098444434301757155e+02
1.300000000000000000e+02 3.094058796563741680e+02
1.304000000000000057e+02 3.089692842018008037e+02
1.308000000000000114e+02 3.085346420663714753e+02
1.311999999999999886e+02 3.081019384114540571e+02
1.316000000000000227e+02 3.076711585576236416e+02
1.320000000000000000e+02 3.072422879824574125e+02
1.324000000000000057e+02 3.068153123183650450e+02
1.328000000000000114e+02 3.063902173504570783e+02
1.331999999999999886e+02 3.059669890144489273e+02
1.336000000000000227e+02 3.055456133945999113e+02
1.340000000000000000e+02 3.051260767216871841e+02
1.344000000000000057e+02 3.047083653710134286e+02
1.348000000000000114e+02 3.042924658604471801e+02
1.351999999999999886e+02 3.038783648484965738e+02
1.356000000000000227e+02 3.034660491324144687e+02
1.360000000000000000e+02 3.030555056463348933e+02
1.364000000000000057e+02 3.026467214594401867e+02
1.368000000000000114e+02 3.022396837741582658e+02
1.371999999999999886e+02 3.018343799243892818e+02
1.376000000000000227e+02 3.014307973737610382e+02
1.380000000000000000e+02 3.010289237139132865e+02
1.384000000000000057e+02 3.006287466628093625e+02
1.388000000000000114e+02 3.002302540630748808e+02
1.392000000000000171e+02 2.998334338803640549e+02
1.395999999999999943e+02 2.994382742017513692e+02
1.400000000000000000e+02 2.990447632341494568e+02
1.404000000000000057e+02 2.986528893027519302e+02
1.408000000000000114e+02 2.982626408495017358e+02
1.412000000000000171e+02 2.978740064315825293e+02
1.415999999999999943e+02 2.974869747199351764e+02
1.420000000000000000e+02 2.971015344977972177e+02
1.424000000000000057e+02 2.967176746592644463e+02
1.428000000000000114e+02 2.963353842078768707e+02
1.432000000000000171e+02 2.959546522552250281e+02
1.435999999999999943e+02 2.955754680195789774e+02
1.440000000000000000e+02 2.951978208245383826e+02
1.444000000000000057e+02 2.948217000977034559e+02
1.448000000000000114e+02 2.944470953693664796e+02
1.452000000000000171e+02 2.940739962712236775e+02
1.455999999999999943e+02 2.937023925351064122e+02
1.460000000000000000e+02 2.933322739917325634e+02
1.464000000000000057e+02 2.929636305694759812e+02
1.468000000000000114e+02 2.925964522931559486e+02
1.472000000000000171e+02 2.922307292828436971e+02
1.475999999999999943e+02 2.918664517526881355e+02
1.480000000000000000e+02 2.915036100097586882e+02
1.484000000000000057e+02 2.911421944529055281e+02
1.488000000000000114e+02 2.907821955716374873e+02
1.492000000000000171e+02 2.904236039450162821e+02
1.495999999999999943e+02 2.900664102405672793e+02
1.500000000000000000e+02 2.897106052132066338e+02
