1.000000000000000000e+01 3.960914202681021834e+02
1.040000000000000036e+01 4.427744798069371654e+02
1.080000000000000071e+01 4.883036734633300284e+02
1.119999999999999929e+01 5.458219325607611836e+02
1.159999999999999964e+01 6.030284654788617900e+02
1.200000000000000000e+01 6.608774741469093215e+02
1.240000000000000036e+01 6.756235758202922170e+02
1.280000000000000071e+01 7.565274461390182523e+02
1.319999999999999929e+01 8.145435837596420470e+02
1.359999999999999964e+01 8.610320342621264444e+02
1.400000000000000000e+01 8.735091735985531614e+02
1.440000000000000036e+01 8.792331050288166807e+02
1.480000000000000071e+01 8.917274416893621947e+02
1.519999999999999929e+01 8.742253536458051713e+02
1.560000000000000142e+01 8.578771161897127513e+02
1.600000000000000000e+01 8.425540220900082886e+02
1.639999999999999858e+01 8.281473089977198470e+02
1.680000000000000071e+01 8.145642532612218929e+02
1.719999999999999929e+01 8.017251781645190931e+02
1.760000000000000142e+01 7.895611299544906387e+02
1.800000000000000000e+01 7.780120497026630346e+02
1.839999999999999858e+01 7.670253188231779404e+02
1.880000000000000071e+01 7.565545899538860795e+02
1.920000000000000284e+01 7.465588384153713832e+02
1.960000000000000142e+01 7.370015860514303085e+02
2.000000000000000000e+01 7.278502611427502416e+02
2.039999999999999858e+01 7.190756667257314803e+02
2.080000000000000071e+01 7.106515360092466835e+02
2.120000000000000284e+01 7.025541583205592815e+02
2.160000000000000142e+01 6.947620625801147298e+02
2.200000000000000000e+01 6.872557480195233666e+02
2.239999999999999858e+01 6.800174539415170329e+02
2.280000000000000071e+01 6.730309619352304935e+02
2.320000000000000284e+01 6.662814252209660708e+02
2.360000000000000142e+01 6.597552207906775266e+02
2.400000000000000000e+01 6.534398207965987240e+02
2.439999999999999858e+01 6.473236802676830166e+02
2.480000000000000071e+01 6.413961387370908369e+02
2.520000000000000284e+01 6.356473337706818256e+02
2.560000000000000142e+01 6.300681247167999572e+02
2.600000000000000000e+01 6.246500252673735076e+02
2.640000000000000213e+01 6.193851436417169225e+02
2.680000000000000071e+01 6.142661293869593919e+02
2.719999999999999929e+01 6.092861259402451424e+02
2.760000000000000142e+01 6.044387282236564261e+02
2.800000000000000000e+01 5.997179446479246963e+02
2.840000000000000213e+01 5.951181629891502780e+02
2.880000000000000071e+01 5.906341196769831186e+02
2.920000000000000284e+01 5.862608720954285673e+02
2.960000000000000142e+01 5.819937735506310901e+02
3.000000000000000000e+01 5.778284506052199276e+02
3.040000000000000213e+01 5.737607825174211484e+02
3.080000000000000071e+01 5.697868825561891981e+02
3.120000000000000284e+01 5.659030809919856893e+02
3.160000000000000142e+01 5.621059095872731177e+02
3.200000000000000000e+01 5.583920874318812366e+02
3.240000000000000568e+01 5.547585079866624937e+02
3.279999999999999716e+01 5.512022272147039530e+02
3.320000000000000284e+01 5.477204526931354849e+02
3.360000000000000142e+01 5.443105336106118557e+02
3.400000000000000000e+01 5.409699515660267934e+02
3.440000000000000568e+01 5.376963120932405218e+02
3.479999999999999716e+01 5.344873368446596942e+02
3.520000000000000284e+01 5.313408563736213637e+02
3.560000000000000142e+01 5.282548034617894928e+02
3.600000000000000000e+01 5.252272069432960961e+02
3.640000000000000568e+01 5.222561859822534416e+02
3.679999999999999716e+01 5.193399447645947475e+02
3.720000000000000284e+01 5.164767675690462738e+02
3.760000000000000142e+01 5.136650141854590856e+02
3.800000000000000000e+01 5.109031156517704062e+02
3.840000000000000568e+01 5.081895702835926159e+02
3.879999999999999716e+01 5.055229399728469275e+02
3.920000000000000284e+01 5.029018467340434313e+02
3.960000000000000142e+01 5.003249694787546673e+02
4.000000000000000000e+01 4.977910410005763993e+02
4.040000000000000568e+01 4.952988451544505324e+02
4.079999999999999716e+01 4.928472142156310269e+02
4.120000000000000284e+01 4.904350264048576946e+02
4.160000000000000142e+01 4.880612035674511731e+02
4.200000000000000000e+01 4.857247089950816985e+02
4.239999999999999858e+01 4.834245453799073857e+02
4.280000000000000426e+01 4.811597528916329907e+02
4.320000000000000284e+01 4.789294073688071762e+02
4.360000000000000142e+01 4.767326186163855937e+02
4.400000000000000000e+01 4.745685288022206691e+02
4.439999999999999858e+01 4.724363109457214023e+02
4.480000000000000426e+01 4.703351674924559802e+02
4.520000000000000284e+01 4.682643289689522135e+02
4.560000000000000142e+01 4.662230527123897446e+02
4.600000000000000000e+01 4.642106216702829897e+02
4.639999999999999858e+01 4.622263432656196187e+02
4.680000000000000426e+01 4.602695483232577089e+02
4.720000000000000284e+01 4.583395900536920067e+02
4.760000000000000142e+01 4.564358430905851947e+02
4.800000000000000000e+01 4.545577025787162029e+02
4.840000000000000568e+01 4.527045833092415137e+02
4.880000000000000426e+01 4.508759188993813609e+02
4.920000000000000284e+01 4.490711610138441756e+02
4.960000000000000142e+01 4.472897786254935113e+02
5.000000000000000000e+01 4.455312573129282327e+02
5.040000000000000568e+01 4.437950985928083583e+02
5.080000000000000426e+01 4.420808192849028728e+02
5.120000000000000284e+01 4.403879509079743571e+02
5.160000000000000142e+01 4.387160391047355006e+02
5.200000000000000000e+01 4.370646430942329062e+02
5.240000000000000568e+01 4.354333351501165907e+02
5.280000000000000426e+01 4.338217001033570455e+02
5.320000000000000284e+01 4.322293348680589702e+02
5.360000000000000142e+01 4.306558479891106685e+02
5.400000000000000000e+01 4.291008592104840886e+02
5.440000000000000568e+01 4.275639990630765510e+02
5.480000000000000426e+01 4.260449084710519969e+02
5.520000000000000284e+01 4.245432383757038224e+02
5.560000000000000142e+01 4.230586493759214477e+02
5.600000000000000000e+01 4.215908113843977958e+02
5.640000000000000568e+01 4.201394032987650462e+02
5.680000000000000426e+01 4.187041126868963374e+02
5.720000000000000284e+01 4.172846354856536664e+02
5.760000000000000142e+01 4.158806757124061164e+02
5.800000000000000000e+01 4.144919451886809156e+02
5.840000000000000568e+01 4.131181632753448412e+02
5.880000000000000426e+01 4.117590566187512877e+02
5.920000000000000284e+01 4.104143589073159433e+02
5.960000000000000142e+01 4.090838106380182353e+02
6.000000000000000000e+01 4.077671588923503805e+02
6.040000000000000568e+01 4.064641571212646340e+02
6.080000000000000426e+01 4.051745649386917876e+02
6.120000000000000284e+01 4.038981479232290894e+02
6.160000000000000142e+01 4.026346774276178166e+02
6.200000000000000000e+01 4.013839303956469848e+02
6.240000000000000568e+01 4.001456891861449776e+02
6.280000000000000426e+01 3.989197414037347471e+02
6.320000000000000284e+01 3.977058797360450626e+02
6.360000000000000142e+01 3.965039017970901796e+02
6.400000000000000000e+01 3.953136099765393396e+02
6.440000000000000568e+01 3.941348112946175775e+02
6.480000000000001137e+01 3.929673172623885762e+02
6.520000000000000284e+01 3.918109437471841829e+02
6.559999999999999432e+01 3.906655108429578718e+02
6.600000000000000000e+01 3.895308427453493323e+02
6.640000000000000568e+01 3.884067676312578214e+02
6.680000000000001137e+01 3.872931175427335120e+02
6.720000000000000284e+01 3.861897282750034606e+02
6.759999999999999432e+01 3.850964392684589370e+02
6.800000000000000000e+01 3.840130935044389844e+02
6.840000000000000568e+01 3.829395374046526399e+02
6.880000000000001137e+01 3.818756207340899209e+02
6.920000000000000284e+01 3.808211965072796374e+02
6.959999999999999432e+01 3.797761208977566980e+02
7.000000000000000000e+01 3.787402531506103287e+02
7.040000000000000568e+01 3.777134554979897416e+02
7.080000000000001137e+01 3.766955930774480521e+02
7.120000000000000284e+01 3.756865338530135432e+02
7.159999999999999432e+01 3.746861485388792516e+02
7.200000000000000000e+01 3.736943105256099216e+02
7.240000000000000568e+01 3.727108958087678729e+02
7.280000000000001137e+01 3.717357829198632544e+02
7.320000000000000284e+01 3.707688528595409139e+02
7.359999999999999432e+01 3.698099890329178834e+02
7.400000000000000000e+01 3.688590771869888272e+02
7.440000000000000568e+01 3.679160053500235108e+02
7.479999999999999716e+01 3.669806637728796659e+02
7.520000000000000284e+01 3.660529448721599124e+02
7.560000000000000853e+01 3.651327431751460608e+02
7.600000000000000000e+01 3.642199552664436624e+02
7.640000000000000568e+01 3.633144797362741087e+02
7.679999999999999716e+01 3.624162171303554487e+02
7.720000000000000284e+01 3.615250699013132021e+02
7.760000000000000853e+01 3.606409423615664309e+02
7.800000000000000000e+01 3.597637406376369995e+02
7.840000000000000568e+01 3.588933726258293859e+02
7.879999999999999716e+01 3.580297479492343768e+02
7.920000000000000284e+01 3.571727779160095793e+02
7.960000000000000853e+01 3.563223754788912743e+02
8.000000000000000000e+01 3.554784551958952079e+02
8.040000000000000568e+01 3.546409331921653916e+02
8.079999999999999716e+01 3.538097271229306671e+02
8.120000000000000284e+01 3.529847561375322584e+02
8.160000000000000853e+01 3.521659408444835435e+02
8.200000000000000000e+01 3.513532032775305538e+02
8.240000000000000568e+01 3.505464668626748335e+02
8.279999999999999716e+01 3.497456563861310883e+02
8.320000000000000284e+01 3.489506979631856325e+02
8.360000000000000853e+01 3.481615190079253352e+02
8.400000000000000000e+01 3.473780482038110904e+02
8.440000000000000568e+01 3.466002154750641466e+02
8.479999999999999716e+01 3.458279519588431299e+02
8.520000000000000284e+01 3.450611899781820284e+02
8.560000000000000853e+01 3.442998630156671425e+02
8.600000000000000000e+01 3.435439056878278166e+02
8.640000000000000568e+01 3.427932537202191270e+02
8.680000000000001137e+01 3.420478439231737866e+02
8.720000000000000284e+01 3.413076141682015532e+02
8.760000000000000853e+01 3.405725033650176101e+02
8.800000000000000000e+01 3.398424514391775233e+02
8.840000000000000568e+01 3.391173993103025168e+02
8.880000000000001137e+01 3.383972888708743767e+02
8.920000000000000284e+01 3.376820629655840094e+02
8.960000000000000853e+01 3.369716653712155221e+02
9.000000000000000000e+01 3.362660407770505344e+02
9.040000000000000568e+01 3.355651347657756673e+02
9.080000000000001137e+01 3.348688937948784883e+02
9.120000000000000284e+01 3.341772651785175867e+02
9.160000000000000853e+01 3.334901970698515470e+02
9.200000000000000000e+01 3.328076384438139144e+02
9.240000000000000568e+01 3.321295390803206260e+02
9.280000000000001137e+01 3.314558495478969462e+02
9.320000000000000284e+01 3.307865211877115712e+02
9.360000000000000853e+01 3.301215060980061935e+02
9.400000000000000000e+01 3.294607571189085888e+02
9.440000000000000568e+01 3.288042278176180844e+02
9.480000000000001137e+01 3.281518724739535173e+02
9.520000000000000284e+01 3.275036460662515765e+02
9.560000000000000853e+01 3.268595042576069432e+02
9.600000000000000000e+01 3.262194033824438293e+02
9.640000000000000568e+01 3.255833004334093630e+02
9.680000000000001137e+01 3.249511530485804656e+02
9.720000000000000284e+01 3.243229194989738176e+02
9.760000000000000853e+01 3.236985586763523770e+02
9.800000000000000000e+01 3.230780300813190138e+02
9.840000000000000568e+01 3.224612938116887335e+02
9.880000000000001137e+01 3.218483105511338067e+02
9.920000000000000284e+01 3.212390415580914009e+02
9.960000000000000853e+01 3.206334486549293956e+02
1.000000000000000000e+02 3.200314942173610007e+02
1.004000000000000057e+02 3.194331411641036311e+02
1.008000000000000114e+02 3.188383529467721473e+02
1.012000000000000028e+02 3.182470935400049257e+02
1.016000000000000085e+02 3.176593274318106523e+02
1.020000000000000000e+02 3.170750196141356128e+02
1.024000000000000057e+02 3.164941355736416426e+02
1.028000000000000114e+02 3.159166412826908186e+02
1.032000000000000028e+02 3.153425031905309197e+02
1.036000000000000085e+02 3.147716882146769990e+02
1.040000000000000000e+02 3.142041637324830958e+02
1.044000000000000057e+02 3.136398975728994856e+02
1.048000000000000114e+02 3.130788580084112027e+02
1.052000000000000028e+02 3.125210137471517555e+02
1.056000000000000085e+02 3.119663339251891898e+02
1.060000000000000000e+02 3.114147880989786472e+02
1.064000000000000057e+02 3.108663462379781208e+02
1.068000000000000114e+02 3.103209787174226904e+02
1.072000000000000028e+02 3.097786563112534850e+02
1.076000000000000085e+02 3.092393501851974520e+02
1.080000000000000000e+02 3.087030318899937811e+02
1.084000000000000057e+02 3.081696733547639724e+02
1.088000000000000114e+02 3.076392468805214548e+02
1.092000000000000028e+02 3.071117251338170604e+02
1.096000000000000085e+02 3.065870811405179666e+02
1.100000000000000000e+02 3.060652882797156735e+02
1.104000000000000057e+02 3.055463202777603442e+02
1.108000000000000114e+02 3.050301512024187787e+02
1.112000000000000028e+02 3.045167554571522714e+02
1.116000000000000085e+02 3.040061077755120778e+02
1.120000000000000000e+02 3.034981832156491919e+02
1.124000000000000057e+02 3.029929571549355956e+02
1.128000000000000114e+02 3.024904052846953277e+02
1.132000000000000028e+02 3.019905036050411127e+02
1.136000000000000085e+02 3.014932284198152956e+02
1.140000000000000000e+02 3.009985563316320167e+02
1.144000000000000057e+02 3.005064642370189176e+02
1.148000000000000114e+02 3.000169293216548567e+02
1.152000000000000028e+02 2.995299290557019845e+02
1.156000000000000085e+02 2.990454411892309849e+02
1.160000000000000000e+02 2.985634437477351071e+02
1.164000000000000057e+02 2.980839150277328713e+02
1.168000000000000114e+02 2.976068335924567236e+02
1.172000000000000028e+02 2.971321782676251928e+02
1.176000000000000085e+02 2.966599281372973564e+02
1.180000000000000000e+02 2.961900625398073430e+02
1.184000000000000057e+02 2.957225610637771638e+02
1.188000000000000114e+02 2.952574035442058857e+02
1.192000000000000028e+02 2.947945700586337807e+02
1.196000000000000085e+02 2.943340409233791775e+02
1.200000000000000000e+02 2.938757966898476184e+02
1.204000000000000057e+02 2.934198181409097970e+02
1.208000000000000114e+02 2.929660862873481619e+02
1.212000000000000028e+02 2.925145823643708241e+02
1.216000000000000085e+02 2.920652878281896960e+02
1.220000000000000000e+02 2.916181843526633770e+02
1.224000000000000057e+02 2.911732538260018828e+02
1.228000000000000114e+02 2.907304783475327667e+02
1.232000000000000028e+02 2.902898402245268699e+02
1.236000000000000085e+02 2.898513219690819369e+02
1.240000000000000000e+02 2.894149062950646112e+02
1.244000000000000057e+02 2.889805761151067145e+02
1.248000000000000114e+02 2.885483145376580296e+02
1.252000000000000028e+02 2.881181048640905829e+02
1.256000000000000085e+02 2.876899305858572120e+02
1.260000000000000000e+02 2.872637753816999293e+02
1.264000000000000057e+02 2.868396231149094433e+02
1.268000000000000114e+02 2.864174578306328840e+02
1.272000000000000028e+02 2.859972637532306408e+02
1.276000000000000085e+02 2.855790252836791296e+02
1.280000000000000000e+02 2.851627269970201155e+02
1.284000000000000057e+02 2.847483536398555088e+02
1.288000000000000114e+02 2.843358901278855910e+02
1.291999999999999886e+02 2.839253215434908952e+02
1.296000000000000227e+02 2.835166331333559810e+02
1.300000000000000000e+02 2.831098103061356710e+02
1.304000000000000057e+02 2.827048386301603387e+02
1.308000000000000114e+02 2.823017038311824081e+02
1.311999999999999886e+02 2.819003917901609952e+02
1.316000000000000227e+02 2.815008885410845778e+02
1.320000000000000000e+02 2.811031802688319203e+02
1.324000000000000057e+02 2.807072533070686404e+02
1.328000000000000114e+02 2.803130941361800978e+02
1.331999999999999886e+02 2.799206893812395833e+02
1.336000000000000227e+02 2.795300258100103292e+02
1.340000000000000000e+02 2.791410903309821947e+02
1.344000000000000057e+02 2.787538699914408085e+02
1.348000000000000114e+02 2.783683519755688849e+02
1.351999999999999886e+02 2.779845236025799977e+02
1.356000000000000227e+02 2.776023723248834472e+02
1.360000000000000000e+02 2.772218857262787424e+02
1.364000000000000057e+02 2.768430515201813478e+02
1.368000000000000114e+02 2.764658575478766807e+02
1.371999999999999886e+02 2.760902917768034968e+02
1.376000000000000227e+02 2.757163422988651291e+02
1.380000000000000000e+02 2.753439973287689782e+02
1.384000000000000057e+02 2.749732452023920359e+02
1.388000000000000114e+02 2.746040743751744913e+02
1.392000000000000171e+02 2.742364734205380046e+02
1.395999999999999943e+02 2.738704310283305858e+02
1.400000000000000000e+02 2.735059360032959148e+02
1.404000000000000057e+02 2.731429772635676727e+02
1.408000000000000114e+02 2.727815438391880321e+02
1.412000000000000171e+02 2.724216248706496231e+02
1.415999999999999943e+02 2.720632096074608626e+02
1.420000000000000000e+02 2.717062874067340772e+02
1.424000000000000057e+02 2.713508477317958523e+02
1.428000000000000114e+02 2.709968801508200613e+02
1.432000000000000171e+02 2.706443743354813023e+02
1.435999999999999943e+02 2.702933200596301049e+02
1.440000000000000000e+02 2.699437071979893972e+02
1.444000000000000057e+02 2.695955257248702424e+02
1.448000000000000114e+02 2.692487657129083800e+02
1.452000000000000171e+02 2.689034173318203216e+02
1.455999999999999943e+02 2.685594708471783179e+02
1.460000000000000000e+02 2.682169166192043122e+02
1.464000000000000057e+02 2.678757451015829929e+02
1.468000000000000114e+02 2.675359468402927519e+02
1.472000000000000171e+02 2.671975124724540365e+02
1.475999999999999943e+02 2.668604327251961763e+02
1.480000000000000000e+02 2.665246984145409215e+02
1.484000000000000057e+02 2.661903004443027498e+02
1.488000000000000114e+02 2.658572298050067957e+02
1.492000000000000171e+02 2.655254775728216146e+02
1.495999999999999943e+02 2.651950349085096832e+02
1.500000000000000000e+02 2.648658930563917693e+02
