1.000000000000000000e+01 7.154633087250829249e+01
1.040000000000000036e+01 7.187077177539563877e+01
1.080000000000000071e+01 6.940768309889546117e+01
1.119999999999999929e+01 6.722772301830008246e+01
1.159999999999999964e+01 6.527814686026081858e+01
1.200000000000000000e+01 6.351943229398107604e+01
1.240000000000000036e+01 6.283536535977819426e+01
1.280000000000000071e+01 6.078348321066935966e+01
1.319999999999999929e+01 5.890632231161183086e+01
1.359999999999999964e+01 5.719905584003402055e+01
1.400000000000000000e+01 5.571246012614687970e+01
1.440000000000000036e+01 5.432893981546943962e+01
1.480000000000000071e+01 5.303679429883786867e+01
1.519999999999999929e+01 5.182614598244560966e+01
1.560000000000000142e+01 5.087773446111928877e+01
1.600000000000000000e+01 4.999733864502709224e+01
1.639999999999999858e+01 4.916046166415269170e+01
1.680000000000000071e+01 4.836342827963154889e+01
1.719999999999999929e+01 4.760299902479921741e+01
1.760000000000000142e+01 4.687630426774293824e+01
1.800000000000000000e+01 4.618079030583820099e+01
1.839999999999999858e+01 4.551417494191908730e+01
1.880000000000000071e+01 4.347866636528339512e+01
1.920000000000000284e+01 4.290071008687231569e+01
1.960000000000000142e+01 4.234487024576260694e+01
2.000000000000000000e+01 4.180970415878637425e+01
2.039999999999999858e+01 3.832080730681109060e+01
2.080000000000000071e+01 3.789307861870993577e+01
2.120000000000000284e+01 3.747950062695750262e+01
2.160000000000000142e+01 3.707926828242710826e+01
2.200000000000000000e+01 3.669164145850525927e+01
2.239999999999999858e+01 3.631593820519978522e+01
2.280000000000000071e+01 3.595152885679220844e+01
2.320000000000000284e+01 3.559783086633100879e+01
2.360000000000000142e+01 3.525430426175393706e+01
2.400000000000000000e+01 3.491657096751118416e+01
2.439999999999999858e+01 3.455981453380886137e+01
2.480000000000000071e+01 3.421321869168680507e+01
2.520000000000000284e+01 3.381170133201159445e+01
2.560000000000000142e+01 3.340497401635639108e+01
2.600000000000000000e+01 3.301053426086583897e+01
2.640000000000000213e+01 3.262777770008493405e+01
2.680000000000000071e+01 3.225614068538186530e+01
2.719999999999999929e+01 3.189509682450500350e+01
2.760000000000000142e+01 3.154415387439050278e+01
2.800000000000000000e+01 3.120285094530157721e+01
2.840000000000000213e+01 3.087075598002891752e+01
2.880000000000000071e+01 3.054746347668126560e+01
2.920000000000000284e+01 3.023259242768556376e+01
2.960000000000000142e+01 2.992578445111312391e+01
3.000000000000000000e+01 2.962670209344720718e+01
3.040000000000000213e+01 2.933502728548473115e+01
3.080000000000000071e+01 2.905045993528829484e+01
3.120000000000000284e+01 2.877271664402497464e+01
3.160000000000000142e+01 2.850152953219387797e+01
3.200000000000000000e+01 2.986556105341103518e+01
3.240000000000000568e+01 2.964912027700056996e+01
3.279999999999999716e+01 2.943718933200673149e+01
3.320000000000000284e+01 2.922961287120579854e+01
3.360000000000000142e+01 2.902624295279230182e+01
3.400000000000000000e+01 2.882693859104303158e+01
3.440000000000000568e+01 2.863156534000719944e+01
3.479999999999999716e+01 2.843999490737785862e+01
3.520000000000000284e+01 2.825210479598040081e+01
3.560000000000000142e+01 2.806777797056338386e+01
3.600000000000000000e+01 2.788690254779857369e+01
3.640000000000000568e+01 2.770937150759570500e+01
3.679999999999999716e+01 2.753508242401414208e+01
3.720000000000000284e+01 2.736393721421221059e+01
3.760000000000000142e+01 2.719584190401692325e+01
3.800000000000000000e+01 2.703070640882442177e+01
3.840000000000000568e+01 2.686844432865572685e+01
3.879999999999999716e+01 2.671569631172705783e+01
3.920000000000000284e+01 2.656812830840101469e+01
3.960000000000000142e+01 2.642227814119643625e+01
4.000000000000000000e+01 2.627562686633350353e+01
4.040000000000000568e+01 2.613121987827913983e+01
4.079999999999999716e+01 2.598899904665898930e+01
4.120000000000000284e+01 2.584890836727389996e+01
4.160000000000000142e+01 2.571089386173205327e+01
4.200000000000000000e+01 2.557490348287370807e+01
4.239999999999999858e+01 2.544088702559417925e+01
4.280000000000000426e+01 2.530879604270188210e+01
4.320000000000000284e+01 2.517858376547573585e+01
4.360000000000000142e+01 2.505020502861267673e+01
4.400000000000000000e+01 2.492361619927885741e+01
4.439999999999999858e+01 2.479877511000004375e+01
4.480000000000000426e+01 2.467564099514588349e+01
4.520000000000000284e+01 2.455417443078113493e+01
4.560000000000000142e+01 2.443433727767325792e+01
4.600000000000000000e+01 2.431609262726086129e+01
4.639999999999999858e+01 2.393704744320541877e+01
4.680000000000000426e+01 2.382567558813050113e+01
4.720000000000000284e+01 2.371575961075768646e+01
4.760000000000000142e+01 2.360726722858708726e+01
4.800000000000000000e+01 2.350016717077841477e+01
4.840000000000000568e+01 2.339442913723788564e+01
4.880000000000000426e+01 2.329002375972665817e+01
4.920000000000000284e+01 2.318692256487351244e+01
4.960000000000000142e+01 2.312871604320955043e+01
5.000000000000000000e+01 2.303194673977466067e+01
5.040000000000000568e+01 2.293635164890536160e+01
5.080000000000000426e+01 2.284190664178138519e+01
5.120000000000000284e+01 2.274858829118742420e+01
5.160000000000000142e+01 2.265637384513431130e+01
5.200000000000000000e+01 2.256524120169441261e+01
5.240000000000000568e+01 2.247516888498537568e+01
5.280000000000000426e+01 2.238613602224023680e+01
5.320000000000000284e+01 2.229812232190603893e+01
5.360000000000000142e+01 2.221110805271622723e+01
5.400000000000000000e+01 2.212507402368598619e+01
5.440000000000000568e+01 2.203539524271346650e+01
5.480000000000000426e+01 2.194607699058992267e+01
5.520000000000000284e+01 2.185779770811791778e+01
5.560000000000000142e+01 2.177053716361688629e+01
5.600000000000000000e+01 2.168427567357081642e+01
5.640000000000000568e+01 2.159899408367157037e+01
5.680000000000000426e+01 2.151467375065799814e+01
5.720000000000000284e+01 2.143129652491166937e+01
5.760000000000000142e+01 2.134884473377219649e+01
5.800000000000000000e+01 2.126730116553713756e+01
5.840000000000000568e+01 2.118664905411356614e+01
5.880000000000000426e+01 2.110687206429010843e+01
5.920000000000000284e+01 2.102771988422834681e+01
5.960000000000000142e+01 2.094852763602352752e+01
6.000000000000000000e+01 2.087017484021572500e+01
6.040000000000000568e+01 2.079264658341896777e+01
6.080000000000000426e+01 2.071592832091641867e+01
6.120000000000000284e+01 2.064000586503306778e+01
6.160000000000000142e+01 2.056486537395338843e+01
6.200000000000000000e+01 2.049049334096382680e+01
6.240000000000000568e+01 2.041687658410134532e+01
6.280000000000000426e+01 2.034400223618984427e+01
6.320000000000000284e+01 2.027185773524758261e+01
6.360000000000000142e+01 2.020043081524924489e+01
6.400000000000000000e+01 2.018396683530471591e+01
6.440000000000000568e+01 2.011936806040890957e+01
6.480000000000001137e+01 2.005536875836001087e+01
6.520000000000000284e+01 1.999195959296338287e+01
6.559999999999999432e+01 1.992913143046661872e+01
6.600000000000000000e+01 1.986687533395793537e+01
6.640000000000000568e+01 1.980518255795253424e+01
6.680000000000001137e+01 1.974404454315975244e+01
6.720000000000000284e+01 1.968345291142360054e+01
6.759999999999999432e+01 1.962339946083031350e+01
6.800000000000000000e+01 1.956387616097604365e+01
6.840000000000000568e+01 1.950487514838896885e+01
6.880000000000001137e+01 1.944638872209950620e+01
6.920000000000000284e+01 1.938840933935325239e+01
6.959999999999999432e+01 1.933092961146119393e+01
7.000000000000000000e+01 1.927394229978200357e+01
7.040000000000000568e+01 1.921744031183148138e+01
7.080000000000001137e+01 1.916141669751446130e+01
7.120000000000000284e+01 1.911962059227634114e+01
7.159999999999999432e+01 1.906603905158227974e+01
7.200000000000000000e+01 1.901290113938692272e+01
7.240000000000000568e+01 1.896020066680488725e+01
7.280000000000001137e+01 1.890793156547930209e+01
7.320000000000000284e+01 1.885608788458054264e+01
7.359999999999999432e+01 1.880400249515817279e+01
7.400000000000000000e+01 1.875114318117083201e+01
7.440000000000000568e+01 1.869870726503381064e+01
7.479999999999999716e+01 1.864668904517700554e+01
7.520000000000000284e+01 1.859508292826724940e+01
7.560000000000000853e+01 1.854388342655230559e+01
7.600000000000000000e+01 1.849308515528480967e+01
7.640000000000000568e+01 1.844268283022324795e+01
7.679999999999999716e+01 1.839267126520731921e+01
7.720000000000000284e+01 1.834304536980500799e+01
7.760000000000000853e+01 1.829380014702891799e+01
7.800000000000000000e+01 1.824493069111934318e+01
7.840000000000000568e+01 1.819643218539193441e+01
7.879999999999999716e+01 1.814829990014754557e+01
7.920000000000000284e+01 1.810052919064226984e+01
7.960000000000000853e+01 1.805311549511559122e+01
8.000000000000000000e+01 1.800605433287459078e+01
8.040000000000000568e+01 1.795934130243246329e+01
8.079999999999999716e+01 1.791297207969942562e+01
8.120000000000000284e+01 1.786694241622424428e+01
8.160000000000000853e+01 1.782124813748484726e+01
8.200000000000000000e+01 1.777588514122624019e+01
8.240000000000000568e+01 1.773084939584424191e+01
8.279999999999999716e+01 1.768577067564108063e+01
8.320000000000000284e+01 1.764090247903990516e+01
8.360000000000000853e+01 1.759635465457678549e+01
8.400000000000000000e+01 1.755212336710398446e+01
8.440000000000000568e+01 1.758854987756305377e+01
8.479999999999999716e+01 1.754502387760812354e+01
8.520000000000000284e+01 1.750180437342613260e+01
8.560000000000000853e+01 1.745888772356278906e+01
8.600000000000000000e+01 1.741627034755564551e+01
8.640000000000000568e+01 1.737394872461517892e+01
8.680000000000001137e+01 1.733191939234080792e+01
8.720000000000000284e+01 1.729017894547070355e+01
8.760000000000000853e+01 1.724872403466439152e+01
8.800000000000000000e+01 1.720755136531712992e+01
8.840000000000000568e+01 1.716665769640501793e+01
8.880000000000001137e+01 1.712603983935999707e+01
8.920000000000000284e+01 1.708569465697376444e+01
8.960000000000000853e+01 1.704561906232965640e+01
9.000000000000000000e+01 1.700581001776187406e+01
9.040000000000000568e+01 1.696626453384096322e+01
9.080000000000001137e+01 1.692697966838492363e+01
9.120000000000000284e+01 1.688795252549516235e+01
9.160000000000000853e+01 1.684918025461651681e+01
9.200000000000000000e+01 1.681066004962065108e+01
9.240000000000000568e+01 1.677238914791216473e+01
9.280000000000001137e+01 1.673436482955671778e+01
9.320000000000000284e+01 1.669658441643052527e+01
9.360000000000000853e+01 1.665904527139063163e+01
9.400000000000000000e+01 1.662174479746535383e+01
9.440000000000000568e+01 1.658468043706429640e+01
9.480000000000001137e+01 1.654784967120743033e+01
9.520000000000000284e+01 1.651125001877259280e+01
9.560000000000000853e+01 1.647573792629124512e+01
9.600000000000000000e+01 1.644071785918828965e+01
9.640000000000000568e+01 1.640902046489797783e+01
9.680000000000001137e+01 1.637514822466184938e+01
9.720000000000000284e+01 1.634148100814693549e+01
9.760000000000000853e+01 1.630801671214312165e+01
9.800000000000000000e+01 1.627475326368865183e+01
9.840000000000000568e+01 1.624168861951254783e+01
9.880000000000001137e+01 1.620882076548954842e+01
9.920000000000000284e+01 1.617614771610719870e+01
9.960000000000000853e+01 1.614366751394481625e+01
1.000000000000000000e+02 1.611137822916399642e+01
1.004000000000000057e+02 1.607927795901039758e+01
1.008000000000000114e+02 1.604736482732641178e+01
1.012000000000000028e+02 1.601563698407458958e+01
1.016000000000000085e+02 1.598409260487137473e+01
1.020000000000000000e+02 1.595272989053105306e+01
1.024000000000000057e+02 1.592154706661951025e+01
1.028000000000000114e+02 1.589054238301762112e+01
1.032000000000000028e+02 1.585971411349403759e+01
1.036000000000000085e+02 1.582906055528706801e+01
1.040000000000000000e+02 1.579858002869555378e+01
1.044000000000000057e+02 1.576827087667829375e+01
1.048000000000000114e+02 1.573813146446207156e+01
1.052000000000000028e+02 1.570816017915785423e+01
1.056000000000000085e+02 1.567835542938507842e+01
1.060000000000000000e+02 1.564871564490377054e+01
1.064000000000000057e+02 1.561923927625435837e+01
1.068000000000000114e+02 1.558992479440491152e+01
1.072000000000000028e+02 1.556077069040570215e+01
1.076000000000000085e+02 1.547631920301366648e+01
1.080000000000000000e+02 1.544745719769278480e+01
1.084000000000000057e+02 1.541875272656178630e+01
1.088000000000000114e+02 1.539020432804359473e+01
1.092000000000000028e+02 1.536181055963977826e+01
1.096000000000000085e+02 1.533356999761005568e+01
1.100000000000000000e+02 1.530520569752705384e+01
1.104000000000000057e+02 1.527697139424780204e+01
1.108000000000000114e+02 1.524888803694861039e+01
1.112000000000000028e+02 1.522095425372839905e+01
1.116000000000000085e+02 1.519316869022669714e+01
1.120000000000000000e+02 1.516553000933506290e+01
1.124000000000000057e+02 1.513803689091444582e+01
1.128000000000000114e+02 1.511068803151804829e+01
1.132000000000000028e+02 1.508348214411987698e+01
1.136000000000000085e+02 1.505641795784853620e+01
1.140000000000000000e+02 1.502949421772643035e+01
1.144000000000000057e+02 1.500270968441396846e+01
1.148000000000000114e+02 1.497606313395893451e+01
1.152000000000000028e+02 1.494955335755067161e+01
1.156000000000000085e+02 1.492317916127908717e+01
1.160000000000000000e+02 1.489693936589836198e+01
1.164000000000000057e+02 1.487083280659522799e+01
1.168000000000000114e+02 1.484485833276168520e+01
1.172000000000000028e+02 1.481901480777215596e+01
1.176000000000000085e+02 1.479330110876483140e+01
1.180000000000000000e+02 1.476771612642728648e+01
1.184000000000000057e+02 1.474225876478607233e+01
1.188000000000000114e+02 1.471692794100038348e+01
1.192000000000000028e+02 1.469172258515956031e+01
1.196000000000000085e+02 1.466647068221199746e+01
1.200000000000000000e+02 1.464076406433435196e+01
1.204000000000000057e+02 1.461518369408581997e+01
1.208000000000000114e+02 1.458972852719891833e+01
1.212000000000000028e+02 1.456439753155626704e+01
1.216000000000000085e+02 1.453918968700812364e+01
1.220000000000000000e+02 1.451410398519339395e+01
1.224000000000000057e+02 1.448913942936382959e+01
1.228000000000000114e+02 1.446429503421151352e+01
1.232000000000000028e+02 1.443956982569940806e+01
1.236000000000000085e+02 1.441496284089506119e+01
1.240000000000000000e+02 1.439047312780726173e+01
1.244000000000000057e+02 1.436609974522563249e+01
1.248000000000000114e+02 1.434184176256314736e+01
1.252000000000000028e+02 1.432221786386377005e+01
1.256000000000000085e+02 1.429858981374639271e+01
1.260000000000000000e+02 1.427507234767998412e+01
1.264000000000000057e+02 1.425166459432774246e+01
1.268000000000000114e+02 1.422836569201087187e+01
1.272000000000000028e+02 1.420517478857045468e+01
1.276000000000000085e+02 1.418209104123168984e+01
1.280000000000000000e+02 1.415911361647053468e+01
1.284000000000000057e+02 1.413624168988265950e+01
1.288000000000000114e+02 1.411347444605465995e+01
1.291999999999999886e+02 1.409081107843753955e+01
1.296000000000000227e+02 1.406825078922234340e+01
1.300000000000000000e+02 1.404579278921791996e+01
1.304000000000000057e+02 1.402343629773080025e+01
1.308000000000000114e+02 1.400118054244715537e+01
1.311999999999999886e+02 1.397902475931670097e+01
1.316000000000000227e+02 1.395696819243859643e+01
1.320000000000000000e+02 1.393501009394933376e+01
1.324000000000000057e+02 1.391314972391240445e+01
1.328000000000000114e+02 1.392192121784509773e+01
1.331999999999999886e+02 1.390063892528162981e+01
1.336000000000000227e+02 1.387944999565503856e+01
1.340000000000000000e+02 1.385835373760712841e+01
1.344000000000000057e+02 1.383734946698726631e+01
1.348000000000000114e+02 1.381643650675543178e+01
1.351999999999999886e+02 1.379561418688684249e+01
1.356000000000000227e+02 1.377488184427813778e+01
1.360000000000000000e+02 1.375423882265512709e+01
1.364000000000000057e+02 1.373368447248200397e+01
1.368000000000000114e+02 1.371321815087208940e+01
1.371999999999999886e+02 1.369283922149996435e+01
1.376000000000000227e+02 1.367254705451508556e+01
1.380000000000000000e+02 1.365234102645673531e+01
1.384000000000000057e+02 1.363222052017041541e+01
1.388000000000000114e+02 1.361218492472548114e+01
1.392000000000000171e+02 1.359223363533418905e+01
1.395999999999999943e+02 1.357236605327199186e+01
1.400000000000000000e+02 1.355258158579906791e+01
1.404000000000000057e+02 1.353287964608317573e+01
1.408000000000000114e+02 1.351312459463906457e+01
1.412000000000000171e+02 1.349344628474663565e+01
1.415999999999999943e+02 1.347384935868835854e+01
1.420000000000000000e+02 1.345433324833797961e+01
1.424000000000000057e+02 1.343489739114968629e+01
1.428000000000000114e+02 1.341554123008741684e+01
1.432000000000000171e+02 1.339626421355524499e+01
1.435999999999999943e+02 1.337706579532883922e+01
1.440000000000000000e+02 1.335794543448799487e+01
1.444000000000000057e+02 1.333890259535020206e+01
1.448000000000000114e+02 1.331993674740521882e+01
1.452000000000000171e+02 1.330104736525066400e+01
1.455999999999999943e+02 1.328223392852857287e+01
1.460000000000000000e+02 1.326353109689606669e+01
1.464000000000000057e+02 1.324508242452521145e+01
1.468000000000000114e+02 1.322670721689368278e+01
1.472000000000000171e+02 1.320840497566418748e+01
1.475999999999999943e+02 1.319017520726447756e+01
1.480000000000000000e+02 1.317201742282870569e+01
1.484000000000000057e+02 1.315393113813960468e+01
1.488000000000000114e+02 1.313591587357155888e+01
1.492000000000000171e+02 1.311797115403452452e+01
1.495999999999999943e+02 1.310009650891880995e+01
1.500000000000000000e+02 1.308229147204063381e+01
