1.000000000000000000e+01 1.754708899136329876e+02
1.040000000000000036e+01 1.931789371426860953e+02
1.080000000000000071e+01 2.157854059585035884e+02
1.119999999999999929e+01 2.281025853796759293e+02
1.159999999999999964e+01 2.197944023318004838e+02
1.200000000000000000e+01 2.125255301412431379e+02
1.240000000000000036e+01 2.060879929260328822e+02
1.280000000000000071e+01 2.003292732957045814e+02
1.319999999999999929e+01 1.951342916640363967e+02
1.359999999999999964e+01 1.904331233415096847e+02
1.400000000000000000e+01 1.862259370902944227e+02
1.440000000000000036e+01 1.823550822198341450e+02
1.480000000000000071e+01 1.787766596838397106e+02
1.519999999999999929e+01 1.754545569825136226e+02
1.560000000000000142e+01 1.723587310319410619e+02
1.600000000000000000e+01 1.694639375017793554e+02
1.639999999999999858e+01 1.667487744427341738e+02
1.680000000000000071e+01 1.641949515086414806e+02
1.719999999999999929e+01 1.617867239466046101e+02
1.760000000000000142e+01 1.381761668178663740e+02
1.800000000000000000e+01 1.359269086226517231e+02
1.839999999999999858e+01 1.337854760261410547e+02
1.880000000000000071e+01 1.303474397041576935e+02
1.920000000000000284e+01 1.284333787367836237e+02
1.960000000000000142e+01 1.266026488073385678e+02
2.000000000000000000e+01 1.248491634976617632e+02
2.039999999999999858e+01 1.231674559572362284e+02
2.080000000000000071e+01 1.215525986929898892e+02
2.120000000000000284e+01 1.200001358630462107e+02
2.160000000000000142e+01 1.185060258107727122e+02
2.200000000000000000e+01 1.170665920393165891e+02
2.239999999999999858e+01 1.156784811851132702e+02
2.280000000000000071e+01 1.143386268278802760e+02
2.320000000000000284e+01 1.130442181935778478e+02
2.360000000000000142e+01 1.117926729798916909e+02
2.400000000000000000e+01 1.105777370031980666e+02
2.439999999999999858e+01 1.092434768705908255e+02
2.480000000000000071e+01 1.079137397151177140e+02
2.520000000000000284e+01 1.066266532786070655e+02
2.560000000000000142e+01 1.053799706194308783e+02
2.600000000000000000e+01 1.041716079827526613e+02
2.640000000000000213e+01 1.029996298013367095e+02
2.680000000000000071e+01 1.018622353547231398e+02
2.719999999999999929e+01 1.007577468735234163e+02
2.760000000000000142e+01 9.968459890672546919e+01
2.800000000000000000e+01 9.864132879596105852e+01
2.840000000000000213e+01 9.762656812259209005e+01
2.880000000000000071e+01 9.663903501194499768e+01
2.920000000000000284e+01 9.567752719465580924e+01
2.960000000000000142e+01 9.474091573836257396e+01
3.000000000000000000e+01 9.382813937428979045e+01
3.040000000000000213e+01 9.293819935293014112e+01
3.080000000000000071e+01 9.207015477130852332e+01
3.120000000000000284e+01 9.122311832142820265e+01
3.160000000000000142e+01 9.039625241563021518e+01
3.200000000000000000e+01 8.995867398332241294e+01
3.240000000000000568e+01 8.919068629116968339e+01
3.279999999999999716e+01 8.844001179703377602e+01
3.320000000000000284e+01 8.770600669064010901e+01
3.360000000000000142e+01 8.698806034459673242e+01
3.400000000000000000e+01 8.628559313850099954e+01
3.440000000000000568e+01 8.559805445555286951e+01
3.479999999999999716e+01 8.476133537202184698e+01
3.520000000000000284e+01 8.414913881580983457e+01
3.560000000000000142e+01 8.354905759272266152e+01
3.600000000000000000e+01 8.296069458062019919e+01
3.640000000000000568e+01 8.238367074957673708e+01
3.679999999999999716e+01 8.372305065501383581e+01
3.720000000000000284e+01 8.324554229093153879e+01
3.760000000000000142e+01 8.277609422716761856e+01
3.800000000000000000e+01 8.231447862675696570e+01
3.840000000000000568e+01 8.186047665823002717e+01
3.879999999999999716e+01 8.141387803990589589e+01
3.920000000000000284e+01 8.097448061219260751e+01
3.960000000000000142e+01 8.054151566284271269e+01
4.000000000000000000e+01 8.011233729599712206e+01
4.040000000000000568e+01 7.968986871455712162e+01
4.079999999999999716e+01 7.927393412922094740e+01
4.120000000000000284e+01 7.886436419484626015e+01
4.160000000000000142e+01 7.846099570775164977e+01
4.200000000000000000e+01 7.806367132030561606e+01
4.239999999999999858e+01 7.767223927164349107e+01
4.280000000000000426e+01 7.728655313344266631e+01
4.320000000000000284e+01 7.690647156976683618e+01
4.360000000000000142e+01 7.653185811006548533e+01
4.400000000000000000e+01 7.616258093448118416e+01
4.439999999999999858e+01 7.579851267068205800e+01
4.480000000000000426e+01 7.543556711157837924e+01
4.520000000000000284e+01 7.506456909810798095e+01
4.560000000000000142e+01 7.469882804483664529e+01
4.600000000000000000e+01 7.433821899400817301e+01
4.639999999999999858e+01 7.398262115299270647e+01
4.680000000000000426e+01 7.363191771597240631e+01
4.720000000000000284e+01 7.328599569493100319e+01
4.760000000000000142e+01 7.294474575937613281e+01
4.800000000000000000e+01 7.260806208426342323e+01
4.840000000000000568e+01 7.227584220562799544e+01
4.880000000000000426e+01 7.194798688346382676e+01
4.920000000000000284e+01 7.162294564545797471e+01
4.960000000000000142e+01 7.133093270060847146e+01
5.000000000000000000e+01 7.100351960207008517e+01
5.040000000000000568e+01 7.068037249574908287e+01
5.080000000000000426e+01 7.036139861237911930e+01
5.120000000000000284e+01 7.004650800435187818e+01
5.160000000000000142e+01 6.973561343566085213e+01
5.200000000000000000e+01 6.942863027707269907e+01
5.240000000000000568e+01 6.912547640623361644e+01
5.280000000000000426e+01 6.882607211243745837e+01
5.320000000000000284e+01 6.853034000579980045e+01
5.360000000000000142e+01 6.823820493059783132e+01
5.400000000000000000e+01 6.794959388255124111e+01
5.440000000000000568e+01 6.766443592983350186e+01
5.480000000000000426e+01 6.738266213761517065e+01
5.520000000000000284e+01 6.710420549595349371e+01
5.560000000000000142e+01 6.682900085085366015e+01
5.600000000000000000e+01 6.655698483833761259e+01
5.640000000000000568e+01 6.628809582136577205e+01
5.680000000000000426e+01 6.602227382946658452e+01
5.720000000000000284e+01 6.575946050093666884e+01
5.760000000000000142e+01 6.549959902748339857e+01
5.800000000000000000e+01 6.524263410118778950e+01
5.840000000000000568e+01 6.498851186367342336e+01
5.880000000000000426e+01 6.473717985737354752e+01
5.920000000000000284e+01 6.490580368872457484e+01
5.960000000000000142e+01 6.466705469873423340e+01
6.000000000000000000e+01 6.443082897996147551e+01
6.040000000000000568e+01 6.419708193177817179e+01
6.080000000000000426e+01 6.396577005725490039e+01
6.120000000000000284e+01 6.373685092809983388e+01
6.160000000000000142e+01 6.351028315095582855e+01
6.200000000000000000e+01 6.328602633499321684e+01
6.240000000000000568e+01 6.306404106074023730e+01
6.280000000000000426e+01 6.284428885009497634e+01
6.320000000000000284e+01 6.262673213746602130e+01
6.360000000000000142e+01 6.241133424199220059e+01
6.400000000000000000e+01 6.219805934079335685e+01
6.440000000000000568e+01 6.198687244320728951e+01
6.480000000000001137e+01 6.177773936597009197e+01
6.520000000000000284e+01 6.157062670929904868e+01
6.559999999999999432e+01 6.136550183383938162e+01
6.600000000000000000e+01 6.116233283843830293e+01
6.640000000000000568e+01 6.096108853871108835e+01
6.680000000000001137e+01 6.076173844636617360e+01
6.720000000000000284e+01 6.056425274925721425e+01
6.759999999999999432e+01 6.088462618133367243e+01
6.800000000000000000e+01 6.069749507517587261e+01
6.840000000000000568e+01 6.051206451054366653e+01
6.880000000000001137e+01 6.032830844082033650e+01
6.920000000000000284e+01 6.014620138090391777e+01
6.959999999999999432e+01 5.996571839160175443e+01
7.000000000000000000e+01 5.978683506455607244e+01
7.040000000000000568e+01 5.960952750767841479e+01
7.080000000000001137e+01 5.943377233107334234e+01
7.120000000000000284e+01 5.927330258023293652e+01
7.159999999999999432e+01 5.910208956089763888e+01
7.200000000000000000e+01 5.893234691822926408e+01
7.240000000000000568e+01 5.876405336649827404e+01
7.280000000000001137e+01 5.859718805376631678e+01
7.320000000000000284e+01 5.843173055048669084e+01
7.359999999999999432e+01 5.826736839443582028e+01
7.400000000000000000e+01 5.810418925605337392e+01
7.440000000000000568e+01 5.794235691967654134e+01
7.479999999999999716e+01 5.778185268517564310e+01
7.520000000000000284e+01 5.762265821752746575e+01
7.560000000000000853e+01 5.746475553763048083e+01
7.600000000000000000e+01 5.730812701340298077e+01
7.640000000000000568e+01 5.715275535115342365e+01
7.679999999999999716e+01 5.699862358721319566e+01
7.720000000000000284e+01 5.684571507982260385e+01
7.760000000000000853e+01 5.669401350126062766e+01
7.800000000000000000e+01 5.654350283021020118e+01
7.840000000000000568e+01 5.639416734435038592e+01
7.879999999999999716e+01 5.624599161316773177e+01
7.920000000000000284e+01 5.609896049097880422e+01
7.960000000000000853e+01 5.595305911015698541e+01
8.000000000000000000e+01 5.580827287455621644e+01
8.040000000000000568e+01 5.566458745312472445e+01
8.079999999999999716e+01 5.552198877370297225e+01
8.120000000000000284e+01 5.538046301699857565e+01
8.160000000000000853e+01 5.523999661073295186e+01
8.200000000000000000e+01 5.510057622395378019e+01
8.240000000000000568e+01 5.496218876150734900e+01
8.279999999999999716e+01 5.482445509549348373e+01
8.320000000000000284e+01 5.468761997978607781e+01
8.360000000000000853e+01 5.455178467243463558e+01
8.400000000000000000e+01 5.441693689837659775e+01
8.440000000000000568e+01 5.428306459432336339e+01
8.479999999999999716e+01 5.415015590405472778e+01
8.520000000000000284e+01 5.401819917384129610e+01
8.560000000000000853e+01 5.388718294799056707e+01
8.600000000000000000e+01 5.375699367311462851e+01
8.640000000000000568e+01 5.362768876192977530e+01
8.680000000000001137e+01 5.349928419720277617e+01
8.720000000000000284e+01 5.337176948690066780e+01
8.760000000000000853e+01 5.324513431027721566e+01
8.800000000000000000e+01 5.311936851428076523e+01
8.840000000000000568e+01 5.299446211005393081e+01
8.880000000000001137e+01 5.287040526952256414e+01
8.920000000000000284e+01 5.274718832207108221e+01
8.960000000000000853e+01 5.262480175130169613e+01
9.000000000000000000e+01 5.250323619187513202e+01
9.040000000000000568e+01 5.238248242643018671e+01
9.080000000000001137e+01 5.223149718857855817e+01
9.120000000000000284e+01 5.211430089663557652e+01
9.160000000000000853e+01 5.199787422803399295e+01
9.200000000000000000e+01 5.188220870303523924e+01
9.240000000000000568e+01 5.176729597297982366e+01
9.280000000000001137e+01 5.165312781768102468e+01
9.320000000000000284e+01 5.153969614288213563e+01
9.360000000000000853e+01 5.142699297777488709e+01
9.400000000000000000e+01 5.131501047257795278e+01
9.440000000000000568e+01 5.120374089617322255e+01
9.480000000000001137e+01 5.109317663379860619e+01
9.520000000000000284e+01 5.098331018479562005e+01
9.560000000000000853e+01 5.087413416041020753e+01
9.600000000000000000e+01 5.076564128164551448e+01
9.640000000000000568e+01 5.066093176180748969e+01
9.680000000000001137e+01 5.055450325638766174e+01
9.720000000000000284e+01 5.044873088026231756e+01
9.760000000000000853e+01 5.034360784504572450e+01
9.800000000000000000e+01 5.023912746090245207e+01
9.840000000000000568e+01 5.013528313470676778e+01
9.880000000000001137e+01 5.003206836824429615e+01
9.920000000000000284e+01 4.992947675645439887e+01
9.960000000000000853e+01 4.982750198571235956e+01
1.000000000000000000e+02 4.972613783215021499e+01
1.004000000000000057e+02 4.962537816001542268e+01
1.008000000000000114e+02 4.952521692006595799e+01
1.012000000000000028e+02 4.942564814800144291e+01
1.016000000000000085e+02 4.932666596292873606e+01
1.020000000000000000e+02 4.922826456586156496e+01
1.024000000000000057e+02 4.913043823825314860e+01
1.028000000000000114e+02 4.903318134056080169e+01
1.032000000000000028e+02 4.893648831084196615e+01
1.036000000000000085e+02 4.884035366338071782e+01
1.040000000000000000e+02 4.874477198734386008e+01
1.044000000000000057e+02 4.864973794546617114e+01
1.048000000000000114e+02 4.855524627276359695e+01
1.052000000000000028e+02 4.846129177527421916e+01
1.056000000000000085e+02 4.836786932882577617e+01
1.060000000000000000e+02 4.827497387782956650e+01
1.064000000000000057e+02 4.818260043409953397e+01
1.068000000000000114e+02 4.809074407569640641e+01
1.072000000000000028e+02 4.799939994579600011e+01
1.076000000000000085e+02 4.790856325158119944e+01
1.080000000000000000e+02 4.781818344002329013e+01
1.084000000000000057e+02 4.770349554756242583e+01
1.088000000000000114e+02 4.761425395306087438e+01
1.092000000000000028e+02 4.752550577168861423e+01
1.096000000000000085e+02 4.743724640952542870e+01
1.100000000000000000e+02 4.734919579367820575e+01
1.104000000000000057e+02 4.726160457154468730e+01
1.108000000000000114e+02 4.717449064515537316e+01
1.112000000000000028e+02 4.708784963509821608e+01
1.116000000000000085e+02 4.700167721847178370e+01
1.120000000000000000e+02 4.691596912794583574e+01
1.124000000000000057e+02 4.683072115084078035e+01
1.128000000000000114e+02 4.674592912822588175e+01
1.132000000000000028e+02 4.666158895403572160e+01
1.136000000000000085e+02 4.657769657420425347e+01
1.140000000000000000e+02 4.649424798581652141e+01
1.144000000000000057e+02 4.641123923627683467e+01
1.148000000000000114e+02 4.632866642249406652e+01
1.152000000000000028e+02 4.624652569008254233e+01
1.156000000000000085e+02 4.616481323257906411e+01
1.160000000000000000e+02 4.608352529067525438e+01
1.164000000000000057e+02 4.600265815146478587e+01
1.168000000000000114e+02 4.592220814770553972e+01
1.172000000000000028e+02 4.584217165709598873e+01
1.176000000000000085e+02 4.576254510156560684e+01
1.180000000000000000e+02 4.568332494657901321e+01
1.184000000000000057e+02 4.560450770045347468e+01
1.188000000000000114e+02 4.552608991368962421e+01
1.192000000000000028e+02 4.544806817831471335e+01
1.196000000000000085e+02 4.537043912723861894e+01
1.200000000000000000e+02 4.529319943362201428e+01
1.204000000000000057e+02 4.521634581025629984e+01
1.208000000000000114e+02 4.513987500895552074e+01
1.212000000000000028e+02 4.506378381995941851e+01
1.216000000000000085e+02 4.498806907134781596e+01
1.220000000000000000e+02 4.491272762846593025e+01
1.224000000000000057e+02 4.483775639336018770e+01
1.228000000000000114e+02 4.476315230422473945e+01
1.232000000000000028e+02 4.468891233485796022e+01
1.236000000000000085e+02 4.461503349412913622e+01
1.240000000000000000e+02 4.454151282545472412e+01
1.244000000000000057e+02 4.446834740628430893e+01
1.248000000000000114e+02 4.439553434759600492e+01
1.252000000000000028e+02 4.432759039756295749e+01
1.256000000000000085e+02 4.425587540716308865e+01
1.260000000000000000e+02 4.418450222012511830e+01
1.264000000000000057e+02 4.411346809495032062e+01
1.268000000000000114e+02 4.404277032105938616e+01
1.272000000000000028e+02 4.397240621834318830e+01
1.276000000000000085e+02 4.390237313672135144e+01
1.280000000000000000e+02 4.383266845570876313e+01
1.284000000000000057e+02 4.376328958398967472e+01
1.288000000000000114e+02 4.372553548013063818e+01
1.291999999999999886e+02 4.365773900385318029e+01
1.296000000000000227e+02 4.359025468333031483e+01
1.300000000000000000e+02 4.352308009645128095e+01
1.304000000000000057e+02 4.345621284754952285e+01
1.308000000000000114e+02 4.338965056703047907e+01
1.311999999999999886e+02 4.332317478084198115e+01
1.316000000000000227e+02 4.325664216655993499e+01
1.320000000000000000e+02 4.319041046621768487e+01
1.324000000000000057e+02 4.312447739021303761e+01
1.328000000000000114e+02 4.305884067343544785e+01
1.331999999999999886e+02 4.299349807492838949e+01
1.336000000000000227e+02 4.292844737755746110e+01
1.340000000000000000e+02 4.286368638768422556e+01
1.344000000000000057e+02 4.279921293484524369e+01
1.348000000000000114e+02 4.273502487143672113e+01
1.351999999999999886e+02 4.267112007240427829e+01
1.356000000000000227e+02 4.260749643493785754e+01
1.360000000000000000e+02 4.254415187817178889e+01
1.364000000000000057e+02 4.248108434288967317e+01
1.368000000000000114e+02 4.241829179123424609e+01
1.371999999999999886e+02 4.235577220642188934e+01
1.376000000000000227e+02 4.229352359246189508e+01
1.380000000000000000e+02 4.223154397388027803e+01
1.384000000000000057e+02 4.216983139544799997e+01
1.388000000000000114e+02 4.210838392191377011e+01
1.392000000000000171e+02 4.204719963774100933e+01
1.395999999999999943e+02 4.198627664684909178e+01
1.400000000000000000e+02 4.192561307235877877e+01
1.404000000000000057e+02 4.186520705634167427e+01
1.408000000000000114e+02 4.180492170108919936e+01
1.412000000000000171e+02 4.174488561436279355e+01
1.415999999999999943e+02 4.168510220546633604e+01
1.420000000000000000e+02 4.162556968567221816e+01
1.424000000000000057e+02 4.156628628405063353e+01
1.428000000000000114e+02 4.150725024724143708e+01
1.432000000000000171e+02 4.144845983922960642e+01
1.435999999999999943e+02 4.138991334112424170e+01
1.440000000000000000e+02 4.133160905094088378e+01
1.444000000000000057e+02 4.127354528338742057e+01
1.448000000000000114e+02 4.121572036965311270e+01
1.452000000000000171e+02 4.115813265720103686e+01
1.455999999999999943e+02 4.110078050956361295e+01
1.460000000000000000e+02 4.104366230614132149e+01
1.464000000000000057e+02 4.098677644200454040e+01
1.468000000000000114e+02 4.093012132769835887e+01
1.472000000000000171e+02 4.087369538905032584e+01
1.475999999999999943e+02 4.081749706698126090e+01
1.480000000000000000e+02 4.076152481731880073e+01
1.484000000000000057e+02 4.070577711061376647e+01
1.488000000000000114e+02 4.065025243195943006e+01
1.492000000000000171e+02 4.059484117869090625e+01
1.495999999999999943e+02 4.053955352069124274e+01
1.500000000000000000e+02 4.048448537110934353e+01
