1.000000000000000000e+01 4.502371942448085065e+02
1.040000000000000036e+01 4.798075725019434685e+02
1.080000000000000071e+01 5.252479229470130804e+02
1.119999999999999929e+01 5.706219846510956586e+02
1.159999999999999964e+01 5.893590781443817832e+02
1.200000000000000000e+01 6.024414044484606165e+02
1.240000000000000036e+01 6.124021210524265371e+02
1.280000000000000071e+01 6.286708877917350264e+02
1.319999999999999929e+01 6.588715793208396008e+02
1.359999999999999964e+01 6.727171894323552124e+02
1.400000000000000000e+01 6.881791371655414196e+02
1.440000000000000036e+01 6.755604558500285748e+02
1.480000000000000071e+01 6.637577325516101610e+02
1.519999999999999929e+01 6.526798732618528902e+02
1.560000000000000142e+01 6.422500761210753808e+02
1.600000000000000000e+01 6.324029774786298503e+02
1.639999999999999858e+01 6.230824818569909667e+02
1.680000000000000071e+01 6.142400866426544326e+02
1.719999999999999929e+01 6.058335710991409542e+02
1.760000000000000142e+01 5.978259579708845877e+02
1.800000000000000000e+01 5.901846819729227036e+02
1.839999999999999858e+01 5.828809173318685453e+02
1.880000000000000071e+01 5.758890290384068749e+02
1.920000000000000284e+01 5.691861213519571265e+02
1.960000000000000142e+01 5.627516635044935356e+02
2.000000000000000000e+01 5.565671772353771303e+02
2.039999999999999858e+01 5.506159742581007777e+02
2.080000000000000071e+01 5.448829343582546016e+02
2.120000000000000284e+01 5.393543167891053827e+02
2.160000000000000142e+01 5.340175991350168943e+02
2.200000000000000000e+01 5.288613389731972347e+02
2.239999999999999858e+01 5.238750545670729934e+02
2.280000000000000071e+01 5.190491215327076588e+02
2.320000000000000284e+01 5.143746829792202107e+02
2.360000000000000142e+01 5.098435710694182035e+02
2.400000000000000000e+01 5.054482383034868462e+02
2.439999999999999858e+01 5.011816971160118328e+02
2.480000000000000071e+01 4.970374666096133183e+02
2.520000000000000284e+01 4.930095254384153804e+02
2.560000000000000142e+01 4.890922700102044018e+02
2.600000000000000000e+01 4.852804773043046680e+02
2.640000000000000213e+01 4.815692717082357603e+02
2.680000000000000071e+01 4.779540953643519856e+02
2.719999999999999929e+01 4.744306815912157731e+02
2.760000000000000142e+01 4.709950310061014989e+02
2.800000000000000000e+01 4.676433900268880279e+02
2.840000000000000213e+01 4.643722314753838987e+02
2.880000000000000071e+01 4.611782370412396403e+02
2.920000000000000284e+01 4.580582813971555538e+02
2.960000000000000142e+01 4.550094177830073363e+02
3.000000000000000000e+01 4.520288648995447716e+02
3.040000000000000213e+01 4.491139949720896425e+02
3.080000000000000071e+01 4.462623228616733968e+02
3.120000000000000284e+01 4.434714961157425250e+02
3.160000000000000142e+01 4.407392858632738353e+02
3.200000000000000000e+01 4.380635784701670445e+02
3.240000000000000568e+01 4.354423678803810844e+02
3.279999999999999716e+01 4.328737485766414466e+02
3.320000000000000284e+01 4.303559091018571507e+02
3.360000000000000142e+01 4.278871260887921153e+02
3.400000000000000000e+01 4.254657587511513839e+02
3.440000000000000568e+01 4.230902437941883250e+02
3.479999999999999716e+01 4.207590907072981281e+02
3.520000000000000284e+01 4.184708774049063322e+02
3.560000000000000142e+01 4.162242461853685427e+02
3.600000000000000000e+01 4.140178999806142883e+02
3.640000000000000568e+01 4.118505988719466586e+02
3.679999999999999716e+01 4.097211568497925214e+02
3.720000000000000284e+01 4.076284387973239518e+02
3.760000000000000142e+01 4.055713576797618316e+02
3.800000000000000000e+01 4.035488719228707737e+02
3.840000000000000568e+01 4.015599829656704287e+02
3.879999999999999716e+01 3.996037329737432060e+02
3.920000000000000284e+01 3.976792027007447814e+02
3.960000000000000142e+01 3.957855094868178867e+02
4.000000000000000000e+01 3.939218053835983824e+02
4.040000000000000568e+01 3.920872753963947162e+02
4.079999999999999716e+01 3.902811358349227930e+02
4.120000000000000284e+01 3.885026327647104836e+02
4.160000000000000142e+01 3.867510405519377628e+02
4.200000000000000000e+01 3.850256604950793644e+02
4.239999999999999858e+01 3.833258195372549153e+02
4.280000000000000426e+01 3.816508690536832091e+02
4.320000000000000284e+01 3.800001837090837853e+02
4.360000000000000142e+01 3.783731603802766017e+02
4.400000000000000000e+01 3.767692171395974015e+02
4.439999999999999858e+01 3.751877922950905599e+02
4.480000000000000426e+01 3.736283434837403092e+02
4.520000000000000284e+01 3.720903468142947759e+02
4.560000000000000142e+01 3.705732960564831728e+02
4.600000000000000000e+01 3.690767018736726186e+02
4.639999999999999858e+01 3.676000910962219450e+02
4.680000000000000426e+01 3.661430060329898879e+02
4.720000000000000284e+01 3.647050038186375787e+02
4.760000000000000142e+01 3.632856557945349323e+02
4.800000000000000000e+01 3.618845469212294574e+02
4.840000000000000568e+01 3.605012752205845459e+02
4.880000000000000426e+01 3.591354512458208887e+02
4.920000000000000284e+01 3.577866975778154028e+02
4.960000000000000142e+01 3.564546483461267599e+02
5.000000000000000000e+01 3.551389487733149508e+02
5.040000000000000568e+01 3.538392547412215663e+02
5.080000000000000426e+01 3.525552323779617723e+02
5.120000000000000284e+01 3.512865576644635439e+02
5.160000000000000142e+01 3.500329160594634459e+02
5.200000000000000000e+01 3.487940021419371988e+02
5.240000000000000568e+01 3.475695192700114262e+02
5.280000000000000426e+01 3.463591792554595941e+02
5.320000000000000284e+01 3.451627020529430183e+02
5.360000000000000142e+01 3.439798154632097180e+02
5.400000000000000000e+01 3.428102548495119777e+02
5.440000000000000568e+01 3.416537628665476518e+02
5.480000000000000426e+01 3.405100892012740701e+02
5.520000000000000284e+01 3.393789903249809186e+02
5.560000000000000142e+01 3.382602292560448518e+02
5.600000000000000000e+01 3.371535753328237206e+02
5.640000000000000568e+01 3.360588039961791083e+02
5.680000000000000426e+01 3.349756965811453711e+02
5.720000000000000284e+01 3.339040401172927659e+02
5.760000000000000142e+01 3.328436271373541899e+02
5.800000000000000000e+01 3.317942554937151272e+02
5.840000000000000568e+01 3.307557281823832227e+02
5.880000000000000426e+01 3.297278531740788594e+02
5.920000000000000284e+01 3.287104432521072113e+02
5.960000000000000142e+01 3.277033158566897555e+02
6.000000000000000000e+01 3.267062929354520975e+02
6.040000000000000568e+01 3.257192007997807650e+02
6.080000000000000426e+01 3.247418699867774876e+02
6.120000000000000284e+01 3.237741351265522098e+02
6.160000000000000142e+01 3.228158348146137655e+02
6.200000000000000000e+01 3.218668114891240748e+02
6.240000000000000568e+01 3.209269113127994046e+02
6.280000000000000426e+01 3.199959840592508158e+02
6.320000000000000284e+01 3.190738830035646174e+02
6.360000000000000142e+01 3.181604648169403049e+02
6.400000000000000000e+01 3.172555894652039683e+02
6.440000000000000568e+01 3.163591201110318707e+02
6.480000000000001137e+01 3.154709230197232159e+02
6.520000000000000284e+01 3.145908674683697086e+02
6.559999999999999432e+01 3.137188256582776376e+02
6.600000000000000000e+01 3.128546726305053198e+02
6.640000000000000568e+01 3.119982861843845967e+02
6.680000000000001137e+01 3.111495467989022359e+02
6.720000000000000284e+01 3.103083375568222095e+02
6.759999999999999432e+01 3.094745440714369806e+02
6.800000000000000000e+01 3.086480544158392831e+02
6.840000000000000568e+01 3.078287590546127603e+02
6.880000000000001137e+01 3.070165507778431220e+02
6.920000000000000284e+01 3.062113246373573929e+02
6.959999999999999432e+01 3.054129778851017818e+02
7.000000000000000000e+01 3.046214099135740412e+02
7.040000000000000568e+01 3.038365221982290905e+02
7.080000000000001137e+01 3.030582182417809918e+02
7.120000000000000284e+01 3.022864035203268713e+02
7.159999999999999432e+01 3.015209854312233801e+02
7.200000000000000000e+01 3.007618732426478800e+02
7.240000000000000568e+01 3.000089780447795533e+02
7.280000000000001137e+01 2.992622127025401824e+02
7.320000000000000284e+01 2.985214918098345152e+02
7.359999999999999432e+01 2.977867316452347950e+02
7.400000000000000000e+01 2.970578501290552254e+02
7.440000000000000568e+01 2.963347667817653814e+02
7.479999999999999716e+01 2.956174026836926032e+02
7.520000000000000284e+01 2.949056804359665875e+02
7.560000000000000853e+01 2.941995241226604207e+02
7.600000000000000000e+01 2.934988592740861577e+02
7.640000000000000568e+01 2.928036128312012352e+02
7.679999999999999716e+01 2.921137131110880887e+02
7.720000000000000284e+01 2.914290897734666714e+02
7.760000000000000853e+01 2.907496737882060529e+02
7.800000000000000000e+01 2.900753974037967851e+02
7.840000000000000568e+01 2.894061941167529426e+02
7.879999999999999716e+01 2.887419986419101292e+02
7.920000000000000284e+01 2.880827468835888112e+02
7.960000000000000853e+01 2.874283759075937610e+02
8.000000000000000000e+01 2.867788239140194833e+02
8.040000000000000568e+01 2.861340302108360447e+02
8.079999999999999716e+01 2.854939351882271694e+02
8.120000000000000284e+01 2.848584802936570100e+02
8.160000000000000853e+01 2.842276080076392191e+02
8.200000000000000000e+01 2.836012618201866644e+02
8.240000000000000568e+01 2.829793862079179121e+02
8.279999999999999716e+01 2.823619266117997881e+02
8.320000000000000284e+01 2.817488294155047015e+02
8.360000000000000853e+01 2.811400419243623219e+02
8.400000000000000000e+01 2.805355123448875929e+02
8.440000000000000568e+01 2.799351897648638214e+02
8.479999999999999716e+01 2.793390241339666886e+02
8.520000000000000284e+01 2.787469662449090038e+02
8.560000000000000853e+01 2.781589677150902276e+02
8.600000000000000000e+01 2.775749809687357015e+02
8.640000000000000568e+01 2.769949592195094965e+02
8.680000000000001137e+01 2.764188564535858177e+02
8.720000000000000284e+01 2.758466274131651517e+02
8.760000000000000853e+01 2.752782275804210030e+02
8.800000000000000000e+01 2.747136131618643162e+02
8.840000000000000568e+01 2.741527410731125656e+02
8.880000000000001137e+01 2.735955689240503830e+02
8.920000000000000284e+01 2.730420550043712637e+02
8.960000000000000853e+01 2.724921582694875610e+02
9.000000000000000000e+01 2.719458383267986505e+02
9.040000000000000568e+01 2.714030554223053286e+02
9.080000000000001137e+01 2.708637704275614624e+02
9.120000000000000284e+01 2.703279448269512955e+02
9.160000000000000853e+01 2.697955407052849637e+02
9.200000000000000000e+01 2.692665207357000554e+02
9.240000000000000568e+01 2.687408481678631915e+02
9.280000000000001137e+01 2.682184868164601994e+02
9.320000000000000284e+01 2.676994010499685714e+02
9.360000000000000853e+01 2.671835557797026581e+02
9.400000000000000000e+01 2.666709164491248316e+02
9.440000000000000568e+01 2.661614490234138657e+02
9.480000000000001137e+01 2.656551199792841658e+02
9.520000000000000284e+01 2.651518962950483456e+02
9.560000000000000853e+01 2.646517454409160450e+02
9.600000000000000000e+01 2.641546353695229072e+02
9.640000000000000568e+01 2.636605345066828363e+02
9.680000000000001137e+01 2.631694117423568855e+02
9.720000000000000284e+01 2.626812364218342850e+02
9.760000000000000853e+01 2.621959783371179356e+02
9.800000000000000000e+01 2.617136077185099339e+02
9.840000000000000568e+01 2.612340952263911049e+02
9.880000000000001137e+01 2.607574119431894815e+02
9.920000000000000284e+01 2.602835293655325586e+02
9.960000000000000853e+01 2.598124193965780933e+02
1.000000000000000000e+02 2.593440543385194132e+02
1.004000000000000057e+02 2.588784068852590963e+02
1.008000000000000114e+02 2.584154501152486318e+02
1.012000000000000028e+02 2.579551574844873585e+02
1.016000000000000085e+02 2.574975028196778908e+02
1.020000000000000000e+02 2.570424603115341142e+02
1.024000000000000057e+02 2.565900045082363476e+02
1.028000000000000114e+02 2.561401103090312859e+02
1.032000000000000028e+02 2.556927529579721750e+02
1.036000000000000085e+02 2.552479080377952414e+02
1.040000000000000000e+02 2.548055514639305557e+02
1.044000000000000057e+02 2.543656594786413052e+02
1.048000000000000114e+02 2.539282086452904537e+02
1.052000000000000028e+02 2.534931758427302668e+02
1.056000000000000085e+02 2.530605382598120627e+02
1.060000000000000000e+02 2.526302733900130875e+02
1.064000000000000057e+02 2.522023590261773052e+02
1.068000000000000114e+02 2.517767732553676865e+02
1.072000000000000028e+02 2.513534944538265563e+02
1.076000000000000085e+02 2.509325012820424092e+02
1.080000000000000000e+02 2.505137726799191000e+02
1.084000000000000057e+02 2.500972878620461870e+02
1.088000000000000114e+02 2.496830263130668754e+02
1.092000000000000028e+02 2.492709677831421686e+02
1.096000000000000085e+02 2.488610922835081283e+02
1.100000000000000000e+02 2.484533800821242835e+02
1.104000000000000057e+02 2.480478116994107154e+02
1.108000000000000114e+02 2.476443679040722827e+02
1.112000000000000028e+02 2.472430297090072031e+02
1.116000000000000085e+02 2.468437783672980004e+02
1.120000000000000000e+02 2.464465953682841928e+02
1.124000000000000057e+02 2.460514624337118335e+02
1.128000000000000114e+02 2.456583615139621202e+02
1.132000000000000028e+02 2.452672747843529635e+02
1.136000000000000085e+02 2.448781846415155883e+02
1.140000000000000000e+02 2.444910736998413370e+02
1.144000000000000057e+02 2.441059247879991858e+02
1.148000000000000114e+02 2.437227209455212744e+02
1.152000000000000028e+02 2.433414454194549705e+02
1.156000000000000085e+02 2.429620816610803899e+02
1.160000000000000000e+02 2.425846133226912116e+02
1.164000000000000057e+02 2.422090242544378498e+02
1.168000000000000114e+02 2.418352985012315344e+02
1.172000000000000028e+02 2.414634202997074510e+02
1.176000000000000085e+02 2.410933740752459471e+02
1.180000000000000000e+02 2.407251444390509505e+02
1.184000000000000057e+02 2.403587161852830718e+02
1.188000000000000114e+02 2.399940742882474751e+02
1.192000000000000028e+02 2.396312038996344143e+02
1.196000000000000085e+02 2.392700903458117523e+02
1.200000000000000000e+02 2.389107191251681286e+02
1.204000000000000057e+02 2.385530759055054091e+02
1.208000000000000114e+02 2.381971465214798798e+02
1.212000000000000028e+02 2.378429169720908192e+02
1.216000000000000085e+02 2.374903734182149719e+02
1.220000000000000000e+02 2.371395021801869234e+02
1.224000000000000057e+02 2.367902897354232437e+02
1.228000000000000114e+02 2.364427227160908274e+02
1.232000000000000028e+02 2.360967879068165303e+02
1.236000000000000085e+02 2.357524722424394099e+02
1.240000000000000000e+02 2.354097628058028704e+02
1.244000000000000057e+02 2.350686468255869954e+02
1.248000000000000114e+02 2.347291116741795918e+02
1.252000000000000028e+02 2.343911448655854315e+02
1.256000000000000085e+02 2.340547340533727549e+02
1.260000000000000000e+02 2.337198670286560400e+02
1.264000000000000057e+02 2.333865317181149521e+02
1.268000000000000114e+02 2.330547161820479118e+02
1.272000000000000028e+02 2.327244086124601381e+02
1.276000000000000085e+02 2.323955973311850585e+02
1.280000000000000000e+02 2.320682707880384328e+02
1.284000000000000057e+02 2.317424175590052471e+02
1.288000000000000114e+02 2.314180263444574166e+02
1.291999999999999886e+02 2.310950859674028095e+02
1.296000000000000227e+02 2.307735853717638292e+02
1.300000000000000000e+02 2.304535136206867492e+02
1.304000000000000057e+02 2.301348598948789004e+02
1.308000000000000114e+02 2.298176134909748782e+02
1.311999999999999886e+02 2.295017638199306020e+02
1.316000000000000227e+02 2.291873004054439775e+02
1.320000000000000000e+02 2.288742128824035262e+02
1.324000000000000057e+02 2.285624909953620545e+02
1.328000000000000114e+02 2.282521245970363850e+02
1.331999999999999886e+02 2.279431036468324692e+02
1.336000000000000227e+02 2.276354182093947713e+02
1.340000000000000000e+02 2.273290584531804370e+02
1.344000000000000057e+02 2.270240146490562836e+02
1.348000000000000114e+02 2.267202771689197220e+02
1.351999999999999886e+02 2.264178364843419899e+02
1.356000000000000227e+02 2.261166831652344058e+02
1.360000000000000000e+02 2.258168078785354851e+02
1.364000000000000057e+02 2.255182013869205662e+02
1.368000000000000114e+02 2.252208545475314736e+02
1.371999999999999886e+02 2.249247583107280093e+02
1.376000000000000227e+02 2.246299037188584293e+02
1.380000000000000000e+02 2.243362819050509529e+02
1.384000000000000057e+02 2.240438840920236601e+02
1.388000000000000114e+02 2.237527015909145121e+02
1.392000000000000171e+02 2.234627258001292205e+02
1.395999999999999943e+02 2.231739482042083011e+02
1.400000000000000000e+02 2.228863603727116072e+02
1.404000000000000057e+02 2.225999539591205689e+02
1.408000000000000114e+02 2.223147206997585954e+02
1.412000000000000171e+02 2.220306524127271359e+02
1.415999999999999943e+02 2.217477409968598181e+02
1.420000000000000000e+02 2.214659784306923029e+02
1.424000000000000057e+02 2.211853567714481983e+02
1.428000000000000114e+02 2.209058681540410873e+02
1.432000000000000171e+02 2.206275047900920185e+02
1.435999999999999943e+02 2.203502589669621727e+02
1.440000000000000000e+02 2.200741230468003096e+02
1.444000000000000057e+02 2.197990894656052205e+02
1.448000000000000114e+02 2.195251507323023930e+02
1.452000000000000171e+02 2.192522994278349131e+02
1.455999999999999943e+02 2.189805282042681540e+02
1.460000000000000000e+02 2.187098297839082761e+02
1.464000000000000057e+02 2.184401969584338303e+02
1.468000000000000114e+02 2.181716225880410889e+02
1.472000000000000171e+02 2.179040996006014552e+02
1.475999999999999943e+02 2.176376209908323744e+02
1.480000000000000000e+02 2.173721798194802943e+02
1.484000000000000057e+02 2.171077692125157341e+02
1.488000000000000114e+02 2.168443823603410294e+02
1.492000000000000171e+02 2.165820125170088204e+02
1.495999999999999943e+02 2.163206529994533298e+02
1.500000000000000000e+02 2.160602971867321003e+02
