1.000000000000000000e+01 5.987829008199120153e+02
1.040000000000000036e+01 6.677172090698661577e+02
1.080000000000000071e+01 7.128394361141297395e+02
1.119999999999999929e+01 7.526265438057465644e+02
1.159999999999999964e+01 8.082164230793064235e+02
1.200000000000000000e+01 8.479998712734542323e+02
1.240000000000000036e+01 8.521230487669766944e+02
1.280000000000000071e+01 9.302446905773534809e+02
1.319999999999999929e+01 9.587071047374172394e+02
1.359999999999999964e+01 1.010987611676962615e+03
1.400000000000000000e+01 1.009213313465594069e+03
1.440000000000000036e+01 9.894809706868168178e+02
1.480000000000000071e+01 9.710559726421175810e+02
1.519999999999999929e+01 9.537912181398555731e+02
1.560000000000000142e+01 9.375626479454141418e+02
1.600000000000000000e+01 9.222646795120676870e+02
1.639999999999999858e+01 9.078067226713799300e+02
1.680000000000000071e+01 8.941104816490021676e+02
1.719999999999999929e+01 8.811078388097752168e+02
1.760000000000000142e+01 8.687391753188313714e+02
1.800000000000000000e+01 8.569520244481770987e+02
1.839999999999999858e+01 8.456999812808214756e+02
1.880000000000000071e+01 8.349418122689650090e+02
1.920000000000000284e+01 8.246407221760966877e+02
1.960000000000000142e+01 8.147637461284650726e+02
2.000000000000000000e+01 8.052812419846763987e+02
2.039999999999999858e+01 7.961664637909964313e+02
2.080000000000000071e+01 7.873952012651282075e+02
2.120000000000000284e+01 7.789454734195070387e+02
2.160000000000000142e+01 7.707972668623165191e+02
2.200000000000000000e+01 7.629323111903768222e+02
2.239999999999999858e+01 7.553338853500155210e+02
2.280000000000000071e+01 7.479866499901966108e+02
2.320000000000000284e+01 7.408765017404807622e+02
2.360000000000000142e+01 7.339904460698500088e+02
2.400000000000000000e+01 7.273164859623580014e+02
2.439999999999999858e+01 7.208435241132806368e+02
2.480000000000000071e+01 7.145612767288095029e+02
2.520000000000000284e+01 7.084601973217111208e+02
2.560000000000000142e+01 7.025314091489731254e+02
2.600000000000000000e+01 6.967666451463594512e+02
2.640000000000000213e+01 6.911581943876635705e+02
2.680000000000000071e+01 6.856988542401337554e+02
2.719999999999999929e+01 6.803818875074846346e+02
2.760000000000000142e+01 6.752009839524137078e+02
2.800000000000000000e+01 6.701502256751014102e+02
2.840000000000000213e+01 6.652240558955644474e+02
2.880000000000000071e+01 6.604172507482235233e+02
2.920000000000000284e+01 6.557248937484802127e+02
2.960000000000000142e+01 6.511423526349525446e+02
3.000000000000000000e+01 6.466652583285534774e+02
3.040000000000000213e+01 6.422894857817922230e+02
3.080000000000000071e+01 6.380111365193927213e+02
3.120000000000000284e+01 6.338265226952328248e+02
3.160000000000000142e+01 6.297321525112967038e+02
3.200000000000000000e+01 6.257247168622806157e+02
3.240000000000000568e+01 6.218010770850917197e+02
3.279999999999999716e+01 6.179582537060899767e+02
3.320000000000000284e+01 6.141934160907884461e+02
3.360000000000000142e+01 6.105038729111538487e+02
3.400000000000000000e+01 6.068870633547553552e+02
3.440000000000000568e+01 6.033405490080504023e+02
3.479999999999999716e+01 5.998620063531615187e+02
3.520000000000000284e+01 5.964492198237406910e+02
3.560000000000000142e+01 5.931000753710402478e+02
3.600000000000000000e+01 5.898125544961981177e+02
3.640000000000000568e+01 5.865847287090884947e+02
3.679999999999999716e+01 5.834147543779490661e+02
3.720000000000000284e+01 5.803008679374294161e+02
3.760000000000000142e+01 5.772413814257831746e+02
3.800000000000000000e+01 5.742346783246500763e+02
3.840000000000000568e+01 5.712792096773409867e+02
3.879999999999999716e+01 5.683734904637281034e+02
3.920000000000000284e+01 5.655160962118143289e+02
3.960000000000000142e+01 5.627056598278351203e+02
4.000000000000000000e+01 5.599408686283283032e+02
4.040000000000000568e+01 5.572204615590620733e+02
4.079999999999999716e+01 5.545432265869899311e+02
4.120000000000000284e+01 5.519079982525868218e+02
4.160000000000000142e+01 5.493136553709766758e+02
4.200000000000000000e+01 5.467591188712167423e+02
4.239999999999999858e+01 5.442433497639831330e+02
4.280000000000000426e+01 5.417653472286879150e+02
4.320000000000000284e+01 5.393241468117731756e+02
4.360000000000000142e+01 5.369188187285902814e+02
4.400000000000000000e+01 5.345484662618576976e+02
4.439999999999999858e+01 5.322122242502413201e+02
4.480000000000000426e+01 5.299092576610914875e+02
4.520000000000000284e+01 5.276387602418278675e+02
4.560000000000000142e+01 5.253999532448727905e+02
4.600000000000000000e+01 5.231920842214168488e+02
4.639999999999999858e+01 5.210144258796453869e+02
4.680000000000000426e+01 5.188662750033724933e+02
4.720000000000000284e+01 5.167469514273244613e+02
4.760000000000000142e+01 5.146557970655788949e+02
4.800000000000000000e+01 5.125921749899165434e+02
4.840000000000000568e+01 5.105554685550683303e+02
4.880000000000000426e+01 5.085450805680487747e+02
4.920000000000000284e+01 5.065604324989627685e+02
4.960000000000000142e+01 5.046009637308456490e+02
5.000000000000000000e+01 5.026661308462681177e+02
5.040000000000000568e+01 5.007554069485821060e+02
5.080000000000000426e+01 4.988682810158283019e+02
5.120000000000000284e+01 4.970042572854562763e+02
5.160000000000000142e+01 4.951628546681259309e+02
5.200000000000000000e+01 4.933436061889724442e+02
5.240000000000000568e+01 4.915460584548196721e+02
5.280000000000000426e+01 4.897697711459237553e+02
5.320000000000000284e+01 4.880143165309156643e+02
5.360000000000000142e+01 4.862792790036966153e+02
5.400000000000000000e+01 4.845642546411170315e+02
5.440000000000000568e+01 4.828688507803386187e+02
5.480000000000000426e+01 4.811926856148499496e+02
5.520000000000000284e+01 4.795353878081643302e+02
5.560000000000000142e+01 4.778965961242889193e+02
5.600000000000000000e+01 4.762759590741083002e+02
5.640000000000000568e+01 4.746731345768733945e+02
5.680000000000000426e+01 4.730877896360365185e+02
5.720000000000000284e+01 4.715196000287174911e+02
5.760000000000000142e+01 4.699682500081219132e+02
5.800000000000000000e+01 4.684334320182800298e+02
5.840000000000000568e+01 4.669148464205006803e+02
5.880000000000000426e+01 4.654122012309762795e+02
5.920000000000000284e+01 4.639252118690019984e+02
5.960000000000000142e+01 4.624536009153032410e+02
6.000000000000000000e+01 4.609970978799931345e+02
6.040000000000000568e+01 4.595554389797093791e+02
6.080000000000000426e+01 4.581283669234991294e+02
6.120000000000000284e+01 4.567156307070503658e+02
6.160000000000000142e+01 4.553169854148852096e+02
6.200000000000000000e+01 4.539321920301512705e+02
6.240000000000000568e+01 4.525610172516682042e+02
6.280000000000000426e+01 4.512032333179023453e+02
6.320000000000000284e+01 4.498586178375609848e+02
6.360000000000000142e+01 4.485269536265117836e+02
6.400000000000000000e+01 4.472080285507505550e+02
6.440000000000000568e+01 4.459016353751499651e+02
6.480000000000001137e+01 4.446075716177428490e+02
6.520000000000000284e+01 4.433256394092960591e+02
6.559999999999999432e+01 4.420556453579525851e+02
6.600000000000000000e+01 4.407974004187240666e+02
6.640000000000000568e+01 4.395507197676300848e+02
6.680000000000001137e+01 4.383154226802868152e+02
6.720000000000000284e+01 4.370913324147628032e+02
6.759999999999999432e+01 4.358782760985224627e+02
6.800000000000000000e+01 4.346760846192900658e+02
6.840000000000000568e+01 4.334845925196736971e+02
6.880000000000001137e+01 4.323036378953969461e+02
6.920000000000000284e+01 4.311330622969917385e+02
6.959999999999999432e+01 4.299727106348135521e+02
7.000000000000000000e+01 4.288224310872481624e+02
7.040000000000000568e+01 4.276820750119809986e+02
7.080000000000001137e+01 4.265514968602104204e+02
7.120000000000000284e+01 4.254305540936887269e+02
7.159999999999999432e+01 4.243191071044816454e+02
7.200000000000000000e+01 4.232170191373407420e+02
7.240000000000000568e+01 4.221241562145881971e+02
7.280000000000001137e+01 4.210403870634187342e+02
7.320000000000000284e+01 4.199655830455264436e+02
7.359999999999999432e+01 4.188996180889686798e+02
7.400000000000000000e+01 4.178423686221831872e+02
7.440000000000000568e+01 4.167937135100791011e+02
7.479999999999999716e+01 4.157535339921229252e+02
7.520000000000000284e+01 4.147217136223481475e+02
7.560000000000000853e+01 4.136981382112165306e+02
7.600000000000000000e+01 4.126826957692646829e+02
7.640000000000000568e+01 4.116752764524693475e+02
7.679999999999999716e+01 4.106757725092729743e+02
7.720000000000000284e+01 4.096840782292056815e+02
7.760000000000000853e+01 4.087000898930507446e+02
7.800000000000000000e+01 4.077237057244965968e+02
7.840000000000000568e+01 4.067548258432235571e+02
7.879999999999999716e+01 4.057933522193750946e+02
7.920000000000000284e+01 4.048391886293659923e+02
7.960000000000000853e+01 4.038922406129801175e+02
8.000000000000000000e+01 4.029524154317131774e+02
8.040000000000000568e+01 4.020196220283199864e+02
8.079999999999999716e+01 4.010937709875221344e+02
8.120000000000000284e+01 4.001747744978387118e+02
8.160000000000000853e+01 3.992625463145021172e+02
8.200000000000000000e+01 3.983570017234215470e+02
8.240000000000000568e+01 3.974580575061601166e+02
8.279999999999999716e+01 3.965656319058911095e+02
8.320000000000000284e+01 3.956796445943029426e+02
8.360000000000000853e+01 3.948000166394184021e+02
8.400000000000000000e+01 3.939266704743023979e+02
8.440000000000000568e+01 3.930595298666240751e+02
8.479999999999999716e+01 3.921985198890524771e+02
8.520000000000000284e+01 3.913435668904519957e+02
8.560000000000000853e+01 3.904945984678568607e+02
8.600000000000000000e+01 3.896515434391973827e+02
8.640000000000000568e+01 3.888143318167551570e+02
8.680000000000001137e+01 3.879828947813246032e+02
8.720000000000000284e+01 3.871571646570565690e+02
8.760000000000000853e+01 3.863370748869652402e+02
8.800000000000000000e+01 3.855225600090765283e+02
8.840000000000000568e+01 3.847135556331982116e+02
8.880000000000001137e+01 3.839099984182920480e+02
8.920000000000000284e+01 3.831118260504312047e+02
8.960000000000000853e+01 3.823189772213225979e+02
9.000000000000000000e+01 3.815313916073804421e+02
9.040000000000000568e+01 3.807490098493300366e+02
9.080000000000001137e+01 3.799717735323300758e+02
9.120000000000000284e+01 3.791996251665946147e+02
9.160000000000000853e+01 3.784325081685028636e+02
9.200000000000000000e+01 3.776703668421790780e+02
9.240000000000000568e+01 3.769131463615313464e+02
9.280000000000001137e+01 3.761607927527352331e+02
9.320000000000000284e+01 3.754132528771473289e+02
9.360000000000000853e+01 3.746704744146395001e+02
9.400000000000000000e+01 3.739324058473386572e+02
9.440000000000000568e+01 3.731989964437622120e+02
9.480000000000001137e+01 3.724701962433368863e+02
9.520000000000000284e+01 3.717459560412907535e+02
9.560000000000000853e+01 3.710262273739069201e+02
9.600000000000000000e+01 3.703109625041294066e+02
9.640000000000000568e+01 3.696001144075110005e+02
9.680000000000001137e+01 3.688936367584933578e+02
9.720000000000000284e+01 3.681914839170106006e+02
9.760000000000000853e+01 3.674936109154058386e+02
9.800000000000000000e+01 3.667999734456556666e+02
9.840000000000000568e+01 3.661105278468879192e+02
9.880000000000001137e+01 3.654252310931922239e+02
9.920000000000000284e+01 3.647440407817083496e+02
9.960000000000000853e+01 3.640669151209896768e+02
1.000000000000000000e+02 3.633938129196316709e+02
1.004000000000000057e+02 3.627246935751599608e+02
1.008000000000000114e+02 3.620595170631688688e+02
1.012000000000000028e+02 3.613982439267062432e+02
1.016000000000000085e+02 3.607408352658958961e+02
1.020000000000000000e+02 3.600872527277927588e+02
1.024000000000000057e+02 3.594374584964637052e+02
1.028000000000000114e+02 3.587914152832888135e+02
1.032000000000000028e+02 3.581490863174764172e+02
1.036000000000000085e+02 3.575104353367870544e+02
1.040000000000000000e+02 3.568754265784617132e+02
1.044000000000000057e+02 3.562440247703458454e+02
1.048000000000000114e+02 3.556161951222088078e+02
1.052000000000000028e+02 3.549919033172495233e+02
1.056000000000000085e+02 3.543711155037859726e+02
1.060000000000000000e+02 3.537537982871231748e+02
1.064000000000000057e+02 3.531399187215952225e+02
1.068000000000000114e+02 3.525294443027762554e+02
1.072000000000000028e+02 3.519223429598574739e+02
1.076000000000000085e+02 3.513185830481850189e+02
1.080000000000000000e+02 3.507181333419549674e+02
1.084000000000000057e+02 3.501209630270610660e+02
1.088000000000000114e+02 3.495270416940932137e+02
1.092000000000000028e+02 3.489363393314802124e+02
1.096000000000000085e+02 3.483488263187751954e+02
1.100000000000000000e+02 3.477644734200802645e+02
1.104000000000000057e+02 3.471832517776055624e+02
1.108000000000000114e+02 3.466051329053605627e+02
1.112000000000000028e+02 3.460300886829749629e+02
1.116000000000000085e+02 3.454580913496438939e+02
1.120000000000000000e+02 3.448891134981969344e+02
1.124000000000000057e+02 3.443231280692862697e+02
1.128000000000000114e+02 3.437601083456918900e+02
1.132000000000000028e+02 3.432000279467409314e+02
1.136000000000000085e+02 3.426428608228380881e+02
1.140000000000000000e+02 3.420885812501056762e+02
1.144000000000000057e+02 3.415371638251284594e+02
1.148000000000000114e+02 3.409885834598040901e+02
1.152000000000000028e+02 3.404428153762926854e+02
1.156000000000000085e+02 3.398998351020673567e+02
1.160000000000000000e+02 3.393596184650598957e+02
1.164000000000000057e+02 3.388221415889017862e+02
1.168000000000000114e+02 3.382873808882574735e+02
1.172000000000000028e+02 3.377553130642468204e+02
1.176000000000000085e+02 3.372259150999569783e+02
1.180000000000000000e+02 3.366991642560392393e+02
1.184000000000000057e+02 3.361750380663906412e+02
1.188000000000000114e+02 3.356535143339178831e+02
1.192000000000000028e+02 3.351345711263809335e+02
1.196000000000000085e+02 3.346181867723157097e+02
1.200000000000000000e+02 3.341043398570339491e+02
1.204000000000000057e+02 3.335930092186972047e+02
1.208000000000000114e+02 3.330841739444653626e+02
1.212000000000000028e+02 3.325778133667160432e+02
1.216000000000000085e+02 3.320739070593350561e+02
1.220000000000000000e+02 3.315724348340745564e+02
1.224000000000000057e+02 3.310733767369796965e+02
1.228000000000000114e+02 3.305767130448798525e+02
1.232000000000000028e+02 3.300824242619449933e+02
1.236000000000000085e+02 3.295904911163037809e+02
1.240000000000000000e+02 3.291008945567248247e+02
1.244000000000000057e+02 3.286136157493571091e+02
1.248000000000000114e+02 3.281286360745292541e+02
1.252000000000000028e+02 3.276459371236070410e+02
1.256000000000000085e+02 3.271655006959070988e+02
1.260000000000000000e+02 3.266873087956656718e+02
1.264000000000000057e+02 3.262113436290619575e+02
1.268000000000000114e+02 3.257375876012937397e+02
1.272000000000000028e+02 3.252660233137052614e+02
1.276000000000000085e+02 3.247966335609656880e+02
1.280000000000000000e+02 3.243294013282974788e+02
1.284000000000000057e+02 3.238643097887531894e+02
1.288000000000000114e+02 3.234013423005395111e+02
1.291999999999999886e+02 3.229404824043892859e+02
1.296000000000000227e+02 3.224817138209770633e+02
1.300000000000000000e+02 3.220250204483820653e+02
1.304000000000000057e+02 3.215703863595923622e+02
1.308000000000000114e+02 3.211177958000537274e+02
1.311999999999999886e+02 3.206672331852605566e+02
1.316000000000000227e+02 3.202186830983860659e+02
1.320000000000000000e+02 3.197721302879558039e+02
1.324000000000000057e+02 3.193275596655585673e+02
1.328000000000000114e+02 3.188849563035959704e+02
1.331999999999999886e+02 3.184443054330723726e+02
1.336000000000000227e+02 3.180055924414186848e+02
1.340000000000000000e+02 3.175688028703558530e+02
1.344000000000000057e+02 3.171339224137919928e+02
1.348000000000000114e+02 3.167009369157549372e+02
1.351999999999999886e+02 3.162698323683603121e+02
1.356000000000000227e+02 3.158405949098117276e+02
1.360000000000000000e+02 3.154132108224351896e+02
1.364000000000000057e+02 3.149876665307453436e+02
1.368000000000000114e+02 3.145639485995435507e+02
1.371999999999999886e+02 3.141420437320472274e+02
1.376000000000000227e+02 3.137219387680493128e+02
1.380000000000000000e+02 3.133036206821088285e+02
1.384000000000000057e+02 3.128870765817689517e+02
1.388000000000000114e+02 3.124722937058056687e+02
1.392000000000000171e+02 3.120592594225039420e+02
1.395999999999999943e+02 3.116479612279612184e+02
1.400000000000000000e+02 3.112383867444187899e+02
1.404000000000000057e+02 3.108305237186196450e+02
1.408000000000000114e+02 3.104243600201923527e+02
1.412000000000000171e+02 3.100198836400603568e+02
1.415999999999999943e+02 3.096170826888777015e+02
1.420000000000000000e+02 3.092159453954874948e+02
1.424000000000000057e+02 3.088164601054064065e+02
1.428000000000000114e+02 3.084186152793323004e+02
1.432000000000000171e+02 3.080223994916748893e+02
1.435999999999999943e+02 3.076278014291099225e+02
1.440000000000000000e+02 3.072348098891556560e+02
1.444000000000000057e+02 3.068434137787713212e+02
1.448000000000000114e+02 3.064536021129771939e+02
1.452000000000000171e+02 3.060653640134966054e+02
1.455999999999999943e+02 3.056786887074179617e+02
1.460000000000000000e+02 3.052935655258779661e+02
1.464000000000000057e+02 3.049099839027643384e+02
1.468000000000000114e+02 3.045279333734397369e+02
1.472000000000000171e+02 3.041474035734826202e+02
1.475999999999999943e+02 3.037683842374501069e+02
1.480000000000000000e+02 3.033908651976573765e+02
1.484000000000000057e+02 3.030148363829762275e+02
1.488000000000000114e+02 3.026402878176522790e+02
1.492000000000000171e+02 3.022672096201387149e+02
1.495999999999999943e+02 3.018955920019487849e+02
1.500000000000000000e+02 3.015254252665241097e+02
