1.000000000000000000e+01 1.264371512414448517e+02
1.040000000000000036e+01 1.289865199940379910e+02
1.080000000000000071e+01 1.334480128162827555e+02
1.119999999999999929e+01 1.348862230130817181e+02
1.159999999999999964e+01 1.302355641709334293e+02
1.200000000000000000e+01 1.260762735041033835e+02
1.240000000000000036e+01 1.223214887147645129e+02
1.280000000000000071e+01 1.189055733542232076e+02
1.319999999999999929e+01 1.157776234585898578e+02
1.359999999999999964e+01 1.134774974942838526e+02
1.400000000000000000e+01 1.109669052976576751e+02
1.440000000000000036e+01 1.086298445566187922e+02
1.480000000000000071e+01 1.064459303914518813e+02
1.519999999999999929e+01 1.043981436741509867e+02
1.560000000000000142e+01 1.024716845403564207e+02
1.600000000000000000e+01 1.006426245514392548e+02
1.639999999999999858e+01 9.894622122151432109e+01
1.680000000000000071e+01 9.738850567263234836e+01
1.719999999999999929e+01 9.590665127647245924e+01
1.760000000000000142e+01 8.997707377543262908e+01
1.800000000000000000e+01 8.866568743142005360e+01
1.839999999999999858e+01 8.750163361928873940e+01
1.880000000000000071e+01 8.491497664368806397e+01
1.920000000000000284e+01 8.380798895687227912e+01
1.960000000000000142e+01 8.274373623565691105e+01
2.000000000000000000e+01 8.171942158932098721e+01
2.039999999999999858e+01 8.073250658353083509e+01
2.080000000000000071e+01 7.978067676934574592e+01
2.120000000000000284e+01 7.886118869066564230e+01
2.160000000000000142e+01 7.797271084141124220e+01
2.200000000000000000e+01 7.711346322750017634e+01
2.239999999999999858e+01 7.628181060088456888e+01
2.280000000000000071e+01 7.547624724901777427e+01
2.320000000000000284e+01 7.469538373724073210e+01
2.360000000000000142e+01 7.265178515502599055e+01
2.400000000000000000e+01 7.191415464964983073e+01
2.439999999999999858e+01 7.091875570508634041e+01
2.480000000000000071e+01 7.018380440329872272e+01
2.520000000000000284e+01 6.947025706578456550e+01
2.560000000000000142e+01 6.877706839568840280e+01
2.600000000000000000e+01 6.810326447408510830e+01
2.640000000000000213e+01 6.744793652587216570e+01
2.680000000000000071e+01 6.681023534593086310e+01
2.719999999999999929e+01 6.618936630371189267e+01
2.760000000000000142e+01 6.557924294518100794e+01
2.800000000000000000e+01 6.496759254462864419e+01
2.840000000000000213e+01 6.437170994003626845e+01
2.880000000000000071e+01 6.379092019500320987e+01
2.920000000000000284e+01 6.322458847362398160e+01
2.960000000000000142e+01 6.267211700791427376e+01
3.000000000000000000e+01 6.213294234255617710e+01
3.040000000000000213e+01 6.159700456811617642e+01
3.080000000000000071e+01 6.106690992814915120e+01
3.120000000000000284e+01 6.054905414491080506e+01
3.160000000000000142e+01 6.032694318467825667e+01
3.200000000000000000e+01 6.020424549146989079e+01
3.240000000000000568e+01 5.974330388157432026e+01
3.279999999999999716e+01 5.929215795954038981e+01
3.320000000000000284e+01 5.885046343132361812e+01
3.360000000000000142e+01 5.841789279249442757e+01
3.400000000000000000e+01 5.799413428528556835e+01
3.440000000000000568e+01 5.757889093410337011e+01
3.479999999999999716e+01 5.717187965258888482e+01
3.520000000000000284e+01 5.677283041601079105e+01
3.560000000000000142e+01 5.638526657900035133e+01
3.600000000000000000e+01 5.600937791001900479e+01
3.640000000000000568e+01 5.564040832902563238e+01
3.679999999999999716e+01 5.591328832433154616e+01
3.720000000000000284e+01 5.558349987766568745e+01
3.760000000000000142e+01 5.525927531937810500e+01
3.800000000000000000e+01 5.494045815568419755e+01
3.840000000000000568e+01 5.462689803867205285e+01
3.879999999999999716e+01 5.431845045727708055e+01
3.920000000000000284e+01 5.401497644714838486e+01
3.960000000000000142e+01 5.371576804501713553e+01
4.000000000000000000e+01 5.326403943721076217e+01
4.040000000000000568e+01 5.324203500237596387e+01
4.079999999999999716e+01 5.296679415505942501e+01
4.120000000000000284e+01 5.269568703767998841e+01
4.160000000000000142e+01 5.242860969066141763e+01
4.200000000000000000e+01 5.216546181432205032e+01
4.239999999999999858e+01 5.190614660353043064e+01
4.280000000000000426e+01 5.165057059146229790e+01
4.320000000000000284e+01 5.139864350186956443e+01
4.360000000000000142e+01 5.115027810931546526e+01
4.400000000000000000e+01 5.090539010686988064e+01
4.439999999999999858e+01 5.066389798079659101e+01
4.480000000000000426e+01 5.042019659730993908e+01
4.520000000000000284e+01 5.017957731928626686e+01
4.560000000000000142e+01 4.994228134044571732e+01
4.600000000000000000e+01 4.970823188955834127e+01
4.639999999999999858e+01 4.947735467199391479e+01
4.680000000000000426e+01 4.924957776747642413e+01
4.720000000000000284e+01 4.902483153296859086e+01
4.760000000000000142e+01 4.880304851038394531e+01
4.800000000000000000e+01 4.858416333884511573e+01
4.840000000000000568e+01 4.836811267122482860e+01
4.880000000000000426e+01 4.815483509472416301e+01
4.920000000000000284e+01 4.794378627993731357e+01
4.960000000000000142e+01 4.787005588744791140e+01
5.000000000000000000e+01 4.766448721229824770e+01
5.040000000000000568e+01 4.746148729522050758e+01
5.080000000000000426e+01 4.726034650064213594e+01
5.120000000000000284e+01 4.706124430854323748e+01
5.160000000000000142e+01 4.686457368418116687e+01
5.200000000000000000e+01 4.667028495821864453e+01
5.240000000000000568e+01 4.647832988077685457e+01
5.280000000000000426e+01 4.628866156941032983e+01
5.320000000000000284e+01 4.610123445940423892e+01
5.360000000000000142e+01 4.591600425627203208e+01
5.400000000000000000e+01 4.573292789033894223e+01
5.440000000000000568e+01 4.555196347330316797e+01
5.480000000000000426e+01 4.537404037529221767e+01
5.520000000000000284e+01 4.519927693210873088e+01
5.560000000000000142e+01 4.502645764059071354e+01
5.600000000000000000e+01 4.485554631693001681e+01
5.640000000000000568e+01 4.468650772086904510e+01
5.680000000000000426e+01 4.451930752408291880e+01
5.720000000000000284e+01 4.435391227985472540e+01
5.760000000000000142e+01 4.419028939398164368e+01
5.800000000000000000e+01 4.402840709685304432e+01
5.840000000000000568e+01 4.386823441664459722e+01
5.880000000000000426e+01 4.370974115357618928e+01
5.920000000000000284e+01 4.355266346181191750e+01
5.960000000000000142e+01 4.339632324983310241e+01
6.000000000000000000e+01 4.324158713514682262e+01
6.040000000000000568e+01 4.304621365451863824e+01
6.080000000000000426e+01 4.289438017670620695e+01
6.120000000000000284e+01 4.274408017229873025e+01
6.160000000000000142e+01 4.259528772418992304e+01
6.200000000000000000e+01 4.244797752885296660e+01
6.240000000000000568e+01 4.230212487768091734e+01
6.280000000000000426e+01 4.214890326949657862e+01
6.320000000000000284e+01 4.200794991640057674e+01
6.360000000000000142e+01 4.186835883976132777e+01
6.400000000000000000e+01 4.173010798971982638e+01
6.440000000000000568e+01 4.159317581636750560e+01
6.480000000000001137e+01 4.145754125518578093e+01
6.520000000000000284e+01 4.132318371300299020e+01
6.559999999999999432e+01 4.119008305444698692e+01
6.600000000000000000e+01 4.105778909837167845e+01
6.640000000000000568e+01 4.092612371113250447e+01
6.680000000000001137e+01 4.079567432195246113e+01
6.720000000000000284e+01 4.066642213482402468e+01
6.759999999999999432e+01 4.071035672330305033e+01
6.800000000000000000e+01 4.058568170960502641e+01
6.840000000000000568e+01 4.046212380920655960e+01
6.880000000000001137e+01 4.033966620157293903e+01
6.920000000000000284e+01 4.021829242152288231e+01
6.959999999999999432e+01 4.009798634957654428e+01
7.000000000000000000e+01 3.997873220262368932e+01
7.040000000000000568e+01 3.986051452489927271e+01
7.080000000000001137e+01 3.974331817925464350e+01
7.120000000000000284e+01 3.964088428551436749e+01
7.159999999999999432e+01 3.952719205032155259e+01
7.200000000000000000e+01 3.943007983015333195e+01
7.240000000000000568e+01 3.931898516105562180e+01
7.280000000000001137e+01 3.920881666222969386e+01
7.320000000000000284e+01 3.909956134878132161e+01
7.359999999999999432e+01 3.899120649151944917e+01
7.400000000000000000e+01 3.888373961047417993e+01
7.440000000000000568e+01 3.877714846861564979e+01
7.479999999999999716e+01 3.867142106576623917e+01
7.520000000000000284e+01 3.856578725455360512e+01
7.560000000000000853e+01 3.846077156746366654e+01
7.600000000000000000e+01 3.835659473825587895e+01
7.640000000000000568e+01 3.825324551732538225e+01
7.679999999999999716e+01 3.815071286675385664e+01
7.720000000000000284e+01 3.804898595518572790e+01
7.760000000000000853e+01 3.794805415285572536e+01
7.800000000000000000e+01 3.784790702676278329e+01
7.840000000000000568e+01 3.774858908152054227e+01
7.879999999999999716e+01 3.765006063286235616e+01
7.920000000000000284e+01 3.755228484946874801e+01
7.960000000000000853e+01 3.745525207835878945e+01
8.000000000000000000e+01 3.735895284030907249e+01
8.040000000000000568e+01 3.726337782582868385e+01
8.079999999999999716e+01 3.716851789124820016e+01
8.120000000000000284e+01 3.707436405491880294e+01
8.160000000000000853e+01 3.698090749351786855e+01
8.200000000000000000e+01 3.688813953845759386e+01
8.240000000000000568e+01 3.679605167239306951e+01
8.279999999999999716e+01 3.670426926265431433e+01
8.320000000000000284e+01 3.661304147768737494e+01
8.360000000000000853e+01 3.652247391132173959e+01
8.400000000000000000e+01 3.643255854729599719e+01
8.440000000000000568e+01 3.634328750590574941e+01
8.479999999999999716e+01 3.625465304101101083e+01
8.520000000000000284e+01 3.616664574828003254e+01
8.560000000000000853e+01 3.607912693436400531e+01
8.600000000000000000e+01 3.599219039206104043e+01
8.640000000000000568e+01 3.590585166345016432e+01
8.680000000000001137e+01 3.582011253970657805e+01
8.720000000000000284e+01 3.573496604490415507e+01
8.760000000000000853e+01 3.565040531682892322e+01
8.800000000000000000e+01 3.556642360459748886e+01
8.840000000000000568e+01 3.548301426633643274e+01
8.880000000000001137e+01 3.540017076692063114e+01
8.920000000000000284e+01 3.531788667576896046e+01
8.960000000000000853e+01 3.524880967361582407e+01
9.000000000000000000e+01 3.516893598964404077e+01
9.040000000000000568e+01 3.508959027066677550e+01
9.080000000000001137e+01 3.501076666179326224e+01
9.120000000000000284e+01 3.493245939916982223e+01
9.160000000000000853e+01 3.485468076098159429e+01
9.200000000000000000e+01 3.477745770142579573e+01
9.240000000000000568e+01 3.470073353200447031e+01
9.280000000000001137e+01 3.462450284845262161e+01
9.320000000000000284e+01 3.454876032854734547e+01
9.360000000000000853e+01 3.447350073050748875e+01
9.400000000000000000e+01 3.439871889143149275e+01
9.440000000000000568e+01 3.432440972577212790e+01
9.480000000000001137e+01 3.425056822384738808e+01
9.520000000000000284e+01 3.417718945038620149e+01
9.560000000000000853e+01 3.410426854310833278e+01
9.600000000000000000e+01 3.403180071133726159e+01
9.640000000000000568e+01 3.396288861928807279e+01
9.680000000000001137e+01 3.389203233667456061e+01
9.720000000000000284e+01 3.382160935661570988e+01
9.760000000000000853e+01 3.375161523367957983e+01
9.800000000000000000e+01 3.368204558636990953e+01
9.840000000000000568e+01 3.361289609594426508e+01
9.880000000000001137e+01 3.354156342253215684e+01
9.920000000000000284e+01 3.347326920989901566e+01
9.960000000000000853e+01 3.340538264509597610e+01
1.000000000000000000e+02 3.333789964371697323e+01
1.004000000000000057e+02 3.327081617875130348e+01
1.008000000000000114e+02 3.320412827954658042e+01
1.012000000000000028e+02 3.313783203079456285e+01
1.016000000000000085e+02 3.307192357153925855e+01
1.020000000000000000e+02 3.300639909420681306e+01
1.024000000000000057e+02 3.294125484365644496e+01
1.028000000000000114e+02 3.287648711625203646e+01
1.032000000000000028e+02 3.281209225895390347e+01
1.036000000000000085e+02 3.274806666842987113e+01
1.040000000000000000e+02 3.268421983068292036e+01
1.044000000000000057e+02 3.262050239985864408e+01
1.048000000000000114e+02 3.255714771300266364e+01
1.052000000000000028e+02 3.249415230398638244e+01
1.056000000000000085e+02 3.243151275313441317e+01
1.060000000000000000e+02 3.236919435657667776e+01
1.064000000000000057e+02 3.230717804537349735e+01
1.068000000000000114e+02 3.224550796768996008e+01
1.072000000000000028e+02 3.218418087915302550e+01
1.076000000000000085e+02 3.212319357802956432e+01
1.080000000000000000e+02 3.206254290450569755e+01
1.084000000000000057e+02 3.199427581255029907e+01
1.088000000000000114e+02 3.193465403023461491e+01
1.092000000000000028e+02 3.187535843917189382e+01
1.096000000000000085e+02 3.181638603702569768e+01
1.100000000000000000e+02 3.175745832114722234e+01
1.104000000000000057e+02 3.169882748820813845e+01
1.108000000000000114e+02 3.164051296890357179e+01
1.112000000000000028e+02 3.158251189223034316e+01
1.116000000000000085e+02 3.152482142378636709e+01
1.120000000000000000e+02 3.146743876516999450e+01
1.124000000000000057e+02 3.141036115339138135e+01
1.128000000000000114e+02 3.135358586029563099e+01
1.132000000000000028e+02 3.129711019199748279e+01
1.136000000000000085e+02 3.124088854955105887e+01
1.140000000000000000e+02 3.118516225979783840e+01
1.144000000000000057e+02 3.112972656886600475e+01
1.148000000000000114e+02 3.107457892740408312e+01
1.152000000000000028e+02 3.101971681747128784e+01
1.156000000000000085e+02 3.096513775203939289e+01
1.160000000000000000e+02 3.091083927450423730e+01
1.164000000000000057e+02 3.085681895820660259e+01
1.168000000000000114e+02 3.080307440596248014e+01
1.172000000000000028e+02 3.074960324960215630e+01
1.176000000000000085e+02 3.069640314951821836e+01
1.180000000000000000e+02 3.064347179422217948e+01
1.184000000000000057e+02 3.059080689990939206e+01
1.188000000000000114e+02 3.053840621003239519e+01
1.192000000000000028e+02 3.048626749488206755e+01
1.196000000000000085e+02 3.043438855117683062e+01
1.200000000000000000e+02 3.038276720165948319e+01
1.204000000000000057e+02 3.033140129470144686e+01
1.208000000000000114e+02 3.029323760640168217e+01
1.212000000000000028e+02 3.024271577261626476e+01
1.216000000000000085e+02 3.019236922933459866e+01
1.220000000000000000e+02 3.014226784243205159e+01
1.224000000000000057e+02 3.009240960282612320e+01
1.228000000000000114e+02 3.004279252456279892e+01
1.232000000000000028e+02 2.999341464447368466e+01
1.236000000000000085e+02 2.994427402183951870e+01
1.240000000000000000e+02 2.989536873805961648e+01
1.244000000000000057e+02 2.984669689632737644e+01
1.248000000000000114e+02 2.979825662131154118e+01
1.252000000000000028e+02 2.975456566300536210e+01
1.256000000000000085e+02 2.970698486251550108e+01
1.260000000000000000e+02 2.965962804218381166e+01
1.264000000000000057e+02 2.961249342778173599e+01
1.268000000000000114e+02 2.956557926482669885e+01
1.272000000000000028e+02 2.951888381829910912e+01
1.276000000000000085e+02 2.947240537236431024e+01
1.280000000000000000e+02 2.942614223009942265e+01
1.284000000000000057e+02 2.938009271322496829e+01
1.288000000000000114e+02 2.933425516184107096e+01
1.291999999999999886e+02 2.928862793416830357e+01
1.296000000000000227e+02 2.924520493864342185e+01
1.300000000000000000e+02 2.920002041197023601e+01
1.304000000000000057e+02 2.915504118056186655e+01
1.308000000000000114e+02 2.911026567460019976e+01
1.311999999999999886e+02 2.906562029774533329e+01
1.316000000000000227e+02 2.902105651238395012e+01
1.320000000000000000e+02 2.897669281046081124e+01
1.324000000000000057e+02 2.893252768133802633e+01
1.328000000000000114e+02 2.888855963039615204e+01
1.331999999999999886e+02 2.884478717881551191e+01
1.336000000000000227e+02 2.880120886336117181e+01
1.340000000000000000e+02 2.875782323617152514e+01
1.344000000000000057e+02 2.871462886455029206e+01
1.348000000000000114e+02 2.867162433076209993e+01
1.351999999999999886e+02 2.862880823183132861e+01
1.356000000000000227e+02 2.858617917934426345e+01
1.360000000000000000e+02 2.854373579925457705e+01
1.364000000000000057e+02 2.850147673169188423e+01
1.368000000000000114e+02 2.845940063077348015e+01
1.371999999999999886e+02 2.841750616441912669e+01
1.376000000000000227e+02 2.837576383040180517e+01
1.380000000000000000e+02 2.833421240691328080e+01
1.384000000000000057e+02 2.829283981508712031e+01
1.388000000000000114e+02 2.825164361347512454e+01
1.392000000000000171e+02 2.821062253801444797e+01
1.395999999999999943e+02 2.816977533736076822e+01
1.400000000000000000e+02 2.812910077272359644e+01
1.404000000000000057e+02 2.808859761770418118e+01
1.408000000000000114e+02 2.804812959965139640e+01
1.412000000000000171e+02 2.800782594499762723e+01
1.415999999999999943e+02 2.796769067541526255e+01
1.420000000000000000e+02 2.792772260832569131e+01
1.424000000000000057e+02 2.788792057281001391e+01
1.428000000000000114e+02 2.784828340946112846e+01
1.432000000000000171e+02 2.780880997023808376e+01
1.435999999999999943e+02 2.776949911832269891e+01
1.440000000000000000e+02 2.773034972797834286e+01
1.444000000000000057e+02 2.769136068441098786e+01
1.448000000000000114e+02 2.765253088363228073e+01
1.452000000000000171e+02 2.761385923232477069e+01
1.455999999999999943e+02 2.757534464770922256e+01
1.460000000000000000e+02 2.753698605741382721e+01
1.464000000000000057e+02 2.749723818268658704e+01
1.468000000000000114e+02 2.745921292115750489e+01
1.472000000000000171e+02 2.742134051948398010e+01
1.475999999999999943e+02 2.738361994462548665e+01
1.480000000000000000e+02 2.734605017334325794e+01
1.484000000000000057e+02 2.730863019208057807e+01
1.488000000000000114e+02 2.727135899684492415e+01
1.492000000000000171e+02 2.723423559309177833e+01
1.495999999999999943e+02 2.719725899561021976e+01
1.500000000000000000e+02 2.716042822841023252e+01
