1.000000000000000000e+01 1.425187669441260994e+02
1.040000000000000036e+01 1.617906496004782753e+02
1.080000000000000071e+01 1.758029321728823220e+02
1.119999999999999929e+01 1.802914961075245230e+02
1.159999999999999964e+01 1.738409006505206662e+02
1.200000000000000000e+01 1.681643415799614161e+02
1.240000000000000036e+01 1.631106358836001675e+02
1.280000000000000071e+01 1.585681721631741254e+02
1.319999999999999929e+01 1.544522552029228279e+02
1.359999999999999964e+01 1.507161058178857616e+02
1.400000000000000000e+01 1.473778991464388923e+02
1.440000000000000036e+01 1.442942451291253860e+02
1.480000000000000071e+01 1.414327133690462119e+02
1.519999999999999929e+01 1.387665384031638780e+02
1.560000000000000142e+01 1.362733846651019576e+02
1.600000000000000000e+01 1.339344295203176785e+02
1.639999999999999858e+01 1.298518132698340537e+02
1.680000000000000071e+01 1.277725396308711652e+02
1.719999999999999929e+01 1.258081559126952840e+02
1.760000000000000142e+01 1.149134691022274239e+02
1.800000000000000000e+01 1.132221610064599417e+02
1.839999999999999858e+01 1.116094581261440624e+02
1.880000000000000071e+01 1.086734429149606456e+02
1.920000000000000284e+01 1.072369076410263204e+02
1.960000000000000142e+01 1.058611673786991361e+02
2.000000000000000000e+01 1.045418780712056730e+02
2.039999999999999858e+01 1.032751285982629383e+02
2.080000000000000071e+01 1.020573858679397006e+02
2.120000000000000284e+01 1.008854483025243383e+02
2.160000000000000142e+01 9.978630446898239370e+01
2.200000000000000000e+01 9.874567934335090058e+01
2.239999999999999858e+01 9.774031748775948358e+01
2.280000000000000071e+01 9.676818035807147567e+01
2.320000000000000284e+01 9.582739480891660833e+01
2.360000000000000142e+01 9.491623592977478552e+01
2.400000000000000000e+01 9.402923536996340204e+01
2.439999999999999858e+01 9.306010411154227313e+01
2.480000000000000071e+01 9.210392488569318914e+01
2.520000000000000284e+01 9.117733969111341708e+01
2.560000000000000142e+01 9.027881335681196617e+01
2.600000000000000000e+01 8.940692115727310352e+01
2.640000000000000213e+01 8.856033873220000885e+01
2.680000000000000071e+01 8.773783311433405174e+01
2.719999999999999929e+01 8.606338017963339837e+01
2.760000000000000142e+01 8.529408519084253726e+01
2.800000000000000000e+01 8.454536922908638985e+01
2.840000000000000213e+01 8.381630851114388747e+01
2.880000000000000071e+01 7.896704263056606976e+01
2.920000000000000284e+01 7.824324341805440497e+01
2.960000000000000142e+01 7.753759057798809806e+01
3.000000000000000000e+01 7.684932793932961204e+01
3.040000000000000213e+01 7.617774315486030901e+01
3.080000000000000071e+01 7.552216446312645814e+01
3.120000000000000284e+01 7.488195773998404547e+01
3.160000000000000142e+01 7.425652380945777509e+01
3.200000000000000000e+01 7.401520432067044908e+01
3.240000000000000568e+01 7.343851455377537718e+01
3.279999999999999716e+01 7.286522057624766546e+01
3.320000000000000284e+01 7.229378616124996881e+01
3.360000000000000142e+01 7.173465817615497997e+01
3.400000000000000000e+01 7.118739765390870389e+01
3.440000000000000568e+01 7.065158738374920233e+01
3.479999999999999716e+01 7.012683053671133848e+01
3.520000000000000284e+01 6.961274939628466996e+01
3.560000000000000142e+01 6.910898418481041006e+01
3.600000000000000000e+01 6.861519197716431506e+01
3.640000000000000568e+01 6.813104569412631406e+01
3.679999999999999716e+01 6.892651753160568262e+01
3.720000000000000284e+01 6.851267864722916556e+01
3.760000000000000142e+01 6.810609705207880893e+01
3.800000000000000000e+01 6.770655943694345069e+01
3.840000000000000568e+01 6.731386127509044570e+01
3.879999999999999716e+01 6.692780635849194937e+01
3.920000000000000284e+01 6.654820636385048260e+01
3.960000000000000142e+01 6.637668981217616704e+01
4.000000000000000000e+01 6.602184060102665342e+01
4.040000000000000568e+01 6.567262148290330970e+01
4.079999999999999716e+01 6.532888166868208657e+01
4.120000000000000284e+01 6.498009555927797010e+01
4.160000000000000142e+01 6.463560295000579003e+01
4.200000000000000000e+01 6.429641107551651658e+01
4.239999999999999858e+01 6.396238268875505639e+01
4.280000000000000426e+01 6.363338552834461126e+01
4.320000000000000284e+01 6.330929208613453341e+01
4.360000000000000142e+01 6.298997938794202867e+01
4.400000000000000000e+01 6.267532878660689022e+01
4.439999999999999858e+01 6.236522576654719074e+01
4.480000000000000426e+01 6.205955975906358191e+01
4.520000000000000284e+01 6.175822396769785172e+01
4.560000000000000142e+01 6.146111520300178910e+01
4.600000000000000000e+01 6.116813372612019606e+01
4.639999999999999858e+01 6.087679405371022767e+01
4.680000000000000426e+01 6.058824656267145770e+01
4.720000000000000284e+01 6.030359444871321983e+01
4.760000000000000142e+01 6.002274970301488111e+01
4.800000000000000000e+01 5.974562710258082632e+01
4.840000000000000568e+01 5.947214409697405557e+01
4.880000000000000426e+01 5.920222070066623132e+01
4.920000000000000284e+01 5.893480984003302581e+01
4.960000000000000142e+01 5.870458064905034234e+01
5.000000000000000000e+01 5.843809127176568552e+01
5.040000000000000568e+01 5.817502782342997847e+01
5.080000000000000426e+01 5.791531685829471598e+01
5.120000000000000284e+01 5.765888713307681002e+01
5.160000000000000142e+01 5.740566952220700614e+01
5.200000000000000000e+01 5.715559693705363031e+01
5.240000000000000568e+01 5.690860424890159663e+01
5.280000000000000426e+01 5.666462821548157081e+01
5.320000000000000284e+01 5.642360741085614961e+01
5.360000000000000142e+01 5.618548215848251459e+01
5.400000000000000000e+01 5.595019446728215939e+01
5.440000000000000568e+01 5.571768797055825218e+01
5.480000000000000426e+01 5.555635710520241588e+01
5.520000000000000284e+01 5.533189809256773373e+01
5.560000000000000142e+01 5.511001891083196824e+01
5.600000000000000000e+01 5.489066998908040773e+01
5.640000000000000568e+01 5.467380308980781223e+01
5.680000000000000426e+01 5.445937126289790342e+01
5.720000000000000284e+01 5.424732880153818826e+01
5.760000000000000142e+01 5.403763119997378084e+01
5.800000000000000000e+01 5.383023511301059472e+01
5.840000000000000568e+01 5.362509831718180209e+01
5.880000000000000426e+01 5.342217967349787955e+01
5.920000000000000284e+01 5.343182665417937471e+01
5.960000000000000142e+01 5.324143613365192351e+01
6.000000000000000000e+01 5.305301468529253839e+01
6.040000000000000568e+01 5.286652813806805540e+01
6.080000000000000426e+01 5.268194315201085232e+01
6.120000000000000284e+01 5.249922719227020451e+01
6.160000000000000142e+01 5.231834850415111049e+01
6.200000000000000000e+01 5.213927608909652633e+01
6.240000000000000568e+01 5.196197968157076730e+01
6.280000000000000426e+01 5.178644794465887458e+01
6.320000000000000284e+01 5.161270327223569154e+01
6.360000000000000142e+01 5.144064994936390178e+01
6.400000000000000000e+01 5.127026030448425331e+01
6.440000000000000568e+01 5.110150730138899178e+01
6.480000000000001137e+01 5.093436452047491514e+01
6.520000000000000284e+01 5.076880614067114550e+01
6.559999999999999432e+01 5.060480692201290509e+01
6.600000000000000000e+01 5.044234218883422471e+01
6.640000000000000568e+01 5.028138781355367826e+01
6.680000000000001137e+01 5.012192020102836665e+01
6.720000000000000284e+01 4.996391627345261810e+01
6.759999999999999432e+01 5.015136938191353977e+01
6.800000000000000000e+01 5.000070067305841093e+01
6.840000000000000568e+01 4.985137718649130534e+01
6.880000000000001137e+01 4.970337860415158104e+01
6.920000000000000284e+01 4.955668504070669655e+01
6.959999999999999432e+01 4.941127703166197449e+01
7.000000000000000000e+01 4.926713552187018053e+01
7.040000000000000568e+01 4.912424185442493041e+01
7.080000000000001137e+01 4.898257775992294683e+01
7.120000000000000284e+01 4.885588129288203163e+01
7.159999999999999432e+01 4.871812865971477891e+01
7.200000000000000000e+01 4.858153830090834902e+01
7.240000000000000568e+01 4.842984475162013780e+01
7.280000000000001137e+01 4.829613827786648983e+01
7.320000000000000284e+01 4.816353388214181308e+01
7.359999999999999432e+01 4.803201622156940687e+01
7.400000000000000000e+01 4.790157025433623517e+01
7.440000000000000568e+01 4.777218123206696987e+01
7.479999999999999716e+01 4.764383469243460212e+01
7.520000000000000284e+01 4.751651645199908103e+01
7.560000000000000853e+01 4.739021259926565222e+01
7.600000000000000000e+01 4.726490948795475333e+01
7.640000000000000568e+01 4.714059373047607693e+01
7.679999999999999716e+01 4.701725219159928315e+01
7.720000000000000284e+01 4.689487198231445575e+01
7.760000000000000853e+01 4.677295947492090278e+01
7.800000000000000000e+01 4.665021525909900646e+01
7.840000000000000568e+01 4.652842225234707030e+01
7.879999999999999716e+01 4.640756802859255714e+01
7.920000000000000284e+01 4.628764039034794564e+01
7.960000000000000853e+01 4.616862736328622674e+01
8.000000000000000000e+01 4.605051719097397722e+01
8.040000000000000568e+01 4.593329832975648941e+01
8.079999999999999716e+01 4.581695944379023899e+01
8.120000000000000284e+01 4.570148940021703510e+01
8.160000000000000853e+01 4.558661820847216717e+01
8.200000000000000000e+01 4.547234380307944690e+01
8.240000000000000568e+01 4.535891314182849499e+01
8.279999999999999716e+01 4.524594946225149528e+01
8.320000000000000284e+01 4.513369984233762722e+01
8.360000000000000853e+01 4.502226782386131987e+01
8.400000000000000000e+01 4.491164337599587952e+01
8.440000000000000568e+01 4.480181664107630013e+01
8.479999999999999716e+01 4.469277793074658689e+01
8.520000000000000284e+01 4.458451772221219755e+01
8.560000000000000853e+01 4.447702665459375027e+01
8.600000000000000000e+01 4.437022733111363948e+01
8.640000000000000568e+01 4.426415636098822404e+01
8.680000000000001137e+01 4.415882276143508278e+01
8.720000000000000284e+01 4.405421792716591511e+01
8.760000000000000853e+01 4.395033339385341264e+01
8.800000000000000000e+01 4.384716083516121898e+01
8.840000000000000568e+01 4.374469205985039366e+01
8.880000000000001137e+01 4.364291900895993592e+01
8.920000000000000284e+01 4.354183375305924386e+01
8.960000000000000853e+01 4.344142848957014991e+01
9.000000000000000000e+01 4.334169554015664971e+01
9.040000000000000568e+01 4.324262734818026388e+01
9.080000000000001137e+01 4.314421647621890799e+01
9.120000000000000284e+01 4.304645560364774326e+01
9.160000000000000853e+01 4.294933752427983364e+01
9.200000000000000000e+01 4.286221594411506430e+01
9.240000000000000568e+01 4.276679899499303161e+01
9.280000000000001137e+01 4.267200024463068075e+01
9.320000000000000284e+01 4.257781296412132122e+01
9.360000000000000853e+01 4.248423052741510020e+01
9.400000000000000000e+01 4.239124640929605903e+01
9.440000000000000568e+01 4.229885418340762726e+01
9.480000000000001137e+01 4.220704752032538920e+01
9.520000000000000284e+01 4.211582018567582963e+01
9.560000000000000853e+01 4.202516603829950981e+01
9.600000000000000000e+01 4.193507902845787783e+01
9.640000000000000568e+01 4.184866058072476847e+01
9.680000000000001137e+01 4.176040954420692941e+01
9.720000000000000284e+01 4.167270221007330377e+01
9.760000000000000853e+01 4.158553294923089538e+01
9.800000000000000000e+01 4.149889621445217358e+01
9.840000000000000568e+01 4.141278653884269545e+01
9.880000000000001137e+01 4.132719853434380752e+01
9.920000000000000284e+01 4.124212689026941803e+01
9.960000000000000853e+01 4.115756637187593725e+01
1.000000000000000000e+02 4.107351181896455472e+01
1.004000000000000057e+02 4.098995814451495789e+01
1.008000000000000114e+02 4.090690033334958287e+01
1.012000000000000028e+02 4.082433344082775761e+01
1.016000000000000085e+02 4.074225259156877144e+01
1.020000000000000000e+02 4.075013142856716541e+01
1.024000000000000057e+02 4.067033743100174092e+01
1.028000000000000114e+02 4.059096983159771099e+01
1.032000000000000028e+02 4.051205768476776825e+01
1.036000000000000085e+02 4.043359659497722447e+01
1.040000000000000000e+02 4.035558222629521197e+01
1.044000000000000057e+02 4.027801030135398719e+01
1.048000000000000114e+02 4.020087660033040322e+01
1.052000000000000028e+02 4.012417695994911071e+01
1.056000000000000085e+02 4.004790727250689741e+01
1.060000000000000000e+02 3.997206348491748429e+01
1.064000000000000057e+02 3.989664159777651520e+01
1.068000000000000114e+02 3.982163766444607234e+01
1.072000000000000028e+02 3.974704779015829104e+01
1.076000000000000085e+02 3.967286813113765476e+01
1.080000000000000000e+02 3.959909489374131653e+01
1.084000000000000057e+02 3.950982447875556147e+01
1.088000000000000114e+02 3.943758280259301330e+01
1.092000000000000028e+02 3.936573405671821035e+01
1.096000000000000085e+02 3.929427463319949254e+01
1.100000000000000000e+02 3.922292543163940337e+01
1.104000000000000057e+02 3.915193805867494348e+01
1.108000000000000114e+02 3.908133136255082718e+01
1.112000000000000028e+02 3.901110189727068445e+01
1.116000000000000085e+02 3.894124626077194051e+01
1.120000000000000000e+02 3.887176109420332182e+01
1.124000000000000057e+02 3.880264308121688543e+01
1.128000000000000114e+02 3.873388894727415988e+01
1.132000000000000028e+02 3.866549545896631201e+01
1.136000000000000085e+02 3.859785017166419152e+01
1.140000000000000000e+02 3.853034471152312790e+01
1.144000000000000057e+02 3.846318985320263550e+01
1.148000000000000114e+02 3.839638251961349624e+01
1.152000000000000028e+02 3.832991967172488756e+01
1.156000000000000085e+02 3.826379830795711712e+01
1.160000000000000000e+02 3.819801546358607425e+01
1.164000000000000057e+02 3.813256821015926334e+01
1.168000000000000114e+02 3.806745365492332667e+01
1.172000000000000028e+02 3.800266894026242426e+01
1.176000000000000085e+02 3.793821124314762727e+01
1.180000000000000000e+02 3.787407777459669944e+01
1.184000000000000057e+02 3.781026577914433062e+01
1.188000000000000114e+02 3.774677253432249557e+01
1.192000000000000028e+02 3.768359535015049744e+01
1.196000000000000085e+02 3.762073156863485224e+01
1.200000000000000000e+02 3.755817856327856674e+01
1.204000000000000057e+02 3.749593373859947576e+01
1.208000000000000114e+02 3.743399452965783070e+01
1.212000000000000028e+02 3.737235840159254963e+01
1.216000000000000085e+02 3.731102284916613598e+01
1.220000000000000000e+02 3.724998539631798877e+01
1.224000000000000057e+02 3.718924359572604033e+01
1.228000000000000114e+02 3.712879502837643031e+01
1.232000000000000028e+02 3.706863730314094596e+01
1.236000000000000085e+02 3.700876805636244882e+01
1.240000000000000000e+02 3.694918495144754900e+01
1.244000000000000057e+02 3.688988567846691780e+01
1.248000000000000114e+02 3.683086795376268441e+01
1.252000000000000028e+02 3.677661949728339152e+01
1.256000000000000085e+02 3.671848871907734946e+01
1.260000000000000000e+02 3.666057257647792511e+01
1.264000000000000057e+02 3.660282103302787959e+01
1.268000000000000114e+02 3.654533899444837175e+01
1.272000000000000028e+02 3.648812433869491656e+01
1.276000000000000085e+02 3.643117496725572124e+01
1.280000000000000000e+02 3.637448880481507274e+01
1.284000000000000057e+02 3.631806379892262981e+01
1.288000000000000114e+02 3.626189791966849896e+01
1.291999999999999886e+02 3.620598915936393070e+01
1.296000000000000227e+02 3.615033553222755103e+01
1.300000000000000000e+02 3.609493507407710666e+01
1.304000000000000057e+02 3.603978584202631907e+01
1.308000000000000114e+02 3.598488591418721683e+01
1.311999999999999886e+02 3.593008930260143075e+01
1.316000000000000227e+02 3.587530012391600565e+01
1.320000000000000000e+02 3.582075654122232322e+01
1.324000000000000057e+02 3.576645669994772447e+01
1.328000000000000114e+02 3.571239876522782453e+01
1.331999999999999886e+02 3.565858092163652771e+01
1.336000000000000227e+02 3.560500137292053324e+01
1.340000000000000000e+02 3.555165834173829609e+01
1.344000000000000057e+02 3.549855006940327939e+01
1.348000000000000114e+02 3.544567481563165501e+01
1.351999999999999886e+02 3.539303085829391904e+01
1.356000000000000227e+02 3.534061649317080622e+01
1.360000000000000000e+02 3.528843003371316911e+01
1.364000000000000057e+02 3.523646981080572971e+01
1.368000000000000114e+02 3.518473417253483859e+01
1.371999999999999886e+02 3.513322148395983646e+01
1.376000000000000227e+02 3.507961861286398886e+01
1.380000000000000000e+02 3.502876603618820184e+01
1.384000000000000057e+02 3.497813006620891940e+01
1.388000000000000114e+02 3.492770914899114132e+01
1.392000000000000171e+02 3.487750174628618538e+01
1.395999999999999943e+02 3.482750633532752005e+01
1.400000000000000000e+02 3.477772140862987982e+01
1.404000000000000057e+02 3.472814547379158512e+01
1.408000000000000114e+02 3.467864199481536502e+01
1.412000000000000171e+02 3.462933993740978167e+01
1.415999999999999943e+02 3.458024306511178736e+01
1.420000000000000000e+02 3.453134993976229339e+01
1.424000000000000057e+02 3.448265913738411825e+01
1.428000000000000114e+02 3.443416924800165191e+01
1.432000000000000171e+02 3.438587887546341904e+01
1.435999999999999943e+02 3.433778663726736369e+01
1.440000000000000000e+02 3.428989116438880558e+01
1.444000000000000057e+02 3.424219110111111775e+01
1.448000000000000114e+02 3.419468510485896928e+01
1.452000000000000171e+02 3.414737184603410469e+01
1.455999999999999943e+02 3.410025000785365989e+01
1.460000000000000000e+02 3.405331828619095091e+01
1.464000000000000057e+02 3.400657538941871394e+01
1.468000000000000114e+02 3.396002003825459781e+01
1.472000000000000171e+02 3.391365096560913628e+01
1.475999999999999943e+02 3.386746691643595142e+01
1.480000000000000000e+02 3.382146664758420229e+01
1.484000000000000057e+02 3.377564892765323634e+01
1.488000000000000114e+02 3.373001253684946477e+01
1.492000000000000171e+02 3.368455626684533399e+01
1.495999999999999943e+02 3.363927892064040037e+01
1.500000000000000000e+02 3.359416848323070326e+01
