1.000000000000000000e+01 1.298658133571979647e+02
1.040000000000000036e+01 1.335974738955915200e+02
1.080000000000000071e+01 1.372679757625851380e+02
1.119999999999999929e+01 1.384692066152861685e+02
1.159999999999999964e+01 1.342491454505635602e+02
1.200000000000000000e+01 1.304657702605956047e+02
1.240000000000000036e+01 1.270905479178506994e+02
1.280000000000000071e+01 1.241527545817238689e+02
1.319999999999999929e+01 1.214521025317700662e+02
1.359999999999999964e+01 1.189745872356816392e+02
1.400000000000000000e+01 1.167638549233459742e+02
1.440000000000000036e+01 1.138369127834662180e+02
1.480000000000000071e+01 1.118052084717313903e+02
1.519999999999999929e+01 1.059177527168034771e+02
1.560000000000000142e+01 1.039193989593547656e+02
1.600000000000000000e+01 1.020351658471319212e+02
1.639999999999999858e+01 1.002459392852040878e+02
1.680000000000000071e+01 9.854270682304560580e+01
1.719999999999999929e+01 9.692522286454189384e+01
1.760000000000000142e+01 9.086899885756848505e+01
1.800000000000000000e+01 8.943915019581342563e+01
1.839999999999999858e+01 8.807171375383997258e+01
1.880000000000000071e+01 8.536641596002635879e+01
1.920000000000000284e+01 8.416618918538154048e+01
1.960000000000000142e+01 8.303018203557380161e+01
2.000000000000000000e+01 8.194280140488008612e+01
2.039999999999999858e+01 8.090617714023601081e+01
2.080000000000000071e+01 7.990714109352720129e+01
2.120000000000000284e+01 7.894341847581185334e+01
2.160000000000000142e+01 7.801129293341587356e+01
2.200000000000000000e+01 7.710003770437276671e+01
2.239999999999999858e+01 7.621926465919574412e+01
2.280000000000000071e+01 7.536726835405443126e+01
2.320000000000000284e+01 7.454247628812646553e+01
2.360000000000000142e+01 7.374343569142857291e+01
2.400000000000000000e+01 7.296492523269139951e+01
2.439999999999999858e+01 7.214111436993060522e+01
2.480000000000000071e+01 7.139113486303151035e+01
2.520000000000000284e+01 7.005977365260002898e+01
2.560000000000000142e+01 6.933972732537510808e+01
2.600000000000000000e+01 6.864036479714894767e+01
2.640000000000000213e+01 6.796069534944248858e+01
2.680000000000000071e+01 6.729979429221970122e+01
2.719999999999999929e+01 6.665679735592212296e+01
2.760000000000000142e+01 6.603089565959362517e+01
2.800000000000000000e+01 6.541962169109716285e+01
2.840000000000000213e+01 6.482334678660636484e+01
2.880000000000000071e+01 6.424209484998662845e+01
2.920000000000000284e+01 6.367523661249121858e+01
2.960000000000000142e+01 6.312217943119553354e+01
3.000000000000000000e+01 6.258091752515204576e+01
3.040000000000000213e+01 6.202623368320521280e+01
3.080000000000000071e+01 6.148450763682770059e+01
3.120000000000000284e+01 6.095524029248756648e+01
3.160000000000000142e+01 6.051888787574678474e+01
3.200000000000000000e+01 6.037676404824157572e+01
3.240000000000000568e+01 5.989699524725712365e+01
3.279999999999999716e+01 5.942759446778681109e+01
3.320000000000000284e+01 5.896819237248910639e+01
3.360000000000000142e+01 5.851843786487245325e+01
3.400000000000000000e+01 5.807799694139389857e+01
3.440000000000000568e+01 5.764655163107772040e+01
3.479999999999999716e+01 5.722379901483723330e+01
3.520000000000000284e+01 5.681094044336769144e+01
3.560000000000000142e+01 5.641030387530826573e+01
3.600000000000000000e+01 5.601731557484474422e+01
3.640000000000000568e+01 5.563173405652385384e+01
3.679999999999999716e+01 5.632216600072191426e+01
3.720000000000000284e+01 5.599113695089106812e+01
3.760000000000000142e+01 5.566581484385809375e+01
3.800000000000000000e+01 5.534603456013459777e+01
3.840000000000000568e+01 5.503163765936040619e+01
3.879999999999999716e+01 5.472247203459339460e+01
3.920000000000000284e+01 5.431307781309134697e+01
3.960000000000000142e+01 5.401685704117955567e+01
4.000000000000000000e+01 5.372235017808888813e+01
4.040000000000000568e+01 5.343253264199833552e+01
4.079999999999999716e+01 5.314727902122771752e+01
4.120000000000000284e+01 5.286646859346262062e+01
4.160000000000000142e+01 5.258998510137837457e+01
4.200000000000000000e+01 5.231771654130242410e+01
4.239999999999999858e+01 5.204955496402634196e+01
4.280000000000000426e+01 5.178330806934832964e+01
4.320000000000000284e+01 5.151735622044884622e+01
4.360000000000000142e+01 5.125563222292982601e+01
4.400000000000000000e+01 5.099963829804907789e+01
4.439999999999999858e+01 5.074734526187148020e+01
4.480000000000000426e+01 5.049866348447274333e+01
4.520000000000000284e+01 5.025350637266469533e+01
4.560000000000000142e+01 5.001179023813163838e+01
4.600000000000000000e+01 4.977343417253345592e+01
4.639999999999999858e+01 4.953835992914241615e+01
4.680000000000000426e+01 4.930649181061213682e+01
4.720000000000000284e+01 4.914181513940868484e+01
4.760000000000000142e+01 4.891981254591372164e+01
4.800000000000000000e+01 4.870071492123402379e+01
4.840000000000000568e+01 4.848445854549107992e+01
4.880000000000000426e+01 4.827098165531180030e+01
4.920000000000000284e+01 4.805973959145070751e+01
4.960000000000000142e+01 4.788985547408189802e+01
5.000000000000000000e+01 4.768287314255589138e+01
5.040000000000000568e+01 4.747849782686112974e+01
5.080000000000000426e+01 4.727667458906012143e+01
5.120000000000000284e+01 4.707735011142327153e+01
5.160000000000000142e+01 4.680458656844330534e+01
5.200000000000000000e+01 4.661184175008742159e+01
5.240000000000000568e+01 4.642142416833518581e+01
5.280000000000000426e+01 4.623326400108027201e+01
5.320000000000000284e+01 4.604731647977821041e+01
5.360000000000000142e+01 4.586353807775614655e+01
5.400000000000000000e+01 4.568188646602138903e+01
5.440000000000000568e+01 4.550232047098609911e+01
5.480000000000000426e+01 4.532480003401066426e+01
5.520000000000000284e+01 4.514928617267325706e+01
5.560000000000000142e+01 4.497574094367904252e+01
5.600000000000000000e+01 4.480412740732727883e+01
5.640000000000000568e+01 4.463440959345903991e+01
5.680000000000000426e+01 4.445728873652422664e+01
5.720000000000000284e+01 4.429111686592664654e+01
5.760000000000000142e+01 4.412674532066976951e+01
5.800000000000000000e+01 4.396414146060379124e+01
5.840000000000000568e+01 4.380327347351217071e+01
5.880000000000000426e+01 4.364411034816563983e+01
5.920000000000000284e+01 4.348638745507381742e+01
5.960000000000000142e+01 4.332942594576184803e+01
6.000000000000000000e+01 4.317264819077853844e+01
6.040000000000000568e+01 4.301732915363846388e+01
6.080000000000000426e+01 4.286361414613969600e+01
6.120000000000000284e+01 4.271147536908724618e+01
6.160000000000000142e+01 4.256066894835065284e+01
6.200000000000000000e+01 4.241133100399814282e+01
6.240000000000000568e+01 4.226349075201137850e+01
6.280000000000000426e+01 4.211712300207463500e+01
6.320000000000000284e+01 4.197220315694980997e+01
6.360000000000000142e+01 4.182870719457069697e+01
6.400000000000000000e+01 4.168661165079534214e+01
6.440000000000000568e+01 4.154589360278819044e+01
6.480000000000001137e+01 4.140653065300485736e+01
6.520000000000000284e+01 4.126850091375389695e+01
6.559999999999999432e+01 4.113178299231103807e+01
6.600000000000000000e+01 4.099635597656271813e+01
6.640000000000000568e+01 4.086219942115658910e+01
6.680000000000001137e+01 4.072413288726976077e+01
6.720000000000000284e+01 4.059350011754652598e+01
6.759999999999999432e+01 4.063607085623043247e+01
6.800000000000000000e+01 4.051004836333718373e+01
6.840000000000000568e+01 4.038515900248479795e+01
6.880000000000001137e+01 4.026679748111077117e+01
6.920000000000000284e+01 4.014638613667361255e+01
6.959999999999999432e+01 4.002702814084243244e+01
7.000000000000000000e+01 3.990870799887373721e+01
7.040000000000000568e+01 3.979141053584977072e+01
7.080000000000001137e+01 3.967512088819095339e+01
7.120000000000000284e+01 3.957358044224476146e+01
7.159999999999999432e+01 3.946076866435429054e+01
7.200000000000000000e+01 3.934859950722594135e+01
7.240000000000000568e+01 3.923706003512880613e+01
7.280000000000001137e+01 3.912645527724461658e+01
7.320000000000000284e+01 3.901677204400744614e+01
7.359999999999999432e+01 3.890799740732214218e+01
7.400000000000000000e+01 3.880011869389274182e+01
7.440000000000000568e+01 3.869312347875911939e+01
7.479999999999999716e+01 3.858699957903374411e+01
7.520000000000000284e+01 3.848173504783160581e+01
7.560000000000000853e+01 3.837731816838606846e+01
7.600000000000000000e+01 3.827373744834402203e+01
7.640000000000000568e+01 3.817098161423382408e+01
7.679999999999999716e+01 3.806903960609992055e+01
7.720000000000000284e+01 3.796790057229814863e+01
7.760000000000000853e+01 3.788023593379196541e+01
7.800000000000000000e+01 3.777990598520231913e+01
7.840000000000000568e+01 3.768023049852356365e+01
7.879999999999999716e+01 3.758132312109840711e+01
7.920000000000000284e+01 3.748317390189035336e+01
7.960000000000000853e+01 3.738577307073681055e+01
8.000000000000000000e+01 3.728911103412100658e+01
8.040000000000000568e+01 3.719317837106461866e+01
8.079999999999999716e+01 3.709796582913715213e+01
8.120000000000000284e+01 3.700346432057801849e+01
8.160000000000000853e+01 3.690966491852755382e+01
8.200000000000000000e+01 3.681655885336352441e+01
8.240000000000000568e+01 3.672413750913937491e+01
8.279999999999999716e+01 3.663202615694861919e+01
8.320000000000000284e+01 3.654047387130056279e+01
8.360000000000000853e+01 3.644978892539621285e+01
8.400000000000000000e+01 3.635984270343332270e+01
8.440000000000000568e+01 3.627054038274992820e+01
8.479999999999999716e+01 3.618187422114137064e+01
8.520000000000000284e+01 3.609383660692329698e+01
8.560000000000000853e+01 3.600642005610354346e+01
8.600000000000000000e+01 3.591958311249618419e+01
8.640000000000000568e+01 3.583334136771328104e+01
8.680000000000001137e+01 3.574769666123836487e+01
8.720000000000000284e+01 3.566264206426618699e+01
8.760000000000000853e+01 3.557817076055223282e+01
8.800000000000000000e+01 3.551126588396672901e+01
8.840000000000000568e+01 3.542903036824431240e+01
8.880000000000001137e+01 3.534735026585062201e+01
8.920000000000000284e+01 3.526621927737622997e+01
8.960000000000000853e+01 3.517853399870969611e+01
9.000000000000000000e+01 3.509847840004134412e+01
9.040000000000000568e+01 3.501895480077956790e+01
9.080000000000001137e+01 3.493995726100055776e+01
9.120000000000000284e+01 3.486147993378564536e+01
9.160000000000000853e+01 3.478351706335007520e+01
9.200000000000000000e+01 3.470606298321789041e+01
9.240000000000000568e+01 3.462911211444133386e+01
9.280000000000001137e+01 3.455265896386363522e+01
9.320000000000000284e+01 3.447669812242376253e+01
9.360000000000000853e+01 3.440122426350212947e+01
9.400000000000000000e+01 3.432623214130600076e+01
9.440000000000000568e+01 3.425171658929342300e+01
9.480000000000001137e+01 3.417767251863476474e+01
9.520000000000000284e+01 3.410409491671057225e+01
9.560000000000000853e+01 3.403096156068919953e+01
9.600000000000000000e+01 3.395811257536232119e+01
9.640000000000000568e+01 3.388882466723090658e+01
9.680000000000001137e+01 3.381759781005811760e+01
9.720000000000000284e+01 3.374680940305734822e+01
9.760000000000000853e+01 3.367645490888543236e+01
9.800000000000000000e+01 3.360652985608001586e+01
9.840000000000000568e+01 3.353679712801692858e+01
9.880000000000001137e+01 3.346748327199301087e+01
9.920000000000000284e+01 3.339858730162987399e+01
9.960000000000000853e+01 3.333010498403194788e+01
1.000000000000000000e+02 3.326203214644348805e+01
1.004000000000000057e+02 3.319436467515026834e+01
1.008000000000000114e+02 3.312709851440557429e+01
1.012000000000000028e+02 3.306022966538018437e+01
1.016000000000000085e+02 3.299375418513545100e+01
1.020000000000000000e+02 3.292766818561916153e+01
1.024000000000000057e+02 3.286358275286441000e+01
1.028000000000000114e+02 3.279852252724174377e+01
1.032000000000000028e+02 3.273383788959672103e+01
1.036000000000000085e+02 3.266952519654280707e+01
1.040000000000000000e+02 3.260558085426688990e+01
1.044000000000000057e+02 3.254200131766216941e+01
1.048000000000000114e+02 3.247878308947952775e+01
1.052000000000000028e+02 3.241592271949703985e+01
1.056000000000000085e+02 3.235341680370702733e+01
1.060000000000000000e+02 3.229126198352030030e+01
1.064000000000000057e+02 3.222945494498704733e+01
1.068000000000000114e+02 3.216799241803413878e+01
1.072000000000000028e+02 3.210687117571836779e+01
1.076000000000000085e+02 3.204608803349503177e+01
1.080000000000000000e+02 3.198563984850186515e+01
1.084000000000000057e+02 3.191757359142676265e+01
1.088000000000000114e+02 3.185812583465438053e+01
1.092000000000000028e+02 3.179894725709392844e+01
1.096000000000000085e+02 3.174491550547307384e+01
1.100000000000000000e+02 3.168636043956775339e+01
1.104000000000000057e+02 3.162809983945263070e+01
1.108000000000000114e+02 3.157015315665379518e+01
1.112000000000000028e+02 3.151251754077156164e+01
1.116000000000000085e+02 3.145519017778268278e+01
1.120000000000000000e+02 3.139816828944261218e+01
1.124000000000000057e+02 3.134144913269969024e+01
1.128000000000000114e+02 3.128502999912108962e+01
1.132000000000000028e+02 3.122890821433016839e+01
1.136000000000000085e+02 3.117308113745507114e+01
1.140000000000000000e+02 3.111754616058820844e+01
1.144000000000000057e+02 3.106230070825636957e+01
1.148000000000000114e+02 3.100734223690133717e+01
1.152000000000000028e+02 3.095266823437054526e+01
1.156000000000000085e+02 3.089827621941783775e+01
1.160000000000000000e+02 3.084613341332118353e+01
1.164000000000000057e+02 3.079232358774150669e+01
1.168000000000000114e+02 3.073878831519866139e+01
1.172000000000000028e+02 3.068552523482593841e+01
1.176000000000000085e+02 3.063253201429022354e+01
1.180000000000000000e+02 3.057980634934788711e+01
1.184000000000000057e+02 3.052734596340912532e+01
1.188000000000000114e+02 3.047514860711061502e+01
1.192000000000000028e+02 3.042321205789611582e+01
1.196000000000000085e+02 3.037153411960510851e+01
1.200000000000000000e+02 3.032011262206911439e+01
1.204000000000000057e+02 3.026894542071549310e+01
1.208000000000000114e+02 3.021800647787179628e+01
1.212000000000000028e+02 3.016729481055976692e+01
1.216000000000000085e+02 3.011683152799972518e+01
1.220000000000000000e+02 3.006661457952755256e+01
1.224000000000000057e+02 3.001664193827522453e+01
1.228000000000000114e+02 2.996692134939996421e+01
1.232000000000000028e+02 2.991746432553439661e+01
1.236000000000000085e+02 2.986824525784395234e+01
1.240000000000000000e+02 2.981926221666905263e+01
1.244000000000000057e+02 2.977051329434259941e+01
1.248000000000000114e+02 2.972199660486730011e+01
1.252000000000000028e+02 2.967822988776093496e+01
1.256000000000000085e+02 2.963057397384142888e+01
1.260000000000000000e+02 2.958314267534496267e+01
1.264000000000000057e+02 2.953593420811672843e+01
1.268000000000000114e+02 2.948894680792374601e+01
1.272000000000000028e+02 2.944217873016841125e+01
1.276000000000000085e+02 2.939562824960702869e+01
1.280000000000000000e+02 2.934929366007336782e+01
1.284000000000000057e+02 2.930317327420698348e+01
1.288000000000000114e+02 2.925726542318628276e+01
1.291999999999999886e+02 2.921156845646623168e+01
1.296000000000000227e+02 2.916608074152056673e+01
1.300000000000000000e+02 2.912080066358855035e+01
1.304000000000000057e+02 2.907423774061924604e+01
1.308000000000000114e+02 2.902939716354126176e+01
1.311999999999999886e+02 2.898468735512025418e+01
1.316000000000000227e+02 2.894005976798500157e+01
1.320000000000000000e+02 2.889563288448869471e+01
1.324000000000000057e+02 2.885140518456498882e+01
1.328000000000000114e+02 2.880737516432603940e+01
1.331999999999999886e+02 2.876212019295290290e+01
1.336000000000000227e+02 2.871861976403059202e+01
1.340000000000000000e+02 2.867531158363238575e+01
1.344000000000000057e+02 2.863219422059542296e+01
1.348000000000000114e+02 2.858926625873027660e+01
1.351999999999999886e+02 2.854652629661913465e+01
1.356000000000000227e+02 2.850397294741741305e+01
1.360000000000000000e+02 2.846160483865858026e+01
1.364000000000000057e+02 2.841942061206220771e+01
1.368000000000000114e+02 2.837741892334513949e+01
1.371999999999999886e+02 2.833559844203572453e+01
1.376000000000000227e+02 2.829394247191618916e+01
1.380000000000000000e+02 2.825243206953898323e+01
1.384000000000000057e+02 2.821109930085026107e+01
1.388000000000000114e+02 2.816994288554996828e+01
1.392000000000000171e+02 2.812896155630619432e+01
1.395999999999999943e+02 2.808815405858602787e+01
1.400000000000000000e+02 2.804751915048910504e+01
1.404000000000000057e+02 2.800705560258382221e+01
1.408000000000000114e+02 2.796662713926150445e+01
1.412000000000000171e+02 2.792636298407072104e+01
1.415999999999999943e+02 2.788626715587208693e+01
1.420000000000000000e+02 2.784633846934578827e+01
1.424000000000000057e+02 2.780657575090069145e+01
1.428000000000000114e+02 2.776697783852500834e+01
1.432000000000000171e+02 2.772754358163910737e+01
1.435999999999999943e+02 2.768827184095075467e+01
1.440000000000000000e+02 2.764916148831252229e+01
1.444000000000000057e+02 2.761021140658137440e+01
1.448000000000000114e+02 2.757142048948055191e+01
1.452000000000000171e+02 2.753277995868263517e+01
1.455999999999999943e+02 2.749516224014463006e+01
1.460000000000000000e+02 2.745680251089121882e+01
1.464000000000000057e+02 2.741859790881380476e+01
1.468000000000000114e+02 2.738054737764133506e+01
1.472000000000000171e+02 2.734264987120705115e+01
1.475999999999999943e+02 2.730490435332407984e+01
1.480000000000000000e+02 2.726730979766284335e+01
1.484000000000000057e+02 2.722986518763031683e+01
1.488000000000000114e+02 2.719256951625114382e+01
1.492000000000000171e+02 2.715542178605049983e+01
1.495999999999999943e+02 2.711842100893863616e+01
1.500000000000000000e+02 2.708156620609724996e+01
