1.000000000000000000e+01 8.560145409904107510e+02
1.040000000000000036e+01 9.572953298061438545e+02
1.080000000000000071e+01 9.804056520422739140e+02
1.119999999999999929e+01 1.007761681651606978e+03
1.159999999999999964e+01 1.103857690478652103e+03
1.200000000000000000e+01 1.137394826131290301e+03
1.240000000000000036e+01 1.130358534640963171e+03
1.280000000000000071e+01 1.203170672956707676e+03
1.319999999999999929e+01 1.226651522656100269e+03
1.359999999999999964e+01 1.274243855615882694e+03
1.400000000000000000e+01 1.268045298627013835e+03
1.440000000000000036e+01 1.244127269093193718e+03
1.480000000000000071e+01 1.221733212423534951e+03
1.519999999999999929e+01 1.200696905316673337e+03
1.560000000000000142e+01 1.180877528101177177e+03
1.600000000000000000e+01 1.162154729229652276e+03
1.639999999999999858e+01 1.144424840336128682e+03
1.680000000000000071e+01 1.127597932097870398e+03
1.719999999999999929e+01 1.111595494883309357e+03
1.760000000000000142e+01 1.096348590651121640e+03
1.800000000000000000e+01 1.081796365102244181e+03
1.839999999999999858e+01 1.067884838598308079e+03
1.880000000000000071e+01 1.054565915188160943e+03
1.920000000000000284e+01 1.041796564013821808e+03
1.960000000000000142e+01 1.029538138221333838e+03
2.000000000000000000e+01 1.017755804495951111e+03
2.039999999999999858e+01 1.006418062299092753e+03
2.080000000000000071e+01 9.954963363740600926e+02
2.120000000000000284e+01 9.849646295050697518e+02
2.160000000000000142e+01 9.747992251403120463e+02
2.200000000000000000e+01 9.649784315255291176e+02
2.239999999999999858e+01 9.554823605857009170e+02
2.280000000000000071e+01 9.462927360455062171e+02
2.320000000000000284e+01 9.373927262732065628e+02
2.360000000000000142e+01 9.287667981263886077e+02
2.400000000000000000e+01 9.204005887159285066e+02
2.439999999999999858e+01 9.122807925203101149e+02
2.480000000000000071e+01 9.043950617017659397e+02
2.520000000000000284e+01 8.967319178184950488e+02
2.560000000000000142e+01 8.892806734088264875e+02
2.600000000000000000e+01 8.820313621556721273e+02
2.640000000000000213e+01 8.749746765324163107e+02
2.680000000000000071e+01 8.681019119919665172e+02
2.719999999999999929e+01 8.614049168949943578e+02
2.760000000000000142e+01 8.548760474861776402e+02
2.800000000000000000e+01 8.485081273222991740e+02
2.840000000000000213e+01 8.422944106364693653e+02
2.880000000000000071e+01 8.362285491909869961e+02
2.920000000000000284e+01 8.303045622294821442e+02
2.960000000000000142e+01 8.245168091886399679e+02
3.000000000000000000e+01 8.188599648723668452e+02
3.040000000000000213e+01 8.133289968278324977e+02
3.080000000000000071e+01 8.079191446943503934e+02
3.120000000000000284e+01 8.026259013233000132e+02
3.160000000000000142e+01 7.974449954909084681e+02
3.200000000000000000e+01 7.923723760462112295e+02
3.240000000000000568e+01 7.874041973543733093e+02
3.279999999999999716e+01 7.825368059111399361e+02
3.320000000000000284e+01 7.777667280178138753e+02
3.360000000000000142e+01 7.730906584181277594e+02
3.400000000000000000e+01 7.685054498088586570e+02
3.440000000000000568e+01 7.640081031453066771e+02
3.479999999999999716e+01 7.595957586708897225e+02
3.520000000000000284e+01 7.552656876073351668e+02
3.560000000000000142e+01 7.510152844483219496e+02
3.600000000000000000e+01 7.468420598050922763e+02
3.640000000000000568e+01 7.427436337575821881e+02
3.679999999999999716e+01 7.387177296691004358e+02
3.720000000000000284e+01 7.347621684265775457e+02
3.760000000000000142e+01 7.308748630719724133e+02
3.800000000000000000e+01 7.270538137936106295e+02
3.840000000000000568e+01 7.232971032490947891e+02
3.879999999999999716e+01 7.196028921939735028e+02
3.920000000000000284e+01 7.159694153926755007e+02
3.960000000000000142e+01 7.123949777902752203e+02
4.000000000000000000e+01 7.088779509255238054e+02
4.040000000000000568e+01 7.054167695672681475e+02
4.079999999999999716e+01 7.020099285578903618e+02
4.120000000000000284e+01 6.986559798487853641e+02
4.160000000000000142e+01 6.953535297141314686e+02
4.200000000000000000e+01 6.921012361303403395e+02
4.239999999999999858e+01 6.888978063095941025e+02
4.280000000000000426e+01 6.857419943768138637e+02
4.320000000000000284e+01 6.826325991802375484e+02
4.360000000000000142e+01 6.795684622265744110e+02
4.400000000000000000e+01 6.765484657323853526e+02
4.439999999999999858e+01 6.735715307839946036e+02
4.480000000000000426e+01 6.706366155988173432e+02
4.520000000000000284e+01 6.677427138815235139e+02
4.560000000000000142e+01 6.648888532689486510e+02
4.600000000000000000e+01 6.620740938581112687e+02
4.639999999999999858e+01 6.592975268121092540e+02
4.680000000000000426e+01 6.565582730390433426e+02
4.720000000000000284e+01 6.538554819394624928e+02
4.760000000000000142e+01 6.511883302181483941e+02
4.800000000000000000e+01 6.485560207563463564e+02
4.840000000000000568e+01 6.459577815408197239e+02
4.880000000000000426e+01 6.433928646463607492e+02
4.920000000000000284e+01 6.408605452686092576e+02
4.960000000000000142e+01 6.383601208042533699e+02
5.000000000000000000e+01 6.358909099758784578e+02
5.040000000000000568e+01 6.334522519989083094e+02
5.080000000000000426e+01 6.310435057882563115e+02
5.120000000000000284e+01 6.286640492024564537e+02
5.160000000000000142e+01 6.263132783231865233e+02
5.200000000000000000e+01 6.239906067682328512e+02
5.240000000000000568e+01 6.216954650360665937e+02
5.280000000000000426e+01 6.194272998803189694e+02
5.320000000000000284e+01 6.171855737125466703e+02
5.360000000000000142e+01 6.149697640317808691e+02
5.400000000000000000e+01 6.127793628794447613e+02
5.440000000000000568e+01 6.106138763183087121e+02
5.480000000000000426e+01 6.084728239342344978e+02
5.520000000000000284e+01 6.063557383595355077e+02
5.560000000000000142e+01 6.042621648168429829e+02
5.600000000000000000e+01 6.021916606824447626e+02
5.640000000000000568e+01 6.001437950681112170e+02
5.680000000000000426e+01 5.981181484204893195e+02
5.720000000000000284e+01 5.961143121371928828e+02
5.760000000000000142e+01 5.941318881987690474e+02
5.800000000000000000e+01 5.921704888157672713e+02
5.840000000000000568e+01 5.902297360901811771e+02
5.880000000000000426e+01 5.883092616905707928e+02
5.920000000000000284e+01 5.864087065402154622e+02
5.960000000000000142e+01 5.845277205176803363e+02
6.000000000000000000e+01 5.826659621692134579e+02
6.040000000000000568e+01 5.808230984324247856e+02
6.080000000000000426e+01 5.789988043707202223e+02
6.120000000000000284e+01 5.771927629180029271e+02
6.160000000000000142e+01 5.754046646331690908e+02
6.200000000000000000e+01 5.736342074639580915e+02
6.240000000000000568e+01 5.718810965197349105e+02
6.280000000000000426e+01 5.701450438528070208e+02
6.320000000000000284e+01 5.684257682478981906e+02
6.360000000000000142e+01 5.667229950194189314e+02
6.400000000000000000e+01 5.650364558161948025e+02
6.440000000000000568e+01 5.633658884333269725e+02
6.480000000000001137e+01 5.617110366308806988e+02
6.520000000000000284e+01 5.600716499591051161e+02
6.559999999999999432e+01 5.584474835899111440e+02
6.600000000000000000e+01 5.568382981543414871e+02
6.640000000000000568e+01 5.552438595857789778e+02
6.680000000000001137e+01 5.536639389686602044e+02
6.720000000000000284e+01 5.520983123924584106e+02
6.759999999999999432e+01 5.505467608107272781e+02
6.800000000000000000e+01 5.490090699049922023e+02
6.840000000000000568e+01 5.474850299532965892e+02
6.880000000000001137e+01 5.459744357032127482e+02
6.920000000000000284e+01 5.444770862491398020e+02
6.959999999999999432e+01 5.429927849137178555e+02
7.000000000000000000e+01 5.415213391331944877e+02
7.040000000000000568e+01 5.400625603465896347e+02
7.080000000000001137e+01 5.386162638885086835e+02
7.120000000000000284e+01 5.371822688854635999e+02
7.159999999999999432e+01 5.357603981555656674e+02
7.200000000000000000e+01 5.343504781114598927e+02
7.240000000000000568e+01 5.329523386663809106e+02
7.280000000000001137e+01 5.315658131432059008e+02
7.320000000000000284e+01 5.301907381863969704e+02
7.359999999999999432e+01 5.288269536767231784e+02
7.400000000000000000e+01 5.274743026486567032e+02
7.440000000000000568e+01 5.261326312103471992e+02
7.479999999999999716e+01 5.248017884660771415e+02
7.520000000000000284e+01 5.234816264411081193e+02
7.560000000000000853e+01 5.221720000088314464e+02
7.600000000000000000e+01 5.208727668201388497e+02
7.640000000000000568e+01 5.195837872349347890e+02
7.679999999999999716e+01 5.183049242557116258e+02
7.720000000000000284e+01 5.170360434631168118e+02
7.760000000000000853e+01 5.157770129534385433e+02
7.800000000000000000e+01 5.145277032779467845e+02
7.840000000000000568e+01 5.132879873840194023e+02
7.879999999999999716e+01 5.120577405579956576e+02
7.920000000000000284e+01 5.108368403696955511e+02
7.960000000000000853e+01 5.096251666185470413e+02
8.000000000000000000e+01 5.084226012812675322e+02
8.040000000000000568e+01 5.072290284610461413e+02
8.079999999999999716e+01 5.060443343381750765e+02
8.120000000000000284e+01 5.048684071220829424e+02
8.160000000000000853e+01 5.037011370047218861e+02
8.200000000000000000e+01 5.025424161152635634e+02
8.240000000000000568e+01 5.013921384760597562e+02
8.279999999999999716e+01 5.002501999598293878e+02
8.320000000000000284e+01 4.991164982480268009e+02
8.360000000000000853e+01 4.979909327903556573e+02
8.400000000000000000e+01 4.968734047653922516e+02
8.440000000000000568e+01 4.957638170422777080e+02
8.479999999999999716e+01 4.946620741434512638e+02
8.520000000000000284e+01 4.935680822083859312e+02
8.560000000000000853e+01 4.924817489582969756e+02
8.600000000000000000e+01 4.914029836617921774e+02
8.640000000000000568e+01 4.903316971014343721e+02
8.680000000000001137e+01 4.892678015411869978e+02
8.720000000000000284e+01 4.882112106947157031e+02
8.760000000000000853e+01 4.871618396945188465e+02
8.800000000000000000e+01 4.861196050618627282e+02
8.840000000000000568e+01 4.850844246774939847e+02
8.880000000000001137e+01 4.840562177531093084e+02
8.920000000000000284e+01 4.830349048035553210e+02
8.960000000000000853e+01 4.820204076197391601e+02
9.000000000000000000e+01 4.810126492422288038e+02
9.040000000000000568e+01 4.800115539355185774e+02
9.080000000000001137e+01 4.790170471629451754e+02
9.120000000000000284e+01 4.780290555622312354e+02
9.160000000000000853e+01 4.770475069216382167e+02
9.200000000000000000e+01 4.760723301567134058e+02
9.240000000000000568e+01 4.751034552876092221e+02
9.280000000000001137e+01 4.741408134169622031e+02
9.320000000000000284e+01 4.731843367083129692e+02
9.360000000000000853e+01 4.722339583650527857e+02
9.400000000000000000e+01 4.712896126098800096e+02
9.440000000000000568e+01 4.703512346647540312e+02
9.480000000000001137e+01 4.694187607313306785e+02
9.520000000000000284e+01 4.684921279718656706e+02
9.560000000000000853e+01 4.675712744905745240e+02
9.600000000000000000e+01 4.666561393154332791e+02
9.640000000000000568e+01 4.657466623804102142e+02
9.680000000000001137e+01 4.648427845081151304e+02
9.720000000000000284e+01 4.639444473928554089e+02
9.760000000000000853e+01 4.630515935840859925e+02
9.800000000000000000e+01 4.621641664702455046e+02
9.840000000000000568e+01 4.612821102629640677e+02
9.880000000000001137e+01 4.604053699816361700e+02
9.920000000000000284e+01 4.595338914383462452e+02
9.960000000000000853e+01 4.586676212231383261e+02
1.000000000000000000e+02 4.578065066896208464e+02
1.004000000000000057e+02 4.569504959408973832e+02
1.008000000000000114e+02 4.560995378158131643e+02
1.012000000000000028e+02 4.552535818755123955e+02
1.016000000000000085e+02 4.544125783902933335e+02
1.020000000000000000e+02 4.535764783267584335e+02
1.024000000000000057e+02 4.527452333352477467e+02
1.028000000000000114e+02 4.519187957375498854e+02
1.032000000000000028e+02 4.510971185148838458e+02
1.036000000000000085e+02 4.502801552961427660e+02
1.040000000000000000e+02 4.494678603463952982e+02
1.044000000000000057e+02 4.486601885556357274e+02
1.048000000000000114e+02 4.478570954277777787e+02
1.052000000000000028e+02 4.470585370698853467e+02
1.056000000000000085e+02 4.462644701816346355e+02
1.060000000000000000e+02 4.454748520450009437e+02
1.064000000000000057e+02 4.446896405141652622e+02
1.068000000000000114e+02 4.439087940056352863e+02
1.072000000000000028e+02 4.431322714885741334e+02
1.076000000000000085e+02 4.423600324753332416e+02
1.080000000000000000e+02 4.415920370121830842e+02
1.084000000000000057e+02 4.408282456702380045e+02
1.088000000000000114e+02 4.400686195365692583e+02
1.092000000000000028e+02 4.393131202055020594e+02
1.096000000000000085e+02 4.385617097700924205e+02
1.100000000000000000e+02 4.378143508137795266e+02
1.104000000000000057e+02 4.370710064022075585e+02
1.108000000000000114e+02 4.363316400752163418e+02
1.112000000000000028e+02 4.355962158389932597e+02
1.116000000000000085e+02 4.348646981583847833e+02
1.120000000000000000e+02 4.341370519493625579e+02
1.124000000000000057e+02 4.334132425716410921e+02
1.128000000000000114e+02 4.326932358214433521e+02
1.132000000000000028e+02 4.319769979244107390e+02
1.136000000000000085e+02 4.312644955286528443e+02
1.140000000000000000e+02 4.305556956979366987e+02
1.144000000000000057e+02 4.298505659050084660e+02
1.148000000000000114e+02 4.291490740250480940e+02
1.152000000000000028e+02 4.284511883292500443e+02
1.156000000000000085e+02 4.277568774785314645e+02
1.160000000000000000e+02 4.270661105173612668e+02
1.164000000000000057e+02 4.263788568677089188e+02
1.168000000000000114e+02 4.256950863231105586e+02
1.172000000000000028e+02 4.250147690428486271e+02
1.176000000000000085e+02 4.243378755462432537e+02
1.180000000000000000e+02 4.236643767070527247e+02
1.184000000000000057e+02 4.229942437479804767e+02
1.188000000000000114e+02 4.223274482352858286e+02
1.192000000000000028e+02 4.216639620734973732e+02
1.196000000000000085e+02 4.210037575002248218e+02
1.200000000000000000e+02 4.203468070810690733e+02
1.204000000000000057e+02 4.196930837046271563e+02
1.208000000000000114e+02 4.190425605775900522e+02
1.212000000000000028e+02 4.183952112199315252e+02
1.216000000000000085e+02 4.177510094601862534e+02
1.220000000000000000e+02 4.171099294308152139e+02
1.224000000000000057e+02 4.164719455636551402e+02
1.228000000000000114e+02 4.158370325854528460e+02
1.232000000000000028e+02 4.152051655134799262e+02
1.236000000000000085e+02 4.145763196512274362e+02
1.240000000000000000e+02 4.139504705841791861e+02
1.244000000000000057e+02 4.133275941756608063e+02
1.248000000000000114e+02 4.127076665627635066e+02
1.252000000000000028e+02 4.120906641523417306e+02
1.256000000000000085e+02 4.114765636170812400e+02
1.260000000000000000e+02 4.108653418916388773e+02
1.264000000000000057e+02 4.102569761688489507e+02
1.268000000000000114e+02 4.096514438959986819e+02
1.272000000000000028e+02 4.090487227711684000e+02
1.276000000000000085e+02 4.084487907396360242e+02
1.280000000000000000e+02 4.078516259903451555e+02
1.284000000000000057e+02 4.072572069524347853e+02
1.288000000000000114e+02 4.066655122918290886e+02
1.291999999999999886e+02 4.060765209078869020e+02
1.296000000000000227e+02 4.054902119301086145e+02
1.300000000000000000e+02 4.049065647149010374e+02
1.304000000000000057e+02 4.043255588423964468e+02
1.308000000000000114e+02 4.037471741133271621e+02
1.311999999999999886e+02 4.031713905459537841e+02
1.316000000000000227e+02 4.025981883730440813e+02
1.320000000000000000e+02 4.020275480389057066e+02
1.324000000000000057e+02 4.014594501964671167e+02
1.328000000000000114e+02 4.008938757044082877e+02
1.331999999999999886e+02 4.003308056243408259e+02
1.336000000000000227e+02 3.997702212180331003e+02
1.340000000000000000e+02 3.992121039446844293e+02
1.344000000000000057e+02 3.986564354582429246e+02
1.348000000000000114e+02 3.981031976047679564e+02
1.351999999999999886e+02 3.975523724198373543e+02
1.356000000000000227e+02 3.970039421259964456e+02
1.360000000000000000e+02 3.964578891302497254e+02
1.364000000000000057e+02 3.959141960215935114e+02
1.368000000000000114e+02 3.953728455685887297e+02
1.371999999999999886e+02 3.948338207169734346e+02
1.376000000000000227e+02 3.942971045873142657e+02
1.380000000000000000e+02 3.937626804726966157e+02
1.384000000000000057e+02 3.932305318364502682e+02
1.388000000000000114e+02 3.927006423099140875e+02
1.392000000000000171e+02 3.921729956902350409e+02
1.395999999999999943e+02 3.916475759382025217e+02
1.400000000000000000e+02 3.911243671761184828e+02
1.404000000000000057e+02 3.906033536857000286e+02
1.408000000000000114e+02 3.900845199060162827e+02
1.412000000000000171e+02 3.895678504314578277e+02
1.415999999999999943e+02 3.890533300097378060e+02
1.420000000000000000e+02 3.885409435399246831e+02
1.424000000000000057e+02 3.880306760705055922e+02
1.428000000000000114e+02 3.875225127974816814e+02
1.432000000000000171e+02 3.870164390624900079e+02
1.435999999999999943e+02 3.865124403509578315e+02
1.440000000000000000e+02 3.860105022902836254e+02
1.444000000000000057e+02 3.855106106480467929e+02
1.448000000000000114e+02 3.850127513302454076e+02
1.452000000000000171e+02 3.845169103795605565e+02
1.455999999999999943e+02 3.840230739736470014e+02
1.460000000000000000e+02 3.835312284234512390e+02
1.464000000000000057e+02 3.830413601715533218e+02
1.468000000000000114e+02 3.825534557905364750e+02
1.472000000000000171e+02 3.820675019813784274e+02
1.475999999999999943e+02 3.815834855718697440e+02
1.480000000000000000e+02 3.811013935150543830e+02
1.484000000000000057e+02 3.806212128876940710e+02
1.488000000000000114e+02 3.801429308887564957e+02
1.492000000000000171e+02 3.796665348379248144e+02
1.495999999999999943e+02 3.791920121741302410e+02
1.500000000000000000e+02 3.787193504541064613e+02
