1.000000000000000000e+01 9.287416897907817770e+01
1.040000000000000036e+01 8.883339646382091814e+01
1.080000000000000071e+01 9.107201463503577088e+01
1.119999999999999929e+01 9.614476073630092401e+01
1.159999999999999964e+01 9.643197707561164123e+01
1.200000000000000000e+01 9.822542195174112578e+01
1.240000000000000036e+01 9.491539756495569691e+01
1.280000000000000071e+01 9.175806485605285445e+01
1.319999999999999929e+01 8.887178556500585103e+01
1.359999999999999964e+01 8.625741044660853163e+01
1.400000000000000000e+01 8.394900125897746079e+01
1.440000000000000036e+01 8.356770021454910591e+01
1.480000000000000071e+01 8.165050096450437422e+01
1.519999999999999929e+01 7.986221923168038472e+01
1.560000000000000142e+01 7.850252614935577355e+01
1.600000000000000000e+01 7.686122463382336889e+01
1.639999999999999858e+01 7.531896970295181859e+01
1.680000000000000071e+01 7.390234308445332090e+01
1.719999999999999929e+01 7.258478773073996138e+01
1.760000000000000142e+01 7.133512572057389889e+01
1.800000000000000000e+01 7.016699811950687149e+01
1.839999999999999858e+01 6.906531158690116001e+01
1.880000000000000071e+01 6.661654093154022860e+01
1.920000000000000284e+01 6.564534047458347743e+01
1.960000000000000142e+01 6.471468795377154493e+01
2.000000000000000000e+01 6.311615452640867119e+01
2.039999999999999858e+01 6.228723919529137731e+01
2.080000000000000071e+01 6.094564083944611355e+01
2.120000000000000284e+01 6.023558058486825928e+01
2.160000000000000142e+01 5.954969336043974693e+01
2.200000000000000000e+01 5.888659394027406080e+01
2.239999999999999858e+01 5.824500816255648772e+01
2.280000000000000071e+01 5.762376155835965363e+01
2.320000000000000284e+01 5.700934722619221873e+01
2.360000000000000142e+01 5.636741814943933093e+01
2.400000000000000000e+01 5.572170476261870675e+01
2.439999999999999858e+01 5.506860976450057876e+01
2.480000000000000071e+01 5.443662383162163110e+01
2.520000000000000284e+01 5.382461670932839581e+01
2.560000000000000142e+01 5.323154176470778509e+01
2.600000000000000000e+01 5.265642814243518899e+01
2.640000000000000213e+01 5.209837380752429681e+01
2.680000000000000071e+01 5.185146266326039211e+01
2.719999999999999929e+01 5.133881037467417485e+01
2.760000000000000142e+01 5.133935632156396167e+01
2.800000000000000000e+01 5.086236590223137455e+01
2.840000000000000213e+01 5.039788985811790667e+01
2.880000000000000071e+01 4.994537986309542532e+01
2.920000000000000284e+01 4.950432102702269788e+01
2.960000000000000142e+01 4.907422929511038490e+01
3.000000000000000000e+01 4.865464909237941526e+01
3.040000000000000213e+01 4.824817371842431868e+01
3.080000000000000071e+01 4.785170290279024385e+01
3.120000000000000284e+01 4.746427454121722889e+01
3.160000000000000142e+01 4.708782782695443103e+01
3.200000000000000000e+01 4.709731134318839452e+01
3.240000000000000568e+01 4.676533159833845588e+01
3.279999999999999716e+01 4.644005224970666035e+01
3.320000000000000284e+01 4.612124657199387912e+01
3.360000000000000142e+01 4.580869857106772969e+01
3.400000000000000000e+01 4.550220233305033446e+01
3.440000000000000568e+01 4.512520967900302793e+01
3.479999999999999716e+01 4.483453056978260065e+01
3.520000000000000284e+01 4.454926441609072896e+01
3.560000000000000142e+01 4.426924249802354439e+01
3.600000000000000000e+01 4.383354802059943722e+01
3.640000000000000568e+01 4.356551463144329261e+01
3.679999999999999716e+01 4.330220472439746970e+01
3.720000000000000284e+01 4.304347943705169399e+01
3.760000000000000142e+01 4.278920558784639638e+01
3.800000000000000000e+01 4.253925537982566141e+01
3.840000000000000568e+01 4.229350612308157054e+01
3.879999999999999716e+01 4.205021561218515558e+01
3.920000000000000284e+01 4.180885012979610593e+01
3.960000000000000142e+01 4.157090857727747135e+01
4.000000000000000000e+01 4.133382185318591695e+01
4.040000000000000568e+01 4.110001228395865525e+01
4.079999999999999716e+01 4.086535514074256525e+01
4.120000000000000284e+01 4.063453032374290785e+01
4.160000000000000142e+01 4.040743296050653299e+01
4.200000000000000000e+01 4.018396218987862767e+01
4.239999999999999858e+01 3.996402096549450533e+01
4.280000000000000426e+01 3.974751587097997430e+01
4.320000000000000284e+01 3.953435694603987827e+01
4.360000000000000142e+01 3.938186650935880095e+01
4.400000000000000000e+01 3.917545674674377665e+01
4.439999999999999858e+01 3.897212791192160353e+01
4.480000000000000426e+01 3.877180280999715478e+01
4.520000000000000284e+01 3.857440695435307276e+01
4.560000000000000142e+01 3.837986844476164094e+01
4.600000000000000000e+01 3.828464092690644804e+01
4.639999999999999858e+01 3.809514711061851955e+01
4.680000000000000426e+01 3.790832128139312118e+01
4.720000000000000284e+01 3.772410031669458874e+01
4.760000000000000142e+01 3.754242318504821441e+01
4.800000000000000000e+01 3.736323085719325832e+01
4.840000000000000568e+01 3.718694107270759730e+01
4.880000000000000426e+01 3.701387976562570259e+01
4.920000000000000284e+01 3.684309209907598870e+01
4.960000000000000142e+01 3.671814592503180563e+01
5.000000000000000000e+01 3.655556188076059243e+01
5.040000000000000568e+01 3.639505575356869826e+01
5.080000000000000426e+01 3.623658287979640136e+01
5.120000000000000284e+01 3.608188747375898942e+01
5.160000000000000142e+01 3.592980305618296910e+01
5.200000000000000000e+01 3.577955510349082857e+01
5.240000000000000568e+01 3.563110646837616713e+01
5.280000000000000426e+01 3.548442105361267807e+01
5.320000000000000284e+01 3.533946377403474060e+01
5.360000000000000142e+01 3.517290947253784594e+01
5.400000000000000000e+01 3.503119132046666806e+01
5.440000000000000568e+01 3.489111794935691080e+01
5.480000000000000426e+01 3.475265739409952204e+01
5.520000000000000284e+01 3.461577855742635279e+01
5.560000000000000142e+01 3.448045117974393037e+01
5.600000000000000000e+01 3.434664581024209440e+01
5.640000000000000568e+01 3.421433377921425745e+01
5.680000000000000426e+01 3.402800114876028204e+01
5.720000000000000284e+01 3.389898360202403182e+01
5.760000000000000142e+01 3.377137868663169940e+01
5.800000000000000000e+01 3.364516043643212129e+01
5.840000000000000568e+01 3.352030355331842770e+01
5.880000000000000426e+01 3.339678338518380230e+01
5.920000000000000284e+01 3.327378672456009667e+01
5.960000000000000142e+01 3.315117124873843579e+01
6.000000000000000000e+01 3.302984210077169536e+01
6.040000000000000568e+01 3.290977662715555141e+01
6.080000000000000426e+01 3.279095273261712151e+01
6.120000000000000284e+01 3.267334886247606107e+01
6.160000000000000142e+01 3.255694398568443404e+01
6.200000000000000000e+01 3.244171757851447069e+01
6.240000000000000568e+01 3.232764960886520100e+01
6.280000000000000426e+01 3.221319914349516011e+01
6.320000000000000284e+01 3.209989059037560821e+01
6.360000000000000142e+01 3.198771222080949883e+01
6.400000000000000000e+01 3.187664509760865883e+01
6.440000000000000568e+01 3.176667072805149772e+01
6.480000000000001137e+01 3.166252491338219954e+01
6.520000000000000284e+01 3.155539396184436640e+01
6.559999999999999432e+01 3.144929314709324686e+01
6.600000000000000000e+01 3.134420581718063659e+01
6.640000000000000568e+01 3.124011569753161410e+01
6.680000000000001137e+01 3.113700687995693528e+01
6.720000000000000284e+01 3.103486381205563305e+01
6.759999999999999432e+01 3.093367128699166813e+01
6.800000000000000000e+01 3.083341443362890999e+01
6.840000000000000568e+01 3.073407870700972921e+01
6.880000000000001137e+01 3.063564987916308269e+01
6.920000000000000284e+01 3.056585546186216362e+01
6.959999999999999432e+01 3.046990516104454016e+01
7.000000000000000000e+01 3.037481042412100862e+01
7.040000000000000568e+01 3.028055842291689359e+01
7.080000000000001137e+01 3.018698666687850363e+01
7.120000000000000284e+01 3.010793962438323845e+01
7.159999999999999432e+01 3.001745056469641071e+01
7.200000000000000000e+01 2.992774326382099659e+01
7.240000000000000568e+01 2.983880635905012113e+01
7.280000000000001137e+01 2.975062871917247875e+01
7.320000000000000284e+01 2.966319943841499907e+01
7.359999999999999432e+01 2.957650783057879806e+01
7.400000000000000000e+01 2.949054342336111389e+01
7.440000000000000568e+01 2.940529595285647702e+01
7.479999999999999716e+01 2.932075535823009460e+01
7.520000000000000284e+01 2.923691177655748419e+01
7.560000000000000853e+01 2.915387554194209940e+01
7.600000000000000000e+01 2.907167673009345776e+01
7.640000000000000568e+01 2.899014015093488084e+01
7.679999999999999716e+01 2.890925682838506106e+01
7.720000000000000284e+01 2.883394878105988823e+01
7.760000000000000853e+01 2.875435708769641252e+01
7.800000000000000000e+01 2.867539514627031139e+01
7.840000000000000568e+01 2.859705457397447148e+01
7.879999999999999716e+01 2.851932714437307936e+01
7.920000000000000284e+01 2.844220478365620863e+01
7.960000000000000853e+01 2.836567956700380222e+01
8.000000000000000000e+01 2.828974371505535146e+01
8.040000000000000568e+01 2.821438959048145989e+01
8.079999999999999716e+01 2.813960969465409789e+01
8.120000000000000284e+01 2.806539666441189240e+01
8.160000000000000853e+01 2.799174326891758824e+01
8.200000000000000000e+01 2.791864240660423135e+01
8.240000000000000568e+01 2.784608710220744143e+01
8.279999999999999716e+01 2.776032213885768840e+01
8.320000000000000284e+01 2.768878607047066964e+01
8.360000000000000853e+01 2.761786768330233599e+01
8.400000000000000000e+01 2.754746542890981331e+01
8.440000000000000568e+01 2.747757298682196136e+01
8.479999999999999716e+01 2.740818414508893497e+01
8.520000000000000284e+01 2.733929279788812039e+01
8.560000000000000853e+01 2.727089294319440782e+01
8.600000000000000000e+01 2.720297868051298806e+01
8.640000000000000568e+01 2.713554420867245298e+01
8.680000000000001137e+01 2.706858382367656546e+01
8.720000000000000284e+01 2.700209191661262764e+01
8.760000000000000853e+01 2.693606297161486651e+01
8.800000000000000000e+01 2.687049156388097870e+01
8.840000000000000568e+01 2.680537235774032467e+01
8.880000000000001137e+01 2.674070010477215575e+01
8.920000000000000284e+01 2.667646964197221493e+01
8.960000000000000853e+01 2.661258247998411974e+01
9.000000000000000000e+01 2.653852235557651440e+01
9.040000000000000568e+01 2.647563032908819380e+01
9.080000000000001137e+01 2.641316394963626735e+01
9.120000000000000284e+01 2.635111837012451730e+01
9.160000000000000853e+01 2.628948882087836481e+01
9.200000000000000000e+01 2.622827060805526145e+01
9.240000000000000568e+01 2.616745911209498843e+01
9.280000000000001137e+01 2.610704978620855243e+01
9.320000000000000284e+01 2.604703815490464791e+01
9.360000000000000853e+01 2.598741981255256661e+01
9.400000000000000000e+01 2.592819042198037494e+01
9.440000000000000568e+01 2.586934571310753483e+01
9.480000000000001137e+01 2.581088148161079943e+01
9.520000000000000284e+01 2.575279358762253068e+01
9.560000000000000853e+01 2.569507795446044440e+01
9.600000000000000000e+01 2.563773056738792278e+01
9.640000000000000568e+01 2.558385485704691220e+01
9.680000000000001137e+01 2.552792622640833642e+01
9.720000000000000284e+01 2.547188268550299739e+01
9.760000000000000853e+01 2.542896810565978427e+01
9.800000000000000000e+01 2.537373286348258361e+01
9.840000000000000568e+01 2.531884013372390285e+01
9.880000000000001137e+01 2.526428633757849340e+01
9.920000000000000284e+01 2.521006794870594092e+01
9.960000000000000853e+01 2.515618149224200550e+01
1.000000000000000000e+02 2.510262354383272765e+01
1.004000000000000057e+02 2.504939072869056105e+01
1.008000000000000114e+02 2.499647972067219825e+01
1.012000000000000028e+02 2.494388724137720459e+01
1.016000000000000085e+02 2.489161005926708015e+01
1.020000000000000000e+02 2.483964498880423122e+01
1.024000000000000057e+02 2.478798888961008373e+01
1.028000000000000114e+02 2.473663866564222502e+01
1.032000000000000028e+02 2.468559126438969997e+01
1.036000000000000085e+02 2.463484367608617376e+01
1.040000000000000000e+02 2.458439293294045314e+01
1.044000000000000057e+02 2.454279693341037927e+01
1.048000000000000114e+02 2.449336928210922082e+01
1.052000000000000028e+02 2.444426976542796481e+01
1.056000000000000085e+02 2.439560639098917250e+01
1.060000000000000000e+02 2.434721986053186171e+01
1.064000000000000057e+02 2.429910752090190229e+01
1.068000000000000114e+02 2.425126675461518744e+01
1.072000000000000028e+02 2.420369497924133739e+01
1.076000000000000085e+02 2.415638964680018574e+01
1.080000000000000000e+02 2.410934824317116565e+01
1.084000000000000057e+02 2.406256828751490318e+01
1.088000000000000114e+02 2.401604733170693606e+01
1.092000000000000028e+02 2.396978295978318130e+01
1.096000000000000085e+02 2.392377278739688506e+01
1.100000000000000000e+02 2.387773892215534133e+01
1.104000000000000057e+02 2.383193416337793735e+01
1.108000000000000114e+02 2.378637853692197979e+01
1.112000000000000028e+02 2.374106975958118326e+01
1.116000000000000085e+02 2.369600214485102185e+01
1.120000000000000000e+02 2.365117111425966101e+01
1.124000000000000057e+02 2.360658038537199133e+01
1.128000000000000114e+02 2.356222778744167101e+01
1.132000000000000028e+02 2.351811117724042788e+01
1.136000000000000085e+02 2.346660193000452210e+01
1.140000000000000000e+02 2.342301431989933036e+01
1.144000000000000057e+02 2.337965632297446916e+01
1.148000000000000114e+02 2.333652590040578900e+01
1.152000000000000028e+02 2.329362103877850387e+01
1.156000000000000085e+02 2.325093974967998989e+01
1.160000000000000000e+02 2.320848006930052421e+01
1.164000000000000057e+02 2.316624005804175823e+01
1.168000000000000114e+02 2.312421780013284689e+01
1.172000000000000028e+02 2.308241140325402796e+01
1.176000000000000085e+02 2.304081899816739565e+01
1.180000000000000000e+02 2.299943873835486841e+01
1.184000000000000057e+02 2.295826879966298506e+01
1.188000000000000114e+02 2.291730737995460743e+01
1.192000000000000028e+02 2.287655269876711372e+01
1.196000000000000085e+02 2.283347048913454813e+01
1.200000000000000000e+02 2.279327927054032088e+01
1.204000000000000057e+02 2.275328886190706612e+01
1.208000000000000114e+02 2.271349757210898801e+01
1.212000000000000028e+02 2.267390373000927184e+01
1.216000000000000085e+02 2.263450568415623820e+01
1.220000000000000000e+02 2.259519297701788787e+01
1.224000000000000057e+02 2.255600729457043840e+01
1.228000000000000114e+02 2.251701414133602341e+01
1.232000000000000028e+02 2.247821192280881419e+01
1.236000000000000085e+02 2.243959906301890683e+01
1.240000000000000000e+02 2.240117400425514305e+01
1.244000000000000057e+02 2.236293520679308955e+01
1.248000000000000114e+02 2.232488114862791306e+01
1.252000000000000028e+02 2.229152992937431677e+01
1.256000000000000085e+02 2.225424273610535053e+01
1.260000000000000000e+02 2.221713373352326926e+01
1.264000000000000057e+02 2.218020148620227516e+01
1.268000000000000114e+02 2.214344457495237606e+01
1.272000000000000028e+02 2.210684503335376405e+01
1.276000000000000085e+02 2.207029740268843554e+01
1.280000000000000000e+02 2.203392148566593178e+01
1.284000000000000057e+02 2.199771592190018055e+01
1.288000000000000114e+02 2.196167936613666782e+01
1.291999999999999886e+02 2.192581048803588928e+01
1.296000000000000227e+02 2.189010797196068125e+01
1.300000000000000000e+02 2.185457051676721107e+01
1.304000000000000057e+02 2.181919683559958401e+01
1.308000000000000114e+02 2.178877778540028487e+01
1.311999999999999886e+02 2.175381096972339634e+01
1.316000000000000227e+02 2.171900372757702513e+01
1.320000000000000000e+02 2.168435483068135738e+01
1.324000000000000057e+02 2.164986306403239169e+01
1.328000000000000114e+02 2.161552722571730811e+01
1.331999999999999886e+02 2.158134612673309149e+01
1.336000000000000227e+02 2.154731859080807510e+01
1.340000000000000000e+02 2.151344345422662840e+01
1.344000000000000057e+02 2.147971956565669416e+01
1.348000000000000114e+02 2.144614578598027776e+01
1.351999999999999886e+02 2.141272098812676106e+01
1.356000000000000227e+02 2.138082853897605062e+01
1.360000000000000000e+02 2.134789696969848904e+01
1.364000000000000057e+02 2.131511019624791459e+01
1.368000000000000114e+02 2.128246714520471983e+01
1.371999999999999886e+02 2.124996675432301174e+01
1.376000000000000227e+02 2.121760797238098561e+01
1.380000000000000000e+02 2.118538975903373256e+01
1.384000000000000057e+02 2.115331108466845933e+01
1.388000000000000114e+02 2.112137093026204582e+01
1.392000000000000171e+02 2.108956828724095800e+01
1.395999999999999943e+02 2.105790215734334225e+01
1.400000000000000000e+02 2.102639784688986779e+01
1.404000000000000057e+02 2.099504648402885465e+01
1.408000000000000114e+02 2.096369304874484740e+01
1.412000000000000171e+02 2.093246701844360302e+01
1.415999999999999943e+02 2.090137266340124000e+01
1.420000000000000000e+02 2.087040904730199742e+01
1.424000000000000057e+02 2.083957524317728982e+01
1.428000000000000114e+02 2.080887033328571434e+01
1.432000000000000171e+02 2.077829340899488031e+01
1.435999999999999943e+02 2.074784357066514673e+01
1.440000000000000000e+02 2.071749375955258898e+01
1.444000000000000057e+02 2.068723126057155781e+01
1.448000000000000114e+02 2.065709353724497177e+01
1.452000000000000171e+02 2.062707972177664573e+01
1.455999999999999943e+02 2.059718895484526158e+01
1.460000000000000000e+02 2.056742038549788276e+01
1.464000000000000057e+02 2.053777317104514211e+01
1.468000000000000114e+02 2.050824647695796443e+01
1.472000000000000171e+02 2.047883947676595540e+01
1.475999999999999943e+02 2.044955135195724338e+01
1.480000000000000000e+02 2.042038129187992723e+01
1.484000000000000057e+02 2.039132849364492373e+01
1.488000000000000114e+02 2.036239216203041025e+01
1.492000000000000171e+02 2.033357150938754998e+01
1.495999999999999943e+02 2.030149095387172409e+01
1.500000000000000000e+02 2.027297999396682116e+01
