1.000000000000000000e+01 4.571681674050282140e+02
1.040000000000000036e+01 4.899057938608927998e+02
1.080000000000000071e+01 5.322611666246677942e+02
1.119999999999999929e+01 5.582121490972358515e+02
1.159999999999999964e+01 5.976179525907247125e+02
1.200000000000000000e+01 6.264138207690446052e+02
1.240000000000000036e+01 6.282393339205978009e+02
1.280000000000000071e+01 6.357101363283726414e+02
1.319999999999999929e+01 6.394223598221691418e+02
1.359999999999999964e+01 6.395147323788639824e+02
1.400000000000000000e+01 6.272375917214206993e+02
1.440000000000000036e+01 6.157343780262752944e+02
1.480000000000000071e+01 6.049226598434379412e+02
1.519999999999999929e+01 5.947322483475350055e+02
1.560000000000000142e+01 5.851028875000508833e+02
1.600000000000000000e+01 5.759824678651322074e+02
1.639999999999999858e+01 5.673256266385658364e+02
1.680000000000000071e+01 5.590926371171412939e+02
1.719999999999999929e+01 5.512485182041141343e+02
1.760000000000000142e+01 5.437623133495046659e+02
1.800000000000000000e+01 5.366065014832136058e+02
1.839999999999999858e+01 5.297565118629587460e+02
1.880000000000000071e+01 5.231903215235445259e+02
1.920000000000000284e+01 5.168881189680553234e+02
1.960000000000000142e+01 5.108320214154880432e+02
2.000000000000000000e+01 5.050058356754304896e+02
2.039999999999999858e+01 4.993948548099549498e+02
2.080000000000000071e+01 4.939856843427299964e+02
2.120000000000000284e+01 4.887660930114080884e+02
2.160000000000000142e+01 4.837248840224503397e+02
2.200000000000000000e+01 4.788517835239198348e+02
2.239999999999999858e+01 4.741373436101766856e+02
2.280000000000000071e+01 4.695728576491309241e+02
2.320000000000000284e+01 4.651502861049518742e+02
2.360000000000000142e+01 4.608621913375238819e+02
2.400000000000000000e+01 4.567016801101583496e+02
2.439999999999999858e+01 4.526623527412294834e+02
2.480000000000000071e+01 4.487382580028180996e+02
2.520000000000000284e+01 4.449238530074219398e+02
2.560000000000000142e+01 4.412139674380180168e+02
2.600000000000000000e+01 4.376037715717666288e+02
2.640000000000000213e+01 4.340887476269693934e+02
2.680000000000000071e+01 4.306646640294179633e+02
2.719999999999999929e+01 4.273275522502538024e+02
2.760000000000000142e+01 4.240736859147547193e+02
2.800000000000000000e+01 4.208995619215578472e+02
2.840000000000000213e+01 4.178018833459335042e+02
2.880000000000000071e+01 4.147775439298222864e+02
2.920000000000000284e+01 4.118236139862567029e+02
2.960000000000000142e+01 4.089373275671750889e+02
3.000000000000000000e+01 4.061160707620405219e+02
3.040000000000000213e+01 4.033573710105761165e+02
3.080000000000000071e+01 4.006588873266804853e+02
3.120000000000000284e+01 3.980184013425279090e+02
3.160000000000000142e+01 3.954338090922410629e+02
3.200000000000000000e+01 3.929031134635790750e+02
3.240000000000000568e+01 3.904244172540003888e+02
3.279999999999999716e+01 3.879959167743870125e+02
3.320000000000000284e+01 3.856158959498046102e+02
3.360000000000000142e+01 3.832827208720247540e+02
3.400000000000000000e+01 3.809948347632472405e+02
3.440000000000000568e+01 3.787507533146331298e+02
3.479999999999999716e+01 3.765490603669362599e+02
3.520000000000000284e+01 3.743884039037907314e+02
3.560000000000000142e+01 3.722674923311108159e+02
3.600000000000000000e+01 3.701850910186377064e+02
3.640000000000000568e+01 3.681400190819645104e+02
3.679999999999999716e+01 3.661311463854225963e+02
3.720000000000000284e+01 3.641573907480414505e+02
3.760000000000000142e+01 3.622177153364375499e+02
3.800000000000000000e+01 3.603111262299530608e+02
3.840000000000000568e+01 3.584366701446897423e+02
3.879999999999999716e+01 3.565934323042649225e+02
3.920000000000000284e+01 3.547805344461860386e+02
3.960000000000000142e+01 3.529971329537050337e+02
4.000000000000000000e+01 3.512424171038759937e+02
4.040000000000000568e+01 3.495156074233325967e+02
4.079999999999999716e+01 3.478159541440048201e+02
4.120000000000000284e+01 3.461427357516419079e+02
4.160000000000000142e+01 3.444952576205924970e+02
4.200000000000000000e+01 3.428728507288177525e+02
4.239999999999999858e+01 3.412748704476017565e+02
4.280000000000000426e+01 3.397006954008568869e+02
4.320000000000000284e+01 3.381497263893211311e+02
4.360000000000000142e+01 3.366213853753130252e+02
4.400000000000000000e+01 3.351151145240353344e+02
4.439999999999999858e+01 3.336303752977292447e+02
4.480000000000000426e+01 3.321666475992521441e+02
4.520000000000000284e+01 3.307234289619131005e+02
4.560000000000000142e+01 3.293002337826261510e+02
4.600000000000000000e+01 3.278965925956612182e+02
4.639999999999999858e+01 3.265120513844648258e+02
4.680000000000000426e+01 3.251461709292061641e+02
4.720000000000000284e+01 3.237985261878656047e+02
4.760000000000000142e+01 3.224687057088416964e+02
4.800000000000000000e+01 3.211563110731849520e+02
4.840000000000000568e+01 3.198609563647061691e+02
4.880000000000000426e+01 3.185822676663172501e+02
4.920000000000000284e+01 3.173198825810791845e+02
4.960000000000000142e+01 3.160734497765312199e+02
5.000000000000000000e+01 3.148426285509705735e+02
5.040000000000000568e+01 3.136270884204385538e+02
5.080000000000000426e+01 3.124265087252505282e+02
5.120000000000000284e+01 3.112405782549811875e+02
5.160000000000000142e+01 3.100689948908886322e+02
5.200000000000000000e+01 3.089114652648203219e+02
5.240000000000000568e+01 3.077677044337098664e+02
5.280000000000000426e+01 3.066374355688244577e+02
5.320000000000000284e+01 3.055203896589774786e+02
5.360000000000000142e+01 3.044163052269661307e+02
5.400000000000000000e+01 3.033249280585432075e+02
5.440000000000000568e+01 3.022460109432687432e+02
5.480000000000000426e+01 3.011793134266290508e+02
5.520000000000000284e+01 3.001246015728482917e+02
5.560000000000000142e+01 2.990816477378472200e+02
5.600000000000000000e+01 2.980502303518399572e+02
5.640000000000000568e+01 2.970301337110867053e+02
5.680000000000000426e+01 2.960211477783478244e+02
5.720000000000000284e+01 2.950230679916128338e+02
5.760000000000000142e+01 2.940356950806980194e+02
5.800000000000000000e+01 2.930588348913339587e+02
5.840000000000000568e+01 2.920922982163815504e+02
5.880000000000000426e+01 2.911359006338363997e+02
5.920000000000000284e+01 2.901894623513002784e+02
5.960000000000000142e+01 2.892528080566163453e+02
6.000000000000000000e+01 2.883257667743790762e+02
6.040000000000000568e+01 2.874081717280481598e+02
6.080000000000000426e+01 2.864998602074078917e+02
6.120000000000000284e+01 2.856006734411279808e+02
6.160000000000000142e+01 2.847104564741951549e+02
6.200000000000000000e+01 2.838290580499952398e+02
6.240000000000000568e+01 2.829563304968392572e+02
6.280000000000000426e+01 2.820921296187349867e+02
6.320000000000000284e+01 2.812363145902175461e+02
6.360000000000000142e+01 2.803887478550612968e+02
6.400000000000000000e+01 2.795492950287045915e+02
6.440000000000000568e+01 2.787178248042256428e+02
6.480000000000001137e+01 2.778942088617196760e+02
6.520000000000000284e+01 2.770783217809299686e+02
6.559999999999999432e+01 2.762700409569967519e+02
6.600000000000000000e+01 2.754692465191920974e+02
6.640000000000000568e+01 2.746758212525168119e+02
6.680000000000001137e+01 2.738896505220392896e+02
6.720000000000000284e+01 2.731106221998649062e+02
6.759999999999999432e+01 2.723386265946269305e+02
6.800000000000000000e+01 2.715735563833975448e+02
6.840000000000000568e+01 2.708153065459193840e+02
6.880000000000001137e+01 2.700637743010662462e+02
6.920000000000000284e+01 2.693188590454431619e+02
6.959999999999999432e+01 2.685804622940398758e+02
7.000000000000000000e+01 2.678484876228592384e+02
7.040000000000000568e+01 2.671228406134404167e+02
7.080000000000001137e+01 2.664034287992051873e+02
7.120000000000000284e+01 2.656901616135553468e+02
7.159999999999999432e+01 2.649829503396546215e+02
7.200000000000000000e+01 2.642817080618305567e+02
7.240000000000000568e+01 2.635863496185345412e+02
7.280000000000001137e+01 2.628967915568010199e+02
7.320000000000000284e+01 2.622129520881501321e+02
7.359999999999999432e+01 2.615347510458790907e+02
7.400000000000000000e+01 2.608621098436912007e+02
7.440000000000000568e+01 2.601949514356133477e+02
7.479999999999999716e+01 2.595332002771538669e+02
7.520000000000000284e+01 2.588767822876562832e+02
7.560000000000000853e+01 2.582256248138053252e+02
7.600000000000000000e+01 2.575796565942431471e+02
7.640000000000000568e+01 2.569388077252568792e+02
7.679999999999999716e+01 2.563030096274982270e+02
7.720000000000000284e+01 2.556721950136992803e+02
7.760000000000000853e+01 2.550462978573490602e+02
7.800000000000000000e+01 2.544252533622971271e+02
7.840000000000000568e+01 2.538089979332518453e+02
7.879999999999999716e+01 2.531974691471422716e+02
7.920000000000000284e+01 2.525906057253138783e+02
7.960000000000000853e+01 2.519883475065298057e+02
8.000000000000000000e+01 2.513906354207493337e+02
8.040000000000000568e+01 2.507974114636580794e+02
8.079999999999999716e+01 2.502086186719234320e+02
8.120000000000000284e+01 2.496242010991526854e+02
8.160000000000000853e+01 2.490441037925278067e+02
8.200000000000000000e+01 2.484682727700967462e+02
8.240000000000000568e+01 2.478966549986981249e+02
8.279999999999999716e+01 2.473291983724987517e+02
8.320000000000000284e+01 2.467658516921243290e+02
8.360000000000000853e+01 2.462065646443635671e+02
8.400000000000000000e+01 2.456512877824273460e+02
8.440000000000000568e+01 2.450999725067443364e+02
8.479999999999999716e+01 2.445525710462775919e+02
8.520000000000000284e+01 2.440090364403432091e+02
8.560000000000000853e+01 2.434693225209170464e+02
8.600000000000000000e+01 2.429333838954127600e+02
8.640000000000000568e+01 2.424011759299171160e+02
8.680000000000001137e+01 2.418726547328677441e+02
8.720000000000000284e+01 2.413477771391603426e+02
8.760000000000000853e+01 2.408265006946705284e+02
8.800000000000000000e+01 2.403087836411793319e+02
8.840000000000000568e+01 2.397945849016888076e+02
8.880000000000001137e+01 2.392838640661159388e+02
8.920000000000000284e+01 2.387765813773538071e+02
8.960000000000000853e+01 2.382726977176882883e+02
9.000000000000000000e+01 2.377721745955604149e+02
9.040000000000000568e+01 2.372749741326628623e+02
9.080000000000001137e+01 2.367810590513620070e+02
9.120000000000000284e+01 2.362903926624344990e+02
9.160000000000000853e+01 2.358029388531096515e+02
9.200000000000000000e+01 2.353186620754096339e+02
9.240000000000000568e+01 2.348375273347764391e+02
9.280000000000001137e+01 2.343595001789796015e+02
9.320000000000000284e+01 2.338845466872953693e+02
9.360000000000000853e+01 2.334126334599488928e+02
9.400000000000000000e+01 2.329437276078139121e+02
9.440000000000000568e+01 2.324777967423601126e+02
9.480000000000001137e+01 2.320148089658428603e+02
9.520000000000000284e+01 2.315547328617277003e+02
9.560000000000000853e+01 2.310975374853431390e+02
9.600000000000000000e+01 2.306431923547549729e+02
9.640000000000000568e+01 2.301916674418567936e+02
9.680000000000001137e+01 2.297429331636696475e+02
9.720000000000000284e+01 2.292969603738457067e+02
9.760000000000000853e+01 2.288537203543696137e+02
9.800000000000000000e+01 2.284131848074538595e+02
9.840000000000000568e+01 2.279753258476194731e+02
9.880000000000001137e+01 2.275401159939612796e+02
9.920000000000000284e+01 2.271075281625888351e+02
9.960000000000000853e+01 2.266775356592403341e+02
1.000000000000000000e+02 2.262501121720653714e+02
1.004000000000000057e+02 2.258252317645695371e+02
1.008000000000000114e+02 2.254028688687191675e+02
1.012000000000000028e+02 2.249829982782008528e+02
1.016000000000000085e+02 2.245655951418305278e+02
1.020000000000000000e+02 2.241506349571110377e+02
1.024000000000000057e+02 2.237380935639310167e+02
1.028000000000000114e+02 2.233279471384037151e+02
1.032000000000000028e+02 2.229201721868412562e+02
1.036000000000000085e+02 2.225147455398603711e+02
1.040000000000000000e+02 2.221116443466174530e+02
1.044000000000000057e+02 2.217108460691684115e+02
1.048000000000000114e+02 2.213123284769503698e+02
1.052000000000000028e+02 2.209160696413829612e+02
1.056000000000000085e+02 2.205220479305847903e+02
1.060000000000000000e+02 2.201302420042036090e+02
1.064000000000000057e+02 2.197406308083556041e+02
1.068000000000000114e+02 2.193531935706734259e+02
1.072000000000000028e+02 2.189679097954572740e+02
1.076000000000000085e+02 2.185847592589292390e+02
1.080000000000000000e+02 2.182037220045870072e+02
1.084000000000000057e+02 2.178247783386536867e+02
1.088000000000000114e+02 2.174479088256233013e+02
1.092000000000000028e+02 2.170730942838985129e+02
1.096000000000000085e+02 2.167003157815177019e+02
1.100000000000000000e+02 2.163295546319706091e+02
1.104000000000000057e+02 2.159607923900994706e+02
1.108000000000000114e+02 2.155940108480837409e+02
1.112000000000000028e+02 2.152291920315067273e+02
1.116000000000000085e+02 2.148663181955015773e+02
1.120000000000000000e+02 2.145053718209752844e+02
1.124000000000000057e+02 2.141463356109085794e+02
1.128000000000000114e+02 2.137891924867296893e+02
1.132000000000000028e+02 2.134339255847611696e+02
1.136000000000000085e+02 2.130805182527363399e+02
1.140000000000000000e+02 2.127289540463859794e+02
1.144000000000000057e+02 2.123792167260909878e+02
1.148000000000000114e+02 2.120312902536024353e+02
1.152000000000000028e+02 2.116851587888243671e+02
1.156000000000000085e+02 2.113408066866606987e+02
1.160000000000000000e+02 2.109982184939225363e+02
1.164000000000000057e+02 2.106573789462962054e+02
1.168000000000000114e+02 2.103182729653692036e+02
1.172000000000000028e+02 2.099808856557135925e+02
1.176000000000000085e+02 2.096452023020256661e+02
1.180000000000000000e+02 2.093112083663199314e+02
1.184000000000000057e+02 2.089788894851763530e+02
1.188000000000000114e+02 2.086482314670407163e+02
1.192000000000000028e+02 2.083192202895746163e+02
1.196000000000000085e+02 2.079918420970569457e+02
1.200000000000000000e+02 2.076660831978328474e+02
1.204000000000000057e+02 2.073419300618115528e+02
1.208000000000000114e+02 2.070193693180097512e+02
1.212000000000000028e+02 2.066983877521416844e+02
1.216000000000000085e+02 2.063789723042530682e+02
1.220000000000000000e+02 2.060611100663991238e+02
1.224000000000000057e+02 2.057447882803651567e+02
1.228000000000000114e+02 2.054299943354291713e+02
1.232000000000000028e+02 2.051167157661649298e+02
1.236000000000000085e+02 2.048049402502852274e+02
1.240000000000000000e+02 2.044946556065246455e+02
1.244000000000000057e+02 2.041858497925599636e+02
1.248000000000000114e+02 2.038785109029685430e+02
1.252000000000000028e+02 2.035726271672232599e+02
1.256000000000000085e+02 2.032681869477233931e+02
1.260000000000000000e+02 2.029651787378602421e+02
1.264000000000000057e+02 2.026635911601179885e+02
1.268000000000000114e+02 2.023634129642073844e+02
1.272000000000000028e+02 2.020646330252330358e+02
1.276000000000000085e+02 2.017672403418925171e+02
1.280000000000000000e+02 2.014712240347076317e+02
1.284000000000000057e+02 2.011765733442857709e+02
1.288000000000000114e+02 2.008832776296127633e+02
1.291999999999999886e+02 2.005913263663745170e+02
1.296000000000000227e+02 2.003007091453077919e+02
1.300000000000000000e+02 2.000114156705803907e+02
1.304000000000000057e+02 1.997234357581976383e+02
1.308000000000000114e+02 1.994367593344380225e+02
1.311999999999999886e+02 1.991513764343143293e+02
1.316000000000000227e+02 1.988672772000610962e+02
1.320000000000000000e+02 1.985844518796488956e+02
1.324000000000000057e+02 1.983028908253225495e+02
1.328000000000000114e+02 1.980225844921645830e+02
1.331999999999999886e+02 1.977435234366828354e+02
1.336000000000000227e+02 1.974656983154218324e+02
1.340000000000000000e+02 1.971890998835974358e+02
1.344000000000000057e+02 1.969137189937541450e+02
1.348000000000000114e+02 1.966395465944447096e+02
1.351999999999999886e+02 1.963665737289319395e+02
1.356000000000000227e+02 1.960947915339116605e+02
1.360000000000000000e+02 1.958241912382568728e+02
1.364000000000000057e+02 1.955547641617826002e+02
1.368000000000000114e+02 1.952865017140307771e+02
1.371999999999999886e+02 1.950193953930753139e+02
1.376000000000000227e+02 1.947534367843462633e+02
1.380000000000000000e+02 1.944886175594734254e+02
1.384000000000000057e+02 1.942249294751483433e+02
1.388000000000000114e+02 1.939623643720049699e+02
1.392000000000000171e+02 1.937009141735181004e+02
1.395999999999999943e+02 1.934405708849196799e+02
1.400000000000000000e+02 1.931813265921323932e+02
1.404000000000000057e+02 1.929231734607201361e+02
1.408000000000000114e+02 1.926661037348554260e+02
1.412000000000000171e+02 1.924101097363028146e+02
1.415999999999999943e+02 1.921551838634189266e+02
1.420000000000000000e+02 1.919013185901676479e+02
1.424000000000000057e+02 1.916485064651513142e+02
1.428000000000000114e+02 1.913967401106567650e+02
1.432000000000000171e+02 1.911460122217163189e+02
1.435999999999999943e+02 1.908963155651836985e+02
1.440000000000000000e+02 1.906476429788239670e+02
1.444000000000000057e+02 1.903999873704175059e+02
1.448000000000000114e+02 1.901533417168784581e+02
1.452000000000000171e+02 1.899076990633858486e+02
1.455999999999999943e+02 1.896630525225288864e+02
1.460000000000000000e+02 1.894193952734647155e+02
1.464000000000000057e+02 1.891767205610894678e+02
1.468000000000000114e+02 1.889350216952218489e+02
1.472000000000000171e+02 1.886942920497988894e+02
1.475999999999999943e+02 1.884545250620840875e+02
1.480000000000000000e+02 1.882157142318876595e+02
1.484000000000000057e+02 1.879778531207981587e+02
1.488000000000000114e+02 1.877409353514258896e+02
1.492000000000000171e+02 1.875049546066576625e+02
1.495999999999999943e+02 1.872699046289225180e+02
1.500000000000000000e+02 1.870357792194687079e+02
