1.000000000000000000e+01 1.787494948989226771e+02
1.040000000000000036e+01 1.910241875473156483e+02
1.080000000000000071e+01 2.060363314546585514e+02
1.119999999999999929e+01 2.148191888787351331e+02
1.159999999999999964e+01 2.061820427576858492e+02
1.200000000000000000e+01 1.994738045134424169e+02
1.240000000000000036e+01 1.934831226142549099e+02
1.280000000000000071e+01 1.880832693106143552e+02
1.319999999999999929e+01 1.831779804028793706e+02
1.359999999999999964e+01 1.771119325612390583e+02
1.400000000000000000e+01 1.730688792391437403e+02
1.440000000000000036e+01 1.693326820862866953e+02
1.480000000000000071e+01 1.658646430618327940e+02
1.519999999999999929e+01 1.626327723161188885e+02
1.560000000000000142e+01 1.596103324177017271e+02
1.600000000000000000e+01 1.567747567037581575e+02
1.639999999999999858e+01 1.540695405218538383e+02
1.680000000000000071e+01 1.514692687028926343e+02
1.719999999999999929e+01 1.499537733939500868e+02
1.760000000000000142e+01 1.340824259798899902e+02
1.800000000000000000e+01 1.319915458731057356e+02
1.839999999999999858e+01 1.299961716595925338e+02
1.880000000000000071e+01 1.266932290443444629e+02
1.920000000000000284e+01 1.249044637898899310e+02
1.960000000000000142e+01 1.231902411965050135e+02
2.000000000000000000e+01 1.215453526826062500e+02
2.039999999999999858e+01 1.204974238618870999e+02
2.080000000000000071e+01 1.190529386262214615e+02
2.120000000000000284e+01 1.176619274460618954e+02
2.160000000000000142e+01 1.163192491746439856e+02
2.200000000000000000e+01 1.150220607666689574e+02
2.239999999999999858e+01 1.137677549960155261e+02
2.280000000000000071e+01 1.125539352745812209e+02
2.320000000000000284e+01 1.113783937467862586e+02
2.360000000000000142e+01 1.102390921595889779e+02
2.400000000000000000e+01 1.091264312293033214e+02
2.439999999999999858e+01 1.078913327643090838e+02
2.480000000000000071e+01 1.064361945651739063e+02
2.520000000000000284e+01 1.052540985087729553e+02
2.560000000000000142e+01 1.041079057748933963e+02
2.600000000000000000e+01 1.029958093233063892e+02
2.640000000000000213e+01 1.019161282040193299e+02
2.680000000000000071e+01 1.008672963761988086e+02
2.719999999999999929e+01 9.984785272358344344e+01
2.760000000000000142e+01 9.885643211709346190e+01
2.800000000000000000e+01 9.805856543174573403e+01
2.840000000000000213e+01 9.711480142891464595e+01
2.880000000000000071e+01 9.619256720766645685e+01
2.920000000000000284e+01 9.528976810722633672e+01
2.960000000000000142e+01 9.440985807407874120e+01
3.000000000000000000e+01 9.355187668332311546e+01
3.040000000000000213e+01 9.271491935251259520e+01
3.080000000000000071e+01 9.189813321455267214e+01
3.120000000000000284e+01 9.110071335898422262e+01
3.160000000000000142e+01 9.032189940326132671e+01
3.200000000000000000e+01 8.993088069362045189e+01
3.240000000000000568e+01 8.921191596122963574e+01
3.279999999999999716e+01 8.851083073511416899e+01
3.320000000000000284e+01 8.782482517177061254e+01
3.360000000000000142e+01 8.715336064257476778e+01
3.400000000000000000e+01 8.658602161997377777e+01
3.440000000000000568e+01 8.594584697048247790e+01
3.479999999999999716e+01 8.531865043504895141e+01
3.520000000000000284e+01 8.470399501005559273e+01
3.560000000000000142e+01 8.410146419901083448e+01
3.600000000000000000e+01 8.351066078238639534e+01
3.640000000000000568e+01 8.293120567704440305e+01
3.679999999999999716e+01 8.426816342212067923e+01
3.720000000000000284e+01 8.378824202597741078e+01
3.760000000000000142e+01 8.319967593924970117e+01
3.800000000000000000e+01 8.273805868409145603e+01
3.840000000000000568e+01 8.228403680702244571e+01
3.879999999999999716e+01 8.183764644734318949e+01
3.920000000000000284e+01 8.139880432726194215e+01
3.960000000000000142e+01 8.096635512004233703e+01
4.000000000000000000e+01 8.053765415570396158e+01
4.040000000000000568e+01 8.011562583565870455e+01
4.079999999999999716e+01 7.970009554109687144e+01
4.120000000000000284e+01 7.929089506890788641e+01
4.160000000000000142e+01 7.888786232871899529e+01
4.200000000000000000e+01 7.849084105737436801e+01
4.239999999999999858e+01 7.809968054967342255e+01
4.280000000000000426e+01 7.771172935446568886e+01
4.320000000000000284e+01 7.732825538389469955e+01
4.360000000000000142e+01 7.695032624667632604e+01
4.400000000000000000e+01 7.657780726238959801e+01
4.439999999999999858e+01 7.621056833727152480e+01
4.480000000000000426e+01 7.584214597600265506e+01
4.520000000000000284e+01 7.548454215406680134e+01
4.560000000000000142e+01 7.513188270855148687e+01
4.600000000000000000e+01 7.478405270064585864e+01
4.639999999999999858e+01 7.444094094074011991e+01
4.680000000000000426e+01 7.410243983132633616e+01
4.720000000000000284e+01 7.376844521792116893e+01
4.760000000000000142e+01 7.343885624752871877e+01
4.800000000000000000e+01 7.311357523419502513e+01
4.840000000000000568e+01 7.283124298665765650e+01
4.880000000000000426e+01 7.251723629339377908e+01
4.920000000000000284e+01 7.220572561261231215e+01
4.960000000000000142e+01 7.192693479753803842e+01
5.000000000000000000e+01 7.161244467423917115e+01
5.040000000000000568e+01 7.130193168281024896e+01
5.080000000000000426e+01 7.099530429663134612e+01
5.120000000000000284e+01 7.069247760373626477e+01
5.160000000000000142e+01 7.039337273948635243e+01
5.200000000000000000e+01 7.009791313306112670e+01
5.240000000000000568e+01 6.980602442172047972e+01
5.280000000000000426e+01 6.951763436897761039e+01
5.320000000000000284e+01 6.923267278647206524e+01
5.360000000000000142e+01 6.895107145934581183e+01
5.400000000000000000e+01 6.867276407493712043e+01
5.440000000000000568e+01 6.839743291044653972e+01
5.480000000000000426e+01 6.812521811225531110e+01
5.520000000000000284e+01 6.785611991366286588e+01
5.560000000000000142e+01 6.759007862417027468e+01
5.600000000000000000e+01 6.732703615519959328e+01
5.640000000000000568e+01 6.706693596486151421e+01
5.680000000000000426e+01 6.678902530561796880e+01
5.720000000000000284e+01 6.653631677160821312e+01
5.760000000000000142e+01 6.628636558255205102e+01
5.800000000000000000e+01 6.603912140238034567e+01
5.840000000000000568e+01 6.579453518270038614e+01
5.880000000000000426e+01 6.555255912047343259e+01
5.920000000000000284e+01 6.531291222401763719e+01
5.960000000000000142e+01 6.507489969813438790e+01
6.000000000000000000e+01 6.483937188418899211e+01
6.040000000000000568e+01 6.460628540426712618e+01
6.080000000000000426e+01 6.439495648282539264e+01
6.120000000000000284e+01 6.416564396764833589e+01
6.160000000000000142e+01 6.393866844252120529e+01
6.200000000000000000e+01 6.371399007960081917e+01
6.240000000000000568e+01 6.349157000128771244e+01
6.280000000000000426e+01 6.327137025112676127e+01
6.320000000000000284e+01 6.305309901622376856e+01
6.360000000000000142e+01 6.283604831186983120e+01
6.400000000000000000e+01 6.262112848769876905e+01
6.440000000000000568e+01 6.240830456399730508e+01
6.480000000000001137e+01 6.219754236498668831e+01
6.520000000000000284e+01 6.198880849510444335e+01
6.559999999999999432e+01 6.178207031613918332e+01
6.600000000000000000e+01 6.157729592518246164e+01
6.640000000000000568e+01 6.137445413336308775e+01
6.680000000000001137e+01 6.117351444533140636e+01
6.720000000000000284e+01 6.097461153825446445e+01
6.759999999999999432e+01 6.129420935602290399e+01
6.800000000000000000e+01 6.110629301873291297e+01
6.840000000000000568e+01 6.092006801144755457e+01
6.880000000000001137e+01 6.073550867883605520e+01
6.920000000000000284e+01 6.055258991358937948e+01
6.959999999999999432e+01 6.037128714131724649e+01
7.000000000000000000e+01 6.019157630595506703e+01
7.040000000000000568e+01 6.001343385565985500e+01
7.080000000000001137e+01 5.985614758328080853e+01
7.120000000000000284e+01 5.969572658042865498e+01
7.159999999999999432e+01 5.952454487052023069e+01
7.200000000000000000e+01 5.935481659656691278e+01
7.240000000000000568e+01 5.918652095577719763e+01
7.280000000000001137e+01 5.901963756474718537e+01
7.320000000000000284e+01 5.885414644854938615e+01
7.359999999999999432e+01 5.869002803016875447e+01
7.400000000000000000e+01 5.852726312027356670e+01
7.440000000000000568e+01 5.834038464383765188e+01
7.479999999999999716e+01 5.818060547781696812e+01
7.520000000000000284e+01 5.802212251028056755e+01
7.560000000000000853e+01 5.786491801468838503e+01
7.600000000000000000e+01 5.770897460598111905e+01
7.640000000000000568e+01 5.755427523209017693e+01
7.679999999999999716e+01 5.740080316570612950e+01
7.720000000000000284e+01 5.724854199629656648e+01
7.760000000000000853e+01 5.709747562236421459e+01
7.800000000000000000e+01 5.694756688153272961e+01
7.840000000000000568e+01 5.679880364904671808e+01
7.879999999999999716e+01 5.665118777656866200e+01
7.920000000000000284e+01 5.650470435645997469e+01
7.960000000000000853e+01 5.635933875378700009e+01
8.000000000000000000e+01 5.621507659988466088e+01
8.040000000000000568e+01 5.607190378610598458e+01
8.079999999999999716e+01 5.592980645775155324e+01
8.120000000000000284e+01 5.578877100817247481e+01
8.160000000000000853e+01 5.564818905526541215e+01
8.200000000000000000e+01 5.550856965193265324e+01
8.240000000000000568e+01 5.536998228191694693e+01
8.279999999999999716e+01 5.523204784000589029e+01
8.320000000000000284e+01 5.509501110236161026e+01
8.360000000000000853e+01 5.495897334892749342e+01
8.400000000000000000e+01 5.482392232614564875e+01
8.440000000000000568e+01 5.468984599184814499e+01
8.479999999999999716e+01 5.455673251055667095e+01
8.520000000000000284e+01 5.442457024891027828e+01
8.560000000000000853e+01 5.429334777121664501e+01
8.600000000000000000e+01 5.415737315451160327e+01
8.640000000000000568e+01 5.402828285922664975e+01
8.680000000000001137e+01 5.390008816644353828e+01
8.720000000000000284e+01 5.377277866221940883e+01
8.760000000000000853e+01 5.364634410240015683e+01
8.800000000000000000e+01 5.352077440906156625e+01
8.840000000000000568e+01 5.339605966704147733e+01
8.880000000000001137e+01 5.327219012056035297e+01
8.920000000000000284e+01 5.316359933466765852e+01
8.960000000000000853e+01 5.304173984399433550e+01
9.000000000000000000e+01 5.292069357731981682e+01
9.040000000000000568e+01 5.280045143834866650e+01
9.080000000000001137e+01 5.268100447347698889e+01
9.120000000000000284e+01 5.256234386891399879e+01
9.160000000000000853e+01 5.244446094787443258e+01
9.200000000000000000e+01 5.232734716783983941e+01
9.240000000000000568e+01 5.221099411788672739e+01
9.280000000000001137e+01 5.209539351607961066e+01
9.320000000000000284e+01 5.198053720692733748e+01
9.360000000000000853e+01 5.186641715890035442e+01
9.400000000000000000e+01 5.175294372910781959e+01
9.440000000000000568e+01 5.163998077574443357e+01
9.480000000000001137e+01 5.152773398054429776e+01
9.520000000000000284e+01 5.141619573391709253e+01
9.560000000000000853e+01 5.130535853966888737e+01
9.600000000000000000e+01 5.119521501282905263e+01
9.640000000000000568e+01 5.108886526217069957e+01
9.680000000000001137e+01 5.098080684006858831e+01
9.720000000000000284e+01 5.087351353869681247e+01
9.760000000000000853e+01 5.076689086890792169e+01
9.800000000000000000e+01 5.066091862706792881e+01
9.840000000000000568e+01 5.055559016130711569e+01
9.880000000000001137e+01 5.045089891517319813e+01
9.920000000000000284e+01 5.034683842587093494e+01
9.960000000000000853e+01 5.024340232254111527e+01
1.000000000000000000e+02 5.014058432457846237e+01
1.004000000000000057e+02 5.003837823998699008e+01
1.008000000000000114e+02 4.993677796377199485e+01
1.012000000000000028e+02 4.983577747636784494e+01
1.016000000000000085e+02 4.973537084210018833e+01
1.020000000000000000e+02 4.963555220768232346e+01
1.024000000000000057e+02 4.953631580074428342e+01
1.028000000000000114e+02 4.944429158120209422e+01
1.032000000000000028e+02 4.934638488599787820e+01
1.036000000000000085e+02 4.924904236549484438e+01
1.040000000000000000e+02 4.915225856966368667e+01
1.044000000000000057e+02 4.905602812231921916e+01
1.048000000000000114e+02 4.896034571983333450e+01
1.052000000000000028e+02 4.886520612987556689e+01
1.056000000000000085e+02 4.876509332489615645e+01
1.060000000000000000e+02 4.867114716646359085e+01
1.064000000000000057e+02 4.857772819936469233e+01
1.068000000000000114e+02 4.848483146410414690e+01
1.072000000000000028e+02 4.839245206662398857e+01
1.076000000000000085e+02 4.830058517719312761e+01
1.080000000000000000e+02 4.820922602931999279e+01
1.084000000000000057e+02 4.809452013639495505e+01
1.088000000000000114e+02 4.800525727367997320e+01
1.092000000000000028e+02 4.791648461763695366e+01
1.096000000000000085e+02 4.782819763444158667e+01
1.100000000000000000e+02 4.774011631012702139e+01
1.104000000000000057e+02 4.765249134987345769e+01
1.108000000000000114e+02 4.756534071237512507e+01
1.112000000000000028e+02 4.747866007378951281e+01
1.116000000000000085e+02 4.739244516571439902e+01
1.120000000000000000e+02 4.730671310770780025e+01
1.124000000000000057e+02 4.722144282175244001e+01
1.128000000000000114e+02 4.713662500863064508e+01
1.132000000000000028e+02 4.705225562568520559e+01
1.136000000000000085e+02 4.696832136874122909e+01
1.140000000000000000e+02 4.688467715506241973e+01
1.144000000000000057e+02 4.680147101359639805e+01
1.148000000000000114e+02 4.671869908185526299e+01
1.152000000000000028e+02 4.663635754524397470e+01
1.156000000000000085e+02 4.655444263629502899e+01
1.160000000000000000e+02 4.647295063391806025e+01
1.164000000000000057e+02 4.639187786266402469e+01
1.168000000000000114e+02 4.631122069200376501e+01
1.172000000000000028e+02 4.623097553562040218e+01
1.176000000000000085e+02 4.615113885071554023e+01
1.180000000000000000e+02 4.607170713732858047e+01
1.184000000000000057e+02 4.599267693766922349e+01
1.188000000000000114e+02 4.591404483546268978e+01
1.192000000000000028e+02 4.583580745530727540e+01
1.196000000000000085e+02 4.575796146204417880e+01
1.200000000000000000e+02 4.568050356013921487e+01
1.204000000000000057e+02 4.560343049307601859e+01
1.208000000000000114e+02 4.552673904276085892e+01
1.212000000000000028e+02 4.545042602893828843e+01
1.216000000000000085e+02 4.537090260299775224e+01
1.220000000000000000e+02 4.529547480758846945e+01
1.224000000000000057e+02 4.522041545028871212e+01
1.228000000000000114e+02 4.514838415238627078e+01
1.232000000000000028e+02 4.507421311400086950e+01
1.236000000000000085e+02 4.500040045446658610e+01
1.240000000000000000e+02 4.492694325866456495e+01
1.244000000000000057e+02 4.485383864482163574e+01
1.248000000000000114e+02 4.478108376401876711e+01
1.252000000000000028e+02 4.471319540387047198e+01
1.256000000000000085e+02 4.464153345414705143e+01
1.260000000000000000e+02 4.457021079673282316e+01
1.264000000000000057e+02 4.449922472765995707e+01
1.268000000000000114e+02 4.442857257326701159e+01
1.272000000000000028e+02 4.435825168976120381e+01
1.276000000000000085e+02 4.428825946278824688e+01
1.280000000000000000e+02 4.421859330700979740e+01
1.284000000000000057e+02 4.414925066568838474e+01
1.288000000000000114e+02 4.408022901027959506e+01
1.291999999999999886e+02 4.401152584003129675e+01
1.296000000000000227e+02 4.394313868158995007e+01
1.300000000000000000e+02 4.387506508861368815e+01
1.304000000000000057e+02 4.380730264139204166e+01
1.308000000000000114e+02 4.373984894647229993e+01
1.311999999999999886e+02 4.367237634179549133e+01
1.316000000000000227e+02 4.360483726950108263e+01
1.320000000000000000e+02 4.353757767481820196e+01
1.324000000000000057e+02 4.347061652872908155e+01
1.328000000000000114e+02 4.340395631105784702e+01
1.331999999999999886e+02 4.333759474986270277e+01
1.336000000000000227e+02 4.327152959729848192e+01
1.340000000000000000e+02 4.320575862928748023e+01
1.344000000000000057e+02 4.314027964519567604e+01
1.348000000000000114e+02 4.307509046751459891e+01
1.351999999999999886e+02 4.301018894154817929e+01
1.356000000000000227e+02 4.294557293510501239e+01
1.360000000000000000e+02 4.288124033819558889e+01
1.364000000000000057e+02 4.281718906273454905e+01
1.368000000000000114e+02 4.275341704224780415e+01
1.371999999999999886e+02 4.268992223158443977e+01
1.376000000000000227e+02 4.262670260663337984e+01
1.380000000000000000e+02 4.256375616404461226e+01
1.384000000000000057e+02 4.250108092095481993e+01
1.388000000000000114e+02 4.243867491471770848e+01
1.392000000000000171e+02 4.237653620263845511e+01
1.395999999999999943e+02 4.231466286171247759e+01
1.400000000000000000e+02 4.225305298836845225e+01
1.404000000000000057e+02 4.219170469821534653e+01
1.408000000000000114e+02 4.213048106730897047e+01
1.412000000000000171e+02 4.206951067739996830e+01
1.415999999999999943e+02 4.201110647952994270e+01
1.420000000000000000e+02 4.195084627647735687e+01
1.424000000000000057e+02 4.189083797820065058e+01
1.428000000000000114e+02 4.183107981552002741e+01
1.432000000000000171e+02 4.177157003670962609e+01
1.435999999999999943e+02 4.171230690727581703e+01
1.440000000000000000e+02 4.165328870973878850e+01
1.444000000000000057e+02 4.159451374341772123e+01
1.448000000000000114e+02 4.153598032421909636e+01
1.452000000000000171e+02 4.147768678442839985e+01
1.455999999999999943e+02 4.141963147250493193e+01
1.460000000000000000e+02 4.136181275287983539e+01
1.464000000000000057e+02 4.130422900575716483e+01
1.468000000000000114e+02 4.124687862691796170e+01
1.472000000000000171e+02 4.118976002752742005e+01
1.475999999999999943e+02 4.113287163394481638e+01
1.480000000000000000e+02 4.107621188753644503e+01
1.484000000000000057e+02 4.101977924449124657e+01
1.488000000000000114e+02 4.096357217563938491e+01
1.492000000000000171e+02 4.090758916627336106e+01
1.495999999999999943e+02 4.085182871597183407e+01
1.500000000000000000e+02 4.079628933842619176e+01
