1.000000000000000000e+01 1.223720177137663114e+02
1.040000000000000036e+01 1.285289328392250923e+02
1.080000000000000071e+01 1.354518465516371748e+02
1.119999999999999929e+01 1.404274901217251852e+02
1.159999999999999964e+01 1.402507616652856370e+02
1.200000000000000000e+01 1.426945087178775964e+02
1.240000000000000036e+01 1.349079324419419379e+02
1.280000000000000071e+01 1.309996276456793112e+02
1.319999999999999929e+01 1.274735275690270129e+02
1.359999999999999964e+01 1.242863375054021731e+02
1.400000000000000000e+01 1.214599494534133015e+02
1.440000000000000036e+01 1.188451593454134780e+02
1.480000000000000071e+01 1.163353426036681242e+02
1.519999999999999929e+01 1.140006303988713938e+02
1.560000000000000142e+01 1.118205356372870938e+02
1.600000000000000000e+01 1.097778914606677318e+02
1.639999999999999858e+01 1.052308601447028309e+02
1.680000000000000071e+01 1.031361787502451932e+02
1.719999999999999929e+01 1.011651160044741289e+02
1.760000000000000142e+01 9.563374168379647244e+01
1.800000000000000000e+01 9.393529421659715695e+01
1.839999999999999858e+01 9.232228534465150460e+01
1.880000000000000071e+01 8.939167766187587461e+01
1.920000000000000284e+01 8.796534020165114498e+01
1.960000000000000142e+01 8.660382235243339721e+01
2.000000000000000000e+01 8.530214156926487590e+01
2.039999999999999858e+01 8.405585165682504112e+01
2.080000000000000071e+01 8.286721250369589598e+01
2.120000000000000284e+01 8.174547380121869367e+01
2.160000000000000142e+01 8.068717460563240707e+01
2.200000000000000000e+01 7.968207723290024092e+01
2.239999999999999858e+01 7.871235405358055459e+01
2.280000000000000071e+01 7.777591337407223193e+01
2.320000000000000284e+01 7.687083640042668264e+01
2.360000000000000142e+01 7.599535897589383637e+01
2.400000000000000000e+01 7.514397898624088157e+01
2.439999999999999858e+01 7.377229725441489450e+01
2.480000000000000071e+01 7.291702310660414810e+01
2.520000000000000284e+01 7.208850044911979182e+01
2.560000000000000142e+01 7.128534423455937485e+01
2.600000000000000000e+01 7.050626870753998787e+01
2.640000000000000213e+01 6.975007836573740860e+01
2.680000000000000071e+01 6.901565991358127405e+01
2.719999999999999929e+01 6.830197508149505836e+01
2.760000000000000142e+01 6.759894768603541593e+01
2.800000000000000000e+01 6.689288362832647294e+01
2.840000000000000213e+01 6.620553857410875764e+01
2.880000000000000071e+01 6.488445410954585668e+01
2.920000000000000284e+01 6.425313686797200319e+01
2.960000000000000142e+01 6.363769212300542222e+01
3.000000000000000000e+01 6.303745339693681160e+01
3.040000000000000213e+01 6.245179307212966080e+01
3.080000000000000071e+01 6.188011950568373720e+01
3.120000000000000284e+01 6.132187440335240325e+01
3.160000000000000142e+01 6.077653042546018725e+01
3.200000000000000000e+01 6.100044536615065738e+01
3.240000000000000568e+01 6.051648519278631966e+01
3.279999999999999716e+01 6.004315439858075365e+01
3.320000000000000284e+01 5.958006391629256626e+01
3.360000000000000142e+01 5.912684451032971111e+01
3.400000000000000000e+01 5.868314548554567978e+01
3.440000000000000568e+01 5.824863349805747958e+01
3.479999999999999716e+01 5.782299145863044032e+01
3.520000000000000284e+01 5.740591752017778049e+01
3.560000000000000142e+01 5.699712414180670805e+01
3.600000000000000000e+01 5.658794664783874140e+01
3.640000000000000568e+01 5.618749900855133461e+01
3.679999999999999716e+01 5.642997373463420274e+01
3.720000000000000284e+01 5.607080378932360532e+01
3.760000000000000142e+01 5.571817529174111883e+01
3.800000000000000000e+01 5.537188815090845395e+01
3.840000000000000568e+01 5.503175085804375044e+01
3.879999999999999716e+01 5.469758001392079905e+01
3.920000000000000284e+01 5.436919988793981418e+01
3.960000000000000142e+01 5.404586773337328509e+01
4.000000000000000000e+01 5.372496314919550997e+01
4.040000000000000568e+01 5.331030634746027630e+01
4.079999999999999716e+01 5.299763625746872719e+01
4.120000000000000284e+01 5.269008904545058414e+01
4.160000000000000142e+01 5.238752336338285431e+01
4.200000000000000000e+01 5.208980333183255595e+01
4.239999999999999858e+01 5.179679826835292999e+01
4.280000000000000426e+01 5.150838243231185487e+01
4.320000000000000284e+01 5.122443478498282587e+01
4.360000000000000142e+01 5.094483876382454923e+01
4.400000000000000000e+01 5.066948206996192994e+01
4.439999999999999858e+01 5.039825646795976866e+01
4.480000000000000426e+01 5.013083972528117727e+01
4.520000000000000284e+01 4.986512926445894323e+01
4.560000000000000142e+01 4.978354072841116817e+01
4.600000000000000000e+01 4.953692771024579855e+01
4.639999999999999858e+01 4.929373610979507703e+01
4.680000000000000426e+01 4.905388610509896097e+01
4.720000000000000284e+01 4.881730047819752372e+01
4.760000000000000142e+01 4.858390450633156377e+01
4.800000000000000000e+01 4.835362585867120799e+01
4.840000000000000568e+01 4.812639449824240501e+01
4.880000000000000426e+01 4.790214258874368625e+01
4.920000000000000284e+01 4.768031963064569112e+01
4.960000000000000142e+01 4.750004312560082553e+01
5.000000000000000000e+01 4.728655792311926120e+01
5.040000000000000568e+01 4.707635963389435574e+01
5.080000000000000426e+01 4.686881784226886793e+01
5.120000000000000284e+01 4.666387622793563850e+01
5.160000000000000142e+01 4.646148013977679625e+01
5.200000000000000000e+01 4.626157653248780122e+01
5.240000000000000568e+01 4.606411390612930745e+01
5.280000000000000426e+01 4.586904224844774802e+01
5.320000000000000284e+01 4.567631297981558447e+01
5.360000000000000142e+01 4.548587890065107331e+01
5.400000000000000000e+01 4.529769414118661786e+01
5.440000000000000568e+01 4.511171411346193594e+01
5.480000000000000426e+01 4.492789546542638135e+01
5.520000000000000284e+01 4.474555836862360536e+01
5.560000000000000142e+01 4.456349082984593224e+01
5.600000000000000000e+01 4.438167884310473710e+01
5.640000000000000568e+01 4.420193637215618310e+01
5.680000000000000426e+01 4.402422379970748523e+01
5.720000000000000284e+01 4.384850257057189538e+01
5.760000000000000142e+01 4.367473515513414384e+01
5.800000000000000000e+01 4.350288501434721411e+01
5.840000000000000568e+01 4.333291656618455079e+01
5.880000000000000426e+01 4.316479515347694473e+01
5.920000000000000284e+01 4.299825261969481716e+01
5.960000000000000142e+01 4.283260670349024934e+01
6.000000000000000000e+01 4.266871998784634457e+01
6.040000000000000568e+01 4.250656105296962295e+01
6.080000000000000426e+01 4.237121502933332806e+01
6.120000000000000284e+01 4.221373398259617460e+01
6.160000000000000142e+01 4.205787533558079616e+01
6.200000000000000000e+01 4.190361101502279695e+01
6.240000000000000568e+01 4.175091362741253675e+01
6.280000000000000426e+01 4.159975643788831690e+01
6.320000000000000284e+01 4.145011334992766194e+01
6.360000000000000142e+01 4.130195888580144015e+01
6.400000000000000000e+01 4.115526816775700070e+01
6.440000000000000568e+01 4.101001689989818999e+01
6.480000000000001137e+01 4.086618135073209857e+01
6.520000000000000284e+01 4.072373833635345619e+01
6.559999999999999432e+01 4.058266520423933343e+01
6.600000000000000000e+01 4.044293981762807988e+01
6.640000000000000568e+01 4.030454054045763002e+01
6.680000000000001137e+01 4.016753844847782062e+01
6.720000000000000284e+01 4.003183180166465149e+01
6.759999999999999432e+01 4.006939498646734421e+01
6.800000000000000000e+01 3.997132695522509493e+01
6.840000000000000568e+01 3.984420014510097019e+01
6.880000000000001137e+01 3.971821534196033099e+01
6.920000000000000284e+01 3.959335521881892817e+01
6.959999999999999432e+01 3.946960281773963430e+01
7.000000000000000000e+01 3.934694153972787944e+01
7.040000000000000568e+01 3.922535513496471538e+01
7.080000000000001137e+01 3.910482769336422137e+01
7.120000000000000284e+01 3.899909958224408513e+01
7.159999999999999432e+01 3.888214927551102562e+01
7.200000000000000000e+01 3.876619743701278509e+01
7.240000000000000568e+01 3.865122965426481016e+01
7.280000000000001137e+01 3.851654636908965301e+01
7.320000000000000284e+01 3.840477349613901481e+01
7.359999999999999432e+01 3.829393420662864855e+01
7.400000000000000000e+01 3.818401533078460375e+01
7.440000000000000568e+01 3.807500395978249941e+01
7.479999999999999716e+01 3.796688743909639641e+01
7.520000000000000284e+01 3.785965336205494225e+01
7.560000000000000853e+01 3.775328956359680888e+01
7.600000000000000000e+01 3.764778411421831805e+01
7.640000000000000568e+01 3.754312531410622000e+01
7.679999999999999716e+01 3.743930168744892484e+01
7.720000000000000284e+01 3.733630197691991270e+01
7.760000000000000853e+01 3.723411513832694197e+01
7.800000000000000000e+01 3.713273033542134272e+01
7.840000000000000568e+01 3.703213693486177505e+01
7.879999999999999716e+01 3.693232450132686751e+01
7.920000000000000284e+01 3.683218602251596963e+01
7.960000000000000853e+01 3.673271025565348680e+01
8.000000000000000000e+01 3.663399359088294460e+01
8.040000000000000568e+01 3.653535990499749175e+01
8.079999999999999716e+01 3.643736747766131856e+01
8.120000000000000284e+01 3.634011399259104280e+01
8.160000000000000853e+01 3.624359002816507314e+01
8.200000000000000000e+01 3.614778633147214748e+01
8.240000000000000568e+01 3.605269381442660404e+01
8.279999999999999716e+01 3.595793728682039614e+01
8.320000000000000284e+01 3.586376537239675599e+01
8.360000000000000853e+01 3.577028313276193927e+01
8.400000000000000000e+01 3.567748203156677533e+01
8.440000000000000568e+01 3.558535368082157646e+01
8.479999999999999716e+01 3.549388983758115756e+01
8.520000000000000284e+01 3.540308240072005930e+01
8.560000000000000853e+01 3.532468859125188487e+01
8.600000000000000000e+01 3.523668236377585572e+01
8.640000000000000568e+01 3.514928770066705965e+01
8.680000000000001137e+01 3.506250612232724961e+01
8.720000000000000284e+01 3.497633038838705488e+01
8.760000000000000853e+01 3.489075337834677271e+01
8.800000000000000000e+01 3.480576808902759467e+01
8.840000000000000568e+01 3.472136763208887800e+01
8.880000000000001137e+01 3.463754523160962151e+01
8.920000000000000284e+01 3.455429422173190801e+01
8.960000000000000853e+01 3.447160804436471437e+01
9.000000000000000000e+01 3.438948024694612116e+01
9.040000000000000568e+01 3.430790448026222350e+01
9.080000000000001137e+01 3.422687449632091727e+01
9.120000000000000284e+01 3.414638414627926011e+01
9.160000000000000853e+01 3.406642737842240365e+01
9.200000000000000000e+01 3.398699823619287486e+01
9.240000000000000568e+01 3.390800406131729261e+01
9.280000000000001137e+01 3.382919201976280021e+01
9.320000000000000284e+01 3.375089297206618966e+01
9.360000000000000853e+01 3.367310129053976908e+01
9.400000000000000000e+01 3.359581143408021831e+01
9.440000000000000568e+01 3.351901794645716848e+01
9.480000000000001137e+01 3.345924603686771093e+01
9.520000000000000284e+01 3.338417044418556401e+01
9.560000000000000853e+01 3.330956873982864153e+01
9.600000000000000000e+01 3.323543587520697429e+01
9.640000000000000568e+01 3.316487426186920118e+01
9.680000000000001137e+01 3.309238372198188216e+01
9.720000000000000284e+01 3.302034150611189034e+01
9.760000000000000853e+01 3.294874293114953900e+01
9.800000000000000000e+01 3.287758338267803992e+01
9.840000000000000568e+01 3.280685831367762972e+01
9.880000000000001137e+01 3.273656324325967404e+01
9.920000000000000284e+01 3.266669375542974763e+01
9.960000000000000853e+01 3.260052179241471748e+01
1.000000000000000000e+02 3.253209428675110360e+01
1.004000000000000057e+02 3.246407647514704564e+01
1.008000000000000114e+02 3.239646421882112293e+01
1.012000000000000028e+02 3.232925343769384341e+01
1.016000000000000085e+02 3.226244010931682027e+01
1.020000000000000000e+02 3.219602026782604298e+01
1.024000000000000057e+02 3.212999000291807761e+01
1.028000000000000114e+02 3.206434545884913234e+01
1.032000000000000028e+02 3.199908283345602200e+01
1.036000000000000085e+02 3.193419837719859800e+01
1.040000000000000000e+02 3.186968839222312155e+01
1.044000000000000057e+02 3.180554923144596557e+01
1.048000000000000114e+02 3.174177729765713352e+01
1.052000000000000028e+02 3.167836904264317965e+01
1.056000000000000085e+02 3.161532096632890187e+01
1.060000000000000000e+02 3.155262961593744109e+01
1.064000000000000057e+02 3.149029158516824367e+01
1.068000000000000114e+02 3.142830351339247130e+01
1.072000000000000028e+02 3.136648778314593500e+01
1.076000000000000085e+02 3.130497808880950927e+01
1.080000000000000000e+02 3.124380929283534414e+01
1.084000000000000057e+02 3.117502827756603878e+01
1.088000000000000114e+02 3.111489670084966974e+01
1.092000000000000028e+02 3.105509537544780230e+01
1.096000000000000085e+02 3.099548074682345700e+01
1.100000000000000000e+02 3.093588454871656168e+01
1.104000000000000057e+02 3.087659017563071728e+01
1.108000000000000114e+02 3.081761698481930978e+01
1.112000000000000028e+02 3.075896203317375210e+01
1.116000000000000085e+02 3.070062241549445403e+01
1.120000000000000000e+02 3.064259526386243948e+01
1.124000000000000057e+02 3.058487774702368966e+01
1.128000000000000114e+02 3.052746706978588520e+01
1.132000000000000028e+02 3.047036047242733048e+01
1.136000000000000085e+02 3.041355523011762330e+01
1.140000000000000000e+02 3.035704865235000227e+01
1.144000000000000057e+02 3.030083808238486753e+01
1.148000000000000114e+02 3.024505238359944315e+01
1.152000000000000028e+02 3.018983961190864207e+01
1.156000000000000085e+02 3.013491330895925202e+01
1.160000000000000000e+02 3.008027096205959339e+01
1.164000000000000057e+02 3.002591008949689311e+01
1.168000000000000114e+02 2.997182824004574542e+01
1.172000000000000028e+02 2.991802299248605124e+01
1.176000000000000085e+02 2.986449195513033317e+01
1.180000000000000000e+02 2.981123276536008859e+01
1.184000000000000057e+02 2.975824308917104588e+01
1.188000000000000114e+02 2.970552062072721000e+01
1.192000000000000028e+02 2.965306308192323570e+01
1.196000000000000085e+02 2.960086822195523126e+01
1.200000000000000000e+02 2.954893381689967313e+01
1.204000000000000057e+02 2.949725766930015780e+01
1.208000000000000114e+02 2.944583760776206915e+01
1.212000000000000028e+02 2.939467148655468520e+01
1.216000000000000085e+02 2.934375718522080945e+01
1.220000000000000000e+02 2.929309260819359295e+01
1.224000000000000057e+02 2.924267568442049736e+01
1.228000000000000114e+02 2.919232851603398160e+01
1.232000000000000028e+02 2.914220525080229152e+01
1.236000000000000085e+02 2.909232447942949307e+01
1.240000000000000000e+02 2.904268421734418126e+01
1.244000000000000057e+02 2.899328250280904484e+01
1.248000000000000114e+02 2.894411739658263727e+01
1.252000000000000028e+02 2.889970658574961959e+01
1.256000000000000085e+02 2.885141084949095358e+01
1.260000000000000000e+02 2.880334394918752494e+01
1.264000000000000057e+02 2.875709859284732772e+01
1.268000000000000114e+02 2.870975073571968750e+01
1.272000000000000028e+02 2.866262467032968431e+01
1.276000000000000085e+02 2.861571863761182044e+01
1.280000000000000000e+02 2.856903089812992036e+01
1.284000000000000057e+02 2.852255973179502746e+01
1.288000000000000114e+02 2.847630343758820715e+01
1.291999999999999886e+02 2.843026033328819580e+01
1.296000000000000227e+02 2.838442875520389208e+01
1.300000000000000000e+02 2.833880705791140997e+01
1.304000000000000057e+02 2.829339361399573960e+01
1.308000000000000114e+02 2.825240538952872882e+01
1.311999999999999886e+02 2.820749570650000493e+01
1.316000000000000227e+02 2.816266971673959318e+01
1.320000000000000000e+02 2.811804588021380624e+01
1.324000000000000057e+02 2.807362265484269415e+01
1.328000000000000114e+02 2.802939851509101743e+01
1.331999999999999886e+02 2.798537195173966907e+01
1.336000000000000227e+02 2.794154147166089075e+01
1.340000000000000000e+02 2.789790559759741484e+01
1.344000000000000057e+02 2.785446286794511650e+01
1.348000000000000114e+02 2.781121183653954176e+01
1.351999999999999886e+02 2.776815107244574676e+01
1.356000000000000227e+02 2.772527915975185309e+01
1.360000000000000000e+02 2.768259469736588940e+01
1.364000000000000057e+02 2.764009629881601882e+01
1.368000000000000114e+02 2.759778259205410222e+01
1.371999999999999886e+02 2.755565221926244490e+01
1.376000000000000227e+02 2.751370383666372987e+01
1.380000000000000000e+02 2.747193611433405991e+01
1.384000000000000057e+02 2.743034773601898024e+01
1.388000000000000114e+02 2.738893739895261703e+01
1.392000000000000171e+02 2.734770847861011589e+01
1.395999999999999943e+02 2.730666441553348633e+01
1.400000000000000000e+02 2.726579453956136234e+01
1.404000000000000057e+02 2.722509760031692849e+01
1.408000000000000114e+02 2.718443730156261751e+01
1.412000000000000171e+02 2.714394284652891542e+01
1.415999999999999943e+02 2.710361823406387316e+01
1.420000000000000000e+02 2.706346225913528514e+01
1.424000000000000057e+02 2.702347372873472864e+01
1.428000000000000114e+02 2.698365146172312024e+01
1.432000000000000171e+02 2.694389119887504336e+01
1.435999999999999943e+02 2.690429362067880348e+01
1.440000000000000000e+02 2.686485942130239835e+01
1.444000000000000057e+02 2.682558746073939560e+01
1.448000000000000114e+02 2.678647661016859871e+01
1.452000000000000171e+02 2.674752575181274850e+01
1.455999999999999943e+02 2.670873377879943789e+01
1.460000000000000000e+02 2.667009959502409089e+01
1.464000000000000057e+02 2.663162211501517973e+01
1.468000000000000114e+02 2.659330026380134626e+01
1.472000000000000171e+02 2.655513297678066209e+01
1.475999999999999943e+02 2.651711919959183206e+01
1.480000000000000000e+02 2.647616878688619124e+01
1.484000000000000057e+02 2.643857735459307889e+01
1.488000000000000114e+02 2.640113590542507183e+01
1.492000000000000171e+02 2.636384342745138554e+01
1.495999999999999943e+02 2.632669891834196108e+01
1.500000000000000000e+02 2.628970138525023970e+01
