1.000000000000000000e+01 5.015939110497304796e+02
1.040000000000000036e+01 5.147416457952664359e+02
1.080000000000000071e+01 5.293816915757835204e+02
1.119999999999999929e+01 5.393780515319006099e+02
1.159999999999999964e+01 5.686675488347190139e+02
1.200000000000000000e+01 6.142526894978834662e+02
1.240000000000000036e+01 6.423096113715424735e+02
1.280000000000000071e+01 6.953244507505135061e+02
1.319999999999999929e+01 7.175987176405351420e+02
1.359999999999999964e+01 7.301080785924725660e+02
1.400000000000000000e+01 7.483210918979649477e+02
1.440000000000000036e+01 7.607259975623132959e+02
1.480000000000000071e+01 7.650641969223220258e+02
1.519999999999999929e+01 7.505007443255582302e+02
1.560000000000000142e+01 7.368529947092586099e+02
1.600000000000000000e+01 7.240223988409022695e+02
1.639999999999999858e+01 7.119253305923216431e+02
1.680000000000000071e+01 7.004902031574881676e+02
1.719999999999999929e+01 6.896552556570367187e+02
1.760000000000000142e+01 6.793668298789639266e+02
1.800000000000000000e+01 6.695780114277063149e+02
1.839999999999999858e+01 6.602475458963889423e+02
1.880000000000000071e+01 6.513389654199512506e+02
1.920000000000000284e+01 6.428198781356516065e+02
1.960000000000000142e+01 6.346613851967733808e+02
2.000000000000000000e+01 6.268375986745138562e+02
2.039999999999999858e+01 6.193252400018698154e+02
2.080000000000000071e+01 6.121033032685469379e+02
2.120000000000000284e+01 6.051527711466719666e+02
2.160000000000000142e+01 5.984563738434022753e+02
2.200000000000000000e+01 5.919983834689410287e+02
2.239999999999999858e+01 5.857644377401699103e+02
2.280000000000000071e+01 5.797413881280297119e+02
2.320000000000000284e+01 5.739171684856854654e+02
2.360000000000000142e+01 5.682806809264543517e+02
2.400000000000000000e+01 5.628216963013999248e+02
2.439999999999999858e+01 5.575307670906825024e+02
2.480000000000000071e+01 5.523991508960200463e+02
2.520000000000000284e+01 5.474187430235939473e+02
2.560000000000000142e+01 5.425820168923995652e+02
2.600000000000000000e+01 5.378819712040027525e+02
2.640000000000000213e+01 5.333120829748585265e+02
2.680000000000000071e+01 5.288662656688278503e+02
2.719999999999999929e+01 5.245388317807805834e+02
2.760000000000000142e+01 5.203244593165723018e+02
2.800000000000000000e+01 5.162181616936899218e+02
2.840000000000000213e+01 5.122152606532529262e+02
2.880000000000000071e+01 5.083113618300515100e+02
2.920000000000000284e+01 5.045023326747088390e+02
2.960000000000000142e+01 5.007842824623220963e+02
3.000000000000000000e+01 4.971535441562513142e+02
3.040000000000000213e+01 4.936066579250719997e+02
3.080000000000000071e+01 4.901403561358691832e+02
3.120000000000000284e+01 4.867515496686922916e+02
3.160000000000000142e+01 4.834373154156611463e+02
3.200000000000000000e+01 4.801948848443570341e+02
3.240000000000000568e+01 4.770216335191344115e+02
3.279999999999999716e+01 4.739150714861602296e+02
3.320000000000000284e+01 4.708728344385892797e+02
3.360000000000000142e+01 4.678926755875562549e+02
3.400000000000000000e+01 4.649724581727637087e+02
3.440000000000000568e+01 4.621101485535731399e+02
3.479999999999999716e+01 4.593038098277486938e+02
3.520000000000000284e+01 4.565515959305241722e+02
3.560000000000000142e+01 4.538517461715255195e+02
3.600000000000000000e+01 4.512025801713798501e+02
3.640000000000000568e+01 4.486024931636609381e+02
3.679999999999999716e+01 4.460499516311987236e+02
3.720000000000000284e+01 4.435434892487937759e+02
3.760000000000000142e+01 4.410817031070557732e+02
3.800000000000000000e+01 4.386632501944746991e+02
3.840000000000000568e+01 4.362868441169741232e+02
3.879999999999999716e+01 4.339512520361038241e+02
3.920000000000000284e+01 4.316552918087435273e+02
3.960000000000000142e+01 4.293978293127327106e+02
4.000000000000000000e+01 4.271777759442156253e+02
4.040000000000000568e+01 4.249940862737444149e+02
4.079999999999999716e+01 4.228457558492987118e+02
4.120000000000000284e+01 4.207318191353956536e+02
4.160000000000000142e+01 4.186513475783793297e+02
4.200000000000000000e+01 4.166034477888056813e+02
4.239999999999999858e+01 4.145872598325893819e+02
4.280000000000000426e+01 4.126019556232600962e+02
4.320000000000000284e+01 4.106467374082926654e+02
4.360000000000000142e+01 4.087208363430377176e+02
4.400000000000000000e+01 4.068235111462896612e+02
4.439999999999999858e+01 4.049540468319973456e+02
4.480000000000000426e+01 4.031117535120415027e+02
4.520000000000000284e+01 4.012959652653992180e+02
4.560000000000000142e+01 3.995060390693618046e+02
4.600000000000000000e+01 3.977413537888014048e+02
4.639999999999999858e+01 3.960013092197785340e+02
4.680000000000000426e+01 3.942853251840510893e+02
4.720000000000000284e+01 3.925928406712994274e+02
4.760000000000000142e+01 3.909233130261084170e+02
4.800000000000000000e+01 3.892762171769573456e+02
4.840000000000000568e+01 3.876510449046663211e+02
4.880000000000000426e+01 3.860473041479207268e+02
4.920000000000000284e+01 3.844645183436634284e+02
4.960000000000000142e+01 3.829022258002939907e+02
5.000000000000000000e+01 3.813599791017553002e+02
5.040000000000000568e+01 3.798373445407154918e+02
5.080000000000000426e+01 3.783339015791734710e+02
5.120000000000000284e+01 3.768492423349265437e+02
5.160000000000000142e+01 3.753829710924402434e+02
5.200000000000000000e+01 3.739347038367558298e+02
5.240000000000000568e+01 3.725040678091581867e+02
5.280000000000000426e+01 3.710907010834071116e+02
5.320000000000000284e+01 3.696942521614140560e+02
5.360000000000000142e+01 3.683143795873106114e+02
5.400000000000000000e+01 3.669507515789269974e+02
5.440000000000000568e+01 3.656030456757533216e+02
5.480000000000000426e+01 3.642709484025175470e+02
5.520000000000000284e+01 3.629541549475624151e+02
5.560000000000000142e+01 3.616523688552576346e+02
5.600000000000000000e+01 3.603653017317229796e+02
5.640000000000000568e+01 3.590926729631855778e+02
5.680000000000000426e+01 3.578342094463340572e+02
5.720000000000000284e+01 3.565896453300643429e+02
5.760000000000000142e+01 3.553587217680527601e+02
5.800000000000000000e+01 3.541411866816220027e+02
5.840000000000000568e+01 3.529367945323942308e+02
5.880000000000000426e+01 3.517453061042566560e+02
5.920000000000000284e+01 3.505664882941897531e+02
5.960000000000000142e+01 3.494001139115335945e+02
6.000000000000000000e+01 3.482459614852927530e+02
6.040000000000000568e+01 3.471038150790988084e+02
6.080000000000000426e+01 3.459734641134728577e+02
6.120000000000000284e+01 3.448547031950485007e+02
6.160000000000000142e+01 3.437473319524354451e+02
6.200000000000000000e+01 3.426511548784163779e+02
6.240000000000000568e+01 3.415659811781934536e+02
6.280000000000000426e+01 3.404916246234078585e+02
6.320000000000000284e+01 3.394279034116744924e+02
6.360000000000000142e+01 3.383746400313880258e+02
6.400000000000000000e+01 3.373316611315641467e+02
6.440000000000000568e+01 3.362987973964980029e+02
6.480000000000001137e+01 3.352758834250280984e+02
6.520000000000000284e+01 3.342627576142064072e+02
6.559999999999999432e+01 3.332592620471858709e+02
6.600000000000000000e+01 3.322652423851442336e+02
6.640000000000000568e+01 3.312805477630743098e+02
6.680000000000001137e+01 3.303050306892756680e+02
6.720000000000000284e+01 3.293385469483949919e+02
6.759999999999999432e+01 3.283809555078656786e+02
6.800000000000000000e+01 3.274321184276074064e+02
6.840000000000000568e+01 3.264919007728513520e+02
6.880000000000001137e+01 3.255601705299629884e+02
6.920000000000000284e+01 3.246367985251425807e+02
6.959999999999999432e+01 3.237216583458854302e+02
7.000000000000000000e+01 3.228146262650927838e+02
7.040000000000000568e+01 3.219155811677279644e+02
7.080000000000001137e+01 3.210244044799159155e+02
7.120000000000000284e+01 3.201409801003918574e+02
7.159999999999999432e+01 3.192651943342061145e+02
7.200000000000000000e+01 3.183969358285978046e+02
7.240000000000000568e+01 3.175360955109539418e+02
7.280000000000001137e+01 3.166825665287746574e+02
7.320000000000000284e+01 3.158362441915659815e+02
7.359999999999999432e+01 3.149970259145902673e+02
7.400000000000000000e+01 3.141648111644007599e+02
7.440000000000000568e+01 3.133395014060974972e+02
7.479999999999999716e+01 3.125210000522363885e+02
7.520000000000000284e+01 3.117092124133334892e+02
7.560000000000000853e+01 3.109040456499044467e+02
7.600000000000000000e+01 3.101054087259824428e+02
7.640000000000000568e+01 3.093132123640625650e+02
7.679999999999999716e+01 3.085273690014193448e+02
7.720000000000000284e+01 3.077477927477486332e+02
7.760000000000000853e+01 3.069743993440871463e+02
7.800000000000000000e+01 3.062071061229635802e+02
7.840000000000000568e+01 3.054458319697373554e+02
7.879999999999999716e+01 3.046904972850842341e+02
7.920000000000000284e+01 3.039410239485882812e+02
7.960000000000000853e+01 3.031973352834014577e+02
8.000000000000000000e+01 3.024593560219341839e+02
8.040000000000000568e+01 3.017270122725410602e+02
8.079999999999999716e+01 3.010002314871683211e+02
8.120000000000000284e+01 3.002789424299299981e+02
8.160000000000000853e+01 2.995630751465808999e+02
8.200000000000000000e+01 2.988525609348570242e+02
8.240000000000000568e+01 2.981473323156534434e+02
8.279999999999999716e+01 2.974473230050126631e+02
8.320000000000000284e+01 2.967524678868961132e+02
8.360000000000000853e+01 2.960627029867127931e+02
8.400000000000000000e+01 2.953779654455808554e+02
8.440000000000000568e+01 2.946981934952966640e+02
8.479999999999999716e+01 2.940233264339914854e+02
8.520000000000000284e+01 2.933533046024493274e+02
8.560000000000000853e+01 2.926880693610686990e+02
8.600000000000000000e+01 2.920275630674450440e+02
8.640000000000000568e+01 2.913717290545550327e+02
8.680000000000001137e+01 2.907205116095239532e+02
8.720000000000000284e+01 2.900738559529573877e+02
8.760000000000000853e+01 2.894317082188188124e+02
8.800000000000000000e+01 2.887940154348385704e+02
8.840000000000000568e+01 2.881607255034339232e+02
8.880000000000001137e+01 2.875317871831279604e+02
8.920000000000000284e+01 2.869071500704500863e+02
8.960000000000000853e+01 2.862867645823034763e+02
9.000000000000000000e+01 2.856705819387858583e+02
9.040000000000000568e+01 2.850585541464496941e+02
9.080000000000001137e+01 2.844506339819882896e+02
9.120000000000000284e+01 2.838467749763354959e+02
9.160000000000000853e+01 2.832469313991651916e+02
9.200000000000000000e+01 2.826510582437815060e+02
9.240000000000000568e+01 2.820591112123851758e+02
9.280000000000001137e+01 2.814710467017065412e+02
9.320000000000000284e+01 2.808868217889947800e+02
9.360000000000000853e+01 2.803063942183512154e+02
9.400000000000000000e+01 2.797297223873989083e+02
9.440000000000000568e+01 2.791567653342770541e+02
9.480000000000001137e+01 2.785874827249518262e+02
9.520000000000000284e+01 2.780218348408340034e+02
9.560000000000000853e+01 2.774597825666947415e+02
9.600000000000000000e+01 2.769012873788720981e+02
9.640000000000000568e+01 2.763463113337575692e+02
9.680000000000001137e+01 2.757948170565578039e+02
9.720000000000000284e+01 2.752467677303211531e+02
9.760000000000000853e+01 2.747021270852237649e+02
9.800000000000000000e+01 2.741608593881059619e+02
9.840000000000000568e+01 2.736229294322542387e+02
9.880000000000001137e+01 2.730883025274196143e+02
9.920000000000000284e+01 2.725569444900684175e+02
9.960000000000000853e+01 2.720288216338569782e+02
1.000000000000000000e+02 2.715039007603253935e+02
1.004000000000000057e+02 2.709821491498040587e+02
1.008000000000000114e+02 2.704635345525271077e+02
1.012000000000000028e+02 2.699480251799478765e+02
1.016000000000000085e+02 2.694355896962491670e+02
1.020000000000000000e+02 2.689261972100460980e+02
1.024000000000000057e+02 2.684198172662734123e+02
1.028000000000000114e+02 2.679164198382540576e+02
1.032000000000000028e+02 2.674159753199445504e+02
1.036000000000000085e+02 2.669184545183503587e+02
1.040000000000000000e+02 2.664238286461103371e+02
1.044000000000000057e+02 2.659320693142417440e+02
1.048000000000000114e+02 2.654431485250452738e+02
1.052000000000000028e+02 2.649570386651640774e+02
1.056000000000000085e+02 2.644737124987926791e+02
1.060000000000000000e+02 2.639931431610332311e+02
1.064000000000000057e+02 2.635153041513940479e+02
1.068000000000000114e+02 2.630401693274278614e+02
1.072000000000000028e+02 2.625677128985050217e+02
1.076000000000000085e+02 2.620979094197201675e+02
1.080000000000000000e+02 2.616307337859264521e+02
1.084000000000000057e+02 2.611661612258967580e+02
1.088000000000000114e+02 2.607041672966067267e+02
1.092000000000000028e+02 2.602447278776375583e+02
1.096000000000000085e+02 2.597878191656958506e+02
1.100000000000000000e+02 2.593334176692465007e+02
1.104000000000000057e+02 2.588815002032571897e+02
1.108000000000000114e+02 2.584320438840507563e+02
1.112000000000000028e+02 2.579850261242634133e+02
1.116000000000000085e+02 2.575404246279056792e+02
1.120000000000000000e+02 2.570982173855245492e+02
1.124000000000000057e+02 2.566583826694629806e+02
1.128000000000000114e+02 2.562208990292160138e+02
1.132000000000000028e+02 2.557857452868800578e+02
1.136000000000000085e+02 2.553529005326930701e+02
1.140000000000000000e+02 2.549223441206645759e+02
1.144000000000000057e+02 2.544940556642923752e+02
1.148000000000000114e+02 2.540680150323645705e+02
1.152000000000000028e+02 2.536442023448435634e+02
1.156000000000000085e+02 2.532225979688326447e+02
1.160000000000000000e+02 2.528031825146207154e+02
1.164000000000000057e+02 2.523859368318042300e+02
1.168000000000000114e+02 2.519708420054858493e+02
1.172000000000000028e+02 2.515578793525454557e+02
1.176000000000000085e+02 2.511470304179842969e+02
1.180000000000000000e+02 2.507382769713393600e+02
1.184000000000000057e+02 2.503316010031662131e+02
1.188000000000000114e+02 2.499269847215900882e+02
1.192000000000000028e+02 2.495244105489214235e+02
1.196000000000000085e+02 2.491238611183371461e+02
1.200000000000000000e+02 2.487253192706238281e+02
1.204000000000000057e+02 2.483287680509825464e+02
1.208000000000000114e+02 2.479341907058941388e+02
1.212000000000000028e+02 2.475415706800428097e+02
1.216000000000000085e+02 2.471508916132972900e+02
1.220000000000000000e+02 2.467621373377485554e+02
1.224000000000000057e+02 2.463752918748020022e+02
1.228000000000000114e+02 2.459903394323236228e+02
1.232000000000000028e+02 2.456072644018386484e+02
1.236000000000000085e+02 2.452260513557818058e+02
1.240000000000000000e+02 2.448466850447978231e+02
1.244000000000000057e+02 2.444691503950909066e+02
1.248000000000000114e+02 2.440934325058228467e+02
1.252000000000000028e+02 2.437195166465578495e+02
1.256000000000000085e+02 2.433473882547538949e+02
1.260000000000000000e+02 2.429770329332986023e+02
1.264000000000000057e+02 2.426084364480902877e+02
1.268000000000000114e+02 2.422415847256611130e+02
1.272000000000000028e+02 2.418764638508436349e+02
1.276000000000000085e+02 2.415130600644777985e+02
1.280000000000000000e+02 2.411513597611594832e+02
1.284000000000000057e+02 2.407913494870281568e+02
1.288000000000000114e+02 2.404330159375934102e+02
1.291999999999999886e+02 2.400763459556000612e+02
1.296000000000000227e+02 2.397213265289298647e+02
1.300000000000000000e+02 2.393679447885409672e+02
1.304000000000000057e+02 2.390161880064411832e+02
1.308000000000000114e+02 2.386660435936985039e+02
1.311999999999999886e+02 2.383174990984844328e+02
1.316000000000000227e+02 2.379705422041512861e+02
1.320000000000000000e+02 2.376251607273432569e+02
1.324000000000000057e+02 2.372813426161383745e+02
1.328000000000000114e+02 2.369390759482232625e+02
1.331999999999999886e+02 2.365983489290983925e+02
1.336000000000000227e+02 2.362591498903135516e+02
1.340000000000000000e+02 2.359214672877338046e+02
1.344000000000000057e+02 2.355852896998336519e+02
1.348000000000000114e+02 2.352506058260204895e+02
1.351999999999999886e+02 2.349174044849858092e+02
1.356000000000000227e+02 2.345856746130841941e+02
1.360000000000000000e+02 2.342554052627385488e+02
1.364000000000000057e+02 2.339265856008726132e+02
1.368000000000000114e+02 2.335992049073685735e+02
1.371999999999999886e+02 2.332732525735508773e+02
1.376000000000000227e+02 2.329487181006940659e+02
1.380000000000000000e+02 2.326255910985556739e+02
1.384000000000000057e+02 2.323038612839328039e+02
1.388000000000000114e+02 2.319835184792420364e+02
1.392000000000000171e+02 2.316645526111229856e+02
1.395999999999999943e+02 2.313469537090632855e+02
1.400000000000000000e+02 2.310307119040471378e+02
1.404000000000000057e+02 2.307158174272244082e+02
1.408000000000000114e+02 2.304022606086019778e+02
1.412000000000000171e+02 2.300900318757548462e+02
1.415999999999999943e+02 2.297791217525592060e+02
1.420000000000000000e+02 2.294695208579445875e+02
1.424000000000000057e+02 2.291612199046658702e+02
1.428000000000000114e+02 2.288542096980953033e+02
1.432000000000000171e+02 2.285484811350329153e+02
1.435999999999999943e+02 2.282440252025357950e+02
1.440000000000000000e+02 2.279408329767658756e+02
1.444000000000000057e+02 2.276388956218552835e+02
1.448000000000000114e+02 2.273382043887900181e+02
1.452000000000000171e+02 2.270387506143102314e+02
1.455999999999999943e+02 2.267405257198277866e+02
1.460000000000000000e+02 2.264435212103610979e+02
1.464000000000000057e+02 2.261477286734850907e+02
1.468000000000000114e+02 2.258531397782987824e+02
1.472000000000000171e+02 2.255597462744072175e+02
1.475999999999999943e+02 2.252675399909201133e+02
1.480000000000000000e+02 2.249765128354652006e+02
1.484000000000000057e+02 2.246866567932160592e+02
1.488000000000000114e+02 2.243979639259360965e+02
1.492000000000000171e+02 2.241104263710350324e+02
1.495999999999999943e+02 2.238240363406413849e+02
1.500000000000000000e+02 2.235387861206875186e+02
