1.000000000000000000e+01 1.193266882594552243e+02
1.040000000000000036e+01 1.341998755393678664e+02
1.080000000000000071e+01 1.420010714869087565e+02
1.119999999999999929e+01 1.484387596931523206e+02
1.159999999999999964e+01 1.443254672184040714e+02
1.200000000000000000e+01 1.388488775470313499e+02
1.240000000000000036e+01 1.339874168994591628e+02
1.280000000000000071e+01 1.296294606777895524e+02
1.319999999999999929e+01 1.256906534386779697e+02
1.359999999999999964e+01 1.221246806925343122e+02
1.400000000000000000e+01 1.189502077309827968e+02
1.440000000000000036e+01 1.161695797593954467e+02
1.480000000000000071e+01 1.136874889887443913e+02
1.519999999999999929e+01 1.113800110246632187e+02
1.560000000000000142e+01 1.092268817976856781e+02
1.600000000000000000e+01 1.072110591711963110e+02
1.639999999999999858e+01 1.053180816084808811e+02
1.680000000000000071e+01 1.035355782911180142e+02
1.719999999999999929e+01 1.018528897362450607e+02
1.760000000000000142e+01 9.574344019915831439e+01
1.800000000000000000e+01 9.427060504886399883e+01
1.839999999999999858e+01 9.297558969168994736e+01
1.880000000000000071e+01 9.042341093864565948e+01
1.920000000000000284e+01 8.935434874790638560e+01
1.960000000000000142e+01 8.833087210625774333e+01
2.000000000000000000e+01 8.734967732864653556e+01
2.039999999999999858e+01 8.640779437201636881e+01
2.080000000000000071e+01 8.550254401449434738e+01
2.120000000000000284e+01 8.463150165082397791e+01
2.160000000000000142e+01 8.379246651664414003e+01
2.200000000000000000e+01 8.298343539551829906e+01
2.239999999999999858e+01 8.220258004943623575e+01
2.280000000000000071e+01 8.144822775931405090e+01
2.320000000000000284e+01 8.071884447667180496e+01
2.360000000000000142e+01 8.001302017847191905e+01
2.400000000000000000e+01 7.932557942117023231e+01
2.439999999999999858e+01 7.859073976219920610e+01
2.480000000000000071e+01 7.787042478800789524e+01
2.520000000000000284e+01 7.302789110630118330e+01
2.560000000000000142e+01 7.232959385321757395e+01
2.600000000000000000e+01 7.165180773654874713e+01
2.640000000000000213e+01 7.099351988289143378e+01
2.680000000000000071e+01 7.035378692042866078e+01
2.719999999999999929e+01 6.973172891802514073e+01
2.760000000000000142e+01 6.912652396191228377e+01
2.800000000000000000e+01 6.853740329178438628e+01
2.840000000000000213e+01 6.796364692903050297e+01
2.880000000000000071e+01 6.740457973903332345e+01
2.920000000000000284e+01 6.685956787726357220e+01
2.960000000000000142e+01 6.632801557552608074e+01
3.000000000000000000e+01 6.580936223036570709e+01
3.040000000000000213e+01 6.530307976047235741e+01
3.080000000000000071e+01 6.139382916713328342e+01
3.120000000000000284e+01 6.087025282078155186e+01
3.160000000000000142e+01 6.035894347816128658e+01
3.200000000000000000e+01 6.022933248962876007e+01
3.240000000000000568e+01 5.976202031366078415e+01
3.279999999999999716e+01 5.930501056646048141e+01
3.320000000000000284e+01 5.885792565833205003e+01
3.360000000000000142e+01 5.842040725018799918e+01
3.400000000000000000e+01 5.799211500158198618e+01
3.440000000000000568e+01 5.757272541739981619e+01
3.479999999999999716e+01 5.716193078410505279e+01
3.520000000000000284e+01 5.675943818739518321e+01
3.560000000000000142e+01 5.636496860397140551e+01
3.600000000000000000e+01 5.597034844123826502e+01
3.640000000000000568e+01 5.557400272955595710e+01
3.679999999999999716e+01 5.582051008170019202e+01
3.720000000000000284e+01 5.546530654458507570e+01
3.760000000000000142e+01 5.511658110380472664e+01
3.800000000000000000e+01 5.477413633659973158e+01
3.840000000000000568e+01 5.443778322122211932e+01
3.879999999999999716e+01 5.410734067968726890e+01
3.920000000000000284e+01 5.378263515074378631e+01
3.960000000000000142e+01 5.346292591768515479e+01
4.000000000000000000e+01 5.314559448155339538e+01
4.040000000000000568e+01 5.283359084902814118e+01
4.079999999999999716e+01 5.252676544812241843e+01
4.120000000000000284e+01 5.222497457215948913e+01
4.160000000000000142e+01 5.192808008548016119e+01
4.200000000000000000e+01 5.163594914708677663e+01
4.239999999999999858e+01 5.134845395094090748e+01
4.280000000000000426e+01 5.106547148173662265e+01
4.320000000000000284e+01 5.078688328506729732e+01
4.360000000000000142e+01 5.050928570121013195e+01
4.400000000000000000e+01 5.023304162023687525e+01
4.439999999999999858e+01 4.996095557512718699e+01
4.480000000000000426e+01 4.969292314760373586e+01
4.520000000000000284e+01 4.942884358347595253e+01
4.560000000000000142e+01 4.916861962799251273e+01
4.600000000000000000e+01 4.891215737018871579e+01
4.639999999999999858e+01 4.865936609565122239e+01
4.680000000000000426e+01 4.841015814716550381e+01
4.720000000000000284e+01 4.816444879275037749e+01
4.760000000000000142e+01 4.792215610061929709e+01
4.800000000000000000e+01 4.768320082064161625e+01
4.840000000000000568e+01 4.744750627190655479e+01
4.880000000000000426e+01 4.721499823602063373e+01
4.920000000000000284e+01 4.698512008047394062e+01
4.960000000000000142e+01 4.679698341104986525e+01
5.000000000000000000e+01 4.657212098998434158e+01
5.040000000000000568e+01 4.635022738703102618e+01
5.080000000000000426e+01 4.613123740162566122e+01
5.120000000000000284e+01 4.591508783280131922e+01
5.160000000000000142e+01 4.570171740065414667e+01
5.200000000000000000e+01 4.549106667156040373e+01
5.240000000000000568e+01 4.528307798693447239e+01
5.280000000000000426e+01 4.507769539533055791e+01
5.320000000000000284e+01 4.515402096085121286e+01
5.360000000000000142e+01 4.496708904666064655e+01
5.400000000000000000e+01 4.478236893682824160e+01
5.440000000000000568e+01 4.459981686097891895e+01
5.480000000000000426e+01 4.441939026212239128e+01
5.520000000000000284e+01 4.424104775345412577e+01
5.560000000000000142e+01 4.406474907703179156e+01
5.600000000000000000e+01 4.389045506423131116e+01
5.640000000000000568e+01 4.371812759789238356e+01
5.680000000000000426e+01 4.354772957606807893e+01
5.720000000000000284e+01 4.337922487729884580e+01
5.760000000000000142e+01 4.321257832733491711e+01
5.800000000000000000e+01 4.304775566723644431e+01
5.840000000000000568e+01 4.288472352278363076e+01
5.880000000000000426e+01 4.272344937513388174e+01
5.920000000000000284e+01 4.256366713929426737e+01
5.960000000000000142e+01 4.240469656123043762e+01
6.000000000000000000e+01 4.224740216946614169e+01
6.040000000000000568e+01 4.211727229873503831e+01
6.080000000000000426e+01 4.197224110491858085e+01
6.120000000000000284e+01 4.182866422496894643e+01
6.160000000000000142e+01 4.168651721501922225e+01
6.200000000000000000e+01 4.154577620592871767e+01
6.240000000000000568e+01 4.140641788596138895e+01
6.280000000000000426e+01 4.126841948410005045e+01
6.320000000000000284e+01 4.113175875396844106e+01
6.360000000000000142e+01 4.099641395833557311e+01
6.400000000000000000e+01 4.086236385417712569e+01
6.440000000000000568e+01 4.072958767827066850e+01
6.480000000000001137e+01 4.059806513330202193e+01
6.520000000000000284e+01 4.046777637446152909e+01
6.559999999999999432e+01 4.033870199650985455e+01
6.600000000000000000e+01 4.021082302129401853e+01
6.640000000000000568e+01 4.008412088569509990e+01
6.680000000000001137e+01 3.995857742999028517e+01
6.720000000000000284e+01 3.983417488661204686e+01
6.759999999999999432e+01 3.988290383235610648e+01
6.800000000000000000e+01 3.976296886826089860e+01
6.840000000000000568e+01 3.964409766496284249e+01
6.880000000000001137e+01 3.952627433414969005e+01
6.920000000000000284e+01 3.940948332062396986e+01
6.959999999999999432e+01 3.929370939332410728e+01
7.000000000000000000e+01 3.917893763664105222e+01
7.040000000000000568e+01 3.906364003711367872e+01
7.080000000000001137e+01 3.894752100628501523e+01
7.120000000000000284e+01 3.884616230335774389e+01
7.159999999999999432e+01 3.873354305713780832e+01
7.200000000000000000e+01 3.862188457094135430e+01
7.240000000000000568e+01 3.851117305678538116e+01
7.280000000000001137e+01 3.840139500442256093e+01
7.320000000000000284e+01 3.829253717414901104e+01
7.359999999999999432e+01 3.818458658983901444e+01
7.400000000000000000e+01 3.807753053219882133e+01
7.440000000000000568e+01 3.797135653223119789e+01
7.479999999999999716e+01 3.786605236490288462e+01
7.520000000000000284e+01 3.776160604300774537e+01
7.560000000000000853e+01 3.765800581121821722e+01
7.600000000000000000e+01 3.755524014031845326e+01
7.640000000000000568e+01 3.745329772161255732e+01
7.679999999999999716e+01 3.735216746150151579e+01
7.720000000000000284e+01 3.725183847622308519e+01
7.760000000000000853e+01 3.715083601658174928e+01
7.800000000000000000e+01 3.704918673965967457e+01
7.840000000000000568e+01 3.694834528879443525e+01
7.879999999999999716e+01 3.684830087445399016e+01
7.920000000000000284e+01 3.674904290943548091e+01
7.960000000000000853e+01 3.665056100398518169e+01
8.000000000000000000e+01 3.655284496106223457e+01
8.040000000000000568e+01 3.645588477174101882e+01
8.079999999999999716e+01 3.635967061074753559e+01
8.120000000000000284e+01 3.626419283212511857e+01
8.160000000000000853e+01 3.616944196502495856e+01
8.200000000000000000e+01 3.607540870961743451e+01
8.240000000000000568e+01 3.598208393311987408e+01
8.279999999999999716e+01 3.588909240276460366e+01
8.320000000000000284e+01 3.579668270179180922e+01
8.360000000000000853e+01 3.570495985328383171e+01
8.400000000000000000e+01 3.561391528427213871e+01
8.440000000000000568e+01 3.552354057198069626e+01
8.479999999999999716e+01 3.543382744044211563e+01
8.520000000000000284e+01 3.534476775720682440e+01
8.560000000000000853e+01 3.525635353014230589e+01
8.600000000000000000e+01 3.516854280718684578e+01
8.640000000000000568e+01 3.508135069599280342e+01
8.680000000000001137e+01 3.499477856366308259e+01
8.720000000000000284e+01 3.490881902026493577e+01
8.760000000000000853e+01 3.482346479936402517e+01
8.800000000000000000e+01 3.473870875537240011e+01
8.840000000000000568e+01 3.465454386096605788e+01
8.880000000000001137e+01 3.457096320456965088e+01
8.920000000000000284e+01 3.448795998790672002e+01
8.960000000000000853e+01 3.440552752361298872e+01
9.000000000000000000e+01 3.432365923291112608e+01
9.040000000000000568e+01 3.424234864334495398e+01
9.080000000000001137e+01 3.416158938657135025e+01
9.120000000000000284e+01 3.408137519620814260e+01
9.160000000000000853e+01 3.400169990573622414e+01
9.200000000000000000e+01 3.392255744645449056e+01
9.240000000000000568e+01 3.384394184548564510e+01
9.280000000000001137e+01 3.376584722383186232e+01
9.320000000000000284e+01 3.368826779447849162e+01
9.360000000000000853e+01 3.361119786054442926e+01
9.400000000000000000e+01 3.367001079871814540e+01
9.440000000000000568e+01 3.359563832391926752e+01
9.480000000000001137e+01 3.352174354881302065e+01
9.520000000000000284e+01 3.344832131126039343e+01
9.560000000000000853e+01 3.337536652750333843e+01
9.600000000000000000e+01 3.330287419063273546e+01
9.640000000000000568e+01 3.323394675373570095e+01
9.680000000000001137e+01 3.316308408036644551e+01
9.720000000000000284e+01 3.309266346232061551e+01
9.760000000000000853e+01 3.302268025755098790e+01
9.800000000000000000e+01 3.295312989252983726e+01
9.840000000000000568e+01 3.288400786094651096e+01
9.880000000000001137e+01 3.281530972243524502e+01
9.920000000000000284e+01 3.274703110133253858e+01
9.960000000000000853e+01 3.267916768546305661e+01
1.000000000000000000e+02 3.272590405707830996e+01
1.004000000000000057e+02 3.266045322719621424e+01
1.008000000000000114e+02 3.259539016131069644e+01
1.012000000000000028e+02 3.253071098353316160e+01
1.016000000000000085e+02 3.246641187247218596e+01
1.020000000000000000e+02 3.240248906024637421e+01
1.024000000000000057e+02 3.233893883151898763e+01
1.028000000000000114e+02 3.227575752255393127e+01
1.032000000000000028e+02 3.221294152029246760e+01
1.036000000000000085e+02 3.215048726145013802e+01
1.040000000000000000e+02 3.208839123163337348e+01
1.044000000000000057e+02 3.202664996447529688e+01
1.048000000000000114e+02 3.196526004079014527e+01
1.052000000000000028e+02 3.190421808774602397e+01
1.056000000000000085e+02 3.184352077805529291e+01
1.060000000000000000e+02 3.178316482918228658e+01
1.064000000000000057e+02 3.172314700256792719e+01
1.068000000000000114e+02 3.166346410287066604e+01
1.072000000000000028e+02 3.160411297722359691e+01
1.076000000000000085e+02 3.154509051450710544e+01
1.080000000000000000e+02 3.148639364463671342e+01
1.084000000000000057e+02 3.142006941043504042e+01
1.088000000000000114e+02 3.136237962795990697e+01
1.092000000000000028e+02 3.130500526595236721e+01
1.096000000000000085e+02 3.124794340835349260e+01
1.100000000000000000e+02 3.119091563795003097e+01
1.104000000000000057e+02 3.113417423601556422e+01
1.108000000000000114e+02 3.107773871702185531e+01
1.112000000000000028e+02 3.102160629292531269e+01
1.116000000000000085e+02 3.096577421147459930e+01
1.120000000000000000e+02 3.091023975561819270e+01
1.124000000000000057e+02 3.085500024292385390e+01
1.128000000000000114e+02 3.080005302500988407e+01
1.132000000000000028e+02 3.074539548698778901e+01
1.136000000000000085e+02 3.069102504691609923e+01
1.140000000000000000e+02 3.063693915526515354e+01
1.144000000000000057e+02 3.058313529439240597e+01
1.148000000000000114e+02 3.052961097802827339e+01
1.152000000000000028e+02 3.047636375077199133e+01
1.156000000000000085e+02 3.042339118759747407e+01
1.160000000000000000e+02 3.037069089336885952e+01
1.164000000000000057e+02 3.031826050236540127e+01
1.168000000000000114e+02 3.026609767781577176e+01
1.172000000000000028e+02 3.021417006213368239e+01
1.176000000000000085e+02 3.016243452763318089e+01
1.180000000000000000e+02 3.011095951742296251e+01
1.184000000000000057e+02 3.005974281704835249e+01
1.188000000000000114e+02 3.000878223853671045e+01
1.192000000000000028e+02 2.995807561998940827e+01
1.196000000000000085e+02 2.990762082518157428e+01
1.200000000000000000e+02 2.985741574316936919e+01
1.204000000000000057e+02 2.980745828790445628e+01
1.208000000000000114e+02 2.975774639785587539e+01
1.212000000000000028e+02 2.970827803563875236e+01
1.216000000000000085e+02 2.965905118765004289e+01
1.220000000000000000e+02 2.961004528138486691e+01
1.224000000000000057e+02 2.956119674703092315e+01
1.228000000000000114e+02 2.951258388757623408e+01
1.232000000000000028e+02 2.946420478587950242e+01
1.236000000000000085e+02 2.941605754672650974e+01
1.240000000000000000e+02 2.936814029650723867e+01
1.244000000000000057e+02 2.932045118289873642e+01
1.248000000000000114e+02 2.927298837455379754e+01
1.252000000000000028e+02 2.923026966495730861e+01
1.256000000000000085e+02 2.918365593822218429e+01
1.260000000000000000e+02 2.913726105921812604e+01
1.264000000000000057e+02 2.909108329577286867e+01
1.268000000000000114e+02 2.904512093499520375e+01
1.272000000000000028e+02 2.899937228299861047e+01
1.276000000000000085e+02 2.895383566462966485e+01
1.280000000000000000e+02 2.890850942320125938e+01
1.284000000000000057e+02 2.886339192023040923e+01
1.288000000000000114e+02 2.881848153518065203e+01
1.291999999999999886e+02 2.877377666520888511e+01
1.296000000000000227e+02 2.872927572491656178e+01
1.300000000000000000e+02 2.868497714610520433e+01
1.304000000000000057e+02 2.864087937753602731e+01
1.308000000000000114e+02 2.859698088469376387e+01
1.311999999999999886e+02 2.855320810616650817e+01
1.316000000000000227e+02 2.850951253889915904e+01
1.320000000000000000e+02 2.846601270902998948e+01
1.324000000000000057e+02 2.842270713975476326e+01
1.328000000000000114e+02 2.837959436993274664e+01
1.331999999999999886e+02 2.833667295387274976e+01
1.336000000000000227e+02 2.829394146112278463e+01
1.340000000000000000e+02 2.825139847626330081e+01
1.344000000000000057e+02 2.820904259870367170e+01
1.348000000000000114e+02 2.816687244248225852e+01
1.351999999999999886e+02 2.812488663606960770e+01
1.356000000000000227e+02 2.808308382217495591e+01
1.360000000000000000e+02 2.804146265755593248e+01
1.364000000000000057e+02 2.800002181283124614e+01
1.368000000000000114e+02 2.795875997229662246e+01
1.371999999999999886e+02 2.791767583374354444e+01
1.376000000000000227e+02 2.787676810828102347e+01
1.380000000000000000e+02 2.783603552016025873e+01
1.384000000000000057e+02 2.779547680660202147e+01
1.388000000000000114e+02 2.775509071762694902e+01
1.392000000000000171e+02 2.771487601588843219e+01
1.395999999999999943e+02 2.767483147650826680e+01
1.400000000000000000e+02 2.763495588691479909e+01
1.404000000000000057e+02 2.759524804668382103e+01
1.408000000000000114e+02 2.755557170889715479e+01
1.412000000000000171e+02 2.751605612548150148e+01
1.415999999999999943e+02 2.747670534336751302e+01
1.420000000000000000e+02 2.743751820500164484e+01
1.424000000000000057e+02 2.739849356425947491e+01
1.428000000000000114e+02 2.735963028630049010e+01
1.432000000000000171e+02 2.732092724742496159e+01
1.435999999999999943e+02 2.728238333493322543e+01
1.440000000000000000e+02 2.724399744698695969e+01
1.444000000000000057e+02 2.720576849247270701e+01
1.448000000000000114e+02 2.716769539086748964e+01
1.452000000000000171e+02 2.712977707210642109e+01
1.455999999999999943e+02 2.708522573930997979e+01
1.460000000000000000e+02 2.704795491950229547e+01
1.464000000000000057e+02 2.701083411610446561e+01
1.468000000000000114e+02 2.697386231048021088e+01
1.472000000000000171e+02 2.693703849372552739e+01
1.475999999999999943e+02 2.690036166654888206e+01
1.480000000000000000e+02 2.686383083915316661e+01
1.484000000000000057e+02 2.682032478840054424e+01
1.488000000000000114e+02 2.678441588861164036e+01
1.492000000000000171e+02 2.674864833149204912e+01
1.495999999999999943e+02 2.671302117734623494e+01
1.500000000000000000e+02 2.667753349527435347e+01
