1.000000000000000000e+01 5.554453784832907104e+02
1.040000000000000036e+01 5.897989003835025414e+02
1.080000000000000071e+01 6.393140088568927695e+02
1.119999999999999929e+01 6.815646247066035812e+02
1.159999999999999964e+01 7.212874253974270005e+02
1.200000000000000000e+01 7.762371826966333401e+02
1.240000000000000036e+01 8.139682020773099111e+02
1.280000000000000071e+01 9.312656196608138544e+02
1.319999999999999929e+01 9.883310497582135667e+02
1.359999999999999964e+01 1.057476572608223023e+03
1.400000000000000000e+01 1.081229768871086890e+03
1.440000000000000036e+01 1.088207437170319736e+03
1.480000000000000071e+01 1.085723765519207291e+03
1.519999999999999929e+01 1.064822956479804589e+03
1.560000000000000142e+01 1.045281238796276284e+03
1.600000000000000000e+01 1.026948600988338967e+03
1.639999999999999858e+01 1.009698055782385609e+03
1.680000000000000071e+01 9.934211755811872990e+02
1.719999999999999929e+01 9.780246616402903328e+02
1.760000000000000142e+01 9.634276715296598468e+02
1.800000000000000000e+01 9.495597117456669594e+02
1.839999999999999858e+01 9.363589575772539320e+02
1.880000000000000071e+01 9.237709001622287133e+02
1.920000000000000284e+01 9.117472470514218230e+02
1.960000000000000142e+01 9.002450212979512116e+02
2.000000000000000000e+01 8.892258175411427601e+02
2.039999999999999858e+01 8.786551833642240581e+02
2.080000000000000071e+01 8.685021014476628807e+02
2.120000000000000284e+01 8.587385534492165107e+02
2.160000000000000142e+01 8.493391506246141489e+02
2.200000000000000000e+01 8.402808193149031695e+02
2.239999999999999858e+01 8.315425318204763698e+02
2.280000000000000071e+01 8.231050750390778603e+02
2.320000000000000284e+01 8.149508506975472528e+02
2.360000000000000142e+01 8.070637021514202161e+02
2.400000000000000000e+01 7.994287636344784005e+02
2.439999999999999858e+01 7.920323285655211976e+02
2.480000000000000071e+01 7.848617341024282723e+02
2.520000000000000284e+01 7.779052596047192765e+02
2.560000000000000142e+01 7.711520370488090066e+02
2.600000000000000000e+01 7.645919717531251081e+02
2.640000000000000213e+01 7.582156720273134169e+02
2.680000000000000071e+01 7.520143865718637244e+02
2.719999999999999929e+01 7.459799486303274989e+02
2.760000000000000142e+01 7.401047260426794310e+02
2.800000000000000000e+01 7.343815764707499056e+02
2.840000000000000213e+01 7.288038071693479196e+02
2.880000000000000071e+01 7.233651387632112346e+02
2.920000000000000284e+01 7.180596725630545052e+02
2.960000000000000142e+01 7.128818610160365097e+02
3.000000000000000000e+01 7.078264809387749210e+02
3.040000000000000213e+01 7.028886092261284375e+02
3.080000000000000071e+01 6.980636007675849442e+02
3.120000000000000284e+01 6.933470683362638738e+02
3.160000000000000142e+01 6.887348642441106676e+02
3.200000000000000000e+01 6.842230635815433288e+02
3.240000000000000568e+01 6.798079488811731608e+02
3.279999999999999716e+01 6.754859960637840004e+02
3.320000000000000284e+01 6.712538615408818714e+02
3.360000000000000142e+01 6.671083703622336998e+02
3.400000000000000000e+01 6.630465053090986203e+02
3.440000000000000568e+01 6.590653968446657700e+02
3.479999999999999716e+01 6.551623138426690502e+02
3.520000000000000284e+01 6.513346550234919050e+02
3.560000000000000142e+01 6.475799410344191074e+02
3.600000000000000000e+01 6.438958071171794018e+02
3.640000000000000568e+01 6.402799963116713116e+02
3.679999999999999716e+01 6.367303531498509983e+02
3.720000000000000284e+01 6.332448177982836341e+02
3.760000000000000142e+01 6.298214206118847187e+02
3.800000000000000000e+01 6.264582770649558370e+02
3.840000000000000568e+01 6.231535830288269153e+02
3.879999999999999716e+01 6.199056103682670482e+02
3.920000000000000284e+01 6.167127028313949495e+02
3.960000000000000142e+01 6.135732722101084846e+02
4.000000000000000000e+01 6.104857947501176341e+02
4.040000000000000568e+01 6.074488077915169697e+02
4.079999999999999716e+01 6.044609066225032166e+02
4.120000000000000284e+01 6.015207415303435710e+02
4.160000000000000142e+01 5.986270150350666199e+02
4.200000000000000000e+01 5.957784792925657484e+02
4.239999999999999858e+01 5.929739336549210975e+02
4.280000000000000426e+01 5.902122223767528340e+02
4.320000000000000284e+01 5.874922324573271908e+02
4.360000000000000142e+01 5.848128916089717677e+02
4.400000000000000000e+01 5.821731663431041852e+02
4.439999999999999858e+01 5.795720601658700843e+02
4.480000000000000426e+01 5.770086118760059435e+02
4.520000000000000284e+01 5.744818939581182349e+02
4.560000000000000142e+01 5.719910110650866955e+02
4.600000000000000000e+01 5.695350985837754934e+02
4.639999999999999858e+01 5.671133212786755848e+02
4.680000000000000426e+01 5.647248720084944580e+02
4.720000000000000284e+01 5.623689705110788282e+02
4.760000000000000142e+01 5.600448622523891800e+02
4.800000000000000000e+01 5.577518173355531417e+02
4.840000000000000568e+01 5.554891294663079861e+02
4.880000000000000426e+01 5.532561149714026669e+02
4.920000000000000284e+01 5.510521118667672908e+02
4.960000000000000142e+01 5.488764789724818911e+02
5.000000000000000000e+01 5.467285950717772494e+02
5.040000000000000568e+01 5.446078581114902590e+02
5.080000000000000426e+01 5.425136844415656014e+02
5.120000000000000284e+01 5.404455080913626261e+02
5.160000000000000142e+01 5.384027800806685491e+02
5.200000000000000000e+01 5.363849677634568707e+02
5.240000000000000568e+01 5.343915542025617924e+02
5.280000000000000426e+01 5.324220375735518473e+02
5.320000000000000284e+01 5.304759305961962355e+02
5.360000000000000142e+01 5.285527599920226294e+02
5.400000000000000000e+01 5.266520659665532094e+02
5.440000000000000568e+01 5.247734017148999328e+02
5.480000000000000426e+01 5.229163329494737127e+02
5.520000000000000284e+01 5.210804374486472170e+02
5.560000000000000142e+01 5.192653046252718241e+02
5.600000000000000000e+01 5.174705351140231642e+02
5.640000000000000568e+01 5.156957403766056132e+02
5.680000000000000426e+01 5.139405423239060156e+02
5.720000000000000284e+01 5.122045729542389836e+02
5.760000000000000142e+01 5.104874740068760843e+02
5.800000000000000000e+01 5.087888966300992024e+02
5.840000000000000568e+01 5.071085010630594638e+02
5.880000000000000426e+01 5.054459563307657390e+02
5.920000000000000284e+01 5.038009399515635778e+02
5.960000000000000142e+01 5.021731376565040250e+02
6.000000000000000000e+01 5.005622431200284836e+02
6.040000000000000568e+01 4.989679577014371716e+02
6.080000000000000426e+01 4.973899901966282187e+02
6.120000000000000284e+01 4.958280565996269615e+02
6.160000000000000142e+01 4.942818798734540451e+02
6.200000000000000000e+01 4.927511897298954864e+02
6.240000000000000568e+01 4.912357224177720809e+02
6.280000000000000426e+01 4.897352205193192276e+02
6.320000000000000284e+01 4.882494327543096233e+02
6.360000000000000142e+01 4.867781137915750378e+02
6.400000000000000000e+01 4.853210240675959426e+02
6.440000000000000568e+01 4.838779296118443654e+02
6.480000000000001137e+01 4.824486018785884767e+02
6.520000000000000284e+01 4.810328175848724186e+02
6.559999999999999432e+01 4.796303585544058592e+02
6.600000000000000000e+01 4.782410115671106041e+02
6.640000000000000568e+01 4.768645682140793269e+02
6.680000000000001137e+01 4.755008247577202383e+02
6.720000000000000284e+01 4.741495819968652086e+02
6.759999999999999432e+01 4.728106451366381862e+02
6.800000000000000000e+01 4.714838236628818890e+02
6.840000000000000568e+01 4.701689312209562104e+02
6.880000000000001137e+01 4.688657854987287692e+02
6.920000000000000284e+01 4.675742081135865078e+02
6.959999999999999432e+01 4.662940245033051383e+02
7.000000000000000000e+01 4.650250638206207441e+02
7.040000000000000568e+01 4.637671588313565962e+02
7.080000000000001137e+01 4.625201458159631329e+02
7.120000000000000284e+01 4.612838644743345640e+02
7.159999999999999432e+01 4.600581578337771589e+02
7.200000000000000000e+01 4.588428721600020594e+02
7.240000000000000568e+01 4.576378568710287595e+02
7.280000000000001137e+01 4.564429644538842012e+02
7.320000000000000284e+01 4.552580503839926109e+02
7.359999999999999432e+01 4.540829730471521657e+02
7.400000000000000000e+01 4.529175936640004352e+02
7.440000000000000568e+01 4.517617762168767399e+02
7.479999999999999716e+01 4.506153873789891122e+02
7.520000000000000284e+01 4.494782964458021297e+02
7.560000000000000853e+01 4.483503752685627433e+02
7.600000000000000000e+01 4.472314981898852011e+02
7.640000000000000568e+01 4.461215419813206040e+02
7.679999999999999716e+01 4.450203857828381615e+02
7.720000000000000284e+01 4.439279110441491980e+02
7.760000000000000853e+01 4.428440014678085390e+02
7.800000000000000000e+01 4.417685429540285895e+02
7.840000000000000568e+01 4.407014235471453389e+02
7.879999999999999716e+01 4.396425333836796199e+02
7.920000000000000284e+01 4.385917646419349012e+02
7.960000000000000853e+01 4.375490114930799450e+02
8.000000000000000000e+01 4.365141700536640315e+02
8.040000000000000568e+01 4.354871383395155817e+02
8.079999999999999716e+01 4.344678162209753509e+02
8.120000000000000284e+01 4.334561053794203076e+02
8.160000000000000853e+01 4.324519092650338621e+02
8.200000000000000000e+01 4.314551330557785604e+02
8.240000000000000568e+01 4.304656836175335002e+02
8.279999999999999716e+01 4.294834694653553697e+02
8.320000000000000284e+01 4.285084007258269594e+02
8.360000000000000853e+01 4.275403891004559682e+02
8.400000000000000000e+01 4.265793478300913080e+02
8.440000000000000568e+01 4.256251916603205245e+02
8.479999999999999716e+01 4.246778368078201424e+02
8.520000000000000284e+01 4.237372009276253948e+02
8.560000000000000853e+01 4.228032030812896096e+02
8.600000000000000000e+01 4.218757637059065360e+02
8.640000000000000568e+01 4.209548045839661086e+02
8.680000000000001137e+01 4.200402488140186961e+02
8.720000000000000284e+01 4.191320207821206623e+02
8.760000000000000853e+01 4.182300461340382185e+02
8.800000000000000000e+01 4.173342517481847835e+02
8.840000000000000568e+01 4.164445657092694546e+02
8.880000000000001137e+01 4.155609172826339091e+02
8.920000000000000284e+01 4.146832368892577847e+02
8.960000000000000853e+01 4.138114560814099718e+02
9.000000000000000000e+01 4.129455075189292188e+02
9.040000000000000568e+01 4.120853249461102905e+02
9.080000000000001137e+01 4.112308431691826627e+02
9.120000000000000284e+01 4.103819980343591851e+02
9.160000000000000853e+01 4.095387264064410147e+02
9.200000000000000000e+01 4.087009661479601732e+02
9.240000000000000568e+01 4.078686560988446672e+02
9.280000000000001137e+01 4.070417360565905369e+02
9.320000000000000284e+01 4.062201467569258284e+02
9.360000000000000853e+01 4.054038298549520505e+02
9.400000000000000000e+01 4.045927279067493032e+02
9.440000000000000568e+01 4.037867843514318906e+02
9.480000000000001137e+01 4.029859434936400930e+02
9.520000000000000284e+01 4.021901504864583217e+02
9.560000000000000853e+01 4.013993513147432282e+02
9.600000000000000000e+01 4.006134927788550613e+02
9.640000000000000568e+01 3.998325224787760703e+02
9.680000000000001137e+01 3.990563887986089071e+02
9.720000000000000284e+01 3.982850408914416676e+02
9.760000000000000853e+01 3.975184286645701377e+02
9.800000000000000000e+01 3.967565027650687171e+02
9.840000000000000568e+01 3.959992145656971729e+02
9.880000000000001137e+01 3.952465161511374276e+02
9.920000000000000284e+01 3.944983603045490668e+02
9.960000000000000853e+01 3.937547004944350419e+02
1.000000000000000000e+02 3.930154908618100080e+02
1.004000000000000057e+02 3.922806862076626544e+02
1.008000000000000114e+02 3.915502419807037313e+02
1.012000000000000028e+02 3.908241142653922111e+02
1.016000000000000085e+02 3.901022597702324788e+02
1.020000000000000000e+02 3.893846358163353898e+02
1.024000000000000057e+02 3.886712003262347253e+02
1.028000000000000114e+02 3.879619118129551794e+02
1.032000000000000028e+02 3.872567293693216470e+02
1.036000000000000085e+02 3.865556126575064013e+02
1.040000000000000000e+02 3.858585218988068846e+02
1.044000000000000057e+02 3.851654178636473489e+02
1.048000000000000114e+02 3.844762618617996850e+02
1.052000000000000028e+02 3.837910157328176410e+02
1.056000000000000085e+02 3.831096418366777243e+02
1.060000000000000000e+02 3.824321030446234317e+02
1.064000000000000057e+02 3.817583627302059313e+02
1.068000000000000114e+02 3.810883847605167603e+02
1.072000000000000028e+02 3.804221334876084484e+02
1.076000000000000085e+02 3.797595737400967550e+02
1.080000000000000000e+02 3.791006708149412816e+02
1.084000000000000057e+02 3.784453904694001380e+02
1.088000000000000114e+02 3.777936989131522978e+02
1.092000000000000028e+02 3.771455628005860490e+02
1.096000000000000085e+02 3.765009492232482557e+02
1.100000000000000000e+02 3.758598257024500526e+02
1.104000000000000057e+02 3.752221601820252204e+02
1.108000000000000114e+02 3.745879210212394241e+02
1.112000000000000028e+02 3.739570769878430951e+02
1.116000000000000085e+02 3.733295972512679555e+02
1.120000000000000000e+02 3.727054513759618430e+02
1.124000000000000057e+02 3.720846093148581986e+02
1.128000000000000114e+02 3.714670414029782819e+02
1.132000000000000028e+02 3.708527183511629914e+02
1.136000000000000085e+02 3.702416112399286021e+02
1.140000000000000000e+02 3.696336915134477294e+02
1.144000000000000057e+02 3.690289309736480163e+02
1.148000000000000114e+02 3.684273017744302479e+02
1.152000000000000028e+02 3.678287764159987319e+02
1.156000000000000085e+02 3.672333277393049684e+02
1.160000000000000000e+02 3.666409289205996060e+02
1.164000000000000057e+02 3.660515534660910362e+02
1.168000000000000114e+02 3.654651752067089774e+02
1.172000000000000028e+02 3.648817682929685589e+02
1.176000000000000085e+02 3.643013071899345050e+02
1.180000000000000000e+02 3.637237666722824088e+02
1.184000000000000057e+02 3.631491218194547628e+02
1.188000000000000114e+02 3.625773480109098728e+02
1.192000000000000028e+02 3.620084209214613793e+02
1.196000000000000085e+02 3.614423165167056595e+02
1.200000000000000000e+02 3.608790110485380183e+02
1.204000000000000057e+02 3.603184810507503357e+02
1.208000000000000114e+02 3.597607033347147762e+02
1.212000000000000028e+02 3.592056549851457703e+02
1.216000000000000085e+02 3.586533133559431690e+02
1.220000000000000000e+02 3.581036560661110570e+02
1.224000000000000057e+02 3.575566609957539868e+02
1.228000000000000114e+02 3.570123062821459143e+02
1.232000000000000028e+02 3.564705703158720667e+02
1.236000000000000085e+02 3.559314317370418621e+02
1.240000000000000000e+02 3.553948694315708394e+02
1.244000000000000057e+02 3.548608625275302302e+02
1.248000000000000114e+02 3.543293903915635497e+02
1.252000000000000028e+02 3.538004326253674776e+02
1.256000000000000085e+02 3.532739690622363469e+02
1.260000000000000000e+02 3.527499797636690460e+02
1.264000000000000057e+02 3.522284450160369715e+02
1.268000000000000114e+02 3.517093453273105865e+02
1.272000000000000028e+02 3.511926614238456636e+02
1.276000000000000085e+02 3.506783742472254062e+02
1.280000000000000000e+02 3.501664649511590142e+02
1.284000000000000057e+02 3.496569148984349340e+02
1.288000000000000114e+02 3.491497056579278251e+02
1.291999999999999886e+02 3.486448190016573108e+02
1.296000000000000227e+02 3.481422369018987411e+02
1.300000000000000000e+02 3.476419415283446597e+02
1.304000000000000057e+02 3.471439152453137922e+02
1.308000000000000114e+02 3.466481406090104542e+02
1.311999999999999886e+02 3.461546003648301166e+02
1.316000000000000227e+02 3.456632774447108432e+02
1.320000000000000000e+02 3.451741549645314535e+02
1.324000000000000057e+02 3.446872162215527169e+02
1.328000000000000114e+02 3.442024446919031107e+02
1.331999999999999886e+02 3.437198240281067001e+02
1.336000000000000227e+02 3.432393380566530823e+02
1.340000000000000000e+02 3.427609707756083708e+02
1.344000000000000057e+02 3.422847063522661415e+02
1.348000000000000114e+02 3.418105291208377139e+02
1.351999999999999886e+02 3.413384235801813134e+02
1.356000000000000227e+02 3.408683743915688638e+02
1.360000000000000000e+02 3.404003663764899557e+02
1.364000000000000057e+02 3.399343845144916259e+02
1.368000000000000114e+02 3.394704139410551988e+02
1.371999999999999886e+02 3.390084399455062680e+02
1.376000000000000227e+02 3.385484479689599198e+02
1.380000000000000000e+02 3.380904236023001204e+02
1.384000000000000057e+02 3.376343525841905375e+02
1.388000000000000114e+02 3.371802207991190699e+02
1.392000000000000171e+02 3.367280142754734129e+02
1.395999999999999943e+02 3.362777191836474344e+02
1.400000000000000000e+02 3.358293218341790976e+02
1.404000000000000057e+02 3.353828086759171470e+02
1.408000000000000114e+02 3.349381662942179219e+02
1.412000000000000171e+02 3.344953814091704771e+02
1.415999999999999943e+02 3.340544408738502966e+02
1.420000000000000000e+02 3.336153316726004618e+02
1.424000000000000057e+02 3.331780409193400487e+02
1.428000000000000114e+02 3.327425558558995817e+02
1.432000000000000171e+02 3.323088638503822949e+02
1.435999999999999943e+02 3.318769523955507452e+02
1.440000000000000000e+02 3.314468091072398579e+02
1.444000000000000057e+02 3.310184217227933345e+02
1.448000000000000114e+02 3.305917780995251292e+02
1.452000000000000171e+02 3.301668662132050827e+02
1.455999999999999943e+02 3.297436741565668967e+02
1.460000000000000000e+02 3.293221901378402094e+02
1.464000000000000057e+02 3.289024024793042145e+02
1.468000000000000114e+02 3.284842996158650408e+02
1.472000000000000171e+02 3.280678700936526297e+02
1.475999999999999943e+02 3.276531025686409180e+02
1.480000000000000000e+02 3.272399858052882564e+02
1.484000000000000057e+02 3.268285086751978952e+02
1.488000000000000114e+02 3.264186601558002394e+02
1.492000000000000171e+02 3.260104293290530677e+02
1.495999999999999943e+02 3.256038053801627257e+02
1.500000000000000000e+02 3.251987775963236231e+02
