1.000000000000000000e+01 6.003633367214496275e+02
1.040000000000000036e+01 6.692085088781287823e+02
1.080000000000000071e+01 7.142503787030619833e+02
1.119999999999999929e+01 7.539647082127056592e+02
1.159999999999999964e+01 8.094883946525774263e+02
1.200000000000000000e+01 8.492114057057692662e+02
1.240000000000000036e+01 8.532792038873220690e+02
1.280000000000000071e+01 9.313499331823603598e+02
1.319999999999999929e+01 9.597653979004105622e+02
1.359999999999999964e+01 1.012002486643188490e+03
1.400000000000000000e+01 1.010187929270825975e+03
1.440000000000000036e+01 9.904181639185353561e+02
1.480000000000000071e+01 9.719582992258974627e+02
1.519999999999999929e+01 9.546609886285466473e+02
1.560000000000000142e+01 9.384019574800407781e+02
1.600000000000000000e+01 9.230754333860804763e+02
1.639999999999999858e+01 9.085906582459585934e+02
1.680000000000000071e+01 8.948691872234276161e+02
1.719999999999999929e+01 8.818427699378381703e+02
1.760000000000000142e+01 8.694516689726701770e+02
1.800000000000000000e+01 8.576433113595219311e+02
1.839999999999999858e+01 8.463711967323196177e+02
1.880000000000000071e+01 8.355940055620255862e+02
1.920000000000000284e+01 8.252748649641771408e+02
1.960000000000000142e+01 8.153807397741259138e+02
2.000000000000000000e+01 8.058819240736490883e+02
2.039999999999999858e+01 7.967516139158551596e+02
2.080000000000000071e+01 7.879655461740727560e+02
2.120000000000000284e+01 7.795016916115672529e+02
2.160000000000000142e+01 7.713399926984460535e+02
2.200000000000000000e+01 7.634621385799904374e+02
2.239999999999999858e+01 7.558513710641834678e+02
2.280000000000000071e+01 7.484923166456781018e+02
2.320000000000000284e+01 7.413708404928244136e+02
2.360000000000000142e+01 7.344739190487300675e+02
2.400000000000000000e+01 7.277895284780061047e+02
2.439999999999999858e+01 7.213065466591897348e+02
2.480000000000000071e+01 7.150146668027292662e+02
2.520000000000000284e+01 7.089043210842371536e+02
2.560000000000000142e+01 7.029666129366955829e+02
2.600000000000000000e+01 6.971932568545126969e+02
2.640000000000000213e+01 6.915765247354650000e+02
2.680000000000000071e+01 6.861091979304802635e+02
2.719999999999999929e+01 6.807845242913473385e+02
2.760000000000000142e+01 6.755961796071160279e+02
2.800000000000000000e+01 6.705382329046540235e+02
2.840000000000000213e+01 6.656051151603446669e+02
2.880000000000000071e+01 6.607915910305043781e+02
2.920000000000000284e+01 6.560927332596347696e+02
2.960000000000000142e+01 6.515038994695480596e+02
3.000000000000000000e+01 6.470207110700224575e+02
3.040000000000000213e+01 6.426390340638890848e+02
3.080000000000000071e+01 6.383549615472286405e+02
3.120000000000000284e+01 6.341647977293093845e+02
3.160000000000000142e+01 6.300650433176255092e+02
3.200000000000000000e+01 6.260523821313832968e+02
3.240000000000000568e+01 6.221236688224092859e+02
3.279999999999999716e+01 6.182759175960954963e+02
3.320000000000000284e+01 6.145062918368871578e+02
3.360000000000000142e+01 6.108120945532641599e+02
3.400000000000000000e+01 6.071907595662949007e+02
3.440000000000000568e+01 6.036398433738996800e+02
3.479999999999999716e+01 6.001570176300376716e+02
3.520000000000000284e+01 5.967400621842929240e+02
3.560000000000000142e+01 5.933868586328644597e+02
3.600000000000000000e+01 5.900953843368677099e+02
3.640000000000000568e+01 5.868637068682071458e+02
3.679999999999999716e+01 5.836899788471475858e+02
3.720000000000000284e+01 5.805724331391551232e+02
3.760000000000000142e+01 5.775093783816583937e+02
3.800000000000000000e+01 5.744991948141193916e+02
3.840000000000000568e+01 5.715403303872658398e+02
3.879999999999999716e+01 5.686312971295373018e+02
3.920000000000000284e+01 5.657706677507733275e+02
3.960000000000000142e+01 5.629570724649516933e+02
4.000000000000000000e+01 5.601891960153755008e+02
4.040000000000000568e+01 5.574657748871607055e+02
4.079999999999999716e+01 5.547855946931621247e+02
4.120000000000000284e+01 5.521474877206627525e+02
4.160000000000000142e+01 5.495503306272042892e+02
4.200000000000000000e+01 5.469930422749058607e+02
4.239999999999999858e+01 5.444745816934859022e+02
4.280000000000000426e+01 5.419939461629996913e+02
4.320000000000000284e+01 5.395501694080164725e+02
4.360000000000000142e+01 5.371423198956275655e+02
4.400000000000000000e+01 5.347694992302610899e+02
4.439999999999999858e+01 5.324308406388311141e+02
4.480000000000000426e+01 5.301255075402432340e+02
4.520000000000000284e+01 5.278526921937329917e+02
4.560000000000000142e+01 5.256116144209254344e+02
4.600000000000000000e+01 5.234015203968892820e+02
4.639999999999999858e+01 5.212216815058018256e+02
4.680000000000000426e+01 5.190713932571661644e+02
4.720000000000000284e+01 5.169499742588061508e+02
4.760000000000000142e+01 5.148567652431449915e+02
4.800000000000000000e+01 5.127911281435108322e+02
4.840000000000000568e+01 5.107524452174472458e+02
4.880000000000000426e+01 5.087401182142135099e+02
4.920000000000000284e+01 5.067535675838531688e+02
4.960000000000000142e+01 5.047922317253872393e+02
5.000000000000000000e+01 5.028555662718571284e+02
5.040000000000000568e+01 5.009430434100883076e+02
5.080000000000000426e+01 4.990541512331910781e+02
5.120000000000000284e+01 4.971883931239447065e+02
5.160000000000000142e+01 4.953452871673296727e+02
5.200000000000000000e+01 4.935243655905864557e+02
5.240000000000000568e+01 4.917251742292819472e+02
5.280000000000000426e+01 4.899472720179620069e+02
5.320000000000000284e+01 4.881902305040558758e+02
5.360000000000000142e+01 4.864536333837834263e+02
5.400000000000000000e+01 4.847370760588926260e+02
5.440000000000000568e+01 4.830401652131254764e+02
5.480000000000000426e+01 4.813625184073787295e+02
5.520000000000000284e+01 4.797037636925868469e+02
5.560000000000000142e+01 4.780635392394147516e+02
5.600000000000000000e+01 4.764414929838991952e+02
5.640000000000000568e+01 4.748372822882309379e+02
5.680000000000000426e+01 4.732505736159136518e+02
5.720000000000000284e+01 4.716810422205849704e+02
5.760000000000000142e+01 4.701283718478187552e+02
5.800000000000000000e+01 4.685922544492741508e+02
5.840000000000000568e+01 4.670723899085868425e+02
5.880000000000000426e+01 4.655684857784351038e+02
5.920000000000000284e+01 4.640802570282438069e+02
5.960000000000000142e+01 4.626074258020189518e+02
6.000000000000000000e+01 4.611497211858328455e+02
6.040000000000000568e+01 4.597068789845091601e+02
6.080000000000000426e+01 4.582786415070748944e+02
6.120000000000000284e+01 4.568647573605770162e+02
6.160000000000000142e+01 4.554649812518781573e+02
6.200000000000000000e+01 4.540790737970670534e+02
6.240000000000000568e+01 4.527068013381394849e+02
6.280000000000000426e+01 4.513479357666225837e+02
6.320000000000000284e+01 4.500022543538327682e+02
6.360000000000000142e+01 4.486695395874722863e+02
6.400000000000000000e+01 4.473495790142871442e+02
6.440000000000000568e+01 4.460421650885185159e+02
6.480000000000001137e+01 4.447470950258999665e+02
6.520000000000000284e+01 4.434641706629570308e+02
6.559999999999999432e+01 4.421931983213851822e+02
6.600000000000000000e+01 4.409339886772891646e+02
6.640000000000000568e+01 4.396863566350778001e+02
6.680000000000001137e+01 4.384501212058186752e+02
6.720000000000000284e+01 4.372251053898682471e+02
6.759999999999999432e+01 4.360111360635979736e+02
6.800000000000000000e+01 4.348080438700496870e+02
6.840000000000000568e+01 4.336156631133584369e+02
6.880000000000001137e+01 4.324338316567904599e+02
6.920000000000000284e+01 4.312623908242495645e+02
6.959999999999999432e+01 4.301011853051128355e+02
7.000000000000000000e+01 4.289500630622640642e+02
7.040000000000000568e+01 4.278088752431965531e+02
7.080000000000001137e+01 4.266774760940656392e+02
7.120000000000000284e+01 4.255557228765743503e+02
7.159999999999999432e+01 4.244434757875838500e+02
7.200000000000000000e+01 4.233405978813412389e+02
7.240000000000000568e+01 4.222469549942257458e+02
7.280000000000001137e+01 4.211624156719157668e+02
7.320000000000000284e+01 4.200868510988868820e+02
7.359999999999999432e+01 4.190201350301501293e+02
7.400000000000000000e+01 4.179621437251485645e+02
7.440000000000000568e+01 4.169127558837315632e+02
7.479999999999999716e+01 4.158718525841286464e+02
7.520000000000000284e+01 4.148393172228495587e+02
7.560000000000000853e+01 4.138150354564410236e+02
7.600000000000000000e+01 4.127988951450312811e+02
7.640000000000000568e+01 4.117907862975973217e+02
7.679999999999999716e+01 4.107906010188956429e+02
7.720000000000000284e+01 4.097982334579921826e+02
7.760000000000000853e+01 4.088135797583389603e+02
7.800000000000000000e+01 4.078365380093403019e+02
7.840000000000000568e+01 4.068670081993564054e+02
7.879999999999999716e+01 4.059048921700942287e+02
7.920000000000000284e+01 4.049500935723376074e+02
7.960000000000000853e+01 4.040025178229698781e+02
8.000000000000000000e+01 4.030620720632435336e+02
8.040000000000000568e+01 4.021286651182569472e+02
8.079999999999999716e+01 4.012022074575934880e+02
8.120000000000000284e+01 4.002826111570863077e+02
8.160000000000000853e+01 3.993697898616692896e+02
8.200000000000000000e+01 3.984636587492790341e+02
8.240000000000000568e+01 3.975641344957710999e+02
8.279999999999999716e+01 3.966711352408183302e+02
8.320000000000000284e+01 3.957845805547586906e+02
8.360000000000000853e+01 3.949043914063599345e+02
8.400000000000000000e+01 3.940304901314738117e+02
8.440000000000000568e+01 3.931628004025466794e+02
8.479999999999999716e+01 3.923012471989649725e+02
8.520000000000000284e+01 3.914457567782022807e+02
8.560000000000000853e+01 3.905962566477460314e+02
8.600000000000000000e+01 3.897526755377788845e+02
8.640000000000000568e+01 3.889149433745886313e+02
8.680000000000001137e+01 3.880829912546870446e+02
8.720000000000000284e+01 3.872567514196115326e+02
8.760000000000000853e+01 3.864361572313915190e+02
8.800000000000000000e+01 3.856211431486570973e+02
8.840000000000000568e+01 3.848116447033708027e+02
8.880000000000001137e+01 3.840075984781628335e+02
8.920000000000000284e+01 3.832089420842518166e+02
8.960000000000000853e+01 3.824156141399325861e+02
9.000000000000000000e+01 3.816275542496147750e+02
9.040000000000000568e+01 3.808447029833940860e+02
9.080000000000001137e+01 3.800670018571418041e+02
9.120000000000000284e+01 3.792943933130959522e+02
9.160000000000000853e+01 3.785268207009398225e+02
9.200000000000000000e+01 3.777642282593528762e+02
9.240000000000000568e+01 3.770065610980204269e+02
9.280000000000001137e+01 3.762537651800888625e+02
9.320000000000000284e+01 3.755057873050524222e+02
9.360000000000000853e+01 3.747625750920608425e+02
9.400000000000000000e+01 3.740240769636326945e+02
9.440000000000000568e+01 3.732902421297665114e+02
9.480000000000001137e+01 3.725610205724344155e+02
9.520000000000000284e+01 3.718363630304506273e+02
9.560000000000000853e+01 3.711162209847022382e+02
9.600000000000000000e+01 3.704005466437319001e+02
9.640000000000000568e+01 3.696892929296642478e+02
9.680000000000001137e+01 3.689824134644642299e+02
9.720000000000000284e+01 3.682798625565198449e+02
9.760000000000000853e+01 3.675815951875389374e+02
9.800000000000000000e+01 3.668875669997528917e+02
9.840000000000000568e+01 3.661977342834161959e+02
9.880000000000001137e+01 3.655120539645972713e+02
9.920000000000000284e+01 3.648304835932493120e+02
9.960000000000000853e+01 3.641529813315553383e+02
1.000000000000000000e+02 3.634795059425396175e+02
1.004000000000000057e+02 3.628100167789386319e+02
1.008000000000000114e+02 3.621444737723230674e+02
1.012000000000000028e+02 3.614828374224669574e+02
1.016000000000000085e+02 3.608250687869536932e+02
1.020000000000000000e+02 3.601711294710164566e+02
1.024000000000000057e+02 3.595209816176040363e+02
1.028000000000000114e+02 3.588745878976671406e+02
1.032000000000000028e+02 3.582319115006596917e+02
1.036000000000000085e+02 3.575929161252487916e+02
1.040000000000000000e+02 3.569575659702290977e+02
1.044000000000000057e+02 3.563258257256342745e+02
1.048000000000000114e+02 3.556976605640430762e+02
1.052000000000000028e+02 3.550730361320725024e+02
1.056000000000000085e+02 3.544519185420552390e+02
1.060000000000000000e+02 3.538342743638955312e+02
1.064000000000000057e+02 3.532200706170994522e+02
1.068000000000000114e+02 3.526092747629746214e+02
1.072000000000000028e+02 3.520018546969960767e+02
1.076000000000000085e+02 3.513977787413331271e+02
1.080000000000000000e+02 3.507970156375337751e+02
1.084000000000000057e+02 3.501995345393623893e+02
1.088000000000000114e+02 3.496053050057873861e+02
1.092000000000000028e+02 3.490142969941148863e+02
1.096000000000000085e+02 3.484264808532637403e+02
1.100000000000000000e+02 3.478418273171811848e+02
1.104000000000000057e+02 3.472603074983926490e+02
1.108000000000000114e+02 3.466818928816838365e+02
1.112000000000000028e+02 3.461065553179129211e+02
1.116000000000000085e+02 3.455342670179471156e+02
1.120000000000000000e+02 3.449650005467232177e+02
1.124000000000000057e+02 3.443987288174276387e+02
1.128000000000000114e+02 3.438354250857935313e+02
1.132000000000000028e+02 3.432750629445122854e+02
1.136000000000000085e+02 3.427176163177562103e+02
1.140000000000000000e+02 3.421630594558109237e+02
1.144000000000000057e+02 3.416113669298131299e+02
1.148000000000000114e+02 3.410625136265937272e+02
1.152000000000000028e+02 3.405164747436202788e+02
1.156000000000000085e+02 3.399732257840408352e+02
1.160000000000000000e+02 3.394327425518226846e+02
1.164000000000000057e+02 3.388950011469869423e+02
1.168000000000000114e+02 3.383599779609352822e+02
1.172000000000000028e+02 3.378276496718661974e+02
1.176000000000000085e+02 3.372979932402806185e+02
1.180000000000000000e+02 3.367709859045727399e+02
1.184000000000000057e+02 3.362466051767057706e+02
1.188000000000000114e+02 3.357248288379699943e+02
1.192000000000000028e+02 3.352056349348208073e+02
1.196000000000000085e+02 3.346890017747957131e+02
1.200000000000000000e+02 3.341749079225091350e+02
1.204000000000000057e+02 3.336633321957204998e+02
1.208000000000000114e+02 3.331542536614782080e+02
1.212000000000000028e+02 3.326476516323335204e+02
1.216000000000000085e+02 3.321435056626261257e+02
1.220000000000000000e+02 3.316417955448376347e+02
1.224000000000000057e+02 3.311425013060130027e+02
1.228000000000000114e+02 3.306456032042475499e+02
1.232000000000000028e+02 3.301510817252384413e+02
1.236000000000000085e+02 3.296589175788985813e+02
1.240000000000000000e+02 3.291690916960330924e+02
1.244000000000000057e+02 3.286815852250757075e+02
1.248000000000000114e+02 3.281963795288837673e+02
1.252000000000000028e+02 3.277134561815915959e+02
1.256000000000000085e+02 3.272327969655200377e+02
1.260000000000000000e+02 3.267543838681414172e+02
1.264000000000000057e+02 3.262781990790988402e+02
1.268000000000000114e+02 3.258042249872780758e+02
1.272000000000000028e+02 3.253324441779317908e+02
1.276000000000000085e+02 3.248628394298541480e+02
1.280000000000000000e+02 3.243953937126057667e+02
1.284000000000000057e+02 3.239300901837867741e+02
1.288000000000000114e+02 3.234669121863577743e+02
1.291999999999999886e+02 3.230058432460079985e+02
1.296000000000000227e+02 3.225468670685679626e+02
1.300000000000000000e+02 3.220899675374689650e+02
1.304000000000000057e+02 3.216351287112440218e+02
1.308000000000000114e+02 3.211823348210738232e+02
1.311999999999999886e+02 3.207315702683743552e+02
1.316000000000000227e+02 3.202828196224241424e+02
1.320000000000000000e+02 3.198360676180349742e+02
1.324000000000000057e+02 3.193912991532596379e+02
1.328000000000000114e+02 3.189484992871388158e+02
1.331999999999999886e+02 3.185076532374882845e+02
1.336000000000000227e+02 3.180687463787198794e+02
1.340000000000000000e+02 3.176317642397023064e+02
1.344000000000000057e+02 3.171966925016556047e+02
1.348000000000000114e+02 3.167635169960811936e+02
1.351999999999999886e+02 3.163322237027275605e+02
1.356000000000000227e+02 3.159027987475874397e+02
1.360000000000000000e+02 3.154752284009305185e+02
1.364000000000000057e+02 3.150494990753664979e+02
1.368000000000000114e+02 3.146255973239415198e+02
1.371999999999999886e+02 3.142035098382647789e+02
1.376000000000000227e+02 3.137832234466658861e+02
1.380000000000000000e+02 3.133647251123829278e+02
1.384000000000000057e+02 3.129480019317788901e+02
1.388000000000000114e+02 3.125330411325876980e+02
1.392000000000000171e+02 3.121198300721884493e+02
1.395999999999999943e+02 3.117083562359067628e+02
1.400000000000000000e+02 3.112986072353443205e+02
1.404000000000000057e+02 3.108905708067345586e+02
1.408000000000000114e+02 3.104842348093244482e+02
1.412000000000000171e+02 3.100795872237823119e+02
1.415999999999999943e+02 3.096766161506311619e+02
1.420000000000000000e+02 3.092753098087056287e+02
1.424000000000000057e+02 3.088756565336345830e+02
1.428000000000000114e+02 3.084776447763467218e+02
1.432000000000000171e+02 3.080812631015999727e+02
1.435999999999999943e+02 3.076865001865335216e+02
1.440000000000000000e+02 3.072933448192426340e+02
1.444000000000000057e+02 3.069017858973756461e+02
1.448000000000000114e+02 3.065118124267522148e+02
1.452000000000000171e+02 3.061234135200039077e+02
1.455999999999999943e+02 3.057365783952344032e+02
1.460000000000000000e+02 3.053512963747014055e+02
1.464000000000000057e+02 3.049675568835176023e+02
1.468000000000000114e+02 3.045853494483730515e+02
1.472000000000000171e+02 3.042046636962751336e+02
1.475999999999999943e+02 3.038254893533091376e+02
1.480000000000000000e+02 3.034478162434167530e+02
1.484000000000000057e+02 3.030716342871931488e+02
1.488000000000000114e+02 3.026969335007026416e+02
1.492000000000000171e+02 3.023237039943114155e+02
1.495999999999999943e+02 3.019519359715380915e+02
1.500000000000000000e+02 3.015816197279214634e+02
