1.000000000000000000e+01 4.071990056883616944e+02
1.040000000000000036e+01 4.824013944465629038e+02
1.080000000000000071e+01 5.011066998166028270e+02
1.119999999999999929e+01 5.297897692260454505e+02
1.159999999999999964e+01 5.255939997980215139e+02
1.200000000000000000e+01 5.179572964894676943e+02
1.240000000000000036e+01 5.100988967551826931e+02
1.280000000000000071e+01 5.049215452463470228e+02
1.319999999999999929e+01 5.003143921950683648e+02
1.359999999999999964e+01 4.971758087578591017e+02
1.400000000000000000e+01 5.003176953264986651e+02
1.440000000000000036e+01 4.908365517855581857e+02
1.480000000000000071e+01 4.819276225003210925e+02
1.519999999999999929e+01 4.735331794629725550e+02
1.560000000000000142e+01 4.656036093372658229e+02
1.600000000000000000e+01 4.580959557432075826e+02
1.639999999999999858e+01 4.509727794185283187e+02
1.680000000000000071e+01 4.442012550254195276e+02
1.719999999999999929e+01 4.377524470603684676e+02
1.760000000000000142e+01 4.316007232947874854e+02
1.800000000000000000e+01 4.257232751873923462e+02
1.839999999999999858e+01 4.200997224579458589e+02
1.880000000000000071e+01 4.147117845614976090e+02
1.920000000000000284e+01 4.095430058403019871e+02
1.960000000000000142e+01 4.045785241110221477e+02
2.000000000000000000e+01 3.998048746731376468e+02
2.039999999999999858e+01 3.952098234100380978e+02
2.080000000000000071e+01 3.907822239429747242e+02
2.120000000000000284e+01 3.865118947929746582e+02
2.160000000000000142e+01 3.823895132809002462e+02
2.200000000000000000e+01 3.784065235046722364e+02
2.239999999999999858e+01 3.745550562146370908e+02
2.280000000000000071e+01 3.708278587923117016e+02
2.320000000000000284e+01 3.672182338461632298e+02
2.360000000000000142e+01 3.637199851871830560e+02
2.400000000000000000e+01 3.603273701493952785e+02
2.439999999999999858e+01 3.570350573857675727e+02
2.480000000000000071e+01 3.538380894057623891e+02
2.520000000000000284e+01 3.507318492328026309e+02
2.560000000000000142e+01 3.477120306528194646e+02
2.600000000000000000e+01 3.447746116024063099e+02
2.640000000000000213e+01 3.419158303097873386e+02
2.680000000000000071e+01 3.391321638561237251e+02
2.719999999999999929e+01 3.364203088704516063e+02
2.760000000000000142e+01 3.337771641102648346e+02
2.800000000000000000e+01 3.311998147126141703e+02
2.840000000000000213e+01 3.286855179285835220e+02
2.880000000000000071e+01 3.262316901779075238e+02
2.920000000000000284e+01 3.238358952809834364e+02
2.960000000000000142e+01 3.214958337431368705e+02
3.000000000000000000e+01 3.192093329811712010e+02
3.040000000000000213e+01 3.169743383953451143e+02
3.080000000000000071e+01 3.147889052012815796e+02
3.120000000000000284e+01 3.126511909461780192e+02
3.160000000000000142e+01 3.105594486422778004e+02
3.200000000000000000e+01 3.085120204580603058e+02
3.240000000000000568e+01 3.065073319141637853e+02
3.279999999999999716e+01 3.045438865368017218e+02
3.320000000000000284e+01 3.026202609264815919e+02
3.360000000000000142e+01 3.007351002042801156e+02
3.400000000000000000e+01 2.988871138018438955e+02
3.440000000000000568e+01 2.970750715647513971e+02
3.479999999999999716e+01 2.952978001419311340e+02
3.520000000000000284e+01 2.935541796365546929e+02
3.560000000000000142e+01 2.918431404962306601e+02
3.600000000000000000e+01 2.901636606224820412e+02
3.640000000000000568e+01 2.885147626813945863e+02
3.679999999999999716e+01 2.868955115990412423e+02
3.720000000000000284e+01 2.853050122268099358e+02
3.760000000000000142e+01 2.837424071631336346e+02
3.800000000000000000e+01 2.822068747193465015e+02
3.840000000000000568e+01 2.806976270184915734e+02
3.879999999999999716e+01 2.792139082168991990e+02
3.920000000000000284e+01 2.777549928392415950e+02
3.960000000000000142e+01 2.763201842185799251e+02
4.000000000000000000e+01 2.749088130336404561e+02
4.040000000000000568e+01 2.735202359362167499e+02
4.079999999999999716e+01 2.721538342621869333e+02
4.120000000000000284e+01 2.708090128201727680e+02
4.160000000000000142e+01 2.694851987523575190e+02
4.200000000000000000e+01 2.681818404624207233e+02
4.239999999999999858e+01 2.668984066059517772e+02
4.280000000000000426e+01 2.656343851390722648e+02
4.320000000000000284e+01 2.643892824213290282e+02
4.360000000000000142e+01 2.631626223692267104e+02
4.400000000000000000e+01 2.619539456570454377e+02
4.439999999999999858e+01 2.607628089618449394e+02
4.480000000000000426e+01 2.595887842497875795e+02
4.520000000000000284e+01 2.584314581011267933e+02
4.560000000000000142e+01 2.572904310714025655e+02
4.600000000000000000e+01 2.561653170865636184e+02
4.639999999999999858e+01 2.550557428699027582e+02
4.680000000000000426e+01 2.539613473988391661e+02
4.720000000000000284e+01 2.528817813897242672e+02
4.760000000000000142e+01 2.518167068089728104e+02
4.800000000000000000e+01 2.507657964089401048e+02
4.840000000000000568e+01 2.497287332870743057e+02
4.880000000000000426e+01 2.487052104669735400e+02
4.920000000000000284e+01 2.476949305000682671e+02
4.960000000000000142e+01 2.466976050867381502e+02
5.000000000000000000e+01 2.457129547157475713e+02
5.040000000000000568e+01 2.447407083209614598e+02
5.080000000000000426e+01 2.437806029543669979e+02
5.120000000000000284e+01 2.428323834744915928e+02
5.160000000000000142e+01 2.418958022493659996e+02
5.200000000000000000e+01 2.409706188732340024e+02
5.240000000000000568e+01 2.400565998962617869e+02
5.280000000000000426e+01 2.391535185665453866e+02
5.320000000000000284e+01 2.382611545837588665e+02
5.360000000000000142e+01 2.373792938638263763e+02
5.400000000000000000e+01 2.365077283140375357e+02
5.440000000000000568e+01 2.356462556180618435e+02
5.480000000000000426e+01 2.347946790303499256e+02
5.520000000000000284e+01 2.339528071794398443e+02
5.560000000000000142e+01 2.331204538797144892e+02
5.600000000000000000e+01 2.322974379511842926e+02
5.640000000000000568e+01 2.314835830468916527e+02
5.680000000000000426e+01 2.306787174875591404e+02
5.720000000000000284e+01 2.298826741031236907e+02
5.760000000000000142e+01 2.290952900808188986e+02
5.800000000000000000e+01 2.283164068194885203e+02
5.840000000000000568e+01 2.275458697898296236e+02
5.880000000000000426e+01 2.267835284002816820e+02
5.920000000000000284e+01 2.260292358682934264e+02
5.960000000000000142e+01 2.252828490967144717e+02
6.000000000000000000e+01 2.245442285550705606e+02
6.040000000000000568e+01 2.238132381654961023e+02
6.080000000000000426e+01 2.230897451931095361e+02
6.120000000000000284e+01 2.223736201406266559e+02
6.160000000000000142e+01 2.216647366470210159e+02
6.200000000000000000e+01 2.209629713900462775e+02
6.240000000000000568e+01 2.202682039924496848e+02
6.280000000000000426e+01 2.195803169317104278e+02
6.320000000000000284e+01 2.188991954531477120e+02
6.360000000000000142e+01 2.182247274862507993e+02
6.400000000000000000e+01 2.175568035640899325e+02
6.440000000000000568e+01 2.168953167456745632e+02
6.480000000000001137e+01 2.162401625411325767e+02
6.520000000000000284e+01 2.155912388395895789e+02
6.559999999999999432e+01 2.149484458396333366e+02
6.600000000000000000e+01 2.143116859822547440e+02
6.640000000000000568e+01 2.136808638861611485e+02
6.680000000000001137e+01 2.130558862853634707e+02
6.720000000000000284e+01 2.124366619689430991e+02
6.759999999999999432e+01 2.118231017229081772e+02
6.800000000000000000e+01 2.112151182740555555e+02
6.840000000000000568e+01 2.106126262357550445e+02
6.880000000000001137e+01 2.100155420555799992e+02
6.920000000000000284e+01 2.094237839647093722e+02
6.959999999999999432e+01 2.088372719290309192e+02
7.000000000000000000e+01 2.082559276018784544e+02
7.040000000000000568e+01 2.076796742783382115e+02
7.080000000000001137e+01 2.071084368510637432e+02
7.120000000000000284e+01 2.065421417675403575e+02
7.159999999999999432e+01 2.059807169887426710e+02
7.200000000000000000e+01 2.054240919491327872e+02
7.240000000000000568e+01 2.048721975179468586e+02
7.280000000000001137e+01 2.043249659617219436e+02
7.320000000000000284e+01 2.037823309080158936e+02
7.359999999999999432e+01 2.032442273102757326e+02
7.400000000000000000e+01 2.027105914138116702e+02
7.440000000000000568e+01 2.021813607228357341e+02
7.479999999999999716e+01 2.016564739685258871e+02
7.520000000000000284e+01 2.011358710780779973e+02
7.560000000000000853e+01 2.006194931447095087e+02
7.600000000000000000e+01 2.001072823985804519e+02
7.640000000000000568e+01 1.995991821785989373e+02
7.679999999999999716e+01 1.990951369050793005e+02
7.720000000000000284e+01 1.985950920532222881e+02
7.760000000000000853e+01 1.980989941273883232e+02
7.800000000000000000e+01 1.976067906361364521e+02
7.840000000000000568e+01 1.971184300680008050e+02
7.879999999999999716e+01 1.966338618679805847e+02
7.920000000000000284e+01 1.961530364147172918e+02
7.960000000000000853e+01 1.956759049983365912e+02
8.000000000000000000e+01 1.952024197989313166e+02
8.040000000000000568e+01 1.947325338656640383e+02
8.079999999999999716e+01 1.942662010964687056e+02
8.120000000000000284e+01 1.938033762183297029e+02
8.160000000000000853e+01 1.933440147681205872e+02
8.200000000000000000e+01 1.928880730739826390e+02
8.240000000000000568e+01 1.924355082372258892e+02
8.279999999999999716e+01 1.919862781147351711e+02
8.320000000000000284e+01 1.915403413018644869e+02
8.360000000000000853e+01 1.910976571158039974e+02
8.400000000000000000e+01 1.906581855794038916e+02
8.440000000000000568e+01 1.902218874054403841e+02
8.479999999999999716e+01 1.897887239813103974e+02
8.520000000000000284e+01 1.893586573541396092e+02
8.560000000000000853e+01 1.889316502162922120e+02
8.600000000000000000e+01 1.885076658912687719e+02
8.640000000000000568e+01 1.880866683199801628e+02
8.680000000000001137e+01 1.876686220473857816e+02
8.720000000000000284e+01 1.872534922094846763e+02
8.760000000000000853e+01 1.868412445206482175e+02
8.800000000000000000e+01 1.864318452612847352e+02
8.840000000000000568e+01 1.860252612658242128e+02
8.880000000000001137e+01 1.856214599110152506e+02
8.920000000000000284e+01 1.852204091045230143e+02
8.960000000000000853e+01 1.848220772738198434e+02
9.000000000000000000e+01 1.844264333553599613e+02
9.040000000000000568e+01 1.840334467840287402e+02
9.080000000000001137e+01 1.836430874828593005e+02
9.120000000000000284e+01 1.832553258530078040e+02
9.160000000000000853e+01 1.828701327639801661e+02
9.200000000000000000e+01 1.824874795441026549e+02
9.240000000000000568e+01 1.821073379712286737e+02
9.280000000000001137e+01 1.817296802636759026e+02
9.320000000000000284e+01 1.813544790713862653e+02
9.360000000000000853e+01 1.809817074673019874e+02
9.400000000000000000e+01 1.806113389389528265e+02
9.440000000000000568e+01 1.802433473802464050e+02
9.480000000000001137e+01 1.798777070834584606e+02
9.520000000000000284e+01 1.795143927314143468e+02
9.560000000000000853e+01 1.791533793898586850e+02
9.600000000000000000e+01 1.787946425000068871e+02
9.640000000000000568e+01 1.784381578712731766e+02
9.680000000000001137e+01 1.780839016741712726e+02
9.720000000000000284e+01 1.777318504333812825e+02
9.760000000000000853e+01 1.773819810209795946e+02
9.800000000000000000e+01 1.770342706498270786e+02
9.840000000000000568e+01 1.766886968671100817e+02
9.880000000000001137e+01 1.763452375480315197e+02
9.920000000000000284e+01 1.760038708896472883e+02
9.960000000000000853e+01 1.756645754048436174e+02
1.000000000000000000e+02 1.753273299164526975e+02
1.004000000000000057e+02 1.749921135515013191e+02
1.008000000000000114e+02 1.746589057355907642e+02
1.012000000000000028e+02 1.743276861874025485e+02
1.016000000000000085e+02 1.739984349133283956e+02
1.020000000000000000e+02 1.736711322022198374e+02
1.024000000000000057e+02 1.733457586202550544e+02
1.028000000000000114e+02 1.730222950059193465e+02
1.032000000000000028e+02 1.727007224650970159e+02
1.036000000000000085e+02 1.723810223662706846e+02
1.040000000000000000e+02 1.720631763358265118e+02
1.044000000000000057e+02 1.717471662534611312e+02
1.048000000000000114e+02 1.714329742476892307e+02
1.052000000000000028e+02 1.711205826914479076e+02
1.056000000000000085e+02 1.708099741977959525e+02
1.060000000000000000e+02 1.705011316157059014e+02
1.064000000000000057e+02 1.701940380259455878e+02
1.068000000000000114e+02 1.698886767370477742e+02
1.072000000000000028e+02 1.695850312813655592e+02
1.076000000000000085e+02 1.692830854112107204e+02
1.080000000000000000e+02 1.689828230950739112e+02
1.084000000000000057e+02 1.686842285139238413e+02
1.088000000000000114e+02 1.683872860575841344e+02
1.092000000000000028e+02 1.680919803211853605e+02
1.096000000000000085e+02 1.677982961016907097e+02
1.100000000000000000e+02 1.675062183944937146e+02
1.104000000000000057e+02 1.672157323900858046e+02
1.108000000000000114e+02 1.669268234707921010e+02
1.112000000000000028e+02 1.666394772075744868e+02
1.116000000000000085e+02 1.663536793568989083e+02
1.120000000000000000e+02 1.660694158576666837e+02
1.124000000000000057e+02 1.657866728282082249e+02
1.128000000000000114e+02 1.655054365633364171e+02
1.132000000000000028e+02 1.652256935314595125e+02
1.136000000000000085e+02 1.649474303717518922e+02
1.140000000000000000e+02 1.646706338913809020e+02
1.144000000000000057e+02 1.643952910627888286e+02
1.148000000000000114e+02 1.641213890210282784e+02
1.152000000000000028e+02 1.638489150611506489e+02
1.156000000000000085e+02 1.635778566356452757e+02
1.160000000000000000e+02 1.633082013519287727e+02
1.164000000000000057e+02 1.630399369698834846e+02
1.168000000000000114e+02 1.627730513994434887e+02
1.172000000000000028e+02 1.625075326982274078e+02
1.176000000000000085e+02 1.622433690692168398e+02
1.180000000000000000e+02 1.619805488584791817e+02
1.184000000000000057e+02 1.617190605529344509e+02
1.188000000000000114e+02 1.614588927781642269e+02
1.192000000000000028e+02 1.612000342962623733e+02
1.196000000000000085e+02 1.609424740037267725e+02
1.200000000000000000e+02 1.606862009293901394e+02
1.204000000000000057e+02 1.604312042323907974e+02
1.208000000000000114e+02 1.601774732001802590e+02
1.212000000000000028e+02 1.599249972465689211e+02
1.216000000000000085e+02 1.596737659098078836e+02
1.220000000000000000e+02 1.594237688507059829e+02
1.224000000000000057e+02 1.591749958507823237e+02
1.228000000000000114e+02 1.589274368104521216e+02
1.232000000000000028e+02 1.586810817472464805e+02
1.236000000000000085e+02 1.584359207940640601e+02
1.240000000000000000e+02 1.581919441974554275e+02
1.244000000000000057e+02 1.579491423159378769e+02
1.248000000000000114e+02 1.577075056183411732e+02
1.252000000000000028e+02 1.574670246821830233e+02
1.256000000000000085e+02 1.572276901920738510e+02
1.260000000000000000e+02 1.569894929381500219e+02
1.264000000000000057e+02 1.567524238145353763e+02
1.268000000000000114e+02 1.565164738178297057e+02
1.272000000000000028e+02 1.562816340456246280e+02
1.276000000000000085e+02 1.560478956950453266e+02
1.280000000000000000e+02 1.558152500613179541e+02
1.284000000000000057e+02 1.555836885363628141e+02
1.288000000000000114e+02 1.553532026074113617e+02
1.291999999999999886e+02 1.551237838556481563e+02
1.296000000000000227e+02 1.548954239548758380e+02
1.300000000000000000e+02 1.546681146702037779e+02
1.304000000000000057e+02 1.544418478567589545e+02
1.308000000000000114e+02 1.542166154584195112e+02
1.311999999999999886e+02 1.539924095065698566e+02
1.316000000000000227e+02 1.537692221188768258e+02
1.320000000000000000e+02 1.535470454980877548e+02
1.324000000000000057e+02 1.533258719308474269e+02
1.328000000000000114e+02 1.531056937865367047e+02
1.331999999999999886e+02 1.528865035161298920e+02
1.336000000000000227e+02 1.526682936510713944e+02
1.340000000000000000e+02 1.524510568021718768e+02
1.344000000000000057e+02 1.522347856585222701e+02
1.348000000000000114e+02 1.520194729864261944e+02
1.351999999999999886e+02 1.518051116283505166e+02
1.356000000000000227e+02 1.515916945018924764e+02
1.360000000000000000e+02 1.513792145987649178e+02
1.364000000000000057e+02 1.511676649837975788e+02
1.368000000000000114e+02 1.509570387939551495e+02
1.371999999999999886e+02 1.507473292373713605e+02
1.376000000000000227e+02 1.505385295923988451e+02
1.380000000000000000e+02 1.503306332066744915e+02
1.384000000000000057e+02 1.501236334962001990e+02
1.388000000000000114e+02 1.499175239444381873e+02
1.392000000000000171e+02 1.497122981014212542e+02
1.395999999999999943e+02 1.495079495828773588e+02
1.400000000000000000e+02 1.493044720693678755e+02
1.404000000000000057e+02 1.491018593054401435e+02
1.408000000000000114e+02 1.489001050987935173e+02
1.412000000000000171e+02 1.486992033194582348e+02
1.415999999999999943e+02 1.484991478989877862e+02
1.420000000000000000e+02 1.482999328296641863e+02
1.424000000000000057e+02 1.481015521637150698e+02
1.428000000000000114e+02 1.479040000125439462e+02
1.432000000000000171e+02 1.477072705459721362e+02
1.435999999999999943e+02 1.475113579914925879e+02
1.440000000000000000e+02 1.473162566335352608e+02
1.444000000000000057e+02 1.471219608127443905e+02
1.448000000000000114e+02 1.469284649252663257e+02
1.452000000000000171e+02 1.467357634220488762e+02
1.455999999999999943e+02 1.465438508081512907e+02
1.460000000000000000e+02 1.463527216420648074e+02
1.464000000000000057e+02 1.461623705350437490e+02
1.468000000000000114e+02 1.459727921504469350e+02
1.472000000000000171e+02 1.457839812030887288e+02
1.475999999999999943e+02 1.455959324586004584e+02
1.480000000000000000e+02 1.454086407328011887e+02
1.484000000000000057e+02 1.452221008910782416e+02
1.488000000000000114e+02 1.450363078477768397e+02
1.492000000000000171e+02 1.448512565655992717e+02
1.495999999999999943e+02 1.446669420550125551e+02
1.500000000000000000e+02 1.444833593736655359e+02
