1.000000000000000000e+01 6.555373486206088955e+02
1.040000000000000036e+01 7.111610421736878607e+02
1.080000000000000071e+01 7.517843669703349860e+02
1.119999999999999929e+01 7.978243668083962348e+02
1.159999999999999964e+01 8.155774535640578051e+02
1.200000000000000000e+01 8.237259457472184749e+02
1.240000000000000036e+01 8.297797630511425950e+02
1.280000000000000071e+01 8.919530196564735434e+02
1.319999999999999929e+01 9.332830042538630551e+02
1.359999999999999964e+01 9.814237060258628844e+02
1.400000000000000000e+01 9.766702161290691038e+02
1.440000000000000036e+01 9.581258311151136695e+02
1.480000000000000071e+01 9.407805638107840878e+02
1.519999999999999929e+01 9.245013920102685461e+02
1.560000000000000142e+01 9.091759820838101405e+02
1.600000000000000000e+01 8.947086006442416419e+02
1.639999999999999858e+01 8.810169943467825533e+02
1.680000000000000071e+01 8.680299735255700853e+02
1.719999999999999929e+01 8.556855163176581982e+02
1.760000000000000142e+01 8.439292636069890250e+02
1.800000000000000000e+01 8.327133114863231640e+02
1.839999999999999858e+01 8.219952330460419034e+02
1.880000000000000071e+01 8.117372789409480447e+02
1.920000000000000284e+01 8.019057187776145383e+02
1.960000000000000142e+01 7.924702944814196144e+02
2.000000000000000000e+01 7.834037634905319010e+02
2.039999999999999858e+01 7.746815145904167821e+02
2.080000000000000071e+01 7.662812429316109046e+02
2.120000000000000284e+01 7.581826736028274354e+02
2.160000000000000142e+01 7.503673252987853175e+02
2.200000000000000000e+01 7.428183072972472019e+02
2.239999999999999858e+01 7.355201442652944479e+02
2.280000000000000071e+01 7.284586244403037654e+02
2.320000000000000284e+01 7.216206675424800778e+02
2.360000000000000142e+01 7.149942094222089963e+02
2.400000000000000000e+01 7.085681009638335581e+02
2.439999999999999858e+01 7.023320191856284964e+02
2.480000000000000071e+01 6.962763888150693674e+02
2.520000000000000284e+01 6.903923128953180139e+02
2.560000000000000142e+01 6.846715112058777777e+02
2.600000000000000000e+01 6.791062654674589112e+02
2.640000000000000213e+01 6.736893704560013703e+02
2.680000000000000071e+01 6.684140902796195860e+02
2.719999999999999929e+01 6.632741191798206728e+02
2.760000000000000142e+01 6.582635463085543961e+02
2.800000000000000000e+01 6.533768240085894377e+02
2.840000000000000213e+01 6.486087391888593174e+02
2.880000000000000071e+01 6.439543874408067268e+02
2.920000000000000284e+01 6.394091495880259117e+02
2.960000000000000142e+01 6.349686704009830009e+02
3.000000000000000000e+01 6.306288392423953155e+02
3.040000000000000213e+01 6.263857724378748344e+02
3.080000000000000071e+01 6.222357971914300379e+02
3.120000000000000284e+01 6.181754368869972041e+02
3.160000000000000142e+01 6.142013976358547325e+02
3.200000000000000000e+01 6.103105559459877441e+02
3.240000000000000568e+01 6.064999474035766980e+02
3.279999999999999716e+01 6.027667562690911609e+02
3.320000000000000284e+01 5.991083059012167951e+02
3.360000000000000142e+01 5.955220499312839593e+02
3.400000000000000000e+01 5.920055641191173663e+02
3.440000000000000568e+01 5.885565388285267545e+02
3.479999999999999716e+01 5.851727720670573945e+02
3.520000000000000284e+01 5.818521630403009794e+02
3.560000000000000142e+01 5.785927061760723973e+02
3.600000000000000000e+01 5.753924855782130408e+02
3.640000000000000568e+01 5.722496698737238603e+02
3.679999999999999716e+01 5.691625074204488328e+02
3.720000000000000284e+01 5.661293218456590921e+02
3.760000000000000142e+01 5.631485078886819338e+02
3.800000000000000000e+01 5.602185275232175172e+02
3.840000000000000568e+01 5.573379063372253768e+02
3.879999999999999716e+01 5.545052301502618093e+02
3.920000000000000284e+01 5.517191418499588735e+02
3.960000000000000142e+01 5.489783384309505436e+02
4.000000000000000000e+01 5.462815682210067507e+02
4.040000000000000568e+01 5.436276282804602715e+02
4.079999999999999716e+01 5.410153619621892176e+02
4.120000000000000284e+01 5.384436566204961991e+02
4.160000000000000142e+01 5.359114414581962365e+02
4.200000000000000000e+01 5.334176855021045185e+02
4.239999999999999858e+01 5.309613956979128488e+02
4.280000000000000426e+01 5.285416151161746257e+02
4.320000000000000284e+01 5.261574212617667854e+02
4.360000000000000142e+01 5.238079244798125274e+02
4.400000000000000000e+01 5.214922664515820543e+02
4.439999999999999858e+01 5.192096187743942437e+02
4.480000000000000426e+01 5.169591816200005496e+02
4.520000000000000284e+01 5.147401824663429579e+02
4.560000000000000142e+01 5.125518748979618522e+02
4.600000000000000000e+01 5.103935374706803714e+02
4.639999999999999858e+01 5.082644726365109591e+02
4.680000000000000426e+01 5.061640057250206155e+02
4.720000000000000284e+01 5.040914839776660301e+02
4.760000000000000142e+01 5.020462756318536321e+02
4.800000000000000000e+01 5.000277690517099245e+02
4.840000000000000568e+01 4.980353719027568786e+02
4.880000000000000426e+01 4.960685103678810037e+02
4.920000000000000284e+01 4.941266284021605770e+02
4.960000000000000142e+01 4.922091870242849154e+02
5.000000000000000000e+01 4.903156636424488397e+02
5.040000000000000568e+01 4.884455514127450897e+02
5.080000000000000426e+01 4.865983586282098941e+02
5.120000000000000284e+01 4.847736081367966676e+02
5.160000000000000142e+01 4.829708367866638810e+02
5.200000000000000000e+01 4.811895948972660904e+02
5.240000000000000568e+01 4.794294457548350010e+02
5.280000000000000426e+01 4.776899651309246337e+02
5.320000000000000284e+01 4.759707408227783390e+02
5.360000000000000142e+01 4.742713722143516861e+02
5.400000000000000000e+01 4.725914698568980157e+02
5.440000000000000568e+01 4.709306550680885834e+02
5.480000000000000426e+01 4.692885595487022101e+02
5.520000000000000284e+01 4.676648250159771578e+02
5.560000000000000142e+01 4.660591028527702520e+02
5.600000000000000000e+01 4.644710537717219268e+02
5.640000000000000568e+01 4.629003474936684484e+02
5.680000000000000426e+01 4.613466624395913414e+02
5.720000000000000284e+01 4.598096854354295147e+02
5.760000000000000142e+01 4.582891114291227836e+02
5.800000000000000000e+01 4.567846432192884549e+02
5.840000000000000568e+01 4.552959911949675416e+02
5.880000000000000426e+01 4.538228730859084408e+02
5.920000000000000284e+01 4.523650137228828498e+02
5.960000000000000142e+01 4.509221448075622902e+02
6.000000000000000000e+01 4.494940046915015728e+02
6.040000000000000568e+01 4.480803381638081078e+02
6.080000000000000426e+01 4.466808962470916526e+02
6.120000000000000284e+01 4.452954360013138171e+02
6.160000000000000142e+01 4.439237203351795529e+02
6.200000000000000000e+01 4.425655178247245090e+02
6.240000000000000568e+01 4.412206025387773707e+02
6.280000000000000426e+01 4.398887538709891487e+02
6.320000000000000284e+01 4.385697563781376402e+02
6.360000000000000142e+01 4.372633996244300079e+02
6.400000000000000000e+01 4.359694780315434741e+02
6.440000000000000568e+01 4.346877907341505534e+02
6.480000000000001137e+01 4.334181414406973545e+02
6.520000000000000284e+01 4.321603382992042839e+02
6.559999999999999432e+01 4.309141937678795102e+02
6.600000000000000000e+01 4.296795244903398725e+02
6.640000000000000568e+01 4.284561511752454521e+02
6.680000000000001137e+01 4.272438984801644324e+02
6.720000000000000284e+01 4.260425948994920873e+02
6.759999999999999432e+01 4.248520726562572918e+02
6.800000000000000000e+01 4.236721675976575625e+02
6.840000000000000568e+01 4.225027190941711979e+02
6.880000000000001137e+01 4.213435699421007143e+02
6.920000000000000284e+01 4.201945662694118369e+02
6.959999999999999432e+01 4.190555574447347453e+02
7.000000000000000000e+01 4.179263959894034883e+02
7.040000000000000568e+01 4.168069374924136241e+02
7.080000000000001137e+01 4.156970405281828107e+02
7.120000000000000284e+01 4.145965665770069108e+02
7.159999999999999432e+01 4.135053799481062242e+02
7.200000000000000000e+01 4.124233477051624845e+02
7.240000000000000568e+01 4.113503395942522047e+02
7.280000000000001137e+01 4.102862279740844542e+02
7.320000000000000284e+01 4.092308877484558707e+02
7.359999999999999432e+01 4.081841963008415632e+02
7.400000000000000000e+01 4.071460334310395410e+02
7.440000000000000568e+01 4.061162812937951685e+02
7.479999999999999716e+01 4.050948243393306711e+02
7.520000000000000284e+01 4.040815492557102289e+02
7.560000000000000853e+01 4.030763449129755713e+02
7.600000000000000000e+01 4.020791023089848295e+02
7.640000000000000568e+01 4.010897145168957536e+02
7.679999999999999716e+01 4.001080766342342940e+02
7.720000000000000284e+01 3.991340857334894281e+02
7.760000000000000853e+01 3.981676408141841534e+02
7.800000000000000000e+01 3.972086427563672828e+02
7.840000000000000568e+01 3.962569942754781778e+02
7.879999999999999716e+01 3.953125998785354795e+02
7.920000000000000284e+01 3.943753658216053282e+02
7.960000000000000853e+01 3.934452000685035955e+02
8.000000000000000000e+01 3.925220122506897837e+02
8.040000000000000568e+01 3.916057136283141062e+02
8.079999999999999716e+01 3.906962170523754594e+02
8.120000000000000284e+01 3.897934369279561793e+02
8.160000000000000853e+01 3.888972891784936792e+02
8.200000000000000000e+01 3.880076912110589547e+02
8.240000000000000568e+01 3.871245618826035297e+02
8.279999999999999716e+01 3.862478214671472188e+02
8.320000000000000284e+01 3.853773916238730521e+02
8.360000000000000853e+01 3.845131953661009447e+02
8.400000000000000000e+01 3.836551570311114574e+02
8.440000000000000568e+01 3.828032022507908323e+02
8.479999999999999716e+01 3.819572579230732572e+02
8.520000000000000284e+01 3.811172521841528464e+02
8.560000000000000853e+01 3.802831143814418056e+02
8.600000000000000000e+01 3.794547750472501662e+02
8.640000000000000568e+01 3.786321658731659454e+02
8.680000000000001137e+01 3.778152196851119697e+02
8.720000000000000284e+01 3.770038704190596377e+02
8.760000000000000853e+01 3.761980530973780787e+02
8.800000000000000000e+01 3.753977038058001767e+02
8.840000000000000568e+01 3.746027596709852787e+02
8.880000000000001137e+01 3.738131588386614794e+02
8.920000000000000284e+01 3.730288404523287795e+02
8.960000000000000853e+01 3.722497446325068609e+02
9.000000000000000000e+01 3.714758124565112212e+02
9.040000000000000568e+01 3.707069859387400470e+02
9.080000000000001137e+01 3.699432080114592054e+02
9.120000000000000284e+01 3.691844225060684721e+02
9.160000000000000853e+01 3.684305741348355241e+02
9.200000000000000000e+01 3.676816084730837701e+02
9.240000000000000568e+01 3.669374719418210589e+02
9.280000000000001137e+01 3.661981117907955081e+02
9.320000000000000284e+01 3.654634760819672010e+02
9.360000000000000853e+01 3.647335136733825038e+02
9.400000000000000000e+01 3.640081742034409444e+02
9.440000000000000568e+01 3.632874080755406681e+02
9.480000000000001137e+01 3.625711664430956489e+02
9.520000000000000284e+01 3.618594011949103901e+02
9.560000000000000853e+01 3.611520649409035286e+02
9.600000000000000000e+01 3.604491109981715908e+02
9.640000000000000568e+01 3.597504933773806783e+02
9.680000000000001137e+01 3.590561667694797165e+02
9.720000000000000284e+01 3.583660865327245233e+02
9.760000000000000853e+01 3.576802086800043980e+02
9.800000000000000000e+01 3.569984898664642401e+02
9.840000000000000568e+01 3.563208873774112817e+02
9.880000000000001137e+01 3.556473591165022299e+02
9.920000000000000284e+01 3.549778635941997891e+02
9.960000000000000853e+01 3.543123599164937332e+02
1.000000000000000000e+02 3.536508077738777729e+02
1.004000000000000057e+02 3.529931674305771594e+02
1.008000000000000114e+02 3.523393997140174179e+02
1.012000000000000028e+02 3.516894660045316527e+02
1.016000000000000085e+02 3.510433282252957952e+02
1.020000000000000000e+02 3.504009488324900303e+02
1.024000000000000057e+02 3.497622908056767983e+02
1.028000000000000114e+02 3.491273176383923555e+02
1.032000000000000028e+02 3.484959933289447918e+02
1.036000000000000085e+02 3.478682823714132155e+02
1.040000000000000000e+02 3.472441497468444140e+02
1.044000000000000057e+02 3.466235609146396541e+02
1.048000000000000114e+02 3.460064818041284980e+02
1.052000000000000028e+02 3.453928788063238926e+02
1.056000000000000085e+02 3.447827187658543835e+02
1.060000000000000000e+02 3.441759689730690752e+02
1.064000000000000057e+02 3.435725971563102235e+02
1.068000000000000114e+02 3.429725714743499339e+02
1.072000000000000028e+02 3.423758605089867615e+02
1.076000000000000085e+02 3.417824332577984023e+02
1.080000000000000000e+02 3.411922591270449630e+02
1.084000000000000057e+02 3.406053079247226947e+02
1.088000000000000114e+02 3.400215498537598364e+02
1.092000000000000028e+02 3.394409555053553049e+02
1.096000000000000085e+02 3.388634958524532408e+02
1.100000000000000000e+02 3.382891422433535809e+02
1.104000000000000057e+02 3.377178663954518356e+02
1.108000000000000114e+02 3.371496403891072760e+02
1.112000000000000028e+02 3.365844366616360048e+02
1.116000000000000085e+02 3.360222280014253329e+02
1.120000000000000000e+02 3.354629875421669567e+02
1.124000000000000057e+02 3.349066887572062114e+02
1.128000000000000114e+02 3.343533054540040439e+02
1.132000000000000028e+02 3.338028117687099439e+02
1.136000000000000085e+02 3.332551821608428781e+02
1.140000000000000000e+02 3.327103914080765321e+02
1.144000000000000057e+02 3.321684146011288021e+02
1.148000000000000114e+02 3.316292271387510482e+02
1.152000000000000028e+02 3.310928047228148898e+02
1.156000000000000085e+02 3.305591233534963749e+02
1.160000000000000000e+02 3.300281593245524050e+02
1.164000000000000057e+02 3.294998892186894182e+02
1.168000000000000114e+02 3.289742899030212584e+02
1.172000000000000028e+02 3.284513385246145845e+02
1.176000000000000085e+02 3.279310125061190320e+02
1.180000000000000000e+02 3.274132895414819586e+02
1.184000000000000057e+02 3.268981475917436228e+02
1.188000000000000114e+02 3.263855648809127388e+02
1.192000000000000028e+02 3.258755198919197937e+02
1.196000000000000085e+02 3.253679913626466487e+02
1.200000000000000000e+02 3.248629582820304904e+02
1.204000000000000057e+02 3.243603998862408275e+02
1.208000000000000114e+02 3.238602956549274268e+02
1.212000000000000028e+02 3.233626253075386217e+02
1.216000000000000085e+02 3.228673687997064690e+02
1.220000000000000000e+02 3.223745063197002310e+02
1.224000000000000057e+02 3.218840182849434086e+02
1.228000000000000114e+02 3.213958853385962584e+02
1.232000000000000028e+02 3.209100883461987905e+02
1.236000000000000085e+02 3.204266083923764654e+02
1.240000000000000000e+02 3.199454267776051211e+02
1.244000000000000057e+02 3.194665250150335396e+02
1.248000000000000114e+02 3.189898848273647900e+02
1.252000000000000028e+02 3.185154881437920267e+02
1.256000000000000085e+02 3.180433170969902221e+02
1.260000000000000000e+02 3.175733540201611049e+02
1.264000000000000057e+02 3.171055814441300527e+02
1.268000000000000114e+02 3.166399820944959060e+02
1.272000000000000028e+02 3.161765388888293842e+02
1.276000000000000085e+02 3.157152349339220336e+02
1.280000000000000000e+02 3.152560535230826417e+02
1.284000000000000057e+02 3.147989781334818531e+02
1.288000000000000114e+02 3.143439924235418061e+02
1.291999999999999886e+02 3.138910802303724950e+02
1.296000000000000227e+02 3.134402255672509341e+02
1.300000000000000000e+02 3.129914126211458552e+02
1.304000000000000057e+02 3.125446257502825347e+02
1.308000000000000114e+02 3.120998494817517894e+02
1.311999999999999886e+02 3.116570685091583641e+02
1.316000000000000227e+02 3.112162676903095075e+02
1.320000000000000000e+02 3.107774320449434526e+02
1.324000000000000057e+02 3.103405467524960955e+02
1.328000000000000114e+02 3.099055971499046223e+02
1.331999999999999886e+02 3.094725687294495629e+02
1.336000000000000227e+02 3.090414471366314046e+02
1.340000000000000000e+02 3.086122181680843823e+02
1.344000000000000057e+02 3.081848677695236347e+02
1.348000000000000114e+02 3.077593820337272632e+02
1.351999999999999886e+02 3.073357471985513030e+02
1.356000000000000227e+02 3.069139496449782314e+02
1.360000000000000000e+02 3.064939758951969111e+02
1.364000000000000057e+02 3.060758126107143653e+02
1.368000000000000114e+02 3.056594465904982485e+02
1.371999999999999886e+02 3.052448647691500696e+02
1.376000000000000227e+02 3.048320542151076324e+02
1.380000000000000000e+02 3.044210021288769212e+02
1.384000000000000057e+02 3.040116958412922941e+02
1.388000000000000114e+02 3.036041228118053255e+02
1.392000000000000171e+02 3.031982706268004790e+02
1.395999999999999943e+02 3.027941269979380650e+02
1.400000000000000000e+02 3.023916797605235729e+02
1.404000000000000057e+02 3.019909168719032095e+02
1.408000000000000114e+02 3.015918264098850159e+02
1.412000000000000171e+02 3.011943965711839724e+02
1.415999999999999943e+02 3.007986156698934224e+02
1.420000000000000000e+02 3.004044721359788923e+02
1.424000000000000057e+02 3.000119545137963541e+02
1.428000000000000114e+02 2.996210514606337938e+02
1.432000000000000171e+02 2.992317517452751190e+02
1.435999999999999943e+02 2.988440442465866909e+02
1.440000000000000000e+02 2.984579179521256265e+02
1.444000000000000057e+02 2.980733619567698724e+02
1.448000000000000114e+02 2.976903654613689696e+02
1.452000000000000171e+02 2.973089177714164180e+02
1.455999999999999943e+02 2.969290082957411414e+02
1.460000000000000000e+02 2.965506265452203252e+02
1.464000000000000057e+02 2.961737621315106708e+02
1.468000000000000114e+02 2.957984047658000577e+02
1.472000000000000171e+02 2.954245442575773950e+02
1.475999999999999943e+02 2.950521705134210606e+02
1.480000000000000000e+02 2.946812735358063264e+02
1.484000000000000057e+02 2.943118434219297228e+02
1.488000000000000114e+02 2.939438703625519338e+02
1.492000000000000171e+02 2.935773446408575182e+02
1.495999999999999943e+02 2.932122566313316270e+02
1.500000000000000000e+02 2.928485967986536593e+02
