1.000000000000000000e+01 6.890157889354483700e+01
1.040000000000000036e+01 6.878678941620137266e+01
1.080000000000000071e+01 9.578136773260051484e+01
1.119999999999999929e+01 9.476734672089816058e+01
1.159999999999999964e+01 9.203533646634505772e+01
1.200000000000000000e+01 8.956488941592238007e+01
1.240000000000000036e+01 8.731389252054722760e+01
1.280000000000000071e+01 8.524970269516919075e+01
1.319999999999999929e+01 8.334644319044090821e+01
1.359999999999999964e+01 8.160219014407280724e+01
1.400000000000000000e+01 8.007001488351301077e+01
1.440000000000000036e+01 7.863414442229392876e+01
1.480000000000000071e+01 7.728433214215348812e+01
1.519999999999999929e+01 7.601186601913695995e+01
1.560000000000000142e+01 7.480927326402438382e+01
1.600000000000000000e+01 7.367009394341098982e+01
1.639999999999999858e+01 7.258870480069651876e+01
1.680000000000000071e+01 7.156018028465803127e+01
1.719999999999999929e+01 7.058018160611905500e+01
1.760000000000000142e+01 6.575372140596078907e+01
1.800000000000000000e+01 6.475797866674304260e+01
1.839999999999999858e+01 6.380589137975528047e+01
1.880000000000000071e+01 6.149850168280741514e+01
1.920000000000000284e+01 6.066121641948446097e+01
1.960000000000000142e+01 5.985767064732339549e+01
2.000000000000000000e+01 5.908558740958245181e+01
2.039999999999999858e+01 5.834290447257654932e+01
2.080000000000000071e+01 5.762774841671337356e+01
2.120000000000000284e+01 5.693841252040139977e+01
2.160000000000000142e+01 5.627333778703788880e+01
2.200000000000000000e+01 5.563109659219625769e+01
2.239999999999999858e+01 5.501037852734116740e+01
2.280000000000000071e+01 5.440997809455884493e+01
2.320000000000000284e+01 5.382878396881923777e+01
2.360000000000000142e+01 5.326576959385191401e+01
2.400000000000000000e+01 5.271610824925694061e+01
2.439999999999999858e+01 5.215022460288727757e+01
2.480000000000000071e+01 5.159492635456949472e+01
2.520000000000000284e+01 5.105591580577645772e+01
2.560000000000000142e+01 5.053240054627804767e+01
2.600000000000000000e+01 5.002364151904897938e+01
2.640000000000000213e+01 4.952894845969872506e+01
2.680000000000000071e+01 4.904767580631681767e+01
2.719999999999999929e+01 4.857921902311495899e+01
2.760000000000000142e+01 4.812301128901017933e+01
2.800000000000000000e+01 4.767852050886683912e+01
2.840000000000000213e+01 4.724524661069664688e+01
2.880000000000000071e+01 4.682271909687480616e+01
2.920000000000000284e+01 4.641049482149696814e+01
2.960000000000000142e+01 4.600815596948915953e+01
3.000000000000000000e+01 4.561530821608228337e+01
3.040000000000000213e+01 4.523157904784729766e+01
3.080000000000000071e+01 4.485661622872444099e+01
3.120000000000000284e+01 4.449008639641640173e+01
3.160000000000000142e+01 4.413167377620002441e+01
3.200000000000000000e+01 4.415098733410633258e+01
3.240000000000000568e+01 4.382879474574419021e+01
3.279999999999999716e+01 4.351325721237785160e+01
3.320000000000000284e+01 4.320414579607097494e+01
3.360000000000000142e+01 4.290124251419630497e+01
3.400000000000000000e+01 4.263286786332314193e+01
3.440000000000000568e+01 4.237842119258183970e+01
3.479999999999999716e+01 4.204695269051208584e+01
3.520000000000000284e+01 4.182541019304007079e+01
3.560000000000000142e+01 4.160768139187316450e+01
3.600000000000000000e+01 4.139365426592986807e+01
3.640000000000000568e+01 4.118322139952146443e+01
3.679999999999999716e+01 4.097627974088095471e+01
3.720000000000000284e+01 4.077273037599050554e+01
3.760000000000000142e+01 4.057247831657694803e+01
3.800000000000000000e+01 4.037543230124016702e+01
3.840000000000000568e+01 4.018150460876500318e+01
3.879999999999999716e+01 3.999061088274547870e+01
3.920000000000000284e+01 3.980266996672095559e+01
3.960000000000000142e+01 3.961702947605481029e+01
4.000000000000000000e+01 3.943115539856381702e+01
4.040000000000000568e+01 3.924807859451466641e+01
4.079999999999999716e+01 3.906772691031351030e+01
4.120000000000000284e+01 3.889003080745869312e+01
4.160000000000000142e+01 3.871492324120490025e+01
4.200000000000000000e+01 3.854233954605681589e+01
4.239999999999999858e+01 3.837221732764207616e+01
4.280000000000000426e+01 3.820449636054699738e+01
4.320000000000000284e+01 3.803911849173017856e+01
4.360000000000000142e+01 3.787602754915678815e+01
4.400000000000000000e+01 3.771516925532311859e+01
4.439999999999999858e+01 3.755649114536457489e+01
4.480000000000000426e+01 3.739796094450580455e+01
4.520000000000000284e+01 3.723500152701664234e+01
4.560000000000000142e+01 3.707427769561680719e+01
4.600000000000000000e+01 3.691573672420506114e+01
4.639999999999999858e+01 3.675932764144739195e+01
4.680000000000000426e+01 3.660500115569561785e+01
4.720000000000000284e+01 3.645270958381959758e+01
4.760000000000000142e+01 3.630240678371290386e+01
4.800000000000000000e+01 3.615404809024911970e+01
4.840000000000000568e+01 3.600759025448120099e+01
4.880000000000000426e+01 3.586299138589055246e+01
4.920000000000000284e+01 3.572021089750606393e+01
4.960000000000000142e+01 3.562282755795412470e+01
5.000000000000000000e+01 3.548737256592988132e+01
5.040000000000000568e+01 3.535357192966226592e+01
5.080000000000000426e+01 3.522139087988592365e+01
5.120000000000000284e+01 3.509079568074567845e+01
5.160000000000000142e+01 3.496175359023166607e+01
5.200000000000000000e+01 3.483423282246281616e+01
5.240000000000000568e+01 3.470820251171677029e+01
5.280000000000000426e+01 3.458363267811131436e+01
5.320000000000000284e+01 3.446049419484764087e+01
5.360000000000000142e+01 3.433875875693205160e+01
5.400000000000000000e+01 3.421839885129726611e+01
5.440000000000000568e+01 3.409938772824965980e+01
5.480000000000000426e+01 3.398169937417307551e+01
5.520000000000000284e+01 3.386530848542404470e+01
5.560000000000000142e+01 3.375019044335726193e+01
5.600000000000000000e+01 3.363632129042338192e+01
5.640000000000000568e+01 3.352367770728526608e+01
5.680000000000000426e+01 3.341223699090119936e+01
5.720000000000000284e+01 3.330197703352710903e+01
5.760000000000000142e+01 3.319287630259231747e+01
5.800000000000000000e+01 3.308491382140605452e+01
5.840000000000000568e+01 3.297806915065420696e+01
5.880000000000000426e+01 3.287232237064826279e+01
5.920000000000000284e+01 3.297614522256883163e+01
5.960000000000000142e+01 3.287555466188651110e+01
6.000000000000000000e+01 3.277595186143116734e+01
6.040000000000000568e+01 3.114249059668563291e+01
6.080000000000000426e+01 3.103677455545929220e+01
6.120000000000000284e+01 3.093211567677161256e+01
6.160000000000000142e+01 3.082849616158858908e+01
6.200000000000000000e+01 3.072589863049759629e+01
6.240000000000000568e+01 3.062430611102200828e+01
6.280000000000000426e+01 3.052370202540292610e+01
6.320000000000000284e+01 3.042407017882757714e+01
6.360000000000000142e+01 3.032539474808544355e+01
6.400000000000000000e+01 3.022766027063351402e+01
6.440000000000000568e+01 3.013085163405357747e+01
6.480000000000001137e+01 3.003495406588478644e+01
6.520000000000000284e+01 2.993995312381586871e+01
6.559999999999999432e+01 2.984583468622200542e+01
6.600000000000000000e+01 2.975258494303207613e+01
6.640000000000000568e+01 2.966019038691268150e+01
6.680000000000001137e+01 2.956863780475617176e+01
6.720000000000000284e+01 2.947791426945995852e+01
6.759999999999999432e+01 2.938800713198591552e+01
6.800000000000000000e+01 2.929890401368800923e+01
6.840000000000000568e+01 2.921059279889811933e+01
6.880000000000001137e+01 2.912306162775928442e+01
6.920000000000000284e+01 2.903629888929700087e+01
6.959999999999999432e+01 2.895029321471906059e+01
7.000000000000000000e+01 2.886503347093521654e+01
7.040000000000000568e+01 2.878050875428801092e+01
7.080000000000001137e+01 2.869670838448677586e+01
7.120000000000000284e+01 2.862737784553857523e+01
7.159999999999999432e+01 2.854650061808229822e+01
7.200000000000000000e+01 2.846630226578239231e+01
7.240000000000000568e+01 2.838677317199444872e+01
7.280000000000001137e+01 2.830790391119352378e+01
7.320000000000000284e+01 2.822968524409641589e+01
7.359999999999999432e+01 2.815196189091805223e+01
7.400000000000000000e+01 2.807477861480203885e+01
7.440000000000000568e+01 2.799821821316945147e+01
7.479999999999999716e+01 2.792227221924097691e+01
7.520000000000000284e+01 2.784693232750128189e+01
7.560000000000000853e+01 2.777219038975946219e+01
7.600000000000000000e+01 2.769803841132662825e+01
7.640000000000000568e+01 2.762446854730664114e+01
7.679999999999999716e+01 2.755147309899600572e+01
7.720000000000000284e+01 2.747904451038910167e+01
7.760000000000000853e+01 2.740717536478522831e+01
7.800000000000000000e+01 2.733585838149382852e+01
7.840000000000000568e+01 2.726508641263470523e+01
7.879999999999999716e+01 2.719485244002986235e+01
7.920000000000000284e+01 2.712514957218398592e+01
7.960000000000000853e+01 2.705597104135054565e+01
8.000000000000000000e+01 2.698731020068067465e+01
8.040000000000000568e+01 2.691916052145198535e+01
8.079999999999999716e+01 2.685151559037492675e+01
8.120000000000000284e+01 2.678436910697380569e+01
8.160000000000000853e+01 2.671771488104025494e+01
8.200000000000000000e+01 2.665154683015680348e+01
8.240000000000000568e+01 2.658585897728806202e+01
8.279999999999999716e+01 2.652027918526511385e+01
8.320000000000000284e+01 2.645505907424932701e+01
8.360000000000000853e+01 2.639030664699374995e+01
8.400000000000000000e+01 2.632601625433493808e+01
8.440000000000000568e+01 2.626218234278037045e+01
8.479999999999999716e+01 2.619879945242922048e+01
8.520000000000000284e+01 2.613586221494815831e+01
8.560000000000000853e+01 2.607336535160050062e+01
8.600000000000000000e+01 2.601130367132700627e+01
8.640000000000000568e+01 2.594967206887683275e+01
8.680000000000001137e+01 2.588846552298696935e+01
8.720000000000000284e+01 2.582685296436400790e+01
8.760000000000000853e+01 2.576498222793131632e+01
8.800000000000000000e+01 2.570353541718692369e+01
8.840000000000000568e+01 2.564250764835207619e+01
8.880000000000001137e+01 2.558189411656070433e+01
8.920000000000000284e+01 2.552169009422193824e+01
8.960000000000000853e+01 2.546189092942409715e+01
9.000000000000000000e+01 2.540249204437878916e+01
9.040000000000000568e+01 2.534348893390411206e+01
9.080000000000001137e+01 2.526936006694474202e+01
9.120000000000000284e+01 2.521211575346001155e+01
9.160000000000000853e+01 2.515524643165225882e+01
9.200000000000000000e+01 2.509874795984422491e+01
9.240000000000000568e+01 2.504261626062514523e+01
9.280000000000001137e+01 2.498684731956830873e+01
9.320000000000000284e+01 2.493143718397974240e+01
9.360000000000000853e+01 2.487638196167732829e+01
9.400000000000000000e+01 2.482167781979933707e+01
9.440000000000000568e+01 2.476732098364163548e+01
9.480000000000001137e+01 2.471330773552273641e+01
9.520000000000000284e+01 2.465963441367581765e+01
9.560000000000000853e+01 2.460629741116711244e+01
9.600000000000000000e+01 2.455329317483974805e+01
9.640000000000000568e+01 2.450372558892534869e+01
9.680000000000001137e+01 2.445209592596753012e+01
9.720000000000000284e+01 2.440078286503801763e+01
9.760000000000000853e+01 2.434978313008314288e+01
9.800000000000000000e+01 2.429909349270667462e+01
9.840000000000000568e+01 2.424871077127765773e+01
9.880000000000001137e+01 2.419863183005867313e+01
9.920000000000000284e+01 2.414885357835396107e+01
9.960000000000000853e+01 2.409937296967684262e+01
1.000000000000000000e+02 2.405018700093592088e+01
1.004000000000000057e+02 2.400129271163959999e+01
1.008000000000000114e+02 2.395268718311843514e+01
1.012000000000000028e+02 2.390436753776479861e+01
1.016000000000000085e+02 2.385633093828936424e+01
1.020000000000000000e+02 2.380857458699421869e+01
1.024000000000000057e+02 2.376109572506175027e+01
1.028000000000000114e+02 2.371389163185930471e+01
1.032000000000000028e+02 2.366695962425900035e+01
1.036000000000000085e+02 2.362029705597225515e+01
1.040000000000000000e+02 2.357390131689886204e+01
1.044000000000000057e+02 2.352776983249003706e+01
1.048000000000000114e+02 2.348190006312516331e+01
1.052000000000000028e+02 2.343628950350191431e+01
1.056000000000000085e+02 2.339093568203936613e+01
1.060000000000000000e+02 2.334583616029380337e+01
1.064000000000000057e+02 2.330098853238687084e+01
1.068000000000000114e+02 2.325639042444578308e+01
1.072000000000000028e+02 2.321203949405531830e+01
1.076000000000000085e+02 2.316793342972122716e+01
1.080000000000000000e+02 2.312404703877813006e+01
1.084000000000000057e+02 2.307992281339273077e+01
1.088000000000000114e+02 2.303604081554064820e+01
1.092000000000000028e+02 2.299239880379033707e+01
1.096000000000000085e+02 2.294899456586267661e+01
1.100000000000000000e+02 2.290555037901167879e+01
1.104000000000000057e+02 2.286231920982555721e+01
1.108000000000000114e+02 2.281932124909461024e+01
1.112000000000000028e+02 2.277655437625093882e+01
1.116000000000000085e+02 2.273401649782612211e+01
1.120000000000000000e+02 2.269170554700563969e+01
1.124000000000000057e+02 2.264961948319221108e+01
1.128000000000000114e+02 2.260775629157791400e+01
1.132000000000000028e+02 2.256611398272480429e+01
1.136000000000000085e+02 2.252469059215386338e+01
1.140000000000000000e+02 2.248348417994211346e+01
1.144000000000000057e+02 2.244249283032761255e+01
1.148000000000000114e+02 2.240171465132227979e+01
1.152000000000000028e+02 2.236114777433223821e+01
1.156000000000000085e+02 2.232079035378559695e+01
1.160000000000000000e+02 2.228064056676748450e+01
1.164000000000000057e+02 2.224069661266206310e+01
1.168000000000000114e+02 2.220095671280155614e+01
1.172000000000000028e+02 2.216141911012197951e+01
1.176000000000000085e+02 2.212208206882542427e+01
1.180000000000000000e+02 2.208294387404887615e+01
1.184000000000000057e+02 2.204400283153925955e+01
1.188000000000000114e+02 2.200525726733468446e+01
1.192000000000000028e+02 2.196670552745167271e+01
1.196000000000000085e+02 2.192834597757833137e+01
1.200000000000000000e+02 2.189017700277325673e+01
1.204000000000000057e+02 2.185219700717002667e+01
1.208000000000000114e+02 2.181440441368726368e+01
1.212000000000000028e+02 2.177679766374404480e+01
1.216000000000000085e+02 2.173937521698059427e+01
1.220000000000000000e+02 2.175715172360400729e+01
1.224000000000000057e+02 2.172145770291165334e+01
1.228000000000000114e+02 2.168593433156155115e+01
1.232000000000000028e+02 2.165058022882092814e+01
1.236000000000000085e+02 2.161539402967634516e+01
1.240000000000000000e+02 2.158037438460332424e+01
1.244000000000000057e+02 2.154551995934009057e+01
1.248000000000000114e+02 2.151082943466533948e+01
1.252000000000000028e+02 2.148082111034216979e+01
1.256000000000000085e+02 2.144685637100000619e+01
1.260000000000000000e+02 2.141304957634773842e+01
1.264000000000000057e+02 2.137939948345790597e+01
1.268000000000000114e+02 2.134590486317118518e+01
1.272000000000000028e+02 2.131256449989994550e+01
1.276000000000000085e+02 2.127937719143525896e+01
1.280000000000000000e+02 2.124634174875727766e+01
1.284000000000000057e+02 2.121345699584885480e+01
1.288000000000000114e+02 2.119637253007808653e+01
1.291999999999999886e+02 2.116425489786012548e+01
1.296000000000000227e+02 2.113228147833051196e+01
1.300000000000000000e+02 2.110045117400207459e+01
1.304000000000000057e+02 2.106876289915296141e+01
1.308000000000000114e+02 2.103721557966409250e+01
1.311999999999999886e+02 2.100580815285941583e+01
1.316000000000000227e+02 2.097453956734882041e+01
1.320000000000000000e+02 2.094340878287368213e+01
1.324000000000000057e+02 2.091241477015497097e+01
1.328000000000000114e+02 2.088155651074396246e+01
1.331999999999999886e+02 2.085083299687535430e+01
1.336000000000000227e+02 2.082024323132289112e+01
1.340000000000000000e+02 2.078978622725730219e+01
1.344000000000000057e+02 2.075946100810662998e+01
1.348000000000000114e+02 2.072926660741886451e+01
1.351999999999999886e+02 2.069920206872673418e+01
1.356000000000000227e+02 2.066926644541487690e+01
1.360000000000000000e+02 2.063945880058898652e+01
1.364000000000000057e+02 2.060977820694719043e+01
1.368000000000000114e+02 2.058022374665349474e+01
1.371999999999999886e+02 2.055079451121327239e+01
1.376000000000000227e+02 2.052148960135071931e+01
1.380000000000000000e+02 2.049230812688831449e+01
1.384000000000000057e+02 2.046324920662819835e+01
1.388000000000000114e+02 2.043431196823541995e+01
1.392000000000000171e+02 2.040549554812310262e+01
1.395999999999999943e+02 2.037679909133931488e+01
1.400000000000000000e+02 2.034822175145587053e+01
1.404000000000000057e+02 2.031976269045878070e+01
1.408000000000000114e+02 2.029128602015587290e+01
1.412000000000000171e+02 2.026292134756360497e+01
1.415999999999999943e+02 2.023467307111364022e+01
1.420000000000000000e+02 2.020654038121119811e+01
1.424000000000000057e+02 2.017852247619427430e+01
1.428000000000000114e+02 2.015061856223353232e+01
1.432000000000000171e+02 2.012282785323365530e+01
1.435999999999999943e+02 2.009514957073628239e+01
1.440000000000000000e+02 2.006758294382436958e+01
1.444000000000000057e+02 2.004012720902807132e+01
1.448000000000000114e+02 2.001278161023204660e+01
1.452000000000000171e+02 1.998554539858414358e+01
1.455999999999999943e+02 1.995841783240550882e+01
1.460000000000000000e+02 1.993139817710203587e+01
1.464000000000000057e+02 1.990448570507716397e+01
1.468000000000000114e+02 1.987767969564595916e+01
1.472000000000000171e+02 1.985097943495053840e+01
1.475999999999999943e+02 1.982438421587670518e+01
1.480000000000000000e+02 1.979789333797186401e+01
1.484000000000000057e+02 1.977150610736413938e+01
1.488000000000000114e+02 1.974522183668272035e+01
1.492000000000000171e+02 1.971898579391811168e+01
1.495999999999999943e+02 1.969280313258560966e+01
1.500000000000000000e+02 1.966672187709442454e+01
