1.000000000000000000e+01 6.146863753031234978e+01
1.040000000000000036e+01 6.851458334588903654e+01
1.080000000000000071e+01 7.186736126276466052e+01
1.119999999999999929e+01 7.487944517508739750e+01
1.159999999999999964e+01 7.225586525444975905e+01
1.200000000000000000e+01 6.993537611726178227e+01
1.240000000000000036e+01 6.786019667612754347e+01
1.280000000000000071e+01 6.598751411028703728e+01
1.319999999999999929e+01 6.428469560073963862e+01
1.359999999999999964e+01 6.272628770692493561e+01
1.400000000000000000e+01 6.129205243752456056e+01
1.440000000000000036e+01 6.017355760700742451e+01
1.480000000000000071e+01 5.930972657190453390e+01
1.519999999999999929e+01 5.850419365928381410e+01
1.560000000000000142e+01 5.775027408598718637e+01
1.600000000000000000e+01 5.704233349747395465e+01
1.639999999999999858e+01 5.637558127940852160e+01
1.680000000000000071e+01 5.574591220881254117e+01
1.719999999999999929e+01 5.514978346534562093e+01
1.760000000000000142e+01 5.150447344814145367e+01
1.800000000000000000e+01 5.079987581582228984e+01
1.839999999999999858e+01 4.690047816436221240e+01
1.880000000000000071e+01 4.608371327951509500e+01
1.920000000000000284e+01 4.530799081927426641e+01
1.960000000000000142e+01 4.456996576945913091e+01
2.000000000000000000e+01 4.386666397960446773e+01
2.039999999999999858e+01 4.319543070401687146e+01
2.080000000000000071e+01 4.255388764851142014e+01
2.120000000000000284e+01 4.193989690216375976e+01
2.160000000000000142e+01 4.135153048112051977e+01
2.200000000000000000e+01 4.077960378642129058e+01
2.239999999999999858e+01 4.021104239889457688e+01
2.280000000000000071e+01 3.966335841571996923e+01
2.320000000000000284e+01 3.913529473819976801e+01
2.360000000000000142e+01 3.862569894719665342e+01
2.400000000000000000e+01 3.813351225336903383e+01
2.439999999999999858e+01 3.765775985063105225e+01
2.480000000000000071e+01 3.720126940346636957e+01
2.520000000000000284e+01 3.676492396310629118e+01
2.560000000000000142e+01 3.634168504277619860e+01
2.600000000000000000e+01 3.593090754955800747e+01
2.640000000000000213e+01 3.553199043860753648e+01
2.680000000000000071e+01 3.514437288442608320e+01
2.719999999999999929e+01 3.476753085428583745e+01
2.760000000000000142e+01 3.440097403450439373e+01
2.800000000000000000e+01 3.404424306714755488e+01
2.840000000000000213e+01 3.369690706054896623e+01
2.880000000000000071e+01 3.360381975006995958e+01
2.920000000000000284e+01 3.331346577647316565e+01
2.960000000000000142e+01 3.303009691672244230e+01
3.000000000000000000e+01 3.275343275784896946e+01
3.040000000000000213e+01 3.248320866778634297e+01
3.080000000000000071e+01 3.221917465631000255e+01
3.120000000000000284e+01 3.196109433592237536e+01
3.160000000000000142e+01 3.170874397239530396e+01
3.200000000000000000e+01 3.146191161589290175e+01
3.240000000000000568e+01 3.122039630464961846e+01
3.279999999999999716e+01 3.098400733409273755e+01
3.320000000000000284e+01 3.075256358509600219e+01
3.360000000000000142e+01 3.052589290574848846e+01
3.400000000000000000e+01 3.030383154163309101e+01
3.440000000000000568e+01 3.008622361014531066e+01
3.479999999999999716e+01 2.954587555352997086e+01
3.520000000000000284e+01 2.934665509669599004e+01
3.560000000000000142e+01 2.914769460337534923e+01
3.600000000000000000e+01 2.895272026060756687e+01
3.640000000000000568e+01 2.876159863096298253e+01
3.679999999999999716e+01 2.857420247571442928e+01
3.720000000000000284e+01 2.839041038886162838e+01
3.760000000000000142e+01 2.821010645725658605e+01
3.800000000000000000e+01 2.803317994465454177e+01
3.840000000000000568e+01 2.785952499772284341e+01
3.879999999999999716e+01 2.768904037222397818e+01
3.920000000000000284e+01 2.752162917775492801e+01
3.960000000000000142e+01 2.735719863957293541e+01
4.000000000000000000e+01 2.719565987617059477e+01
4.040000000000000568e+01 2.703692769138281093e+01
4.079999999999999716e+01 2.688092037991556893e+01
4.120000000000000284e+01 2.672755954528315669e+01
4.160000000000000142e+01 2.657676992922802839e+01
4.200000000000000000e+01 2.642847925177647994e+01
4.239999999999999858e+01 2.640426007047013712e+01
4.280000000000000426e+01 2.626098102280390378e+01
4.320000000000000284e+01 2.612003424438179522e+01
4.360000000000000142e+01 2.598135630197386092e+01
4.400000000000000000e+01 2.584488615621805963e+01
4.439999999999999858e+01 2.570794096282030949e+01
4.480000000000000426e+01 2.556842293758355922e+01
4.520000000000000284e+01 2.543110586525546779e+01
4.560000000000000142e+01 2.529593192620246001e+01
4.600000000000000000e+01 2.516284540662222824e+01
4.639999999999999858e+01 2.503179260109322257e+01
4.680000000000000426e+01 2.490272172057220601e+01
4.720000000000000284e+01 2.477558280548397107e+01
4.760000000000000142e+01 2.465032764357367512e+01
4.800000000000000000e+01 2.452690969221671935e+01
4.840000000000000568e+01 2.440528400490335059e+01
4.880000000000000426e+01 2.428540716163568902e+01
4.920000000000000284e+01 2.416723720299368949e+01
4.960000000000000142e+01 2.405073356764388492e+01
5.000000000000000000e+01 2.393629152655668690e+01
5.040000000000000568e+01 2.382351016311354286e+01
5.080000000000000426e+01 2.371220995609279214e+01
5.120000000000000284e+01 2.360235870922770118e+01
5.160000000000000142e+01 2.349392520462444622e+01
5.200000000000000000e+01 2.338687916459143423e+01
5.240000000000000568e+01 2.328119121528429858e+01
5.280000000000000426e+01 2.317683285206445021e+01
5.320000000000000284e+01 2.307377640647640504e+01
5.360000000000000142e+01 2.297199501475468963e+01
5.400000000000000000e+01 2.287146258777691088e+01
5.440000000000000568e+01 2.277215378238476262e+01
5.480000000000000426e+01 2.267404397399971572e+01
5.520000000000000284e+01 2.257710923046437301e+01
5.560000000000000142e+01 2.248132628704513891e+01
5.600000000000000000e+01 2.238667252253518569e+01
5.640000000000000568e+01 2.229312593640098328e+01
5.680000000000000426e+01 2.220066512691838057e+01
5.720000000000000284e+01 2.210926927024801358e+01
5.760000000000000142e+01 2.215268949887500938e+01
5.800000000000000000e+01 2.206891178882072424e+01
5.840000000000000568e+01 2.194585708148190406e+01
5.880000000000000426e+01 2.186681559972463873e+01
5.920000000000000284e+01 2.178861944585545274e+01
5.960000000000000142e+01 2.171125351490722721e+01
6.000000000000000000e+01 2.163470308044116308e+01
6.040000000000000568e+01 2.155895378234470883e+01
6.080000000000000426e+01 2.148399161510976541e+01
6.120000000000000284e+01 2.140980291656883949e+01
6.160000000000000142e+01 2.133637435706810948e+01
6.200000000000000000e+01 2.126369292905733488e+01
6.240000000000000568e+01 2.119174593707778342e+01
6.280000000000000426e+01 2.112052098813020251e+01
6.320000000000000284e+01 2.105000598240569332e+01
6.360000000000000142e+01 2.098018910436359619e+01
6.400000000000000000e+01 2.091105881414090106e+01
6.440000000000000568e+01 2.084260383927864879e+01
6.480000000000001137e+01 2.077481316675163470e+01
6.520000000000000284e+01 2.070767603528824097e+01
6.559999999999999432e+01 2.064118192796787810e+01
6.600000000000000000e+01 2.057532056508433271e+01
6.640000000000000568e+01 2.051008189726363184e+01
6.680000000000001137e+01 2.044495184613050043e+01
6.720000000000000284e+01 2.037944112824110832e+01
6.759999999999999432e+01 2.031455733638165029e+01
6.800000000000000000e+01 2.025029033655104627e+01
6.840000000000000568e+01 2.018663022417513275e+01
6.880000000000001137e+01 2.012356731746201177e+01
6.920000000000000284e+01 2.006109215099112220e+01
6.959999999999999432e+01 1.999919546952614979e+01
7.000000000000000000e+01 1.993786822204288711e+01
7.040000000000000568e+01 1.987710155596303707e+01
7.080000000000001137e+01 1.981618170538084200e+01
7.120000000000000284e+01 1.975541027612423761e+01
7.159999999999999432e+01 1.969518726207329706e+01
7.200000000000000000e+01 1.963550430939142188e+01
7.240000000000000568e+01 1.957635324262684051e+01
7.280000000000001137e+01 1.951772605983550335e+01
7.320000000000000284e+01 1.945961492786587144e+01
7.359999999999999432e+01 1.940201217779951293e+01
7.400000000000000000e+01 1.934491030054122973e+01
7.440000000000000568e+01 1.928830194255306196e+01
7.479999999999999716e+01 1.923217990172670255e+01
7.520000000000000284e+01 1.917653712338892902e+01
7.560000000000000853e+01 1.912136669643510345e+01
7.600000000000000000e+01 1.906666184958595167e+01
7.640000000000000568e+01 1.901241594776284671e+01
7.679999999999999716e+01 1.894780994133147800e+01
7.720000000000000284e+01 1.889729622544396648e+01
7.760000000000000853e+01 1.884718454970798973e+01
7.800000000000000000e+01 1.879746950848551279e+01
7.840000000000000568e+01 1.874814579803465975e+01
7.879999999999999716e+01 1.869920821405088063e+01
7.920000000000000284e+01 1.865065164928014241e+01
7.960000000000000853e+01 1.860247109120167863e+01
8.000000000000000000e+01 1.855466161977802386e+01
8.040000000000000568e+01 1.850721840526988515e+01
8.079999999999999716e+01 1.846013670611378998e+01
8.120000000000000284e+01 1.841341186686027953e+01
8.160000000000000853e+01 1.836703931617072172e+01
8.200000000000000000e+01 1.832101456487071900e+01
8.240000000000000568e+01 1.827533320405824924e+01
8.279999999999999716e+01 1.822999090326476335e+01
8.320000000000000284e+01 1.818498340866745977e+01
8.360000000000000853e+01 1.814030654135108023e+01
8.400000000000000000e+01 1.809595619561759605e+01
8.440000000000000568e+01 1.805192833734227165e+01
8.479999999999999716e+01 1.800821900237460937e+01
8.520000000000000284e+01 1.796482429498269084e+01
8.560000000000000853e+01 1.792174038633953614e+01
8.600000000000000000e+01 1.787896351305025533e+01
8.640000000000000568e+01 1.783555108088239649e+01
8.680000000000001137e+01 1.780193591332357528e+01
8.720000000000000284e+01 1.776008934212834234e+01
8.760000000000000853e+01 1.771853543179712887e+01
8.800000000000000000e+01 1.767727076711984679e+01
8.840000000000000568e+01 1.763629198870625459e+01
8.880000000000001137e+01 1.759559579181197719e+01
8.920000000000000284e+01 1.755517892519480228e+01
8.960000000000000853e+01 1.751503819000017970e+01
9.000000000000000000e+01 1.747517043867517117e+01
9.040000000000000568e+01 1.743557257390990500e+01
9.080000000000001137e+01 1.739624154760576147e+01
9.120000000000000284e+01 1.735717435986945389e+01
9.160000000000000853e+01 1.731836805803227008e+01
9.200000000000000000e+01 1.727981973569372798e+01
9.240000000000000568e+01 1.724152653178887107e+01
9.280000000000001137e+01 1.720348562967861028e+01
9.320000000000000284e+01 1.716569425626236978e+01
9.360000000000000853e+01 1.712814968111236880e+01
9.400000000000000000e+01 1.709084921562899950e+01
9.440000000000000568e+01 1.705379021221664715e+01
9.480000000000001137e+01 1.701697006347932017e+01
9.520000000000000284e+01 1.698038620143565325e+01
9.560000000000000853e+01 1.694403609675254074e+01
9.600000000000000000e+01 1.690791725799715195e+01
9.640000000000000568e+01 1.687202723090643985e+01
9.680000000000001137e+01 1.683636359767407242e+01
9.720000000000000284e+01 1.680092397625396217e+01
9.760000000000000853e+01 1.682212691486166278e+01
9.800000000000000000e+01 1.678748160746602025e+01
9.840000000000000568e+01 1.675305027587326379e+01
9.880000000000001137e+01 1.671883070869065335e+01
9.920000000000000284e+01 1.668482072658349580e+01
9.960000000000000853e+01 1.665101818167668313e+01
1.000000000000000000e+02 1.661742095696995847e+01
1.004000000000000057e+02 1.658402696576635549e+01
1.008000000000000114e+02 1.655083415111375444e+01
1.012000000000000028e+02 1.651784048525887272e+01
1.016000000000000085e+02 1.648504396911358327e+01
1.020000000000000000e+02 1.645244263173321286e+01
1.024000000000000057e+02 1.642003452980635103e+01
1.028000000000000114e+02 1.638731173465234292e+01
1.032000000000000028e+02 1.635473746557676122e+01
1.036000000000000085e+02 1.632235565401568422e+01
1.040000000000000000e+02 1.629016440043147895e+01
1.044000000000000057e+02 1.625816183155680505e+01
1.048000000000000114e+02 1.622634609992727661e+01
1.052000000000000028e+02 1.619471538342421724e+01
1.056000000000000085e+02 1.616326788482733434e+01
1.060000000000000000e+02 1.613200183137703903e+01
1.064000000000000057e+02 1.610091547434619486e+01
1.068000000000000114e+02 1.607000708862101490e+01
1.072000000000000028e+02 1.603927497229085830e+01
1.076000000000000085e+02 1.600871744624682336e+01
1.080000000000000000e+02 1.597833285378872148e+01
1.084000000000000057e+02 1.594811956024040356e+01
1.088000000000000114e+02 1.591826516357077281e+01
1.092000000000000028e+02 1.588896535911607799e+01
1.096000000000000085e+02 1.585982596439301417e+01
1.100000000000000000e+02 1.583084549179630862e+01
1.104000000000000057e+02 1.580202247316735864e+01
1.108000000000000114e+02 1.577335545946723983e+01
1.112000000000000028e+02 1.574484302045643247e+01
1.116000000000000085e+02 1.571648374438101747e+01
1.120000000000000000e+02 1.568827623766535773e+01
1.124000000000000057e+02 1.566021912461091858e+01
1.128000000000000114e+02 1.563231104710121144e+01
1.132000000000000028e+02 1.560455066431267213e+01
1.136000000000000085e+02 1.557693665243133196e+01
1.140000000000000000e+02 1.554946770437515724e+01
1.144000000000000057e+02 1.552214252952189355e+01
1.148000000000000114e+02 1.549495985344231563e+01
1.152000000000000028e+02 1.546791841763878850e+01
1.156000000000000085e+02 1.544101697928888228e+01
1.160000000000000000e+02 1.541425431099412791e+01
1.164000000000000057e+02 1.538762920053361860e+01
1.168000000000000114e+02 1.536114045062239875e+01
1.172000000000000028e+02 1.533478687867462043e+01
1.176000000000000085e+02 1.530856731657116754e+01
1.180000000000000000e+02 1.528248061043189132e+01
1.184000000000000057e+02 1.525652562039209315e+01
1.188000000000000114e+02 1.523070122038337892e+01
1.192000000000000028e+02 1.520500629791865244e+01
1.196000000000000085e+02 1.517943975388119604e+01
1.200000000000000000e+02 1.515400050231777129e+01
1.204000000000000057e+02 1.512868747023558846e+01
1.208000000000000114e+02 1.507427077191846898e+01
1.212000000000000028e+02 1.504933685284299472e+01
1.216000000000000085e+02 1.504062350016001304e+01
1.220000000000000000e+02 1.501644357531903040e+01
1.224000000000000057e+02 1.499238109431143329e+01
1.228000000000000114e+02 1.496843508811674539e+01
1.232000000000000028e+02 1.494460459900929550e+01
1.236000000000000085e+02 1.492088868038844751e+01
1.240000000000000000e+02 1.489728639661202969e+01
1.244000000000000057e+02 1.487379682283272153e+01
1.248000000000000114e+02 1.485041904483747466e+01
1.252000000000000028e+02 1.482715215888983629e+01
1.256000000000000085e+02 1.480399527157514683e+01
1.260000000000000000e+02 1.478094749964849797e+01
1.264000000000000057e+02 1.475800796988548313e+01
1.268000000000000114e+02 1.473517581893555928e+01
1.272000000000000028e+02 1.471245019317809088e+01
1.276000000000000085e+02 1.468983024858091113e+01
1.280000000000000000e+02 1.466731515056143564e+01
1.284000000000000057e+02 1.464490407385022053e+01
1.288000000000000114e+02 1.462259620235689006e+01
1.291999999999999886e+02 1.460039072903849977e+01
1.296000000000000227e+02 1.457828685577014838e+01
1.300000000000000000e+02 1.455628379321786525e+01
1.304000000000000057e+02 1.453438076071372009e+01
1.308000000000000114e+02 1.451257698613309799e+01
1.311999999999999886e+02 1.449087170577410255e+01
1.316000000000000227e+02 1.446926416423902140e+01
1.320000000000000000e+02 1.444775361431786287e+01
1.324000000000000057e+02 1.442633931687386273e+01
1.328000000000000114e+02 1.440463331037054395e+01
1.331999999999999886e+02 1.438298296289097244e+01
1.336000000000000227e+02 1.436143021755014892e+01
1.340000000000000000e+02 1.433997433795085819e+01
1.344000000000000057e+02 1.431861459548120052e+01
1.348000000000000114e+02 1.429735026920873864e+01
1.351999999999999886e+02 1.427618064577636048e+01
1.356000000000000227e+02 1.425510501929984564e+01
1.360000000000000000e+02 1.423412269126721341e+01
1.364000000000000057e+02 1.421323297043962341e+01
1.368000000000000114e+02 1.419243517275397082e+01
1.371999999999999886e+02 1.417172862122706611e+01
1.376000000000000227e+02 1.415111264586137096e+01
1.380000000000000000e+02 1.413058658355227593e+01
1.384000000000000057e+02 1.411014977799686143e+01
1.388000000000000114e+02 1.408980157960419177e+01
1.392000000000000171e+02 1.406954134540696977e+01
1.395999999999999943e+02 1.404936843897469956e+01
1.400000000000000000e+02 1.402928223032818522e+01
1.404000000000000057e+02 1.400920285190370507e+01
1.408000000000000114e+02 1.398918056033569357e+01
1.412000000000000171e+02 1.396924365796226297e+01
1.415999999999999943e+02 1.394939153582380875e+01
1.420000000000000000e+02 1.392962359104239312e+01
1.424000000000000057e+02 1.390993922674367766e+01
1.428000000000000114e+02 1.389033785198002136e+01
1.432000000000000171e+02 1.387081888165482368e+01
1.435999999999999943e+02 1.385138173644807580e+01
1.440000000000000000e+02 1.383202584274300584e+01
1.444000000000000057e+02 1.381275063255389490e+01
1.448000000000000114e+02 1.379355554345501744e+01
1.452000000000000171e+02 1.377444001851065991e+01
1.455999999999999943e+02 1.375540350620624608e+01
1.460000000000000000e+02 1.375433549741038419e+01
1.464000000000000057e+02 1.373559882408735788e+01
1.468000000000000114e+02 1.371693867629786467e+01
1.472000000000000171e+02 1.369835453056581187e+01
1.475999999999999943e+02 1.367984586843577333e+01
1.480000000000000000e+02 1.366141217641103012e+01
1.484000000000000057e+02 1.364305294589249229e+01
1.488000000000000114e+02 1.362476767311865444e+01
1.492000000000000171e+02 1.360655585910633647e+01
1.495999999999999943e+02 1.358841700959239240e+01
1.500000000000000000e+02 1.357035063497625060e+01
