1.000000000000000000e+01 1.578541081029958946e+02
1.040000000000000036e+01 1.645447581170317619e+02
1.080000000000000071e+01 1.731373441560640742e+02
1.119999999999999929e+01 1.776927945487136355e+02
1.159999999999999964e+01 1.712349022313809996e+02
1.200000000000000000e+01 1.655031497135714460e+02
1.240000000000000036e+01 1.603632967424089486e+02
1.280000000000000071e+01 1.557149294343575434e+02
1.319999999999999929e+01 1.514808953829968630e+02
1.359999999999999964e+01 1.476575036612169924e+02
1.400000000000000000e+01 1.444068777746367687e+02
1.440000000000000036e+01 1.413849891883955365e+02
1.480000000000000071e+01 1.385645084944565326e+02
1.519999999999999929e+01 1.359226791279448889e+02
1.560000000000000142e+01 1.334403460238892478e+02
1.600000000000000000e+01 1.311012309192873602e+02
1.639999999999999858e+01 1.288913823579181894e+02
1.680000000000000071e+01 1.267987519030251633e+02
1.719999999999999929e+01 1.248128631398586350e+02
1.760000000000000142e+01 1.138898897241135444e+02
1.800000000000000000e+01 1.121646526760217455e+02
1.839999999999999858e+01 1.105133322848432300e+02
1.880000000000000071e+01 1.047433242253480614e+02
1.920000000000000284e+01 1.033346755811007398e+02
1.960000000000000142e+01 1.019817337440632059e+02
2.000000000000000000e+01 1.006807748145048294e+02
2.039999999999999858e+01 9.942842532944290213e+01
2.080000000000000071e+01 9.822161984393390810e+01
2.120000000000000284e+01 9.705756476506888930e+01
2.160000000000000142e+01 9.593370735719626907e+01
2.200000000000000000e+01 9.484770905054379853e+01
2.239999999999999858e+01 9.379742235182878574e+01
2.280000000000000071e+01 9.278087078612915661e+01
2.320000000000000284e+01 9.179623140269526971e+01
2.360000000000000142e+01 9.084181945979094053e+01
2.400000000000000000e+01 8.990444496479621250e+01
2.439999999999999858e+01 8.882914331142588082e+01
2.480000000000000071e+01 8.777025221179081882e+01
2.520000000000000284e+01 8.674425223221109604e+01
2.560000000000000142e+01 8.574945645228018520e+01
2.600000000000000000e+01 8.478429739062542581e+01
2.640000000000000213e+01 8.384731628928497571e+01
2.680000000000000071e+01 8.293715355602537898e+01
2.719999999999999929e+01 8.205254021887037652e+01
2.760000000000000142e+01 8.119229026796548965e+01
2.800000000000000000e+01 8.035529377742419399e+01
2.840000000000000213e+01 7.954051071457607236e+01
2.880000000000000071e+01 7.874696535654065599e+01
2.920000000000000284e+01 7.797374124466661272e+01
2.960000000000000142e+01 7.721997661641829325e+01
3.000000000000000000e+01 7.648486026201854315e+01
3.040000000000000213e+01 7.576762775977778119e+01
3.080000000000000071e+01 7.506755804973077773e+01
3.120000000000000284e+01 7.438397031010627813e+01
3.160000000000000142e+01 7.371622110539369999e+01
3.200000000000000000e+01 7.417342677873025991e+01
3.240000000000000568e+01 7.359816622363456418e+01
3.279999999999999716e+01 7.303518613559921846e+01
3.320000000000000284e+01 7.248405076402221425e+01
3.360000000000000142e+01 7.194434589005859948e+01
3.400000000000000000e+01 7.141567746715679732e+01
3.440000000000000568e+01 7.089767036579705461e+01
3.479999999999999716e+01 7.038996721306158122e+01
3.520000000000000284e+01 6.989222731862852811e+01
3.560000000000000142e+01 6.940412567963797130e+01
3.600000000000000000e+01 6.892535205763178396e+01
3.640000000000000568e+01 6.845561012144132462e+01
3.679999999999999716e+01 6.926490101350631790e+01
3.720000000000000284e+01 6.886432316230487061e+01
3.760000000000000142e+01 6.847047028973184979e+01
3.800000000000000000e+01 6.808315334372886696e+01
3.840000000000000568e+01 6.770219069901584419e+01
3.879999999999999716e+01 6.732740778361595346e+01
3.920000000000000284e+01 6.695863672819966439e+01
3.960000000000000142e+01 6.659399321751025980e+01
4.000000000000000000e+01 6.622594542042584465e+01
4.040000000000000568e+01 6.586365361099764471e+01
4.079999999999999716e+01 6.550696662389974279e+01
4.120000000000000284e+01 6.515573884942216409e+01
4.160000000000000142e+01 6.480982997174679383e+01
4.200000000000000000e+01 6.446910472222556621e+01
4.239999999999999858e+01 6.413343264664953836e+01
4.280000000000000426e+01 6.380268788557678761e+01
4.320000000000000284e+01 6.347674896685764168e+01
4.360000000000000142e+01 6.315549860956124917e+01
4.400000000000000000e+01 6.283882353856658654e+01
4.439999999999999858e+01 6.252661430913644125e+01
4.480000000000000426e+01 6.221876514084185317e+01
4.520000000000000284e+01 6.191517376025155528e+01
4.560000000000000142e+01 6.161574125184183970e+01
4.600000000000000000e+01 6.132037191662233511e+01
4.639999999999999858e+01 6.102897313800747270e+01
4.680000000000000426e+01 6.074145525449743843e+01
4.720000000000000284e+01 6.045773143876159850e+01
4.760000000000000142e+01 6.017771758274586347e+01
4.800000000000000000e+01 5.990133218845104324e+01
4.840000000000000568e+01 5.962849626405295567e+01
4.880000000000000426e+01 5.935913322505663814e+01
4.920000000000000284e+01 5.909219924955522174e+01
4.960000000000000142e+01 5.894960279014347293e+01
5.000000000000000000e+01 5.869104363189337903e+01
5.040000000000000568e+01 5.843573671373578549e+01
5.080000000000000426e+01 5.818361351859572039e+01
5.120000000000000284e+01 5.793460755040756283e+01
5.160000000000000142e+01 5.768865425758998811e+01
5.200000000000000000e+01 5.744569096005399444e+01
5.240000000000000568e+01 5.720565677955131179e+01
5.280000000000000426e+01 5.696849257318365289e+01
5.320000000000000284e+01 5.673414086990327831e+01
5.360000000000000142e+01 5.650254580984671549e+01
5.400000000000000000e+01 5.627365308635251751e+01
5.440000000000000568e+01 5.604740989052308464e+01
5.480000000000000426e+01 5.582376485819922607e+01
5.520000000000000284e+01 5.560266801922349345e+01
5.560000000000000142e+01 5.538407074887607706e+01
5.600000000000000000e+01 5.516792572137356387e+01
5.640000000000000568e+01 5.495418686532730845e+01
5.680000000000000426e+01 5.474280932106412223e+01
5.720000000000000284e+01 5.453374939971749313e+01
5.760000000000000142e+01 5.432696454400283415e+01
5.800000000000000000e+01 5.412241329059511230e+01
5.840000000000000568e+01 5.392005523403153688e+01
5.880000000000000426e+01 5.371985099206668934e+01
5.920000000000000284e+01 5.352105899229631092e+01
5.960000000000000142e+01 5.332169371261798574e+01
6.000000000000000000e+01 5.312440258318934383e+01
6.040000000000000568e+01 5.292914949740344355e+01
6.080000000000000426e+01 5.273589922744076119e+01
6.120000000000000284e+01 5.254461739684727206e+01
6.160000000000000142e+01 5.235527045415472713e+01
6.200000000000000000e+01 5.216782564749654227e+01
6.240000000000000568e+01 5.198225100017484124e+01
6.280000000000000426e+01 5.179851528713717812e+01
6.320000000000000284e+01 5.161658801232235305e+01
6.360000000000000142e+01 5.143643938683828765e+01
6.400000000000000000e+01 5.125804030793535304e+01
6.440000000000000568e+01 5.108136233874132870e+01
6.480000000000001137e+01 5.090637768872550595e+01
6.520000000000000284e+01 5.073305919486085713e+01
6.559999999999999432e+01 5.056138030345517365e+01
6.600000000000000000e+01 5.039131505262290034e+01
6.640000000000000568e+01 5.022283805537133361e+01
6.680000000000001137e+01 5.005592448327567467e+01
6.720000000000000284e+01 4.989055005071869431e+01
6.759999999999999432e+01 5.007070692580640525e+01
6.800000000000000000e+01 4.991281509641432024e+01
6.840000000000000568e+01 4.975634046698093016e+01
6.880000000000001137e+01 4.960126160730052192e+01
6.920000000000000284e+01 4.944755754234709144e+01
6.959999999999999432e+01 4.929520773983171722e+01
7.000000000000000000e+01 4.914419209817538103e+01
7.040000000000000568e+01 4.899449093488115636e+01
7.080000000000001137e+01 4.884608497528978432e+01
7.120000000000000284e+01 4.874022318210806048e+01
7.159999999999999432e+01 4.859886825893971007e+01
7.200000000000000000e+01 4.845870891578825734e+01
7.240000000000000568e+01 4.831972808518574425e+01
7.280000000000001137e+01 4.818190904241959061e+01
7.320000000000000284e+01 4.804523539666100618e+01
7.359999999999999432e+01 4.790969108237406004e+01
7.400000000000000000e+01 4.777526035099536728e+01
7.440000000000000568e+01 4.764192776287436004e+01
7.479999999999999716e+01 4.750967817946388294e+01
7.520000000000000284e+01 4.737849675575280628e+01
7.560000000000000853e+01 4.724836893293098683e+01
7.600000000000000000e+01 4.711928043127872456e+01
7.640000000000000568e+01 4.699121724327226701e+01
7.679999999999999716e+01 4.686416562689763765e+01
7.720000000000000284e+01 4.673811209916557630e+01
7.760000000000000853e+01 4.661304342982013793e+01
7.800000000000000000e+01 4.648894663523424242e+01
7.840000000000000568e+01 4.636580897248580158e+01
7.879999999999999716e+01 4.624361793360763073e+01
7.920000000000000284e+01 4.612236124000565951e+01
7.960000000000000853e+01 4.600202683703926709e+01
8.000000000000000000e+01 4.588260288875832771e+01
8.040000000000000568e+01 4.576407777279149514e+01
8.079999999999999716e+01 4.564644007538071691e+01
8.120000000000000284e+01 4.552967858655698308e+01
8.160000000000000853e+01 4.541378229545245659e+01
8.200000000000000000e+01 4.529874038574475037e+01
8.240000000000000568e+01 4.518454223122841995e+01
8.279999999999999716e+01 4.507007860199247062e+01
8.320000000000000284e+01 4.495611141946523048e+01
8.360000000000000853e+01 4.484297163478260018e+01
8.400000000000000000e+01 4.473064912778095703e+01
8.440000000000000568e+01 4.461913395221191081e+01
8.479999999999999716e+01 4.450841633189403979e+01
8.520000000000000284e+01 4.439848665696884211e+01
8.560000000000000853e+01 4.428933548025727873e+01
8.600000000000000000e+01 4.418088531944869857e+01
8.640000000000000568e+01 4.407317269899456846e+01
8.680000000000001137e+01 4.396620655211685857e+01
8.720000000000000284e+01 4.385997819030140477e+01
8.760000000000000853e+01 4.375447906676484422e+01
8.800000000000000000e+01 4.364970077348406363e+01
8.840000000000000568e+01 4.354563503830187443e+01
8.880000000000001137e+01 4.344227372210611549e+01
8.920000000000000284e+01 4.333960881608047089e+01
8.960000000000000853e+01 4.323763243902447329e+01
9.000000000000000000e+01 4.313633683474076719e+01
9.040000000000000568e+01 4.303571436948784878e+01
9.080000000000001137e+01 4.293575752949585222e+01
9.120000000000000284e+01 4.283645891854416021e+01
9.160000000000000853e+01 4.273781125559850125e+01
9.200000000000000000e+01 4.263980737250605557e+01
9.240000000000000568e+01 4.254244021174694979e+01
9.280000000000001137e+01 4.244570282424027141e+01
9.320000000000000284e+01 4.234958836720330311e+01
9.360000000000000853e+01 4.225409010206227123e+01
9.400000000000000000e+01 4.215920139241328712e+01
9.440000000000000568e+01 4.206491570203182562e+01
9.480000000000001137e+01 4.197122659292980984e+01
9.520000000000000284e+01 4.187812772345835555e+01
9.560000000000000853e+01 4.178561284645550700e+01
9.600000000000000000e+01 4.169367580743736568e+01
9.640000000000000568e+01 4.161163269676052323e+01
9.680000000000001137e+01 4.152299170368604564e+01
9.720000000000000284e+01 4.143489317229690272e+01
9.760000000000000853e+01 4.134733151777091109e+01
9.800000000000000000e+01 4.126030123593676535e+01
9.840000000000000568e+01 4.117379690177649820e+01
9.880000000000001137e+01 4.108781316796216743e+01
9.920000000000000284e+01 4.100234476342538414e+01
9.960000000000000853e+01 4.091738649195910682e+01
1.000000000000000000e+02 4.083293323085062099e+01
1.004000000000000057e+02 4.074897992954519310e+01
1.008000000000000114e+02 4.066552160833924745e+01
1.012000000000000028e+02 4.058255335710249057e+01
1.016000000000000085e+02 4.050007033402816603e+01
1.020000000000000000e+02 4.041806776441082150e+01
1.024000000000000057e+02 4.033654093945062158e+01
1.028000000000000114e+02 4.025548521508378030e+01
1.032000000000000028e+02 4.017489601083835993e+01
1.036000000000000085e+02 4.009476880871467586e+01
1.040000000000000000e+02 4.001509915208987422e+01
1.044000000000000057e+02 3.993588264464587212e+01
1.048000000000000114e+02 3.985711494932024834e+01
1.052000000000000028e+02 3.977879178727938125e+01
1.056000000000000085e+02 3.970090893691332923e+01
1.060000000000000000e+02 3.962346223285189240e+01
1.064000000000000057e+02 3.954644756500135827e+01
1.068000000000000114e+02 3.946986087760129891e+01
1.072000000000000028e+02 3.939369816830124904e+01
1.076000000000000085e+02 3.931795548725627754e+01
1.080000000000000000e+02 3.924262893624144510e+01
1.084000000000000057e+02 3.915181481292273702e+01
1.088000000000000114e+02 3.907803893202927981e+01
1.092000000000000028e+02 3.900466538475451017e+01
1.096000000000000085e+02 3.893169046428402424e+01
1.100000000000000000e+02 3.885828389443967978e+01
1.104000000000000057e+02 3.878520742971480217e+01
1.108000000000000114e+02 3.871252446049703622e+01
1.112000000000000028e+02 3.864023140699418946e+01
1.116000000000000085e+02 3.856832473520164228e+01
1.120000000000000000e+02 3.849680095614818498e+01
1.124000000000000057e+02 3.842565662515690406e+01
1.128000000000000114e+02 3.835488834112096868e+01
1.132000000000000028e+02 3.828449274579395478e+01
1.136000000000000085e+02 3.821446652309416692e+01
1.140000000000000000e+02 3.814480639842295062e+01
1.144000000000000057e+02 3.807550913799627779e+01
1.148000000000000114e+02 3.800657154818966887e+01
1.152000000000000028e+02 3.793799047489586940e+01
1.156000000000000085e+02 3.786976280289516694e+01
1.160000000000000000e+02 3.780188545523788690e+01
1.164000000000000057e+02 3.773435539263896032e+01
1.168000000000000114e+02 3.766716961288419441e+01
1.172000000000000028e+02 3.760032515024790456e+01
1.176000000000000085e+02 3.753381907492185121e+01
1.180000000000000000e+02 3.746764849245502660e+01
1.184000000000000057e+02 3.740181054320412812e+01
1.188000000000000114e+02 3.733630240179458326e+01
1.192000000000000028e+02 3.727112127659156471e+01
1.196000000000000085e+02 3.720626440918118050e+01
1.200000000000000000e+02 3.714172907386145539e+01
1.204000000000000057e+02 3.707751257714255644e+01
1.208000000000000114e+02 3.701361225725671034e+01
1.212000000000000028e+02 3.695002548367702389e+01
1.216000000000000085e+02 3.688674965664527861e+01
1.220000000000000000e+02 3.682378220670847213e+01
1.224000000000000057e+02 3.676112059426385059e+01
1.228000000000000114e+02 3.669876230911241066e+01
1.232000000000000028e+02 3.663670487002038811e+01
1.236000000000000085e+02 3.657494582428889629e+01
1.240000000000000000e+02 3.651348274733130950e+01
1.244000000000000057e+02 3.645231324225831315e+01
1.248000000000000114e+02 3.639143493947047148e+01
1.252000000000000028e+02 3.634440430874441574e+01
1.256000000000000085e+02 3.628530705712988436e+01
1.260000000000000000e+02 3.622648779983356349e+01
1.264000000000000057e+02 3.616794432731422404e+01
1.268000000000000114e+02 3.610967445473341542e+01
1.272000000000000028e+02 3.605167602159956886e+01
1.276000000000000085e+02 3.599394689141841042e+01
1.280000000000000000e+02 3.593648495134947751e+01
1.284000000000000057e+02 3.587928811186874611e+01
1.288000000000000114e+02 3.582235430643702045e+01
1.291999999999999886e+02 3.576568149117419182e+01
1.296000000000000227e+02 3.570926764453909641e+01
1.300000000000000000e+02 3.565311076701493676e+01
1.304000000000000057e+02 3.559720888080006773e+01
1.308000000000000114e+02 3.554156002950414717e+01
1.311999999999999886e+02 3.548601819107359745e+01
1.316000000000000227e+02 3.543048744846150555e+01
1.320000000000000000e+02 3.537520593146084735e+01
1.324000000000000057e+02 3.532017175259036179e+01
1.328000000000000114e+02 3.526538304446143712e+01
1.331999999999999886e+02 3.521083795950256956e+01
1.336000000000000227e+02 3.515653466968851149e+01
1.340000000000000000e+02 3.510247136627402398e+01
1.344000000000000057e+02 3.504864625953186419e+01
1.348000000000000114e+02 3.499505757849537702e+01
1.351999999999999886e+02 3.494170357070513688e+01
1.356000000000000227e+02 3.488858250195994515e+01
1.360000000000000000e+02 3.483569265607175680e+01
1.364000000000000057e+02 3.478303233462475674e+01
1.368000000000000114e+02 3.473059985673839378e+01
1.371999999999999886e+02 3.467839355883410235e+01
1.376000000000000227e+02 3.462641179440605299e+01
1.380000000000000000e+02 3.457465293379547688e+01
1.384000000000000057e+02 3.452311536396858571e+01
1.388000000000000114e+02 3.447179748829829293e+01
1.392000000000000171e+02 3.442069772634920355e+01
1.395999999999999943e+02 3.436981451366617790e+01
1.400000000000000000e+02 3.431914630156623502e+01
1.404000000000000057e+02 3.426869155693378843e+01
1.408000000000000114e+02 3.421804358656539335e+01
1.412000000000000171e+02 3.416759217345012445e+01
1.415999999999999943e+02 3.411735146550749675e+01
1.420000000000000000e+02 3.406731997737878004e+01
1.424000000000000057e+02 3.401749623841931935e+01
1.428000000000000114e+02 3.396787879251093756e+01
1.432000000000000171e+02 3.391846619787715156e+01
1.435999999999999943e+02 3.386925702690140128e+01
1.440000000000000000e+02 3.382024986594792182e+01
1.444000000000000057e+02 3.377144331518546494e+01
1.448000000000000114e+02 3.372283598841387686e+01
1.452000000000000171e+02 3.367442651289305644e+01
1.455999999999999943e+02 3.362621352917479811e+01
1.460000000000000000e+02 3.357819569093702228e+01
1.464000000000000057e+02 3.353037166482069154e+01
1.468000000000000114e+02 3.348274013026904328e+01
1.472000000000000171e+02 3.343529977936937314e+01
1.475999999999999943e+02 3.338804931669719167e+01
1.480000000000000000e+02 3.334098745916266182e+01
1.484000000000000057e+02 3.329411293585943810e+01
1.488000000000000114e+02 3.324742448791572258e+01
1.492000000000000171e+02 3.320092086834755207e+01
1.495999999999999943e+02 3.315460084191423817e+01
1.500000000000000000e+02 3.310846318497604557e+01
