1.000000000000000000e+01 1.154285494087842210e+02
1.040000000000000036e+01 1.312435405706918345e+02
1.080000000000000071e+01 1.487267863478633672e+02
1.119999999999999929e+01 1.477818039830507075e+02
1.159999999999999964e+01 1.417823406879859078e+02
1.200000000000000000e+01 1.364987914179720576e+02
1.240000000000000036e+01 1.317932080958332222e+02
1.280000000000000071e+01 1.275632503484515041e+02
1.319999999999999929e+01 1.237309486408476289e+02
1.359999999999999964e+01 1.202545453767212109e+02
1.400000000000000000e+01 1.171560563467937186e+02
1.440000000000000036e+01 1.142950896399579932e+02
1.480000000000000071e+01 1.116415968610513687e+02
1.519999999999999929e+01 1.091707341887531015e+02
1.560000000000000142e+01 1.072088548280543421e+02
1.600000000000000000e+01 1.053810856784272119e+02
1.639999999999999858e+01 1.037749391047451013e+02
1.680000000000000071e+01 1.023651166362909493e+02
1.719999999999999929e+01 1.010297667812107676e+02
1.760000000000000142e+01 9.524482652929114579e+01
1.800000000000000000e+01 9.407585062765338080e+01
1.839999999999999858e+01 9.295931819826293463e+01
1.880000000000000071e+01 9.049539327207065753e+01
1.920000000000000284e+01 8.950872180276714118e+01
1.960000000000000142e+01 8.856227628177785505e+01
2.000000000000000000e+01 8.385941254713581827e+01
2.039999999999999858e+01 8.288292416156548370e+01
2.080000000000000071e+01 8.194416295869345390e+01
2.120000000000000284e+01 8.104065971132199309e+01
2.160000000000000142e+01 8.017017023544521237e+01
2.200000000000000000e+01 7.933064932589789464e+01
2.239999999999999858e+01 7.852022832864730617e+01
2.280000000000000071e+01 7.773719575962857675e+01
2.320000000000000284e+01 7.697998048862989151e+01
2.360000000000000142e+01 7.624713709308890941e+01
2.400000000000000000e+01 7.553345638744190182e+01
2.439999999999999858e+01 7.477312380339022013e+01
2.480000000000000071e+01 7.400342231700790308e+01
2.520000000000000284e+01 7.323544400036588797e+01
2.560000000000000142e+01 7.249091454102770626e+01
2.600000000000000000e+01 7.176864106879108363e+01
2.640000000000000213e+01 7.106751478281600498e+01
2.680000000000000071e+01 7.038650343435816126e+01
2.719999999999999929e+01 6.972464461927850721e+01
2.760000000000000142e+01 6.908103977877513557e+01
2.800000000000000000e+01 6.845484882125431625e+01
2.840000000000000213e+01 6.784528529042916034e+01
2.880000000000000071e+01 6.311261767563989622e+01
2.920000000000000284e+01 6.250263894006559440e+01
2.960000000000000142e+01 6.190814276051789733e+01
3.000000000000000000e+01 6.132848032433923890e+01
3.040000000000000213e+01 6.076304052379119724e+01
3.080000000000000071e+01 6.021124716787031872e+01
3.120000000000000284e+01 5.967255644331730480e+01
3.160000000000000142e+01 5.914645459880785694e+01
3.200000000000000000e+01 5.964791954251487738e+01
3.240000000000000568e+01 5.919468646239553777e+01
3.279999999999999716e+01 5.875127378889438035e+01
3.320000000000000284e+01 5.831732631757731866e+01
3.360000000000000142e+01 5.789250676667558793e+01
3.400000000000000000e+01 5.747649462149296795e+01
3.440000000000000568e+01 5.706898506918845726e+01
3.479999999999999716e+01 5.666968801565277403e+01
3.520000000000000284e+01 5.627832717706442622e+01
3.560000000000000142e+01 5.589463923947719337e+01
3.600000000000000000e+01 5.551837308046693664e+01
3.640000000000000568e+01 5.514928904746571448e+01
3.679999999999999716e+01 5.542230046944921185e+01
3.720000000000000284e+01 5.509287331144960120e+01
3.760000000000000142e+01 5.476922494462799307e+01
3.800000000000000000e+01 5.445118489553788521e+01
3.840000000000000568e+01 5.413858974462997509e+01
3.879999999999999716e+01 5.383128275159999276e+01
3.920000000000000284e+01 5.352885993981536217e+01
3.960000000000000142e+01 5.323039583131276942e+01
4.000000000000000000e+01 5.293377993008989790e+01
4.040000000000000568e+01 5.264198076522277603e+01
4.079999999999999716e+01 5.235486643914885008e+01
4.120000000000000284e+01 5.206192963698258325e+01
4.160000000000000142e+01 5.177252785549893588e+01
4.200000000000000000e+01 5.148768547151041730e+01
4.239999999999999858e+01 5.120728184314293685e+01
4.280000000000000426e+01 5.093120079847992798e+01
4.320000000000000284e+01 5.065933042336735070e+01
4.360000000000000142e+01 5.039156286146386066e+01
4.400000000000000000e+01 5.012779412570613857e+01
4.439999999999999858e+01 4.986792392042467270e+01
4.480000000000000426e+01 4.961185547340281232e+01
4.520000000000000284e+01 4.935949537722707703e+01
4.560000000000000142e+01 4.911075343932420623e+01
4.600000000000000000e+01 4.886554254012690279e+01
4.639999999999999858e+01 4.862377849885037762e+01
4.680000000000000426e+01 4.838537994639983708e+01
4.720000000000000284e+01 4.815026820496417770e+01
4.760000000000000142e+01 4.790432772029255659e+01
4.800000000000000000e+01 4.767735856017552720e+01
4.840000000000000568e+01 4.745343187974914656e+01
4.880000000000000426e+01 4.723247928105973159e+01
4.920000000000000284e+01 4.701394974554586526e+01
4.960000000000000142e+01 4.683696029557115992e+01
5.000000000000000000e+01 4.662304892122524791e+01
5.040000000000000568e+01 4.641191523957877507e+01
5.080000000000000426e+01 4.620349892461332786e+01
5.120000000000000284e+01 4.599774148450317313e+01
5.160000000000000142e+01 4.579458619007242248e+01
5.200000000000000000e+01 4.559397800665068701e+01
5.240000000000000568e+01 4.539586352913715928e+01
5.280000000000000426e+01 4.520019092009566464e+01
5.320000000000000284e+01 4.500690985071383921e+01
5.360000000000000142e+01 4.481597144447082570e+01
5.400000000000000000e+01 4.462732822336716509e+01
5.440000000000000568e+01 4.444093405657967111e+01
5.480000000000000426e+01 4.425674411141269360e+01
5.520000000000000284e+01 4.407471480642476536e+01
5.560000000000000142e+01 4.389436373407254166e+01
5.600000000000000000e+01 4.371538467754908197e+01
5.640000000000000568e+01 4.353845462675657529e+01
5.680000000000000426e+01 4.336353442624898946e+01
5.720000000000000284e+01 4.319058596767975189e+01
5.760000000000000142e+01 4.301957215387227507e+01
5.800000000000000000e+01 4.285045686439252677e+01
5.840000000000000568e+01 4.268320492254985510e+01
5.880000000000000426e+01 4.251778206375632152e+01
5.920000000000000284e+01 4.256454246765262184e+01
5.960000000000000142e+01 4.241088955429955831e+01
6.000000000000000000e+01 4.225883628590823093e+01
6.040000000000000568e+01 4.210835472829189996e+01
6.080000000000000426e+01 4.195941763096795540e+01
6.120000000000000284e+01 4.181199840566580406e+01
6.160000000000000142e+01 4.166607110565881555e+01
6.200000000000000000e+01 4.152161040588278951e+01
6.240000000000000568e+01 4.137859158380582159e+01
6.280000000000000426e+01 4.123699050101613750e+01
6.320000000000000284e+01 4.109678358549601995e+01
6.360000000000000142e+01 4.095794781455184363e+01
6.400000000000000000e+01 4.082046069837144842e+01
6.440000000000000568e+01 4.068430026418188561e+01
6.480000000000001137e+01 4.054944504098143909e+01
6.520000000000000284e+01 4.040336214622178090e+01
6.559999999999999432e+01 4.027378184767768943e+01
6.600000000000000000e+01 4.014540998690409168e+01
6.640000000000000568e+01 4.001822759594667644e+01
6.680000000000001137e+01 3.989221612434315745e+01
6.720000000000000284e+01 3.976735742732849843e+01
6.759999999999999432e+01 3.981564171751328729e+01
6.800000000000000000e+01 3.969527324425695980e+01
6.840000000000000568e+01 3.957597933853918448e+01
6.880000000000001137e+01 3.945774378395020676e+01
6.920000000000000284e+01 3.934055070831139034e+01
6.959999999999999432e+01 3.922438457427272596e+01
7.000000000000000000e+01 3.910923017022370374e+01
7.040000000000000568e+01 3.899507260150554089e+01
7.080000000000001137e+01 3.888189728191284189e+01
7.120000000000000284e+01 3.878344587227500995e+01
7.159999999999999432e+01 3.867369811052030570e+01
7.200000000000000000e+01 3.856487589587593590e+01
7.240000000000000568e+01 3.845696602341325132e+01
7.280000000000001137e+01 3.834995555342602103e+01
7.320000000000000284e+01 3.824383180457040510e+01
7.359999999999999432e+01 3.813858234722157903e+01
7.400000000000000000e+01 3.803419499703912976e+01
7.440000000000000568e+01 3.793065780873354242e+01
7.479999999999999716e+01 3.782772097906649833e+01
7.520000000000000284e+01 3.772452854574334680e+01
7.560000000000000853e+01 3.762216866571188945e+01
7.600000000000000000e+01 3.752063000384565328e+01
7.640000000000000568e+01 3.741990144220874726e+01
7.679999999999999716e+01 3.731997207469298417e+01
7.720000000000000284e+01 3.722083120181707017e+01
7.760000000000000853e+01 3.712198734672723788e+01
7.800000000000000000e+01 3.702214321215505066e+01
7.840000000000000568e+01 3.692308379171535648e+01
7.879999999999999716e+01 3.682479869935414030e+01
7.920000000000000284e+01 3.672727774231795195e+01
7.960000000000000853e+01 3.663051091652016567e+01
8.000000000000000000e+01 3.653448840204308823e+01
8.040000000000000568e+01 3.643920055877102726e+01
8.079999999999999716e+01 3.634463792215008482e+01
8.120000000000000284e+01 3.625079119907015723e+01
8.160000000000000853e+01 3.615765126386492057e+01
8.200000000000000000e+01 3.606520915442611397e+01
8.240000000000000568e+01 3.597345606842785060e+01
8.279999999999999716e+01 3.588201709648512860e+01
8.320000000000000284e+01 3.579114113833128386e+01
8.360000000000000853e+01 3.570093352683119292e+01
8.400000000000000000e+01 3.561138599226158163e+01
8.440000000000000568e+01 3.552249040872271024e+01
8.479999999999999716e+01 3.543423879091736239e+01
8.520000000000000284e+01 3.534662329101828249e+01
8.560000000000000853e+01 3.527803004965055322e+01
8.600000000000000000e+01 3.519308940720015499e+01
8.640000000000000568e+01 3.510873506343081374e+01
8.680000000000001137e+01 3.502496890040733746e+01
8.720000000000000284e+01 3.494178403253639686e+01
8.760000000000000853e+01 3.485917368736857469e+01
8.800000000000000000e+01 3.477713120320619566e+01
8.840000000000000568e+01 3.469565002677305898e+01
8.880000000000001137e+01 3.461472371094399136e+01
8.920000000000000284e+01 3.453434591253259356e+01
8.960000000000000853e+01 3.445451039013516237e+01
9.000000000000000000e+01 3.437521100202940971e+01
9.040000000000000568e+01 3.429644170412615267e+01
9.080000000000001137e+01 3.421819654797229759e+01
9.120000000000000284e+01 3.414046967880393879e+01
9.160000000000000853e+01 3.406325533364773150e+01
9.200000000000000000e+01 3.398654783946931701e+01
9.240000000000000568e+01 3.391034161136737168e+01
9.280000000000001137e+01 3.383463115081206496e+01
9.320000000000000284e+01 3.375941104392633463e+01
9.360000000000000853e+01 3.368467595980914098e+01
9.400000000000000000e+01 3.361042064889922187e+01
9.440000000000000568e+01 3.353663994137821192e+01
9.480000000000001137e+01 3.346332874561221615e+01
9.520000000000000284e+01 3.339048204663046704e+01
9.560000000000000853e+01 3.331809490464018353e+01
9.600000000000000000e+01 3.324616245357663047e+01
9.640000000000000568e+01 3.317778728433012247e+01
9.680000000000001137e+01 3.310711300846060823e+01
9.720000000000000284e+01 3.303682833764936788e+01
9.760000000000000853e+01 3.296697683147635161e+01
9.800000000000000000e+01 3.289755399467946262e+01
9.840000000000000568e+01 3.282855539756970131e+01
9.880000000000001137e+01 3.275997667480017128e+01
9.920000000000000284e+01 3.269181352416332231e+01
9.960000000000000853e+01 3.262406170541559192e+01
1.000000000000000000e+02 3.255671703912884851e+01
1.004000000000000057e+02 3.248977540556781207e+01
1.008000000000000114e+02 3.242323274359274876e+01
1.012000000000000028e+02 3.235708504958691378e+01
1.016000000000000085e+02 3.229132837640781162e+01
1.020000000000000000e+02 3.231543728272621507e+01
1.024000000000000057e+02 3.225183617750253262e+01
1.028000000000000114e+02 3.218860292359256192e+01
1.032000000000000028e+02 3.212573392803884786e+01
1.036000000000000085e+02 3.206322564728779412e+01
1.040000000000000000e+02 3.200107458631448765e+01
1.044000000000000057e+02 3.193927729776640234e+01
1.048000000000000114e+02 3.187783038112561940e+01
1.052000000000000028e+02 3.181673048188904218e+01
1.056000000000000085e+02 3.175597429076616862e+01
1.060000000000000000e+02 3.169555854289391306e+01
1.064000000000000057e+02 3.163548001706820401e+01
1.068000000000000114e+02 3.157573553499164731e+01
1.072000000000000028e+02 3.151632196053729018e+01
1.076000000000000085e+02 3.145723619902759438e+01
1.080000000000000000e+02 3.139847519652864349e+01
1.084000000000000057e+02 3.133208601172813701e+01
1.088000000000000114e+02 3.128221079202614519e+01
1.092000000000000028e+02 3.122523640046257043e+01
1.096000000000000085e+02 3.116856999368827275e+01
1.100000000000000000e+02 3.111193320913725557e+01
1.104000000000000057e+02 3.105557838191384334e+01
1.108000000000000114e+02 3.099952507951921277e+01
1.112000000000000028e+02 3.094377056615271471e+01
1.116000000000000085e+02 3.088831214103397826e+01
1.120000000000000000e+02 3.083314713782466754e+01
1.124000000000000057e+02 3.077827292406182735e+01
1.128000000000000114e+02 3.072368690060267227e+01
1.132000000000000028e+02 3.066938650108052400e+01
1.136000000000000085e+02 3.061536919137158819e+01
1.140000000000000000e+02 3.056163246907240705e+01
1.144000000000000057e+02 3.050817386298758294e+01
1.148000000000000114e+02 3.045499093262770174e+01
1.152000000000000028e+02 3.040208126771712216e+01
1.156000000000000085e+02 3.034944248771139286e+01
1.160000000000000000e+02 3.029707224132414467e+01
1.164000000000000057e+02 3.024496820606315595e+01
1.168000000000000114e+02 3.019312808777544532e+01
1.172000000000000028e+02 3.014154962020116102e+01
1.176000000000000085e+02 3.009023056453602862e+01
1.180000000000000000e+02 3.003916870900225433e+01
1.184000000000000057e+02 2.998836186842757101e+01
1.188000000000000114e+02 2.993780788383241998e+01
1.192000000000000028e+02 2.988750462202475333e+01
1.196000000000000085e+02 2.983744997520280151e+01
1.200000000000000000e+02 2.978764186056508123e+01
1.204000000000000057e+02 2.973807821992783573e+01
1.208000000000000114e+02 2.968875701934969058e+01
1.212000000000000028e+02 2.963963232856004026e+01
1.216000000000000085e+02 2.959070442640634724e+01
1.220000000000000000e+02 2.954201445704626394e+01
1.224000000000000057e+02 2.949356046806201803e+01
1.228000000000000114e+02 2.944534052957941839e+01
1.232000000000000028e+02 2.939735273393226933e+01
1.236000000000000085e+02 2.934959519533295236e+01
1.240000000000000000e+02 2.930206604954900484e+01
1.244000000000000057e+02 2.925476345358546126e+01
1.248000000000000114e+02 2.920768558537305992e+01
1.252000000000000028e+02 2.916535024762412576e+01
1.256000000000000085e+02 2.911911833362811564e+01
1.260000000000000000e+02 2.907304519430218193e+01
1.264000000000000057e+02 2.902708123768400839e+01
1.268000000000000114e+02 2.898133180898111050e+01
1.272000000000000028e+02 2.893579522069983767e+01
1.276000000000000085e+02 2.889046980401543507e+01
1.280000000000000000e+02 2.884535390850593473e+01
1.284000000000000057e+02 2.880044590189062959e+01
1.288000000000000114e+02 2.875574416977311998e+01
1.291999999999999886e+02 2.871124711538883645e+01
1.296000000000000227e+02 2.866695315935685429e+01
1.300000000000000000e+02 2.862286073943610276e+01
1.304000000000000057e+02 2.857896831028557827e+01
1.308000000000000114e+02 2.853527434322885270e+01
1.311999999999999886e+02 2.849170528263452695e+01
1.316000000000000227e+02 2.844821263117033538e+01
1.320000000000000000e+02 2.840491492064031220e+01
1.324000000000000057e+02 2.836181067984956528e+01
1.328000000000000114e+02 2.831889845321083499e+01
1.331999999999999886e+02 2.827617680053124616e+01
1.336000000000000227e+02 2.823364429680250609e+01
1.340000000000000000e+02 2.819129953199475835e+01
1.344000000000000057e+02 2.814914111085366244e+01
1.348000000000000114e+02 2.810622086141211540e+01
1.351999999999999886e+02 2.806455843824916485e+01
1.356000000000000227e+02 2.802307790648689334e+01
1.360000000000000000e+02 2.798177792949221043e+01
1.364000000000000057e+02 2.794065718443648549e+01
1.368000000000000114e+02 2.789971436211186173e+01
1.371999999999999886e+02 2.785894816675055097e+01
1.376000000000000227e+02 2.781835731584710913e+01
1.380000000000000000e+02 2.777794053998354684e+01
1.384000000000000057e+02 2.773769658265724303e+01
1.388000000000000114e+02 2.769762420011171145e+01
1.392000000000000171e+02 2.765772216116999260e+01
1.395999999999999943e+02 2.761798924707074931e+01
1.400000000000000000e+02 2.757842425130697350e+01
1.404000000000000057e+02 2.753902597946727582e+01
1.408000000000000114e+02 2.749965819059504923e+01
1.412000000000000171e+02 2.746045014252767302e+01
1.415999999999999943e+02 2.742140588805620638e+01
1.420000000000000000e+02 2.738252427543757150e+01
1.424000000000000057e+02 2.734380416430846239e+01
1.428000000000000114e+02 2.730524442554052555e+01
1.432000000000000171e+02 2.726684394109772924e+01
1.435999999999999943e+02 2.722860160389609874e+01
1.440000000000000000e+02 2.719051631766547672e+01
1.444000000000000057e+02 2.715258699681345433e+01
1.448000000000000114e+02 2.711481256629148007e+01
1.452000000000000171e+02 2.707719196146292262e+01
1.455999999999999943e+02 2.703972412797317304e+01
1.460000000000000000e+02 2.700240802162178611e+01
1.464000000000000057e+02 2.696524260823650465e+01
1.468000000000000114e+02 2.692822686354921302e+01
1.472000000000000171e+02 2.689135977307379122e+01
1.475999999999999943e+02 2.685464033198577027e+01
1.480000000000000000e+02 2.681806225356237405e+01
1.484000000000000057e+02 2.678152945148674036e+01
1.488000000000000114e+02 2.674514082822627614e+01
1.492000000000000171e+02 2.670889542237292602e+01
1.495999999999999943e+02 2.667279228155483040e+01
1.500000000000000000e+02 2.663683046232680240e+01
