1.000000000000000000e+01 1.453805354536818299e+02
1.040000000000000036e+01 1.622234826722032608e+02
1.080000000000000071e+01 1.766276313036851491e+02
1.119999999999999929e+01 1.810667083029343303e+02
1.159999999999999964e+01 1.745867565737693781e+02
1.200000000000000000e+01 1.688901465381017033e+02
1.240000000000000036e+01 1.604336838607155755e+02
1.280000000000000071e+01 1.557519354126005169e+02
1.319999999999999929e+01 1.515060768677007843e+02
1.359999999999999964e+01 1.476485811720080505e+02
1.400000000000000000e+01 1.441969246767479831e+02
1.440000000000000036e+01 1.410070746325941400e+02
1.480000000000000071e+01 1.380460146558163501e+02
1.519999999999999929e+01 1.352864474631626024e+02
1.560000000000000142e+01 1.327055558876048451e+02
1.600000000000000000e+01 1.302455447034757583e+02
1.639999999999999858e+01 1.280363893807501370e+02
1.680000000000000071e+01 1.260593401619387208e+02
1.719999999999999929e+01 1.241891550029335889e+02
1.760000000000000142e+01 1.133814912032340345e+02
1.800000000000000000e+01 1.117707656091465793e+02
1.839999999999999858e+01 1.102328435005566689e+02
1.880000000000000071e+01 1.073663651889197297e+02
1.920000000000000284e+01 1.059946123524025552e+02
1.960000000000000142e+01 1.046793312464172629e+02
2.000000000000000000e+01 1.034165591951826855e+02
2.039999999999999858e+01 1.022027236563800869e+02
2.080000000000000071e+01 1.010345931560053856e+02
2.120000000000000284e+01 1.009700602490405572e+02
2.160000000000000142e+01 9.984462781441015977e+01
2.200000000000000000e+01 9.875900419410487530e+01
2.239999999999999858e+01 9.771081537915046056e+01
2.280000000000000071e+01 9.669788528786070003e+01
2.320000000000000284e+01 9.571821468253867238e+01
2.360000000000000142e+01 9.476996280541588646e+01
2.400000000000000000e+01 9.384755465582954059e+01
2.439999999999999858e+01 9.284460284501193428e+01
2.480000000000000071e+01 9.185609920524645133e+01
2.520000000000000284e+01 9.089860159623762570e+01
2.560000000000000142e+01 8.997049683792744190e+01
2.600000000000000000e+01 8.907028776664270708e+01
2.640000000000000213e+01 8.819658265741682612e+01
2.680000000000000071e+01 8.736420704757149736e+01
2.719999999999999929e+01 8.657085339875254704e+01
2.760000000000000142e+01 8.579906900046603369e+01
2.800000000000000000e+01 8.504786861543854570e+01
2.840000000000000213e+01 8.431632961306655716e+01
2.880000000000000071e+01 7.946459256866131682e+01
2.920000000000000284e+01 7.873833014902839977e+01
2.960000000000000142e+01 7.803022277031413978e+01
3.000000000000000000e+01 7.733951486697523592e+01
3.040000000000000213e+01 7.666549460634296054e+01
3.080000000000000071e+01 7.600749066359530559e+01
3.120000000000000284e+01 7.536486928438577593e+01
3.160000000000000142e+01 7.473703160514651245e+01
3.200000000000000000e+01 7.449331953807381979e+01
3.240000000000000568e+01 7.391424858394087494e+01
3.279999999999999716e+01 7.334774159278009620e+01
3.320000000000000284e+01 7.202656761244432460e+01
3.360000000000000142e+01 7.149520136975732498e+01
3.400000000000000000e+01 7.097494775510507736e+01
3.440000000000000568e+01 7.046541731329770641e+01
3.479999999999999716e+01 6.996623965934394107e+01
3.520000000000000284e+01 6.947706228490019953e+01
3.560000000000000142e+01 6.899754945530396810e+01
3.600000000000000000e+01 6.852738118913893572e+01
3.640000000000000568e+01 6.806625231309823221e+01
3.679999999999999716e+01 6.888415594864912350e+01
3.720000000000000284e+01 6.849218325231234417e+01
3.760000000000000142e+01 6.810692135762322152e+01
3.800000000000000000e+01 6.772817524839499015e+01
3.840000000000000568e+01 6.735575790552647391e+01
3.879999999999999716e+01 6.698948988450452191e+01
3.920000000000000284e+01 6.662919892014448919e+01
3.960000000000000142e+01 6.627414528346767497e+01
4.000000000000000000e+01 6.591056837453396611e+01
4.040000000000000568e+01 6.554561756571528974e+01
4.079999999999999716e+01 6.518651411287595465e+01
4.120000000000000284e+01 6.482272096666099515e+01
4.160000000000000142e+01 6.446356693334352883e+01
4.200000000000000000e+01 6.411004869666733441e+01
4.239999999999999858e+01 6.376201887510138988e+01
4.280000000000000426e+01 6.341933546881344341e+01
4.320000000000000284e+01 6.308186160800925535e+01
4.360000000000000142e+01 6.274946531558526885e+01
4.400000000000000000e+01 6.242201928313722448e+01
4.439999999999999858e+01 6.209940065944233822e+01
4.480000000000000426e+01 6.178149085059778400e+01
4.520000000000000284e+01 6.146817533106119669e+01
4.560000000000000142e+01 6.115934346489360252e+01
4.600000000000000000e+01 6.085488833655764296e+01
4.639999999999999858e+01 6.055470659067042050e+01
4.680000000000000426e+01 6.025869828015386531e+01
4.720000000000000284e+01 5.996676672226546856e+01
4.760000000000000142e+01 6.004744796680651575e+01
4.800000000000000000e+01 5.977041305588500819e+01
4.840000000000000568e+01 5.949704019576272884e+01
4.880000000000000426e+01 5.922724818196665808e+01
4.920000000000000284e+01 5.895998878378927799e+01
4.960000000000000142e+01 5.872993003659043154e+01
5.000000000000000000e+01 5.846362904108089964e+01
5.040000000000000568e+01 5.820077092145892550e+01
5.080000000000000426e+01 5.794128129039166453e+01
5.120000000000000284e+01 5.768508800983214968e+01
5.160000000000000142e+01 5.743212110377630353e+01
5.200000000000000000e+01 5.718231267514171634e+01
5.240000000000000568e+01 5.693559682653846465e+01
5.280000000000000426e+01 5.669190958471813957e+01
5.320000000000000284e+01 5.645118882849963171e+01
5.360000000000000142e+01 5.621337421998351402e+01
5.400000000000000000e+01 5.597840713887858044e+01
5.440000000000000568e+01 5.574623061977453631e+01
5.480000000000000426e+01 5.551678929220550174e+01
5.520000000000000284e+01 5.529002932335789922e+01
5.560000000000000142e+01 5.506797755508234360e+01
5.600000000000000000e+01 5.484952957835000831e+01
5.640000000000000568e+01 5.463354720787857843e+01
5.680000000000000426e+01 5.441998373457058591e+01
5.720000000000000284e+01 5.420879369253093216e+01
5.760000000000000142e+01 5.399993281649673804e+01
5.800000000000000000e+01 5.379335800104678356e+01
5.840000000000000568e+01 5.358902726150212459e+01
5.880000000000000426e+01 5.338689969643591837e+01
5.920000000000000284e+01 5.339732301418953853e+01
5.960000000000000142e+01 5.320769432367275442e+01
6.000000000000000000e+01 5.302002043093509798e+01
6.040000000000000568e+01 5.283426739564783503e+01
6.080000000000000426e+01 5.265040210644014707e+01
6.120000000000000284e+01 5.246839225482652580e+01
6.160000000000000142e+01 5.228820631013597620e+01
6.200000000000000000e+01 5.210981349539775920e+01
6.240000000000000568e+01 5.193318376414044479e+01
6.280000000000000426e+01 5.175828777806377445e+01
6.320000000000000284e+01 5.158509688554413231e+01
6.360000000000000142e+01 5.141358310093741579e+01
6.400000000000000000e+01 5.124371908464396341e+01
6.440000000000000568e+01 5.099171393013556042e+01
6.480000000000001137e+01 5.082445438955539174e+01
6.520000000000000284e+01 5.065878169473548098e+01
6.559999999999999432e+01 5.049467062074396040e+01
6.600000000000000000e+01 5.033209650425794024e+01
6.640000000000000568e+01 5.017103522750927169e+01
6.680000000000001137e+01 5.001146320279006119e+01
6.720000000000000284e+01 4.985335735749463026e+01
6.759999999999999432e+01 5.004071104581078799e+01
6.800000000000000000e+01 4.988994541551564765e+01
6.840000000000000568e+01 4.974052750549381585e+01
6.880000000000001137e+01 4.959243699523086946e+01
6.920000000000000284e+01 4.944565399531519034e+01
6.959999999999999432e+01 4.930015903565078617e+01
7.000000000000000000e+01 4.915593305406446234e+01
7.040000000000000568e+01 4.901295738529164225e+01
7.080000000000001137e+01 4.887121375032609194e+01
7.120000000000000284e+01 4.874444019292066343e+01
7.159999999999999432e+01 4.860661290763939490e+01
7.200000000000000000e+01 4.846995032211144405e+01
7.240000000000000568e+01 4.833443582969346153e+01
7.280000000000001137e+01 4.820005315702590565e+01
7.320000000000000284e+01 4.806653629980227294e+01
7.359999999999999432e+01 4.793337271608936589e+01
7.400000000000000000e+01 4.780130797086397365e+01
7.440000000000000568e+01 4.767032675821691612e+01
7.479999999999999716e+01 4.754041407249356155e+01
7.520000000000000284e+01 4.741155520069865048e+01
7.560000000000000853e+01 4.728373571513624540e+01
7.600000000000000000e+01 4.715694146627608774e+01
7.640000000000000568e+01 4.703115857583837567e+01
7.679999999999999716e+01 4.690637343008872051e+01
7.720000000000000284e+01 4.678257267333610514e+01
7.760000000000000853e+01 4.665926222267164292e+01
7.800000000000000000e+01 4.653514222370252895e+01
7.840000000000000568e+01 4.641199516066260600e+01
7.879999999999999716e+01 4.628980818470839154e+01
7.920000000000000284e+01 4.616856868577055195e+01
7.960000000000000853e+01 4.604826428683520589e+01
8.000000000000000000e+01 4.592888283839275232e+01
8.040000000000000568e+01 4.581041241304833278e+01
8.079999999999999716e+01 4.569284130028865576e+01
8.120000000000000284e+01 4.557615800139942053e+01
8.160000000000000853e+01 4.546035122452860833e+01
8.200000000000000000e+01 4.534540987989041838e+01
8.240000000000000568e+01 4.523132307510523731e+01
8.279999999999999716e+01 4.511771384749863500e+01
8.320000000000000284e+01 4.500404867756078175e+01
8.360000000000000853e+01 4.489372532954953954e+01
8.400000000000000000e+01 4.478420058249611913e+01
8.440000000000000568e+01 4.467546467192173054e+01
8.479999999999999716e+01 4.456750800164504511e+01
8.520000000000000284e+01 4.446032114003995162e+01
8.560000000000000853e+01 4.435389481639499820e+01
8.600000000000000000e+01 4.424815172310604083e+01
8.640000000000000568e+01 4.414312855757484755e+01
8.680000000000001137e+01 4.403883442422292660e+01
8.720000000000000284e+01 4.393526080399142586e+01
8.760000000000000853e+01 4.383239931781513121e+01
8.800000000000000000e+01 4.373024172365978046e+01
8.840000000000000568e+01 4.362877991363617269e+01
8.880000000000001137e+01 4.352800591118840856e+01
8.920000000000000284e+01 4.342791186835425066e+01
8.960000000000000853e+01 4.332849006309531603e+01
9.000000000000000000e+01 4.322973289669491948e+01
9.040000000000000568e+01 4.313163289122181254e+01
9.080000000000001137e+01 4.303418268705745930e+01
9.120000000000000284e+01 4.293737504048539932e+01
9.160000000000000853e+01 4.284120282134050228e+01
9.200000000000000000e+01 4.274565901071648710e+01
9.240000000000000568e+01 4.265073669873012108e+01
9.280000000000001137e+01 4.255642908234025157e+01
9.320000000000000284e+01 4.246254317818111446e+01
9.360000000000000853e+01 4.236865488899655929e+01
9.400000000000000000e+01 4.227536917176741582e+01
9.440000000000000568e+01 4.218267954067458447e+01
9.480000000000001137e+01 4.209057960779628615e+01
9.520000000000000284e+01 4.199906308120849019e+01
9.560000000000000853e+01 4.190812376313043330e+01
9.600000000000000000e+01 4.181775554811398621e+01
9.640000000000000568e+01 4.173105980591814301e+01
9.680000000000001137e+01 4.164253533171289234e+01
9.720000000000000284e+01 4.155455836359222843e+01
9.760000000000000853e+01 4.146712322023400077e+01
9.800000000000000000e+01 4.138022430301176513e+01
9.840000000000000568e+01 4.129385609444708649e+01
9.880000000000001137e+01 4.120801315669725540e+01
9.920000000000000284e+01 4.112269013007745855e+01
9.960000000000000853e+01 4.103788173161635200e+01
1.000000000000000000e+02 4.095358275364426248e+01
1.004000000000000057e+02 4.086978806241319262e+01
1.008000000000000114e+02 4.078649259674760685e+01
1.012000000000000028e+02 4.070369136672535859e+01
1.016000000000000085e+02 4.062137945238785619e+01
1.020000000000000000e+02 4.062903045284271286e+01
1.024000000000000057e+02 4.054906783051040264e+01
1.028000000000000114e+02 4.046956851450207893e+01
1.032000000000000028e+02 4.039052799069089872e+01
1.036000000000000085e+02 4.031194180671214156e+01
1.040000000000000000e+02 4.023380557087600806e+01
1.044000000000000057e+02 4.017721934091019875e+01
1.048000000000000114e+02 4.010052030981867688e+01
1.052000000000000028e+02 4.002425307758976913e+01
1.056000000000000085e+02 3.994841355328967580e+01
1.060000000000000000e+02 3.987299770044344882e+01
1.064000000000000057e+02 3.979800153610162994e+01
1.068000000000000114e+02 3.972342112992652829e+01
1.072000000000000028e+02 3.964925260329759027e+01
1.076000000000000085e+02 3.957549212843528608e+01
1.080000000000000000e+02 3.950213592754314362e+01
1.084000000000000057e+02 3.941328041710588792e+01
1.088000000000000114e+02 3.934145152908820364e+01
1.092000000000000028e+02 3.927001347036197387e+01
1.096000000000000085e+02 3.919896264825974441e+01
1.100000000000000000e+02 3.912801997750666771e+01
1.104000000000000057e+02 3.905743707972232670e+01
1.108000000000000114e+02 3.898723281799554030e+01
1.112000000000000028e+02 3.891740376103702914e+01
1.116000000000000085e+02 3.884794652135586546e+01
1.120000000000000000e+02 3.877885775453839301e+01
1.124000000000000057e+02 3.871013415854172024e+01
1.128000000000000114e+02 3.864177247300136742e+01
1.132000000000000028e+02 3.857376947855276939e+01
1.136000000000000085e+02 3.850612199616629994e+01
1.140000000000000000e+02 3.843882688649554069e+01
1.144000000000000057e+02 3.837188104923835397e+01
1.148000000000000114e+02 3.830528142251065304e+01
1.152000000000000028e+02 3.823902498223237956e+01
1.156000000000000085e+02 3.817313072384028771e+01
1.160000000000000000e+02 3.810759883436554674e+01
1.164000000000000057e+02 3.804240094590534227e+01
1.168000000000000114e+02 3.797753417869191850e+01
1.172000000000000028e+02 3.791299568798527275e+01
1.176000000000000085e+02 3.784878266352306753e+01
1.180000000000000000e+02 3.778489232898093064e+01
1.184000000000000057e+02 3.772132194144319328e+01
1.188000000000000114e+02 3.765806879088380299e+01
1.192000000000000028e+02 3.759513019965690006e+01
1.196000000000000085e+02 3.753250352199732731e+01
1.200000000000000000e+02 3.747018614353046218e+01
1.204000000000000057e+02 3.740817548079115795e+01
1.208000000000000114e+02 3.734646898075197186e+01
1.212000000000000028e+02 3.728506412036001905e+01
1.216000000000000085e+02 3.722395840608255213e+01
1.220000000000000000e+02 3.716314937346093927e+01
1.224000000000000057e+02 3.710263458667289171e+01
1.228000000000000114e+02 3.704241163810288384e+01
1.232000000000000028e+02 3.698247814792024002e+01
1.236000000000000085e+02 3.692283176366525055e+01
1.240000000000000000e+02 3.686347015984254227e+01
1.244000000000000057e+02 3.680439103752206620e+01
1.248000000000000114e+02 3.674559212394722607e+01
1.252000000000000028e+02 3.669159077631233856e+01
1.256000000000000085e+02 3.663374744748104206e+01
1.260000000000000000e+02 3.657611705296126559e+01
1.264000000000000057e+02 3.651864957032377390e+01
1.268000000000000114e+02 3.646144991917855549e+01
1.272000000000000028e+02 3.640451599123223048e+01
1.276000000000000085e+02 3.634784570158785044e+01
1.280000000000000000e+02 3.628602535700290588e+01
1.284000000000000057e+02 3.622999098871450485e+01
1.288000000000000114e+02 3.617421339551374615e+01
1.291999999999999886e+02 3.611869059086361489e+01
1.296000000000000227e+02 3.606342060987735465e+01
1.300000000000000000e+02 3.600840150901416337e+01
1.304000000000000057e+02 3.595363136577992691e+01
1.308000000000000114e+02 3.589910827843328889e+01
1.311999999999999886e+02 3.584468627892076142e+01
1.316000000000000227e+02 3.579026950355613934e+01
1.320000000000000000e+02 3.573609613486303260e+01
1.324000000000000057e+02 3.568216433747002725e+01
1.328000000000000114e+02 3.562847229548645345e+01
1.331999999999999886e+02 3.557501821223581828e+01
1.336000000000000227e+02 3.552180030999360838e+01
1.340000000000000000e+02 3.546881682972961158e+01
1.344000000000000057e+02 3.541606603085433846e+01
1.348000000000000114e+02 3.536354619096987051e+01
1.351999999999999886e+02 3.531125560562463761e+01
1.356000000000000227e+02 3.525919258807234513e+01
1.360000000000000000e+02 3.520735546903488000e+01
1.364000000000000057e+02 3.515574259646900401e+01
1.368000000000000114e+02 3.510435233533698351e+01
1.371999999999999886e+02 3.505318306738082867e+01
1.376000000000000227e+02 3.500223319090034124e+01
1.380000000000000000e+02 3.495150112053465108e+01
1.384000000000000057e+02 3.490098528704726277e+01
1.388000000000000114e+02 3.485068413711469759e+01
1.392000000000000171e+02 3.480059613311841105e+01
1.395999999999999943e+02 3.475071975294004289e+01
1.400000000000000000e+02 3.470102510743828361e+01
1.404000000000000057e+02 3.465144441271508668e+01
1.408000000000000114e+02 3.460193663791898899e+01
1.412000000000000171e+02 3.455263074262055056e+01
1.415999999999999943e+02 3.450353048430147851e+01
1.420000000000000000e+02 3.445463441882901634e+01
1.424000000000000057e+02 3.440594111633265584e+01
1.428000000000000114e+02 3.435744916102260760e+01
1.432000000000000171e+02 3.430915715101117769e+01
1.435999999999999943e+02 3.426106369813694386e+01
1.440000000000000000e+02 3.421316742779150388e+01
1.444000000000000057e+02 3.416546697874909455e+01
1.448000000000000114e+02 3.411796100299871171e+01
1.452000000000000171e+02 3.407064816557880249e+01
1.455999999999999943e+02 3.402352714441455106e+01
1.460000000000000000e+02 3.397659663015756593e+01
1.464000000000000057e+02 3.392985532602813947e+01
1.468000000000000114e+02 3.388330194765970305e+01
1.472000000000000171e+02 3.383693522294582579e+01
1.475999999999999943e+02 3.379075389188940193e+01
1.480000000000000000e+02 3.374475670645416869e+01
1.484000000000000057e+02 3.369894243041838422e+01
1.488000000000000114e+02 3.365330983923082186e+01
1.492000000000000171e+02 3.360785771986873272e+01
1.495999999999999943e+02 3.356258487069810315e+01
1.500000000000000000e+02 3.351749010133581663e+01
