1.000000000000000000e+01 1.515046309395531807e+02
1.040000000000000036e+01 1.591650784618739749e+02
1.080000000000000071e+01 1.688432718450100936e+02
1.119999999999999929e+01 1.742089970978718725e+02
1.159999999999999964e+01 1.683190948352421970e+02
1.200000000000000000e+01 1.625958115923888556e+02
1.240000000000000036e+01 1.574807593014529061e+02
1.280000000000000071e+01 1.528676697605397692e+02
1.319999999999999929e+01 1.486755146877981133e+02
1.359999999999999964e+01 1.448600598950639835e+02
1.400000000000000000e+01 1.414412594429465457e+02
1.440000000000000036e+01 1.449839980800707622e+02
1.480000000000000071e+01 1.417119575397738060e+02
1.519999999999999929e+01 1.386640895193609140e+02
1.560000000000000142e+01 1.358144427610231162e+02
1.600000000000000000e+01 1.331419073490805545e+02
1.639999999999999858e+01 1.306284630958876960e+02
1.680000000000000071e+01 1.282586104309835662e+02
1.719999999999999929e+01 1.260189263084881190e+02
1.760000000000000142e+01 1.151794972663525556e+02
1.800000000000000000e+01 1.135480250581662176e+02
1.839999999999999858e+01 1.118714912650275863e+02
1.880000000000000071e+01 1.089682758901438717e+02
1.920000000000000284e+01 1.075587426955402748e+02
1.960000000000000142e+01 1.062048780871180611e+02
2.000000000000000000e+01 1.049029209799590063e+02
2.039999999999999858e+01 1.036494684337625358e+02
2.080000000000000071e+01 9.938408905532672577e+01
2.120000000000000284e+01 9.816225601413894708e+01
2.160000000000000142e+01 9.698425260556129501e+01
2.200000000000000000e+01 9.584756909337986031e+01
2.239999999999999858e+01 9.474983216972935907e+01
2.280000000000000071e+01 9.368848972759295179e+01
2.320000000000000284e+01 9.266152498540273541e+01
2.360000000000000142e+01 9.166707717457461513e+01
2.400000000000000000e+01 9.063108670072780626e+01
2.439999999999999858e+01 8.950060821204526462e+01
2.480000000000000071e+01 8.838944623939258349e+01
2.520000000000000284e+01 8.731389503761933213e+01
2.560000000000000142e+01 8.627209663467655787e+01
2.600000000000000000e+01 8.526232622284371132e+01
2.640000000000000213e+01 8.428298009129461832e+01
2.680000000000000071e+01 8.325095631250839290e+01
2.719999999999999929e+01 8.233928035366344034e+01
2.760000000000000142e+01 8.145347639109077420e+01
2.800000000000000000e+01 8.104993138257884766e+01
2.840000000000000213e+01 8.029992904601282078e+01
2.880000000000000071e+01 7.956900219820963116e+01
2.920000000000000284e+01 7.885633567964325152e+01
2.960000000000000142e+01 7.816116293548336103e+01
3.000000000000000000e+01 7.748276232081872195e+01
3.040000000000000213e+01 7.682045374552032513e+01
3.080000000000000071e+01 7.617359562227620984e+01
3.120000000000000284e+01 7.553748070550868476e+01
3.160000000000000142e+01 7.491317019093418139e+01
3.200000000000000000e+01 7.467272770694631845e+01
3.240000000000000568e+01 7.408649768370277400e+01
3.279999999999999716e+01 7.350059626327121975e+01
3.320000000000000284e+01 7.292737793329075657e+01
3.360000000000000142e+01 7.236638868602682351e+01
3.400000000000000000e+01 7.181719707353919091e+01
3.440000000000000568e+01 7.127939277923226769e+01
3.479999999999999716e+01 7.075258529893200432e+01
3.520000000000000284e+01 7.023640272165879139e+01
3.560000000000000142e+01 6.973049060127436860e+01
3.600000000000000000e+01 6.923451091107199318e+01
3.640000000000000568e+01 6.874814107417073217e+01
3.679999999999999716e+01 6.963576239279137781e+01
3.720000000000000284e+01 6.922224004917103457e+01
3.760000000000000142e+01 6.881590258460572329e+01
3.800000000000000000e+01 6.891982112630657298e+01
3.840000000000000568e+01 6.851898853758351038e+01
3.879999999999999716e+01 6.812500836912082036e+01
3.920000000000000284e+01 6.773768549621604507e+01
3.960000000000000142e+01 6.735625826173961173e+01
4.000000000000000000e+01 6.697808783017784151e+01
4.040000000000000568e+01 6.660610445675430924e+01
4.079999999999999716e+01 6.624013938478056218e+01
4.120000000000000284e+01 6.588003027173246551e+01
4.160000000000000142e+01 6.552562087751792319e+01
4.200000000000000000e+01 6.517676077115248745e+01
4.239999999999999858e+01 6.483388613333715966e+01
4.280000000000000426e+01 6.449649294862034310e+01
4.320000000000000284e+01 6.416419167426883519e+01
4.360000000000000142e+01 6.383888021236223409e+01
4.400000000000000000e+01 6.352999736001076769e+01
4.439999999999999858e+01 6.322539586308826642e+01
4.480000000000000426e+01 6.292497518771165943e+01
4.520000000000000284e+01 6.262863813398328006e+01
4.560000000000000142e+01 6.233629069337903417e+01
4.600000000000000000e+01 6.204784191358923096e+01
4.639999999999999858e+01 6.176320377035250431e+01
4.680000000000000426e+01 6.148229104585674776e+01
4.720000000000000284e+01 6.120502121331071521e+01
4.760000000000000142e+01 6.093131432731627939e+01
4.800000000000000000e+01 6.066109291969896589e+01
4.840000000000000568e+01 6.039428190047543410e+01
4.880000000000000426e+01 5.983029180736184571e+01
4.920000000000000284e+01 5.957236731161622600e+01
4.960000000000000142e+01 5.935144883874686172e+01
5.000000000000000000e+01 5.909409947945358255e+01
5.040000000000000568e+01 5.884001010647168783e+01
5.080000000000000426e+01 5.858911185139830735e+01
5.120000000000000284e+01 5.834133787667418147e+01
5.160000000000000142e+01 5.809662329887068211e+01
5.200000000000000000e+01 5.785490511550433013e+01
5.240000000000000568e+01 5.761612213518790071e+01
5.280000000000000426e+01 5.738021491093940085e+01
5.320000000000000284e+01 5.714712567648051333e+01
5.360000000000000142e+01 5.691679828536714325e+01
5.400000000000000000e+01 5.668482855873934767e+01
5.440000000000000568e+01 5.645239336311229295e+01
5.480000000000000426e+01 5.622216067516159654e+01
5.520000000000000284e+01 5.599321888380341505e+01
5.560000000000000142e+01 5.576695830987321045e+01
5.600000000000000000e+01 5.554332665464083618e+01
5.640000000000000568e+01 5.532227304038347881e+01
5.680000000000000426e+01 5.510374796101641692e+01
5.720000000000000284e+01 5.488770323480883917e+01
5.760000000000000142e+01 5.467409195908143005e+01
5.800000000000000000e+01 5.446286846678798099e+01
5.840000000000000568e+01 5.425398828488889080e+01
5.880000000000000426e+01 5.404740809442947835e+01
5.920000000000000284e+01 5.384285129886983867e+01
5.960000000000000142e+01 5.363962741146577429e+01
6.000000000000000000e+01 5.343859099753565545e+01
6.040000000000000568e+01 5.339697152465219432e+01
6.080000000000000426e+01 5.320218932617019902e+01
6.120000000000000284e+01 5.300941279787069504e+01
6.160000000000000142e+01 5.281860718115130027e+01
6.200000000000000000e+01 5.265455225540624440e+01
6.240000000000000568e+01 5.246944959216593674e+01
6.280000000000000426e+01 5.228619317655198984e+01
6.320000000000000284e+01 5.210475201330595496e+01
6.360000000000000142e+01 5.192509583969700770e+01
6.400000000000000000e+01 5.174719510322851335e+01
6.440000000000000568e+01 5.157102094017294291e+01
6.480000000000001137e+01 5.139654515489890230e+01
6.520000000000000284e+01 5.122374019995578465e+01
6.559999999999999432e+01 5.105257915688321901e+01
6.600000000000000000e+01 5.088303571771439948e+01
6.640000000000000568e+01 5.071508416714354439e+01
6.680000000000001137e+01 5.055097796528407628e+01
6.720000000000000284e+01 5.038915461682914554e+01
6.759999999999999432e+01 5.057284228756137168e+01
6.800000000000000000e+01 5.041846114623825059e+01
6.840000000000000568e+01 5.026547727635878715e+01
6.880000000000001137e+01 5.011386942496397268e+01
6.920000000000000284e+01 4.996356832951853733e+01
6.959999999999999432e+01 4.981431406551926244e+01
7.000000000000000000e+01 4.966637755987917302e+01
7.040000000000000568e+01 4.951973926481832677e+01
7.080000000000001137e+01 4.937438003919041307e+01
7.120000000000000284e+01 4.924403708441109728e+01
7.159999999999999432e+01 4.910268577195665785e+01
7.200000000000000000e+01 4.896254372508253283e+01
7.240000000000000568e+01 4.882359355096802744e+01
7.280000000000001137e+01 4.868581820777159663e+01
7.320000000000000284e+01 4.854920099552280988e+01
7.359999999999999432e+01 4.841372554730269684e+01
7.400000000000000000e+01 4.816717097239965995e+01
7.440000000000000568e+01 4.803490004303310457e+01
7.479999999999999716e+01 4.790370674573066623e+01
7.520000000000000284e+01 4.777357629421513252e+01
7.560000000000000853e+01 4.764449418687061666e+01
7.600000000000000000e+01 4.751644619969636096e+01
7.640000000000000568e+01 4.738941837947368185e+01
7.679999999999999716e+01 4.726339703713813378e+01
7.720000000000000284e+01 4.713259224276205828e+01
7.760000000000000853e+01 4.700950766970336758e+01
7.800000000000000000e+01 4.688737889187720498e+01
7.840000000000000568e+01 4.676619340561825311e+01
7.879999999999999716e+01 4.664593893678770797e+01
7.920000000000000284e+01 4.652660343535578846e+01
7.960000000000000853e+01 4.640817507014031662e+01
8.000000000000000000e+01 4.629064222369630954e+01
8.040000000000000568e+01 4.617399348735112596e+01
8.079999999999999716e+01 4.605821765638070531e+01
8.120000000000000284e+01 4.594148674048363290e+01
8.160000000000000853e+01 4.582432571661178144e+01
8.200000000000000000e+01 4.570803063916515896e+01
8.240000000000000568e+01 4.559259070862664487e+01
8.279999999999999716e+01 4.547762905258974797e+01
8.320000000000000284e+01 4.536339264116563186e+01
8.360000000000000853e+01 4.524998491024739877e+01
8.400000000000000000e+01 4.513739572506245423e+01
8.440000000000000568e+01 4.502561512587634240e+01
8.479999999999999716e+01 4.491463332408341813e+01
8.520000000000000284e+01 4.480444069840494592e+01
8.560000000000000853e+01 4.469452422299574579e+01
8.600000000000000000e+01 4.458529297904718192e+01
8.640000000000000568e+01 4.447680662057087631e+01
8.680000000000001137e+01 4.436907397055283298e+01
8.720000000000000284e+01 4.426208623318456148e+01
8.760000000000000853e+01 4.415583475722970519e+01
8.800000000000000000e+01 4.405031103295725359e+01
8.840000000000000568e+01 4.398893051368715135e+01
8.880000000000001137e+01 4.388811747235358496e+01
8.920000000000000284e+01 4.378798685695314674e+01
8.960000000000000853e+01 4.368853091463093818e+01
9.000000000000000000e+01 4.358974201588312525e+01
9.040000000000000568e+01 4.349161265203687776e+01
9.080000000000001137e+01 4.339413543279303553e+01
9.120000000000000284e+01 4.329730308382975323e+01
9.160000000000000853e+01 4.320110844446548981e+01
9.200000000000000000e+01 4.310554446537925344e+01
9.240000000000000568e+01 4.301060420638685144e+01
9.280000000000001137e+01 4.291628083427118412e+01
9.320000000000000284e+01 4.282256762066528211e+01
9.360000000000000853e+01 4.272945793998634656e+01
9.400000000000000000e+01 4.263694526741967650e+01
9.440000000000000568e+01 4.255722948222162927e+01
9.480000000000001137e+01 4.246621652801766800e+01
9.520000000000000284e+01 4.237577850849541505e+01
9.560000000000000853e+01 4.228590932590272899e+01
9.600000000000000000e+01 4.219603507324845992e+01
9.640000000000000568e+01 4.210981698657413119e+01
9.680000000000001137e+01 4.202176303178673322e+01
9.720000000000000284e+01 4.193424955208625704e+01
9.760000000000000853e+01 4.184727096916095945e+01
9.800000000000000000e+01 4.176082178535194345e+01
9.840000000000000568e+01 4.167489658215660597e+01
9.880000000000001137e+01 4.158949001876603546e+01
9.920000000000000284e+01 4.150459683063524352e+01
9.960000000000000853e+01 4.142021182808558422e+01
1.000000000000000000e+02 4.133632989493825960e+01
1.004000000000000057e+02 4.125294598717842121e+01
1.008000000000000114e+02 4.117005513164862407e+01
1.012000000000000028e+02 4.108765242477146273e+01
1.016000000000000085e+02 4.100573303129988290e+01
1.020000000000000000e+02 4.092429218309515448e+01
1.024000000000000057e+02 4.084332517793140482e+01
1.028000000000000114e+02 4.076282737832610081e+01
1.032000000000000028e+02 4.068279810173371658e+01
1.036000000000000085e+02 4.060328340659133062e+01
1.040000000000000000e+02 4.056845366450116330e+01
1.044000000000000057e+02 4.048866320408672692e+01
1.048000000000000114e+02 4.040932455285872038e+01
1.052000000000000028e+02 4.033043341732659570e+01
1.056000000000000085e+02 4.025198556137371497e+01
1.060000000000000000e+02 4.017397680526920567e+01
1.064000000000000057e+02 4.009640302470064199e+01
1.068000000000000114e+02 4.001926014982699087e+01
1.072000000000000028e+02 3.994254416435150290e+01
1.076000000000000085e+02 3.986625110461373822e+01
1.080000000000000000e+02 3.979037705870049990e+01
1.084000000000000057e+02 3.969901831071342002e+01
1.088000000000000114e+02 3.962470066193793627e+01
1.092000000000000028e+02 3.955078819024134873e+01
1.096000000000000085e+02 3.947727717559770610e+01
1.100000000000000000e+02 3.940388840699176853e+01
1.104000000000000057e+02 3.933087338189347548e+01
1.108000000000000114e+02 3.925825084080593541e+01
1.112000000000000028e+02 3.918601723139185822e+01
1.116000000000000085e+02 3.911416904662426930e+01
1.120000000000000000e+02 3.904384358057568960e+01
1.124000000000000057e+02 3.897436225539225063e+01
1.128000000000000114e+02 3.890524989557453495e+01
1.132000000000000028e+02 3.883127792531275446e+01
1.136000000000000085e+02 3.876303616364074855e+01
1.140000000000000000e+02 3.869515269060901375e+01
1.144000000000000057e+02 3.862762433223325331e+01
1.148000000000000114e+02 3.856044795403656167e+01
1.152000000000000028e+02 3.849362046041652974e+01
1.156000000000000085e+02 3.842713879402488431e+01
1.160000000000000000e+02 3.836099993515915685e+01
1.164000000000000057e+02 3.829520090116616160e+01
1.168000000000000114e+02 3.822973874585715492e+01
1.172000000000000028e+02 3.816461055893406495e+01
1.176000000000000085e+02 3.809981346542695491e+01
1.180000000000000000e+02 3.803534462514211612e+01
1.184000000000000057e+02 3.797120123212078369e+01
1.188000000000000114e+02 3.790738051410817633e+01
1.192000000000000028e+02 3.784387973203242694e+01
1.196000000000000085e+02 3.778069617949358161e+01
1.200000000000000000e+02 3.771782718226211273e+01
1.204000000000000057e+02 3.765527009778673317e+01
1.208000000000000114e+02 3.759302231471166067e+01
1.212000000000000028e+02 3.748074018809916907e+01
1.216000000000000085e+02 3.741827017325331184e+01
1.220000000000000000e+02 3.735610561823046538e+01
1.224000000000000057e+02 3.729424399958787006e+01
1.228000000000000114e+02 3.723264123881698140e+01
1.232000000000000028e+02 3.717122537659416537e+01
1.236000000000000085e+02 3.711010615878425511e+01
1.240000000000000000e+02 3.704928116458759746e+01
1.244000000000000057e+02 3.698874800099789439e+01
1.248000000000000114e+02 3.692850430239113990e+01
1.252000000000000028e+02 3.687306733428417260e+01
1.256000000000000085e+02 3.681379745903464595e+01
1.260000000000000000e+02 3.675480802587556184e+01
1.264000000000000057e+02 3.669609679302408267e+01
1.268000000000000114e+02 3.663766154391383623e+01
1.272000000000000028e+02 3.657950008682943377e+01
1.276000000000000085e+02 3.652161025454750387e+01
1.280000000000000000e+02 3.646398990398402162e+01
1.284000000000000057e+02 3.640663691584789063e+01
1.288000000000000114e+02 3.634954919430058595e+01
1.291999999999999886e+02 3.629272466662176555e+01
1.296000000000000227e+02 3.623616128288069405e+01
1.300000000000000000e+02 3.617985701561340761e+01
1.304000000000000057e+02 3.612338884781204484e+01
1.308000000000000114e+02 3.606700191986189452e+01
1.311999999999999886e+02 3.601072595817456090e+01
1.316000000000000227e+02 3.595446502115657950e+01
1.320000000000000000e+02 3.589845721427749936e+01
1.324000000000000057e+02 3.584270062595268769e+01
1.328000000000000114e+02 3.578719336490713232e+01
1.331999999999999886e+02 3.573193355989695164e+01
1.336000000000000227e+02 3.568177353359732251e+01
1.340000000000000000e+02 3.562708502591643622e+01
1.344000000000000057e+02 3.557263803053001539e+01
1.348000000000000114e+02 3.551843075743194333e+01
1.351999999999999886e+02 3.546446143528000761e+01
1.356000000000000227e+02 3.541072831114491493e+01
1.360000000000000000e+02 3.535722965026319287e+01
1.364000000000000057e+02 3.530396373579432634e+01
1.368000000000000114e+02 3.525092886858177366e+01
1.371999999999999886e+02 3.519812336691794030e+01
1.376000000000000227e+02 3.514554556631291860e+01
1.380000000000000000e+02 3.509319381926709269e+01
1.384000000000000057e+02 3.504106649504724658e+01
1.388000000000000114e+02 3.498916197946650897e+01
1.392000000000000171e+02 3.492985764935490778e+01
1.395999999999999943e+02 3.487993817642092154e+01
1.400000000000000000e+02 3.483023076245756045e+01
1.404000000000000057e+02 3.478073388853747616e+01
1.408000000000000114e+02 3.473131099253441789e+01
1.412000000000000171e+02 3.468209101441824060e+01
1.415999999999999943e+02 3.463307769237109568e+01
1.420000000000000000e+02 3.458426956325688195e+01
1.424000000000000057e+02 3.453566517849303352e+01
1.428000000000000114e+02 3.448726310386424387e+01
1.432000000000000171e+02 3.443906191933911032e+01
1.435999999999999943e+02 3.439106021888976272e+01
1.440000000000000000e+02 3.434325959394629990e+01
1.444000000000000057e+02 3.429568875195709410e+01
1.448000000000000114e+02 3.424831297330297986e+01
1.452000000000000171e+02 3.420113090933761413e+01
1.455999999999999943e+02 3.415414122451446133e+01
1.460000000000000000e+02 3.410734259622311271e+01
1.464000000000000057e+02 3.406073371462812815e+01
1.468000000000000114e+02 3.401431328251018726e+01
1.472000000000000171e+02 3.396808001510981967e+01
1.475999999999999943e+02 3.392203263997343754e+01
1.480000000000000000e+02 3.387596797353739220e+01
1.484000000000000057e+02 3.382938175780056156e+01
1.488000000000000114e+02 3.378298121629205042e+01
1.492000000000000171e+02 3.373676510056523625e+01
1.495999999999999943e+02 3.369073217397781406e+01
1.500000000000000000e+02 3.364488121154809619e+01
