1.000000000000000000e+01 9.819832672069462376e+01
1.040000000000000036e+01 9.627825578680135266e+01
1.080000000000000071e+01 9.348780472070512815e+01
1.119999999999999929e+01 9.052011477758010471e+01
1.159999999999999964e+01 8.784463483885367907e+01
1.200000000000000000e+01 8.541384983903509465e+01
1.240000000000000036e+01 8.319075789047938940e+01
1.280000000000000071e+01 8.104110174722855220e+01
1.319999999999999929e+01 7.898638406550684010e+01
1.359999999999999964e+01 7.709577534129746823e+01
1.400000000000000000e+01 7.542266963700801341e+01
1.440000000000000036e+01 7.385137776637007789e+01
1.480000000000000071e+01 7.251047535999471449e+01
1.519999999999999929e+01 7.132413478159384113e+01
1.560000000000000142e+01 7.019969844108750578e+01
1.600000000000000000e+01 6.913175211626634109e+01
1.639999999999999858e+01 6.811553990269773351e+01
1.680000000000000071e+01 6.714686248303587490e+01
1.719999999999999929e+01 6.622199433296776760e+01
1.760000000000000142e+01 6.533761576732337062e+01
1.800000000000000000e+01 6.753515060284694016e+01
1.839999999999999858e+01 6.665538863873723585e+01
1.880000000000000071e+01 6.441737817721650572e+01
1.920000000000000284e+01 6.364670703092239989e+01
1.960000000000000142e+01 6.290717352218468505e+01
2.000000000000000000e+01 6.219664887034902279e+01
2.039999999999999858e+01 6.151320603080336014e+01
2.080000000000000071e+01 6.085509549397715290e+01
2.120000000000000284e+01 6.022072457222819253e+01
2.160000000000000142e+01 5.960863959106899301e+01
2.200000000000000000e+01 5.901751051179873286e+01
2.239999999999999858e+01 5.844611759989386712e+01
2.280000000000000071e+01 5.789333982286584046e+01
2.320000000000000284e+01 5.735814471676242476e+01
2.360000000000000142e+01 5.689671488610855477e+01
2.400000000000000000e+01 5.645960740587538140e+01
2.439999999999999858e+01 5.600614739986355772e+01
2.480000000000000071e+01 5.556538510331552061e+01
2.520000000000000284e+01 5.513670349775937041e+01
2.560000000000000142e+01 5.471952764077481390e+01
2.600000000000000000e+01 5.431332101107035015e+01
2.640000000000000213e+01 5.391758223648436399e+01
2.680000000000000071e+01 5.353184215818784253e+01
2.719999999999999929e+01 5.315566119084598995e+01
2.760000000000000142e+01 4.867034708666329834e+01
2.800000000000000000e+01 4.828541923374055500e+01
2.840000000000000213e+01 4.790965548133561924e+01
2.880000000000000071e+01 4.754268376485852343e+01
2.920000000000000284e+01 4.718415323771245085e+01
2.960000000000000142e+01 4.580684542576786100e+01
3.000000000000000000e+01 4.544116143211095959e+01
3.040000000000000213e+01 4.508367815949877411e+01
3.080000000000000071e+01 4.473408644755248531e+01
3.120000000000000284e+01 4.439209343008971587e+01
3.160000000000000142e+01 4.405742143647724873e+01
3.200000000000000000e+01 4.409971531631138930e+01
3.240000000000000568e+01 4.379977656527965024e+01
3.279999999999999716e+01 4.350579828521654946e+01
3.320000000000000284e+01 4.321758165141517338e+01
3.360000000000000142e+01 4.293493712860727385e+01
3.400000000000000000e+01 4.265768391413100602e+01
3.440000000000000568e+01 4.238564942173879757e+01
3.479999999999999716e+01 4.211866880255754353e+01
3.520000000000000284e+01 4.185658450005672648e+01
3.560000000000000142e+01 4.159924583618543892e+01
3.600000000000000000e+01 4.133961045897465425e+01
3.640000000000000568e+01 4.108292181576328517e+01
3.679999999999999716e+01 4.083083429332860703e+01
3.720000000000000284e+01 4.058320887131130661e+01
3.760000000000000142e+01 4.033991241018234319e+01
3.800000000000000000e+01 4.010081733284210515e+01
3.840000000000000568e+01 3.986580132714635027e+01
3.879999999999999716e+01 3.963474706774609047e+01
3.920000000000000284e+01 3.940754195577110153e+01
3.960000000000000142e+01 3.918350360198132876e+01
4.000000000000000000e+01 3.895691712972561049e+01
4.040000000000000568e+01 3.872570426201281890e+01
4.079999999999999716e+01 3.849824905329517577e+01
4.120000000000000284e+01 3.827444911024466023e+01
4.160000000000000142e+01 3.805420593869550316e+01
4.200000000000000000e+01 3.783742475368433844e+01
4.239999999999999858e+01 3.762401430072627306e+01
4.280000000000000426e+01 3.742400958781014708e+01
4.320000000000000284e+01 3.722954225394993699e+01
4.360000000000000142e+01 3.703792765148919841e+01
4.400000000000000000e+01 3.684909547698351417e+01
4.439999999999999858e+01 3.666297785382852226e+01
4.480000000000000426e+01 3.647950922485135550e+01
4.520000000000000284e+01 3.629862625068562920e+01
4.560000000000000142e+01 3.612026771356383392e+01
4.600000000000000000e+01 3.594437442618804113e+01
4.639999999999999858e+01 3.577088914536348341e+01
4.680000000000000426e+01 3.559975649010279852e+01
4.720000000000000284e+01 3.543092286392871415e+01
4.760000000000000142e+01 3.526433638112213487e+01
4.800000000000000000e+01 3.509994679668018591e+01
4.840000000000000568e+01 3.493770543976493315e+01
4.880000000000000426e+01 3.477756515043790841e+01
4.920000000000000284e+01 3.461948021948992960e+01
4.960000000000000142e+01 3.450702443541710807e+01
5.000000000000000000e+01 3.435239896578640639e+01
5.040000000000000568e+01 3.419857839051181969e+01
5.080000000000000426e+01 3.404668083262122025e+01
5.120000000000000284e+01 3.389666617073330457e+01
5.160000000000000142e+01 3.374849545348188684e+01
5.200000000000000000e+01 3.360213085575368552e+01
5.240000000000000568e+01 3.345753563692067445e+01
5.280000000000000426e+01 3.331467410096015414e+01
5.320000000000000284e+01 3.317351155836193755e+01
5.360000000000000142e+01 3.303401428972845366e+01
5.400000000000000000e+01 3.289614951097890128e+01
5.440000000000000568e+01 3.275988534007456110e+01
5.480000000000000426e+01 3.262519076518653804e+01
5.520000000000000284e+01 3.249203561423264830e+01
5.560000000000000142e+01 3.236039052571376828e+01
5.600000000000000000e+01 3.223022692078460238e+01
5.640000000000000568e+01 3.210151697649719438e+01
5.680000000000000426e+01 3.197423360015910987e+01
5.720000000000000284e+01 3.184835040475187640e+01
5.760000000000000142e+01 3.172384168535759841e+01
5.800000000000000000e+01 3.160068239654550126e+01
5.840000000000000568e+01 3.159148156626046600e+01
5.880000000000000426e+01 3.147428883114257303e+01
5.920000000000000284e+01 3.135809459702122126e+01
5.960000000000000142e+01 3.152805668106827852e+01
6.000000000000000000e+01 3.142025619228194344e+01
6.040000000000000568e+01 3.131353747436611457e+01
6.080000000000000426e+01 3.120788214647840064e+01
6.120000000000000284e+01 3.110327226662553102e+01
6.160000000000000142e+01 3.099969031820818799e+01
6.200000000000000000e+01 3.089711919706816445e+01
6.240000000000000568e+01 3.079554219901591594e+01
6.280000000000000426e+01 3.069494300781757090e+01
6.320000000000000284e+01 3.059530568362126246e+01
6.360000000000000142e+01 3.049661465180421516e+01
6.400000000000000000e+01 3.039885469222227243e+01
6.440000000000000568e+01 3.030201092884507830e+01
6.480000000000001137e+01 3.020606881976032909e+01
6.520000000000000284e+01 3.011101414753191463e+01
6.559999999999999432e+01 3.001683300989700598e+01
6.600000000000000000e+01 2.992351181078824141e+01
6.640000000000000568e+01 2.983103725166739650e+01
6.680000000000001137e+01 2.973960071058990451e+01
6.720000000000000284e+01 2.964922273535973218e+01
6.759999999999999432e+01 2.955964748751371474e+01
6.800000000000000000e+01 2.947086290829883382e+01
6.840000000000000568e+01 2.938285719381774186e+01
6.880000000000001137e+01 2.929561878809684572e+01
6.920000000000000284e+01 2.920913637638457772e+01
6.959999999999999432e+01 2.912339887867083377e+01
7.000000000000000000e+01 2.903839544341903434e+01
7.040000000000000568e+01 2.895411544150250194e+01
7.080000000000001137e+01 2.887054846033724331e+01
7.120000000000000284e+01 2.880144024500538080e+01
7.159999999999999432e+01 2.872077453077551468e+01
7.200000000000000000e+01 2.864077712967675637e+01
7.240000000000000568e+01 2.856143866733890491e+01
7.280000000000001137e+01 2.848274995458983483e+01
7.320000000000000284e+01 2.840470198274147862e+01
7.359999999999999432e+01 2.832728591902244020e+01
7.400000000000000000e+01 2.825049310215183240e+01
7.440000000000000568e+01 2.817431503804941073e+01
7.479999999999999716e+01 2.809874339567666013e+01
7.520000000000000284e+01 2.802377000300450760e+01
7.560000000000000853e+01 2.794938684310276855e+01
7.600000000000000000e+01 2.787558605034734427e+01
7.640000000000000568e+01 2.778551546293780206e+01
7.679999999999999716e+01 2.771290587950196027e+01
7.720000000000000284e+01 2.764085187257562382e+01
7.760000000000000853e+01 2.756934624822045876e+01
7.800000000000000000e+01 2.749838194361279520e+01
7.840000000000000568e+01 2.742795202396513332e+01
7.879999999999999716e+01 2.735804967953570355e+01
7.920000000000000284e+01 2.728761262448139036e+01
7.960000000000000853e+01 2.721749571559268333e+01
8.000000000000000000e+01 2.714789904306269364e+01
8.040000000000000568e+01 2.707881609176039461e+01
8.079999999999999716e+01 2.701024046129403189e+01
8.120000000000000284e+01 2.694216586340869313e+01
8.160000000000000853e+01 2.687458611945619325e+01
8.200000000000000000e+01 2.680749515793454307e+01
8.240000000000000568e+01 2.674088701209513630e+01
8.279999999999999716e+01 2.667438955444266924e+01
8.320000000000000284e+01 2.660825441421427229e+01
8.360000000000000853e+01 2.654258960265601530e+01
8.400000000000000000e+01 2.647738947852958802e+01
8.440000000000000568e+01 2.641264849571424378e+01
8.479999999999999716e+01 2.634836120114190194e+01
8.520000000000000284e+01 2.628452223278698341e+01
8.560000000000000853e+01 2.622112631770934499e+01
8.600000000000000000e+01 2.615808425427955797e+01
8.640000000000000568e+01 2.609531455253234000e+01
8.680000000000001137e+01 2.603297697457785631e+01
8.720000000000000284e+01 2.597106649353722929e+01
8.760000000000000853e+01 2.590957816481177289e+01
8.800000000000000000e+01 2.584850712434899123e+01
8.840000000000000568e+01 2.578784858695319926e+01
8.880000000000001137e+01 2.572759784463946886e+01
8.920000000000000284e+01 2.566775026502949686e+01
8.960000000000000853e+01 2.560830128978821563e+01
9.000000000000000000e+01 2.554924643309988852e+01
9.040000000000000568e+01 2.549058128018251068e+01
9.080000000000001137e+01 2.543230148583936767e+01
9.120000000000000284e+01 2.537440277304672875e+01
9.160000000000000853e+01 2.531688093157649888e+01
9.200000000000000000e+01 2.525973181665293055e+01
9.240000000000000568e+01 2.520295134764224798e+01
9.280000000000001137e+01 2.514653550677441274e+01
9.320000000000000284e+01 2.509048033789597554e+01
9.360000000000000853e+01 2.503478194525311551e+01
9.400000000000000000e+01 2.497943649230415986e+01
9.440000000000000568e+01 2.492444020056047549e+01
9.480000000000001137e+01 2.486978934845520683e+01
9.520000000000000284e+01 2.481548027023890768e+01
9.560000000000000853e+01 2.476150935490134586e+01
9.600000000000000000e+01 2.470787304511872406e+01
9.640000000000000568e+01 2.465767522086859742e+01
9.680000000000001137e+01 2.460557662667500267e+01
9.720000000000000284e+01 2.455399489471397700e+01
9.760000000000000853e+01 2.450272556421644410e+01
9.800000000000000000e+01 2.445176543854946516e+01
9.840000000000000568e+01 2.440111136712436490e+01
9.880000000000001137e+01 2.435076024454207300e+01
9.920000000000000284e+01 2.430070900975771409e+01
9.960000000000000853e+01 2.425095464526421551e+01
1.000000000000000000e+02 2.420149417629421151e+01
1.004000000000000057e+02 2.415232467003989569e+01
1.008000000000000114e+02 2.410344323489021789e+01
1.012000000000000028e+02 2.405484701968519445e+01
1.016000000000000085e+02 2.400653321298647569e+01
1.020000000000000000e+02 2.395849904236428785e+01
1.024000000000000057e+02 2.391074177369978671e+01
1.028000000000000114e+02 2.386325871050285841e+01
1.032000000000000028e+02 2.381604719324464270e+01
1.036000000000000085e+02 2.376910459870459746e+01
1.040000000000000000e+02 2.372242833933171369e+01
1.044000000000000057e+02 2.371893068314971487e+01
1.048000000000000114e+02 2.367384508421545064e+01
1.052000000000000028e+02 2.362901042017591635e+01
1.056000000000000085e+02 2.358442432274508249e+01
1.060000000000000000e+02 2.354008445515082570e+01
1.064000000000000057e+02 2.349598851159406365e+01
1.068000000000000114e+02 2.345213421671906673e+01
1.072000000000000028e+02 2.340850831497633422e+01
1.076000000000000085e+02 2.336493425361242160e+01
1.080000000000000000e+02 2.332159561336337461e+01
1.084000000000000057e+02 2.327849023991043964e+01
1.088000000000000114e+02 2.323561600669846783e+01
1.092000000000000028e+02 2.319297081447468400e+01
1.096000000000000085e+02 2.315055259083680284e+01
1.100000000000000000e+02 2.310808375065894538e+01
1.104000000000000057e+02 2.306581739593681135e+01
1.108000000000000114e+02 2.302377385069875615e+01
1.112000000000000028e+02 2.298195112548759056e+01
1.116000000000000085e+02 2.294034725585948920e+01
1.120000000000000000e+02 2.289896030197861876e+01
1.124000000000000057e+02 2.285778834821984873e+01
1.128000000000000114e+02 2.281682950277928512e+01
1.132000000000000028e+02 2.277608189729248878e+01
1.136000000000000085e+02 2.273554368646017210e+01
1.140000000000000000e+02 2.269521304768120018e+01
1.144000000000000057e+02 2.265508818069272579e+01
1.148000000000000114e+02 2.261516730721736224e+01
1.152000000000000028e+02 2.257544867061707450e+01
1.156000000000000085e+02 2.253593053555382397e+01
1.160000000000000000e+02 2.249661118765670764e+01
1.164000000000000057e+02 2.245748893319537842e+01
1.168000000000000114e+02 2.241856209875984263e+01
1.172000000000000028e+02 2.237982903094618337e+01
1.176000000000000085e+02 2.234128809604828092e+01
1.180000000000000000e+02 2.230293767975541641e+01
1.184000000000000057e+02 2.226477618685545679e+01
1.188000000000000114e+02 2.222680204094363177e+01
1.192000000000000028e+02 2.219404683621840491e+01
1.196000000000000085e+02 2.215664643742967854e+01
1.200000000000000000e+02 2.211942850363873347e+01
1.204000000000000057e+02 2.208239152518576631e+01
1.208000000000000114e+02 2.204553401001607327e+01
1.212000000000000028e+02 2.200885448341530903e+01
1.216000000000000085e+02 2.197235148774958446e+01
1.220000000000000000e+02 2.193602358221038884e+01
1.224000000000000057e+02 2.189986934256411288e+01
1.228000000000000114e+02 2.186388736090619034e+01
1.232000000000000028e+02 2.182807624541967328e+01
1.236000000000000085e+02 2.179243462013814181e+01
1.240000000000000000e+02 2.175696112471296217e+01
1.244000000000000057e+02 2.172165441418468035e+01
1.248000000000000114e+02 2.168651315875848340e+01
1.252000000000000028e+02 2.165605564774596914e+01
1.256000000000000085e+02 2.162164325544481613e+01
1.260000000000000000e+02 2.158739033134985874e+01
1.264000000000000057e+02 2.155329562243517216e+01
1.268000000000000114e+02 2.151935788955651674e+01
1.272000000000000028e+02 2.148557590725295796e+01
1.276000000000000085e+02 2.145194846355189355e+01
1.280000000000000000e+02 2.141847435977759062e+01
1.284000000000000057e+02 2.138515241036294157e+01
1.288000000000000114e+02 2.135198144266453113e+01
1.291999999999999886e+02 2.131896029678091864e+01
1.296000000000000227e+02 2.128602989253331756e+01
1.300000000000000000e+02 2.125306551543456024e+01
1.304000000000000057e+02 2.122024884913638587e+01
1.308000000000000114e+02 2.118756140216959238e+01
1.311999999999999886e+02 2.115501086372397310e+01
1.316000000000000227e+02 2.112260460103263071e+01
1.320000000000000000e+02 2.109034153156257929e+01
1.324000000000000057e+02 2.105822058422592846e+01
1.328000000000000114e+02 2.102624069922381622e+01
1.331999999999999886e+02 2.099440082789295658e+01
1.336000000000000227e+02 2.096269993255472386e+01
1.340000000000000000e+02 2.093113698636674869e+01
1.344000000000000057e+02 2.089971097317692994e+01
1.348000000000000114e+02 2.086842088737993706e+01
1.351999999999999886e+02 2.083726573377599678e+01
1.356000000000000227e+02 2.080624452743199626e+01
1.360000000000000000e+02 2.077535629354493096e+01
1.364000000000000057e+02 2.074460006730747708e+01
1.368000000000000114e+02 2.071397489377579504e+01
1.371999999999999886e+02 2.068347982773949312e+01
1.376000000000000227e+02 2.065311393359366576e+01
1.380000000000000000e+02 2.062287628521297123e+01
1.384000000000000057e+02 2.059276596582775554e+01
1.388000000000000114e+02 2.056278206790217666e+01
1.392000000000000171e+02 2.053292369301423292e+01
1.395999999999999943e+02 2.050318995173769210e+01
1.400000000000000000e+02 2.047357996352595677e+01
1.404000000000000057e+02 2.044409285659770603e+01
1.408000000000000114e+02 2.041459270933975390e+01
1.412000000000000171e+02 2.038520909568924822e+01
1.415999999999999943e+02 2.035594638133562029e+01
1.420000000000000000e+02 2.032680372427443416e+01
1.424000000000000057e+02 2.029778029076217294e+01
1.428000000000000114e+02 2.026887525521180322e+01
1.432000000000000171e+02 2.024008780008978903e+01
1.435999999999999943e+02 2.020575237781001121e+01
1.440000000000000000e+02 2.017745691958798204e+01
1.444000000000000057e+02 2.014927530835037928e+01
1.448000000000000114e+02 2.012120676896439875e+01
1.452000000000000171e+02 2.009325053373164849e+01
1.455999999999999943e+02 2.006540584229619029e+01
1.460000000000000000e+02 2.003767194155397036e+01
1.464000000000000057e+02 2.001004808556363557e+01
1.468000000000000114e+02 1.998253353545867483e+01
1.472000000000000171e+02 1.995512755936087501e+01
1.475999999999999943e+02 1.992782943229510551e+01
1.480000000000000000e+02 1.990063843610530725e+01
1.484000000000000057e+02 1.987355385937181751e+01
1.488000000000000114e+02 1.984657499732987773e+01
1.492000000000000171e+02 1.981970115178932446e+01
1.495999999999999943e+02 1.979293163105552367e+01
1.500000000000000000e+02 1.976626574985141360e+01
