1.000000000000000000e+01 5.011612376408281762e+02
1.040000000000000036e+01 5.508695856439252339e+02
1.080000000000000071e+01 6.093743180322250055e+02
1.119999999999999929e+01 6.847144021022386369e+02
1.159999999999999964e+01 7.309315935797579868e+02
1.200000000000000000e+01 7.683339639225478095e+02
1.240000000000000036e+01 7.960902424365928027e+02
1.280000000000000071e+01 8.694258047309867834e+02
1.319999999999999929e+01 9.114913786685114019e+02
1.359999999999999964e+01 9.564282662391190115e+02
1.400000000000000000e+01 9.539077000566937841e+02
1.440000000000000036e+01 9.351854417482384179e+02
1.480000000000000071e+01 9.177204588906843128e+02
1.519999999999999929e+01 9.013695089020259275e+02
1.560000000000000142e+01 8.860119947182652140e+02
1.600000000000000000e+01 8.715454513045525573e+02
1.639999999999999858e+01 8.578821042794945697e+02
1.680000000000000071e+01 8.449462081218675849e+02
1.719999999999999929e+01 8.326719607780203205e+02
1.760000000000000142e+01 8.210018508622644049e+02
1.800000000000000000e+01 8.098853339289355517e+02
1.839999999999999858e+01 7.992777621473949239e+02
1.880000000000000071e+01 7.891395112970537866e+02
1.920000000000000284e+01 7.794352629862165713e+02
1.960000000000000142e+01 7.701334101285003726e+02
2.000000000000000000e+01 7.612055611426399082e+02
2.039999999999999858e+01 7.526261238594029237e+02
2.080000000000000071e+01 7.443719542613134763e+02
2.120000000000000284e+01 7.364220583218427691e+02
2.160000000000000142e+01 7.287573376151984803e+02
2.200000000000000000e+01 7.213603712248268494e+02
2.239999999999999858e+01 7.142152279247367233e+02
2.280000000000000071e+01 7.073073037424372842e+02
2.320000000000000284e+01 7.006231809091345895e+02
2.360000000000000142e+01 6.941505049165493801e+02
2.400000000000000000e+01 6.878778769713319434e+02
2.439999999999999858e+01 6.817947595986493070e+02
2.480000000000000071e+01 6.758913935197729188e+02
2.520000000000000284e+01 6.701587242326222622e+02
2.560000000000000142e+01 6.645883369732956680e+02
2.600000000000000000e+01 6.591723989415972937e+02
2.640000000000000213e+01 6.539036078430567613e+02
2.680000000000000071e+01 6.487751459406813410e+02
2.719999999999999929e+01 6.437806389270680256e+02
2.760000000000000142e+01 6.389141190257840890e+02
2.800000000000000000e+01 6.341699918135420830e+02
2.840000000000000213e+01 6.295430063243950372e+02
2.880000000000000071e+01 6.250282280561802963e+02
2.920000000000000284e+01 6.206210145495736015e+02
2.960000000000000142e+01 6.163169932528257959e+02
3.000000000000000000e+01 6.121120414217803045e+02
3.040000000000000213e+01 6.080022678360780901e+02
3.080000000000000071e+01 6.039839961393886369e+02
3.120000000000000284e+01 6.000537496347167234e+02
3.160000000000000142e+01 5.962082373859147992e+02
3.200000000000000000e+01 5.924443414939269132e+02
3.240000000000000568e+01 5.887591054314123085e+02
3.279999999999999716e+01 5.851497233325674188e+02
3.320000000000000284e+01 5.816135301464551048e+02
3.360000000000000142e+01 5.781479925722273947e+02
3.400000000000000000e+01 5.747507007034264461e+02
3.440000000000000568e+01 5.714193603163237185e+02
3.479999999999999716e+01 5.681517857440647958e+02
3.520000000000000284e+01 5.649458932844192987e+02
3.560000000000000142e+01 5.617996950942535932e+02
3.600000000000000000e+01 5.587112935285572348e+02
3.640000000000000568e+01 5.556788758860359394e+02
3.679999999999999716e+01 5.527007095269981392e+02
3.720000000000000284e+01 5.497751373325702389e+02
3.760000000000000142e+01 5.469005734772237020e+02
3.800000000000000000e+01 5.440754994892288323e+02
3.840000000000000568e+01 5.412984605760103705e+02
3.879999999999999716e+01 5.385680621934795909e+02
3.920000000000000284e+01 5.358829668403208188e+02
3.960000000000000142e+01 5.332418910599035371e+02
4.000000000000000000e+01 5.306436026340189756e+02
4.040000000000000568e+01 5.280869179540254663e+02
4.079999999999999716e+01 5.255706995562181874e+02
4.120000000000000284e+01 5.230938538093710122e+02
4.160000000000000142e+01 5.206553287434055619e+02
4.200000000000000000e+01 5.182541120090636468e+02
4.239999999999999858e+01 5.158892289592940870e+02
4.280000000000000426e+01 5.135597408438158027e+02
4.320000000000000284e+01 5.112647431090063606e+02
4.360000000000000142e+01 5.090033637958963482e+02
4.400000000000000000e+01 5.067747620296063928e+02
4.439999999999999858e+01 5.045781265940915432e+02
4.480000000000000426e+01 5.024126745865254406e+02
4.520000000000000284e+01 5.002776501460921850e+02
4.560000000000000142e+01 4.981723232523421530e+02
4.600000000000000000e+01 4.960959885886359189e+02
4.639999999999999858e+01 4.940479644665294927e+02
4.680000000000000426e+01 4.920275918072522927e+02
4.720000000000000284e+01 4.900342331767161568e+02
4.760000000000000142e+01 4.880672718707413651e+02
4.800000000000000000e+01 4.861261110474260931e+02
4.840000000000000568e+01 4.842101729037993891e+02
4.880000000000000426e+01 4.823188978940967218e+02
4.920000000000000284e+01 4.804517439871829083e+02
4.960000000000000142e+01 4.786081859608114542e+02
5.000000000000000000e+01 4.767877147305732706e+02
5.040000000000000568e+01 4.749898367115242763e+02
5.080000000000000426e+01 4.732140732106187215e+02
5.120000000000000284e+01 4.714599598481984231e+02
5.160000000000000142e+01 4.697270460069014462e+02
5.200000000000000000e+01 4.680148943064599507e+02
5.240000000000000568e+01 4.663230801029533268e+02
5.280000000000000426e+01 4.646511910111784118e+02
5.320000000000000284e+01 4.629988264488771392e+02
5.360000000000000142e+01 4.613655972016441069e+02
5.400000000000000000e+01 4.597511250074099394e+02
5.440000000000000568e+01 4.581550421594617433e+02
5.480000000000000426e+01 4.565769911270259058e+02
5.520000000000000284e+01 4.550166241924999326e+02
5.560000000000000142e+01 4.534736031044697029e+02
5.600000000000000000e+01 4.519475987457057613e+02
5.640000000000000568e+01 4.504382908153742164e+02
5.680000000000000426e+01 4.489453675247468709e+02
5.720000000000000284e+01 4.474685253057335785e+02
5.760000000000000142e+01 4.460074685316006935e+02
5.800000000000000000e+01 4.445619092492753452e+02
5.840000000000000568e+01 4.431315669226680711e+02
5.880000000000000426e+01 4.417161681864811271e+02
5.920000000000000284e+01 4.403154466099946944e+02
5.960000000000000142e+01 4.389291424703575331e+02
6.000000000000000000e+01 4.375570025349286425e+02
6.040000000000000568e+01 4.361987798522456501e+02
6.080000000000000426e+01 4.348542335512158843e+02
6.120000000000000284e+01 4.335231286481488269e+02
6.160000000000000142e+01 4.322052358612698981e+02
6.200000000000000000e+01 4.309003314323724112e+02
6.240000000000000568e+01 4.296081969552836881e+02
6.280000000000000426e+01 4.283286192108400883e+02
6.320000000000000284e+01 4.270613900080778649e+02
6.360000000000000142e+01 4.258063060313642154e+02
6.400000000000000000e+01 4.245631686932068192e+02
6.440000000000000568e+01 4.233317839924931718e+02
6.480000000000001137e+01 4.221119623779234757e+02
6.520000000000000284e+01 4.209035186164111906e+02
6.559999999999999432e+01 4.197062716662414346e+02
6.600000000000000000e+01 4.185200445547798722e+02
6.640000000000000568e+01 4.173446642605443913e+02
6.680000000000001137e+01 4.161799615994515307e+02
6.720000000000000284e+01 4.150257711150665614e+02
6.759999999999999432e+01 4.138819309726886218e+02
6.800000000000000000e+01 4.127482828571152709e+02
6.840000000000000568e+01 4.116246718739334938e+02
6.880000000000001137e+01 4.105109464541937427e+02
6.920000000000000284e+01 4.094069582623329779e+02
6.959999999999999432e+01 4.083125621072116473e+02
7.000000000000000000e+01 4.072276158561447801e+02
7.040000000000000568e+01 4.061519803518043545e+02
7.080000000000001137e+01 4.050855193318837451e+02
7.120000000000000284e+01 4.040280993514113561e+02
7.159999999999999432e+01 4.029795897076151050e+02
7.200000000000000000e+01 4.019398623672349800e+02
7.240000000000000568e+01 4.009087918961923833e+02
7.280000000000001137e+01 3.998862553915239459e+02
7.320000000000000284e+01 3.988721324154947183e+02
7.359999999999999432e+01 3.978663049318097364e+02
7.400000000000000000e+01 3.968686572438412554e+02
7.440000000000000568e+01 3.958790759348015627e+02
7.479999999999999716e+01 3.948974498097848027e+02
7.520000000000000284e+01 3.939236698396101701e+02
7.560000000000000853e+01 3.929576291064022939e+02
7.600000000000000000e+01 3.919992227508427050e+02
7.640000000000000568e+01 3.910483479210324163e+02
7.679999999999999716e+01 3.901049037229095120e+02
7.720000000000000284e+01 3.891687911721633100e+02
7.760000000000000853e+01 3.882399131475928016e+02
7.800000000000000000e+01 3.873181743458592905e+02
7.840000000000000568e+01 3.864034812375815591e+02
7.879999999999999716e+01 3.854957420247291111e+02
7.920000000000000284e+01 3.845948665992664246e+02
7.960000000000000853e+01 3.837007665030058661e+02
8.000000000000000000e+01 3.828133548886261224e+02
8.040000000000000568e+01 3.819325464818188038e+02
8.079999999999999716e+01 3.810582575445217230e+02
8.120000000000000284e+01 3.801904058392038905e+02
8.160000000000000853e+01 3.793289105941661887e+02
8.200000000000000000e+01 3.784736924698236180e+02
8.240000000000000568e+01 3.776246735259358616e+02
8.279999999999999716e+01 3.767817771897559282e+02
8.320000000000000284e+01 3.759449282250650413e+02
8.360000000000000853e+01 3.751140527020652371e+02
8.400000000000000000e+01 3.742890779681025606e+02
8.440000000000000568e+01 3.734699326191916384e+02
8.479999999999999716e+01 3.726565464723180412e+02
8.520000000000000284e+01 3.718488505384918312e+02
8.560000000000000853e+01 3.710467769965287061e+02
8.600000000000000000e+01 3.702502591675355461e+02
8.640000000000000568e+01 3.694592314900784231e+02
8.680000000000001137e+01 3.686736294960102214e+02
8.720000000000000284e+01 3.678933897869392240e+02
8.760000000000000853e+01 3.671184500113157014e+02
8.800000000000000000e+01 3.663487488421211538e+02
8.840000000000000568e+01 3.655842259551377538e+02
8.880000000000001137e+01 3.648248220077820747e+02
8.920000000000000284e+01 3.640704786184862201e+02
8.960000000000000853e+01 3.633211383466080520e+02
9.000000000000000000e+01 3.625767446728559094e+02
9.040000000000000568e+01 3.618372419802111040e+02
9.080000000000001137e+01 3.611025755353348359e+02
9.120000000000000284e+01 3.603726914704427031e+02
9.160000000000000853e+01 3.596475367656348681e+02
9.200000000000000000e+01 3.589270592316681245e+02
9.240000000000000568e+01 3.582112074931550865e+02
9.280000000000001137e+01 3.574999309721805503e+02
9.320000000000000284e+01 3.567931798723207066e+02
9.360000000000000853e+01 3.560909051630543445e+02
9.400000000000000000e+01 3.553930585645554743e+02
9.440000000000000568e+01 3.546995925328537851e+02
9.480000000000001137e+01 3.540104602453560574e+02
9.520000000000000284e+01 3.533256155867148891e+02
9.560000000000000853e+01 3.526450131350369475e+02
9.600000000000000000e+01 3.519686081484198894e+02
9.640000000000000568e+01 3.512963565518098221e+02
9.680000000000001137e+01 3.506282149241690149e+02
9.720000000000000284e+01 3.499641404859462455e+02
9.760000000000000853e+01 3.493040910868406854e+02
9.800000000000000000e+01 3.486480251938524475e+02
9.840000000000000568e+01 3.479959018796089936e+02
9.880000000000001137e+01 3.473476808109637659e+02
9.920000000000000284e+01 3.467033222378561845e+02
9.960000000000000853e+01 3.460627869824280651e+02
1.000000000000000000e+02 3.454260364283881017e+02
1.004000000000000057e+02 3.447930325106192413e+02
1.008000000000000114e+02 3.441637377050199689e+02
1.012000000000000028e+02 3.435381150185768888e+02
1.016000000000000085e+02 3.429161279796581425e+02
1.020000000000000000e+02 3.422977406285257302e+02
1.024000000000000057e+02 3.416829175080579262e+02
1.028000000000000114e+02 3.410716236546786604e+02
1.032000000000000028e+02 3.404638245894863644e+02
1.036000000000000085e+02 3.398594863095783012e+02
1.040000000000000000e+02 3.392585752795656049e+02
1.044000000000000057e+02 3.386610584232723227e+02
1.048000000000000114e+02 3.380669031156162418e+02
1.052000000000000028e+02 3.374760771746641694e+02
1.056000000000000085e+02 3.368885488538596746e+02
1.060000000000000000e+02 3.363042868344170984e+02
1.064000000000000057e+02 3.357232602178777370e+02
1.068000000000000114e+02 3.351454385188262677e+02
1.072000000000000028e+02 3.345707916577597416e+02
1.076000000000000085e+02 3.339992899541087468e+02
1.080000000000000000e+02 3.334309041194046586e+02
1.084000000000000057e+02 3.328656052505908747e+02
1.088000000000000114e+02 3.323033648234728616e+02
1.092000000000000028e+02 3.317441546863055351e+02
1.096000000000000085e+02 3.311879470535125165e+02
1.100000000000000000e+02 3.306347144995359031e+02
1.104000000000000057e+02 3.300844299528119450e+02
1.108000000000000114e+02 3.295370666898705849e+02
1.112000000000000028e+02 3.289925983295552783e+02
1.116000000000000085e+02 3.284509988273599106e+02
1.120000000000000000e+02 3.279122424698813347e+02
1.124000000000000057e+02 3.273763038693829230e+02
1.128000000000000114e+02 3.268431579584681685e+02
1.132000000000000028e+02 3.263127799848602422e+02
1.136000000000000085e+02 3.257851455062863124e+02
1.140000000000000000e+02 3.252602303854636148e+02
1.144000000000000057e+02 3.247380107851838602e+02
1.148000000000000114e+02 3.242184631634962670e+02
1.152000000000000028e+02 3.237015642689835886e+02
1.156000000000000085e+02 3.231872911361319325e+02
1.160000000000000000e+02 3.226756210807905063e+02
1.164000000000000057e+02 3.221665316957191294e+02
1.168000000000000114e+02 3.216600008462234541e+02
1.172000000000000028e+02 3.211560066658727237e+02
1.176000000000000085e+02 3.206545275523012606e+02
1.180000000000000000e+02 3.201555421630894216e+02
1.184000000000000057e+02 3.196590294117242479e+02
1.188000000000000114e+02 3.191649684636361144e+02
1.192000000000000028e+02 3.186733387323110378e+02
1.196000000000000085e+02 3.181841198754761990e+02
1.200000000000000000e+02 3.176972917913575429e+02
1.204000000000000057e+02 3.172128346150074663e+02
1.208000000000000114e+02 3.167307287147011152e+02
1.212000000000000028e+02 3.162509546883999292e+02
1.216000000000000085e+02 3.157734933602810088e+02
1.220000000000000000e+02 3.152983257773302057e+02
1.224000000000000057e+02 3.148254332059987064e+02
1.228000000000000114e+02 3.143547971289208931e+02
1.232000000000000028e+02 3.138863992416917768e+02
1.236000000000000085e+02 3.134202214497037176e+02
1.240000000000000000e+02 3.129562458650411827e+02
1.244000000000000057e+02 3.124944548034304717e+02
1.248000000000000114e+02 3.120348307812460575e+02
1.252000000000000028e+02 3.115773565125697360e+02
1.256000000000000085e+02 3.111220149063030931e+02
1.260000000000000000e+02 3.106687890633315874e+02
1.264000000000000057e+02 3.102176622737389948e+02
1.268000000000000114e+02 3.097686180140712509e+02
1.272000000000000028e+02 3.093216399446497462e+02
1.276000000000000085e+02 3.088767119069301543e+02
1.280000000000000000e+02 3.084338179209100872e+02
1.284000000000000057e+02 3.079929421825800091e+02
1.288000000000000114e+02 3.075540690614199661e+02
1.291999999999999886e+02 3.071171830979401420e+02
1.296000000000000227e+02 3.066822690012628527e+02
1.300000000000000000e+02 3.062493116467480831e+02
1.304000000000000057e+02 3.058182960736579616e+02
1.308000000000000114e+02 3.053892074828637533e+02
1.311999999999999886e+02 3.049620312345902562e+02
1.316000000000000227e+02 3.045367528461994198e+02
1.320000000000000000e+02 3.041133579900124460e+02
1.324000000000000057e+02 3.036918324911673608e+02
1.328000000000000114e+02 3.032721623255140457e+02
1.331999999999999886e+02 3.028543336175445120e+02
1.336000000000000227e+02 3.024383326383577923e+02
1.340000000000000000e+02 3.020241458036592235e+02
1.344000000000000057e+02 3.016117596717929246e+02
1.348000000000000114e+02 3.012011609418071885e+02
1.351999999999999886e+02 3.007923364515518756e+02
1.356000000000000227e+02 3.003852731758077539e+02
1.360000000000000000e+02 2.999799582244461362e+02
1.364000000000000057e+02 2.995763788406193839e+02
1.368000000000000114e+02 2.991745223989805140e+02
1.371999999999999886e+02 2.987743764039324788e+02
1.376000000000000227e+02 2.983759284879057532e+02
1.380000000000000000e+02 2.979791664096635486e+02
1.384000000000000057e+02 2.975840780526357321e+02
1.388000000000000114e+02 2.971906514232778704e+02
1.392000000000000171e+02 2.967988746494585257e+02
1.395999999999999943e+02 2.964087359788710501e+02
1.400000000000000000e+02 2.960202237774716423e+02
1.404000000000000057e+02 2.956333265279421312e+02
1.408000000000000114e+02 2.952480328281771449e+02
1.412000000000000171e+02 2.948643313897954386e+02
1.415999999999999943e+02 2.944822110366745846e+02
1.420000000000000000e+02 2.941016607035092534e+02
1.424000000000000057e+02 2.937226694343910367e+02
1.428000000000000114e+02 2.933452263814126582e+02
1.432000000000000171e+02 2.929693208032915663e+02
1.435999999999999943e+02 2.925949420640166636e+02
1.440000000000000000e+02 2.922220796315157827e+02
1.444000000000000057e+02 2.918507230763431721e+02
1.448000000000000114e+02 2.914808620703878432e+02
1.452000000000000171e+02 2.911124863856023808e+02
1.455999999999999943e+02 2.907455858927495456e+02
1.460000000000000000e+02 2.903801505601702502e+02
1.464000000000000057e+02 2.900161704525684172e+02
1.468000000000000114e+02 2.896536357298161306e+02
1.472000000000000171e+02 2.892925366457754421e+02
1.475999999999999943e+02 2.889328635471389362e+02
1.480000000000000000e+02 2.885746068722876316e+02
1.484000000000000057e+02 2.882177571501657667e+02
1.488000000000000114e+02 2.878623049991732614e+02
1.492000000000000171e+02 2.875082411260735853e+02
1.495999999999999943e+02 2.871555563249194734e+02
1.500000000000000000e+02 2.868042414759930239e+02
