1.000000000000000000e+01 6.232780211919299518e+02
1.040000000000000036e+01 6.605801232568126125e+02
1.080000000000000071e+01 6.722490583958644947e+02
1.119999999999999929e+01 6.893714553131211460e+02
1.159999999999999964e+01 7.205746833370196782e+02
1.200000000000000000e+01 7.178410732716341727e+02
1.240000000000000036e+01 7.063904616389295370e+02
1.280000000000000071e+01 7.244054625596958203e+02
1.319999999999999929e+01 7.263555244676355187e+02
1.359999999999999964e+01 7.366839402038556273e+02
1.400000000000000000e+01 7.293907198327973447e+02
1.440000000000000036e+01 7.164713729898475094e+02
1.480000000000000071e+01 7.043156315198644961e+02
1.519999999999999929e+01 6.928463274286292517e+02
1.560000000000000142e+01 6.819972976529975313e+02
1.600000000000000000e+01 6.717113677850467184e+02
1.639999999999999858e+01 6.619387839877288116e+02
1.680000000000000071e+01 6.526359768767052856e+02
1.719999999999999929e+01 6.437645753123003942e+02
1.760000000000000142e+01 6.352906110699473174e+02
1.800000000000000000e+01 6.271838712031366185e+02
1.839999999999999858e+01 6.194173660259415328e+02
1.880000000000000071e+01 6.119668885697402629e+02
1.920000000000000284e+01 6.048106471114786018e+02
1.960000000000000142e+01 5.979289565893683402e+02
2.000000000000000000e+01 5.913039778605407264e+02
2.039999999999999858e+01 5.849194961177628329e+02
2.080000000000000071e+01 5.787607315799300522e+02
2.120000000000000284e+01 5.728141769523911080e+02
2.160000000000000142e+01 5.670674572244103047e+02
2.200000000000000000e+01 5.615092082089303176e+02
2.239999999999999858e+01 5.561289708903241262e+02
2.280000000000000071e+01 5.509170991704212383e+02
2.320000000000000284e+01 5.458646790226080157e+02
2.360000000000000142e+01 5.409634574014842201e+02
2.400000000000000000e+01 5.362057795290168087e+02
2.439999999999999858e+01 5.315845334008627106e+02
2.480000000000000071e+01 5.270931005389322763e+02
2.520000000000000284e+01 5.227253121663935644e+02
2.560000000000000142e+01 5.184754101054959392e+02
2.600000000000000000e+01 5.143380118017695395e+02
2.640000000000000213e+01 5.103080789642616537e+02
2.680000000000000071e+01 5.063808893836359175e+02
2.719999999999999929e+01 5.025520115506597563e+02
2.760000000000000142e+01 4.988172817488847386e+02
2.800000000000000000e+01 4.951727833387675446e+02
2.840000000000000213e+01 4.916148279874429932e+02
2.880000000000000071e+01 4.881399386298838294e+02
2.920000000000000284e+01 4.847448339741790164e+02
2.960000000000000142e+01 4.814264143868313681e+02
3.000000000000000000e+01 4.781817490139263782e+02
3.040000000000000213e+01 4.750080640112543051e+02
3.080000000000000071e+01 4.719027317713802177e+02
3.120000000000000284e+01 4.688632610486031354e+02
3.160000000000000142e+01 4.658872878940105693e+02
3.200000000000000000e+01 4.629725673226579374e+02
3.240000000000000568e+01 4.601169656434952344e+02
3.279999999999999716e+01 4.573184533901893474e+02
3.320000000000000284e+01 4.545750987975927160e+02
3.360000000000000142e+01 4.518850617744375882e+02
3.400000000000000000e+01 4.492465883279452328e+02
3.440000000000000568e+01 4.466580054005833631e+02
3.479999999999999716e+01 4.441177160832049253e+02
3.520000000000000284e+01 4.416241951723583270e+02
3.560000000000000142e+01 4.391759850427177980e+02
3.600000000000000000e+01 4.367716918083887094e+02
3.640000000000000568e+01 4.344099817493488445e+02
3.679999999999999716e+01 4.320895779815210744e+02
3.720000000000000284e+01 4.298092573509704835e+02
3.760000000000000142e+01 4.275678475345088145e+02
3.800000000000000000e+01 4.253642243305948227e+02
3.840000000000000568e+01 4.231973091258598743e+02
3.879999999999999716e+01 4.210660665238824549e+02
3.920000000000000284e+01 4.189695021240063966e+02
3.960000000000000142e+01 4.169066604390476414e+02
4.000000000000000000e+01 4.148766229416838769e+02
4.040000000000000568e+01 4.128785062301859625e+02
4.079999999999999716e+01 4.109114603049204675e+02
4.120000000000000284e+01 4.089746669477643195e+02
4.160000000000000142e+01 4.070673381972095513e+02
4.200000000000000000e+01 4.051887149125151382e+02
4.239999999999999858e+01 4.033380654207964540e+02
4.280000000000000426e+01 4.015146842414199000e+02
4.320000000000000284e+01 3.997178908825084136e+02
4.360000000000000142e+01 3.979470287047687975e+02
4.400000000000000000e+01 3.962014638482104942e+02
4.439999999999999858e+01 3.944805842176634201e+02
4.480000000000000426e+01 3.927837985233073823e+02
4.520000000000000284e+01 3.911105353727058969e+02
4.560000000000000142e+01 3.894602424110914853e+02
4.600000000000000000e+01 3.878323855068879311e+02
4.639999999999999858e+01 3.862264479796702972e+02
4.680000000000000426e+01 3.846419298679612666e+02
4.720000000000000284e+01 3.830783472344455731e+02
4.760000000000000142e+01 3.815352315063559558e+02
4.800000000000000000e+01 3.800121288489311837e+02
4.840000000000000568e+01 3.785085995700010244e+02
4.880000000000000426e+01 3.770242175538746778e+02
4.920000000000000284e+01 3.755585697228386266e+02
4.960000000000000142e+01 3.741112555246762668e+02
5.000000000000000000e+01 3.726818864447348005e+02
5.040000000000000568e+01 3.712700855411504222e+02
5.080000000000000426e+01 3.698754870019417922e+02
5.120000000000000284e+01 3.684977357227598418e+02
5.160000000000000142e+01 3.671364869041603356e+02
5.200000000000000000e+01 3.657914056673367895e+02
5.240000000000000568e+01 3.644621666873166532e+02
5.280000000000000426e+01 3.631484538426894915e+02
5.320000000000000284e+01 3.618499598809867166e+02
5.360000000000000142e+01 3.605663860988914848e+02
5.400000000000000000e+01 3.592974420365056289e+02
5.440000000000000568e+01 3.580428451849438716e+02
5.480000000000000426e+01 3.568023207065736528e+02
5.520000000000000284e+01 3.555756011672553996e+02
5.560000000000000142e+01 3.543624262799776261e+02
5.600000000000000000e+01 3.531625426593159318e+02
5.640000000000000568e+01 3.519757035861767918e+02
5.680000000000000426e+01 3.508016687823212578e+02
5.720000000000000284e+01 3.496402041941868220e+02
5.760000000000000142e+01 3.484910817855578671e+02
5.800000000000000000e+01 3.473540793386573000e+02
5.840000000000000568e+01 3.462289802632576539e+02
5.880000000000000426e+01 3.451155734134290469e+02
5.920000000000000284e+01 3.440136529115650319e+02
5.960000000000000142e+01 3.429230179793473781e+02
6.000000000000000000e+01 3.418434727753239599e+02
6.040000000000000568e+01 3.407748262387991076e+02
6.080000000000000426e+01 3.397168919397439026e+02
6.120000000000000284e+01 3.386694879344552760e+02
6.160000000000000142e+01 3.376324366267035657e+02
6.200000000000000000e+01 3.366055646341220609e+02
6.240000000000000568e+01 3.355887026596072928e+02
6.280000000000000426e+01 3.345816853675063385e+02
6.320000000000000284e+01 3.335843512643829172e+02
6.360000000000000142e+01 3.325965425841619663e+02
6.400000000000000000e+01 3.316181051774635762e+02
6.440000000000000568e+01 3.306488884049453532e+02
6.480000000000001137e+01 3.296887450344842705e+02
6.520000000000000284e+01 3.287375311420317985e+02
6.559999999999999432e+01 3.277951060159912231e+02
6.600000000000000000e+01 3.268613320649667457e+02
6.640000000000000568e+01 3.259360747287468030e+02
6.680000000000001137e+01 3.250192023923850684e+02
6.720000000000000284e+01 3.241105863032551042e+02
6.759999999999999432e+01 3.232101004909549715e+02
6.800000000000000000e+01 3.223176216899481119e+02
6.840000000000000568e+01 3.214330292648289742e+02
6.880000000000001137e+01 3.205562051381089645e+02
6.920000000000000284e+01 3.196870337204231873e+02
6.959999999999999432e+01 3.188254018430609449e+02
7.000000000000000000e+01 3.179711986927296721e+02
7.040000000000000568e+01 3.171243157484653921e+02
7.080000000000001137e+01 3.162846467206057923e+02
7.120000000000000284e+01 3.154520874917464539e+02
7.159999999999999432e+01 3.146265360596044047e+02
7.200000000000000000e+01 3.138078924817169195e+02
7.240000000000000568e+01 3.129960588219051942e+02
7.280000000000001137e+01 3.121909390984366723e+02
7.320000000000000284e+01 3.113924392338229268e+02
7.359999999999999432e+01 3.106004670061918205e+02
7.400000000000000000e+01 3.098149320021757376e+02
7.440000000000000568e+01 3.090357455712608044e+02
7.479999999999999716e+01 3.082628207815421888e+02
7.520000000000000284e+01 3.074960723768365369e+02
7.560000000000000853e+01 3.067354167351000456e+02
7.600000000000000000e+01 3.059807718281080042e+02
7.640000000000000568e+01 3.052320571823471482e+02
7.679999999999999716e+01 3.044891938410823400e+02
7.720000000000000284e+01 3.037521043275514785e+02
7.760000000000000853e+01 3.030207126092515182e+02
7.800000000000000000e+01 3.022949440632784786e+02
7.840000000000000568e+01 3.015747254426807444e+02
7.879999999999999716e+01 3.008599848437956439e+02
7.920000000000000284e+01 3.001506516745315594e+02
7.960000000000000853e+01 2.994466566235652181e+02
8.000000000000000000e+01 2.987479316304226131e+02
8.040000000000000568e+01 2.980544098564134288e+02
8.079999999999999716e+01 2.973660256563906614e+02
8.120000000000000284e+01 2.966827145513071855e+02
8.160000000000000853e+01 2.960044132015433433e+02
8.200000000000000000e+01 2.953310593809795819e+02
8.240000000000000568e+01 2.946625919517902048e+02
8.279999999999999716e+01 2.939989508399330589e+02
8.320000000000000284e+01 2.933400770113152589e+02
8.360000000000000853e+01 2.926859124486092014e+02
8.400000000000000000e+01 2.920364001287022120e+02
8.440000000000000568e+01 2.913914840007548150e+02
8.479999999999999716e+01 2.907511089648526763e+02
8.520000000000000284e+01 2.901152208512298216e+02
8.560000000000000853e+01 2.894837664000473296e+02
8.600000000000000000e+01 2.888566932417079443e+02
8.640000000000000568e+01 2.882339498776926803e+02
8.680000000000001137e+01 2.876154856618999247e+02
8.720000000000000284e+01 2.870012507824738464e+02
8.760000000000000853e+01 2.863911962441052310e+02
8.800000000000000000e+01 2.857852738507925778e+02
8.840000000000000568e+01 2.851834361890463470e+02
8.880000000000001137e+01 2.845856366115253877e+02
8.920000000000000284e+01 2.839918292210909385e+02
8.960000000000000853e+01 2.834019688552666025e+02
9.000000000000000000e+01 2.828160110710915660e+02
9.040000000000000568e+01 2.822339121303551224e+02
9.080000000000001137e+01 2.816556289852017017e+02
9.120000000000000284e+01 2.810811192640954346e+02
9.160000000000000853e+01 2.805103412581325983e+02
9.200000000000000000e+01 2.799432539076938156e+02
9.240000000000000568e+01 2.793798167894235007e+02
9.280000000000001137e+01 2.788199901035295056e+02
9.320000000000000284e+01 2.782637346613919362e+02
9.360000000000000853e+01 2.777110118734728985e+02
9.400000000000000000e+01 2.771617837375189879e+02
9.440000000000000568e+01 2.766160128270473137e+02
9.480000000000001137e+01 2.760736622801073281e+02
9.520000000000000284e+01 2.755346957883113532e+02
9.560000000000000853e+01 2.749990775861248267e+02
9.600000000000000000e+01 2.744667724404100682e+02
9.640000000000000568e+01 2.739377456402169173e+02
9.680000000000001137e+01 2.734119629868112042e+02
9.720000000000000284e+01 2.728893907839373014e+02
9.760000000000000853e+01 2.723699958283064007e+02
9.800000000000000000e+01 2.718537454003047742e+02
9.840000000000000568e+01 2.713406072549158807e+02
9.880000000000001137e+01 2.708305496128517120e+02
9.920000000000000284e+01 2.703235411518856495e+02
9.960000000000000853e+01 2.698195509983829652e+02
1.000000000000000000e+02 2.693185487190227718e+02
1.004000000000000057e+02 2.688205043127077829e+02
1.008000000000000114e+02 2.683253882026542101e+02
1.012000000000000028e+02 2.678331712286598076e+02
1.016000000000000085e+02 2.673438246395438114e+02
1.020000000000000000e+02 2.668573200857542247e+02
1.024000000000000057e+02 2.663736296121390410e+02
1.028000000000000114e+02 2.658927256508761729e+02
1.032000000000000028e+02 2.654145810145585642e+02
1.036000000000000085e+02 2.649391688894293679e+02
1.040000000000000000e+02 2.644664628287658275e+02
1.044000000000000057e+02 2.639964367464045267e+02
1.048000000000000114e+02 2.635290649104078966e+02
1.052000000000000028e+02 2.630643219368653263e+02
1.056000000000000085e+02 2.626021827838279705e+02
1.060000000000000000e+02 2.621426227453724778e+02
1.064000000000000057e+02 2.616856174457901147e+02
1.068000000000000114e+02 2.612311428338998667e+02
1.072000000000000028e+02 2.607791751774801696e+02
1.076000000000000085e+02 2.603296910578179677e+02
1.080000000000000000e+02 2.598826673643719687e+02
1.084000000000000057e+02 2.594380812895464601e+02
1.088000000000000114e+02 2.589959103235734688e+02
1.092000000000000028e+02 2.585561322495011609e+02
1.096000000000000085e+02 2.581187251382848444e+02
1.100000000000000000e+02 2.576836673439786978e+02
1.104000000000000057e+02 2.572509374990260085e+02
1.108000000000000114e+02 2.568205145096449087e+02
1.112000000000000028e+02 2.563923775513072769e+02
1.116000000000000085e+02 2.559665060643100674e+02
1.120000000000000000e+02 2.555428797494344337e+02
1.124000000000000057e+02 2.551214785636926194e+02
1.128000000000000114e+02 2.547022827161595160e+02
1.132000000000000028e+02 2.542852726638872696e+02
1.136000000000000085e+02 2.538704291079004634e+02
1.140000000000000000e+02 2.534577329892713067e+02
1.144000000000000057e+02 2.530471654852706251e+02
1.148000000000000114e+02 2.526387080055959586e+02
1.152000000000000028e+02 2.522323421886715664e+02
1.156000000000000085e+02 2.518280498980223570e+02
1.160000000000000000e+02 2.514258132187163426e+02
1.164000000000000057e+02 2.510256144538768126e+02
1.168000000000000114e+02 2.506274361212619795e+02
1.172000000000000028e+02 2.502312609499089149e+02
1.176000000000000085e+02 2.498370718768430834e+02
1.180000000000000000e+02 2.494448520438497781e+02
1.184000000000000057e+02 2.490545847943070044e+02
1.188000000000000114e+02 2.486662536700782198e+02
1.192000000000000028e+02 2.482798424084637077e+02
1.196000000000000085e+02 2.478953349392092491e+02
1.200000000000000000e+02 2.475127153815708709e+02
1.204000000000000057e+02 2.471319680414339928e+02
1.208000000000000114e+02 2.467530774084866039e+02
1.212000000000000028e+02 2.463760281534443948e+02
1.216000000000000085e+02 2.460008051253273607e+02
1.220000000000000000e+02 2.456273933487864838e+02
1.224000000000000057e+02 2.452557780214793297e+02
1.228000000000000114e+02 2.448859445114938467e+02
1.232000000000000028e+02 2.445178783548187482e+02
1.236000000000000085e+02 2.441515652528600242e+02
1.240000000000000000e+02 2.437869910700025287e+02
1.244000000000000057e+02 2.434241418312149108e+02
1.248000000000000114e+02 2.430630037196986848e+02
1.252000000000000028e+02 2.427035630745780566e+02
1.256000000000000085e+02 2.423458063886322407e+02
1.260000000000000000e+02 2.419897203060671984e+02
1.264000000000000057e+02 2.416352916203275640e+02
1.268000000000000114e+02 2.412825072719465993e+02
1.272000000000000028e+02 2.409313543464348299e+02
1.276000000000000085e+02 2.405818200722048061e+02
1.280000000000000000e+02 2.402338918185331522e+02
1.284000000000000057e+02 2.398875570935574331e+02
1.288000000000000114e+02 2.395428035423081781e+02
1.291999999999999886e+02 2.391996189447752101e+02
1.296000000000000227e+02 2.388579912140067449e+02
1.300000000000000000e+02 2.385179083942421698e+02
1.304000000000000057e+02 2.381793586590758309e+02
1.308000000000000114e+02 2.378423303096531640e+02
1.311999999999999886e+02 2.375068117728972652e+02
1.316000000000000227e+02 2.371727915997649632e+02
1.320000000000000000e+02 2.368402584635340986e+02
1.324000000000000057e+02 2.365092011581177758e+02
1.328000000000000114e+02 2.361796085964086274e+02
1.331999999999999886e+02 2.358514698086496821e+02
1.336000000000000227e+02 2.355247739408334837e+02
1.340000000000000000e+02 2.351995102531275279e+02
1.344000000000000057e+02 2.348756681183255637e+02
1.348000000000000114e+02 2.345532370203251276e+02
1.351999999999999886e+02 2.342322065526299184e+02
1.356000000000000227e+02 2.339125664168772687e+02
1.360000000000000000e+02 2.335943064213890352e+02
1.364000000000000057e+02 2.332774164797473020e+02
1.368000000000000114e+02 2.329618866093923089e+02
1.371999999999999886e+02 2.326477069302441123e+02
1.376000000000000227e+02 2.323348676633458751e+02
1.380000000000000000e+02 2.320233591295298083e+02
1.384000000000000057e+02 2.317131717481039459e+02
1.388000000000000114e+02 2.314042960355608045e+02
1.392000000000000171e+02 2.310967226043060521e+02
1.395999999999999943e+02 2.307904421614080661e+02
1.400000000000000000e+02 2.304854455073671318e+02
1.404000000000000057e+02 2.301817235349041937e+02
1.408000000000000114e+02 2.298792672277693612e+02
1.412000000000000171e+02 2.295780676595682621e+02
1.415999999999999943e+02 2.292781159926079226e+02
1.420000000000000000e+02 2.289794034767599840e+02
1.424000000000000057e+02 2.286819214483422797e+02
1.428000000000000114e+02 2.283856613290176938e+02
1.432000000000000171e+02 2.280906146247100423e+02
1.435999999999999943e+02 2.277967729245372936e+02
1.440000000000000000e+02 2.275041278997604763e+02
1.444000000000000057e+02 2.272126713027494702e+02
1.448000000000000114e+02 2.269223949659649691e+02
1.452000000000000171e+02 2.266332908009551943e+02
1.455999999999999943e+02 2.263453507973687522e+02
1.460000000000000000e+02 2.260585670219821850e+02
1.464000000000000057e+02 2.257729316177423300e+02
1.468000000000000114e+02 2.254884368028237134e+02
1.472000000000000171e+02 2.252050748696994731e+02
1.475999999999999943e+02 2.249228381842268618e+02
1.480000000000000000e+02 2.246417191847462220e+02
1.484000000000000057e+02 2.243617103811938307e+02
1.488000000000000114e+02 2.240828043542277896e+02
1.492000000000000171e+02 2.238049937543666772e+02
1.495999999999999943e+02 2.235282713011418423e+02
1.500000000000000000e+02 2.232526297822614652e+02
