1.000000000000000000e+01 1.955158222842301541e+02
1.040000000000000036e+01 2.072742239296702849e+02
1.080000000000000071e+01 2.197215710451641257e+02
1.119999999999999929e+01 2.300910563163261600e+02
1.159999999999999964e+01 2.516576436308270104e+02
1.200000000000000000e+01 2.519359156788272571e+02
1.240000000000000036e+01 2.514719916003593880e+02
1.280000000000000071e+01 2.530879469389059295e+02
1.319999999999999929e+01 2.557629343307280578e+02
1.359999999999999964e+01 2.670139305277976973e+02
1.400000000000000000e+01 2.620015978715395022e+02
1.440000000000000036e+01 2.573157947785050510e+02
1.480000000000000071e+01 2.529201592593499015e+02
1.519999999999999929e+01 2.487840040274641922e+02
1.560000000000000142e+01 2.448811882224910619e+02
1.600000000000000000e+01 2.411892591002996369e+02
1.639999999999999858e+01 2.376887888749084254e+02
1.680000000000000071e+01 2.343628552584395379e+02
1.719999999999999929e+01 2.311966295546976653e+02
1.760000000000000142e+01 2.281770464349428948e+02
1.800000000000000000e+01 2.252925365642462339e+02
1.839999999999999858e+01 2.225328081627226311e+02
1.880000000000000071e+01 2.198886670774297727e+02
1.920000000000000284e+01 2.173518674588890462e+02
1.960000000000000142e+01 2.149149869779114965e+02
2.000000000000000000e+01 2.125713218826877551e+02
2.039999999999999858e+01 2.103147982186027320e+02
2.080000000000000071e+01 2.081398963078748352e+02
2.120000000000000284e+01 2.060415861788508494e+02
2.160000000000000142e+01 2.040152720925272547e+02
2.200000000000000000e+01 2.020567446704036456e+02
2.239999999999999858e+01 2.001621394077010336e+02
2.280000000000000071e+01 1.983279005774121515e+02
2.320000000000000284e+01 1.965507497070324234e+02
2.360000000000000142e+01 1.948276579512499040e+02
2.400000000000000000e+01 1.931558217979694518e+02
2.439999999999999858e+01 1.915326416376374823e+02
2.480000000000000071e+01 1.899557028013779529e+02
2.520000000000000284e+01 1.884227587354158118e+02
2.560000000000000142e+01 1.869317160303347691e+02
2.600000000000000000e+01 1.854806210660090073e+02
2.640000000000000213e+01 1.840676480682280101e+02
2.680000000000000071e+01 1.826910884024152608e+02
2.719999999999999929e+01 1.813493409544874737e+02
2.760000000000000142e+01 1.800409034696465937e+02
2.800000000000000000e+01 1.787643647374285933e+02
2.840000000000000213e+01 1.775183975261982141e+02
2.880000000000000071e+01 1.763017521829266343e+02
2.920000000000000284e+01 1.751132508248844033e+02
2.960000000000000142e+01 1.739517820591250938e+02
3.000000000000000000e+01 1.728162961735718568e+02
3.040000000000000213e+01 1.717058007503547401e+02
3.080000000000000071e+01 1.706193566579488277e+02
3.120000000000000284e+01 1.695560743837743587e+02
3.160000000000000142e+01 1.685151106733557071e+02
3.200000000000000000e+01 1.674956654459957122e+02
3.240000000000000568e+01 1.664969789602901642e+02
3.279999999999999716e+01 1.655183292057487279e+02
3.320000000000000284e+01 1.645590294993680516e+02
3.360000000000000142e+01 1.636184262682681947e+02
3.400000000000000000e+01 1.626958970014922556e+02
3.440000000000000568e+01 1.617908483558289561e+02
3.479999999999999716e+01 1.609027144020661240e+02
3.520000000000000284e+01 1.600309549994572080e+02
3.560000000000000142e+01 1.591750542873989502e+02
3.600000000000000000e+01 1.583345192843997609e+02
3.640000000000000568e+01 1.575088785853788238e+02
3.679999999999999716e+01 1.566976811491939827e+02
3.720000000000000284e+01 1.559004951690590701e+02
3.760000000000000142e+01 1.551169070191974697e+02
3.800000000000000000e+01 1.543465202716877798e+02
3.840000000000000568e+01 1.535889547780085991e+02
3.879999999999999716e+01 1.528438458102806408e+02
3.920000000000000284e+01 1.521108432576471614e+02
3.960000000000000142e+01 1.513896108736346378e+02
4.000000000000000000e+01 1.506798255706918326e+02
4.040000000000000568e+01 1.499811767584332074e+02
4.079999999999999716e+01 1.492933657224043884e+02
4.120000000000000284e+01 1.486161050404528510e+02
4.160000000000000142e+01 1.479491180340287997e+02
4.200000000000000000e+01 1.472921382519579083e+02
4.239999999999999858e+01 1.466449089844273885e+02
4.280000000000000426e+01 1.460071828051062539e+02
4.320000000000000284e+01 1.453787211394839574e+02
4.360000000000000142e+01 1.447592938576633799e+02
4.400000000000000000e+01 1.441486788899773899e+02
4.439999999999999858e+01 1.435466618639262606e+02
4.480000000000000426e+01 1.429530357610428837e+02
4.520000000000000284e+01 1.423676005924010042e+02
4.560000000000000142e+01 1.417901630915736462e+02
4.600000000000000000e+01 1.412205364239384267e+02
4.639999999999999858e+01 1.406585399113054677e+02
4.680000000000000426e+01 1.401039987709177979e+02
4.720000000000000284e+01 1.395567438679412362e+02
4.760000000000000142e+01 1.390166114806237943e+02
4.800000000000000000e+01 1.384834430773607608e+02
4.840000000000000568e+01 1.379570851049556666e+02
4.880000000000000426e+01 1.374373887874151023e+02
4.920000000000000284e+01 1.369242099346602402e+02
4.960000000000000142e+01 1.364174087605802015e+02
5.000000000000000000e+01 1.359168497098899877e+02
5.040000000000000568e+01 1.354224012932911023e+02
5.080000000000000426e+01 1.349339359304667596e+02
5.120000000000000284e+01 1.344513298004721378e+02
5.160000000000000142e+01 1.339744626991110863e+02
5.200000000000000000e+01 1.335032179029133772e+02
5.240000000000000568e+01 1.330374820393541597e+02
5.280000000000000426e+01 1.325771449629775702e+02
5.320000000000000284e+01 1.321220996371079082e+02
5.360000000000000142e+01 1.316722420208524795e+02
5.400000000000000000e+01 1.312274709611162393e+02
5.440000000000000568e+01 1.307876880893667533e+02
5.480000000000000426e+01 1.303527977229038299e+02
5.520000000000000284e+01 1.299227067704012484e+02
5.560000000000000142e+01 1.294973246415036101e+02
5.600000000000000000e+01 1.290765631602729115e+02
5.640000000000000568e+01 1.286603364822916831e+02
5.680000000000000426e+01 1.282485610152405116e+02
5.720000000000000284e+01 1.278411553427787908e+02
5.760000000000000142e+01 1.274380401515662982e+02
5.800000000000000000e+01 1.270391381612732005e+02
5.840000000000000568e+01 1.266443740574342058e+02
5.880000000000000426e+01 1.262536744270104094e+02
5.920000000000000284e+01 1.258669676965305655e+02
5.960000000000000142e+01 1.254841840726897146e+02
6.000000000000000000e+01 1.251052554852902290e+02
6.040000000000000568e+01 1.247301155324164199e+02
6.080000000000000426e+01 1.243586994277396229e+02
6.120000000000000284e+01 1.239909439498560033e+02
6.160000000000000142e+01 1.236267873935650812e+02
6.200000000000000000e+01 1.232661695230005705e+02
6.240000000000000568e+01 1.229090315265314359e+02
6.280000000000000426e+01 1.225553159733534301e+02
6.320000000000000284e+01 1.222049667716972863e+02
6.360000000000000142e+01 1.218579291285813326e+02
6.400000000000000000e+01 1.215141495110430441e+02
6.440000000000000568e+01 1.211735756087833522e+02
6.480000000000001137e+01 1.208361562981647666e+02
6.520000000000000284e+01 1.205018416075043888e+02
6.559999999999999432e+01 1.201705826836071935e+02
6.600000000000000000e+01 1.198423317594874504e+02
6.640000000000000568e+01 1.195170421232284639e+02
6.680000000000001137e+01 1.191946680879329676e+02
6.720000000000000284e+01 1.188751649627196514e+02
6.759999999999999432e+01 1.185584890247224337e+02
6.800000000000000000e+01 1.182445974920516107e+02
6.840000000000000568e+01 1.179334484976784552e+02
6.880000000000001137e+01 1.176250010642051365e+02
6.920000000000000284e+01 1.173192150794852751e+02
6.959999999999999432e+01 1.170160512730611231e+02
7.000000000000000000e+01 1.167154711933849285e+02
7.040000000000000568e+01 1.164174371857937444e+02
7.080000000000001137e+01 1.161219123712086230e+02
7.120000000000000284e+01 1.158288606255293871e+02
7.159999999999999432e+01 1.155382465596990471e+02
7.200000000000000000e+01 1.152500355004111725e+02
7.240000000000000568e+01 1.149641934714368716e+02
7.280000000000001137e+01 1.146806871755469928e+02
7.320000000000000284e+01 1.143994839770074350e+02
7.359999999999999432e+01 1.141205518846264226e+02
7.400000000000000000e+01 1.138438595353327685e+02
7.440000000000000568e+01 1.135693761782658555e+02
7.479999999999999716e+01 1.132970716593580391e+02
7.520000000000000284e+01 1.130269164063922460e+02
7.560000000000000853e+01 1.127588814145165657e+02
7.600000000000000000e+01 1.124929382322001743e+02
7.640000000000000568e+01 1.122290589476141065e+02
7.679999999999999716e+01 1.119672161754220809e+02
7.720000000000000284e+01 1.117073830439665301e+02
7.760000000000000853e+01 1.114495331828361486e+02
7.800000000000000000e+01 1.111936407108014464e+02
7.840000000000000568e+01 1.109396802241052029e+02
7.879999999999999716e+01 1.106876267850959152e+02
7.920000000000000284e+01 1.104374559111920746e+02
7.960000000000000853e+01 1.101891435641661161e+02
8.000000000000000000e+01 1.099426661397368719e+02
8.040000000000000568e+01 1.096980004574602106e+02
8.079999999999999716e+01 1.094551237509078021e+02
8.120000000000000284e+01 1.092140136581240455e+02
8.160000000000000853e+01 1.089746482123523776e+02
8.200000000000000000e+01 1.087370058330213283e+02
8.240000000000000568e+01 1.085010653169822774e+02
8.279999999999999716e+01 1.082668058299903748e+02
8.320000000000000284e+01 1.080342068984205355e+02
8.360000000000000853e+01 1.078032484012112491e+02
8.400000000000000000e+01 1.075739105620282885e+02
8.440000000000000568e+01 1.073461739416416378e+02
8.479999999999999716e+01 1.071200194305087336e+02
8.520000000000000284e+01 1.068954282415570560e+02
8.560000000000000853e+01 1.066723819031603284e+02
8.600000000000000000e+01 1.064508622523017038e+02
8.640000000000000568e+01 1.062308514279182390e+02
8.680000000000001137e+01 1.060123318644211281e+02
8.720000000000000284e+01 1.057952862853858278e+02
8.760000000000000853e+01 1.055796976974073118e+02
8.800000000000000000e+01 1.053655493841148996e+02
8.840000000000000568e+01 1.051528249003420399e+02
8.880000000000001137e+01 1.049415080664462039e+02
8.920000000000000284e+01 1.047315829627743682e+02
8.960000000000000853e+01 1.045230339242695550e+02
9.000000000000000000e+01 1.043158455352144927e+02
9.040000000000000568e+01 1.041100026241078069e+02
9.080000000000001137e+01 1.039054902586693032e+02
9.120000000000000284e+01 1.037022937409700631e+02
9.160000000000000853e+01 1.035003986026839442e+02
9.200000000000000000e+01 1.032997906004569018e+02
9.240000000000000568e+01 1.031004557113903672e+02
9.280000000000001137e+01 1.029023801286359685e+02
9.320000000000000284e+01 1.027055502570974568e+02
9.360000000000000853e+01 1.025099527092379503e+02
9.400000000000000000e+01 1.023155743009880041e+02
9.440000000000000568e+01 1.021224020477531838e+02
9.480000000000001137e+01 1.019304231605169377e+02
9.520000000000000284e+01 1.017396250420368915e+02
9.560000000000000853e+01 1.015499952831317074e+02
9.600000000000000000e+01 1.013615216590558958e+02
9.640000000000000568e+01 1.011741921259600758e+02
9.680000000000001137e+01 1.009879948174345259e+02
9.720000000000000284e+01 1.008029180411335517e+02
9.760000000000000853e+01 1.006189502754782836e+02
9.800000000000000000e+01 1.004360801664361702e+02
9.840000000000000568e+01 1.002542965243746949e+02
9.880000000000001137e+01 1.000735883209873123e+02
9.920000000000000284e+01 9.989394468628998425e+01
9.960000000000000853e+01 9.971535490568598448e+01
1.000000000000000000e+02 9.953780841709729543e+01
1.004000000000000057e+02 9.936129480816104831e+01
1.008000000000000114e+02 9.918580381348871811e+01
1.012000000000000028e+02 9.901132531198707909e+01
1.016000000000000085e+02 9.883784932423864689e+01
1.020000000000000000e+02 9.866536600994064088e+01
1.024000000000000057e+02 9.849386566540027843e+01
1.028000000000000114e+02 9.832333872108554829e+01
1.032000000000000028e+02 9.815377573922970100e+01
1.036000000000000085e+02 9.798516741148787901e+01
1.040000000000000000e+02 9.781750455664510469e+01
1.044000000000000057e+02 9.765077811837377908e+01
1.048000000000000114e+02 9.748497916303946909e+01
1.052000000000000028e+02 9.732009887755431521e+01
1.056000000000000085e+02 9.715612856727591407e+01
1.060000000000000000e+02 9.699305965395143403e+01
1.064000000000000057e+02 9.683088367370518768e+01
1.068000000000000114e+02 9.666959227506895047e+01
1.072000000000000028e+02 9.650917721705367569e+01
1.076000000000000085e+02 9.634963036726189500e+01
1.080000000000000000e+02 9.619094370003935524e+01
1.084000000000000057e+02 9.603310929466547918e+01
1.088000000000000114e+02 9.587611933358103045e+01
1.092000000000000028e+02 9.571996610065284017e+01
1.096000000000000085e+02 9.556464197947389039e+01
1.100000000000000000e+02 9.541013945169851240e+01
1.104000000000000057e+02 9.525645109541157751e+01
1.108000000000000114e+02 9.510356958353094114e+01
1.112000000000000028e+02 9.495148768224201774e+01
1.116000000000000085e+02 9.480019824946441531e+01
1.120000000000000000e+02 9.464969423334923704e+01
1.124000000000000057e+02 9.449996867080636775e+01
1.128000000000000114e+02 9.435101468606148956e+01
1.132000000000000028e+02 9.420282548924166122e+01
1.136000000000000085e+02 9.405539437498890720e+01
1.140000000000000000e+02 9.390871472110141838e+01
1.144000000000000057e+02 9.376277998720127016e+01
1.148000000000000114e+02 9.361758371342838814e+01
1.152000000000000028e+02 9.347311951916012163e+01
1.156000000000000085e+02 9.332938110175550150e+01
1.160000000000000000e+02 9.318636223532423912e+01
1.164000000000000057e+02 9.304405676951915893e+01
1.168000000000000114e+02 9.290245862835217849e+01
1.172000000000000028e+02 9.276156180903279846e+01
1.176000000000000085e+02 9.262136038082893208e+01
1.180000000000000000e+02 9.248184848394947721e+01
1.184000000000000057e+02 9.234302032844809105e+01
1.188000000000000114e+02 9.220487019314748522e+01
1.192000000000000028e+02 9.206739242458448302e+01
1.196000000000000085e+02 9.193058143597440335e+01
1.200000000000000000e+02 9.179443170619515513e+01
1.204000000000000057e+02 9.165893777879017534e+01
1.208000000000000114e+02 9.152409426098995482e+01
1.212000000000000028e+02 9.138989582275164025e+01
1.216000000000000085e+02 9.125633719581639980e+01
1.220000000000000000e+02 9.112341317278418273e+01
1.224000000000000057e+02 9.099111860620541847e+01
1.228000000000000114e+02 9.085944840768922859e+01
1.232000000000000028e+02 9.072839754702812343e+01
1.236000000000000085e+02 9.059796105133827382e+01
1.240000000000000000e+02 9.046813400421564211e+01
1.244000000000000057e+02 9.033891154490710562e+01
1.248000000000000114e+02 9.021028886749658682e+01
1.252000000000000028e+02 9.008226122010586323e+01
1.256000000000000085e+02 8.995482390410927565e+01
1.260000000000000000e+02 8.982797227336293133e+01
1.264000000000000057e+02 8.970170173344713760e+01
1.268000000000000114e+02 8.957600774092246354e+01
1.272000000000000028e+02 8.945088580259884736e+01
1.276000000000000085e+02 8.932633147481749347e+01
1.280000000000000000e+02 8.920234036274543143e+01
1.284000000000000057e+02 8.907890811968233891e+01
1.288000000000000114e+02 8.895603044637937273e+01
1.291999999999999886e+02 8.883370309036988033e+01
1.296000000000000227e+02 8.871192184531163605e+01
1.300000000000000000e+02 8.859068255034046047e+01
1.304000000000000057e+02 8.846998108943479622e+01
1.308000000000000114e+02 8.834981339079133988e+01
1.311999999999999886e+02 8.823017542621123255e+01
1.316000000000000227e+02 8.811106321049663848e+01
1.320000000000000000e+02 8.799247280085771195e+01
1.324000000000000057e+02 8.787440029632932692e+01
1.328000000000000114e+02 8.775684183719795328e+01
1.331999999999999886e+02 8.763979360443799749e+01
1.336000000000000227e+02 8.752325181915725238e+01
1.340000000000000000e+02 8.740721274205236568e+01
1.344000000000000057e+02 8.729167267287266441e+01
1.348000000000000114e+02 8.717662794989320219e+01
1.351999999999999886e+02 8.706207494939637570e+01
1.356000000000000227e+02 8.694801008516225238e+01
1.360000000000000000e+02 8.683442980796709776e+01
1.364000000000000057e+02 8.672133060509028724e+01
1.368000000000000114e+02 8.660870899982907645e+01
1.371999999999999886e+02 8.649656155102141497e+01
1.376000000000000227e+02 8.638488485257647653e+01
1.380000000000000000e+02 8.627367553301282044e+01
1.384000000000000057e+02 8.616293025500382896e+01
1.388000000000000114e+02 8.605264571493077597e+01
1.392000000000000171e+02 8.594281864244265989e+01
1.395999999999999943e+02 8.583344580002355428e+01
1.400000000000000000e+02 8.572452398256629635e+01
1.404000000000000057e+02 8.561605001695349415e+01
1.408000000000000114e+02 8.550802076164481491e+01
1.412000000000000171e+02 8.540043310627095252e+01
1.415999999999999943e+02 8.529328397123391881e+01
1.420000000000000000e+02 8.518657030731367286e+01
1.424000000000000057e+02 8.508028909528084682e+01
1.428000000000000114e+02 8.497443734551561079e+01
1.432000000000000171e+02 8.486901209763246356e+01
1.435999999999999943e+02 8.476401042011065101e+01
1.440000000000000000e+02 8.465942940993055288e+01
1.444000000000000057e+02 8.455526619221564033e+01
1.448000000000000114e+02 8.445151791987987622e+01
1.452000000000000171e+02 8.434818177328050126e+01
1.455999999999999943e+02 8.424525495987617774e+01
1.460000000000000000e+02 8.414273471389043380e+01
1.464000000000000057e+02 8.404061829598009581e+01
1.468000000000000114e+02 8.393890299290887924e+01
1.472000000000000171e+02 8.383758611722572596e+01
1.475999999999999943e+02 8.373666500694821480e+01
1.480000000000000000e+02 8.363613702525063331e+01
1.484000000000000057e+02 8.353599956015673911e+01
1.488000000000000114e+02 8.343625002423705439e+01
1.492000000000000171e+02 8.333688585431082174e+01
1.495999999999999943e+02 8.323790451115232258e+01
1.500000000000000000e+02 8.313930347920145891e+01
