1.000000000000000000e+01 6.264030963941748951e+02
1.040000000000000036e+01 6.768103222272911808e+02
1.080000000000000071e+01 7.106706829482085368e+02
1.119999999999999929e+01 7.543148108324803616e+02
1.159999999999999964e+01 7.934780700484189992e+02
1.200000000000000000e+01 8.630149140160822299e+02
1.240000000000000036e+01 9.117901184312970599e+02
1.280000000000000071e+01 1.010553580462592890e+03
1.319999999999999929e+01 1.070848544074231313e+03
1.359999999999999964e+01 1.156598358547689259e+03
1.400000000000000000e+01 1.151986032496358575e+03
1.440000000000000036e+01 1.129675782160456720e+03
1.480000000000000071e+01 1.108893956848972039e+03
1.519999999999999929e+01 1.089462047380214472e+03
1.560000000000000142e+01 1.071230427925031336e+03
1.600000000000000000e+01 1.054072483335205561e+03
1.639999999999999858e+01 1.037880154648729103e+03
1.680000000000000071e+01 1.022560510601324836e+03
1.719999999999999929e+01 1.008033074047525815e+03
1.760000000000000142e+01 9.942277123032359896e+02
1.800000000000000000e+01 9.810829545441789605e+02
1.839999999999999858e+01 9.685446366551584561e+02
1.880000000000000071e+01 9.565648000179405699e+02
1.920000000000000284e+01 9.451007892837457121e+02
1.960000000000000142e+01 9.341145075641561561e+02
2.000000000000000000e+01 9.235717972587951863e+02
2.039999999999999858e+01 9.134419219755975519e+02
2.080000000000000071e+01 9.036971304125929692e+02
2.120000000000000284e+01 8.943122871606634590e+02
2.160000000000000142e+01 8.852645585075292729e+02
2.200000000000000000e+01 8.765331437255285891e+02
2.239999999999999858e+01 8.680990441904779118e+02
2.280000000000000071e+01 8.599448641376820888e+02
2.320000000000000284e+01 8.520546380107888353e+02
2.360000000000000142e+01 8.444136802714489249e+02
2.400000000000000000e+01 8.370084542663644243e+02
2.439999999999999858e+01 8.298264573338590253e+02
2.480000000000000071e+01 8.228561198054035231e+02
2.520000000000000284e+01 8.160867159422192572e+02
2.560000000000000142e+01 8.095082851613767616e+02
2.600000000000000000e+01 8.031115621638743960e+02
2.640000000000000213e+01 7.968879147900732960e+02
2.680000000000000071e+01 7.908292886042900136e+02
2.719999999999999929e+01 7.849281573571711306e+02
2.760000000000000142e+01 7.791774785971673509e+02
2.800000000000000000e+01 7.735706538053573240e+02
2.840000000000000213e+01 7.681014925145444749e+02
2.880000000000000071e+01 7.627641799467918418e+02
2.920000000000000284e+01 7.575532477656826131e+02
2.960000000000000142e+01 7.524635475924245611e+02
3.000000000000000000e+01 7.474902269800302292e+02
3.040000000000000213e+01 7.426287075784046010e+02
3.080000000000000071e+01 7.378746652563299904e+02
3.120000000000000284e+01 7.332240119748721554e+02
3.160000000000000142e+01 7.286728792313786016e+02
3.200000000000000000e+01 7.242176029145666689e+02
3.240000000000000568e+01 7.198547094297059630e+02
3.279999999999999716e+01 7.155809029690075249e+02
3.320000000000000284e+01 7.113930538163556321e+02
3.360000000000000142e+01 7.072881875878115352e+02
3.400000000000000000e+01 7.032634753200304658e+02
3.440000000000000568e+01 6.993162243281996098e+02
3.479999999999999716e+01 6.954438697633687525e+02
3.520000000000000284e+01 6.916439668063750332e+02
3.560000000000000142e+01 6.879141834420082660e+02
3.600000000000000000e+01 6.842522937627733199e+02
3.640000000000000568e+01 6.806561717566688685e+02
3.679999999999999716e+01 6.771237855378878976e+02
3.720000000000000284e+01 6.736531919833468010e+02
3.760000000000000142e+01 6.702425317415039672e+02
3.800000000000000000e+01 6.668900245831007396e+02
3.840000000000000568e+01 6.635939650663018483e+02
3.879999999999999716e+01 6.603527184912455823e+02
3.920000000000000284e+01 6.571647171212890726e+02
3.960000000000000142e+01 6.540284566502846246e+02
4.000000000000000000e+01 6.509424928970461224e+02
4.040000000000000568e+01 6.479054387098307188e+02
4.079999999999999716e+01 6.449159610651402090e+02
4.120000000000000284e+01 6.419727783464963977e+02
4.160000000000000142e+01 6.390746577900573584e+02
4.200000000000000000e+01 6.362204130850404908e+02
4.239999999999999858e+01 6.334089021179147494e+02
4.280000000000000426e+01 6.306390248502273153e+02
4.320000000000000284e+01 6.279097213207451205e+02
4.360000000000000142e+01 6.252199697633461710e+02
4.400000000000000000e+01 6.225687848327627307e+02
4.439999999999999858e+01 6.199552159309048420e+02
4.480000000000000426e+01 6.173783456270492707e+02
4.520000000000000284e+01 6.148372881656980553e+02
4.560000000000000142e+01 6.123311880563787781e+02
4.600000000000000000e+01 6.098592187400834064e+02
4.639999999999999858e+01 6.074205813274488719e+02
4.680000000000000426e+01 6.050145034041250938e+02
4.720000000000000284e+01 6.026402378991239175e+02
4.760000000000000142e+01 6.002970620122338232e+02
4.800000000000000000e+01 5.979842761968697005e+02
4.840000000000000568e+01 5.957012031949836910e+02
4.880000000000000426e+01 5.934471871208954781e+02
4.920000000000000284e+01 5.912215925911229988e+02
4.960000000000000142e+01 5.890238038974880510e+02
5.000000000000000000e+01 5.868532242209651031e+02
5.040000000000000568e+01 5.847092748839049818e+02
5.080000000000000426e+01 5.825913946384248447e+02
5.120000000000000284e+01 5.804990389889060225e+02
5.160000000000000142e+01 5.784316795466681924e+02
5.200000000000000000e+01 5.763888034150232897e+02
5.240000000000000568e+01 5.743699126030188609e+02
5.280000000000000426e+01 5.723745234662962957e+02
5.320000000000000284e+01 5.704021661735823727e+02
5.360000000000000142e+01 5.684523841974305469e+02
5.400000000000000000e+01 5.665247338279127689e+02
5.440000000000000568e+01 5.646187837080384497e+02
5.480000000000000426e+01 5.627341143897606344e+02
5.520000000000000284e+01 5.608703179094903817e+02
5.560000000000000142e+01 5.590269973821086751e+02
5.600000000000000000e+01 5.572037666125260102e+02
5.640000000000000568e+01 5.554002497238951719e+02
5.680000000000000426e+01 5.536160808016331885e+02
5.720000000000000284e+01 5.518509035524625688e+02
5.760000000000000142e+01 5.501043709777197819e+02
5.800000000000000000e+01 5.483761450602313516e+02
5.840000000000000568e+01 5.466658964640904514e+02
5.880000000000000426e+01 5.449733042467055384e+02
5.920000000000000284e+01 5.432980555825322426e+02
5.960000000000000142e+01 5.416398454979264443e+02
6.000000000000000000e+01 5.399983766165918269e+02
6.040000000000000568e+01 5.383733589151216847e+02
6.080000000000000426e+01 5.367645094881634122e+02
6.120000000000000284e+01 5.351715523227554741e+02
6.160000000000000142e+01 5.335942180814204221e+02
6.200000000000000000e+01 5.320322438936045728e+02
6.240000000000000568e+01 5.304853731550936118e+02
6.280000000000000426e+01 5.289533553350366901e+02
6.320000000000000284e+01 5.274359457902444319e+02
6.360000000000000142e+01 5.259329055864320708e+02
6.400000000000000000e+01 5.244440013261062177e+02
6.440000000000000568e+01 5.229690049827974008e+02
6.480000000000001137e+01 5.215076937413698488e+02
6.520000000000000284e+01 5.200598498441376023e+02
6.559999999999999432e+01 5.186252604425440040e+02
6.600000000000000000e+01 5.172037174541629838e+02
6.640000000000000568e+01 5.157950174247989708e+02
6.680000000000001137e+01 5.143989613954697688e+02
6.720000000000000284e+01 5.130153547740681006e+02
6.759999999999999432e+01 5.116440072115080397e+02
6.800000000000000000e+01 5.102847324821712505e+02
6.840000000000000568e+01 5.089373483684757389e+02
6.880000000000001137e+01 5.076016765494002811e+02
6.920000000000000284e+01 5.062775424928047414e+02
6.959999999999999432e+01 5.049647753513918360e+02
7.000000000000000000e+01 5.036632078621665300e+02
7.040000000000000568e+01 5.023726762492540274e+02
7.080000000000001137e+01 5.010930201299429996e+02
7.120000000000000284e+01 4.998240824238278606e+02
7.159999999999999432e+01 4.985657092649301489e+02
7.200000000000000000e+01 4.973177499166822031e+02
7.240000000000000568e+01 4.960800566896650707e+02
7.280000000000001137e+01 4.948524848619925933e+02
7.320000000000000284e+01 4.936348926022432124e+02
7.359999999999999432e+01 4.924271408948424096e+02
7.400000000000000000e+01 4.912290934678032386e+02
7.440000000000000568e+01 4.900406167227383207e+02
7.479999999999999716e+01 4.888615796670571285e+02
7.520000000000000284e+01 4.876918538482691474e+02
7.560000000000000853e+01 4.865313132903155520e+02
7.600000000000000000e+01 4.853798344318545332e+02
7.640000000000000568e+01 4.842372960664305310e+02
7.679999999999999716e+01 4.831035792844592152e+02
7.720000000000000284e+01 4.819785674169615959e+02
7.760000000000000853e+01 4.808621459809875205e+02
7.800000000000000000e+01 4.797542026266662560e+02
7.840000000000000568e+01 4.786546270858286221e+02
7.879999999999999716e+01 4.775633111221438298e+02
7.920000000000000284e+01 4.764801484827196418e+02
7.960000000000000853e+01 4.754050348511153175e+02
8.000000000000000000e+01 4.743378678017158450e+02
8.040000000000000568e+01 4.732785467554257366e+02
8.079999999999999716e+01 4.722269729366315687e+02
8.120000000000000284e+01 4.711830493313955230e+02
8.160000000000000853e+01 4.701466806468342838e+02
8.200000000000000000e+01 4.691177732716466835e+02
8.240000000000000568e+01 4.680962352377485445e+02
8.279999999999999716e+01 4.670819761829817480e+02
8.320000000000000284e+01 4.660749073148581942e+02
8.360000000000000853e+01 4.650749413753077306e+02
8.400000000000000000e+01 4.640819926063952607e+02
8.440000000000000568e+01 4.630959767169756560e+02
8.479999999999999716e+01 4.621168108502582754e+02
8.520000000000000284e+01 4.611444135522488637e+02
8.560000000000000853e+01 4.601787047410421110e+02
8.600000000000000000e+01 4.592196056769381585e+02
8.640000000000000568e+01 4.582670389333566163e+02
8.680000000000001137e+01 4.573209283685220043e+02
8.720000000000000284e+01 4.563811990978983317e+02
8.760000000000000853e+01 4.554477774673466683e+02
8.800000000000000000e+01 4.545205910269866649e+02
8.840000000000000568e+01 4.535995685057369542e+02
8.880000000000001137e+01 4.526846397865161293e+02
8.920000000000000284e+01 4.517757358820817899e+02
8.960000000000000853e+01 4.508727889114904883e+02
9.000000000000000000e+01 4.499757320771577156e+02
9.040000000000000568e+01 4.490844996425016120e+02
9.080000000000001137e+01 4.481990269101510194e+02
9.120000000000000284e+01 4.473192502007026974e+02
9.160000000000000853e+01 4.464451068320101399e+02
9.200000000000000000e+01 4.455765350989892113e+02
9.240000000000000568e+01 4.447134742539239483e+02
9.280000000000001137e+01 4.438558644872602486e+02
9.320000000000000284e+01 4.430036469088701097e+02
9.360000000000000853e+01 4.421567635297755032e+02
9.400000000000000000e+01 4.413151572443169925e+02
9.440000000000000568e+01 4.404787718127548146e+02
9.480000000000001137e+01 4.396475518442898078e+02
9.520000000000000284e+01 4.388214427804921343e+02
9.560000000000000853e+01 4.380003908791271670e+02
9.600000000000000000e+01 4.371843431983656956e+02
9.640000000000000568e+01 4.363732475813687302e+02
9.680000000000001137e+01 4.355670526412365007e+02
9.720000000000000284e+01 4.347657077463105679e+02
9.760000000000000853e+01 4.339691630058196665e+02
9.800000000000000000e+01 4.331773692558610946e+02
9.840000000000000568e+01 4.323902780457057133e+02
9.880000000000001137e+01 4.316078416244195637e+02
9.920000000000000284e+01 4.308300129277943142e+02
9.960000000000000853e+01 4.300567455655743174e+02
1.000000000000000000e+02 4.292879938089775465e+02
1.004000000000000057e+02 4.285237125784981345e+02
1.008000000000000114e+02 4.277638574319846043e+02
1.012000000000000028e+02 4.270083845529871951e+02
1.016000000000000085e+02 4.262572507393653041e+02
1.020000000000000000e+02 4.255104133921503831e+02
1.024000000000000057e+02 4.247678305046549667e+02
1.028000000000000114e+02 4.240294606518235696e+02
1.032000000000000028e+02 4.232952629798184603e+02
1.036000000000000085e+02 4.225651971958326953e+02
1.040000000000000000e+02 4.218392235581274576e+02
1.044000000000000057e+02 4.211173028662851152e+02
1.048000000000000114e+02 4.203993964516742494e+02
1.052000000000000028e+02 4.196854661681196035e+02
1.056000000000000085e+02 4.189754743827742800e+02
1.060000000000000000e+02 4.182693839671854903e+02
1.064000000000000057e+02 4.175671582885523208e+02
1.068000000000000114e+02 4.168687612011688088e+02
1.072000000000000028e+02 4.161741570380477810e+02
1.076000000000000085e+02 4.154833106027217582e+02
1.080000000000000000e+02 4.147961871612152436e+02
1.084000000000000057e+02 4.141127524341858930e+02
1.088000000000000114e+02 4.134329725892287684e+02
1.092000000000000028e+02 4.127568142333402648e+02
1.096000000000000085e+02 4.120842444055376745e+02
1.100000000000000000e+02 4.114152305696316034e+02
1.104000000000000057e+02 4.107497406071449859e+02
1.108000000000000114e+02 4.100877428103786997e+02
1.112000000000000028e+02 4.094292058756166170e+02
1.116000000000000085e+02 4.087740988964694679e+02
1.120000000000000000e+02 4.081223913573530808e+02
1.124000000000000057e+02 4.074740531270969086e+02
1.128000000000000114e+02 4.068290544526819872e+02
1.132000000000000028e+02 4.061873659531029830e+02
1.136000000000000085e+02 4.055489586133530224e+02
1.140000000000000000e+02 4.049138037785270399e+02
1.144000000000000057e+02 4.042818731480421661e+02
1.148000000000000114e+02 4.036531387699721449e+02
1.152000000000000028e+02 4.030275730354914003e+02
1.156000000000000085e+02 4.024051486734293803e+02
1.160000000000000000e+02 4.017858387449294355e+02
1.164000000000000057e+02 4.011696166382120623e+02
1.168000000000000114e+02 4.005564560634396685e+02
1.172000000000000028e+02 3.999463310476785409e+02
1.176000000000000085e+02 3.993392159299594368e+02
1.180000000000000000e+02 3.987350853564312843e+02
1.184000000000000057e+02 3.981339142756079355e+02
1.188000000000000114e+02 3.975356779337042212e+02
1.192000000000000028e+02 3.969403518700609652e+02
1.196000000000000085e+02 3.963479119126559453e+02
1.200000000000000000e+02 3.957583341736993816e+02
1.204000000000000057e+02 3.951715950453108803e+02
1.208000000000000114e+02 3.945876711952786309e+02
1.212000000000000028e+02 3.940065395628956821e+02
1.216000000000000085e+02 3.934281773548743217e+02
1.220000000000000000e+02 3.928525620413355455e+02
1.224000000000000057e+02 3.922796713518723095e+02
1.228000000000000114e+02 3.917094832716849169e+02
1.232000000000000028e+02 3.911419760377871171e+02
1.236000000000000085e+02 3.905771281352804749e+02
1.240000000000000000e+02 3.900149182936976899e+02
1.244000000000000057e+02 3.894553254834106610e+02
1.248000000000000114e+02 3.888983289121042048e+02
1.252000000000000028e+02 3.883439080213125294e+02
1.256000000000000085e+02 3.877920424830176671e+02
1.260000000000000000e+02 3.872427121963091849e+02
1.264000000000000057e+02 3.866958972841025570e+02
1.268000000000000114e+02 3.861515780899156880e+02
1.272000000000000028e+02 3.856097351747033599e+02
1.276000000000000085e+02 3.850703493137460214e+02
1.280000000000000000e+02 3.845334014935936011e+02
1.284000000000000057e+02 3.839988729090636639e+02
1.288000000000000114e+02 3.834667449602902138e+02
1.291999999999999886e+02 3.829369992498257034e+02
1.296000000000000227e+02 3.824096175797907335e+02
1.300000000000000000e+02 3.818845819490758799e+02
1.304000000000000057e+02 3.813618745505891638e+02
1.308000000000000114e+02 3.808414777685518402e+02
1.311999999999999886e+02 3.803233741758408542e+02
1.316000000000000227e+02 3.798075465313747259e+02
1.320000000000000000e+02 3.792939777775464449e+02
1.324000000000000057e+02 3.787826510376978035e+02
1.328000000000000114e+02 3.782735496136365327e+02
1.331999999999999886e+02 3.777666569831966399e+02
1.336000000000000227e+02 3.772619567978375699e+02
1.340000000000000000e+02 3.767594328802857717e+02
1.344000000000000057e+02 3.762590692222133839e+02
1.348000000000000114e+02 3.757608499819569943e+02
1.351999999999999886e+02 3.752647594822735186e+02
1.356000000000000227e+02 3.747707822081332552e+02
1.360000000000000000e+02 3.742789028045494888e+02
1.364000000000000057e+02 3.737891060744431115e+02
1.368000000000000114e+02 3.733013769765429402e+02
1.371999999999999886e+02 3.728157006233195716e+02
1.376000000000000227e+02 3.723320622789531171e+02
1.380000000000000000e+02 3.718504473573344740e+02
1.384000000000000057e+02 3.713708414200976335e+02
1.388000000000000114e+02 3.708932301746845042e+02
1.392000000000000171e+02 3.704175994724411680e+02
1.395999999999999943e+02 3.699439353067436969e+02
1.400000000000000000e+02 3.694722238111540946e+02
1.404000000000000057e+02 3.690024512576065376e+02
1.408000000000000114e+02 3.685346040546211270e+02
1.412000000000000171e+02 3.680686687455468018e+02
1.415999999999999943e+02 3.676046320068314799e+02
1.420000000000000000e+02 3.671424806463194273e+02
1.424000000000000057e+02 3.666822016015757981e+02
1.428000000000000114e+02 3.662237819382369253e+02
1.432000000000000171e+02 3.657672088483864172e+02
1.435999999999999943e+02 3.653124696489567214e+02
1.440000000000000000e+02 3.648595517801547885e+02
1.444000000000000057e+02 3.644084428039133172e+02
1.448000000000000114e+02 3.639591304023643943e+02
1.452000000000000171e+02 3.635116023763382032e+02
1.455999999999999943e+02 3.630658466438828782e+02
1.460000000000000000e+02 3.626218512388085742e+02
1.464000000000000057e+02 3.621796043092529089e+02
1.468000000000000114e+02 3.617390941162686318e+02
1.472000000000000171e+02 3.613003090324320397e+02
1.475999999999999943e+02 3.608632375404731647e+02
1.480000000000000000e+02 3.604278682319262543e+02
1.484000000000000057e+02 3.599941898058000334e+02
1.488000000000000114e+02 3.595621910672692820e+02
1.492000000000000171e+02 3.591318609263842063e+02
1.495999999999999943e+02 3.587031883968005559e+02
1.500000000000000000e+02 3.582761625945273636e+02
