1.000000000000000000e+01 5.071719094592352803e+02
1.040000000000000036e+01 5.365895084867697733e+02
1.080000000000000071e+01 5.647984106946091742e+02
1.119999999999999929e+01 5.916280691350925736e+02
1.159999999999999964e+01 6.350474070561026565e+02
1.200000000000000000e+01 6.965262921203242286e+02
1.240000000000000036e+01 7.442477763931476602e+02
1.280000000000000071e+01 9.040501235035351328e+02
1.319999999999999929e+01 9.796287643987177489e+02
1.359999999999999964e+01 1.061362965914195229e+03
1.400000000000000000e+01 1.085897555785830491e+03
1.440000000000000036e+01 1.091971690374453146e+03
1.480000000000000071e+01 1.088693431499014196e+03
1.519999999999999929e+01 1.067089954722265475e+03
1.560000000000000142e+01 1.046923748810189181e+03
1.600000000000000000e+01 1.028033599657892182e+03
1.639999999999999858e+01 1.010283300688269264e+03
1.680000000000000071e+01 9.935567728557772398e+02
1.719999999999999929e+01 9.777543181396333694e+02
1.760000000000000142e+01 9.627897042581336109e+02
1.800000000000000000e+01 9.485878685737551450e+02
1.839999999999999858e+01 9.350830897914286197e+02
1.880000000000000071e+01 9.222175176046818024e+02
1.920000000000000284e+01 9.099399794310697871e+02
1.960000000000000142e+01 8.982050039273444781e+02
2.000000000000000000e+01 8.869720157571784966e+02
2.039999999999999858e+01 8.762046668617474552e+02
2.080000000000000071e+01 8.658702774383189080e+02
2.120000000000000284e+01 8.559393657705112446e+02
2.160000000000000142e+01 8.463852505338953733e+02
2.200000000000000000e+01 8.371837126134390701e+02
2.239999999999999858e+01 8.283127060928343326e+02
2.280000000000000071e+01 8.197521101096760958e+02
2.320000000000000284e+01 8.114835148598341448e+02
2.360000000000000142e+01 8.034900362856026277e+02
2.400000000000000000e+01 7.957561549741514000e+02
2.439999999999999858e+01 7.882675755843724801e+02
2.480000000000000071e+01 7.810111037558125417e+02
2.520000000000000284e+01 7.739745379667449470e+02
2.560000000000000142e+01 7.671465742253668623e+02
2.600000000000000000e+01 7.605167218185288220e+02
2.640000000000000213e+01 7.540752286217193614e+02
2.680000000000000071e+01 7.478130147043226543e+02
2.719999999999999929e+01 7.417216131548872227e+02
2.760000000000000142e+01 7.357931172097789840e+02
2.800000000000000000e+01 7.300201329010888003e+02
2.840000000000000213e+01 7.243957365507490067e+02
2.880000000000000071e+01 7.189134365313182116e+02
2.920000000000000284e+01 7.135671387928671265e+02
2.960000000000000142e+01 7.083511157223340433e+02
3.000000000000000000e+01 7.032599779586500972e+02
3.040000000000000213e+01 6.982886488354859011e+02
3.080000000000000071e+01 6.934323411650379967e+02
3.120000000000000284e+01 6.886865361119241697e+02
3.160000000000000142e+01 6.840469639369605375e+02
3.200000000000000000e+01 6.795095864170755249e+02
3.240000000000000568e+01 6.750705807705301140e+02
3.279999999999999716e+01 6.707263249365119009e+02
3.320000000000000284e+01 6.664733840754277026e+02
3.360000000000000142e+01 6.623084981713238903e+02
3.400000000000000000e+01 6.582285706309921807e+02
3.440000000000000568e+01 6.542306577858693117e+02
3.479999999999999716e+01 6.503119592129345392e+02
3.520000000000000284e+01 6.464698087997057883e+02
3.560000000000000142e+01 6.427016664862676407e+02
3.600000000000000000e+01 6.390051106241720618e+02
3.640000000000000568e+01 6.353778308981704868e+02
3.679999999999999716e+01 6.318176217621501110e+02
3.720000000000000284e+01 6.283223763454503796e+02
3.760000000000000142e+01 6.248900807900180325e+02
3.800000000000000000e+01 6.215188089826474425e+02
3.840000000000000568e+01 6.182067176499674588e+02
3.879999999999999716e+01 6.149520417868479853e+02
3.920000000000000284e+01 6.117530903916278930e+02
3.960000000000000142e+01 6.086082424839856913e+02
4.000000000000000000e+01 6.055159433834596712e+02
4.040000000000000568e+01 6.024747012285873780e+02
4.079999999999999716e+01 5.994830837183880021e+02
4.120000000000000284e+01 5.965397150595121047e+02
4.160000000000000142e+01 5.936432731038090651e+02
4.200000000000000000e+01 5.907924866623584421e+02
4.239999999999999858e+01 5.879861329831860530e+02
4.280000000000000426e+01 5.852230353809445660e+02
4.320000000000000284e+01 5.825020610077973515e+02
4.360000000000000142e+01 5.798221187556238192e+02
4.400000000000000000e+01 5.771821572804517473e+02
4.439999999999999858e+01 5.745811631407450477e+02
4.480000000000000426e+01 5.720181590418363839e+02
4.520000000000000284e+01 5.694922021793873910e+02
4.560000000000000142e+01 5.670023826753116509e+02
4.600000000000000000e+01 5.645478221000895473e+02
4.639999999999999858e+01 5.621276720758660304e+02
4.680000000000000426e+01 5.597411129551372824e+02
4.720000000000000284e+01 5.573873525702146026e+02
4.760000000000000142e+01 5.550656250490084176e+02
4.800000000000000000e+01 5.527751896929935356e+02
4.840000000000000568e+01 5.505153299135158704e+02
4.880000000000000426e+01 5.482853522228731435e+02
4.920000000000000284e+01 5.460845852768474060e+02
4.960000000000000142e+01 5.439123789656069903e+02
5.000000000000000000e+01 5.417681035500983171e+02
5.040000000000000568e+01 5.396511488412535300e+02
5.080000000000000426e+01 5.375609234195106865e+02
5.120000000000000284e+01 5.354968538923219512e+02
5.160000000000000142e+01 5.334583841874683685e+02
5.200000000000000000e+01 5.314449748801534952e+02
5.240000000000000568e+01 5.294561025519711848e+02
5.280000000000000426e+01 5.274912591799741222e+02
5.320000000000000284e+01 5.255499515541750952e+02
5.360000000000000142e+01 5.236317007219270181e+02
5.400000000000000000e+01 5.217360414577192387e+02
5.440000000000000568e+01 5.198625217570207724e+02
5.480000000000000426e+01 5.180107023528884156e+02
5.520000000000000284e+01 5.161801562541318162e+02
5.560000000000000142e+01 5.143704683039051133e+02
5.600000000000000000e+01 5.125812347576589900e+02
5.640000000000000568e+01 5.108120628794567324e+02
5.680000000000000426e+01 5.090625705557090441e+02
5.720000000000000284e+01 5.073323859254454078e+02
5.760000000000000142e+01 5.056211470262857119e+02
5.800000000000000000e+01 5.039285014553290125e+02
5.840000000000000568e+01 5.022541060442176786e+02
5.880000000000000426e+01 5.005976265476792832e+02
5.920000000000000284e+01 4.989587373448861740e+02
5.960000000000000142e+01 4.973371211530150617e+02
6.000000000000000000e+01 4.957324687524141495e+02
6.040000000000000568e+01 4.941444787228280688e+02
6.080000000000000426e+01 4.925728571901545365e+02
6.120000000000000284e+01 4.910173175832354104e+02
6.160000000000000142e+01 4.894775804002181872e+02
6.200000000000000000e+01 4.879533729840391061e+02
6.240000000000000568e+01 4.864444293066119371e+02
6.280000000000000426e+01 4.849504897613223307e+02
6.320000000000000284e+01 4.834713009634515402e+02
6.360000000000000142e+01 4.820066155581735643e+02
6.400000000000000000e+01 4.805561920357856138e+02
6.440000000000000568e+01 4.791197945538497720e+02
6.480000000000001137e+01 4.776971927659453172e+02
6.520000000000000284e+01 4.762881616567358947e+02
6.559999999999999432e+01 4.748924813830823837e+02
6.600000000000000000e+01 4.735099371209373089e+02
6.640000000000000568e+01 4.721403189177742661e+02
6.680000000000001137e+01 4.707834215503144151e+02
6.720000000000000284e+01 4.694390443873284653e+02
6.759999999999999432e+01 4.681069912572986027e+02
6.800000000000000000e+01 4.667870703207385077e+02
6.840000000000000568e+01 4.654790939469777413e+02
6.880000000000001137e+01 4.641828785952257022e+02
6.920000000000000284e+01 4.628982446997420652e+02
6.959999999999999432e+01 4.616250165589436847e+02
7.000000000000000000e+01 4.603630222282907880e+02
7.040000000000000568e+01 4.591120934167995529e+02
7.080000000000001137e+01 4.578720653870375941e+02
7.120000000000000284e+01 4.566427768584621845e+02
7.159999999999999432e+01 4.554240699139704702e+02
7.200000000000000000e+01 4.542157899095362268e+02
7.240000000000000568e+01 4.530177853868126476e+02
7.280000000000001137e+01 4.518299079885849778e+02
7.320000000000000284e+01 4.506520123769656720e+02
7.359999999999999432e+01 4.494839561542254387e+02
7.400000000000000000e+01 4.483255997861600122e+02
7.440000000000000568e+01 4.471768065278986342e+02
7.479999999999999716e+01 4.460374423520601113e+02
7.520000000000000284e+01 4.449073758791694218e+02
7.560000000000000853e+01 4.437864783102533579e+02
7.600000000000000000e+01 4.426746233615305641e+02
7.640000000000000568e+01 4.415716872011223586e+02
7.679999999999999716e+01 4.404775483877099873e+02
7.720000000000000284e+01 4.393920878110662898e+02
7.760000000000000853e+01 4.383151886343954970e+02
7.800000000000000000e+01 4.372467362384167586e+02
7.840000000000000568e+01 4.361866181671270510e+02
7.879999999999999716e+01 4.351347240751862842e+02
7.920000000000000284e+01 4.340909456768655446e+02
7.960000000000000853e+01 4.330551766965057823e+02
8.000000000000000000e+01 4.320273128204308364e+02
8.040000000000000568e+01 4.310072516502685858e+02
8.079999999999999716e+01 4.299948926576280996e+02
8.120000000000000284e+01 4.289901371400881089e+02
8.160000000000000853e+01 4.279928881784514942e+02
8.200000000000000000e+01 4.270030505952230442e+02
8.240000000000000568e+01 4.260205309142685337e+02
8.279999999999999716e+01 4.250452373216163551e+02
8.320000000000000284e+01 4.240770796273629912e+02
8.360000000000000853e+01 4.231159692286454401e+02
8.400000000000000000e+01 4.221618190736465976e+02
8.440000000000000568e+01 4.212145436265964236e+02
8.479999999999999716e+01 4.202740588337410372e+02
8.520000000000000284e+01 4.193402820902440453e+02
8.560000000000000853e+01 4.184131322079923052e+02
8.600000000000000000e+01 4.174925293842752581e+02
8.640000000000000568e+01 4.165783951713123656e+02
8.680000000000001137e+01 4.156706524465982397e+02
8.720000000000000284e+01 4.147692253840424428e+02
8.760000000000000853e+01 4.138740394258772994e+02
8.800000000000000000e+01 4.129850212553097322e+02
8.840000000000000568e+01 4.121020987698944964e+02
8.880000000000001137e+01 4.112252010556055666e+02
8.920000000000000284e+01 4.103542583615847548e+02
8.960000000000000853e+01 4.094892020755457338e+02
9.000000000000000000e+01 4.086299646998151047e+02
9.040000000000000568e+01 4.077764798279884531e+02
9.080000000000001137e+01 4.069286821221857622e+02
9.120000000000000284e+01 4.060865072908848674e+02
9.160000000000000853e+01 4.052498920673189104e+02
9.200000000000000000e+01 4.044187741884173874e+02
9.240000000000000568e+01 4.035930923742780578e+02
9.280000000000001137e+01 4.027727863081508985e+02
9.320000000000000284e+01 4.019577966169211436e+02
9.360000000000000853e+01 4.011480648520758905e+02
9.400000000000000000e+01 4.003435334711398355e+02
9.440000000000000568e+01 3.995441458195670634e+02
9.480000000000001137e+01 3.987498461130752503e+02
9.520000000000000284e+01 3.979605794204102267e+02
9.560000000000000853e+01 3.971762916465270337e+02
9.600000000000000000e+01 3.963969295161776358e+02
9.640000000000000568e+01 3.956224405578914798e+02
9.680000000000001137e+01 3.948527730883398021e+02
9.720000000000000284e+01 3.940878761970715232e+02
9.760000000000000853e+01 3.933276997316102097e+02
9.800000000000000000e+01 3.925721942829039790e+02
9.840000000000000568e+01 3.918213111711150987e+02
9.880000000000001137e+01 3.910750024317431439e+02
9.920000000000000284e+01 3.903332208020708549e+02
9.960000000000000853e+01 3.895959197079237697e+02
1.000000000000000000e+02 3.888630532507353337e+02
1.004000000000000057e+02 3.881345761949104372e+02
1.008000000000000114e+02 3.874104439554758983e+02
1.012000000000000028e+02 3.866906125860145949e+02
1.016000000000000085e+02 3.859750387668714211e+02
1.020000000000000000e+02 3.852636797936268636e+02
1.024000000000000057e+02 3.845564935658294416e+02
1.028000000000000114e+02 3.838534385759805900e+02
1.032000000000000028e+02 3.831544738987653886e+02
1.036000000000000085e+02 3.824595591805221488e+02
1.040000000000000000e+02 3.817686546289458533e+02
1.044000000000000057e+02 3.810817210030170372e+02
1.048000000000000114e+02 3.803987196031537792e+02
1.052000000000000028e+02 3.797196122615762306e+02
1.056000000000000085e+02 3.790443613328836250e+02
1.060000000000000000e+02 3.783729296848334229e+02
1.064000000000000057e+02 3.777052806893208299e+02
1.068000000000000114e+02 3.770413782135516954e+02
1.072000000000000028e+02 3.763811866114047007e+02
1.076000000000000085e+02 3.757246707149777194e+02
1.080000000000000000e+02 3.750717958263138598e+02
1.084000000000000057e+02 3.744225277093028126e+02
1.088000000000000114e+02 3.737768325817527852e+02
1.092000000000000028e+02 3.731346771076283062e+02
1.096000000000000085e+02 3.724960283894521922e+02
1.100000000000000000e+02 3.718608539608638353e+02
1.104000000000000057e+02 3.712291217793325586e+02
1.108000000000000114e+02 3.706008002190228581e+02
1.112000000000000028e+02 3.699758580638048215e+02
1.116000000000000085e+02 3.693542645004090446e+02
1.120000000000000000e+02 3.687359891117214374e+02
1.124000000000000057e+02 3.681210018702140019e+02
1.128000000000000114e+02 3.675092731315091328e+02
1.132000000000000028e+02 3.669007736280748873e+02
1.136000000000000085e+02 3.662954744630452524e+02
1.140000000000000000e+02 3.656933471041663779e+02
1.144000000000000057e+02 3.650943633778626349e+02
1.148000000000000114e+02 3.644984954634213636e+02
1.152000000000000028e+02 3.639057158872922173e+02
1.156000000000000085e+02 3.633159975175003638e+02
1.160000000000000000e+02 3.627293135581687693e+02
1.164000000000000057e+02 3.621456375441481441e+02
1.168000000000000114e+02 3.615649433357522184e+02
1.172000000000000028e+02 3.609872051135951665e+02
1.176000000000000085e+02 3.604123973735296431e+02
1.180000000000000000e+02 3.598404949216819091e+02
1.184000000000000057e+02 3.592714728695839312e+02
1.188000000000000114e+02 3.587053066293976826e+02
1.192000000000000028e+02 3.581419719092314722e+02
1.196000000000000085e+02 3.575814447085451775e+02
1.200000000000000000e+02 3.570237013136436417e+02
1.204000000000000057e+02 3.564687182932539145e+02
1.208000000000000114e+02 3.559164724941875875e+02
1.212000000000000028e+02 3.553669410370832225e+02
1.216000000000000085e+02 3.548201013122292125e+02
1.220000000000000000e+02 3.542759309754649735e+02
1.224000000000000057e+02 3.537344079441573399e+02
1.228000000000000114e+02 3.531955103932529596e+02
1.232000000000000028e+02 3.526592167514020275e+02
1.236000000000000085e+02 3.521255056971546651e+02
1.240000000000000000e+02 3.515943561552264782e+02
1.244000000000000057e+02 3.510657472928327252e+02
1.248000000000000114e+02 3.505396585160889344e+02
1.252000000000000028e+02 3.500160694664770062e+02
1.256000000000000085e+02 3.494949600173756039e+02
1.260000000000000000e+02 3.489763102706529025e+02
1.264000000000000057e+02 3.484601005533202169e+02
1.268000000000000114e+02 3.479463114142462814e+02
1.272000000000000028e+02 3.474349236209301353e+02
1.276000000000000085e+02 3.469259181563307948e+02
1.280000000000000000e+02 3.464192762157537686e+02
1.284000000000000057e+02 3.459149792037925977e+02
1.288000000000000114e+02 3.454130087313241688e+02
1.291999999999999886e+02 3.449133466125568361e+02
1.296000000000000227e+02 3.444159748621300992e+02
1.300000000000000000e+02 3.439208756922655539e+02
1.304000000000000057e+02 3.434280315099662744e+02
1.308000000000000114e+02 3.429374249142656481e+02
1.311999999999999886e+02 3.424490386935242441e+02
1.316000000000000227e+02 3.419628558227710187e+02
1.320000000000000000e+02 3.414788594610934069e+02
1.324000000000000057e+02 3.409970329490694780e+02
1.328000000000000114e+02 3.405173598062449400e+02
1.331999999999999886e+02 3.400398237286534027e+02
1.336000000000000227e+02 3.395644085863777377e+02
1.340000000000000000e+02 3.390910984211535606e+02
1.344000000000000057e+02 3.386198774440132979e+02
1.348000000000000114e+02 3.381507300329682266e+02
1.351999999999999886e+02 3.376836407307309855e+02
1.356000000000000227e+02 3.372185942424757741e+02
1.360000000000000000e+02 3.367555754336353857e+02
1.364000000000000057e+02 3.362945693277348482e+02
1.368000000000000114e+02 3.358355611042616715e+02
1.371999999999999886e+02 3.353785360965698032e+02
1.376000000000000227e+02 3.349234797898196234e+02
1.380000000000000000e+02 3.344703778189506806e+02
1.384000000000000057e+02 3.340192159666876819e+02
1.388000000000000114e+02 3.335699801615794513e+02
1.392000000000000171e+02 3.331226564760693805e+02
1.395999999999999943e+02 3.326772311245969149e+02
1.400000000000000000e+02 3.322336904617301343e+02
1.404000000000000057e+02 3.317920209803283456e+02
1.408000000000000114e+02 3.313522093097338370e+02
1.412000000000000171e+02 3.309142422139929067e+02
1.415999999999999943e+02 3.304781065901050852e+02
1.420000000000000000e+02 3.300437894663002680e+02
1.424000000000000057e+02 3.296112780003430203e+02
1.428000000000000114e+02 3.291805594778644490e+02
1.432000000000000171e+02 3.287516213107189742e+02
1.435999999999999943e+02 3.283244510353681562e+02
1.440000000000000000e+02 3.278990363112897057e+02
1.444000000000000057e+02 3.274753649194104810e+02
1.448000000000000114e+02 3.270534247605650648e+02
1.452000000000000171e+02 3.266332038539774771e+02
1.455999999999999943e+02 3.262146903357669316e+02
1.460000000000000000e+02 3.257978724574763305e+02
1.464000000000000057e+02 3.253827385846230982e+02
1.468000000000000114e+02 3.249692771952739463e+02
1.472000000000000171e+02 3.245574768786389086e+02
1.475999999999999943e+02 3.241473263336889090e+02
1.480000000000000000e+02 3.237388143677939070e+02
1.484000000000000057e+02 3.233319298953805401e+02
1.488000000000000114e+02 3.229266619366125042e+02
1.492000000000000171e+02 3.225229996160879296e+02
1.495999999999999943e+02 3.221209321615590397e+02
1.500000000000000000e+02 3.217204489026692045e+02
