1.000000000000000000e+01 1.788968669370250097e+02
1.040000000000000036e+01 1.921645276011090573e+02
1.080000000000000071e+01 2.079037881605398468e+02
1.119999999999999929e+01 2.172756786055189764e+02
1.159999999999999964e+01 2.098688638495291912e+02
1.200000000000000000e+01 2.033337040071871513e+02
1.240000000000000036e+01 1.946705214322438735e+02
1.280000000000000071e+01 1.893452420856370395e+02
1.319999999999999929e+01 1.845019449249624870e+02
1.359999999999999964e+01 1.800869353770046644e+02
1.400000000000000000e+01 1.761128092256678315e+02
1.440000000000000036e+01 1.715718500431548534e+02
1.480000000000000071e+01 1.680555179434591935e+02
1.519999999999999929e+01 1.647765737471168848e+02
1.560000000000000142e+01 1.617084160010078620e+02
1.600000000000000000e+01 1.588285576550648557e+02
1.639999999999999858e+01 1.561095851620601422e+02
1.680000000000000071e+01 1.535354422550372817e+02
1.719999999999999929e+01 1.510998591227286454e+02
1.760000000000000142e+01 1.352384987087609431e+02
1.800000000000000000e+01 1.331548655854368519e+02
1.839999999999999858e+01 1.311846714196248911e+02
1.880000000000000071e+01 1.279122308373105170e+02
1.920000000000000284e+01 1.261687401717203727e+02
1.960000000000000142e+01 1.245115904659356545e+02
2.000000000000000000e+01 1.229185451255904127e+02
2.039999999999999858e+01 1.213854130732226508e+02
2.080000000000000071e+01 1.199083895869147796e+02
2.120000000000000284e+01 1.184840104177322786e+02
2.160000000000000142e+01 1.171074791340010535e+02
2.200000000000000000e+01 1.157670852213580588e+02
2.239999999999999858e+01 1.144715419691697775e+02
2.280000000000000071e+01 1.132183209470182703e+02
2.320000000000000284e+01 1.120050940015403000e+02
2.360000000000000142e+01 1.108297128877573527e+02
2.400000000000000000e+01 1.096863147512518566e+02
2.439999999999999858e+01 1.084280087016532548e+02
2.480000000000000071e+01 1.072402048584432634e+02
2.520000000000000284e+01 1.060431966699898538e+02
2.560000000000000142e+01 1.048822621377507289e+02
2.600000000000000000e+01 1.037555991675510825e+02
2.640000000000000213e+01 1.020953960599902928e+02
2.680000000000000071e+01 1.010453832090392723e+02
2.719999999999999929e+01 1.000247223980546636e+02
2.760000000000000142e+01 9.903205452153314070e+01
2.800000000000000000e+01 9.806439831132276197e+01
2.840000000000000213e+01 9.712164475122300189e+01
2.880000000000000071e+01 9.620336804202486292e+01
2.920000000000000284e+01 9.530851738073936019e+01
2.960000000000000142e+01 9.443610452068949712e+01
3.000000000000000000e+01 9.358519903151554331e+01
3.040000000000000213e+01 9.275492399358086004e+01
3.080000000000000071e+01 9.194445208023594773e+01
3.120000000000000284e+01 9.115300198708730761e+01
3.160000000000000142e+01 9.046076387001467367e+01
3.200000000000000000e+01 9.006880028899477963e+01
3.240000000000000568e+01 8.934500047742335482e+01
3.279999999999999716e+01 8.863715314629629916e+01
3.320000000000000284e+01 8.794467669936111065e+01
3.360000000000000142e+01 8.726701898633324106e+01
3.400000000000000000e+01 8.660127352339380025e+01
3.440000000000000568e+01 8.594168486162911336e+01
3.479999999999999716e+01 8.529569403576533659e+01
3.520000000000000284e+01 8.466432828339856087e+01
3.560000000000000142e+01 8.404975001027527526e+01
3.600000000000000000e+01 8.344722795343810162e+01
3.640000000000000568e+01 8.285637063185465934e+01
3.679999999999999716e+01 8.418223078161766182e+01
3.720000000000000284e+01 8.369150516853443378e+01
3.760000000000000142e+01 8.320913168789428482e+01
3.800000000000000000e+01 8.273487234720168715e+01
3.840000000000000568e+01 8.226849864645909349e+01
3.879999999999999716e+01 8.180979109282522188e+01
3.920000000000000284e+01 8.125322497021738855e+01
3.960000000000000142e+01 8.081213990084975762e+01
4.000000000000000000e+01 8.037501622303861382e+01
4.040000000000000568e+01 7.994477142800177205e+01
4.079999999999999716e+01 7.952122426812884726e+01
4.120000000000000284e+01 7.910420017917464008e+01
4.160000000000000142e+01 7.869353096434537065e+01
4.200000000000000000e+01 7.828905449655047732e+01
4.239999999999999858e+01 7.789061443759338488e+01
4.280000000000000426e+01 7.749597175556901618e+01
4.320000000000000284e+01 7.710346166628188769e+01
4.360000000000000142e+01 7.671669736493308278e+01
4.400000000000000000e+01 7.633553816078095622e+01
4.439999999999999858e+01 7.595984818243572079e+01
4.480000000000000426e+01 7.576900677037072285e+01
4.520000000000000284e+01 7.540990068643627353e+01
4.560000000000000142e+01 7.505576992782113166e+01
4.600000000000000000e+01 7.470649904004133646e+01
4.639999999999999858e+01 7.436197631840083488e+01
4.680000000000000426e+01 7.402209365180885925e+01
4.720000000000000284e+01 7.375080495142040604e+01
4.760000000000000142e+01 7.342356239898447257e+01
4.800000000000000000e+01 7.310056736181833514e+01
4.840000000000000568e+01 7.278172748507218159e+01
4.880000000000000426e+01 7.246695322490333524e+01
4.920000000000000284e+01 7.215470341275231192e+01
4.960000000000000142e+01 7.187520118830255456e+01
5.000000000000000000e+01 7.156002668054826188e+01
5.040000000000000568e+01 7.124885427356589673e+01
5.080000000000000426e+01 7.094159911479005132e+01
5.120000000000000284e+01 7.063817886713086125e+01
5.160000000000000142e+01 7.033851361335057106e+01
5.200000000000000000e+01 7.004303346611081338e+01
5.240000000000000568e+01 6.975116921913628687e+01
5.280000000000000426e+01 6.946282416054098974e+01
5.320000000000000284e+01 6.917792741573737203e+01
5.360000000000000142e+01 6.889641010648770703e+01
5.400000000000000000e+01 6.861820527878317932e+01
5.440000000000000568e+01 6.834324783389693891e+01
5.480000000000000426e+01 6.807147446244717059e+01
5.520000000000000284e+01 6.780282358131503884e+01
5.560000000000000142e+01 6.753673278070503727e+01
5.600000000000000000e+01 6.727343936910850175e+01
5.640000000000000568e+01 6.701309826898847177e+01
5.680000000000000426e+01 6.674639046862732528e+01
5.720000000000000284e+01 6.649164829370545249e+01
5.760000000000000142e+01 6.623970390331145097e+01
5.800000000000000000e+01 6.599050598333320750e+01
5.840000000000000568e+01 6.574400453642979869e+01
5.880000000000000426e+01 6.550015083867583598e+01
5.920000000000000284e+01 6.525866300457427371e+01
5.960000000000000142e+01 6.501884537123275720e+01
6.000000000000000000e+01 6.478154743753370326e+01
6.040000000000000568e+01 6.454672500741648378e+01
6.080000000000000426e+01 6.431433496907425251e+01
6.120000000000000284e+01 6.408433526083304344e+01
6.160000000000000142e+01 6.385646808878082936e+01
6.200000000000000000e+01 6.363085598533642440e+01
6.240000000000000568e+01 6.340751490079629349e+01
6.280000000000000426e+01 6.318640669133575472e+01
6.320000000000000284e+01 6.296749410895909449e+01
6.360000000000000142e+01 6.275074077451611032e+01
6.400000000000000000e+01 6.253611115170893697e+01
6.440000000000000568e+01 6.232357052204631032e+01
6.480000000000001137e+01 6.211308496070478924e+01
6.520000000000000284e+01 6.190462131325794104e+01
6.559999999999999432e+01 6.169814717323714603e+01
6.600000000000000000e+01 6.149363086048860794e+01
6.640000000000000568e+01 6.129104140029353687e+01
6.680000000000001137e+01 6.108518805635141291e+01
6.720000000000000284e+01 6.088740449916792130e+01
6.759999999999999432e+01 6.120746654599706460e+01
6.800000000000000000e+01 6.102001104965162170e+01
6.840000000000000568e+01 6.081532340888443144e+01
6.880000000000001137e+01 6.063332224768389267e+01
6.920000000000000284e+01 6.045293469965411504e+01
6.959999999999999432e+01 6.027413668000374969e+01
7.000000000000000000e+01 6.009690460952919722e+01
7.040000000000000568e+01 5.992121540093833687e+01
7.080000000000001137e+01 5.974704644562689282e+01
7.120000000000000284e+01 5.958813154769108422e+01
7.159999999999999432e+01 5.941844274957338712e+01
7.200000000000000000e+01 5.924988673415481344e+01
7.240000000000000568e+01 5.908244344582060847e+01
7.280000000000001137e+01 5.891641093981228039e+01
7.320000000000000284e+01 5.875176919470031578e+01
7.359999999999999432e+01 5.858849858886114248e+01
7.400000000000000000e+01 5.842657989018500331e+01
7.440000000000000568e+01 5.826599424610829203e+01
7.479999999999999716e+01 5.810672317395758313e+01
7.520000000000000284e+01 5.794874855159470428e+01
7.560000000000000853e+01 5.779205260835098557e+01
7.600000000000000000e+01 5.763661791624070219e+01
7.640000000000000568e+01 5.748242738144311659e+01
7.679999999999999716e+01 5.732946423604371944e+01
7.720000000000000284e+01 5.717771203002520508e+01
7.760000000000000853e+01 5.703983669284509972e+01
7.800000000000000000e+01 5.689057179385764584e+01
7.840000000000000568e+01 5.674246838919243885e+01
7.879999999999999716e+01 5.659551126464779713e+01
7.920000000000000284e+01 5.644968548631511851e+01
7.960000000000000853e+01 5.630497639392368825e+01
8.000000000000000000e+01 5.616136959437891107e+01
8.040000000000000568e+01 5.601885095548696825e+01
8.079999999999999716e+01 5.587740659986019409e+01
8.120000000000000284e+01 5.573611956795047462e+01
8.160000000000000853e+01 5.559573915713653491e+01
8.200000000000000000e+01 5.545640432890802174e+01
8.240000000000000568e+01 5.531810198746744334e+01
8.279999999999999716e+01 5.518045300439960954e+01
8.320000000000000284e+01 5.504370213318635052e+01
8.360000000000000853e+01 5.490815340267447908e+01
8.400000000000000000e+01 5.477367402762358495e+01
8.440000000000000568e+01 5.464016508914195214e+01
8.479999999999999716e+01 5.450761482034353378e+01
8.520000000000000284e+01 5.437601165479696874e+01
8.560000000000000853e+01 5.424534422212813922e+01
8.600000000000000000e+01 5.411549905234258517e+01
8.640000000000000568e+01 5.398653363967795116e+01
8.680000000000001137e+01 5.385846404660142639e+01
8.720000000000000284e+01 5.373127985900904946e+01
8.760000000000000853e+01 5.360497083236014504e+01
8.800000000000000000e+01 5.347952688813161615e+01
8.840000000000000568e+01 5.335493811036254641e+01
8.880000000000001137e+01 5.323119474228667514e+01
8.920000000000000284e+01 5.310828718305000962e+01
8.960000000000000853e+01 5.297910877966106113e+01
9.000000000000000000e+01 5.285784030491977603e+01
9.040000000000000568e+01 5.273738093128569915e+01
9.080000000000001137e+01 5.261772162130563402e+01
9.120000000000000284e+01 5.249885347895425269e+01
9.160000000000000853e+01 5.238076774679059611e+01
9.200000000000000000e+01 5.226345580318463391e+01
9.240000000000000568e+01 5.214690915961135431e+01
9.280000000000001137e+01 5.203111945801075677e+01
9.320000000000000284e+01 5.191607846821180061e+01
9.360000000000000853e+01 5.180177808541817797e+01
9.400000000000000000e+01 5.168821032775475999e+01
9.440000000000000568e+01 5.157536733387235728e+01
9.480000000000001137e+01 5.146324136060958665e+01
9.520000000000000284e+01 5.135182478071003231e+01
9.560000000000000853e+01 5.124109279563752040e+01
9.600000000000000000e+01 5.113088299266716064e+01
9.640000000000000568e+01 5.104527978702135727e+01
9.680000000000001137e+01 5.093828593039235386e+01
9.720000000000000284e+01 5.083195016974308800e+01
9.760000000000000853e+01 5.072626572158017666e+01
9.800000000000000000e+01 5.062122590042802983e+01
9.840000000000000568e+01 5.051682411700846842e+01
9.880000000000001137e+01 5.041305387646155367e+01
9.920000000000000284e+01 5.030990877660680383e+01
9.960000000000000853e+01 5.020738250624324905e+01
1.000000000000000000e+02 5.010546884348769225e+01
1.004000000000000057e+02 5.000416165415007441e+01
1.008000000000000114e+02 4.990345489014472946e+01
1.012000000000000028e+02 4.980334258793707392e+01
1.016000000000000085e+02 4.970381886702418228e+01
1.020000000000000000e+02 4.960487792844893562e+01
1.024000000000000057e+02 4.950812897352778919e+01
1.028000000000000114e+02 4.941059478364161350e+01
1.032000000000000028e+02 4.931362390592224187e+01
1.036000000000000085e+02 4.921721088810379996e+01
1.040000000000000000e+02 4.912135035189609766e+01
1.044000000000000057e+02 4.902603699169460327e+01
1.048000000000000114e+02 4.893126557331786586e+01
1.052000000000000028e+02 4.883703093277176777e+01
1.056000000000000085e+02 4.874332797503983983e+01
1.060000000000000000e+02 4.865015167289904952e+01
1.064000000000000057e+02 4.855749706576037283e+01
1.068000000000000114e+02 4.846535925853359572e+01
1.072000000000000028e+02 4.837373342051577652e+01
1.076000000000000085e+02 4.828261478430273002e+01
1.080000000000000000e+02 4.819199864472290074e+01
1.084000000000000057e+02 4.807803057550066228e+01
1.088000000000000114e+02 4.798947523908898205e+01
1.092000000000000028e+02 4.790134965140149603e+01
1.096000000000000085e+02 4.781370560602957198e+01
1.100000000000000000e+02 4.772626313355216610e+01
1.104000000000000057e+02 4.763927298301242530e+01
1.108000000000000114e+02 4.755275315629830146e+01
1.112000000000000028e+02 4.746667580386949226e+01
1.116000000000000085e+02 4.738078983939651323e+01
1.120000000000000000e+02 4.729536407893277783e+01
1.124000000000000057e+02 4.721039437172639452e+01
1.128000000000000114e+02 4.712587661965796570e+01
1.132000000000000028e+02 4.704180677638075281e+01
1.136000000000000085e+02 4.695818084647817869e+01
1.140000000000000000e+02 4.687499488463800645e+01
1.144000000000000057e+02 4.679224499484288913e+01
1.148000000000000114e+02 4.670992732957707005e+01
1.152000000000000028e+02 4.662803808904839542e+01
1.156000000000000085e+02 4.654657352042594454e+01
1.160000000000000000e+02 4.646749958919973267e+01
1.164000000000000057e+02 4.638689882678649923e+01
1.168000000000000114e+02 4.630671158075783467e+01
1.172000000000000028e+02 4.622693428035139362e+01
1.176000000000000085e+02 4.614756339815276931e+01
1.180000000000000000e+02 4.606859544941750784e+01
1.184000000000000057e+02 4.599002699140614681e+01
1.188000000000000114e+02 4.591185462273207918e+01
1.192000000000000028e+02 4.583407498272154612e+01
1.196000000000000085e+02 4.575668475078592223e+01
1.200000000000000000e+02 4.567968064580585263e+01
1.204000000000000057e+02 4.560305942552679426e+01
1.208000000000000114e+02 4.552681788596608214e+01
1.212000000000000028e+02 4.545095286083090969e+01
1.216000000000000085e+02 4.537546122094724410e+01
1.220000000000000000e+02 4.530033987369925086e+01
1.224000000000000057e+02 4.522558576247904227e+01
1.228000000000000114e+02 4.515120561473148086e+01
1.232000000000000028e+02 4.507720993722298886e+01
1.236000000000000085e+02 4.500357212692132691e+01
1.240000000000000000e+02 4.493028927146319518e+01
1.244000000000000057e+02 4.485735849180037604e+01
1.248000000000000114e+02 4.478477694170885570e+01
1.252000000000000028e+02 4.471706141146903946e+01
1.256000000000000085e+02 4.464557179348854987e+01
1.260000000000000000e+02 4.457442097226120836e+01
1.264000000000000057e+02 4.450360624640143925e+01
1.268000000000000114e+02 4.443312494480347397e+01
1.272000000000000028e+02 4.436297442620416831e+01
1.276000000000000085e+02 4.429315207875340832e+01
1.280000000000000000e+02 4.422365531959221840e+01
1.284000000000000057e+02 4.415448159443807441e+01
1.288000000000000114e+02 4.409521669920836473e+01
1.291999999999999886e+02 4.402691891146312031e+01
1.296000000000000227e+02 4.395893501370756695e+01
1.300000000000000000e+02 4.389126257821578747e+01
1.304000000000000057e+02 4.382241031885422444e+01
1.308000000000000114e+02 4.375538263122627569e+01
1.311999999999999886e+02 4.368844306463087435e+01
1.316000000000000227e+02 4.362144829093113430e+01
1.320000000000000000e+02 4.355475604641868159e+01
1.324000000000000057e+02 4.348836403572244080e+01
1.328000000000000114e+02 4.342226998793761084e+01
1.331999999999999886e+02 4.335647165628977717e+01
1.336000000000000227e+02 4.329096681780468003e+01
1.340000000000000000e+02 4.322575327298360293e+01
1.344000000000000057e+02 4.316082884548400500e+01
1.348000000000000114e+02 4.309619138180568143e+01
1.351999999999999886e+02 4.303183875098198996e+01
1.356000000000000227e+02 4.296776884427615784e+01
1.360000000000000000e+02 4.290397957488268332e+01
1.364000000000000057e+02 4.284046887763362577e+01
1.368000000000000114e+02 4.277723470870968470e+01
1.371999999999999886e+02 4.271427504535596142e+01
1.376000000000000227e+02 4.265157250622754503e+01
1.380000000000000000e+02 4.258910746981057827e+01
1.384000000000000057e+02 4.252691133095203924e+01
1.388000000000000114e+02 4.246498214512770630e+01
1.392000000000000171e+02 4.240331798756574244e+01
1.395999999999999943e+02 4.234191695298842006e+01
1.400000000000000000e+02 4.228077715535780357e+01
1.404000000000000057e+02 4.221989672762560275e+01
1.408000000000000114e+02 4.215913876300243146e+01
1.412000000000000171e+02 4.209863186020834291e+01
1.415999999999999943e+02 4.203837941954544988e+01
1.420000000000000000e+02 4.197837964332431682e+01
1.424000000000000057e+02 4.191863075169348463e+01
1.428000000000000114e+02 4.185913098241156405e+01
1.432000000000000171e+02 4.179987859062281785e+01
1.435999999999999943e+02 4.174087184863645206e+01
1.440000000000000000e+02 4.168210904570907616e+01
1.444000000000000057e+02 4.162358848783071608e+01
1.448000000000000114e+02 4.156530849751408141e+01
1.452000000000000171e+02 4.150726741358706562e+01
1.455999999999999943e+02 4.145040348895864923e+01
1.460000000000000000e+02 4.139287670336786107e+01
1.464000000000000057e+02 4.133556608700690305e+01
1.468000000000000114e+02 4.127847721511042778e+01
1.472000000000000171e+02 4.122161898966896842e+01
1.475999999999999943e+02 4.116498984562542773e+01
1.480000000000000000e+02 4.110858823283715680e+01
1.484000000000000057e+02 4.105241261589288371e+01
1.488000000000000114e+02 4.099646147393254836e+01
1.492000000000000171e+02 4.094073330046980175e+01
1.495999999999999943e+02 4.088522660321699220e+01
1.500000000000000000e+02 4.082993990391294403e+01
