1.000000000000000000e+01 8.366862226778289369e+02
1.040000000000000036e+01 9.243030796047033846e+02
1.080000000000000071e+01 9.329024586142678572e+02
1.119999999999999929e+01 9.415115292260222759e+02
1.159999999999999964e+01 9.393594405155031382e+02
1.200000000000000000e+01 9.342604798767915781e+02
1.240000000000000036e+01 9.253556017266145091e+02
1.280000000000000071e+01 1.003112146440333390e+03
1.319999999999999929e+01 1.031136678524206218e+03
1.359999999999999964e+01 1.082925963393295433e+03
1.400000000000000000e+01 1.080621834768292047e+03
1.440000000000000036e+01 1.060332302553197223e+03
1.480000000000000071e+01 1.041331401344016285e+03
1.519999999999999929e+01 1.023478707156363612e+03
1.560000000000000142e+01 1.006655336427559519e+03
1.600000000000000000e+01 9.907597271040989426e+02
1.639999999999999858e+01 9.757044142195471750e+02
1.680000000000000071e+01 9.614135288110005604e+02
1.719999999999999929e+01 9.478208321587961791e+02
1.760000000000000142e+01 9.348681523949276198e+02
1.800000000000000000e+01 9.225041277915574938e+02
1.839999999999999858e+01 9.106831867598591543e+02
1.880000000000000071e+01 8.993647126546934487e+02
1.920000000000000284e+01 8.885123543746738051e+02
1.960000000000000142e+01 8.780934530855256526e+02
2.000000000000000000e+01 8.680785622488215267e+02
2.039999999999999858e+01 8.584410432311264003e+02
2.080000000000000071e+01 8.491567225959363441e+02
2.120000000000000284e+01 8.402036000873001740e+02
2.160000000000000142e+01 8.315615985427258465e+02
2.200000000000000000e+01 8.232123486974605839e+02
2.239999999999999858e+01 8.151390031878187301e+02
2.280000000000000071e+01 8.073260751194516160e+02
2.320000000000000284e+01 7.997592974048307042e+02
2.360000000000000142e+01 7.924254997430067533e+02
2.400000000000000000e+01 7.853125006517045676e+02
2.439999999999999858e+01 7.784090123956245861e+02
2.480000000000000071e+01 7.717045570072945111e+02
2.520000000000000284e+01 7.651893918847863461e+02
2.560000000000000142e+01 7.588544436870780601e+02
2.600000000000000000e+01 7.526912494429866456e+02
2.640000000000000213e+01 7.466919039513758207e+02
2.680000000000000071e+01 7.408490126850701927e+02
2.719999999999999929e+01 7.351556495235630564e+02
2.760000000000000142e+01 7.296053187341950661e+02
2.800000000000000000e+01 7.241919207012014112e+02
2.840000000000000213e+01 7.189097209694626827e+02
2.880000000000000071e+01 7.137533222270345732e+02
2.920000000000000284e+01 7.087176388992882039e+02
2.960000000000000142e+01 7.037978740691518169e+02
3.000000000000000000e+01 6.989894984736465631e+02
3.040000000000000213e+01 6.942882313575973967e+02
3.080000000000000071e+01 6.896900229918667264e+02
3.120000000000000284e+01 6.851910386863145277e+02
3.160000000000000142e+01 6.807876441475220872e+02
3.200000000000000000e+01 6.764763920485297604e+02
3.240000000000000568e+01 6.722540096928411231e+02
3.279999999999999716e+01 6.681173876680445574e+02
3.320000000000000284e+01 6.640635693958543015e+02
3.360000000000000142e+01 6.600897414954345095e+02
3.400000000000000000e+01 6.561932248856824117e+02
3.440000000000000568e+01 6.523714665599460432e+02
3.479999999999999716e+01 6.486220319734921986e+02
3.520000000000000284e+01 6.449425979901195660e+02
3.560000000000000142e+01 6.413309463396831234e+02
3.600000000000000000e+01 6.377849575430574305e+02
3.640000000000000568e+01 6.343026052653095803e+02
3.679999999999999716e+01 6.308819510616245907e+02
3.720000000000000284e+01 6.275211394838864862e+02
3.760000000000000142e+01 6.242183935188304531e+02
3.800000000000000000e+01 6.209720103313635491e+02
3.840000000000000568e+01 6.177803572890667283e+02
3.879999999999999716e+01 6.146418682460484888e+02
3.920000000000000284e+01 6.115550400662638140e+02
3.960000000000000142e+01 6.085184293681641066e+02
4.000000000000000000e+01 6.055306494741107599e+02
4.040000000000000568e+01 6.025903675494168965e+02
4.079999999999999716e+01 5.996963019171543010e+02
4.120000000000000284e+01 5.968472195360333217e+02
4.160000000000000142e+01 5.940419336297104564e+02
4.200000000000000000e+01 5.912793014568320586e+02
4.239999999999999858e+01 5.885582222119905964e+02
4.280000000000000426e+01 5.858776350485550211e+02
4.320000000000000284e+01 5.832365172150514354e+02
4.360000000000000142e+01 5.806338822974269078e+02
4.400000000000000000e+01 5.780687785601177211e+02
4.439999999999999858e+01 5.755402873793902927e+02
4.480000000000000426e+01 5.730475217629165172e+02
4.520000000000000284e+01 5.705896249499996884e+02
4.560000000000000142e+01 5.681657690872827970e+02
4.600000000000000000e+01 5.657751539751465089e+02
4.639999999999999858e+01 5.634170058803623533e+02
4.680000000000000426e+01 5.610905764108757694e+02
4.720000000000000284e+01 5.587951414488957198e+02
4.760000000000000142e+01 5.565300001387352040e+02
4.800000000000000000e+01 5.542944739260934739e+02
4.840000000000000568e+01 5.520879056457081333e+02
4.880000000000000426e+01 5.499096586545041419e+02
4.920000000000000284e+01 5.477591160075743346e+02
4.960000000000000142e+01 5.456356796744971689e+02
5.000000000000000000e+01 5.435387697936687346e+02
5.040000000000000568e+01 5.414678239624781781e+02
5.080000000000000426e+01 5.394222965612958660e+02
5.120000000000000284e+01 5.374016581093824243e+02
5.160000000000000142e+01 5.354053946509386606e+02
5.200000000000000000e+01 5.334330071696394953e+02
5.240000000000000568e+01 5.314840110300937113e+02
5.280000000000000426e+01 5.295579354447723972e+02
5.320000000000000284e+01 5.276543229650377498e+02
5.360000000000000142e+01 5.257727289949888245e+02
5.400000000000000000e+01 5.239127213269209733e+02
5.440000000000000568e+01 5.220738796972646014e+02
5.480000000000000426e+01 5.202557953619437967e+02
5.520000000000000284e+01 5.184580706901497251e+02
5.560000000000000142e+01 5.166803187755914450e+02
5.600000000000000000e+01 5.149221630643378376e+02
5.640000000000000568e+01 5.131832369984157367e+02
5.680000000000000426e+01 5.114631836743782287e+02
5.720000000000000284e+01 5.097616555161040424e+02
5.760000000000000142e+01 5.080783139611259571e+02
5.800000000000000000e+01 5.064128291598333362e+02
5.840000000000000568e+01 5.047648796869223133e+02
5.880000000000000426e+01 5.031341522645086002e+02
5.920000000000000284e+01 5.015203414963456794e+02
5.960000000000000142e+01 4.999231496126254797e+02
6.000000000000000000e+01 4.983422862248622778e+02
6.040000000000000568e+01 4.967774680903937679e+02
6.080000000000000426e+01 4.952284188860512586e+02
6.120000000000000284e+01 4.936948689905798346e+02
6.160000000000000142e+01 4.921765552754110331e+02
6.200000000000000000e+01 4.906732209034066727e+02
6.240000000000000568e+01 4.891846151352194738e+02
6.280000000000000426e+01 4.877104931429287262e+02
6.320000000000000284e+01 4.862506158306293287e+02
6.360000000000000142e+01 4.848047496616673584e+02
6.400000000000000000e+01 4.833726664922350551e+02
6.440000000000000568e+01 4.819541434110439582e+02
6.480000000000001137e+01 4.805489625848208561e+02
6.520000000000000284e+01 4.791569111093710376e+02
6.559999999999999432e+01 4.777777808659770358e+02
6.600000000000000000e+01 4.764113683829049819e+02
6.640000000000000568e+01 4.750574747018050630e+02
6.680000000000001137e+01 4.737159052488024145e+02
6.720000000000000284e+01 4.723864697100837020e+02
6.759999999999999432e+01 4.710689819117954471e+02
6.800000000000000000e+01 4.697632597040758355e+02
6.840000000000000568e+01 4.684691248490559019e+02
6.880000000000001137e+01 4.671864029126656419e+02
6.920000000000000284e+01 4.659149231600958387e+02
6.959999999999999432e+01 4.646545184547682084e+02
7.000000000000000000e+01 4.634050251606752227e+02
7.040000000000000568e+01 4.621662830479587001e+02
7.080000000000001137e+01 4.609381352015971061e+02
7.120000000000000284e+01 4.597204279330848067e+02
7.159999999999999432e+01 4.585130106949845299e+02
7.200000000000000000e+01 4.573157359982438948e+02
7.240000000000000568e+01 4.561284593321718148e+02
7.280000000000001137e+01 4.549510390869714342e+02
7.320000000000000284e+01 4.537833364787346682e+02
7.359999999999999432e+01 4.526252154768065452e+02
7.400000000000000000e+01 4.514765427334293690e+02
7.440000000000000568e+01 4.503371875155843327e+02
7.479999999999999716e+01 4.492070216389473671e+02
7.520000000000000284e+01 4.480859194038844180e+02
7.560000000000000853e+01 4.469737575334086728e+02
7.600000000000000000e+01 4.458704151130329478e+02
7.640000000000000568e+01 4.447757735324438499e+02
7.679999999999999716e+01 4.436897164289376860e+02
7.720000000000000284e+01 4.426121296325517278e+02
7.760000000000000853e+01 4.415429011128319985e+02
7.800000000000000000e+01 4.404819209271813634e+02
7.840000000000000568e+01 4.394290811707295461e+02
7.879999999999999716e+01 4.383842759276756169e+02
7.920000000000000284e+01 4.373474012240489515e+02
7.960000000000000853e+01 4.363183549818419351e+02
8.000000000000000000e+01 4.352970369744658683e+02
8.040000000000000568e+01 4.342833487834870994e+02
8.079999999999999716e+01 4.332771937565967164e+02
8.120000000000000284e+01 4.322784769667761111e+02
8.160000000000000853e+01 4.312871051726149290e+02
8.200000000000000000e+01 4.303029867797455381e+02
8.240000000000000568e+01 4.293260318033546810e+02
8.279999999999999716e+01 4.283561518317390551e+02
8.320000000000000284e+01 4.273932599908690122e+02
8.360000000000000853e+01 4.264372709099276904e+02
8.400000000000000000e+01 4.254881006877948835e+02
8.440000000000000568e+01 4.245456668604420543e+02
8.479999999999999716e+01 4.236098883692150707e+02
8.520000000000000284e+01 4.226806855299693666e+02
8.560000000000000853e+01 4.217579800030349020e+02
8.600000000000000000e+01 4.208416947639835257e+02
8.640000000000000568e+01 4.199317540751731599e+02
8.680000000000001137e+01 4.190280834580438523e+02
8.720000000000000284e+01 4.181306096661441529e+02
8.760000000000000853e+01 4.172392606588624631e+02
8.800000000000000000e+01 4.163539655758444269e+02
8.840000000000000568e+01 4.154746547120724927e+02
8.880000000000001137e+01 4.146012594935895663e+02
8.920000000000000284e+01 4.137337124538463513e+02
8.960000000000000853e+01 4.128719472106520811e+02
9.000000000000000000e+01 4.120158984437136951e+02
9.040000000000000568e+01 4.111655018727420270e+02
9.080000000000001137e+01 4.103206942361110237e+02
9.120000000000000284e+01 4.094814132700515756e+02
9.160000000000000853e+01 4.086475976883652379e+02
9.200000000000000000e+01 4.078191871626426632e+02
9.240000000000000568e+01 4.069961223029699795e+02
9.280000000000001137e+01 4.061783446391121402e+02
9.320000000000000284e+01 4.053657966021560242e+02
9.360000000000000853e+01 4.045584215066028264e+02
9.400000000000000000e+01 4.037561635328944476e+02
9.440000000000000568e+01 4.029589677103623444e+02
9.480000000000001137e+01 4.021667799005884945e+02
9.520000000000000284e+01 4.013795467811631852e+02
9.560000000000000853e+01 4.005972158298317254e+02
9.600000000000000000e+01 3.998197353090167212e+02
9.640000000000000568e+01 3.990470542507077880e+02
9.680000000000001137e+01 3.982791224417057379e+02
9.720000000000000284e+01 3.975158904092133412e+02
9.760000000000000853e+01 3.967573094067620332e+02
9.800000000000000000e+01 3.960033314004673457e+02
9.840000000000000568e+01 3.952539090555993084e+02
9.880000000000001137e+01 3.945089957234656026e+02
9.920000000000000284e+01 3.937685454285936544e+02
9.960000000000000853e+01 3.930325128562058126e+02
1.000000000000000000e+02 3.923008533399803355e+02
1.004000000000000057e+02 3.915735228500889775e+02
1.008000000000000114e+02 3.908504779815042411e+02
1.012000000000000028e+02 3.901316759425703822e+02
1.016000000000000085e+02 3.894170745438282211e+02
1.020000000000000000e+02 3.887066321870912589e+02
1.024000000000000057e+02 3.880003078547622408e+02
1.028000000000000114e+02 3.872980610993868140e+02
1.032000000000000028e+02 3.865998520334366049e+02
1.036000000000000085e+02 3.859056413193164303e+02
1.040000000000000000e+02 3.852153901595896741e+02
1.044000000000000057e+02 3.845290602874158594e+02
1.048000000000000114e+02 3.838466139571955864e+02
1.052000000000000028e+02 3.831680139354168091e+02
1.056000000000000085e+02 3.824932234916983020e+02
1.060000000000000000e+02 3.818222063900242347e+02
1.064000000000000057e+02 3.811549268801654762e+02
1.068000000000000114e+02 3.804913496892837657e+02
1.072000000000000028e+02 3.798314400137119264e+02
1.076000000000000085e+02 3.791751635109089307e+02
1.080000000000000000e+02 3.785224862915819131e+02
1.084000000000000057e+02 3.778733749119747358e+02
1.088000000000000114e+02 3.772277963663148057e+02
1.092000000000000028e+02 3.765857180794188821e+02
1.096000000000000085e+02 3.759471078994493496e+02
1.100000000000000000e+02 3.753119340908215236e+02
1.104000000000000057e+02 3.746801653272544854e+02
1.108000000000000114e+02 3.740517706849655042e+02
1.112000000000000028e+02 3.734267196360017351e+02
1.116000000000000085e+02 3.728049820417073192e+02
1.120000000000000000e+02 3.721865281463227575e+02
1.124000000000000057e+02 3.715713285707125237e+02
1.128000000000000114e+02 3.709593543062184153e+02
1.132000000000000028e+02 3.703505767086364813e+02
1.136000000000000085e+02 3.697449674923120142e+02
1.140000000000000000e+02 3.691424987243535156e+02
1.144000000000000057e+02 3.685431428189591543e+02
1.148000000000000114e+02 3.679468725318566271e+02
1.152000000000000028e+02 3.673536609548498859e+02
1.156000000000000085e+02 3.667634815104744916e+02
1.160000000000000000e+02 3.661763079467554576e+02
1.164000000000000057e+02 3.655921143320671263e+02
1.168000000000000114e+02 3.650108750500931478e+02
1.172000000000000028e+02 3.644325647948818983e+02
1.176000000000000085e+02 3.638571585659983043e+02
1.180000000000000000e+02 3.632846316637673567e+02
1.184000000000000057e+02 3.627149596846088571e+02
1.188000000000000114e+02 3.621481185164597605e+02
1.192000000000000028e+02 3.615840843342843982e+02
1.196000000000000085e+02 3.610228335956679757e+02
1.200000000000000000e+02 3.604643430364940286e+02
1.204000000000000057e+02 3.599085896667017437e+02
1.208000000000000114e+02 3.593555507661232014e+02
1.212000000000000028e+02 3.588052038803973574e+02
1.216000000000000085e+02 3.582575268169602509e+02
1.220000000000000000e+02 3.577124976411088255e+02
1.224000000000000057e+02 3.571700946721369974e+02
1.228000000000000114e+02 3.566302964795437447e+02
1.232000000000000028e+02 3.560930818793086132e+02
1.236000000000000085e+02 3.555584299302362297e+02
1.240000000000000000e+02 3.550263199303674924e+02
1.244000000000000057e+02 3.544967314134544267e+02
1.248000000000000114e+02 3.539696441454997853e+02
1.252000000000000028e+02 3.534450381213575838e+02
1.256000000000000085e+02 3.529228935613960516e+02
1.260000000000000000e+02 3.524031909082186758e+02
1.264000000000000057e+02 3.518859108234446467e+02
1.268000000000000114e+02 3.513710341845451808e+02
1.272000000000000028e+02 3.508585420817375962e+02
1.276000000000000085e+02 3.503484158149319683e+02
1.280000000000000000e+02 3.498406368907326964e+02
1.284000000000000057e+02 3.493351870194925937e+02
1.288000000000000114e+02 3.488320481124176808e+02
1.291999999999999886e+02 3.483312022787226852e+02
1.296000000000000227e+02 3.478326318228356513e+02
1.300000000000000000e+02 3.473363192416513243e+02
1.304000000000000057e+02 3.468422472218310872e+02
1.308000000000000114e+02 3.463503986371497376e+02
1.311999999999999886e+02 3.458607565458881936e+02
1.316000000000000227e+02 3.453733041882684915e+02
1.320000000000000000e+02 3.448880249839355656e+02
1.324000000000000057e+02 3.444049025294791591e+02
1.328000000000000114e+02 3.439239205959985952e+02
1.331999999999999886e+02 3.434450631267088170e+02
1.336000000000000227e+02 3.429683142345856481e+02
1.340000000000000000e+02 3.424936582000516410e+02
1.344000000000000057e+02 3.420210794687001794e+02
1.348000000000000114e+02 3.415505626490563031e+02
1.351999999999999886e+02 3.410820925103764694e+02
1.356000000000000227e+02 3.406156539804834438e+02
1.360000000000000000e+02 3.401512321436372872e+02
1.364000000000000057e+02 3.396888122384414146e+02
1.368000000000000114e+02 3.392283796557827031e+02
1.371999999999999886e+02 3.387699199368054224e+02
1.376000000000000227e+02 3.383134187709180196e+02
1.380000000000000000e+02 3.378588619938324200e+02
1.384000000000000057e+02 3.374062355856349882e+02
1.388000000000000114e+02 3.369555256688884128e+02
1.392000000000000171e+02 3.365067185067647415e+02
1.395999999999999943e+02 3.360598005012074054e+02
1.400000000000000000e+02 3.356147581911235989e+02
1.404000000000000057e+02 3.351715782506046253e+02
1.408000000000000114e+02 3.347302474871755749e+02
1.412000000000000171e+02 3.342907528400714341e+02
1.415999999999999943e+02 3.338530813785415603e+02
1.420000000000000000e+02 3.334172203001806452e+02
1.424000000000000057e+02 3.329831569292848599e+02
1.428000000000000114e+02 3.325508787152357399e+02
1.432000000000000171e+02 3.321203732309072620e+02
1.435999999999999943e+02 3.316916281710990688e+02
1.440000000000000000e+02 3.312646313509936249e+02
1.444000000000000057e+02 3.308393707046370196e+02
1.448000000000000114e+02 3.304158342834435871e+02
1.452000000000000171e+02 3.299940102547236620e+02
1.455999999999999943e+02 3.295738869002333331e+02
1.460000000000000000e+02 3.291554526147467072e+02
1.464000000000000057e+02 3.287386959046505126e+02
1.468000000000000114e+02 3.283236053865593362e+02
1.472000000000000171e+02 3.279101697859520073e+02
1.475999999999999943e+02 3.274983779358290690e+02
1.480000000000000000e+02 3.270882187753900894e+02
1.484000000000000057e+02 3.266796813487309237e+02
1.488000000000000114e+02 3.262727548035610425e+02
1.492000000000000171e+02 3.258674283899391071e+02
1.495999999999999943e+02 3.254636914590284391e+02
1.500000000000000000e+02 3.250615334618702263e+02
