1.000000000000000000e+01 8.651446926844945438e+02
1.040000000000000036e+01 9.679789662810442223e+02
1.080000000000000071e+01 9.752618581446546386e+02
1.119999999999999929e+01 9.876554331126535544e+02
1.159999999999999964e+01 9.892147596123688800e+02
1.200000000000000000e+01 9.877552496020689432e+02
1.240000000000000036e+01 9.823973499178570137e+02
1.280000000000000071e+01 1.066663884338553089e+03
1.319999999999999929e+01 1.105608040411555294e+03
1.359999999999999964e+01 1.155861636891304897e+03
1.400000000000000000e+01 1.152145734963947689e+03
1.440000000000000036e+01 1.130551739537140293e+03
1.480000000000000071e+01 1.110340057012756688e+03
1.519999999999999929e+01 1.091358957179010758e+03
1.560000000000000142e+01 1.073480085990949647e+03
1.600000000000000000e+01 1.056593879765360953e+03
1.639999999999999858e+01 1.040606059908456928e+03
1.680000000000000071e+01 1.025434914063455835e+03
1.719999999999999929e+01 1.011009159523680751e+03
1.760000000000000142e+01 9.972662444196253091e+02
1.800000000000000000e+01 9.841509826175781654e+02
1.839999999999999858e+01 9.716144461975895865e+02
1.880000000000000071e+01 9.596130590136929186e+02
1.920000000000000284e+01 9.481078488635464510e+02
1.960000000000000142e+01 9.370638259572090192e+02
2.000000000000000000e+01 9.264494628371488716e+02
2.039999999999999858e+01 9.162362564482707512e+02
2.080000000000000071e+01 9.063983572260519850e+02
2.120000000000000284e+01 8.969122532375063201e+02
2.160000000000000142e+01 8.877564998380535144e+02
2.200000000000000000e+01 8.789114871863195049e+02
2.239999999999999858e+01 8.703592394249258177e+02
2.280000000000000071e+01 8.620832404881267621e+02
2.320000000000000284e+01 8.540682824103281519e+02
2.360000000000000142e+01 8.463003327378210088e+02
2.400000000000000000e+01 8.387664182307148621e+02
2.439999999999999858e+01 8.314545225142210256e+02
2.480000000000000071e+01 8.243534957219807211e+02
2.520000000000000284e+01 8.174529744873606205e+02
2.560000000000000142e+01 8.107433108957844752e+02
2.600000000000000000e+01 8.042155092232804918e+02
2.640000000000000213e+01 7.978611694622239838e+02
2.680000000000000071e+01 7.916724367815816095e+02
2.719999999999999929e+01 7.856419561912857716e+02
2.760000000000000142e+01 7.797628317830276501e+02
2.800000000000000000e+01 7.740285900062395967e+02
2.840000000000000213e+01 7.684331465111681609e+02
2.880000000000000071e+01 7.629707761529866730e+02
2.920000000000000284e+01 7.576360858037245407e+02
2.960000000000000142e+01 7.524239896639035123e+02
3.000000000000000000e+01 7.473296868044260464e+02
3.040000000000000213e+01 7.423486407024703340e+02
3.080000000000000071e+01 7.374765605637668386e+02
3.120000000000000284e+01 7.327093842483542403e+02
3.160000000000000142e+01 7.280432626383353636e+02
3.200000000000000000e+01 7.234745453047599995e+02
3.240000000000000568e+01 7.189997673469533765e+02
3.279999999999999716e+01 7.146156372917542967e+02
3.320000000000000284e+01 7.103190259524733392e+02
3.360000000000000142e+01 7.061069561582435199e+02
3.400000000000000000e+01 7.019765932739295522e+02
3.440000000000000568e+01 6.979252364391670653e+02
3.479999999999999716e+01 6.939503104624764092e+02
3.520000000000000284e+01 6.900493583129378976e+02
3.560000000000000142e+01 6.862200341576966593e+02
3.600000000000000000e+01 6.824600968986928820e+02
3.640000000000000568e+01 6.787674041665729874e+02
3.679999999999999716e+01 6.751399067337945326e+02
3.720000000000000284e+01 6.715756433125493459e+02
3.760000000000000142e+01 6.680727357063692580e+02
3.800000000000000000e+01 6.646293842871509696e+02
3.840000000000000568e+01 6.612438637719403687e+02
3.879999999999999716e+01 6.579145192761244516e+02
3.920000000000000284e+01 6.546397626217683410e+02
3.960000000000000142e+01 6.514180688817128839e+02
4.000000000000000000e+01 6.482479731417286075e+02
4.040000000000000568e+01 6.451280674645555564e+02
4.079999999999999716e+01 6.420569980410258495e+02
4.120000000000000284e+01 6.390334625147154384e+02
4.160000000000000142e+01 6.360562074676947759e+02
4.200000000000000000e+01 6.331240260559711714e+02
4.239999999999999858e+01 6.302357557841397693e+02
4.280000000000000426e+01 6.273902764096067131e+02
4.320000000000000284e+01 6.245865079675047582e+02
4.360000000000000142e+01 6.218234089081329330e+02
4.400000000000000000e+01 6.190999743393705330e+02
4.439999999999999858e+01 6.164152343671105427e+02
4.480000000000000426e+01 6.137682525272770135e+02
4.520000000000000284e+01 6.111581243034831914e+02
4.560000000000000142e+01 6.085839757248213573e+02
4.600000000000000000e+01 6.060449620386896186e+02
4.639999999999999858e+01 6.035402664539310535e+02
4.680000000000000426e+01 6.010690989498968975e+02
4.720000000000000284e+01 5.986306951473670779e+02
4.760000000000000142e+01 5.962243152375456248e+02
4.800000000000000000e+01 5.938492429656116656e+02
4.840000000000000568e+01 5.915047846655593275e+02
4.880000000000000426e+01 5.891902683432758749e+02
4.920000000000000284e+01 5.869050428050200026e+02
4.960000000000000142e+01 5.846484768286544522e+02
5.000000000000000000e+01 5.824199583751628779e+02
5.040000000000000568e+01 5.802188938381444814e+02
5.080000000000000426e+01 5.780447073291331890e+02
5.120000000000000284e+01 5.758968399967255891e+02
5.160000000000000142e+01 5.737747493776359988e+02
5.200000000000000000e+01 5.716779087779152633e+02
5.240000000000000568e+01 5.696058066826785762e+02
5.280000000000000426e+01 5.675579461927997045e+02
5.320000000000000284e+01 5.655338444871166530e+02
5.360000000000000142e+01 5.635330323087891884e+02
5.400000000000000000e+01 5.615550534745309506e+02
5.440000000000000568e+01 5.595994644055141407e+02
5.480000000000000426e+01 5.576658336788207180e+02
5.520000000000000284e+01 5.557537415983789515e+02
5.560000000000000142e+01 5.538627797843869303e+02
5.600000000000000000e+01 5.519925507802873881e+02
5.640000000000000568e+01 5.501426676764060630e+02
5.680000000000000426e+01 5.483127537494226544e+02
5.720000000000000284e+01 5.465024421168906201e+02
5.760000000000000142e+01 5.447113754060624160e+02
5.800000000000000000e+01 5.429392054363244142e+02
5.840000000000000568e+01 5.411855929145820028e+02
5.880000000000000426e+01 5.394502071429712942e+02
5.920000000000000284e+01 5.377327257383092274e+02
5.960000000000000142e+01 5.360328343627293179e+02
6.000000000000000000e+01 5.343502264649721383e+02
6.040000000000000568e+01 5.326846030318389467e+02
6.080000000000000426e+01 5.310356723493346180e+02
6.120000000000000284e+01 5.294031497730537694e+02
6.160000000000000142e+01 5.277867575073926218e+02
6.200000000000000000e+01 5.261862243931811918e+02
6.240000000000000568e+01 5.246012857033606451e+02
6.280000000000000426e+01 5.230316829463463364e+02
6.320000000000000284e+01 5.214771636767328573e+02
6.360000000000000142e+01 5.199374813130212942e+02
6.400000000000000000e+01 5.184123949620594658e+02
6.440000000000000568e+01 5.169016692499026249e+02
6.480000000000001137e+01 5.154050741588216624e+02
6.520000000000000284e+01 5.139223848701896031e+02
6.559999999999999432e+01 5.124533816130012838e+02
6.600000000000000000e+01 5.109978495177852551e+02
6.640000000000000568e+01 5.095555784756830349e+02
6.680000000000001137e+01 5.081263630024778308e+02
6.720000000000000284e+01 5.067100021073705420e+02
6.759999999999999432e+01 5.053062991663053936e+02
6.800000000000000000e+01 5.039150617996603501e+02
6.840000000000000568e+01 5.025361017541234787e+02
6.880000000000001137e+01 5.011692347885878007e+02
6.920000000000000284e+01 4.998142805639028552e+02
6.959999999999999432e+01 4.984710625363280769e+02
7.000000000000000000e+01 4.971394078545428101e+02
7.040000000000000568e+01 4.958191472600724410e+02
7.080000000000001137e+01 4.945101149909960441e+02
7.120000000000000284e+01 4.932121486888096342e+02
7.159999999999999432e+01 4.919250893083207075e+02
7.200000000000000000e+01 4.906487810304602135e+02
7.240000000000000568e+01 4.893830711778986142e+02
7.280000000000001137e+01 4.881278101333602990e+02
7.320000000000000284e+01 4.868828512605340961e+02
7.359999999999999432e+01 4.856480508274836438e+02
7.400000000000000000e+01 4.844232679324624087e+02
7.440000000000000568e+01 4.832083644320463236e+02
7.479999999999999716e+01 4.820032048714977577e+02
7.520000000000000284e+01 4.808076564172775420e+02
7.560000000000000853e+01 4.796215887916298470e+02
7.600000000000000000e+01 4.784448742091625491e+02
7.640000000000000568e+01 4.772773873153508930e+02
7.679999999999999716e+01 4.761190051268987418e+02
7.720000000000000284e+01 4.749696069738863571e+02
7.760000000000000853e+01 4.738290744436457089e+02
7.800000000000000000e+01 4.726972913263011264e+02
7.840000000000000568e+01 4.715741435619153776e+02
7.879999999999999716e+01 4.704595191891872332e+02
7.920000000000000284e+01 4.693533082956467410e+02
7.960000000000000853e+01 4.682554029692947779e+02
8.000000000000000000e+01 4.671656972516395285e+02
8.040000000000000568e+01 4.660840870920807220e+02
8.079999999999999716e+01 4.650104703035972307e+02
8.120000000000000284e+01 4.639447465196925577e+02
8.160000000000000853e+01 4.628868171525576258e+02
8.200000000000000000e+01 4.618365853524092017e+02
8.240000000000000568e+01 4.607939559679648482e+02
8.279999999999999716e+01 4.597588355080181373e+02
8.320000000000000284e+01 4.587311321040763232e+02
8.360000000000000853e+01 4.577107554740266551e+02
8.400000000000000000e+01 4.566976168867990964e+02
8.440000000000000568e+01 4.556916291279887901e+02
8.479999999999999716e+01 4.546927064664145632e+02
8.520000000000000284e+01 4.537007646215759564e+02
8.560000000000000853e+01 4.527157207319858117e+02
8.600000000000000000e+01 4.517374933243474970e+02
8.640000000000000568e+01 4.507660022835512450e+02
8.680000000000001137e+01 4.498011688234644794e+02
8.720000000000000284e+01 4.488429154584896423e+02
8.760000000000000853e+01 4.478911659758668975e+02
8.800000000000000000e+01 4.469458454086996539e+02
8.840000000000000568e+01 4.460068800096775021e+02
8.880000000000001137e+01 4.450741972254784287e+02
8.920000000000000284e+01 4.441477256718286526e+02
8.960000000000000853e+01 4.432273951091980848e+02
9.000000000000000000e+01 4.423131364191164607e+02
9.040000000000000568e+01 4.414048815810865563e+02
9.080000000000001137e+01 4.405025636500810151e+02
9.120000000000000284e+01 4.396061167346018692e+02
9.160000000000000853e+01 4.387154759752892232e+02
9.200000000000000000e+01 4.378305775240604589e+02
9.240000000000000568e+01 4.369513585237648954e+02
9.280000000000001137e+01 4.360777570883407179e+02
9.320000000000000284e+01 4.352097122834567244e+02
9.360000000000000853e+01 4.343471641076270089e+02
9.400000000000000000e+01 4.334900534737839735e+02
9.440000000000000568e+01 4.326383221912965382e+02
9.480000000000001137e+01 4.317919129484215546e+02
9.520000000000000284e+01 4.309507692951747231e+02
9.560000000000000853e+01 4.301148356266113524e+02
9.600000000000000000e+01 4.292840571665025209e+02
9.640000000000000568e+01 4.284583799513983422e+02
9.680000000000001137e+01 4.276377508150653739e+02
9.720000000000000284e+01 4.268221173732896432e+02
9.760000000000000853e+01 4.260114280090326702e+02
9.800000000000000000e+01 4.252056318579343497e+02
9.840000000000000568e+01 4.244046787941491630e+02
9.880000000000001137e+01 4.236085194165098642e+02
9.920000000000000284e+01 4.228171050350075575e+02
9.960000000000000853e+01 4.220303876575812296e+02
1.000000000000000000e+02 4.212483199772066200e+02
1.004000000000000057e+02 4.204708553592785734e+02
1.008000000000000114e+02 4.196979478292769272e+02
1.012000000000000028e+02 4.189295520607096819e+02
1.016000000000000085e+02 4.181656233633253237e+02
1.020000000000000000e+02 4.174061176715881629e+02
1.024000000000000057e+02 4.166509915334088987e+02
1.028000000000000114e+02 4.159002020991234190e+02
1.032000000000000028e+02 4.151537071107152315e+02
1.036000000000000085e+02 4.144114648912723169e+02
1.040000000000000000e+02 4.136734343346754486e+02
1.044000000000000057e+02 4.129395748955090539e+02
1.048000000000000114e+02 4.122098465791919466e+02
1.052000000000000028e+02 4.114842099323187767e+02
1.056000000000000085e+02 4.107626260332104948e+02
1.060000000000000000e+02 4.100450564826658706e+02
1.064000000000000057e+02 4.093314633949099175e+02
1.068000000000000114e+02 4.086218093887347322e+02
1.072000000000000028e+02 4.079160575788270080e+02
1.076000000000000085e+02 4.072141715672781288e+02
1.080000000000000000e+02 4.065161154352718995e+02
1.084000000000000057e+02 4.058218537349467852e+02
1.088000000000000114e+02 4.051313514814261225e+02
1.092000000000000028e+02 4.044445741450141441e+02
1.096000000000000085e+02 4.037614876435526412e+02
1.100000000000000000e+02 4.030820583349352546e+02
1.104000000000000057e+02 4.024062530097744457e+02
1.108000000000000114e+02 4.017340388842181937e+02
1.112000000000000028e+02 4.010653835929133493e+02
1.116000000000000085e+02 4.004002551821100724e+02
1.120000000000000000e+02 3.997386221029068452e+02
1.124000000000000057e+02 3.990804532046301460e+02
1.128000000000000114e+02 3.984257177283467399e+02
1.132000000000000028e+02 3.977743853005062533e+02
1.136000000000000085e+02 3.971264259267087482e+02
1.140000000000000000e+02 3.964818099855967830e+02
1.144000000000000057e+02 3.958405082228670722e+02
1.148000000000000114e+02 3.952024917454009483e+02
1.152000000000000028e+02 3.945677320155079997e+02
1.156000000000000085e+02 3.939362008452840200e+02
1.160000000000000000e+02 3.933078703910769036e+02
1.164000000000000057e+02 3.926827131480605999e+02
1.168000000000000114e+02 3.920607019449141717e+02
1.172000000000000028e+02 3.914418099386018071e+02
1.176000000000000085e+02 3.908260106092540127e+02
1.180000000000000000e+02 3.902132777551461800e+02
1.184000000000000057e+02 3.896035854877725342e+02
1.188000000000000114e+02 3.889969082270137051e+02
1.192000000000000028e+02 3.883932206963952467e+02
1.196000000000000085e+02 3.877924979184356857e+02
1.200000000000000000e+02 3.871947152100819949e+02
1.204000000000000057e+02 3.865998481782296494e+02
1.208000000000000114e+02 3.860078727153270393e+02
1.212000000000000028e+02 3.854187649950609398e+02
1.216000000000000085e+02 3.848325014681216771e+02
1.220000000000000000e+02 3.842490588580468511e+02
1.224000000000000057e+02 3.836684141571409441e+02
1.228000000000000114e+02 3.830905446224701336e+02
1.232000000000000028e+02 3.825154277719298079e+02
1.236000000000000085e+02 3.819430413803832494e+02
1.240000000000000000e+02 3.813733634758714857e+02
1.244000000000000057e+02 3.808063723358899892e+02
1.248000000000000114e+02 3.802420464837342706e+02
1.252000000000000028e+02 3.796803646849089660e+02
1.256000000000000085e+02 3.791213059436032040e+02
1.260000000000000000e+02 3.785648494992267388e+02
1.264000000000000057e+02 3.780109748230096329e+02
1.268000000000000114e+02 3.774596616146605470e+02
1.272000000000000028e+02 3.769108897990848845e+02
1.276000000000000085e+02 3.763646395231603492e+02
1.280000000000000000e+02 3.758208911525689473e+02
1.284000000000000057e+02 3.752796252686847538e+02
1.288000000000000114e+02 3.747408226655153385e+02
1.291999999999999886e+02 3.742044643466967955e+02
1.296000000000000227e+02 3.736705315225401591e+02
1.300000000000000000e+02 3.731390056071299455e+02
1.304000000000000057e+02 3.726098682154707831e+02
1.308000000000000114e+02 3.720831011606845777e+02
1.311999999999999886e+02 3.715586864512551415e+02
1.316000000000000227e+02 3.710366062883186942e+02
1.320000000000000000e+02 3.705168430630023977e+02
1.324000000000000057e+02 3.699993793538055797e+02
1.328000000000000114e+02 3.694841979240270575e+02
1.331999999999999886e+02 3.689712817192349803e+02
1.336000000000000227e+02 3.684606138647784519e+02
1.340000000000000000e+02 3.679521776633421837e+02
1.344000000000000057e+02 3.674459565925407105e+02
1.348000000000000114e+02 3.669419343025529088e+02
1.351999999999999886e+02 3.664400946137955657e+02
1.356000000000000227e+02 3.659404215146359434e+02
1.360000000000000000e+02 3.654428991591413478e+02
1.364000000000000057e+02 3.649475118648654188e+02
1.368000000000000114e+02 3.644542441106718798e+02
1.371999999999999886e+02 3.639630805345921658e+02
1.376000000000000227e+02 3.634740059317186365e+02
1.380000000000000000e+02 3.629870052521326897e+02
1.384000000000000057e+02 3.625020635988647655e+02
1.388000000000000114e+02 3.620191662258885117e+02
1.392000000000000171e+02 3.615382985361465558e+02
1.395999999999999943e+02 3.610594460796083354e+02
1.400000000000000000e+02 3.605825945513579995e+02
1.404000000000000057e+02 3.601077297897139715e+02
1.408000000000000114e+02 3.596348377743777860e+02
1.412000000000000171e+02 3.591639046246119733e+02
1.415999999999999943e+02 3.586949165974471043e+02
1.420000000000000000e+02 3.582278600859168591e+02
1.424000000000000057e+02 3.577627216173205511e+02
1.428000000000000114e+02 3.572994878515139590e+02
1.432000000000000171e+02 3.568381455792247721e+02
1.435999999999999943e+02 3.563786817203963437e+02
1.440000000000000000e+02 3.559210833225557735e+02
1.444000000000000057e+02 3.554653375592077964e+02
1.448000000000000114e+02 3.550114317282530010e+02
1.452000000000000171e+02 3.545593532504311725e+02
1.455999999999999943e+02 3.541090896677875435e+02
1.460000000000000000e+02 3.536606286421629761e+02
1.464000000000000057e+02 3.532139579537073359e+02
1.468000000000000114e+02 3.527690654994149781e+02
1.472000000000000171e+02 3.523259392916828574e+02
1.475999999999999943e+02 3.518845674568901813e+02
1.480000000000000000e+02 3.514449382339994372e+02
1.484000000000000057e+02 3.510070399731788484e+02
1.488000000000000114e+02 3.505708611344447263e+02
1.492000000000000171e+02 3.501363902863250814e+02
1.495999999999999943e+02 3.497036161045424478e+02
1.500000000000000000e+02 3.492725273707160341e+02
