1.000000000000000000e+01 5.509948600310287929e+02
1.040000000000000036e+01 5.909681852338909493e+02
1.080000000000000071e+01 6.447900995457399631e+02
1.119999999999999929e+01 7.057723408382519210e+02
1.159999999999999964e+01 7.214993486557174265e+02
1.200000000000000000e+01 7.303210271642055886e+02
1.240000000000000036e+01 7.316494206951837214e+02
1.280000000000000071e+01 7.619986138265924183e+02
1.319999999999999929e+01 7.789813719583286229e+02
1.359999999999999964e+01 8.100262415443522741e+02
1.400000000000000000e+01 8.073610727376615159e+02
1.440000000000000036e+01 7.930196878563434666e+02
1.480000000000000071e+01 7.795795763042956423e+02
1.519999999999999929e+01 7.669428176391572833e+02
1.560000000000000142e+01 7.550264585022514439e+02
1.600000000000000000e+01 7.437595974846663012e+02
1.639999999999999858e+01 7.330811522203734967e+02
1.680000000000000071e+01 7.229381241814066925e+02
1.719999999999999929e+01 7.132842327684785459e+02
1.760000000000000142e+01 7.040788276031097439e+02
1.800000000000000000e+01 6.952860132724313189e+02
1.839999999999999858e+01 6.868739383274330521e+02
1.880000000000000071e+01 6.788142126996542629e+02
1.920000000000000284e+01 6.710814265502474427e+02
1.960000000000000142e+01 6.636527499898558062e+02
2.000000000000000000e+01 6.565075978335678428e+02
2.039999999999999858e+01 6.496273470736502986e+02
2.080000000000000071e+01 6.429950974014885787e+02
2.120000000000000284e+01 6.365954671247659462e+02
2.160000000000000142e+01 6.304144183728403732e+02
2.200000000000000000e+01 6.244391066816832563e+02
2.239999999999999858e+01 6.186577509858407211e+02
2.280000000000000071e+01 6.130595207817473238e+02
2.320000000000000284e+01 6.076344378109886293e+02
2.360000000000000142e+01 6.023732900785145148e+02
2.400000000000000000e+01 5.972675563955384632e+02
2.439999999999999858e+01 5.923093399397328085e+02
2.480000000000000071e+01 5.874913095715330655e+02
2.520000000000000284e+01 5.828066478465921136e+02
2.560000000000000142e+01 5.782490048297031535e+02
2.600000000000000000e+01 5.738124569519518445e+02
2.640000000000000213e+01 5.694914702659989416e+02
2.680000000000000071e+01 5.652808675486126049e+02
2.719999999999999929e+01 5.611757987783907993e+02
2.760000000000000142e+01 5.571717145827753939e+02
2.800000000000000000e+01 5.532643423042461563e+02
2.840000000000000213e+01 5.494496643827537810e+02
2.880000000000000071e+01 5.457238987915152393e+02
2.920000000000000284e+01 5.420834812973952239e+02
2.960000000000000142e+01 5.385250493462519898e+02
3.000000000000000000e+01 5.350454273986035787e+02
3.040000000000000213e+01 5.316416135624372146e+02
3.080000000000000071e+01 5.283107673885010627e+02
3.120000000000000284e+01 5.250501987094073684e+02
3.160000000000000142e+01 5.218573574177447654e+02
3.200000000000000000e+01 5.187298240904399336e+02
3.240000000000000568e+01 5.156653013770968528e+02
3.279999999999999716e+01 5.126616060792061944e+02
3.320000000000000284e+01 5.097166618551175929e+02
3.360000000000000142e+01 5.068284924927057205e+02
3.400000000000000000e+01 5.039952156978235962e+02
3.440000000000000568e+01 5.012150373520810263e+02
3.479999999999999716e+01 4.984862461982742161e+02
3.520000000000000284e+01 4.958072089160373253e+02
3.560000000000000142e+01 4.931763655540387958e+02
3.600000000000000000e+01 4.905922252883765395e+02
3.640000000000000568e+01 4.880533624797852781e+02
3.679999999999999716e+01 4.855584130049071518e+02
3.720000000000000284e+01 4.831060708392246852e+02
3.760000000000000142e+01 4.806950848713562436e+02
3.800000000000000000e+01 4.783242559302874497e+02
3.840000000000000568e+01 4.759924340088042527e+02
3.879999999999999716e+01 4.736985156678884437e+02
3.920000000000000284e+01 4.714414416082056505e+02
3.960000000000000142e+01 4.692201943960299104e+02
4.000000000000000000e+01 4.670337963320479275e+02
4.040000000000000568e+01 4.648813074524809963e+02
4.079999999999999716e+01 4.627618236528566058e+02
4.120000000000000284e+01 4.606744749255731222e+02
4.160000000000000142e+01 4.586184237031347948e+02
4.200000000000000000e+01 4.565928632995977523e+02
4.239999999999999858e+01 4.545970164433770151e+02
4.280000000000000426e+01 4.526301338951076332e+02
4.320000000000000284e+01 4.506914931447533377e+02
4.360000000000000142e+01 4.487803971826176621e+02
4.400000000000000000e+01 4.468961733393161921e+02
4.439999999999999858e+01 4.450381721901571836e+02
4.480000000000000426e+01 4.432057665197154392e+02
4.520000000000000284e+01 4.413983503427100459e+02
4.560000000000000142e+01 4.396153379775726648e+02
4.600000000000000000e+01 4.378561631693727350e+02
4.639999999999999858e+01 4.361202782589986668e+02
4.680000000000000426e+01 4.344071533957225597e+02
4.720000000000000284e+01 4.327162757904780506e+02
4.760000000000000142e+01 4.310471490073737186e+02
4.800000000000000000e+01 4.293992922911320989e+02
4.840000000000000568e+01 4.277722399283101140e+02
4.880000000000000426e+01 4.261655406403006623e+02
4.920000000000000284e+01 4.245787570062517489e+02
4.960000000000000142e+01 4.230114649141652308e+02
5.000000000000000000e+01 4.214632530385540576e+02
5.040000000000000568e+01 4.199337223431423354e+02
5.080000000000000426e+01 4.184224856071948579e+02
5.120000000000000284e+01 4.169291669741490978e+02
5.160000000000000142e+01 4.154534015213167777e+02
5.200000000000000000e+01 4.139948348494901893e+02
5.240000000000000568e+01 4.125531226913719820e+02
5.280000000000000426e+01 4.111279305378079130e+02
5.320000000000000284e+01 4.097189332808691802e+02
5.360000000000000142e+01 4.083258148728887136e+02
5.400000000000000000e+01 4.069482680006098576e+02
5.440000000000000568e+01 4.055859937736586289e+02
5.480000000000000426e+01 4.042387014265954690e+02
5.520000000000000284e+01 4.029061080338503871e+02
5.560000000000000142e+01 4.015879382368821666e+02
5.600000000000000000e+01 4.002839239829455664e+02
5.640000000000000568e+01 3.989938042748822227e+02
5.680000000000000426e+01 3.977173249313876227e+02
5.720000000000000284e+01 3.964542383572369317e+02
5.760000000000000142e+01 3.952043033229793991e+02
5.800000000000000000e+01 3.939672847536448899e+02
5.840000000000000568e+01 3.927429535260239390e+02
5.880000000000000426e+01 3.915310862741126243e+02
5.920000000000000284e+01 3.903314652023346412e+02
5.960000000000000142e+01 3.891438779061722926e+02
6.000000000000000000e+01 3.879681171998608988e+02
6.040000000000000568e+01 3.868039809508182998e+02
6.080000000000000426e+01 3.856512719204976065e+02
6.120000000000000284e+01 3.845097976113702885e+02
6.160000000000000142e+01 3.833793701197612336e+02
6.200000000000000000e+01 3.822598059942700957e+02
6.240000000000000568e+01 3.811509260995297836e+02
6.280000000000000426e+01 3.800525554850651133e+02
6.320000000000000284e+01 3.789645232590245314e+02
6.360000000000000142e+01 3.778866624665730569e+02
6.400000000000000000e+01 3.768188099727419740e+02
6.440000000000000568e+01 3.757608063495433726e+02
6.480000000000001137e+01 3.747124957671655352e+02
6.520000000000000284e+01 3.736737258890754561e+02
6.559999999999999432e+01 3.726443477708629644e+02
6.600000000000000000e+01 3.716242157626683138e+02
6.640000000000000568e+01 3.706131874150437397e+02
6.680000000000001137e+01 3.696111233881070461e+02
6.720000000000000284e+01 3.686178873638492632e+02
6.759999999999999432e+01 3.676333459614695016e+02
6.800000000000000000e+01 3.666573686556112079e+02
6.840000000000000568e+01 3.656898276973856241e+02
6.880000000000001137e+01 3.647305980380656933e+02
6.920000000000000284e+01 3.637795572553488910e+02
6.959999999999999432e+01 3.628365854820823984e+02
7.000000000000000000e+01 3.619015653373568284e+02
7.040000000000000568e+01 3.609743818598731195e+02
7.080000000000001137e+01 3.600549224434962525e+02
7.120000000000000284e+01 3.591430767749082520e+02
7.159999999999999432e+01 3.582387367732832217e+02
7.200000000000000000e+01 3.573417965319032987e+02
7.240000000000000568e+01 3.564521522616448692e+02
7.280000000000001137e+01 3.555697022362619464e+02
7.320000000000000284e+01 3.546943467394011691e+02
7.359999999999999432e+01 3.538259880132816306e+02
7.400000000000000000e+01 3.529645302089792267e+02
7.440000000000000568e+01 3.521098793382568601e+02
7.479999999999999716e+01 3.512619432268811011e+02
7.520000000000000284e+01 3.504206314693735180e+02
7.560000000000000853e+01 3.495858553851438728e+02
7.600000000000000000e+01 3.487575279759555542e+02
7.640000000000000568e+01 3.479355638846740817e+02
7.679999999999999716e+01 3.471198793552551933e+02
7.720000000000000284e+01 3.463103921939263046e+02
7.760000000000000853e+01 3.455070217315216041e+02
7.800000000000000000e+01 3.447096887869274724e+02
7.840000000000000568e+01 3.439183156316021837e+02
7.879999999999999716e+01 3.431328259551311248e+02
7.920000000000000284e+01 3.423531448317818899e+02
7.960000000000000853e+01 3.415791986880258833e+02
8.000000000000000000e+01 3.408109152709918135e+02
8.040000000000000568e+01 3.400482236178213498e+02
8.079999999999999716e+01 3.392910540258952210e+02
8.120000000000000284e+01 3.385393380239005410e+02
8.160000000000000853e+01 3.377930083437118469e+02
8.200000000000000000e+01 3.370519988930589079e+02
8.240000000000000568e+01 3.363162447289540182e+02
8.279999999999999716e+01 3.355856820318558107e+02
8.320000000000000284e+01 3.348602480805433856e+02
8.360000000000000853e+01 3.341398812276792114e+02
8.400000000000000000e+01 3.334245208760387982e+02
8.440000000000000568e+01 3.327141074553820772e+02
8.479999999999999716e+01 3.320085823999523313e+02
8.520000000000000284e+01 3.313078881265757900e+02
8.560000000000000853e+01 3.306119680133487577e+02
8.600000000000000000e+01 3.299207663788880609e+02
8.640000000000000568e+01 3.292342284621331032e+02
8.680000000000001137e+01 3.285523004026771332e+02
8.720000000000000284e+01 3.278749292216145363e+02
8.760000000000000853e+01 3.272020628028860187e+02
8.800000000000000000e+01 3.265336498751087220e+02
8.840000000000000568e+01 3.258696399938739887e+02
8.880000000000001137e+01 3.252099835244997621e+02
8.920000000000000284e+01 3.245546316252244310e+02
8.960000000000000853e+01 3.239035362308266031e+02
9.000000000000000000e+01 3.232566500366608011e+02
9.040000000000000568e+01 3.226139264830945876e+02
9.080000000000001137e+01 3.219753197403356353e+02
9.120000000000000284e+01 3.213407846936378292e+02
9.160000000000000853e+01 3.207102769288746913e+02
9.200000000000000000e+01 3.200837527184685882e+02
9.240000000000000568e+01 3.194611690076679906e+02
9.280000000000001137e+01 3.188424834011583471e+02
9.320000000000000284e+01 3.182276541500017970e+02
9.360000000000000853e+01 3.176166401388919667e+02
9.400000000000000000e+01 3.170094008737178797e+02
9.440000000000000568e+01 3.164058964694262954e+02
9.480000000000001137e+01 3.158060876381746311e+02
9.520000000000000284e+01 3.152099356777669072e+02
9.560000000000000853e+01 3.146174024603629960e+02
9.600000000000000000e+01 3.140284504214555454e+02
9.640000000000000568e+01 3.134430425491058259e+02
9.680000000000001137e+01 3.128611423734313348e+02
9.720000000000000284e+01 3.122827139563387959e+02
9.760000000000000853e+01 3.117077218814950470e+02
9.800000000000000000e+01 3.111361312445305884e+02
9.840000000000000568e+01 3.105679076434675494e+02
9.880000000000001137e+01 3.100030171693673537e+02
9.920000000000000284e+01 3.094414263971918899e+02
9.960000000000000853e+01 3.088831023768718751e+02
1.000000000000000000e+02 3.083280126245778092e+02
1.004000000000000057e+02 3.077761251141869820e+02
1.008000000000000114e+02 3.072274082689422130e+02
1.012000000000000028e+02 3.066818309532965259e+02
1.016000000000000085e+02 3.061393624649398362e+02
1.020000000000000000e+02 3.055999725270015119e+02
1.024000000000000057e+02 3.050636312804253407e+02
1.028000000000000114e+02 3.045303092765119573e+02
1.032000000000000028e+02 3.039999774696243549e+02
1.036000000000000085e+02 3.034726072100522174e+02
1.040000000000000000e+02 3.029481702370312064e+02
1.044000000000000057e+02 3.024266386719131674e+02
1.048000000000000114e+02 3.019079850114831061e+02
1.052000000000000028e+02 3.013921821214195234e+02
1.056000000000000085e+02 3.008792032298945287e+02
1.060000000000000000e+02 3.003690219213097521e+02
1.064000000000000057e+02 2.998616121301652129e+02
1.068000000000000114e+02 2.993569481350572801e+02
1.072000000000000028e+02 2.988550045528029386e+02
1.076000000000000085e+02 2.983557563326869513e+02
1.080000000000000000e+02 2.978591787508288462e+02
1.084000000000000057e+02 2.973652474046675707e+02
1.088000000000000114e+02 2.968739382075588082e+02
1.092000000000000028e+02 2.963852273834853008e+02
1.096000000000000085e+02 2.958990914618744910e+02
1.100000000000000000e+02 2.954155072725228592e+02
1.104000000000000057e+02 2.949344519406232052e+02
1.108000000000000114e+02 2.944559028818932802e+02
1.112000000000000028e+02 2.939798377978023609e+02
1.116000000000000085e+02 2.935062346708946848e+02
1.120000000000000000e+02 2.930350717602058239e+02
1.124000000000000057e+02 2.925663275967712593e+02
1.128000000000000114e+02 2.920999809792247106e+02
1.132000000000000028e+02 2.916360109694826974e+02
1.136000000000000085e+02 2.911743968885155027e+02
1.140000000000000000e+02 2.907151183122009002e+02
1.144000000000000057e+02 2.902581550672592243e+02
1.148000000000000114e+02 2.898034872272683060e+02
1.152000000000000028e+02 2.893510951087552030e+02
1.156000000000000085e+02 2.889009592673646694e+02
1.160000000000000000e+02 2.884530604941013507e+02
1.164000000000000057e+02 2.880073798116442276e+02
1.168000000000000114e+02 2.875638984707318286e+02
1.172000000000000028e+02 2.871225979466171339e+02
1.176000000000000085e+02 2.866834599355890987e+02
1.180000000000000000e+02 2.862464663515611960e+02
1.184000000000000057e+02 2.858115993227238505e+02
1.188000000000000114e+02 2.853788411882603668e+02
1.192000000000000028e+02 2.849481744951242490e+02
1.196000000000000085e+02 2.845195819948771714e+02
1.200000000000000000e+02 2.840930466405858397e+02
1.204000000000000057e+02 2.836685515837765479e+02
1.208000000000000114e+02 2.832460801714463514e+02
1.212000000000000028e+02 2.828256159431286960e+02
1.216000000000000085e+02 2.824071426280142418e+02
1.220000000000000000e+02 2.819906441421233012e+02
1.224000000000000057e+02 2.815761045855309703e+02
1.228000000000000114e+02 2.811635082396419421e+02
1.232000000000000028e+02 2.807528395645153978e+02
1.236000000000000085e+02 2.803440831962379320e+02
1.240000000000000000e+02 2.799372239443441117e+02
1.244000000000000057e+02 2.795322467892830218e+02
1.248000000000000114e+02 2.791291368799306838e+02
1.252000000000000028e+02 2.787278795311464137e+02
1.256000000000000085e+02 2.783284602213727226e+02
1.260000000000000000e+02 2.779308645902780199e+02
1.264000000000000057e+02 2.775350784364410401e+02
1.268000000000000114e+02 2.771410877150751730e+02
1.272000000000000028e+02 2.767488785357942902e+02
1.276000000000000085e+02 2.763584371604160879e+02
1.280000000000000000e+02 2.759697500008044244e+02
1.284000000000000057e+02 2.755828036167497999e+02
1.288000000000000114e+02 2.751975847138851350e+02
1.291999999999999886e+02 2.748140801416392378e+02
1.296000000000000227e+02 2.744322768912233528e+02
1.300000000000000000e+02 2.740521620936548288e+02
1.304000000000000057e+02 2.736737230178124491e+02
1.308000000000000114e+02 2.732969470685257534e+02
1.311999999999999886e+02 2.729218217846974426e+02
1.316000000000000227e+02 2.725483348374560819e+02
1.320000000000000000e+02 2.721764740283416586e+02
1.324000000000000057e+02 2.718062272875204144e+02
1.328000000000000114e+02 2.714375826720300893e+02
1.331999999999999886e+02 2.710705283640553489e+02
1.336000000000000227e+02 2.707050526692298149e+02
1.340000000000000000e+02 2.703411440149691316e+02
1.344000000000000057e+02 2.699787909488292144e+02
1.348000000000000114e+02 2.696179821368932039e+02
1.351999999999999886e+02 2.692587063621837729e+02
1.356000000000000227e+02 2.689009525231030011e+02
1.360000000000000000e+02 2.685447096318961258e+02
1.364000000000000057e+02 2.681899668131418366e+02
1.368000000000000114e+02 2.678367133022658209e+02
1.371999999999999886e+02 2.674849384440795461e+02
1.376000000000000227e+02 2.671346316913419514e+02
1.380000000000000000e+02 2.667857826033448987e+02
1.384000000000000057e+02 2.664383808445203385e+02
1.388000000000000114e+02 2.660924161830712364e+02
1.392000000000000171e+02 2.657478784896231900e+02
1.395999999999999943e+02 2.654047577358982721e+02
1.400000000000000000e+02 2.650630439934091100e+02
1.404000000000000057e+02 2.647227274321745085e+02
1.408000000000000114e+02 2.643837983194553090e+02
1.412000000000000171e+02 2.640462470185092343e+02
1.415999999999999943e+02 2.637100639873662544e+02
1.420000000000000000e+02 2.633752397776225962e+02
1.424000000000000057e+02 2.630417650332538528e+02
1.428000000000000114e+02 2.627096304894462264e+02
1.432000000000000171e+02 2.623788269714464150e+02
1.435999999999999943e+02 2.620493453934286663e+02
1.440000000000000000e+02 2.617211767573799648e+02
1.444000000000000057e+02 2.613943121520015325e+02
1.448000000000000114e+02 2.610687427516281787e+02
1.452000000000000171e+02 2.607444598151634523e+02
1.455999999999999943e+02 2.604214546850311081e+02
1.460000000000000000e+02 2.600997187861427165e+02
1.464000000000000057e+02 2.597792436248810191e+02
1.468000000000000114e+02 2.594600207880983476e+02
1.472000000000000171e+02 2.591420419421302768e+02
1.475999999999999943e+02 2.588252988318241137e+02
1.480000000000000000e+02 2.585097832795821091e+02
1.484000000000000057e+02 2.581954871844184254e+02
1.488000000000000114e+02 2.578824025210309969e+02
1.492000000000000171e+02 2.575705213388865786e+02
1.495999999999999943e+02 2.572598357613193798e+02
1.500000000000000000e+02 2.569503379846432836e+02
