1.000000000000000000e+01 3.918680429328584296e+02
1.040000000000000036e+01 3.982006763995041752e+02
1.080000000000000071e+01 3.976659778627505943e+02
1.119999999999999929e+01 3.986936149234412596e+02
1.159999999999999964e+01 4.084439326549551765e+02
1.200000000000000000e+01 4.001337003546842084e+02
1.240000000000000036e+01 3.923752987599993958e+02
1.280000000000000071e+01 3.851073423004731922e+02
1.319999999999999929e+01 3.782779053976683485e+02
1.359999999999999964e+01 3.718426785463997248e+02
1.400000000000000000e+01 3.657635551165625429e+02
1.440000000000000036e+01 3.600075325597846359e+02
1.480000000000000071e+01 3.545458470941855467e+02
1.519999999999999929e+01 3.493532844321674702e+02
1.560000000000000142e+01 3.444076250637883732e+02
1.600000000000000000e+01 3.396891936522011974e+02
1.639999999999999858e+01 3.351804898830498587e+02
1.680000000000000071e+01 3.308658836866501929e+02
1.719999999999999929e+01 3.267313618050528703e+02
1.760000000000000142e+01 3.227643156610773758e+02
1.800000000000000000e+01 3.189533627113453917e+02
1.839999999999999858e+01 3.152881951422162388e+02
1.880000000000000071e+01 3.117594510442952469e+02
1.920000000000000284e+01 3.083586041825451503e+02
1.960000000000000142e+01 3.050778692399551346e+02
2.000000000000000000e+01 3.019101200075685938e+02
2.039999999999999858e+01 2.988488184622342487e+02
2.080000000000000071e+01 2.958879530451779374e+02
2.120000000000000284e+01 2.930219847513831155e+02
2.160000000000000142e+01 2.902457998783810922e+02
2.200000000000000000e+01 2.875546684759649452e+02
2.239999999999999858e+01 2.849442076951857530e+02
2.280000000000000071e+01 2.824103493631771471e+02
2.320000000000000284e+01 2.799493112156624193e+02
2.360000000000000142e+01 2.775575713059042755e+02
2.400000000000000000e+01 2.752318451809205726e+02
2.439999999999999858e+01 2.729690654757874881e+02
2.480000000000000071e+01 2.707663636270197003e+02
2.520000000000000284e+01 2.686210534481262471e+02
2.560000000000000142e+01 2.665306163459167692e+02
2.600000000000000000e+01 2.644926879861328644e+02
2.640000000000000213e+01 2.625050462424286479e+02
2.680000000000000071e+01 2.605656002843896886e+02
2.719999999999999929e+01 2.586723806787809394e+02
2.760000000000000142e+01 2.568235303940563199e+02
2.800000000000000000e+01 2.550172966117775673e+02
2.840000000000000213e+01 2.532520232603109207e+02
2.880000000000000071e+01 2.515261441962977642e+02
2.920000000000000284e+01 2.498381769681658966e+02
2.960000000000000142e+01 2.481867171035589763e+02
3.000000000000000000e+01 2.465704328691878686e+02
3.040000000000000213e+01 2.449880604573844494e+02
3.080000000000000071e+01 2.434383995586939022e+02
3.120000000000000284e+01 2.419203092842615774e+02
3.160000000000000142e+01 2.404327044056624061e+02
3.200000000000000000e+01 2.389745518832352502e+02
3.240000000000000568e+01 2.375448676569993154e+02
3.279999999999999716e+01 2.361427136768924129e+02
3.320000000000000284e+01 2.347671951514232944e+02
3.360000000000000142e+01 2.334174579959194489e+02
3.400000000000000000e+01 2.320926864634050446e+02
3.440000000000000568e+01 2.307921009427918762e+02
3.479999999999999716e+01 2.295149559105346952e+02
3.520000000000000284e+01 2.282605380232137122e+02
3.560000000000000142e+01 2.270281643396788240e+02
3.600000000000000000e+01 2.258171806624359874e+02
3.640000000000000568e+01 2.246269599889008077e+02
3.679999999999999716e+01 2.234569010639825137e+02
3.720000000000000284e+01 2.223064270262250091e+02
3.760000000000000142e+01 2.211749841404105723e+02
3.800000000000000000e+01 2.200620406101495519e+02
3.840000000000000568e+01 2.189670854645344207e+02
3.879999999999999716e+01 2.178896275134364373e+02
3.920000000000000284e+01 2.168291943664807491e+02
3.960000000000000142e+01 2.157853315111435961e+02
4.000000000000000000e+01 2.147576014457910674e+02
4.040000000000000568e+01 2.137455828638152013e+02
4.079999999999999716e+01 2.127488698853332778e+02
4.120000000000000284e+01 2.117670713331945649e+02
4.160000000000000142e+01 2.107998100502946954e+02
4.200000000000000000e+01 2.098467222554302793e+02
4.239999999999999858e+01 2.089074569351396349e+02
4.280000000000000426e+01 2.079816752691672832e+02
4.320000000000000284e+01 2.070690500873706696e+02
4.360000000000000142e+01 2.061692653560462531e+02
4.400000000000000000e+01 2.052820156918045882e+02
4.439999999999999858e+01 2.044070059012578326e+02
4.480000000000000426e+01 2.035439505449094781e+02
4.520000000000000284e+01 2.026925735237518040e+02
4.560000000000000142e+01 2.018526076871814325e+02
4.600000000000000000e+01 2.010237944609409624e+02
4.639999999999999858e+01 2.002058834938849543e+02
4.680000000000000426e+01 1.993986323224512489e+02
4.720000000000000284e+01 1.986018060517938579e+02
4.760000000000000142e+01 1.978151770526052360e+02
4.800000000000000000e+01 1.970385246727210529e+02
4.840000000000000568e+01 1.962716349626587657e+02
4.880000000000000426e+01 1.955143004143004646e+02
4.920000000000000284e+01 1.947663197119778999e+02
4.960000000000000142e+01 1.940274974952690172e+02
5.000000000000000000e+01 1.932976441328576129e+02
5.040000000000000568e+01 1.925765755068488829e+02
5.080000000000000426e+01 1.918641128069734521e+02
5.120000000000000284e+01 1.911600823341451587e+02
5.160000000000000142e+01 1.904643153128743620e+02
5.200000000000000000e+01 1.897766477120656248e+02
5.240000000000000568e+01 1.890969200737598044e+02
5.280000000000000426e+01 1.884249773494061913e+02
5.320000000000000284e+01 1.877606687432748913e+02
5.360000000000000142e+01 1.871038475626435229e+02
5.400000000000000000e+01 1.864543710744131317e+02
5.440000000000000568e+01 1.858121003678285206e+02
5.480000000000000426e+01 1.851769002229979435e+02
5.520000000000000284e+01 1.845486389849227180e+02
5.560000000000000142e+01 1.839271884427664361e+02
5.600000000000000000e+01 1.833124237141057051e+02
5.640000000000000568e+01 1.827042231339222269e+02
5.680000000000000426e+01 1.821024681481061407e+02
5.720000000000000284e+01 1.815070432112555636e+02
5.760000000000000142e+01 1.809178356885687151e+02
5.800000000000000000e+01 1.803347357616343629e+02
5.840000000000000568e+01 1.797576363379400846e+02
5.880000000000000426e+01 1.791864329639239486e+02
5.920000000000000284e+01 1.786210237414073845e+02
5.960000000000000142e+01 1.780613092472536607e+02
6.000000000000000000e+01 1.775071924561062247e+02
6.040000000000000568e+01 1.769585786660670692e+02
6.080000000000000426e+01 1.764153754271839318e+02
6.120000000000000284e+01 1.758774924726209292e+02
6.160000000000000142e+01 1.753448416523945923e+02
6.200000000000000000e+01 1.748173368695621548e+02
6.240000000000000568e+01 1.742948940187553717e+02
6.280000000000000426e+01 1.737774309269588571e+02
6.320000000000000284e+01 1.732648672964353125e+02
6.360000000000000142e+01 1.727571246497070661e+02
6.400000000000000000e+01 1.722541262765062129e+02
6.440000000000000568e+01 1.717557971826101948e+02
6.480000000000001137e+01 1.712620640404842618e+02
6.520000000000000284e+01 1.707728551416553842e+02
6.559999999999999432e+01 1.702881003507460491e+02
6.600000000000000000e+01 1.698077310611002702e+02
6.640000000000000568e+01 1.693316801519361263e+02
6.680000000000001137e+01 1.688598819469632986e+02
6.720000000000000284e+01 1.683922721744068554e+02
6.759999999999999432e+01 1.679287879283803306e+02
6.800000000000000000e+01 1.674693676315552011e+02
6.840000000000000568e+01 1.670139509990749502e+02
6.880000000000001137e+01 1.665624790036647482e+02
6.920000000000000284e+01 1.661148938418909609e+02
6.959999999999999432e+01 1.656711389015243299e+02
7.000000000000000000e+01 1.652311587299657276e+02
7.040000000000000568e+01 1.647948990036931036e+02
7.080000000000001137e+01 1.643623064986903159e+02
7.120000000000000284e+01 1.639333290618215528e+02
7.159999999999999432e+01 1.635079155831148228e+02
7.200000000000000000e+01 1.630860159689210036e+02
7.240000000000000568e+01 1.626675811159157945e+02
7.280000000000001137e+01 1.622525628859133917e+02
7.320000000000000284e+01 1.618409140814615625e+02
7.359999999999999432e+01 1.614325884221903493e+02
7.400000000000000000e+01 1.610275405218859532e+02
7.440000000000000568e+01 1.606257258662648724e+02
7.479999999999999716e+01 1.602271007914218899e+02
7.520000000000000284e+01 1.598316224629282374e+02
7.560000000000000853e+01 1.594392488555572527e+02
7.600000000000000000e+01 1.590499387336145674e+02
7.640000000000000568e+01 1.586636516318522467e+02
7.679999999999999716e+01 1.582803478369460493e+02
7.720000000000000284e+01 1.578999883695159383e+02
7.760000000000000853e+01 1.575225349666722536e+02
7.800000000000000000e+01 1.571479500650678176e+02
7.840000000000000568e+01 1.567761967844398043e+02
7.879999999999999716e+01 1.564072389116243471e+02
7.920000000000000284e+01 1.560410408850278827e+02
7.960000000000000853e+01 1.556775677795397144e+02
8.000000000000000000e+01 1.553167852918712697e+02
8.040000000000000568e+01 1.549586597263074168e+02
8.079999999999999716e+01 1.546031579808570200e+02
8.120000000000000284e+01 1.542502475337881265e+02
8.160000000000000853e+01 1.538998964305368418e+02
8.200000000000000000e+01 1.535520732709763649e+02
8.240000000000000568e+01 1.532067471970349857e+02
8.279999999999999716e+01 1.528638878806521575e+02
8.320000000000000284e+01 1.525234655120607954e+02
8.360000000000000853e+01 1.521854507883863903e+02
8.400000000000000000e+01 1.518498149025522252e+02
8.440000000000000568e+01 1.515165295324810018e+02
8.479999999999999716e+01 1.511855668305840084e+02
8.520000000000000284e+01 1.508568994135282537e+02
8.560000000000000853e+01 1.505305003522731511e+02
8.600000000000000000e+01 1.502063431623684551e+02
8.640000000000000568e+01 1.498844017945052087e+02
8.680000000000001137e+01 1.495646506253118559e+02
8.720000000000000284e+01 1.492470644483884712e+02
8.760000000000000853e+01 1.489316184655709492e+02
8.800000000000000000e+01 1.486182882784193851e+02
8.840000000000000568e+01 1.483070498799226868e+02
8.880000000000001137e+01 1.479978796464138213e+02
8.920000000000000284e+01 1.476907543296889287e+02
8.960000000000000853e+01 1.473856510493241387e+02
9.000000000000000000e+01 1.470825472851849156e+02
9.040000000000000568e+01 1.467814208701212237e+02
9.080000000000001137e+01 1.464822499828440812e+02
9.120000000000000284e+01 1.461850131409773894e+02
9.160000000000000853e+01 1.458896891942804928e+02
9.200000000000000000e+01 1.455962573180361801e+02
9.240000000000000568e+01 1.453046970065997812e+02
9.280000000000001137e+01 1.450149880671039000e+02
9.320000000000000284e+01 1.447271106133154603e+02
9.360000000000000853e+01 1.444410450596396913e+02
9.400000000000000000e+01 1.441567721152678416e+02
9.440000000000000568e+01 1.438742727784635349e+02
9.480000000000001137e+01 1.435935283309848955e+02
9.520000000000000284e+01 1.433145203326378692e+02
9.560000000000000853e+01 1.430372306159577533e+02
9.600000000000000000e+01 1.427616412810144197e+02
9.640000000000000568e+01 1.424877346903390389e+02
9.680000000000001137e+01 1.422154934639682438e+02
9.720000000000000284e+01 1.419449004746022069e+02
9.760000000000000853e+01 1.416759388428745865e+02
9.800000000000000000e+01 1.414085919327302747e+02
9.840000000000000568e+01 1.411428433469083643e+02
9.880000000000001137e+01 1.408786769225279443e+02
9.920000000000000284e+01 1.406160767267734286e+02
9.960000000000000853e+01 1.403550270526768600e+02
1.000000000000000000e+02 1.400955124149948006e+02
1.004000000000000057e+02 1.398375175461772528e+02
1.008000000000000114e+02 1.395810273924259945e+02
1.012000000000000028e+02 1.393260271098402541e+02
1.016000000000000085e+02 1.390725020606473663e+02
1.020000000000000000e+02 1.388204378095158802e+02
1.024000000000000057e+02 1.385698201199496680e+02
1.028000000000000114e+02 1.383206349507601089e+02
1.032000000000000028e+02 1.380728684526151255e+02
1.036000000000000085e+02 1.378265069646624852e+02
1.040000000000000000e+02 1.375815370112259757e+02
1.044000000000000057e+02 1.373379452985719809e+02
1.048000000000000114e+02 1.370957187117455760e+02
1.052000000000000028e+02 1.368548443114734141e+02
1.056000000000000085e+02 1.366153093311324369e+02
1.060000000000000000e+02 1.363771011737825063e+02
1.064000000000000057e+02 1.361402074092611656e+02
1.068000000000000114e+02 1.359046157713394223e+02
1.072000000000000028e+02 1.356703141549368468e+02
1.076000000000000085e+02 1.354372906133941967e+02
1.080000000000000000e+02 1.352055333558028565e+02
1.084000000000000057e+02 1.349750307443889881e+02
1.088000000000000114e+02 1.347457712919514279e+02
1.092000000000000028e+02 1.345177436593523908e+02
1.096000000000000085e+02 1.342909366530584805e+02
1.100000000000000000e+02 1.340653392227325185e+02
1.104000000000000057e+02 1.338409404588733480e+02
1.108000000000000114e+02 1.336177295905037568e+02
1.112000000000000028e+02 1.333956959829041864e+02
1.116000000000000085e+02 1.331748291353924571e+02
1.120000000000000000e+02 1.329551186791470343e+02
1.124000000000000057e+02 1.327365543750741210e+02
1.128000000000000114e+02 1.325191261117164743e+02
1.132000000000000028e+02 1.323028239032036595e+02
1.136000000000000085e+02 1.320876378872425221e+02
1.140000000000000000e+02 1.318735583231467956e+02
1.144000000000000057e+02 1.316605755899054202e+02
1.148000000000000114e+02 1.314486801842882073e+02
1.152000000000000028e+02 1.312378627189879410e+02
1.156000000000000085e+02 1.310281139207988303e+02
1.160000000000000000e+02 1.308194246288295233e+02
1.164000000000000057e+02 1.306117857927503394e+02
1.168000000000000114e+02 1.304051884710744389e+02
1.172000000000000028e+02 1.301996238294707950e+02
1.176000000000000085e+02 1.299950831391101360e+02
1.180000000000000000e+02 1.297915577750412410e+02
1.184000000000000057e+02 1.295890392145983014e+02
1.188000000000000114e+02 1.293875190358381246e+02
1.192000000000000028e+02 1.291869889160061007e+02
1.196000000000000085e+02 1.289874406300312160e+02
1.200000000000000000e+02 1.287888660490488348e+02
1.204000000000000057e+02 1.285912571389506240e+02
1.208000000000000114e+02 1.283946059589615061e+02
1.212000000000000028e+02 1.281989046602423343e+02
1.216000000000000085e+02 1.280041454845186308e+02
1.220000000000000000e+02 1.278103207627340794e+02
1.224000000000000057e+02 1.276174229137282055e+02
1.228000000000000114e+02 1.274254444429387831e+02
1.232000000000000028e+02 1.272343779411268088e+02
1.236000000000000085e+02 1.270442160831250078e+02
1.240000000000000000e+02 1.268549516266085959e+02
1.244000000000000057e+02 1.266665774108880385e+02
1.248000000000000114e+02 1.264790863557232399e+02
1.252000000000000028e+02 1.262924714601588789e+02
1.256000000000000085e+02 1.261067258013805770e+02
1.260000000000000000e+02 1.259218425335905067e+02
1.264000000000000057e+02 1.257378148869038625e+02
1.268000000000000114e+02 1.255546361662637480e+02
1.272000000000000028e+02 1.253722997503755039e+02
1.276000000000000085e+02 1.251907990906594108e+02
1.280000000000000000e+02 1.250101277102216955e+02
1.284000000000000057e+02 1.248302792028433714e+02
1.288000000000000114e+02 1.246512472319861899e+02
1.291999999999999886e+02 1.244730255298161836e+02
1.296000000000000227e+02 1.242956078962435242e+02
1.300000000000000000e+02 1.241189881979791494e+02
1.304000000000000057e+02 1.239431603676069926e+02
1.308000000000000114e+02 1.237681184026725418e+02
1.311999999999999886e+02 1.235938563647863475e+02
1.316000000000000227e+02 1.234203683787428076e+02
1.320000000000000000e+02 1.232476486316540161e+02
1.324000000000000057e+02 1.230756913720975945e+02
1.328000000000000114e+02 1.229044909092795024e+02
1.331999999999999886e+02 1.227340416122100208e+02
1.336000000000000227e+02 1.225643379088940037e+02
1.340000000000000000e+02 1.223953742855343876e+02
1.344000000000000057e+02 1.222271452857485770e+02
1.348000000000000114e+02 1.220596455097982300e+02
1.351999999999999886e+02 1.218928696138311807e+02
1.356000000000000227e+02 1.217268123091362781e+02
1.360000000000000000e+02 1.215614683614096805e+02
1.364000000000000057e+02 1.213968325900340517e+02
1.368000000000000114e+02 1.212328998673683316e+02
1.371999999999999886e+02 1.210696651180500112e+02
1.376000000000000227e+02 1.209071233183079812e+02
1.380000000000000000e+02 1.207452694952866636e+02
1.384000000000000057e+02 1.205840987263809581e+02
1.388000000000000114e+02 1.204236061385818601e+02
1.392000000000000171e+02 1.202637869078324115e+02
1.395999999999999943e+02 1.201046362583938674e+02
1.400000000000000000e+02 1.199461494622220812e+02
1.404000000000000057e+02 1.197883218383534114e+02
1.408000000000000114e+02 1.196311487523007600e+02
1.412000000000000171e+02 1.194746256154584927e+02
1.415999999999999943e+02 1.193187478845173928e+02
1.420000000000000000e+02 1.191635110608879131e+02
1.424000000000000057e+02 1.190089106901332627e+02
1.428000000000000114e+02 1.188549423614106075e+02
1.432000000000000171e+02 1.187016017069212523e+02
1.435999999999999943e+02 1.185488844013693210e+02
1.440000000000000000e+02 1.183967861614285368e+02
1.444000000000000057e+02 1.182453027452174581e+02
1.448000000000000114e+02 1.180944299517825300e+02
1.452000000000000171e+02 1.179441636205891371e+02
1.455999999999999943e+02 1.177944996310203720e+02
1.460000000000000000e+02 1.176454339018834219e+02
1.464000000000000057e+02 1.174969623909232723e+02
1.468000000000000114e+02 1.173490810943441147e+02
1.472000000000000171e+02 1.172017860463373751e+02
1.475999999999999943e+02 1.170550733186175165e+02
1.480000000000000000e+02 1.169089390199642082e+02
1.484000000000000057e+02 1.167633792957715855e+02
1.488000000000000114e+02 1.166183903276042599e+02
1.492000000000000171e+02 1.164739683327596538e+02
1.495999999999999943e+02 1.163301095638372260e+02
1.500000000000000000e+02 1.161868103083135679e+02
