1.000000000000000000e+01 1.070869538147211983e+02
1.040000000000000036e+01 1.068222505743358965e+02
1.080000000000000071e+01 1.028797981788682279e+02
1.119999999999999929e+01 1.013519350433287514e+02
1.159999999999999964e+01 9.825826785764724036e+01
1.200000000000000000e+01 9.543879045228655400e+01
1.240000000000000036e+01 9.285353492562174438e+01
1.280000000000000071e+01 9.047050303436733998e+01
1.319999999999999929e+01 8.826368031615436394e+01
1.359999999999999964e+01 8.438633701888230121e+01
1.400000000000000000e+01 8.257453633907282153e+01
1.440000000000000036e+01 8.088096875612815495e+01
1.480000000000000071e+01 7.928870847316918002e+01
1.519999999999999929e+01 7.778761348552575328e+01
1.560000000000000142e+01 7.636895530915727193e+01
1.600000000000000000e+01 7.502516853951138387e+01
1.639999999999999858e+01 7.374965379333117710e+01
1.680000000000000071e+01 7.202978274685335691e+01
1.719999999999999929e+01 7.085769569389906053e+01
1.760000000000000142e+01 6.973922746986104926e+01
1.800000000000000000e+01 6.867031945543614313e+01
1.839999999999999858e+01 6.764733709117246008e+01
1.880000000000000071e+01 6.527126959479328150e+01
1.920000000000000284e+01 6.436746057793111220e+01
1.960000000000000142e+01 6.349947539586272427e+01
2.000000000000000000e+01 6.265901797096810100e+01
2.039999999999999858e+01 6.183901041637581386e+01
2.080000000000000071e+01 6.104968083484038743e+01
2.120000000000000284e+01 6.052044773685650370e+01
2.160000000000000142e+01 5.981328283253571954e+01
2.200000000000000000e+01 5.913007526397137070e+01
2.239999999999999858e+01 5.846948209541618269e+01
2.280000000000000071e+01 5.783026443836386932e+01
2.320000000000000284e+01 5.721127723985230773e+01
2.360000000000000142e+01 5.661146027651916768e+01
2.400000000000000000e+01 5.602595352054460420e+01
2.439999999999999858e+01 5.568369860932167370e+01
2.480000000000000071e+01 5.509759318091706604e+01
2.520000000000000284e+01 5.452873468889703190e+01
2.560000000000000142e+01 5.397421421634487615e+01
2.600000000000000000e+01 5.343367664470773093e+01
2.640000000000000213e+01 5.290826948447647737e+01
2.680000000000000071e+01 5.239728954200219846e+01
2.719999999999999929e+01 5.190007888985859097e+01
2.760000000000000142e+01 5.141602116814606660e+01
2.800000000000000000e+01 5.094453825013941639e+01
2.840000000000000213e+01 5.048584382868956766e+01
2.880000000000000071e+01 5.004681715277064313e+01
2.920000000000000284e+01 4.961841728875982938e+01
2.960000000000000142e+01 4.920021599080534713e+01
3.000000000000000000e+01 4.879180897844511833e+01
3.040000000000000213e+01 4.839281422972494795e+01
3.080000000000000071e+01 4.804640424818155964e+01
3.120000000000000284e+01 4.766588674732353326e+01
3.160000000000000142e+01 4.729376963859895966e+01
3.200000000000000000e+01 4.729965240660831682e+01
3.240000000000000568e+01 4.696429368631144996e+01
3.279999999999999716e+01 4.663584605324565757e+01
3.320000000000000284e+01 4.631407233459076167e+01
3.360000000000000142e+01 4.587546606733651799e+01
3.400000000000000000e+01 4.556480259262161070e+01
3.440000000000000568e+01 4.526026157199861188e+01
3.479999999999999716e+01 4.496164178779666543e+01
3.520000000000000284e+01 4.466875123191847763e+01
3.560000000000000142e+01 4.438140656786286797e+01
3.600000000000000000e+01 4.409943263083691534e+01
3.640000000000000568e+01 4.382271989281328217e+01
3.679999999999999716e+01 4.355108277445484788e+01
3.720000000000000284e+01 4.328429740300398265e+01
3.760000000000000142e+01 4.302221945834828176e+01
3.800000000000000000e+01 4.276471059432005006e+01
3.840000000000000568e+01 4.250980721873923329e+01
3.879999999999999716e+01 4.225863543573500891e+01
3.920000000000000284e+01 4.201171578085082103e+01
3.960000000000000142e+01 4.176835416805340628e+01
4.000000000000000000e+01 4.152597668262620090e+01
4.040000000000000568e+01 4.128757598369043080e+01
4.079999999999999716e+01 4.105304332676281831e+01
4.120000000000000284e+01 4.082227410743938378e+01
4.160000000000000142e+01 4.059516766021469891e+01
4.200000000000000000e+01 4.037162706915282229e+01
4.239999999999999858e+01 4.015155898959157099e+01
4.280000000000000426e+01 3.991184769804456067e+01
4.320000000000000284e+01 3.970053846865478420e+01
4.360000000000000142e+01 3.949243188191768894e+01
4.400000000000000000e+01 3.932196249992529147e+01
4.439999999999999858e+01 3.912135146090076887e+01
4.480000000000000426e+01 3.892367770316161568e+01
4.520000000000000284e+01 3.872886931945789257e+01
4.560000000000000142e+01 3.853685685800515159e+01
4.600000000000000000e+01 3.834757321529430385e+01
4.639999999999999858e+01 3.816095353458273109e+01
4.680000000000000426e+01 3.797693510971342334e+01
4.720000000000000284e+01 3.779545729393387887e+01
4.760000000000000142e+01 3.761646141340963112e+01
4.800000000000000000e+01 3.743989068514896701e+01
4.840000000000000568e+01 3.726569013907454320e+01
4.880000000000000426e+01 3.709380654399595301e+01
4.920000000000000284e+01 3.692299072039179464e+01
4.960000000000000142e+01 3.679772890544609965e+01
5.000000000000000000e+01 3.663504582613430927e+01
5.040000000000000568e+01 3.647447587310495720e+01
5.080000000000000426e+01 3.631594209638718951e+01
5.120000000000000284e+01 3.615940129630956790e+01
5.160000000000000142e+01 3.600481155400346722e+01
5.200000000000000000e+01 3.585213218276281566e+01
5.240000000000000568e+01 3.570132368165079129e+01
5.280000000000000426e+01 3.555234769123147487e+01
5.320000000000000284e+01 3.540516695131188385e+01
5.360000000000000142e+01 3.525974526058726610e+01
5.400000000000000000e+01 3.511604743808876350e+01
5.440000000000000568e+01 3.497403928633878678e+01
5.480000000000000426e+01 3.483368755612524836e+01
5.520000000000000284e+01 3.469495991281094405e+01
5.560000000000000142e+01 3.455782490409943364e+01
5.600000000000000000e+01 3.442225192918340326e+01
5.640000000000000568e+01 3.427751871966348318e+01
5.680000000000000426e+01 3.414821432687157454e+01
5.720000000000000284e+01 3.402033956260532932e+01
5.760000000000000142e+01 3.389386797394395501e+01
5.800000000000000000e+01 3.376877379196318429e+01
5.840000000000000568e+01 3.364503190908196473e+01
5.880000000000000426e+01 3.352261785732198973e+01
5.920000000000000284e+01 3.340127339406488716e+01
5.960000000000000142e+01 3.328032590614427022e+01
6.000000000000000000e+01 3.316064736814117708e+01
6.040000000000000568e+01 3.304221550403899954e+01
6.080000000000000426e+01 3.292500858407482411e+01
6.120000000000000284e+01 3.280900540758814543e+01
6.160000000000000142e+01 3.269418528652462186e+01
6.200000000000000000e+01 3.258052802956512295e+01
6.240000000000000568e+01 3.246801392685256360e+01
6.280000000000000426e+01 3.235660935094477964e+01
6.320000000000000284e+01 3.224605823557666184e+01
6.360000000000000142e+01 3.213583997368866818e+01
6.400000000000000000e+01 3.202608211973992525e+01
6.440000000000000568e+01 3.191739960838599188e+01
6.480000000000001137e+01 3.180977479970811572e+01
6.520000000000000284e+01 3.170319045826832749e+01
6.559999999999999432e+01 3.159762974122558887e+01
6.600000000000000000e+01 3.149307618687683075e+01
6.640000000000000568e+01 3.138951370360513238e+01
6.680000000000001137e+01 3.128692655921786780e+01
6.720000000000000284e+01 3.118529937065864743e+01
6.759999999999999432e+01 3.108461709407780660e+01
6.800000000000000000e+01 3.098486501524653391e+01
6.840000000000000568e+01 3.088602874030078738e+01
6.880000000000001137e+01 3.078809418680157961e+01
6.920000000000000284e+01 3.069104757509892778e+01
6.959999999999999432e+01 3.059487541998737115e+01
7.000000000000000000e+01 3.049956452264136431e+01
7.040000000000000568e+01 3.041343261652923502e+01
7.080000000000001137e+01 3.031978044398910299e+01
7.120000000000000284e+01 3.024070884549037785e+01
7.159999999999999432e+01 3.015019938820946521e+01
7.200000000000000000e+01 3.007826569769596148e+01
7.240000000000000568e+01 2.999078283479537532e+01
7.280000000000001137e+01 2.990404292641813555e+01
7.320000000000000284e+01 2.981803539127268721e+01
7.359999999999999432e+01 2.973274985893696254e+01
7.400000000000000000e+01 2.964817616446914172e+01
7.440000000000000568e+01 2.956430434318624378e+01
7.479999999999999716e+01 2.948112462560418834e+01
7.520000000000000284e+01 2.939862743253368649e+01
7.560000000000000853e+01 2.931680337032619832e+01
7.600000000000000000e+01 2.923564322626452849e+01
7.640000000000000568e+01 2.915513796409295821e+01
7.679999999999999716e+01 2.907527871968185806e+01
7.720000000000000284e+01 2.899605679682205306e+01
7.760000000000000853e+01 2.891748433810720087e+01
7.800000000000000000e+01 2.883969517615736322e+01
7.840000000000000568e+01 2.876251573186610955e+01
7.879999999999999716e+01 2.868593798984378296e+01
7.920000000000000284e+01 2.860995408219099545e+01
7.960000000000000853e+01 2.853455628501669850e+01
8.000000000000000000e+01 2.845972659384331394e+01
8.040000000000000568e+01 2.838513936255526460e+01
8.079999999999999716e+01 2.831112050151984505e+01
8.120000000000000284e+01 2.823766274473511118e+01
8.160000000000000853e+01 2.816475895625390180e+01
8.200000000000000000e+01 2.809240212719640795e+01
8.240000000000000568e+01 2.802058537284650441e+01
8.279999999999999716e+01 2.794893566665639639e+01
8.320000000000000284e+01 2.787770375724545602e+01
8.360000000000000853e+01 2.780699679321095630e+01
8.400000000000000000e+01 2.773680828818284638e+01
8.440000000000000568e+01 2.766713186798741475e+01
8.479999999999999716e+01 2.759796126815698258e+01
8.520000000000000284e+01 2.752929033150706317e+01
8.560000000000000853e+01 2.746111300577857861e+01
8.600000000000000000e+01 2.738800932760461748e+01
8.640000000000000568e+01 2.732076654567711671e+01
8.680000000000001137e+01 2.725400112835804123e+01
8.720000000000000284e+01 2.718770739213697141e+01
8.760000000000000853e+01 2.712187974824330894e+01
8.800000000000000000e+01 2.705651270061968106e+01
8.840000000000000568e+01 2.699160084394821268e+01
8.880000000000001137e+01 2.692713886172791860e+01
8.920000000000000284e+01 2.686312152440185130e+01
8.960000000000000853e+01 2.680762989761583981e+01
9.000000000000000000e+01 2.674468146055516371e+01
9.040000000000000568e+01 2.668216018947196488e+01
9.080000000000001137e+01 2.662006122080462589e+01
9.120000000000000284e+01 2.655837976853410254e+01
9.160000000000000853e+01 2.649711112259700130e+01
9.200000000000000000e+01 2.643625064733841512e+01
9.240000000000000568e+01 2.637579378000306463e+01
9.280000000000001137e+01 2.631573602926382804e+01
9.320000000000000284e+01 2.625607297378642357e+01
9.360000000000000853e+01 2.619680026082925650e+01
9.400000000000000000e+01 2.613787687350866307e+01
9.440000000000000568e+01 2.607927380936691364e+01
9.480000000000001137e+01 2.602104876726098581e+01
9.520000000000000284e+01 2.596319765399667290e+01
9.560000000000000853e+01 2.590571643845500915e+01
9.600000000000000000e+01 2.584860115038375028e+01
9.640000000000000568e+01 2.579495526386034499e+01
9.680000000000001137e+01 2.573927964807062452e+01
9.720000000000000284e+01 2.568395258538371451e+01
9.760000000000000853e+01 2.562897040956087835e+01
9.800000000000000000e+01 2.557432950840411578e+01
9.840000000000000568e+01 2.552002632273303107e+01
9.880000000000001137e+01 2.546607613218431254e+01
9.920000000000000284e+01 2.541247799579580402e+01
9.960000000000000853e+01 2.535920673349600563e+01
1.000000000000000000e+02 2.530625899654412336e+01
1.004000000000000057e+02 2.525363148427366866e+01
1.008000000000000114e+02 2.520132094320615579e+01
1.012000000000000028e+02 2.514932416618464828e+01
1.016000000000000085e+02 2.509763799152669606e+01
1.020000000000000000e+02 2.504625930219627250e+01
1.024000000000000057e+02 2.499518502499398664e+01
1.028000000000000114e+02 2.494676500716117928e+01
1.032000000000000028e+02 2.489636784072221687e+01
1.036000000000000085e+02 2.484626618128603326e+01
1.040000000000000000e+02 2.479645711738376690e+01
1.044000000000000057e+02 2.474693777775125625e+01
1.048000000000000114e+02 2.469770533061591777e+01
1.052000000000000028e+02 2.464875698299906759e+01
1.056000000000000085e+02 2.460008998003328173e+01
1.060000000000000000e+02 2.455170160429433679e+01
1.064000000000000057e+02 2.450358917514753898e+01
1.068000000000000114e+02 2.445575004810794439e+01
1.072000000000000028e+02 2.440818161421406884e+01
1.076000000000000085e+02 2.436088129941497371e+01
1.080000000000000000e+02 2.431384656397014510e+01
1.084000000000000057e+02 2.426707490186199223e+01
1.088000000000000114e+02 2.422056384022064179e+01
1.092000000000000028e+02 2.417141606324490155e+01
1.096000000000000085e+02 2.412547284146408799e+01
1.100000000000000000e+02 2.407950739201084644e+01
1.104000000000000057e+02 2.403377248845210801e+01
1.108000000000000114e+02 2.398828813136746518e+01
1.112000000000000028e+02 2.394305201273768091e+01
1.116000000000000085e+02 2.389806185435217856e+01
1.120000000000000000e+02 2.385332131409512613e+01
1.124000000000000057e+02 2.380882338658192410e+01
1.128000000000000114e+02 2.376456453035968508e+01
1.132000000000000028e+02 2.372054258618713263e+01
1.136000000000000085e+02 2.367675542216360896e+01
1.140000000000000000e+02 2.363320093328431071e+01
1.144000000000000057e+02 2.358987704100427152e+01
1.148000000000000114e+02 2.354678169281107358e+01
1.152000000000000028e+02 2.350391286180581574e+01
1.156000000000000085e+02 2.346126854629252279e+01
1.160000000000000000e+02 2.341884676937543119e+01
1.164000000000000057e+02 2.337664557856414405e+01
1.168000000000000114e+02 2.333466304538653802e+01
1.172000000000000028e+02 2.329289726500908841e+01
1.176000000000000085e+02 2.325134635586455190e+01
1.180000000000000000e+02 2.321000845928677236e+01
1.184000000000000057e+02 2.316888173915257099e+01
1.188000000000000114e+02 2.312796438153034018e+01
1.192000000000000028e+02 2.308722905823172056e+01
1.196000000000000085e+02 2.304664969186233847e+01
1.200000000000000000e+02 2.300627469458785157e+01
1.204000000000000057e+02 2.296610233593985839e+01
1.208000000000000114e+02 2.292613090599343195e+01
1.212000000000000028e+02 2.288635871505377040e+01
1.216000000000000085e+02 2.284392213054238141e+01
1.220000000000000000e+02 2.280466604690361265e+01
1.224000000000000057e+02 2.276560360398408633e+01
1.228000000000000114e+02 2.272673319528814062e+01
1.232000000000000028e+02 2.268805323300906451e+01
1.236000000000000085e+02 2.264956214774974441e+01
1.240000000000000000e+02 2.261125838824842305e+01
1.244000000000000057e+02 2.257314042110934338e+01
1.248000000000000114e+02 2.253520673053836276e+01
1.252000000000000028e+02 2.250197542224553615e+01
1.256000000000000085e+02 2.246480768928642391e+01
1.260000000000000000e+02 2.242781770223549032e+01
1.264000000000000057e+02 2.239100403143126172e+01
1.268000000000000114e+02 2.235436526334254381e+01
1.272000000000000028e+02 2.231790000033448251e+01
1.276000000000000085e+02 2.228160686043872118e+01
1.280000000000000000e+02 2.224548447712768962e+01
1.284000000000000057e+02 2.220953149909281876e+01
1.288000000000000114e+02 2.217374659002664217e+01
1.291999999999999886e+02 2.213812842840873785e+01
1.296000000000000227e+02 2.210267570729535080e+01
1.300000000000000000e+02 2.206738713411273523e+01
1.304000000000000057e+02 2.203186053807960931e+01
1.308000000000000114e+02 2.199705808508385374e+01
1.311999999999999886e+02 2.196235294206287847e+01
1.316000000000000227e+02 2.192776007508027192e+01
1.320000000000000000e+02 2.189332498505105207e+01
1.324000000000000057e+02 2.185904646097274195e+01
1.328000000000000114e+02 2.182492330488528154e+01
1.331999999999999886e+02 2.179095433169039353e+01
1.336000000000000227e+02 2.175713836897406850e+01
1.340000000000000000e+02 2.172347425683193123e+01
1.344000000000000057e+02 2.168996084769764821e+01
1.348000000000000114e+02 2.165659700617415950e+01
1.351999999999999886e+02 2.162338160886772442e+01
1.356000000000000227e+02 2.159031354422475957e+01
1.360000000000000000e+02 2.155739171237135920e+01
1.364000000000000057e+02 2.152461502495546597e+01
1.368000000000000114e+02 2.149198240499170609e+01
1.371999999999999886e+02 2.145949278670870441e+01
1.376000000000000227e+02 2.142714511539892897e+01
1.380000000000000000e+02 2.139493834727099397e+01
1.384000000000000057e+02 2.136287144930440718e+01
1.388000000000000114e+02 2.133094339910657666e+01
1.392000000000000171e+02 2.129915318477227615e+01
1.395999999999999943e+02 2.126749980474524193e+01
1.400000000000000000e+02 2.123598226768210395e+01
1.404000000000000057e+02 2.120459959231844849e+01
1.408000000000000114e+02 2.117321574885243862e+01
1.412000000000000171e+02 2.114196020430810563e+01
1.415999999999999943e+02 2.111311771716526309e+01
1.420000000000000000e+02 2.108215209242251831e+01
1.424000000000000057e+02 2.105131702901605451e+01
1.428000000000000114e+02 2.102061160031657039e+01
1.432000000000000171e+02 2.099003488892271818e+01
1.435999999999999943e+02 2.095958598654295102e+01
1.440000000000000000e+02 2.092926399387922487e+01
1.444000000000000057e+02 2.089906802051247681e+01
1.448000000000000114e+02 2.086899718478991872e+01
1.452000000000000171e+02 2.083905061371408252e+01
1.455999999999999943e+02 2.080922744283352444e+01
1.460000000000000000e+02 2.077952681613530572e+01
1.464000000000000057e+02 2.074994788593903294e+01
1.468000000000000114e+02 2.072048981279257873e+01
1.472000000000000171e+02 2.069115176536938350e+01
1.475999999999999943e+02 2.066193292036731677e+01
1.480000000000000000e+02 2.063283246240909108e+01
1.484000000000000057e+02 2.060384958394414667e+01
1.488000000000000114e+02 2.057498348515208164e+01
1.492000000000000171e+02 2.054623337384746407e+01
1.495999999999999943e+02 2.051759846538615761e+01
1.500000000000000000e+02 2.048907798257294743e+01
