1.000000000000000000e+01 3.428456508542893175e+02
1.040000000000000036e+01 3.614230180972600124e+02
1.080000000000000071e+01 3.748302390730697198e+02
1.119999999999999929e+01 3.998664015479137106e+02
1.159999999999999964e+01 4.204393974924049076e+02
1.200000000000000000e+01 4.374482775490266704e+02
1.240000000000000036e+01 4.462792431985249664e+02
1.280000000000000071e+01 5.133305255125530948e+02
1.319999999999999929e+01 5.498918438893382472e+02
1.359999999999999964e+01 6.027787516771170431e+02
1.400000000000000000e+01 6.211658238271385244e+02
1.440000000000000036e+01 6.323722101322520075e+02
1.480000000000000071e+01 6.499722085466150929e+02
1.519999999999999929e+01 6.372414989213550598e+02
1.560000000000000142e+01 6.253663331167668957e+02
1.600000000000000000e+01 6.142486991733990180e+02
1.639999999999999858e+01 6.038062165852812768e+02
1.680000000000000071e+01 5.939689877043756496e+02
1.719999999999999929e+01 5.846772056462987166e+02
1.760000000000000142e+01 5.758793098324154016e+02
1.800000000000000000e+01 5.675305448636349865e+02
1.839999999999999858e+01 5.595918210620133095e+02
1.880000000000000071e+01 5.520288037948861302e+02
1.920000000000000284e+01 5.448111784992754565e+02
1.960000000000000142e+01 5.379120521914090887e+02
2.000000000000000000e+01 5.313074621119101266e+02
2.039999999999999858e+01 5.249759692783648006e+02
2.080000000000000071e+01 5.188983199255817453e+02
2.120000000000000284e+01 5.130571616702030724e+02
2.160000000000000142e+01 5.074368041237287343e+02
2.200000000000000000e+01 5.020230158625079753e+02
2.239999999999999858e+01 4.968028513319720787e+02
2.280000000000000071e+01 4.917645025486094710e+02
2.320000000000000284e+01 4.868971714629363419e+02
2.360000000000000142e+01 4.821909596299257146e+02
2.400000000000000000e+01 4.776367724514475412e+02
2.439999999999999858e+01 4.732262357464531419e+02
2.480000000000000071e+01 4.689516227975005904e+02
2.520000000000000284e+01 4.648057903383920006e+02
2.560000000000000142e+01 4.607821222036263862e+02
2.600000000000000000e+01 4.568744795686773159e+02
2.640000000000000213e+01 4.530771568805428160e+02
2.680000000000000071e+01 4.493848427181468992e+02
2.719999999999999929e+01 4.457925849379448664e+02
2.760000000000000142e+01 4.422957595561452990e+02
2.800000000000000000e+01 4.388900428990242517e+02
2.840000000000000213e+01 4.355713866197909283e+02
2.880000000000000071e+01 4.323359952367403594e+02
2.920000000000000284e+01 4.291803058948714238e+02
2.960000000000000142e+01 4.261009700932959277e+02
3.000000000000000000e+01 4.230948371548493014e+02
3.040000000000000213e+01 4.201589392433495505e+02
3.080000000000000071e+01 4.172904777587631884e+02
3.120000000000000284e+01 4.144868109617975165e+02
3.160000000000000142e+01 4.117454426977218418e+02
3.200000000000000000e+01 4.090640121049745517e+02
3.240000000000000568e+01 4.064402842077283253e+02
3.279999999999999716e+01 4.038721413033920271e+02
3.320000000000000284e+01 4.013575750662690211e+02
3.360000000000000142e+01 3.988946792975319227e+02
3.400000000000000000e+01 3.964816432594487310e+02
3.440000000000000568e+01 3.941167455386269012e+02
3.479999999999999716e+01 3.917983483890059802e+02
3.520000000000000284e+01 3.895248925105837543e+02
3.560000000000000142e+01 3.872948922244839878e+02
3.600000000000000000e+01 3.851069310090460931e+02
3.640000000000000568e+01 3.829596573652214033e+02
3.679999999999999716e+01 3.808517809827534393e+02
3.720000000000000284e+01 3.787820691814435463e+02
3.760000000000000142e+01 3.767493436043216093e+02
3.800000000000000000e+01 3.747524771417758984e+02
3.840000000000000568e+01 3.727903910676945998e+02
3.879999999999999716e+01 3.708620523704470315e+02
3.920000000000000284e+01 3.689664712631321208e+02
3.960000000000000142e+01 3.671026988589436542e+02
4.000000000000000000e+01 3.652698249987820418e+02
4.040000000000000568e+01 3.634669762193962583e+02
4.079999999999999716e+01 3.616933138513661561e+02
4.120000000000000284e+01 3.599480322371741181e+02
4.160000000000000142e+01 3.582303570604512970e+02
4.200000000000000000e+01 3.565395437782417503e+02
4.239999999999999858e+01 3.548748761488161563e+02
4.280000000000000426e+01 3.532356648481874117e+02
4.320000000000000284e+01 3.516212461690399209e+02
4.360000000000000142e+01 3.500309807963018329e+02
4.400000000000000000e+01 3.484642526540463336e+02
4.439999999999999858e+01 3.469204678188356752e+02
4.480000000000000426e+01 3.453990534950029314e+02
4.520000000000000284e+01 3.438994570477186130e+02
4.560000000000000142e+01 3.424211450900070304e+02
4.600000000000000000e+01 3.409636026201709456e+02
4.639999999999999858e+01 3.395263322063491955e+02
4.680000000000000426e+01 3.381088532151759978e+02
4.720000000000000284e+01 3.367107010817347259e+02
4.760000000000000142e+01 3.353314266182045458e+02
4.800000000000000000e+01 3.339705953587844078e+02
4.840000000000000568e+01 3.326277869386552197e+02
4.880000000000000426e+01 3.313025945048976837e+02
4.920000000000000284e+01 3.299946241574279497e+02
4.960000000000000142e+01 3.287034944181528999e+02
5.000000000000000000e+01 3.274288357266659659e+02
5.040000000000000568e+01 3.261702899609213091e+02
5.080000000000000426e+01 3.249275099814294094e+02
5.120000000000000284e+01 3.237001591976149371e+02
5.160000000000000142e+01 3.224879111550675361e+02
5.200000000000000000e+01 3.212904491425000515e+02
5.240000000000000568e+01 3.201074658173049556e+02
5.280000000000000426e+01 3.189386628486741415e+02
5.320000000000000284e+01 3.177837505773096041e+02
5.360000000000000142e+01 3.166424476908177894e+02
5.400000000000000000e+01 3.155144809139349604e+02
5.440000000000000568e+01 3.143995847127861794e+02
5.480000000000000426e+01 3.132975010124282562e+02
5.520000000000000284e+01 3.122079789269731123e+02
5.560000000000000142e+01 3.111307745016323452e+02
5.600000000000000000e+01 3.100656504660616406e+02
5.640000000000000568e+01 3.090123759984221579e+02
5.680000000000000426e+01 3.079707264996096683e+02
5.720000000000000284e+01 3.069404833771351377e+02
5.760000000000000142e+01 3.059214338381709126e+02
5.800000000000000000e+01 3.049133706913036121e+02
5.840000000000000568e+01 3.039160921565623426e+02
5.880000000000000426e+01 3.029294016833154046e+02
5.920000000000000284e+01 3.019531077756500963e+02
5.960000000000000142e+01 3.009870238248745977e+02
6.000000000000000000e+01 3.000309679487983772e+02
6.040000000000000568e+01 2.990847628374683609e+02
6.080000000000000426e+01 2.981482356050546514e+02
6.120000000000000284e+01 2.972212176475965180e+02
6.160000000000000142e+01 2.963035445063367774e+02
6.200000000000000000e+01 2.953950557363835401e+02
6.240000000000000568e+01 2.944955947804558036e+02
6.280000000000000426e+01 2.936050088474806898e+02
6.320000000000000284e+01 2.927231487958221692e+02
6.360000000000000142e+01 2.918498690209329993e+02
6.400000000000000000e+01 2.909850273472322328e+02
6.440000000000000568e+01 2.901284849240207109e+02
6.480000000000001137e+01 2.892801061252576460e+02
6.520000000000000284e+01 2.884397584530271956e+02
6.559999999999999432e+01 2.876073124445375697e+02
6.600000000000000000e+01 2.867826415824978312e+02
6.640000000000000568e+01 2.859656222087288029e+02
6.680000000000001137e+01 2.851561334408706330e+02
6.720000000000000284e+01 2.843540570920549158e+02
6.759999999999999432e+01 2.835592775934182441e+02
6.800000000000000000e+01 2.827716819193377091e+02
6.840000000000000568e+01 2.819911595152759674e+02
6.880000000000001137e+01 2.812176022281279302e+02
6.920000000000000284e+01 2.804509042389676097e+02
6.959999999999999432e+01 2.796909619980965545e+02
7.000000000000000000e+01 2.789376741623014482e+02
7.040000000000000568e+01 2.781909415342324223e+02
7.080000000000001137e+01 2.774506670038168181e+02
7.120000000000000284e+01 2.767167554916287031e+02
7.159999999999999432e+01 2.759891138941356985e+02
7.200000000000000000e+01 2.752676510307511535e+02
7.240000000000000568e+01 2.745522775926211239e+02
7.280000000000001137e+01 2.738429060930776018e+02
7.320000000000000284e+01 2.731394508196959805e+02
7.359999999999999432e+01 2.724418277878947947e+02
7.400000000000000000e+01 2.717499546960179373e+02
7.440000000000000568e+01 2.710637508818458628e+02
7.479999999999999716e+01 2.703831372804799003e+02
7.520000000000000284e+01 2.697080363835493131e+02
7.560000000000000853e+01 2.690383721996925601e+02
7.600000000000000000e+01 2.683740702162654088e+02
7.640000000000000568e+01 2.677150573622301977e+02
7.679999999999999716e+01 2.670612619721846386e+02
7.720000000000000284e+01 2.664126137514876973e+02
7.760000000000000853e+01 2.657690437424434435e+02
7.800000000000000000e+01 2.651304842915058089e+02
7.840000000000000568e+01 2.644968690174657695e+02
7.879999999999999716e+01 2.638681327805883825e+02
7.920000000000000284e+01 2.632442116526654559e+02
7.960000000000000853e+01 2.626250428879509400e+02
8.000000000000000000e+01 2.620105648949496526e+02
8.040000000000000568e+01 2.614007172090289259e+02
8.079999999999999716e+01 2.607954404658246972e+02
8.120000000000000284e+01 2.601946763754161225e+02
8.160000000000000853e+01 2.595983676972402918e+02
8.200000000000000000e+01 2.590064582157244786e+02
8.240000000000000568e+01 2.584188927166093208e+02
8.279999999999999716e+01 2.578356169639416748e+02
8.320000000000000284e+01 2.572565776777144038e+02
8.360000000000000853e+01 2.566817225121297952e+02
8.400000000000000000e+01 2.561110000344694981e+02
8.440000000000000568e+01 2.555443597045468209e+02
8.479999999999999716e+01 2.549817518547270652e+02
8.520000000000000284e+01 2.544231276704927325e+02
8.560000000000000853e+01 2.538684391715397055e+02
8.600000000000000000e+01 2.533176391933850766e+02
8.640000000000000568e+01 2.527706813694713333e+02
8.680000000000001137e+01 2.522275201137508134e+02
8.720000000000000284e+01 2.516881106037347422e+02
8.760000000000000853e+01 2.511524087639930372e+02
8.800000000000000000e+01 2.506203712500901872e+02
8.840000000000000568e+01 2.500919554329436778e+02
8.880000000000001137e+01 2.495671193835917450e+02
8.920000000000000284e+01 2.490458218583582379e+02
8.960000000000000853e+01 2.485280222844016293e+02
9.000000000000000000e+01 2.480136807456374868e+02
9.040000000000000568e+01 2.475027579690216157e+02
9.080000000000001137e+01 2.469952153111842108e+02
9.120000000000000284e+01 2.464910147454038736e+02
9.160000000000000853e+01 2.459901188489108677e+02
9.200000000000000000e+01 2.454924907905110274e+02
9.240000000000000568e+01 2.449980943185191222e+02
9.280000000000001137e+01 2.445068937489939458e+02
9.320000000000000284e+01 2.440188539542652961e+02
9.360000000000000853e+01 2.435339403517450592e+02
9.400000000000000000e+01 2.430521188930130734e+02
9.440000000000000568e+01 2.425733560531707553e+02
9.480000000000001137e+01 2.420976188204546702e+02
9.520000000000000284e+01 2.416248746861014070e+02
9.560000000000000853e+01 2.411550916344581879e+02
9.600000000000000000e+01 2.406882381333309695e+02
9.640000000000000568e+01 2.402242831245638968e+02
9.680000000000001137e+01 2.397631960148434018e+02
9.720000000000000284e+01 2.393049466667203546e+02
9.760000000000000853e+01 2.388495053898445235e+02
9.800000000000000000e+01 2.383968429324058320e+02
9.840000000000000568e+01 2.379469304727749090e+02
9.880000000000001137e+01 2.374997396113400043e+02
9.920000000000000284e+01 2.370552423625323684e+02
9.960000000000000853e+01 2.366134111470366292e+02
1.000000000000000000e+02 2.361742187841802547e+02
1.004000000000000057e+02 2.357376384844981203e+02
1.008000000000000114e+02 2.353036438424654193e+02
1.012000000000000028e+02 2.348722088293976071e+02
1.016000000000000085e+02 2.344433077865091946e+02
1.020000000000000000e+02 2.340169154181305657e+02
1.024000000000000057e+02 2.335930067850760850e+02
1.028000000000000114e+02 2.331715572981606499e+02
1.032000000000000028e+02 2.327525427118608832e+02
1.036000000000000085e+02 2.323359391181163005e+02
1.040000000000000000e+02 2.319217229402677845e+02
1.044000000000000057e+02 2.315098709271289863e+02
1.048000000000000114e+02 2.311003601471879563e+02
1.052000000000000028e+02 2.306931679829345114e+02
1.056000000000000085e+02 2.302882721253116358e+02
1.060000000000000000e+02 2.298856505682862235e+02
1.064000000000000057e+02 2.294852816035370893e+02
1.068000000000000114e+02 2.290871438152569795e+02
1.072000000000000028e+02 2.286912160750655971e+02
1.076000000000000085e+02 2.282974775370308009e+02
1.080000000000000000e+02 2.279059076327954472e+02
1.084000000000000057e+02 2.275164860668073743e+02
1.088000000000000114e+02 2.271291928116493750e+02
1.092000000000000028e+02 2.267440081034670811e+02
1.096000000000000085e+02 2.263609124374925727e+02
1.100000000000000000e+02 2.259798865636606706e+02
1.104000000000000057e+02 2.256009114823161781e+02
1.108000000000000114e+02 2.252239684400098554e+02
1.112000000000000028e+02 2.248490389253804267e+02
1.116000000000000085e+02 2.244761046651212553e+02
1.120000000000000000e+02 2.241051476200291006e+02
1.124000000000000057e+02 2.237361499811329963e+02
1.128000000000000114e+02 2.233690941659019131e+02
1.132000000000000028e+02 2.230039628145285633e+02
1.136000000000000085e+02 2.226407387862877556e+02
1.140000000000000000e+02 2.222794051559681066e+02
1.144000000000000057e+02 2.219199452103743511e+02
1.148000000000000114e+02 2.215623424448999117e+02
1.152000000000000028e+02 2.212065805601659463e+02
1.156000000000000085e+02 2.208526434587283802e+02
1.160000000000000000e+02 2.205005152418482908e+02
1.164000000000000057e+02 2.201501802063260698e+02
1.168000000000000114e+02 2.198016228413975455e+02
1.172000000000000028e+02 2.194548278256899039e+02
1.176000000000000085e+02 2.191097800242367271e+02
1.180000000000000000e+02 2.187664644855510119e+02
1.184000000000000057e+02 2.184248664387539520e+02
1.188000000000000114e+02 2.180849712907589719e+02
1.192000000000000028e+02 2.177467646235094492e+02
1.196000000000000085e+02 2.174102321912689035e+02
1.200000000000000000e+02 2.170753599179629703e+02
1.204000000000000057e+02 2.167421338945707987e+02
1.208000000000000114e+02 2.164105403765663027e+02
1.212000000000000028e+02 2.160805657814070742e+02
1.216000000000000085e+02 2.157521966860699365e+02
1.220000000000000000e+02 2.154254198246330816e+02
1.224000000000000057e+02 2.151002220859024305e+02
1.228000000000000114e+02 2.147765905110823894e+02
1.232000000000000028e+02 2.144545122914892090e+02
1.236000000000000085e+02 2.141339747663062099e+02
1.240000000000000000e+02 2.138149654203809860e+02
1.244000000000000057e+02 2.134974718820613475e+02
1.248000000000000114e+02 2.131814819210722476e+02
1.252000000000000028e+02 2.128669834464296287e+02
1.256000000000000085e+02 2.125539645043932069e+02
1.260000000000000000e+02 2.122424132764552951e+02
1.264000000000000057e+02 2.119323180773661193e+02
1.268000000000000114e+02 2.116236673531941506e+02
1.272000000000000028e+02 2.113164496794214244e+02
1.276000000000000085e+02 2.110106537590722269e+02
1.280000000000000000e+02 2.107062684208750625e+02
1.284000000000000057e+02 2.104032826174573074e+02
1.288000000000000114e+02 2.101016854235712685e+02
1.291999999999999886e+02 2.098014660343515061e+02
1.296000000000000227e+02 2.095026137636024828e+02
1.300000000000000000e+02 2.092051180421164531e+02
1.304000000000000057e+02 2.089089684160197180e+02
1.308000000000000114e+02 2.086141545451484376e+02
1.311999999999999886e+02 2.083206662014518997e+02
1.316000000000000227e+02 2.080284932674231584e+02
1.320000000000000000e+02 2.077376257345571844e+02
1.324000000000000057e+02 2.074480537018345956e+02
1.328000000000000114e+02 2.071597673742316772e+02
1.331999999999999886e+02 2.068727570612556406e+02
1.336000000000000227e+02 2.065870131755044099e+02
1.340000000000000000e+02 2.063025262312511643e+02
1.344000000000000057e+02 2.060192868430523276e+02
1.348000000000000114e+02 2.057372857243788360e+02
1.351999999999999886e+02 2.054565136862704833e+02
1.356000000000000227e+02 2.051769616360128339e+02
1.360000000000000000e+02 2.048986205758355368e+02
1.364000000000000057e+02 2.046214816016329507e+02
1.368000000000000114e+02 2.043455359017051478e+02
1.371999999999999886e+02 2.040707747555202047e+02
1.376000000000000227e+02 2.037971895324963327e+02
1.380000000000000000e+02 2.035247716908045561e+02
1.384000000000000057e+02 2.032535127761900355e+02
1.388000000000000114e+02 2.029834044208134003e+02
1.392000000000000171e+02 2.027144383421104123e+02
1.395999999999999943e+02 2.024466063416700194e+02
1.400000000000000000e+02 2.021799003041307117e+02
1.404000000000000057e+02 2.019143121960943859e+02
1.408000000000000114e+02 2.016498340650579166e+02
1.412000000000000171e+02 2.013864580383613543e+02
1.415999999999999943e+02 2.011241763221532892e+02
1.420000000000000000e+02 2.008629812003722179e+02
1.424000000000000057e+02 2.006028650337444503e+02
1.428000000000000114e+02 2.003438202587975354e+02
1.432000000000000171e+02 2.000858393868894041e+02
1.435999999999999943e+02 1.998289150032523764e+02
1.440000000000000000e+02 1.995730397660527728e+02
1.444000000000000057e+02 1.993182064054644229e+02
1.448000000000000114e+02 1.990644077227572097e+02
1.452000000000000171e+02 1.988116365893994839e+02
1.455999999999999943e+02 1.985598859461742904e+02
1.460000000000000000e+02 1.983091488023092097e+02
1.464000000000000057e+02 1.980594182346197840e+02
1.468000000000000114e+02 1.978106873866661317e+02
1.472000000000000171e+02 1.975629494679218681e+02
1.475999999999999943e+02 1.973161977529564126e+02
1.480000000000000000e+02 1.970704255806293190e+02
1.484000000000000057e+02 1.968256263532967978e+02
1.488000000000000114e+02 1.965817935360306024e+02
1.492000000000000171e+02 1.963389206558481419e+02
1.495999999999999943e+02 1.960970013009546733e+02
1.500000000000000000e+02 1.958560291199963785e+02
