1.000000000000000000e+01 4.618830957215617445e+02
1.040000000000000036e+01 5.159751627730389600e+02
1.080000000000000071e+01 5.412317239389255974e+02
1.119999999999999929e+01 5.655421506487343777e+02
1.159999999999999964e+01 5.831283891223436058e+02
1.200000000000000000e+01 5.846118276089563324e+02
1.240000000000000036e+01 5.771612964086277771e+02
1.280000000000000071e+01 5.703995649896826308e+02
1.319999999999999929e+01 5.652188140593991648e+02
1.359999999999999964e+01 5.625157695577124741e+02
1.400000000000000000e+01 5.650903548480085874e+02
1.440000000000000036e+01 5.550731837607531816e+02
1.480000000000000071e+01 5.456421085519439202e+02
1.519999999999999929e+01 5.367388698733136607e+02
1.560000000000000142e+01 5.283133589924740363e+02
1.600000000000000000e+01 5.203221517750669136e+02
1.639999999999999858e+01 5.127273636804006856e+02
1.680000000000000071e+01 5.054957433459393883e+02
1.719999999999999929e+01 4.985979464692030092e+02
1.760000000000000142e+01 4.920079479447474569e+02
1.800000000000000000e+01 4.857025614033829015e+02
1.839999999999999858e+01 4.796610431609399825e+02
1.880000000000000071e+01 4.738647632039422888e+02
1.920000000000000284e+01 4.682969299221797428e+02
1.960000000000000142e+01 4.629423583066383117e+02
2.000000000000000000e+01 4.577872735770403096e+02
2.039999999999999858e+01 4.528191438995776821e+02
2.080000000000000071e+01 4.480265371505870462e+02
2.120000000000000284e+01 4.433989976806084883e+02
2.160000000000000142e+01 4.389269398104026436e+02
2.200000000000000000e+01 4.346015554003466832e+02
2.239999999999999858e+01 4.304147333169398166e+02
2.280000000000000071e+01 4.263589890044019626e+02
2.320000000000000284e+01 4.224274026775493098e+02
2.360000000000000142e+01 4.186135649009153212e+02
2.400000000000000000e+01 4.149115285211106539e+02
2.439999999999999858e+01 4.113157660843941130e+02
2.480000000000000071e+01 4.078211320068577379e+02
2.520000000000000284e+01 4.044228288763766841e+02
2.560000000000000142e+01 4.011163773581010901e+02
2.600000000000000000e+01 3.978975892524025539e+02
2.640000000000000213e+01 3.947625433186836972e+02
2.680000000000000071e+01 3.917075635326231122e+02
2.719999999999999929e+01 3.887291994900655254e+02
2.760000000000000142e+01 3.858242087093912573e+02
2.800000000000000000e+01 3.829895406169752050e+02
2.840000000000000213e+01 3.802223220282737657e+02
2.880000000000000071e+01 3.775198439609361003e+02
2.920000000000000284e+01 3.748795496367935698e+02
2.960000000000000142e+01 3.722990235471615392e+02
3.000000000000000000e+01 3.697759814710494766e+02
3.040000000000000213e+01 3.673082613489791584e+02
3.080000000000000071e+01 3.648938149264723734e+02
3.120000000000000284e+01 3.625307000911353725e+02
3.160000000000000142e+01 3.602170738358694280e+02
3.200000000000000000e+01 3.579511857882398544e+02
3.240000000000000568e+01 3.557313722526077413e+02
3.279999999999999716e+01 3.535560507173858582e+02
3.320000000000000284e+01 3.514237147848446625e+02
3.360000000000000142e+01 3.493329294853547253e+02
3.400000000000000000e+01 3.472823269418789778e+02
3.440000000000000568e+01 3.452706023540160913e+02
3.479999999999999716e+01 3.432965102739653389e+02
3.520000000000000284e+01 3.413588611495256373e+02
3.560000000000000142e+01 3.394565181116648773e+02
3.600000000000000000e+01 3.375883939863606429e+02
3.640000000000000568e+01 3.357534485123419472e+02
3.679999999999999716e+01 3.339506857480836288e+02
3.720000000000000284e+01 3.321791516529473256e+02
3.760000000000000142e+01 3.304379318287425349e+02
3.800000000000000000e+01 3.287261494092199996e+02
3.840000000000000568e+01 3.270429630861260648e+02
3.879999999999999716e+01 3.253875652614415799e+02
3.920000000000000284e+01 3.237591803163383588e+02
3.960000000000000142e+01 3.221570629881969694e+02
4.000000000000000000e+01 3.205804968477629586e+02
4.040000000000000568e+01 3.190287928691898287e+02
4.079999999999999716e+01 3.175012880863117175e+02
4.120000000000000284e+01 3.159973443290413115e+02
4.160000000000000142e+01 3.145163470342810115e+02
4.200000000000000000e+01 3.130577041261853992e+02
4.239999999999999858e+01 3.116208449610237494e+02
4.280000000000000426e+01 3.102052193322660969e+02
4.320000000000000284e+01 3.088102965318511224e+02
4.360000000000000142e+01 3.074355644639122147e+02
4.400000000000000000e+01 3.060805288075138719e+02
4.439999999999999858e+01 3.047447122252159488e+02
4.480000000000000426e+01 3.034276536145164869e+02
4.520000000000000284e+01 3.021289073994444152e+02
4.560000000000000142e+01 3.008480428597690093e+02
4.600000000000000000e+01 2.995846434954804636e+02
4.639999999999999858e+01 2.983383064243603258e+02
4.680000000000000426e+01 2.971086418106161773e+02
4.720000000000000284e+01 2.958952723226987587e+02
4.760000000000000142e+01 2.946978326185479204e+02
4.800000000000000000e+01 2.935159688566362206e+02
4.840000000000000568e+01 2.923493382312902895e+02
4.880000000000000426e+01 2.911976085308726852e+02
4.920000000000000284e+01 2.900604577175005261e+02
4.960000000000000142e+01 2.889375735270674568e+02
5.000000000000000000e+01 2.878286530884153649e+02
5.040000000000000568e+01 2.867334025605766215e+02
5.080000000000000426e+01 2.856515367870789532e+02
5.120000000000000284e+01 2.845827789663687213e+02
5.160000000000000142e+01 2.835268603374689746e+02
5.200000000000000000e+01 2.824835198800432181e+02
5.240000000000000568e+01 2.814525040280879011e+02
5.280000000000000426e+01 2.804335663965264871e+02
5.320000000000000284e+01 2.794264675200199122e+02
5.360000000000000142e+01 2.784309746033505348e+02
5.400000000000000000e+01 2.774468612827781726e+02
5.440000000000000568e+01 2.764739073977991097e+02
5.480000000000000426e+01 2.755118987727743729e+02
5.520000000000000284e+01 2.745606270079259161e+02
5.560000000000000142e+01 2.736198892792275501e+02
5.600000000000000000e+01 2.726894881467441678e+02
5.640000000000000568e+01 2.717692313710004441e+02
5.680000000000000426e+01 2.708589317369832656e+02
5.720000000000000284e+01 2.699584068854029510e+02
5.760000000000000142e+01 2.690674791508622548e+02
5.800000000000000000e+01 2.681859754065990273e+02
5.840000000000000568e+01 2.673137269154901787e+02
5.880000000000000426e+01 2.664505691870169812e+02
5.920000000000000284e+01 2.655963418399123839e+02
5.960000000000000142e+01 2.647508884702254477e+02
6.000000000000000000e+01 2.639140565245488688e+02
6.040000000000000568e+01 2.630856971781742573e+02
6.080000000000000426e+01 2.622656652179479124e+02
6.120000000000000284e+01 2.614538189296141013e+02
6.160000000000000142e+01 2.606500199894435355e+02
6.200000000000000000e+01 2.598541333599548580e+02
6.240000000000000568e+01 2.590660271895471851e+02
6.280000000000000426e+01 2.582855727158710692e+02
6.320000000000000284e+01 2.575126441727732072e+02
6.360000000000000142e+01 2.567471187006603941e+02
6.400000000000000000e+01 2.559888762601336225e+02
6.440000000000000568e+01 2.552377995487522071e+02
6.480000000000001137e+01 2.544937739207946947e+02
6.520000000000000284e+01 2.537566873098884912e+02
6.559999999999999432e+01 2.530264301543886631e+02
6.600000000000000000e+01 2.523028953253894429e+02
6.640000000000000568e+01 2.515859780572604336e+02
6.680000000000001137e+01 2.508755758806018434e+02
6.720000000000000284e+01 2.501715885575202947e+02
6.759999999999999432e+01 2.494739180191305365e+02
6.800000000000000000e+01 2.487824683051926513e+02
6.840000000000000568e+01 2.480971455057986077e+02
6.880000000000001137e+01 2.474178577050265346e+02
6.920000000000000284e+01 2.467445149264847259e+02
6.959999999999999432e+01 2.460770290806694902e+02
7.000000000000000000e+01 2.454153139140670987e+02
7.040000000000000568e+01 2.447592849599306817e+02
7.080000000000001137e+01 2.441088594906679532e+02
7.120000000000000284e+01 2.434639564717768394e+02
7.159999999999999432e+01 2.428244965172700063e+02
7.200000000000000000e+01 2.421904018465317563e+02
7.240000000000000568e+01 2.415615962425530086e+02
7.280000000000001137e+01 2.409380050114921801e+02
7.320000000000000284e+01 2.403195549435125145e+02
7.359999999999999432e+01 2.397061742748485926e+02
7.400000000000000000e+01 2.390977926510559541e+02
7.440000000000000568e+01 2.384943410914011679e+02
7.479999999999999716e+01 2.378957519543499188e+02
7.520000000000000284e+01 2.373019589041133202e+02
7.560000000000000853e+01 2.367128968782147069e+02
7.600000000000000000e+01 2.361285020560394798e+02
7.640000000000000568e+01 2.355487118283332677e+02
7.679999999999999716e+01 2.349734647676150985e+02
7.720000000000000284e+01 2.344027005994718422e+02
7.760000000000000853e+01 2.338363601747049074e+02
7.800000000000000000e+01 2.332743854422977563e+02
7.840000000000000568e+01 2.327167194231762437e+02
7.879999999999999716e+01 2.321633061847349211e+02
7.920000000000000284e+01 2.316140908161018217e+02
7.960000000000000853e+01 2.310690194041175403e+02
8.000000000000000000e+01 2.305280390100037380e+02
8.040000000000000568e+01 2.299910976466977672e+02
8.079999999999999716e+01 2.294581442568310763e+02
8.120000000000000284e+01 2.289291286913297938e+02
8.160000000000000853e+01 2.284040016886169724e+02
8.200000000000000000e+01 2.278827148543959993e+02
8.240000000000000568e+01 2.273652206419967570e+02
8.279999999999999716e+01 2.268514723332652920e+02
8.320000000000000284e+01 2.263414240199800247e+02
8.360000000000000853e+01 2.258350305857766784e+02
8.400000000000000000e+01 2.253322476885661558e+02
8.440000000000000568e+01 2.248330317434286201e+02
8.479999999999999716e+01 2.243373399059699409e+02
8.520000000000000284e+01 2.238451300561242476e+02
8.560000000000000853e+01 2.233563607823895723e+02
8.600000000000000000e+01 2.228709913664822864e+02
8.640000000000000568e+01 2.223889817683976844e+02
8.680000000000001137e+01 2.219102926118636390e+02
8.720000000000000284e+01 2.214348851701756473e+02
8.760000000000000853e+01 2.209627213524002229e+02
8.800000000000000000e+01 2.204937636899373672e+02
8.840000000000000568e+01 2.200279753234294446e+02
8.880000000000001137e+01 2.195653199900059462e+02
8.920000000000000284e+01 2.191057620108554715e+02
8.960000000000000853e+01 2.186492662791130215e+02
9.000000000000000000e+01 2.181957982480550413e+02
9.040000000000000568e+01 2.177453239195913568e+02
9.080000000000001137e+01 2.172978098330465286e+02
9.120000000000000284e+01 2.168532230542211039e+02
9.160000000000000853e+01 2.164115311647247779e+02
9.200000000000000000e+01 2.159727022515742192e+02
9.240000000000000568e+01 2.155367048970462918e+02
9.280000000000001137e+01 2.151035081687808201e+02
9.320000000000000284e+01 2.146730816101248820e+02
9.360000000000000853e+01 2.142453952307113525e+02
9.400000000000000000e+01 2.138204194972661298e+02
9.440000000000000568e+01 2.133981253246361121e+02
9.480000000000001137e+01 2.129784840670328379e+02
9.520000000000000284e+01 2.125614675094850554e+02
9.560000000000000853e+01 2.121470478594941369e+02
9.600000000000000000e+01 2.117351977388874218e+02
9.640000000000000568e+01 2.113258901758634636e+02
9.680000000000001137e+01 2.109190985972236092e+02
9.720000000000000284e+01 2.105147968207850511e+02
9.760000000000000853e+01 2.101129590479708042e+02
9.800000000000000000e+01 2.097135598565709529e+02
9.840000000000000568e+01 2.093165741936704478e+02
9.880000000000001137e+01 2.089219773687400448e+02
9.920000000000000284e+01 2.085297450468848979e+02
9.960000000000000853e+01 2.081398532422463177e+02
1.000000000000000000e+02 2.077522783115539653e+02
1.004000000000000057e+02 2.073669969478233952e+02
1.008000000000000114e+02 2.069839861741946265e+02
1.012000000000000028e+02 2.066032233379098670e+02
1.016000000000000085e+02 2.062246861044241655e+02
1.020000000000000000e+02 2.058483524516481111e+02
1.024000000000000057e+02 2.054742006643165837e+02
1.028000000000000114e+02 2.051022093284828998e+02
1.032000000000000028e+02 2.047323573261326146e+02
1.036000000000000085e+02 2.043646238299152742e+02
1.040000000000000000e+02 2.039989882979913318e+02
1.044000000000000057e+02 2.036354304689898527e+02
1.048000000000000114e+02 2.032739303570759262e+02
1.052000000000000028e+02 2.029144682471233239e+02
1.056000000000000085e+02 2.025570246899910671e+02
1.060000000000000000e+02 2.022015804979005793e+02
1.064000000000000057e+02 2.018481167399109211e+02
1.068000000000000114e+02 2.014966147374900629e+02
1.072000000000000028e+02 2.011470560601790680e+02
1.076000000000000085e+02 2.007994225213477364e+02
1.080000000000000000e+02 2.004536961740387255e+02
1.084000000000000057e+02 2.001098593068984997e+02
1.088000000000000114e+02 1.997678944401923786e+02
1.092000000000000028e+02 1.994277843219024930e+02
1.096000000000000085e+02 1.990895119239055191e+02
1.100000000000000000e+02 1.987530604382291699e+02
1.104000000000000057e+02 1.984184132733852550e+02
1.108000000000000114e+02 1.980855540507772616e+02
1.112000000000000028e+02 1.977544666011807521e+02
1.116000000000000085e+02 1.974251349612950150e+02
1.120000000000000000e+02 1.970975433703642352e+02
1.124000000000000057e+02 1.967716762668661943e+02
1.128000000000000114e+02 1.964475182852672503e+02
1.132000000000000028e+02 1.961250542528421192e+02
1.136000000000000085e+02 1.958042691865564393e+02
1.140000000000000000e+02 1.954851482900112387e+02
1.144000000000000057e+02 1.951676769504471167e+02
1.148000000000000114e+02 1.948518407358081674e+02
1.152000000000000028e+02 1.945376253918618659e+02
1.156000000000000085e+02 1.942250168393765648e+02
1.160000000000000000e+02 1.939140011713526803e+02
1.164000000000000057e+02 1.936045646503079354e+02
1.168000000000000114e+02 1.932966937056149845e+02
1.172000000000000028e+02 1.929903749308896295e+02
1.176000000000000085e+02 1.926855950814297103e+02
1.180000000000000000e+02 1.923823410717024558e+02
1.184000000000000057e+02 1.920805999728794120e+02
1.188000000000000114e+02 1.917803590104185787e+02
1.192000000000000028e+02 1.914816055616915094e+02
1.196000000000000085e+02 1.911843271536556017e+02
1.200000000000000000e+02 1.908885114605697026e+02
1.204000000000000057e+02 1.905941463017524313e+02
1.208000000000000114e+02 1.903012196393821398e+02
1.212000000000000028e+02 1.900097195763379148e+02
1.216000000000000085e+02 1.897196343540800569e+02
1.220000000000000000e+02 1.894309523505700668e+02
1.224000000000000057e+02 1.891436620782284876e+02
1.228000000000000114e+02 1.888577521819303513e+02
1.232000000000000028e+02 1.885732114370368322e+02
1.236000000000000085e+02 1.882900287474629692e+02
1.240000000000000000e+02 1.880081931437803178e+02
1.244000000000000057e+02 1.877276937813536222e+02
1.248000000000000114e+02 1.874485199385114242e+02
1.252000000000000028e+02 1.871706610147489869e+02
1.256000000000000085e+02 1.868941065289639596e+02
1.260000000000000000e+02 1.866188461177224553e+02
1.264000000000000057e+02 1.863448695335572154e+02
1.268000000000000114e+02 1.860721666432947643e+02
1.272000000000000028e+02 1.858007274264126636e+02
1.276000000000000085e+02 1.855305419734255281e+02
1.280000000000000000e+02 1.852616004842990662e+02
1.284000000000000057e+02 1.849938932668923428e+02
1.288000000000000114e+02 1.847274107354266164e+02
1.291999999999999886e+02 1.844621434089812340e+02
1.296000000000000227e+02 1.841980819100147926e+02
1.300000000000000000e+02 1.839352169629130174e+02
1.304000000000000057e+02 1.836735393925602011e+02
1.308000000000000114e+02 1.834130401229362235e+02
1.311999999999999886e+02 1.831537101757369896e+02
1.316000000000000227e+02 1.828955406690182315e+02
1.320000000000000000e+02 1.826385228158630980e+02
1.324000000000000057e+02 1.823826479230711755e+02
1.328000000000000114e+02 1.821279073898706145e+02
1.331999999999999886e+02 1.818742927066512323e+02
1.336000000000000227e+02 1.816217954537190451e+02
1.340000000000000000e+02 1.813704073000722019e+02
1.344000000000000057e+02 1.811201200021962165e+02
1.348000000000000114e+02 1.808709254028798625e+02
1.351999999999999886e+02 1.806228154300507356e+02
1.356000000000000227e+02 1.803757820956298872e+02
1.360000000000000000e+02 1.801298174944051311e+02
1.364000000000000057e+02 1.798849138029230801e+02
1.368000000000000114e+02 1.796410632783993151e+02
1.371999999999999886e+02 1.793982582576459777e+02
1.376000000000000227e+02 1.791564911560173243e+02
1.380000000000000000e+02 1.789157544663719364e+02
1.384000000000000057e+02 1.786760407580518972e+02
1.388000000000000114e+02 1.784373426758782557e+02
1.392000000000000171e+02 1.781996529391630588e+02
1.395999999999999943e+02 1.779629643407365336e+02
1.400000000000000000e+02 1.777272697459903554e+02
1.404000000000000057e+02 1.774925620919358948e+02
1.408000000000000114e+02 1.772588343862776128e+02
1.412000000000000171e+02 1.770260797065007523e+02
1.415999999999999943e+02 1.767942911989737524e+02
1.420000000000000000e+02 1.765634620780649584e+02
1.424000000000000057e+02 1.763335856252723488e+02
1.428000000000000114e+02 1.761046551883680706e+02
1.432000000000000171e+02 1.758766641805552240e+02
1.435999999999999943e+02 1.756496060796386587e+02
1.440000000000000000e+02 1.754234744272079638e+02
1.444000000000000057e+02 1.751982628278331617e+02
1.448000000000000114e+02 1.749739649482734478e+02
1.452000000000000171e+02 1.747505745166974123e+02
1.455999999999999943e+02 1.745280853219153414e+02
1.460000000000000000e+02 1.743064912126235129e+02
1.464000000000000057e+02 1.740857860966597457e+02
1.468000000000000114e+02 1.738659639402706034e+02
1.472000000000000171e+02 1.736470187673891701e+02
1.475999999999999943e+02 1.734289446589243369e+02
1.480000000000000000e+02 1.732117357520604912e+02
1.484000000000000057e+02 1.729953862395675230e+02
1.488000000000000114e+02 1.727798903691219152e+02
1.492000000000000171e+02 1.725652424426369578e+02
1.495999999999999943e+02 1.723514368156039609e+02
1.500000000000000000e+02 1.721384678964424211e+02
