1.000000000000000000e+01 6.794767079974476474e+02
1.040000000000000036e+01 7.187080087825706869e+02
1.080000000000000071e+01 7.304744654063199505e+02
1.119999999999999929e+01 7.451899801738812812e+02
1.159999999999999964e+01 7.918074443750190312e+02
1.200000000000000000e+01 8.194122023302879825e+02
1.240000000000000036e+01 8.441057019961472179e+02
1.280000000000000071e+01 9.075999715531428365e+02
1.319999999999999929e+01 9.522641062831605723e+02
1.359999999999999964e+01 9.845811570020700856e+02
1.400000000000000000e+01 9.775290020319166615e+02
1.440000000000000036e+01 9.588743613309196689e+02
1.480000000000000071e+01 9.414202790065357931e+02
1.519999999999999929e+01 9.250344771081992121e+02
1.560000000000000142e+01 9.096051057675488209e+02
1.600000000000000000e+01 8.950367352248681527e+02
1.639999999999999858e+01 8.812472899803958626e+02
1.680000000000000071e+01 8.681656698127314939e+02
1.719999999999999929e+01 8.557298799891772205e+02
1.760000000000000142e+01 8.438855446418290285e+02
1.800000000000000000e+01 8.325847123912351435e+02
1.839999999999999858e+01 8.217848876155987909e+02
1.880000000000000071e+01 8.114482378934822009e+02
1.920000000000000284e+01 8.015409404032823204e+02
1.960000000000000142e+01 7.920326389551416923e+02
2.000000000000000000e+01 7.828959898672567306e+02
2.039999999999999858e+01 7.741062797605898140e+02
2.080000000000000071e+01 7.656411020026441747e+02
2.120000000000000284e+01 7.574800813092310818e+02
2.160000000000000142e+01 7.496046381441460653e+02
2.200000000000000000e+01 7.419977862056605318e+02
2.239999999999999858e+01 7.346439575753020108e+02
2.280000000000000071e+01 7.275288511159761811e+02
2.320000000000000284e+01 7.206393005076216696e+02
2.360000000000000142e+01 7.139631589473974600e+02
2.400000000000000000e+01 7.074891980540423901e+02
2.439999999999999858e+01 7.012070189299346339e+02
2.480000000000000071e+01 6.951069736704489515e+02
2.520000000000000284e+01 6.891800958845742571e+02
2.560000000000000142e+01 6.834180390158892351e+02
2.600000000000000000e+01 6.778130214386385433e+02
2.640000000000000213e+01 6.723577774574411023e+02
2.680000000000000071e+01 6.670455134671221913e+02
2.719999999999999929e+01 6.618698686360728516e+02
2.760000000000000142e+01 6.568248795662443626e+02
2.800000000000000000e+01 6.519049484584086258e+02
2.840000000000000213e+01 6.471048143751584121e+02
2.880000000000000071e+01 6.424195272482681958e+02
2.920000000000000284e+01 6.378444243231149358e+02
2.960000000000000142e+01 6.333751087721982458e+02
3.000000000000000000e+01 6.290074302434875335e+02
3.040000000000000213e+01 6.247374671382618772e+02
3.080000000000000071e+01 6.205615104380377716e+02
3.120000000000000284e+01 6.164760489217009081e+02
3.160000000000000142e+01 6.124777556326114336e+02
3.200000000000000000e+01 6.085634754716353427e+02
3.240000000000000568e+01 6.047302138061451160e+02
3.279999999999999716e+01 6.009751259973263586e+02
3.320000000000000284e+01 5.972955077588705990e+02
3.360000000000000142e+01 5.936887862695613194e+02
3.400000000000000000e+01 5.901525119705237330e+02
3.440000000000000568e+01 5.866843509851962608e+02
3.479999999999999716e+01 5.832820781064956464e+02
3.520000000000000284e+01 5.799435703013218699e+02
3.560000000000000142e+01 5.766668006875686388e+02
3.600000000000000000e+01 5.734498329432565242e+02
3.640000000000000568e+01 5.702908161113620054e+02
3.679999999999999716e+01 5.671879797674316706e+02
3.720000000000000284e+01 5.641396295202121109e+02
3.760000000000000142e+01 5.611441428183218250e+02
3.800000000000000000e+01 5.581999650384997267e+02
3.840000000000000568e+01 5.553056058332031171e+02
3.879999999999999716e+01 5.524596357173431898e+02
3.920000000000000284e+01 5.496606828757498988e+02
3.960000000000000142e+01 5.469074301745841922e+02
4.000000000000000000e+01 5.441986123613766040e+02
4.040000000000000568e+01 5.415330134396962194e+02
4.079999999999999716e+01 5.389094642056376188e+02
4.120000000000000284e+01 5.363268399343996862e+02
4.160000000000000142e+01 5.337840582061978694e+02
4.200000000000000000e+01 5.312800768616418736e+02
4.239999999999999858e+01 5.288138920775083989e+02
4.280000000000000426e+01 5.263845365545707864e+02
4.320000000000000284e+01 5.239910778098064839e+02
4.360000000000000142e+01 5.216326165659118033e+02
4.400000000000000000e+01 5.193082852315986884e+02
4.439999999999999858e+01 5.170172464666526366e+02
4.480000000000000426e+01 5.147586918261894198e+02
4.520000000000000284e+01 5.125318404789663873e+02
4.560000000000000142e+01 5.103359379949874892e+02
4.600000000000000000e+01 5.081702551979927307e+02
4.639999999999999858e+01 5.060340870787474614e+02
4.680000000000000426e+01 5.039267517653357231e+02
4.720000000000000284e+01 5.018475895469418901e+02
4.760000000000000142e+01 4.997959619478476156e+02
4.800000000000000000e+01 4.977712508486036995e+02
4.840000000000000568e+01 4.957728576515482928e+02
4.880000000000000426e+01 4.938002024880365184e+02
4.920000000000000284e+01 4.918527234649266120e+02
4.960000000000000142e+01 4.899298759480325316e+02
5.000000000000000000e+01 4.880311318804114080e+02
5.040000000000000568e+01 4.861559791334872216e+02
5.080000000000000426e+01 4.843039208891501630e+02
5.120000000000000284e+01 4.824744750510918152e+02
5.160000000000000142e+01 4.806671736837438971e+02
5.200000000000000000e+01 4.788815624772986439e+02
5.240000000000000568e+01 4.771172002373815531e+02
5.280000000000000426e+01 4.753736583980391401e+02
5.320000000000000284e+01 4.736505205567866597e+02
5.360000000000000142e+01 4.719473820305382787e+02
5.400000000000000000e+01 4.702638494313164301e+02
5.440000000000000568e+01 4.685995402607005644e+02
5.480000000000000426e+01 4.669540825220420288e+02
5.520000000000000284e+01 4.653271143495265960e+02
5.560000000000000142e+01 4.637182836532232386e+02
5.600000000000000000e+01 4.621272477793077087e+02
5.640000000000000568e+01 4.605536731846951852e+02
5.680000000000000426e+01 4.589972351253635452e+02
5.720000000000000284e+01 4.574576173576871838e+02
5.760000000000000142e+01 4.559345118521423501e+02
5.800000000000000000e+01 4.544276185187792976e+02
5.840000000000000568e+01 4.529366449438917925e+02
5.880000000000000426e+01 4.514613061373464689e+02
5.920000000000000284e+01 4.500013242900611203e+02
5.960000000000000142e+01 4.485564285411546734e+02
6.000000000000000000e+01 4.471263547543109667e+02
6.040000000000000568e+01 4.457108453029300108e+02
6.080000000000000426e+01 4.443096488636565482e+02
6.120000000000000284e+01 4.429225202179029566e+02
6.160000000000000142e+01 4.415492200610008808e+02
6.200000000000000000e+01 4.401895148186359847e+02
6.240000000000000568e+01 4.388431764702381770e+02
6.280000000000000426e+01 4.375099823790172877e+02
6.320000000000000284e+01 4.361897151283477569e+02
6.360000000000000142e+01 4.348821623642247687e+02
6.400000000000000000e+01 4.335871166435246664e+02
6.440000000000000568e+01 4.323043752878180612e+02
6.480000000000001137e+01 4.310337402424966626e+02
6.520000000000000284e+01 4.297750179409847533e+02
6.559999999999999432e+01 4.285280191738201552e+02
6.600000000000000000e+01 4.272925589623978340e+02
6.640000000000000568e+01 4.260684564371820784e+02
6.680000000000001137e+01 4.248555347201973973e+02
6.720000000000000284e+01 4.236536208116248190e+02
6.759999999999999432e+01 4.224625454803317552e+02
6.800000000000000000e+01 4.212821431581751312e+02
6.840000000000000568e+01 4.201122518379254416e+02
6.880000000000001137e+01 4.189527129746636547e+02
6.920000000000000284e+01 4.178033713905136892e+02
6.959999999999999432e+01 4.166640751825748339e+02
7.000000000000000000e+01 4.155346756339304761e+02
7.040000000000000568e+01 4.144150271276088233e+02
7.080000000000001137e+01 4.133049870633821570e+02
7.120000000000000284e+01 4.122044157772937183e+02
7.159999999999999432e+01 4.111131764638056438e+02
7.200000000000000000e+01 4.100311351004691574e+02
7.240000000000000568e+01 4.089581603750192471e+02
7.280000000000001137e+01 4.078941236148020266e+02
7.320000000000000284e+01 4.068388987184467851e+02
7.359999999999999432e+01 4.057923620896989405e+02
7.400000000000000000e+01 4.047543925733324954e+02
7.440000000000000568e+01 4.037248713930659960e+02
7.479999999999999716e+01 4.027036820914066766e+02
7.520000000000000284e+01 4.016907104713529293e+02
7.560000000000000853e+01 4.006858445398878530e+02
7.600000000000000000e+01 3.996889744531983411e+02
7.640000000000000568e+01 3.986999924635568959e+02
7.679999999999999716e+01 3.977187928678082471e+02
7.720000000000000284e+01 3.967452719574025082e+02
7.760000000000000853e+01 3.957793279699193363e+02
7.800000000000000000e+01 3.948208610420331297e+02
7.840000000000000568e+01 3.938697731638656023e+02
7.879999999999999716e+01 3.929259681346796924e+02
7.920000000000000284e+01 3.919893515198676823e+02
7.960000000000000853e+01 3.910598306091883387e+02
8.000000000000000000e+01 3.901373143762107247e+02
8.040000000000000568e+01 3.892217134389239845e+02
8.079999999999999716e+01 3.883129400214727980e+02
8.120000000000000284e+01 3.874109079169810457e+02
8.160000000000000853e+01 3.865155324514262247e+02
8.200000000000000000e+01 3.856267304485314753e+02
8.240000000000000568e+01 3.847444201956393499e+02
8.279999999999999716e+01 3.838685214105360046e+02
8.320000000000000284e+01 3.829989552091943779e+02
8.360000000000000853e+01 3.821356440744062866e+02
8.400000000000000000e+01 3.812785118252750181e+02
8.440000000000000568e+01 3.804274835875385179e+02
8.479999999999999716e+01 3.795824857647003796e+02
8.520000000000000284e+01 3.787434460099381113e+02
8.560000000000000853e+01 3.779102931987675902e+02
8.600000000000000000e+01 3.770829574024378417e+02
8.640000000000000568e+01 3.762613698620333480e+02
8.680000000000001137e+01 3.754454629632624574e+02
8.720000000000000284e+01 3.746351702119094966e+02
8.760000000000000853e+01 3.738304262099299535e+02
8.800000000000000000e+01 3.730311666321701978e+02
8.840000000000000568e+01 3.722373282036907085e+02
8.880000000000001137e+01 3.714488486776753575e+02
8.920000000000000284e+01 3.706656668139088424e+02
8.960000000000000853e+01 3.698877223578044209e+02
9.000000000000000000e+01 3.691149560199664279e+02
9.040000000000000568e+01 3.683473094562699544e+02
9.080000000000001137e+01 3.675847252484436467e+02
9.120000000000000284e+01 3.668271468851397685e+02
9.160000000000000853e+01 3.660745187434779382e+02
9.200000000000000000e+01 3.653267860710467403e+02
9.240000000000000568e+01 3.645838949683526380e+02
9.280000000000001137e+01 3.638457923717003268e+02
9.320000000000000284e+01 3.631124260364933320e+02
9.360000000000000853e+01 3.623837445209430825e+02
9.400000000000000000e+01 3.616596971701734446e+02
9.440000000000000568e+01 3.609402341007099722e+02
9.480000000000001137e+01 3.602253061853432996e+02
9.520000000000000284e+01 3.595148650383559925e+02
9.560000000000000853e+01 3.588088630011006899e+02
9.600000000000000000e+01 3.581072531279231725e+02
9.640000000000000568e+01 3.574099891724168856e+02
9.680000000000001137e+01 3.567170255740026050e+02
9.720000000000000284e+01 3.560283174448225054e+02
9.760000000000000853e+01 3.553438205569402726e+02
9.800000000000000000e+01 3.546634913298394736e+02
9.840000000000000568e+01 3.539872868182109187e+02
9.880000000000001137e+01 3.533151647000224784e+02
9.920000000000000284e+01 3.526470832648616351e+02
9.960000000000000853e+01 3.519830014025460514e+02
1.000000000000000000e+02 3.513228785919918664e+02
1.004000000000000057e+02 3.506666748903363668e+02
1.008000000000000114e+02 3.500143509223041747e+02
1.012000000000000028e+02 3.493658678698139965e+02
1.016000000000000085e+02 3.487211874618172942e+02
1.020000000000000000e+02 3.480802719643642718e+02
1.024000000000000057e+02 3.474430841708893922e+02
1.028000000000000114e+02 3.468095873927128423e+02
1.032000000000000028e+02 3.461797454497504418e+02
1.036000000000000085e+02 3.455535226614275643e+02
1.040000000000000000e+02 3.449308838377914981e+02
1.044000000000000057e+02 3.443117942708175860e+02
1.048000000000000114e+02 3.436962197259026652e+02
1.052000000000000028e+02 3.430841264335435881e+02
1.056000000000000085e+02 3.424754810811932657e+02
1.060000000000000000e+02 3.418702508052921303e+02
1.064000000000000057e+02 3.412684031834685356e+02
1.068000000000000114e+02 3.406699062269057663e+02
1.072000000000000028e+02 3.400747283728700268e+02
1.076000000000000085e+02 3.394828384773960579e+02
1.080000000000000000e+02 3.388942058081260029e+02
1.084000000000000057e+02 3.383088000372985107e+02
1.088000000000000114e+02 3.377265912348838128e+02
1.092000000000000028e+02 3.371475498618606252e+02
1.096000000000000085e+02 3.365716467636326570e+02
1.100000000000000000e+02 3.359988531635809181e+02
1.104000000000000057e+02 3.354291406567472222e+02
1.108000000000000114e+02 3.348624812036476897e+02
1.112000000000000028e+02 3.342988471242122159e+02
1.116000000000000085e+02 3.337382110918458693e+02
1.120000000000000000e+02 3.331805461276117626e+02
1.124000000000000057e+02 3.326258255945296014e+02
1.128000000000000114e+02 3.320740231919895677e+02
1.132000000000000028e+02 3.315251129502773324e+02
1.136000000000000085e+02 3.309790692252080362e+02
1.140000000000000000e+02 3.304358666928669663e+02
1.144000000000000057e+02 3.298954803444539152e+02
1.148000000000000114e+02 3.293578854812295731e+02
1.152000000000000028e+02 3.288230577095599187e+02
1.156000000000000085e+02 3.282909729360585516e+02
1.160000000000000000e+02 3.277616073628234972e+02
1.164000000000000057e+02 3.272349374827654174e+02
1.168000000000000114e+02 3.267109400750280770e+02
1.172000000000000028e+02 3.261895922004945874e+02
1.176000000000000085e+02 3.256708711973821551e+02
1.180000000000000000e+02 3.251547546769198789e+02
1.184000000000000057e+02 3.246412205191089697e+02
1.188000000000000114e+02 3.241302468685641429e+02
1.192000000000000028e+02 3.236218121304328292e+02
1.196000000000000085e+02 3.231158949663923181e+02
1.200000000000000000e+02 3.226124742907211385e+02
1.204000000000000057e+02 3.221115292664451886e+02
1.208000000000000114e+02 3.216130393015545224e+02
1.212000000000000028e+02 3.211169840452914173e+02
1.216000000000000085e+02 3.206233433845069385e+02
1.220000000000000000e+02 3.201320974400848627e+02
1.224000000000000057e+02 3.196432265634310284e+02
1.228000000000000114e+02 3.191567113330282268e+02
1.232000000000000028e+02 3.186725325510525977e+02
1.236000000000000085e+02 3.181906712400525521e+02
1.240000000000000000e+02 3.177111086396882911e+02
1.244000000000000057e+02 3.172338262035294747e+02
1.248000000000000114e+02 3.167588055959112694e+02
1.252000000000000028e+02 3.162860286888467272e+02
1.256000000000000085e+02 3.158154775589945302e+02
1.260000000000000000e+02 3.153471344846810780e+02
1.264000000000000057e+02 3.148809819429749268e+02
1.268000000000000114e+02 3.144170026068142647e+02
1.272000000000000028e+02 3.139551793421838966e+02
1.276000000000000085e+02 3.134954952053430475e+02
1.280000000000000000e+02 3.130379334401011420e+02
1.284000000000000057e+02 3.125824774751421273e+02
1.288000000000000114e+02 3.121291109213942150e+02
1.291999999999999886e+02 3.116778175694468587e+02
1.296000000000000227e+02 3.112285813870112179e+02
1.300000000000000000e+02 3.107813865164258118e+02
1.304000000000000057e+02 3.103362172722034984e+02
1.308000000000000114e+02 3.098930581386227914e+02
1.311999999999999886e+02 3.094518937673581718e+02
1.316000000000000227e+02 3.090127089751522931e+02
1.320000000000000000e+02 3.085754887415273515e+02
1.324000000000000057e+02 3.081402182065352235e+02
1.328000000000000114e+02 3.077068826685459726e+02
1.331999999999999886e+02 3.072754675820729062e+02
1.336000000000000227e+02 3.068459585556349225e+02
1.340000000000000000e+02 3.064183413496545541e+02
1.344000000000000057e+02 3.059926018743905729e+02
1.348000000000000114e+02 3.055687261879058951e+02
1.351999999999999886e+02 3.051467004940679999e+02
1.356000000000000227e+02 3.047265111405836819e+02
1.360000000000000000e+02 3.043081446170656363e+02
1.364000000000000057e+02 3.038915875531305346e+02
1.368000000000000114e+02 3.034768267165290467e+02
1.371999999999999886e+02 3.030638490113058197e+02
1.376000000000000227e+02 3.026526414759891850e+02
1.380000000000000000e+02 3.022431912818117326e+02
1.384000000000000057e+02 3.018354857309575436e+02
1.388000000000000114e+02 3.014295122548398354e+02
1.392000000000000171e+02 3.010252584124047530e+02
1.395999999999999943e+02 3.006227118884631864e+02
1.400000000000000000e+02 3.002218604920493021e+02
1.404000000000000057e+02 2.998226921548045993e+02
1.408000000000000114e+02 2.994251949293889652e+02
1.412000000000000171e+02 2.990293569879152074e+02
1.415999999999999943e+02 2.986351666204099047e+02
1.420000000000000000e+02 2.982426122332977911e+02
1.424000000000000057e+02 2.978516823479096729e+02
1.428000000000000114e+02 2.974623655990149018e+02
1.432000000000000171e+02 2.970746507333753357e+02
1.435999999999999943e+02 2.966885266083228316e+02
1.440000000000000000e+02 2.963039821903587381e+02
1.444000000000000057e+02 2.959210065537745322e+02
1.448000000000000114e+02 2.955395888792943992e+02
1.452000000000000171e+02 2.951597184527386730e+02
1.455999999999999943e+02 2.947813846637071720e+02
1.460000000000000000e+02 2.944045770042836807e+02
1.464000000000000057e+02 2.940292850677591332e+02
1.468000000000000114e+02 2.936554985473757142e+02
1.472000000000000171e+02 2.932832072350881845e+02
1.475999999999999943e+02 2.929124010203456692e+02
1.480000000000000000e+02 2.925430698888908410e+02
1.484000000000000057e+02 2.921752039215775198e+02
1.488000000000000114e+02 2.918087932932061221e+02
1.492000000000000171e+02 2.914438282713762760e+02
1.495999999999999943e+02 2.910802992153571154e+02
1.500000000000000000e+02 2.907181965749734900e+02
