1.000000000000000000e+01 6.551586989826437275e+02
1.040000000000000036e+01 6.865456961717874265e+02
1.080000000000000071e+01 6.865454145074864982e+02
1.119999999999999929e+01 6.899123288407420205e+02
1.159999999999999964e+01 6.956890131487029976e+02
1.200000000000000000e+01 6.948085800965264980e+02
1.240000000000000036e+01 6.896876076082763802e+02
1.280000000000000071e+01 7.167430041962438736e+02
1.319999999999999929e+01 7.319253415075290832e+02
1.359999999999999964e+01 7.428413005673974112e+02
1.400000000000000000e+01 7.360936283203523089e+02
1.440000000000000036e+01 7.236809142455401798e+02
1.480000000000000071e+01 7.119958810726240017e+02
1.519999999999999929e+01 7.009641909443357690e+02
1.560000000000000142e+01 6.905223174015488894e+02
1.600000000000000000e+01 6.806155187436065717e+02
1.639999999999999858e+01 6.711962722474478369e+02
1.680000000000000071e+01 6.622230472346154784e+02
1.719999999999999929e+01 6.536593314895256981e+02
1.760000000000000142e+01 6.454728499608908123e+02
1.800000000000000000e+01 6.376349313724949752e+02
1.839999999999999858e+01 6.301199899984253534e+02
1.880000000000000071e+01 6.229050980992843733e+02
1.920000000000000284e+01 6.159696304487456473e+02
1.960000000000000142e+01 6.092949667120983577e+02
2.000000000000000000e+01 6.028642406434726126e+02
2.039999999999999858e+01 5.966621274681095883e+02
2.080000000000000071e+01 5.906746626326471414e+02
2.120000000000000284e+01 5.848890864956701989e+02
2.160000000000000142e+01 5.792937106033459713e+02
2.200000000000000000e+01 5.738778020303045651e+02
2.239999999999999858e+01 5.686314829218598561e+02
2.280000000000000071e+01 5.635456428926584067e+02
2.320000000000000284e+01 5.586118623504332845e+02
2.360000000000000142e+01 5.538223451453504822e+02
2.400000000000000000e+01 5.491698592133126340e+02
2.439999999999999858e+01 5.446476840991381323e+02
2.480000000000000071e+01 5.402495644232028553e+02
2.520000000000000284e+01 5.359696685010039801e+02
2.560000000000000142e+01 5.318025514454669747e+02
2.600000000000000000e+01 5.277431221815973004e+02
2.640000000000000213e+01 5.237866138861869558e+02
2.680000000000000071e+01 5.199285574347771899e+02
2.719999999999999929e+01 5.161647574964507612e+02
2.760000000000000142e+01 5.124912709662283987e+02
2.800000000000000000e+01 5.089043874664774876e+02
2.840000000000000213e+01 5.054006116840982941e+02
2.880000000000000071e+01 5.019766473403715281e+02
2.920000000000000284e+01 4.986293826161067955e+02
2.960000000000000142e+01 4.953558768768054961e+02
3.000000000000000000e+01 4.921533485615436803e+02
3.040000000000000213e+01 4.890191641156540072e+02
3.080000000000000071e+01 4.859508278614561050e+02
3.120000000000000284e+01 4.829459727135606499e+02
3.160000000000000142e+01 4.800023516559525660e+02
3.200000000000000000e+01 4.771178299073649782e+02
3.240000000000000568e+01 4.742903777095834812e+02
3.279999999999999716e+01 4.715180636804366259e+02
3.320000000000000284e+01 4.687990486794723211e+02
3.360000000000000142e+01 4.661315801398169469e+02
3.400000000000000000e+01 4.635139868245416892e+02
3.440000000000000568e+01 4.609446739701468800e+02
3.479999999999999716e+01 4.584221187835389628e+02
3.520000000000000284e+01 4.559448662622361326e+02
3.560000000000000142e+01 4.535115253105054194e+02
3.600000000000000000e+01 4.511207651267797019e+02
3.640000000000000568e+01 4.487713118400611165e+02
3.679999999999999716e+01 4.464619453751158176e+02
3.720000000000000284e+01 4.441914965281507648e+02
3.760000000000000142e+01 4.419588442363370859e+02
3.800000000000000000e+01 4.397629130260596071e+02
3.840000000000000568e+01 4.376026706261236541e+02
3.879999999999999716e+01 4.354771257333667336e+02
3.920000000000000284e+01 4.333853259192201222e+02
3.960000000000000142e+01 4.313263556667545799e+02
4.000000000000000000e+01 4.292993345286342901e+02
4.040000000000000568e+01 4.273034153972136551e+02
4.079999999999999716e+01 4.253377828787353678e+02
4.120000000000000284e+01 4.234016517642556892e+02
4.160000000000000142e+01 4.214942655905224456e+02
4.200000000000000000e+01 4.196148952845700251e+02
4.239999999999999858e+01 4.177628378862997351e+02
4.280000000000000426e+01 4.159374153437610175e+02
4.320000000000000284e+01 4.141379733762580599e+02
4.360000000000000142e+01 4.123638804007875933e+02
4.400000000000000000e+01 4.106145265176494377e+02
4.439999999999999858e+01 4.088893225513903076e+02
4.480000000000000426e+01 4.071876991435240711e+02
4.520000000000000284e+01 4.055091058937356365e+02
4.560000000000000142e+01 4.038530105465166571e+02
4.600000000000000000e+01 4.022188982204002059e+02
4.639999999999999858e+01 4.006062706771681405e+02
4.680000000000000426e+01 3.990146456285852992e+02
4.720000000000000284e+01 3.974435560783925894e+02
4.760000000000000142e+01 3.958925496974445650e+02
4.800000000000000000e+01 3.943611882300240268e+02
4.840000000000000568e+01 3.928490469295009007e+02
4.880000000000000426e+01 3.913557140216254879e+02
4.920000000000000284e+01 3.898807901938624809e+02
4.960000000000000142e+01 3.884238881092736051e+02
5.000000000000000000e+01 3.869846319435620217e+02
5.040000000000000568e+01 3.855626569439741615e+02
5.080000000000000426e+01 3.841576090088439059e+02
5.120000000000000284e+01 3.827691442866408806e+02
5.160000000000000142e+01 3.813969287934545491e+02
5.200000000000000000e+01 3.800406380479174118e+02
5.240000000000000568e+01 3.786999567226259273e+02
5.280000000000000426e+01 3.773745783111849050e+02
5.320000000000000284e+01 3.760642048100456805e+02
5.360000000000000142e+01 3.747685464143648915e+02
5.400000000000000000e+01 3.734873212271559169e+02
5.440000000000000568e+01 3.722202549810456276e+02
5.480000000000000426e+01 3.709670807719944605e+02
5.520000000000000284e+01 3.697275388043721023e+02
5.560000000000000142e+01 3.685013761468172788e+02
5.600000000000000000e+01 3.672883464983449926e+02
5.640000000000000568e+01 3.660882099641924015e+02
5.680000000000000426e+01 3.649007328409259117e+02
5.720000000000000284e+01 3.637256874103579776e+02
5.760000000000000142e+01 3.625628517418476235e+02
5.800000000000000000e+01 3.614120095025816681e+02
5.840000000000000568e+01 3.602729497754580166e+02
5.880000000000000426e+01 3.591454668842109186e+02
5.920000000000000284e+01 3.580293602254370740e+02
5.960000000000000142e+01 3.569244341072043767e+02
6.000000000000000000e+01 3.558304975939358883e+02
6.040000000000000568e+01 3.547473643572831747e+02
6.080000000000000426e+01 3.536748525327149650e+02
6.120000000000000284e+01 3.526127845815634032e+02
6.160000000000000142e+01 3.515609871582826713e+02
6.200000000000000000e+01 3.505192909826870391e+02
6.240000000000000568e+01 3.494875307169485268e+02
6.280000000000000426e+01 3.484655448471451109e+02
6.320000000000000284e+01 3.474531755691601234e+02
6.360000000000000142e+01 3.464502686787438961e+02
6.400000000000000000e+01 3.454566734655609821e+02
6.440000000000000568e+01 3.444722426110479319e+02
6.480000000000001137e+01 3.434968320899250216e+02
6.520000000000000284e+01 3.425303010752030559e+02
6.559999999999999432e+01 3.415725118465421701e+02
6.600000000000000000e+01 3.406233297018213761e+02
6.640000000000000568e+01 3.396826228717863501e+02
6.680000000000001137e+01 3.387502624376490985e+02
6.720000000000000284e+01 3.378261222515187114e+02
6.759999999999999432e+01 3.369100788595494578e+02
6.800000000000000000e+01 3.360020114276946401e+02
6.840000000000000568e+01 3.351018016699644022e+02
6.880000000000001137e+01 3.342093337790848864e+02
6.920000000000000284e+01 3.333244943594672804e+02
6.959999999999999432e+01 3.324471723623923936e+02
7.000000000000000000e+01 3.315772590233273149e+02
7.040000000000000568e+01 3.307146478012890611e+02
7.080000000000001137e+01 3.298592343201776202e+02
7.120000000000000284e+01 3.290109163120029052e+02
7.159999999999999432e+01 3.281695935619319471e+02
7.200000000000000000e+01 3.273351678550894803e+02
7.240000000000000568e+01 3.265075429250443904e+02
7.280000000000001137e+01 3.256866244039194385e+02
7.320000000000000284e+01 3.248723197740638398e+02
7.359999999999999432e+01 3.240645383212308843e+02
7.400000000000000000e+01 3.232631910892049518e+02
7.440000000000000568e+01 3.224681908358256806e+02
7.479999999999999716e+01 3.216794519903580181e+02
7.520000000000000284e+01 3.208968906121583018e+02
7.560000000000000853e+01 3.201204243505927707e+02
7.600000000000000000e+01 3.193499724061609299e+02
7.640000000000000568e+01 3.185854554927817617e+02
7.679999999999999716e+01 3.178267958012027066e+02
7.720000000000000284e+01 3.170739169634907739e+02
7.760000000000000853e+01 3.163267440185682062e+02
7.800000000000000000e+01 3.155852033787570008e+02
7.840000000000000568e+01 3.148492227972963065e+02
7.879999999999999716e+01 3.141187313368005789e+02
7.920000000000000284e+01 3.133936593386256959e+02
7.960000000000000853e+01 3.126739383931114844e+02
8.000000000000000000e+01 3.119595013106721808e+02
8.040000000000000568e+01 3.112502820937056640e+02
8.079999999999999716e+01 3.105462159092945740e+02
8.120000000000000284e+01 3.098472390626714628e+02
8.160000000000000853e+01 3.091532889714252974e+02
8.200000000000000000e+01 3.084643041404222004e+02
8.240000000000000568e+01 3.077802241374187133e+02
8.279999999999999716e+01 3.071009895693443923e+02
8.320000000000000284e+01 3.064265420592321334e+02
8.360000000000000853e+01 3.057568242237755385e+02
8.400000000000000000e+01 3.050917796514928000e+02
8.440000000000000568e+01 3.044313528814772667e+02
8.479999999999999716e+01 3.037754893827185469e+02
8.520000000000000284e+01 3.031241355339718098e+02
8.560000000000000853e+01 3.024772386041626078e+02
8.600000000000000000e+01 3.018347467333067584e+02
8.640000000000000568e+01 3.011966089139320957e+02
8.680000000000001137e+01 3.005627749729842435e+02
8.720000000000000284e+01 2.999331955542028822e+02
8.760000000000000853e+01 2.993078221009537856e+02
8.800000000000000000e+01 2.986866068395023603e+02
8.840000000000000568e+01 2.980695027627155582e+02
8.880000000000001137e+01 2.974564636141791425e+02
8.920000000000000284e+01 2.968474438727176334e+02
8.960000000000000853e+01 2.962423987373052228e+02
9.000000000000000000e+01 2.956412841123558337e+02
9.040000000000000568e+01 2.950440565933805033e+02
9.080000000000001137e+01 2.944506734530024232e+02
9.120000000000000284e+01 2.938610926273181576e+02
9.160000000000000853e+01 2.932752727025948616e+02
9.200000000000000000e+01 2.926931729022944637e+02
9.240000000000000568e+01 2.921147530744147502e+02
9.280000000000001137e+01 2.915399736791384839e+02
9.320000000000000284e+01 2.909687957767811781e+02
9.360000000000000853e+01 2.904011810160295681e+02
9.400000000000000000e+01 2.898370916224627081e+02
9.440000000000000568e+01 2.892764903873464846e+02
9.480000000000001137e+01 2.887193406566950671e+02
9.520000000000000284e+01 2.881656063205914506e+02
9.560000000000000853e+01 2.876152518027591896e+02
9.600000000000000000e+01 2.870682420503796948e+02
9.640000000000000568e+01 2.865245425241463977e+02
9.680000000000001137e+01 2.859841191885510625e+02
9.720000000000000284e+01 2.854469385023949712e+02
9.760000000000000853e+01 2.849129674095183873e+02
9.800000000000000000e+01 2.843821733297438641e+02
9.840000000000000568e+01 2.838545241500257248e+02
9.880000000000001137e+01 2.833299882158013929e+02
9.920000000000000284e+01 2.828085343225388328e+02
9.960000000000000853e+01 2.822901317074747567e+02
1.000000000000000000e+02 2.817747500415387094e+02
1.004000000000000057e+02 2.812623594214575178e+02
1.008000000000000114e+02 2.807529303620361247e+02
1.012000000000000028e+02 2.802464337886096359e+02
1.016000000000000085e+02 2.797428410296622019e+02
1.020000000000000000e+02 2.792421238096087563e+02
1.024000000000000057e+02 2.787442542417342111e+02
1.028000000000000114e+02 2.782492048212878331e+02
1.032000000000000028e+02 2.777569484187270064e+02
1.036000000000000085e+02 2.772674582731076498e+02
1.040000000000000000e+02 2.767807079856175960e+02
1.044000000000000057e+02 2.762966715132478726e+02
1.048000000000000114e+02 2.758153231626005208e+02
1.052000000000000028e+02 2.753366375838277804e+02
1.056000000000000085e+02 2.748605897647002507e+02
1.060000000000000000e+02 2.743871550247998243e+02
1.064000000000000057e+02 2.739163090098361408e+02
1.068000000000000114e+02 2.734480276860809909e+02
1.072000000000000028e+02 2.729822873349197039e+02
1.076000000000000085e+02 2.725190645475161091e+02
1.080000000000000000e+02 2.720583362195876589e+02
1.084000000000000057e+02 2.716000795462886117e+02
1.088000000000000114e+02 2.711442720171985457e+02
1.092000000000000028e+02 2.706908914114138156e+02
1.096000000000000085e+02 2.702399157927388842e+02
1.100000000000000000e+02 2.697913235049754235e+02
1.104000000000000057e+02 2.693450931673074251e+02
1.108000000000000114e+02 2.689012036697787380e+02
1.112000000000000028e+02 2.684596341688622374e+02
1.116000000000000085e+02 2.680203640831170446e+02
1.120000000000000000e+02 2.675833730889333992e+02
1.124000000000000057e+02 2.671486411163610342e+02
1.128000000000000114e+02 2.667161483450211108e+02
1.132000000000000028e+02 2.662858752000985305e+02
1.136000000000000085e+02 2.658578023484127471e+02
1.140000000000000000e+02 2.654319106945661702e+02
1.144000000000000057e+02 2.650081813771672614e+02
1.148000000000000114e+02 2.645865957651276403e+02
1.152000000000000028e+02 2.641671354540301309e+02
1.156000000000000085e+02 2.637497822625679760e+02
1.160000000000000000e+02 2.633345182290516959e+02
1.164000000000000057e+02 2.629213256079833627e+02
1.168000000000000114e+02 2.625101868666963583e+02
1.172000000000000028e+02 2.621010846820588540e+02
1.176000000000000085e+02 2.616940019372400457e+02
1.180000000000000000e+02 2.612889217185373809e+02
1.184000000000000057e+02 2.608858273122637570e+02
1.188000000000000114e+02 2.604847022016926985e+02
1.192000000000000028e+02 2.600855300640612313e+02
1.196000000000000085e+02 2.596882947676283493e+02
1.200000000000000000e+02 2.592929803687878803e+02
1.204000000000000057e+02 2.588995711092354668e+02
1.208000000000000114e+02 2.585080514131869904e+02
1.212000000000000028e+02 2.581184058846489506e+02
1.216000000000000085e+02 2.577306193047379566e+02
1.220000000000000000e+02 2.573446766290500136e+02
1.224000000000000057e+02 2.569605629850771038e+02
1.228000000000000114e+02 2.565782636696711165e+02
1.232000000000000028e+02 2.561977641465529132e+02
1.236000000000000085e+02 2.558190500438668664e+02
1.240000000000000000e+02 2.554421071517792825e+02
1.244000000000000057e+02 2.550669214201192858e+02
1.248000000000000114e+02 2.546934789560622789e+02
1.252000000000000028e+02 2.543217660218543870e+02
1.256000000000000085e+02 2.539517690325772605e+02
1.260000000000000000e+02 2.535834745539521577e+02
1.264000000000000057e+02 2.532168693001830206e+02
1.268000000000000114e+02 2.528519401318370114e+02
1.272000000000000028e+02 2.524886740537623950e+02
1.276000000000000085e+02 2.521270582130425737e+02
1.280000000000000000e+02 2.517670798969856207e+02
1.284000000000000057e+02 2.514087265311486590e+02
1.288000000000000114e+02 2.510519856773965444e+02
1.291999999999999886e+02 2.506968450319936323e+02
1.296000000000000227e+02 2.503432924237281725e+02
1.300000000000000000e+02 2.499913158120694447e+02
1.304000000000000057e+02 2.496409032853554777e+02
1.308000000000000114e+02 2.492920430590119167e+02
1.311999999999999886e+02 2.489447234738013890e+02
1.316000000000000227e+02 2.485989329941014034e+02
1.320000000000000000e+02 2.482546602062125771e+02
1.324000000000000057e+02 2.479118938166942314e+02
1.328000000000000114e+02 2.475706226507279268e+02
1.331999999999999886e+02 2.472308356505088511e+02
1.336000000000000227e+02 2.468925218736632701e+02
1.340000000000000000e+02 2.465556704916926662e+02
1.344000000000000057e+02 2.462202707884432016e+02
1.348000000000000114e+02 2.458863121586007878e+02
1.351999999999999886e+02 2.455537841062104008e+02
1.356000000000000227e+02 2.452226762432199791e+02
1.360000000000000000e+02 2.448929782880479138e+02
1.364000000000000057e+02 2.445646800641737855e+02
1.368000000000000114e+02 2.442377714987522666e+02
1.371999999999999886e+02 2.439122426212489358e+02
1.376000000000000227e+02 2.435880835620982907e+02
1.380000000000000000e+02 2.432652845513838713e+02
1.384000000000000057e+02 2.429438359175383084e+02
1.388000000000000114e+02 2.426237280860653414e+02
1.392000000000000171e+02 2.423049515782816741e+02
1.395999999999999943e+02 2.419874970100785276e+02
1.400000000000000000e+02 2.416713550907034573e+02
1.404000000000000057e+02 2.413565166215607007e+02
1.408000000000000114e+02 2.410429724950311652e+02
1.412000000000000171e+02 2.407307136933100651e+02
1.415999999999999943e+02 2.404197312872635450e+02
1.420000000000000000e+02 2.401100164353025548e+02
1.424000000000000057e+02 2.398015603822745163e+02
1.428000000000000114e+02 2.394943544583724133e+02
1.432000000000000171e+02 2.391883900780599390e+02
1.435999999999999943e+02 2.388836587390143791e+02
1.440000000000000000e+02 2.385801520210847002e+02
1.444000000000000057e+02 2.382778615852660096e+02
1.448000000000000114e+02 2.379767791726901578e+02
1.452000000000000171e+02 2.376768966036308655e+02
1.455999999999999943e+02 2.373782057765246236e+02
1.460000000000000000e+02 2.370806986670061178e+02
1.464000000000000057e+02 2.367843673269584315e+02
1.468000000000000114e+02 2.364892038835774315e+02
1.472000000000000171e+02 2.361952005384502513e+02
1.475999999999999943e+02 2.359023495666476151e+02
1.480000000000000000e+02 2.356106433158296340e+02
1.484000000000000057e+02 2.353200742053650742e+02
1.488000000000000114e+02 2.350306347254637558e+02
1.492000000000000171e+02 2.347423174363215139e+02
1.495999999999999943e+02 2.344551149672780639e+02
1.500000000000000000e+02 2.341690200159871438e+02
