1.000000000000000000e+01 6.732517313624664439e+02
1.040000000000000036e+01 7.428322831216212307e+02
1.080000000000000071e+01 7.920973928616572266e+02
1.119999999999999929e+01 8.497762784121472350e+02
1.159999999999999964e+01 8.732400012543666890e+02
1.200000000000000000e+01 9.059305064723753276e+02
1.240000000000000036e+01 9.312332398037985968e+02
1.280000000000000071e+01 9.254809572520598522e+02
1.319999999999999929e+01 9.337410971287965822e+02
1.359999999999999964e+01 9.486879308428834747e+02
1.400000000000000000e+01 9.309921405665668317e+02
1.440000000000000036e+01 9.144150315580018287e+02
1.480000000000000071e+01 8.988356718492980235e+02
1.519999999999999929e+01 8.841514565321207328e+02
1.560000000000000142e+01 8.702745697488228416e+02
1.600000000000000000e+01 8.571292685746742563e+02
1.639999999999999858e+01 8.446497675948594406e+02
1.680000000000000071e+01 8.327785701041671018e+02
1.719999999999999929e+01 8.214651364737173935e+02
1.760000000000000142e+01 8.106648105484289317e+02
1.800000000000000000e+01 8.003379459529912765e+02
1.839999999999999858e+01 7.904491890087570027e+02
1.880000000000000071e+01 7.809668855905169949e+02
1.920000000000000284e+01 7.718625869805255206e+02
1.960000000000000142e+01 7.631106354724909124e+02
2.000000000000000000e+01 7.546878147263892060e+02
2.039999999999999858e+01 7.465730530790198145e+02
2.080000000000000071e+01 7.387471704567078632e+02
2.120000000000000284e+01 7.311926614146829024e+02
2.160000000000000142e+01 7.238935082851996867e+02
2.200000000000000000e+01 7.168350195569212246e+02
2.239999999999999858e+01 7.100036895072867082e+02
2.280000000000000071e+01 7.033870758236710117e+02
2.320000000000000284e+01 6.969736925200555788e+02
2.360000000000000142e+01 6.907529159152480815e+02
2.400000000000000000e+01 6.847149018104591960e+02
2.439999999999999858e+01 6.788505123066265696e+02
2.480000000000000071e+01 6.731512509494737060e+02
2.520000000000000284e+01 6.676092050939090541e+02
2.560000000000000142e+01 6.622169945476290422e+02
2.600000000000000000e+01 6.569677256934553498e+02
2.640000000000000213e+01 6.518549504063696531e+02
2.680000000000000071e+01 6.468726291786815636e+02
2.719999999999999929e+01 6.420150979486778624e+02
2.760000000000000142e+01 6.372770381971949973e+02
2.800000000000000000e+01 6.326534499350564147e+02
2.840000000000000213e+01 6.281396272540030168e+02
2.880000000000000071e+01 6.237311361561000922e+02
2.920000000000000284e+01 6.194237944128029767e+02
2.960000000000000142e+01 6.152136532359234025e+02
3.000000000000000000e+01 6.110969805694312527e+02
3.040000000000000213e+01 6.070702458340645080e+02
3.080000000000000071e+01 6.031301059766326489e+02
3.120000000000000284e+01 5.992733926931629185e+02
3.160000000000000142e+01 5.954971007100543829e+02
3.200000000000000000e+01 5.917983770204660914e+02
3.240000000000000568e+01 5.881745109846035575e+02
3.279999999999999716e+01 5.846229252125418725e+02
3.320000000000000284e+01 5.811411671570024282e+02
3.360000000000000142e+01 5.777269013512058109e+02
3.400000000000000000e+01 5.743779022336982507e+02
3.440000000000000568e+01 5.710920475080532697e+02
3.479999999999999716e+01 5.678673119906329703e+02
3.520000000000000284e+01 5.647017619042920842e+02
3.560000000000000142e+01 5.615935495800664512e+02
3.600000000000000000e+01 5.585409085325878777e+02
3.640000000000000568e+01 5.555421488782628785e+02
3.679999999999999716e+01 5.525956530681928598e+02
3.720000000000000284e+01 5.496998719104325346e+02
3.760000000000000142e+01 5.468533208585395187e+02
3.800000000000000000e+01 5.440545765454648972e+02
3.840000000000000568e+01 5.413022735437293704e+02
3.879999999999999716e+01 5.385951013345205638e+02
3.920000000000000284e+01 5.359318014698772004e+02
3.960000000000000142e+01 5.333111649135028074e+02
4.000000000000000000e+01 5.307320295469871780e+02
4.040000000000000568e+01 5.281932778293437423e+02
4.079999999999999716e+01 5.256938345987762204e+02
4.120000000000000284e+01 5.232326650065132299e+02
4.160000000000000142e+01 5.208087725733810203e+02
4.200000000000000000e+01 5.184211973605365529e+02
4.239999999999999858e+01 5.160690142464761720e+02
4.280000000000000426e+01 5.137513313030564177e+02
4.320000000000000284e+01 5.114672882638330975e+02
4.360000000000000142e+01 5.092160550785461055e+02
4.400000000000000000e+01 5.069968305480482513e+02
4.439999999999999858e+01 5.048088410344120689e+02
4.480000000000000426e+01 5.026513392413407928e+02
4.520000000000000284e+01 5.005236030603768995e+02
4.560000000000000142e+01 4.984249344787281188e+02
4.600000000000000000e+01 4.963546585448394808e+02
4.639999999999999858e+01 4.943121223881178139e+02
4.680000000000000426e+01 4.922966942894702242e+02
4.720000000000000284e+01 4.903077627995584749e+02
4.760000000000000142e+01 4.883447359018828138e+02
4.800000000000000000e+01 4.864070402180135488e+02
4.840000000000000568e+01 4.844941202524710206e+02
4.880000000000000426e+01 4.826054376749247581e+02
4.920000000000000284e+01 4.807404706375397154e+02
4.960000000000000142e+01 4.788987131254440328e+02
5.000000000000000000e+01 4.770796743384240699e+02
5.040000000000000568e+01 4.752828781020814404e+02
5.080000000000000426e+01 4.735078623067954595e+02
5.120000000000000284e+01 4.717541783729454892e+02
5.160000000000000142e+01 4.700213907409473677e+02
5.200000000000000000e+01 4.683090763847446283e+02
5.240000000000000568e+01 4.666168243474857604e+02
5.280000000000000426e+01 4.649442352981943714e+02
5.320000000000000284e+01 4.632909211083152741e+02
5.360000000000000142e+01 4.616565044470846715e+02
5.400000000000000000e+01 4.600406183947412728e+02
5.440000000000000568e+01 4.584429060726480429e+02
5.480000000000000426e+01 4.568630202894563581e+02
5.520000000000000284e+01 4.553006232024910105e+02
5.560000000000000142e+01 4.537553859935842411e+02
5.600000000000000000e+01 4.522269885586335363e+02
5.640000000000000568e+01 4.507151192101971446e+02
5.680000000000000426e+01 4.492194743924825957e+02
5.720000000000000284e+01 4.477397584081192008e+02
5.760000000000000142e+01 4.462756831561400759e+02
5.800000000000000000e+01 4.448269678806326510e+02
5.840000000000000568e+01 4.433933389295439156e+02
5.880000000000000426e+01 4.419745295231584805e+02
5.920000000000000284e+01 4.405702795317903906e+02
5.960000000000000142e+01 4.391803352622582679e+02
6.000000000000000000e+01 4.378044492527322973e+02
6.040000000000000568e+01 4.364423800755691900e+02
6.080000000000000426e+01 4.350938921477651320e+02
6.120000000000000284e+01 4.337587555486812789e+02
6.160000000000000142e+01 4.324367458447135846e+02
6.200000000000000000e+01 4.311276439205927886e+02
6.240000000000000568e+01 4.298312358170206835e+02
6.280000000000000426e+01 4.285473125743613423e+02
6.320000000000000284e+01 4.272756700821209961e+02
6.360000000000000142e+01 4.260161089339637215e+02
6.400000000000000000e+01 4.247684342880231725e+02
6.440000000000000568e+01 4.235324557322812780e+02
6.480000000000001137e+01 4.223079871547984681e+02
6.520000000000000284e+01 4.210948466185878942e+02
6.559999999999999432e+01 4.198928562409386700e+02
6.600000000000000000e+01 4.187018420770000375e+02
6.640000000000000568e+01 4.175216340074515529e+02
6.680000000000001137e+01 4.163520656300869405e+02
6.720000000000000284e+01 4.151929741551532516e+02
6.759999999999999432e+01 4.140442003042908823e+02
6.800000000000000000e+01 4.129055882129276824e+02
6.840000000000000568e+01 4.117769853359895933e+02
6.880000000000001137e+01 4.106582423567930391e+02
6.920000000000000284e+01 4.095492130989934481e+02
6.959999999999999432e+01 4.084497544414685422e+02
7.000000000000000000e+01 4.073597262360208902e+02
7.040000000000000568e+01 4.062789912277905842e+02
7.080000000000001137e+01 4.052074149782709469e+02
7.120000000000000284e+01 4.041448657908279074e+02
7.159999999999999432e+01 4.030912146386274344e+02
7.200000000000000000e+01 4.020463350948772927e+02
7.240000000000000568e+01 4.010101032652981985e+02
7.280000000000001137e+01 3.999823977227372325e+02
7.320000000000000284e+01 3.989630994438460334e+02
7.359999999999999432e+01 3.979520917477444755e+02
7.400000000000000000e+01 3.969492602365980360e+02
7.440000000000000568e+01 3.959544927380383115e+02
7.479999999999999716e+01 3.949676792493575590e+02
7.520000000000000284e+01 3.939887118834145099e+02
7.560000000000000853e+01 3.930174848161892669e+02
7.600000000000000000e+01 3.920538942359266343e+02
7.640000000000000568e+01 3.910978382938129698e+02
7.679999999999999716e+01 3.901492170561305102e+02
7.720000000000000284e+01 3.892079324578372734e+02
7.760000000000000853e+01 3.882738882575232537e+02
7.800000000000000000e+01 3.873469899936935121e+02
7.840000000000000568e+01 3.864271449423325748e+02
7.879999999999999716e+01 3.855142620757061422e+02
7.920000000000000284e+01 3.846082520223567371e+02
7.960000000000000853e+01 3.837090270282531606e+02
8.000000000000000000e+01 3.828165009190545334e+02
8.040000000000000568e+01 3.819305890634495881e+02
8.079999999999999716e+01 3.810512083375379007e+02
8.120000000000000284e+01 3.801782770902149764e+02
8.160000000000000853e+01 3.793117151095304962e+02
8.200000000000000000e+01 3.784514435899853879e+02
8.240000000000000568e+01 3.775973851007377107e+02
8.279999999999999716e+01 3.767494635546880772e+02
8.320000000000000284e+01 3.759076041784139761e+02
8.360000000000000853e+01 3.750717334829282663e+02
8.400000000000000000e+01 3.742417792352324568e+02
8.440000000000000568e+01 3.734176704306405554e+02
8.479999999999999716e+01 3.725993372658493854e+02
8.520000000000000284e+01 3.717867111127301314e+02
8.560000000000000853e+01 3.709797244928195710e+02
8.600000000000000000e+01 3.701783110524886524e+02
8.640000000000000568e+01 3.693824055387657950e+02
8.680000000000001137e+01 3.685919437757975174e+02
8.720000000000000284e+01 3.678068626419234306e+02
8.760000000000000853e+01 3.670271000473478011e+02
8.800000000000000000e+01 3.662525949123908049e+02
8.840000000000000568e+01 3.654832871462995172e+02
8.880000000000001137e+01 3.647191176266021557e+02
8.920000000000000284e+01 3.639600281789905694e+02
8.960000000000000853e+01 3.632059615577132945e+02
9.000000000000000000e+01 3.624568614264641155e+02
9.040000000000000568e+01 3.617126723397528849e+02
9.080000000000001137e+01 3.609733397247417770e+02
9.120000000000000284e+01 3.602388098635357778e+02
9.160000000000000853e+01 3.595090298759115512e+02
9.200000000000000000e+01 3.587839477024741086e+02
9.240000000000000568e+01 3.580635120882272417e+02
9.280000000000001137e+01 3.573476725665459526e+02
9.320000000000000284e+01 3.566363794435402497e+02
9.360000000000000853e+01 3.559295837827976925e+02
9.400000000000000000e+01 3.552272373904943379e+02
9.440000000000000568e+01 3.545292928008643116e+02
9.480000000000001137e+01 3.538357032620166933e+02
9.520000000000000284e+01 3.531464227220903922e+02
9.560000000000000853e+01 3.524614058157375212e+02
9.600000000000000000e+01 3.517806078509265149e+02
9.640000000000000568e+01 3.511039847960545330e+02
9.680000000000001137e+01 3.504314932673629528e+02
9.720000000000000284e+01 3.497630905166449793e+02
9.760000000000000853e+01 3.490987344192391220e+02
9.800000000000000000e+01 3.484383834623006351e+02
9.840000000000000568e+01 3.477819967333417708e+02
9.880000000000001137e+01 3.471295339090354446e+02
9.920000000000000284e+01 3.464809552442742415e+02
9.960000000000000853e+01 3.458362215614776574e+02
1.000000000000000000e+02 3.451952942401412088e+02
1.004000000000000057e+02 3.445581352066218415e+02
1.008000000000000114e+02 3.439247069241511099e+02
1.012000000000000028e+02 3.432949723830728885e+02
1.016000000000000085e+02 3.426688950912970881e+02
1.020000000000000000e+02 3.420464390649657389e+02
1.024000000000000057e+02 3.414275688193242217e+02
1.028000000000000114e+02 3.408122493597941229e+02
1.032000000000000028e+02 3.402004461732407208e+02
1.036000000000000085e+02 3.395921252194303861e+02
1.040000000000000000e+02 3.389872529226747702e+02
1.044000000000000057e+02 3.383857961636545042e+02
1.048000000000000114e+02 3.377877222714195113e+02
1.052000000000000028e+02 3.371929990155603036e+02
1.056000000000000085e+02 3.366015945985476492e+02
1.060000000000000000e+02 3.360134776482337884e+02
1.064000000000000057e+02 3.354286172105134938e+02
1.068000000000000114e+02 3.348469827421403124e+02
1.072000000000000028e+02 3.342685441036927614e+02
1.076000000000000085e+02 3.336932715526889979e+02
1.080000000000000000e+02 3.331211357368440531e+02
1.084000000000000057e+02 3.325521076874686059e+02
1.088000000000000114e+02 3.319861588130025893e+02
1.092000000000000028e+02 3.314232608926841976e+02
1.096000000000000085e+02 3.308633860703471328e+02
1.100000000000000000e+02 3.303065068483460891e+02
1.104000000000000057e+02 3.297525960816049064e+02
1.108000000000000114e+02 3.292016269717875048e+02
1.112000000000000028e+02 3.286535730615840976e+02
1.116000000000000085e+02 3.281084082291150708e+02
1.120000000000000000e+02 3.275661066824460477e+02
1.124000000000000057e+02 3.270266429542123205e+02
1.128000000000000114e+02 3.264899918963519099e+02
1.132000000000000028e+02 3.259561286749413398e+02
1.136000000000000085e+02 3.254250287651351528e+02
1.140000000000000000e+02 3.248966679462047296e+02
1.144000000000000057e+02 3.243710222966738570e+02
1.148000000000000114e+02 3.238480681895507587e+02
1.152000000000000028e+02 3.233277822876516439e+02
1.156000000000000085e+02 3.228101415390165698e+02
1.160000000000000000e+02 3.222951231724132413e+02
1.164000000000000057e+02 3.217827046929272115e+02
1.168000000000000114e+02 3.212728638776380308e+02
1.172000000000000028e+02 3.207655787713767381e+02
1.176000000000000085e+02 3.202608276825656048e+02
1.180000000000000000e+02 3.197585891791360950e+02
1.184000000000000057e+02 3.192588420845248720e+02
1.188000000000000114e+02 3.187615654737448949e+02
1.192000000000000028e+02 3.182667386695303549e+02
1.196000000000000085e+02 3.177743412385545980e+02
1.200000000000000000e+02 3.172843529877181936e+02
1.204000000000000057e+02 3.167967539605060665e+02
1.208000000000000114e+02 3.163115244334122735e+02
1.212000000000000028e+02 3.158286449124315141e+02
1.216000000000000085e+02 3.153480961296141913e+02
1.220000000000000000e+02 3.148698590396857071e+02
1.224000000000000057e+02 3.143939148167272606e+02
1.228000000000000114e+02 3.139202448509169017e+02
1.232000000000000028e+02 3.134488307453307812e+02
1.236000000000000085e+02 3.129796543128009034e+02
1.240000000000000000e+02 3.125126975728312573e+02
1.244000000000000057e+02 3.120479427485678343e+02
1.248000000000000114e+02 3.115853722638245245e+02
1.252000000000000028e+02 3.111249687401609663e+02
1.256000000000000085e+02 3.106667149940133186e+02
1.260000000000000000e+02 3.102105940338751111e+02
1.264000000000000057e+02 3.097565890575291974e+02
1.268000000000000114e+02 3.093046834493272854e+02
1.272000000000000028e+02 3.088548607775181836e+02
1.276000000000000085e+02 3.084071047916226007e+02
1.280000000000000000e+02 3.079613994198535920e+02
1.284000000000000057e+02 3.075177287665821950e+02
1.288000000000000114e+02 3.070760771098471196e+02
1.291999999999999886e+02 3.066364288989075817e+02
1.296000000000000227e+02 3.061987687518373491e+02
1.300000000000000000e+02 3.057630814531619876e+02
1.304000000000000057e+02 3.053293519515349885e+02
1.308000000000000114e+02 3.048975653574542548e+02
1.311999999999999886e+02 3.044677069410175250e+02
1.316000000000000227e+02 3.040397621297155411e+02
1.320000000000000000e+02 3.036137165062630743e+02
1.324000000000000057e+02 3.031895558064663305e+02
1.328000000000000114e+02 3.027672659171257123e+02
1.331999999999999886e+02 3.023468328739744493e+02
1.336000000000000227e+02 3.019282428596513910e+02
1.340000000000000000e+02 3.015114822017076790e+02
1.344000000000000057e+02 3.010965373706460468e+02
1.348000000000000114e+02 3.006833949779934869e+02
1.351999999999999886e+02 3.002720417744047836e+02
1.356000000000000227e+02 2.998624646477979354e+02
1.360000000000000000e+02 2.994546506215197041e+02
1.364000000000000057e+02 2.990485868525415754e+02
1.368000000000000114e+02 2.986442606296848226e+02
1.371999999999999886e+02 2.982416593718744480e+02
1.376000000000000227e+02 2.978407706264217722e+02
1.380000000000000000e+02 2.974415820673343092e+02
1.384000000000000057e+02 2.970440814936532092e+02
1.388000000000000114e+02 2.966482568278170220e+02
1.392000000000000171e+02 2.962540961140521176e+02
1.395999999999999943e+02 2.958615875167890295e+02
1.400000000000000000e+02 2.954707193191026136e+02
1.404000000000000057e+02 2.950814799211786976e+02
1.408000000000000114e+02 2.946938578388043197e+02
1.412000000000000171e+02 2.943078417018809319e+02
1.415999999999999943e+02 2.939234202529627282e+02
1.420000000000000000e+02 2.935405823458163468e+02
1.424000000000000057e+02 2.931593169440039901e+02
1.428000000000000114e+02 2.927796131194881468e+02
1.432000000000000171e+02 2.924014600512584821e+02
1.435999999999999943e+02 2.920248470239795324e+02
1.440000000000000000e+02 2.916497634266601153e+02
1.444000000000000057e+02 2.912761987513415534e+02
1.448000000000000114e+02 2.909041425918085224e+02
1.452000000000000171e+02 2.905335846423176918e+02
1.455999999999999943e+02 2.901645146963462594e+02
1.460000000000000000e+02 2.897969226453602687e+02
1.464000000000000057e+02 2.894307984776005469e+02
1.468000000000000114e+02 2.890661322768886521e+02
1.472000000000000171e+02 2.887029142214486228e+02
1.475999999999999943e+02 2.883411345827485093e+02
1.480000000000000000e+02 2.879807837243585027e+02
1.484000000000000057e+02 2.876218521008257767e+02
1.488000000000000114e+02 2.872643302565670638e+02
1.492000000000000171e+02 2.869082088247770344e+02
1.495999999999999943e+02 2.865534785263530466e+02
1.500000000000000000e+02 2.862001301688361536e+02
