1.000000000000000000e+01 5.205626701047269762e+02
1.040000000000000036e+01 5.701806454098436916e+02
1.080000000000000071e+01 6.332677441938301399e+02
1.119999999999999929e+01 6.860717777367481176e+02
1.159999999999999964e+01 7.581879966311660155e+02
1.200000000000000000e+01 7.821015002940010845e+02
1.240000000000000036e+01 7.794595288092050396e+02
1.280000000000000071e+01 7.828221837048337193e+02
1.319999999999999929e+01 7.827399835429220047e+02
1.359999999999999964e+01 7.793137699834589966e+02
1.400000000000000000e+01 7.637621127621770256e+02
1.440000000000000036e+01 7.492015844502170694e+02
1.480000000000000071e+01 7.355268529021534505e+02
1.519999999999999929e+01 7.226480713121177359e+02
1.560000000000000142e+01 7.104879999695730248e+02
1.600000000000000000e+01 6.989797692050898377e+02
1.639999999999999858e+01 6.880651183140930698e+02
1.680000000000000071e+01 6.776929932441346409e+02
1.719999999999999929e+01 6.678184184048922134e+02
1.760000000000000142e+01 6.584015805111090458e+02
1.800000000000000000e+01 6.494070782614103337e+02
1.839999999999999858e+01 6.408033030371748282e+02
1.880000000000000071e+01 6.325619240750747849e+02
1.920000000000000284e+01 6.246574576551709015e+02
1.960000000000000142e+01 6.170669043832306215e+02
2.000000000000000000e+01 6.097694420642593514e+02
2.039999999999999858e+01 6.027461642662606209e+02
2.080000000000000071e+01 5.959798566726949502e+02
2.120000000000000284e+01 5.894548048720673705e+02
2.160000000000000142e+01 5.831566284444315897e+02
2.200000000000000000e+01 5.770721371585805173e+02
2.239999999999999858e+01 5.711892058503458429e+02
2.280000000000000071e+01 5.654966651566151086e+02
2.320000000000000284e+01 5.599842057651615050e+02
2.360000000000000142e+01 5.546422942327970986e+02
2.400000000000000000e+01 5.494620987433505661e+02
2.439999999999999858e+01 5.444354234376312434e+02
2.480000000000000071e+01 5.395546501616227033e+02
2.520000000000000284e+01 5.348126866558125130e+02
2.560000000000000142e+01 5.302029203550043803e+02
2.600000000000000000e+01 5.257191770898857612e+02
2.640000000000000213e+01 5.213556840835344701e+02
2.680000000000000071e+01 5.171070367215945680e+02
2.719999999999999929e+01 5.129681686468970838e+02
2.760000000000000142e+01 5.089343247902202165e+02
2.800000000000000000e+01 5.050010370005631444e+02
2.840000000000000213e+01 5.011641019822816361e+02
2.880000000000000071e+01 4.974195612839921523e+02
2.920000000000000284e+01 4.937636831163050601e+02
2.960000000000000142e+01 4.901929458030705291e+02
3.000000000000000000e+01 4.867040226946060102e+02
3.040000000000000213e+01 4.832937683919219580e+02
3.080000000000000071e+01 4.799592061487492742e+02
3.120000000000000284e+01 4.766975163336115315e+02
3.160000000000000142e+01 4.735060258476212880e+02
3.200000000000000000e+01 4.703821984053972756e+02
3.240000000000000568e+01 4.673236255967415218e+02
3.279999999999999716e+01 4.643280186556877425e+02
3.320000000000000284e+01 4.613932008714082258e+02
3.360000000000000142e+01 4.585171005823986548e+02
3.400000000000000000e+01 4.556977447014618292e+02
3.440000000000000568e+01 4.529332527244110906e+02
3.479999999999999716e+01 4.502218311801780146e+02
3.520000000000000284e+01 4.475617684842444532e+02
3.560000000000000142e+01 4.449514301610702205e+02
3.600000000000000000e+01 4.423892544045265822e+02
3.640000000000000568e+01 4.398737479483235688e+02
3.679999999999999716e+01 4.374034822210694529e+02
3.720000000000000284e+01 4.349770897629753108e+02
3.760000000000000142e+01 4.325932608833401218e+02
3.800000000000000000e+01 4.302507405398531546e+02
3.840000000000000568e+01 4.279483254224605844e+02
3.879999999999999716e+01 4.256848612260758955e+02
3.920000000000000284e+01 4.234592400977971920e+02
3.960000000000000142e+01 4.212703982455407754e+02
4.000000000000000000e+01 4.191173136961190266e+02
4.040000000000000568e+01 4.169990041918142651e+02
4.079999999999999716e+01 4.149145252154112313e+02
4.120000000000000284e+01 4.128629681344867777e+02
4.160000000000000142e+01 4.108434584565098930e+02
4.200000000000000000e+01 4.088551541869887842e+02
4.239999999999999858e+01 4.068972442835240599e+02
4.280000000000000426e+01 4.049689471991972596e+02
4.320000000000000284e+01 4.030695095092324323e+02
4.360000000000000142e+01 4.011982046153482315e+02
4.400000000000000000e+01 3.993543315226383470e+02
4.439999999999999858e+01 3.975372136842175337e+02
4.480000000000000426e+01 3.957461979092240654e+02
4.520000000000000284e+01 3.939806533301010631e+02
4.560000000000000142e+01 3.922399704253777486e+02
4.600000000000000000e+01 3.905235600944490670e+02
4.639999999999999858e+01 3.888308527811046815e+02
4.680000000000000426e+01 3.871612976427906574e+02
4.720000000000000284e+01 3.855143617628019683e+02
4.760000000000000142e+01 3.838895294027993828e+02
4.800000000000000000e+01 3.822863012932264155e+02
4.840000000000000568e+01 3.807041939593701727e+02
4.880000000000000426e+01 3.791427390809615758e+02
4.920000000000000284e+01 3.776014828833536967e+02
4.960000000000000142e+01 3.760799855584502893e+02
5.000000000000000000e+01 3.745778207136752371e+02
5.040000000000000568e+01 3.730945748473873209e+02
5.080000000000000426e+01 3.716298468492497591e+02
5.120000000000000284e+01 3.701832475241581619e+02
5.160000000000000142e+01 3.687543991384229116e+02
5.200000000000000000e+01 3.673429349869817315e+02
5.240000000000000568e+01 3.659484989804980160e+02
5.280000000000000426e+01 3.645707452512701821e+02
5.320000000000000284e+01 3.632093377769455174e+02
5.360000000000000142e+01 3.618639500210915685e+02
5.400000000000000000e+01 3.605342645897381999e+02
5.440000000000000568e+01 3.592199729030559183e+02
5.480000000000000426e+01 3.579207748813857393e+02
5.520000000000000284e+01 3.566363786448822566e+02
5.560000000000000142e+01 3.553665002260783012e+02
5.600000000000000000e+01 3.541108632947145907e+02
5.640000000000000568e+01 3.528691988942198350e+02
5.680000000000000426e+01 3.516412451892627473e+02
5.720000000000000284e+01 3.504267472238262258e+02
5.760000000000000142e+01 3.492254566892898993e+02
5.800000000000000000e+01 3.480371317020325250e+02
5.840000000000000568e+01 3.468615365900957386e+02
5.880000000000000426e+01 3.456984416884746452e+02
5.920000000000000284e+01 3.445476231426234222e+02
5.960000000000000142e+01 3.434088627197904202e+02
6.000000000000000000e+01 3.422819476278135085e+02
6.040000000000000568e+01 3.411666703410305104e+02
6.080000000000000426e+01 3.400628284329740154e+02
6.120000000000000284e+01 3.389702244155414519e+02
6.160000000000000142e+01 3.378886655843433573e+02
6.200000000000000000e+01 3.368179638699531324e+02
6.240000000000000568e+01 3.357579356947905467e+02
6.280000000000000426e+01 3.347084018353901911e+02
6.320000000000000284e+01 3.336691872898144879e+02
6.360000000000000142e+01 3.326401211499865553e+02
6.400000000000000000e+01 3.316210364787278309e+02
6.440000000000000568e+01 3.306117701912944540e+02
6.480000000000001137e+01 3.296121629412222660e+02
6.520000000000000284e+01 3.286220590102926735e+02
6.559999999999999432e+01 3.276413062024450937e+02
6.600000000000000000e+01 3.266697557414712492e+02
6.640000000000000568e+01 3.257072621723295924e+02
6.680000000000001137e+01 3.247536832659312722e+02
6.720000000000000284e+01 3.238088799272528604e+02
6.759999999999999432e+01 3.228727161066393592e+02
6.800000000000000000e+01 3.219450587141667484e+02
6.840000000000000568e+01 3.210257775369400974e+02
6.880000000000001137e+01 3.201147451592083826e+02
6.920000000000000284e+01 3.192118368851839136e+02
6.959999999999999432e+01 3.183169306644570042e+02
7.000000000000000000e+01 3.174299070199047605e+02
7.040000000000000568e+01 3.165506489779945696e+02
7.080000000000001137e+01 3.156790420013892344e+02
7.120000000000000284e+01 3.148149739237641711e+02
7.159999999999999432e+01 3.139583348867504355e+02
7.200000000000000000e+01 3.131090172789233748e+02
7.240000000000000568e+01 3.122669156767570371e+02
7.280000000000001137e+01 3.114319267874714683e+02
7.320000000000000284e+01 3.106039493936993949e+02
7.359999999999999432e+01 3.097828842999060157e+02
7.400000000000000000e+01 3.089686342804953938e+02
7.440000000000000568e+01 3.081611040295412067e+02
7.479999999999999716e+01 3.073602001120815430e+02
7.520000000000000284e+01 3.065658309169214135e+02
7.560000000000000853e+01 3.057779066108866459e+02
7.600000000000000000e+01 3.049963390944777188e+02
7.640000000000000568e+01 3.042210419588723198e+02
7.679999999999999716e+01 3.034519304442289922e+02
7.720000000000000284e+01 3.026889213992444070e+02
7.760000000000000853e+01 3.019319332419213424e+02
7.800000000000000000e+01 3.011808859215030907e+02
7.840000000000000568e+01 3.004357008815345011e+02
7.879999999999999716e+01 2.996963010240100971e+02
7.920000000000000284e+01 2.989626106745712946e+02
7.960000000000000853e+01 2.982345555487168554e+02
8.000000000000000000e+01 2.975120627189918423e+02
8.040000000000000568e+01 2.967950605831210851e+02
8.079999999999999716e+01 2.960834788330560627e+02
8.120000000000000284e+01 2.953772484249037120e+02
8.160000000000000853e+01 2.946763015497075457e+02
8.200000000000000000e+01 2.939805716050527735e+02
8.240000000000000568e+01 2.932899931674681966e+02
8.279999999999999716e+01 2.926045019655980468e+02
8.320000000000000284e+01 2.919240348541188723e+02
8.360000000000000853e+01 2.912485297883773683e+02
8.400000000000000000e+01 2.905779257997242553e+02
8.440000000000000568e+01 2.899121629715234576e+02
8.479999999999999716e+01 2.892511824158141280e+02
8.520000000000000284e+01 2.885949262506035780e+02
8.560000000000000853e+01 2.879433375777728088e+02
8.600000000000000000e+01 2.872963604615735562e+02
8.640000000000000568e+01 2.866539399076993959e+02
8.680000000000001137e+01 2.860160218429117549e+02
8.720000000000000284e+01 2.853825530952047416e+02
8.760000000000000853e+01 2.847534813744901498e+02
8.800000000000000000e+01 2.841287552537889383e+02
8.840000000000000568e+01 2.835083241509116192e+02
8.880000000000001137e+01 2.828921383106128360e+02
8.920000000000000284e+01 2.822801487872073380e+02
8.960000000000000853e+01 2.816723074276302441e+02
9.000000000000000000e+01 2.810685668549314187e+02
9.040000000000000568e+01 2.804688804521886709e+02
9.080000000000001137e+01 2.798732023468284069e+02
9.120000000000000284e+01 2.792814873953401502e+02
9.160000000000000853e+01 2.786936911683753806e+02
9.200000000000000000e+01 2.781097699362176172e+02
9.240000000000000568e+01 2.775296806546132302e+02
9.280000000000001137e+01 2.769533809509524644e+02
9.320000000000000284e+01 2.763808291107914101e+02
9.360000000000000853e+01 2.758119840647029832e+02
9.400000000000000000e+01 2.752468053754492985e+02
9.440000000000000568e+01 2.746852532254652601e+02
9.480000000000001137e+01 2.741272884046448439e+02
9.520000000000000284e+01 2.735728722984210322e+02
9.560000000000000853e+01 2.730219668761315006e+02
9.600000000000000000e+01 2.724745346796616445e+02
9.640000000000000568e+01 2.719305388123573266e+02
9.680000000000001137e+01 2.713899429282002416e+02
9.720000000000000284e+01 2.708527112212367456e+02
9.760000000000000853e+01 2.703188084152562851e+02
9.800000000000000000e+01 2.697881997537093639e+02
9.840000000000000568e+01 2.692608509898598754e+02
9.880000000000001137e+01 2.687367283771662301e+02
9.920000000000000284e+01 2.682157986598831485e+02
9.960000000000000853e+01 2.676980290638790052e+02
1.000000000000000000e+02 2.671833872876639475e+02
1.004000000000000057e+02 2.666718414936211730e+02
1.008000000000000114e+02 2.661633602994370449e+02
1.012000000000000028e+02 2.656579127697248168e+02
1.016000000000000085e+02 2.651554684078363380e+02
1.020000000000000000e+02 2.646559971478569651e+02
1.024000000000000057e+02 2.641594693467787920e+02
1.028000000000000114e+02 2.636658557768475930e+02
1.032000000000000028e+02 2.631751276180789318e+02
1.036000000000000085e+02 2.626872564509391736e+02
1.040000000000000000e+02 2.622022142491863406e+02
1.044000000000000057e+02 2.617199733728679121e+02
1.048000000000000114e+02 2.612405065614703972e+02
1.052000000000000028e+02 2.607637869272176658e+02
1.056000000000000085e+02 2.602897879485136059e+02
1.060000000000000000e+02 2.598184834635255243e+02
1.064000000000000057e+02 2.593498476639052228e+02
1.068000000000000114e+02 2.588838550886439975e+02
1.072000000000000028e+02 2.584204806180571836e+02
1.076000000000000085e+02 2.579596994678973942e+02
1.080000000000000000e+02 2.575014871835903705e+02
1.084000000000000057e+02 2.570458196345926467e+02
1.088000000000000114e+02 2.565926730088671661e+02
1.092000000000000028e+02 2.561420238074733220e+02
1.096000000000000085e+02 2.556938488392699753e+02
1.100000000000000000e+02 2.552481252157271854e+02
1.104000000000000057e+02 2.548048303458455734e+02
1.108000000000000114e+02 2.543639419311792267e+02
1.112000000000000028e+02 2.539254379609604939e+02
1.116000000000000085e+02 2.534892967073241721e+02
1.120000000000000000e+02 2.530554967206284402e+02
1.124000000000000057e+02 2.526240168248701821e+02
1.128000000000000114e+02 2.521948361131928493e+02
1.132000000000000028e+02 2.517679339434841950e+02
1.136000000000000085e+02 2.513432899340620565e+02
1.140000000000000000e+02 2.509208839594462290e+02
1.144000000000000057e+02 2.505006961462133859e+02
1.148000000000000114e+02 2.500827068689353609e+02
1.152000000000000028e+02 2.496668967461958459e+02
1.156000000000000085e+02 2.492532466366860149e+02
1.160000000000000000e+02 2.488417376353770578e+02
1.164000000000000057e+02 2.484323510697656445e+02
1.168000000000000114e+02 2.480250684961939669e+02
1.172000000000000028e+02 2.476198716962396418e+02
1.176000000000000085e+02 2.472167426731761282e+02
1.180000000000000000e+02 2.468156636485004469e+02
1.184000000000000057e+02 2.464166170585277769e+02
1.188000000000000114e+02 2.460195855510506817e+02
1.192000000000000028e+02 2.456245519820618313e+02
1.196000000000000085e+02 2.452314994125390513e+02
1.200000000000000000e+02 2.448404111052907410e+02
1.204000000000000057e+02 2.444512705218607209e+02
1.208000000000000114e+02 2.440640613194910316e+02
1.212000000000000028e+02 2.436787673481416618e+02
1.216000000000000085e+02 2.432953726475650171e+02
1.220000000000000000e+02 2.429138614444357245e+02
1.224000000000000057e+02 2.425342181495325633e+02
1.228000000000000114e+02 2.421564273549730046e+02
1.232000000000000028e+02 2.417804738314977158e+02
1.236000000000000085e+02 2.414063425258054281e+02
1.240000000000000000e+02 2.410340185579361787e+02
1.244000000000000057e+02 2.406634872187019880e+02
1.248000000000000114e+02 2.402947339671641771e+02
1.252000000000000028e+02 2.399277444281563874e+02
1.256000000000000085e+02 2.395625043898515969e+02
1.260000000000000000e+02 2.391989998013734748e+02
1.264000000000000057e+02 2.388372167704499418e+02
1.268000000000000114e+02 2.384771415611087377e+02
1.272000000000000028e+02 2.381187605914136043e+02
1.276000000000000085e+02 2.377620604312414798e+02
1.280000000000000000e+02 2.374070278000970688e+02
1.284000000000000057e+02 2.370536495649679978e+02
1.288000000000000114e+02 2.367019127382159809e+02
1.291999999999999886e+02 2.363518044755054746e+02
1.296000000000000227e+02 2.360033120737682282e+02
1.300000000000000000e+02 2.356564229692034473e+02
1.304000000000000057e+02 2.353111247353120348e+02
1.308000000000000114e+02 2.349674050809651646e+02
1.311999999999999886e+02 2.346252518485061671e+02
1.316000000000000227e+02 2.342846530118840178e+02
1.320000000000000000e+02 2.339455966748202513e+02
1.324000000000000057e+02 2.336080710690057742e+02
1.328000000000000114e+02 2.332720645523286009e+02
1.331999999999999886e+02 2.329375656071322567e+02
1.336000000000000227e+02 2.326045628385022610e+02
1.340000000000000000e+02 2.322730449725831363e+02
1.344000000000000057e+02 2.319430008549221895e+02
1.348000000000000114e+02 2.316144194488413177e+02
1.351999999999999886e+02 2.312872898338364962e+02
1.356000000000000227e+02 2.309616012040033297e+02
1.360000000000000000e+02 2.306373428664888081e+02
1.364000000000000057e+02 2.303145042399687554e+02
1.368000000000000114e+02 2.299930748531501195e+02
1.371999999999999886e+02 2.296730443432978745e+02
1.376000000000000227e+02 2.293544024547863387e+02
1.380000000000000000e+02 2.290371390376737963e+02
1.384000000000000057e+02 2.287212440463002281e+02
1.388000000000000114e+02 2.284067075379081757e+02
1.392000000000000171e+02 2.280935196712855486e+02
1.395999999999999943e+02 2.277816707054305425e+02
1.400000000000000000e+02 2.274711509982377038e+02
1.404000000000000057e+02 2.271619510052053670e+02
1.408000000000000114e+02 2.268540612781636696e+02
1.412000000000000171e+02 2.265474724640227748e+02
1.415999999999999943e+02 2.262421753035408187e+02
1.420000000000000000e+02 2.259381606301116676e+02
1.424000000000000057e+02 2.256354193685716609e+02
1.428000000000000114e+02 2.253339425340250841e+02
1.432000000000000171e+02 2.250337212306883998e+02
1.435999999999999943e+02 2.247347466507519016e+02
1.440000000000000000e+02 2.244370100732600122e+02
1.444000000000000057e+02 2.241405028630081233e+02
1.448000000000000114e+02 2.238452164694574265e+02
1.452000000000000171e+02 2.235511424256657165e+02
1.455999999999999943e+02 2.232582723472353052e+02
1.460000000000000000e+02 2.229665979312768513e+02
1.464000000000000057e+02 2.226761109553889071e+02
1.468000000000000114e+02 2.223868032766537510e+02
1.472000000000000171e+02 2.220986668306476304e+02
1.475999999999999943e+02 2.218116936304667774e+02
1.480000000000000000e+02 2.215258757657679780e+02
1.484000000000000057e+02 2.212412054018233221e+02
1.488000000000000114e+02 2.209576747785899329e+02
1.492000000000000171e+02 2.206752762097929974e+02
1.495999999999999943e+02 2.203940020820229222e+02
1.500000000000000000e+02 2.201138448538457624e+02
