1.000000000000000000e+01 6.871240830468768479e+01
1.040000000000000036e+01 6.608831542834273876e+01
1.080000000000000071e+01 8.941515324512495511e+01
1.119999999999999929e+01 8.851614220193735605e+01
1.159999999999999964e+01 8.598052986648050933e+01
1.200000000000000000e+01 8.366101984131788072e+01
1.240000000000000036e+01 8.152728819812929828e+01
1.280000000000000071e+01 7.955482649959677133e+01
1.319999999999999929e+01 7.772355043999198188e+01
1.359999999999999964e+01 7.603576954851018854e+01
1.400000000000000000e+01 7.459862661088376967e+01
1.440000000000000036e+01 7.324528467454696568e+01
1.480000000000000071e+01 7.196353623919985409e+01
1.519999999999999929e+01 7.074711868255806735e+01
1.560000000000000142e+01 6.959052451586737220e+01
1.600000000000000000e+01 6.848888637760390452e+01
1.639999999999999858e+01 6.743788302826007452e+01
1.680000000000000071e+01 6.595328832472388569e+01
1.719999999999999929e+01 6.500719056959087538e+01
1.760000000000000142e+01 6.410043815604034023e+01
1.800000000000000000e+01 6.323031784579603709e+01
1.839999999999999858e+01 6.239437494756786862e+01
1.880000000000000071e+01 6.019463786350977585e+01
1.920000000000000284e+01 5.945736917399676713e+01
1.960000000000000142e+01 5.874694996713974149e+01
2.000000000000000000e+01 5.805581083141105125e+01
2.039999999999999858e+01 5.737752336835636413e+01
2.080000000000000071e+01 5.672289801898968165e+01
2.120000000000000284e+01 5.609055786411084910e+01
2.160000000000000142e+01 5.547923733618743825e+01
2.200000000000000000e+01 5.488777075569122132e+01
2.239999999999999858e+01 5.431508229372285257e+01
2.280000000000000071e+01 5.376017715376492134e+01
2.320000000000000284e+01 5.322213379966657953e+01
2.360000000000000142e+01 5.270009708489426004e+01
2.400000000000000000e+01 5.218939549264442945e+01
2.439999999999999858e+01 5.191914425517038723e+01
2.480000000000000071e+01 5.140240114517257553e+01
2.520000000000000284e+01 5.090041157888151702e+01
2.560000000000000142e+01 5.041247377447091793e+01
2.600000000000000000e+01 4.993793219367574210e+01
2.640000000000000213e+01 4.947617367477826633e+01
2.680000000000000071e+01 4.902662395536305695e+01
2.719999999999999929e+01 4.858874453907170476e+01
2.760000000000000142e+01 4.816202986669939889e+01
2.800000000000000000e+01 4.774600475717682002e+01
2.840000000000000213e+01 4.734097868664873943e+01
2.880000000000000071e+01 4.695392014518111523e+01
2.920000000000000284e+01 4.657587145442471410e+01
2.960000000000000142e+01 4.620648213814300220e+01
3.000000000000000000e+01 4.584542065031296687e+01
3.040000000000000213e+01 4.549237307473336500e+01
3.080000000000000071e+01 4.514704193254549836e+01
3.120000000000000284e+01 4.480914508720879041e+01
3.160000000000000142e+01 4.447841473762896669e+01
3.200000000000000000e+01 4.452450482457752656e+01
3.240000000000000568e+01 4.422822522947583934e+01
3.279999999999999716e+01 4.393777679961314675e+01
3.320000000000000284e+01 4.365296787377830157e+01
3.360000000000000142e+01 4.325033493660790640e+01
3.400000000000000000e+01 4.300322208502944221e+01
3.440000000000000568e+01 4.276944470167683932e+01
3.479999999999999716e+01 4.253986969907913362e+01
3.520000000000000284e+01 4.231436715640216306e+01
3.560000000000000142e+01 4.209281281176644995e+01
3.600000000000000000e+01 4.187508774599327666e+01
3.640000000000000568e+01 4.166107808783381472e+01
3.679999999999999716e+01 4.145067473896870069e+01
3.720000000000000284e+01 4.124377311722198414e+01
3.760000000000000142e+01 4.104027291657353516e+01
3.800000000000000000e+01 4.084007788267978611e+01
3.840000000000000568e+01 4.064126469820175203e+01
3.879999999999999716e+01 4.044499802349122319e+01
3.920000000000000284e+01 4.025183532366938266e+01
3.960000000000000142e+01 4.006111790170164255e+01
4.000000000000000000e+01 3.987030577189081981e+01
4.040000000000000568e+01 3.968242413793596768e+01
4.079999999999999716e+01 3.949739548633597508e+01
4.120000000000000284e+01 3.931514519656677464e+01
4.160000000000000142e+01 3.913560140235264839e+01
4.200000000000000000e+01 3.895869486103419632e+01
4.239999999999999858e+01 3.878435883047730215e+01
4.280000000000000426e+01 3.861252895301214494e+01
4.320000000000000284e+01 3.844314314593020754e+01
4.360000000000000142e+01 3.827614149810386834e+01
4.400000000000000000e+01 3.814598180123313398e+01
4.439999999999999858e+01 3.798490754340711106e+01
4.480000000000000426e+01 3.782601917485987997e+01
4.520000000000000284e+01 3.766926550171432808e+01
4.560000000000000142e+01 3.751459702419248998e+01
4.600000000000000000e+01 3.736196586452183510e+01
4.639999999999999858e+01 3.721132569857758909e+01
4.680000000000000426e+01 3.706263169103366550e+01
4.720000000000000284e+01 3.691584043381058677e+01
4.760000000000000142e+01 3.677090988762311241e+01
4.800000000000000000e+01 3.662779932644434666e+01
4.840000000000000568e+01 3.648646928471514883e+01
4.880000000000000426e+01 3.634688150713910204e+01
4.920000000000000284e+01 3.620899890091435935e+01
4.960000000000000142e+01 3.611640359449199167e+01
5.000000000000000000e+01 3.598583790797155046e+01
5.040000000000000568e+01 3.585684960576049463e+01
5.080000000000000426e+01 3.572937467770270814e+01
5.120000000000000284e+01 3.560338244765242166e+01
5.160000000000000142e+01 3.547884312076893565e+01
5.200000000000000000e+01 3.535572775085329766e+01
5.240000000000000568e+01 3.523400820916362619e+01
5.280000000000000426e+01 3.511365715463010417e+01
5.320000000000000284e+01 3.499464800539572451e+01
5.360000000000000142e+01 3.487695491161301931e+01
5.400000000000000000e+01 3.476055272943168006e+01
5.440000000000000568e+01 3.464541699611550030e+01
5.480000000000000426e+01 3.453152390623073842e+01
5.520000000000000284e+01 3.441885028885171494e+01
5.560000000000000142e+01 3.430737358573230011e+01
5.600000000000000000e+01 3.419707183039498233e+01
5.640000000000000568e+01 3.407979806591768579e+01
5.680000000000000426e+01 3.397195208912710740e+01
5.720000000000000284e+01 3.386521724050511750e+01
5.760000000000000142e+01 3.375957374097637143e+01
5.800000000000000000e+01 3.365500231081102811e+01
5.840000000000000568e+01 3.355148415335255407e+01
5.880000000000000426e+01 3.344900093939348551e+01
5.920000000000000284e+01 3.334730039879717367e+01
5.960000000000000142e+01 3.324571573021436421e+01
6.000000000000000000e+01 3.314512456477488200e+01
6.040000000000000568e+01 3.151068064493089338e+01
6.080000000000000426e+01 3.140398762486918827e+01
6.120000000000000284e+01 3.129835740943705957e+01
6.160000000000000142e+01 3.119377216494892480e+01
6.200000000000000000e+01 3.109021447691142370e+01
6.240000000000000568e+01 3.098766733738802870e+01
6.280000000000000426e+01 3.088609974848226614e+01
6.320000000000000284e+01 3.078525820352777487e+01
6.360000000000000142e+01 3.068538184255504930e+01
6.400000000000000000e+01 3.058645509669792517e+01
6.440000000000000568e+01 3.048846274896847319e+01
6.480000000000001137e+01 3.039138992405650797e+01
6.520000000000000284e+01 3.029522207848918214e+01
6.559999999999999432e+01 3.019994499113563791e+01
6.600000000000000000e+01 3.010554475404263997e+01
6.640000000000000568e+01 3.001200776358745514e+01
6.680000000000001137e+01 2.991932071193510367e+01
6.720000000000000284e+01 2.982747057878769681e+01
6.759999999999999432e+01 2.973644462341408001e+01
6.800000000000000000e+01 2.964623037694850893e+01
6.840000000000000568e+01 2.955681563494781727e+01
6.880000000000001137e+01 2.946818845019672040e+01
6.920000000000000284e+01 2.938033712575157708e+01
6.959999999999999432e+01 2.929325020821330838e+01
7.000000000000000000e+01 2.920691648122055994e+01
7.040000000000000568e+01 2.912965561286423366e+01
7.080000000000001137e+01 2.904477023370932542e+01
7.120000000000000284e+01 2.897436302744997150e+01
7.159999999999999432e+01 2.889241736082848178e+01
7.200000000000000000e+01 2.881115868588682360e+01
7.240000000000000568e+01 2.873057727657267435e+01
7.280000000000001137e+01 2.865066360011015689e+01
7.320000000000000284e+01 2.857140831206635312e+01
7.359999999999999432e+01 2.849280225157124846e+01
7.400000000000000000e+01 2.841483643668564341e+01
7.440000000000000568e+01 2.833750205991167803e+01
7.479999999999999716e+01 2.826079048384058012e+01
7.520000000000000284e+01 2.818469323693287976e+01
7.560000000000000853e+01 2.810920200942633329e+01
7.600000000000000000e+01 2.803430864936687783e+01
7.640000000000000568e+01 2.796000515875839909e+01
7.679999999999999716e+01 2.788628368982699612e+01
7.720000000000000284e+01 2.781313654139584202e+01
7.760000000000000853e+01 2.774057683032948063e+01
7.800000000000000000e+01 2.766873934330157425e+01
7.840000000000000568e+01 2.759745143556901681e+01
7.879999999999999716e+01 2.752670600692567149e+01
7.920000000000000284e+01 2.745649608597044988e+01
7.960000000000000853e+01 2.738681482710462234e+01
8.000000000000000000e+01 2.731765550761456751e+01
8.040000000000000568e+01 2.724901152483694844e+01
8.079999999999999716e+01 2.718087639340377137e+01
8.120000000000000284e+01 2.711324374256443193e+01
8.160000000000000853e+01 2.704610731358251030e+01
8.200000000000000000e+01 2.697946095720451609e+01
8.240000000000000568e+01 2.691329863119853627e+01
8.279999999999999716e+01 2.684724813478786132e+01
8.320000000000000284e+01 2.678156102606586941e+01
8.360000000000000853e+01 2.671634524721038417e+01
8.400000000000000000e+01 2.665159508993003712e+01
8.440000000000000568e+01 2.658730494300793268e+01
8.479999999999999716e+01 2.652346929018018074e+01
8.520000000000000284e+01 2.646008270807099194e+01
8.560000000000000853e+01 2.639713986418252389e+01
8.600000000000000000e+01 2.632922150119904359e+01
8.640000000000000568e+01 2.626711556048137197e+01
8.680000000000001137e+01 2.620543918999636190e+01
8.720000000000000284e+01 2.614336124283888907e+01
8.760000000000000853e+01 2.608102947811959282e+01
8.800000000000000000e+01 2.601912592527152768e+01
8.840000000000000568e+01 2.595764562814938969e+01
8.880000000000001137e+01 2.589658371117120694e+01
8.920000000000000284e+01 2.583593537763464099e+01
8.960000000000000853e+01 2.577569590807627620e+01
9.000000000000000000e+01 2.571586065867250426e+01
9.040000000000000568e+01 2.565642505968088471e+01
9.080000000000001137e+01 2.559738461392054987e+01
9.120000000000000284e+01 2.553873489529083685e+01
9.160000000000000853e+01 2.548047154732664055e+01
9.200000000000000000e+01 2.542259028178971647e+01
9.240000000000000568e+01 2.536508687729470424e+01
9.280000000000001137e+01 2.530795717796895161e+01
9.320000000000000284e+01 2.525119709214508035e+01
9.360000000000000853e+01 2.519480259108543407e+01
9.400000000000000000e+01 2.513873297636861892e+01
9.440000000000000568e+01 2.508295955857581561e+01
9.480000000000001137e+01 2.502754034429466401e+01
9.520000000000000284e+01 2.497247154286570847e+01
9.560000000000000853e+01 2.491774942061817555e+01
9.600000000000000000e+01 2.486337029976815316e+01
9.640000000000000568e+01 2.481243794198547192e+01
9.680000000000001137e+01 2.475945349927379979e+01
9.720000000000000284e+01 2.470679553214434421e+01
9.760000000000000853e+01 2.465446064792110192e+01
9.800000000000000000e+01 2.460244550348340198e+01
9.840000000000000568e+01 2.455074680433450851e+01
9.880000000000001137e+01 2.449936130369157539e+01
9.920000000000000284e+01 2.444828580159652631e+01
9.960000000000000853e+01 2.439751714404699712e+01
1.000000000000000000e+02 2.434705222214709863e+01
1.004000000000000057e+02 2.429688797127729671e+01
1.008000000000000114e+02 2.424702137028293691e+01
1.012000000000000028e+02 2.419744944068102299e+01
1.016000000000000085e+02 2.414816924588447833e+01
1.020000000000000000e+02 2.409917789044389735e+01
1.024000000000000057e+02 2.405047251930583130e+01
1.028000000000000114e+02 2.400440319448338755e+01
1.032000000000000028e+02 2.395633871946355242e+01
1.036000000000000085e+02 2.390855195807218081e+01
1.040000000000000000e+02 2.386104020387369218e+01
1.044000000000000057e+02 2.381380078751411844e+01
1.048000000000000114e+02 2.376683107606725542e+01
1.052000000000000028e+02 2.372012847239481204e+01
1.056000000000000085e+02 2.367369041452035461e+01
1.060000000000000000e+02 2.362751437501654550e+01
1.064000000000000057e+02 2.358159786040552675e+01
1.068000000000000114e+02 2.353593841057191582e+01
1.072000000000000028e+02 2.349053359818823949e+01
1.076000000000000085e+02 2.344538102815251079e+01
1.080000000000000000e+02 2.340047833703750868e+01
1.084000000000000057e+02 2.335582319255154715e+01
1.088000000000000114e+02 2.331141329301056686e+01
1.092000000000000028e+02 2.326724636682103409e+01
1.096000000000000085e+02 2.322332017197359022e+01
1.100000000000000000e+02 2.317935695641567051e+01
1.104000000000000057e+02 2.313560965784470369e+01
1.108000000000000114e+02 2.309209843856827860e+01
1.112000000000000028e+02 2.304882114993634090e+01
1.116000000000000085e+02 2.300577567079151109e+01
1.120000000000000000e+02 2.296296581379700896e+01
1.124000000000000057e+02 2.292038472611407940e+01
1.128000000000000114e+02 2.287802901664257504e+01
1.132000000000000028e+02 2.283589667434002024e+01
1.136000000000000085e+02 2.279398571338902002e+01
1.140000000000000000e+02 2.275229417279000899e+01
1.144000000000000057e+02 2.271082011596201866e+01
1.148000000000000114e+02 2.266956163035131055e+01
1.152000000000000028e+02 2.262851682704761913e+01
1.156000000000000085e+02 2.258768384040796917e+01
1.160000000000000000e+02 2.254706082768774777e+01
1.164000000000000057e+02 2.250664596867887468e+01
1.168000000000000114e+02 2.246643746535509578e+01
1.172000000000000028e+02 2.242643354152396640e+01
1.176000000000000085e+02 2.238663244248556694e+01
1.180000000000000000e+02 2.234703243469771650e+01
1.184000000000000057e+02 2.230763180544759905e+01
1.188000000000000114e+02 2.226842886252954301e+01
1.192000000000000028e+02 2.222942193392895760e+01
1.196000000000000085e+02 2.219060936751217383e+01
1.200000000000000000e+02 2.215198953072215460e+01
1.204000000000000057e+02 2.211356081027984288e+01
1.208000000000000114e+02 2.207532161189111974e+01
1.212000000000000028e+02 2.203727035995918726e+01
1.216000000000000085e+02 2.199654353449604827e+01
1.220000000000000000e+02 2.201400231367396998e+01
1.224000000000000057e+02 2.197799197102048296e+01
1.228000000000000114e+02 2.194215367223402069e+01
1.232000000000000028e+02 2.190648602574520964e+01
1.236000000000000085e+02 2.187098765582546633e+01
1.240000000000000000e+02 2.183565720235481322e+01
1.244000000000000057e+02 2.180049332059382650e+01
1.248000000000000114e+02 2.176549468095963391e+01
1.252000000000000028e+02 2.173517957296819247e+01
1.256000000000000085e+02 2.170090937111444163e+01
1.260000000000000000e+02 2.166679842508386855e+01
1.264000000000000057e+02 2.163284548203500535e+01
1.268000000000000114e+02 2.159904930300236003e+01
1.272000000000000028e+02 2.156540866269839540e+01
1.276000000000000085e+02 2.153192234931900728e+01
1.280000000000000000e+02 2.149858916435238143e+01
1.284000000000000057e+02 2.146540792239116513e+01
1.288000000000000114e+02 2.143237745094786106e+01
1.291999999999999886e+02 2.139949659027343998e+01
1.296000000000000227e+02 2.136676419317902287e+01
1.300000000000000000e+02 2.133417912486066825e+01
1.304000000000000057e+02 2.130174026272708687e+01
1.308000000000000114e+02 2.126944649623031935e+01
1.311999999999999886e+02 2.123723443004973888e+01
1.316000000000000227e+02 2.120511917489673337e+01
1.320000000000000000e+02 2.117314637455162440e+01
1.324000000000000057e+02 2.114131495912216252e+01
1.328000000000000114e+02 2.110962387003040419e+01
1.331999999999999886e+02 2.107807205985854182e+01
1.336000000000000227e+02 2.104665849219733786e+01
1.340000000000000000e+02 2.101538214149701389e+01
1.344000000000000057e+02 2.098424199292064429e+01
1.348000000000000114e+02 2.095323704219999783e+01
1.351999999999999886e+02 2.092236629549369553e+01
1.356000000000000227e+02 2.089162876924772405e+01
1.360000000000000000e+02 2.086102349005824408e+01
1.364000000000000057e+02 2.083054949453660498e+01
1.368000000000000114e+02 2.080020582917656924e+01
1.371999999999999886e+02 2.076999155022372179e+01
1.376000000000000227e+02 2.073990572354692219e+01
1.380000000000000000e+02 2.070994742451188131e+01
1.384000000000000057e+02 2.068011573785676660e+01
1.388000000000000114e+02 2.065040975756973296e+01
1.392000000000000171e+02 2.062082858676855679e+01
1.395999999999999943e+02 2.059137133758200378e+01
1.400000000000000000e+02 2.056203713103320396e+01
1.404000000000000057e+02 2.053282509692486713e+01
1.408000000000000114e+02 2.050359931524164381e+01
1.412000000000000171e+02 2.047448936153188725e+01
1.415999999999999943e+02 2.044783438512693508e+01
1.420000000000000000e+02 2.041907216416967685e+01
1.424000000000000057e+02 2.039042796728888263e+01
1.428000000000000114e+02 2.036190097438328195e+01
1.432000000000000171e+02 2.033349037337558229e+01
1.435999999999999943e+02 2.030519536011137305e+01
1.440000000000000000e+02 2.027701513825949320e+01
1.444000000000000057e+02 2.024894891921401552e+01
1.448000000000000114e+02 2.022099592199765539e+01
1.452000000000000171e+02 2.019315537316671438e+01
1.455999999999999943e+02 2.016542650671743786e+01
1.460000000000000000e+02 2.013780856399382202e+01
1.464000000000000057e+02 2.011030079359680300e+01
1.468000000000000114e+02 2.008290245129479246e+01
1.472000000000000171e+02 2.005561279993561641e+01
1.475999999999999943e+02 2.002843110935973314e+01
1.480000000000000000e+02 2.000135665631479043e+01
1.484000000000000057e+02 1.997438872437139423e+01
1.488000000000000114e+02 1.994752660384023102e+01
1.492000000000000171e+02 1.992076959169029848e+01
1.495999999999999943e+02 1.989411699146847923e+01
1.500000000000000000e+02 1.986756811322020866e+01
