1.000000000000000000e+01 1.683317253915913625e+02
1.040000000000000036e+01 1.840039165328728359e+02
1.080000000000000071e+01 2.007997737331341455e+02
1.119999999999999929e+01 2.106586427778713642e+02
1.159999999999999964e+01 2.037032847142705236e+02
1.200000000000000000e+01 1.975867822363111088e+02
1.240000000000000036e+01 1.889720006001104764e+02
1.280000000000000071e+01 1.836864922708927566e+02
1.319999999999999929e+01 1.788219555185340255e+02
1.359999999999999964e+01 1.743933514558218292e+02
1.400000000000000000e+01 1.704119109250524957e+02
1.440000000000000036e+01 1.667285526676460563e+02
1.480000000000000071e+01 1.633061081361862250e+02
1.519999999999999929e+01 1.601138150566887361e+02
1.560000000000000142e+01 1.571259287929152322e+02
1.600000000000000000e+01 1.543206912310070891e+02
1.639999999999999858e+01 1.516795518945717731e+02
1.680000000000000071e+01 1.491865705518846710e+02
1.719999999999999929e+01 1.468279527318078124e+02
1.760000000000000142e+01 1.310396937317762251e+02
1.800000000000000000e+01 1.320813872868800161e+02
1.839999999999999858e+01 1.301201182497080140e+02
1.880000000000000071e+01 1.268486777557616136e+02
1.920000000000000284e+01 1.250890274976413821e+02
1.960000000000000142e+01 1.234017275763663974e+02
2.000000000000000000e+01 1.217817454178626804e+02
2.039999999999999858e+01 1.202245400900165180e+02
2.080000000000000071e+01 1.187260007817139638e+02
2.120000000000000284e+01 1.172823946115197487e+02
2.160000000000000142e+01 1.158903221137802291e+02
2.200000000000000000e+01 1.145466790826628340e+02
2.239999999999999858e+01 1.132486237126791622e+02
2.280000000000000071e+01 1.119935481759840172e+02
2.320000000000000284e+01 1.107790539356890491e+02
2.360000000000000142e+01 1.096600655708300849e+02
2.400000000000000000e+01 1.085859794172340855e+02
2.439999999999999858e+01 1.073943458547478969e+02
2.480000000000000071e+01 1.062134619037442036e+02
2.520000000000000284e+01 1.050687787638479875e+02
2.560000000000000142e+01 1.034102152401325014e+02
2.600000000000000000e+01 1.023438863959467682e+02
2.640000000000000213e+01 1.013084514924112369e+02
2.680000000000000071e+01 1.003024178066833798e+02
2.719999999999999929e+01 9.932439289122851278e+01
2.760000000000000142e+01 9.837307600180153599e+01
2.800000000000000000e+01 9.744725041044499392e+01
2.840000000000000213e+01 9.654577649689558427e+01
2.880000000000000071e+01 9.566758552640965263e+01
2.920000000000000284e+01 9.481167403439781083e+01
2.960000000000000142e+01 9.295020981495214585e+01
3.000000000000000000e+01 9.211302237549985250e+01
3.040000000000000213e+01 9.129614677138854972e+01
3.080000000000000071e+01 9.049876535176372272e+01
3.120000000000000284e+01 8.972010621012054798e+01
3.160000000000000142e+01 8.895943992213182128e+01
3.200000000000000000e+01 8.858598489853910962e+01
3.240000000000000568e+01 8.788013971114008882e+01
3.279999999999999716e+01 8.718616237579649919e+01
3.320000000000000284e+01 8.650096834843600391e+01
3.360000000000000142e+01 8.583038095207285778e+01
3.400000000000000000e+01 8.517388414991391699e+01
3.440000000000000568e+01 8.453098726805313845e+01
3.479999999999999716e+01 8.390122340419007685e+01
3.520000000000000284e+01 8.328414795741606724e+01
3.560000000000000142e+01 8.267933726827509133e+01
3.600000000000000000e+01 8.207948926674137624e+01
3.640000000000000568e+01 8.148959984348844898e+01
3.679999999999999716e+01 8.281651421899154286e+01
3.720000000000000284e+01 8.232692244970303364e+01
3.760000000000000142e+01 8.184575618828908716e+01
3.800000000000000000e+01 8.137277163134253044e+01
3.840000000000000568e+01 8.090773486755919919e+01
3.879999999999999716e+01 8.045042136293483281e+01
3.920000000000000284e+01 8.000061547854690502e+01
3.960000000000000142e+01 7.955753574546636742e+01
4.000000000000000000e+01 7.911852418726883229e+01
4.040000000000000568e+01 7.868649255935656583e+01
4.079999999999999716e+01 7.826125421813131311e+01
4.120000000000000284e+01 7.784262952041143535e+01
4.160000000000000142e+01 7.743044548646321346e+01
4.200000000000000000e+01 7.702453548277398454e+01
4.239999999999999858e+01 7.662473892320863911e+01
4.280000000000000426e+01 7.640593023040607079e+01
4.320000000000000284e+01 7.603618920445782692e+01
4.360000000000000142e+01 7.567173671450136396e+01
4.400000000000000000e+01 7.531244536338846274e+01
4.439999999999999858e+01 7.495819206258110512e+01
4.480000000000000426e+01 7.460885784493132178e+01
4.520000000000000284e+01 7.426432768737679169e+01
4.560000000000000142e+01 7.392449034293309751e+01
4.600000000000000000e+01 7.358923818140927153e+01
4.639999999999999858e+01 7.325846703831362561e+01
4.680000000000000426e+01 7.293207607145409099e+01
4.720000000000000284e+01 7.260996762477184063e+01
4.760000000000000142e+01 7.229204709897840075e+01
4.800000000000000000e+01 7.197822282859692677e+01
4.840000000000000568e+01 7.166840596503315908e+01
4.880000000000000426e+01 7.136251036532900116e+01
4.920000000000000284e+01 7.105899816030868976e+01
4.960000000000000142e+01 7.078809569124162238e+01
5.000000000000000000e+01 7.047706098704900057e+01
5.040000000000000568e+01 7.016882474434245864e+01
5.080000000000000426e+01 6.986446251961908160e+01
5.120000000000000284e+01 6.956389289308600610e+01
5.160000000000000142e+01 6.926703683982286464e+01
5.200000000000000000e+01 6.897381763937326582e+01
5.240000000000000568e+01 6.868416078949678649e+01
5.280000000000000426e+01 6.839754981086788632e+01
5.320000000000000284e+01 6.811415288186643124e+01
5.360000000000000142e+01 6.783411069406885474e+01
5.400000000000000000e+01 6.755735685692340553e+01
5.440000000000000568e+01 6.728382681908010454e+01
5.480000000000000426e+01 6.701345780297977228e+01
5.520000000000000284e+01 6.674618874227991228e+01
5.560000000000000142e+01 6.648196022197242883e+01
5.600000000000000000e+01 6.622071442105693961e+01
5.640000000000000568e+01 6.596239505764077649e+01
5.680000000000000426e+01 6.570694733634486795e+01
5.720000000000000284e+01 6.545431789790130495e+01
5.760000000000000142e+01 6.520445477083495689e+01
5.800000000000000000e+01 6.495730732512754457e+01
5.840000000000000568e+01 6.482546060146050593e+01
5.880000000000000426e+01 6.458693805924330889e+01
5.920000000000000284e+01 6.435070738412861147e+01
5.960000000000000142e+01 6.411607435832402757e+01
6.000000000000000000e+01 6.388388988848564765e+01
6.040000000000000568e+01 6.365411115021600352e+01
6.080000000000000426e+01 6.342669636842826719e+01
6.120000000000000284e+01 6.320160478434678453e+01
6.160000000000000142e+01 6.297879662377228271e+01
6.200000000000000000e+01 6.275823306655439637e+01
6.240000000000000568e+01 6.253987621721789480e+01
6.280000000000000426e+01 6.232368907669082603e+01
6.320000000000000284e+01 6.210963551508621094e+01
6.360000000000000142e+01 6.189768024549085368e+01
6.400000000000000000e+01 6.168778879871751997e+01
6.440000000000000568e+01 6.145691543850178107e+01
6.480000000000001137e+01 6.125327136082317026e+01
6.520000000000000284e+01 6.105156561227028078e+01
6.559999999999999432e+01 6.085176724338170828e+01
6.600000000000000000e+01 6.065384599732683313e+01
6.640000000000000568e+01 6.045777229000335495e+01
6.680000000000001137e+01 6.026372158425295567e+01
6.720000000000000284e+01 6.007169886895026423e+01
6.759999999999999432e+01 6.039745695668561609e+01
6.800000000000000000e+01 6.021563374882219222e+01
6.840000000000000568e+01 6.003543585305774855e+01
6.880000000000001137e+01 5.985683871118207122e+01
6.920000000000000284e+01 5.967981828823133839e+01
6.959999999999999432e+01 5.950435105809792447e+01
7.000000000000000000e+01 5.933041398962488699e+01
7.040000000000000568e+01 5.915798453316568839e+01
7.080000000000001137e+01 5.898704060759091305e+01
7.120000000000000284e+01 5.883131653452573318e+01
7.159999999999999432e+01 5.866478486421517857e+01
7.200000000000000000e+01 5.849966045566472417e+01
7.240000000000000568e+01 5.833592320725988145e+01
7.280000000000001137e+01 5.817355342234740334e+01
7.320000000000000284e+01 5.801253179870181498e+01
7.359999999999999432e+01 5.785283941832744148e+01
7.400000000000000000e+01 5.769445773758342710e+01
7.440000000000000568e+01 5.753736857761986556e+01
7.479999999999999716e+01 5.738155411511276327e+01
7.520000000000000284e+01 5.722699687328778850e+01
7.560000000000000853e+01 5.707367971322119615e+01
7.600000000000000000e+01 5.692158582540847078e+01
7.640000000000000568e+01 5.675311522077233661e+01
7.679999999999999716e+01 5.660233360060435359e+01
7.720000000000000284e+01 5.645273601699835808e+01
7.760000000000000853e+01 5.630430677640997317e+01
7.800000000000000000e+01 5.615703047836708350e+01
7.840000000000000568e+01 5.601089200840682736e+01
7.879999999999999716e+01 5.586587653122116137e+01
7.920000000000000284e+01 5.572196948400348049e+01
7.960000000000000853e+01 5.557915656998967080e+01
8.000000000000000000e+01 5.543742375218641172e+01
8.040000000000000568e+01 5.529675724728072339e+01
8.079999999999999716e+01 5.515714351972434315e+01
8.120000000000000284e+01 5.501856927598704772e+01
8.160000000000000853e+01 5.488102145897316575e+01
8.200000000000000000e+01 5.474448724259598720e+01
8.240000000000000568e+01 5.460895402650442776e+01
8.279999999999999716e+01 5.447404316778479227e+01
8.320000000000000284e+01 5.433999989572100731e+01
8.360000000000000853e+01 5.420692593442888096e+01
8.400000000000000000e+01 5.407480946579445913e+01
8.440000000000000568e+01 5.394363887457959095e+01
8.479999999999999716e+01 5.381340274392968581e+01
8.520000000000000284e+01 5.368408985100330000e+01
8.560000000000000853e+01 5.355568916271953128e+01
8.600000000000000000e+01 5.342800351964191208e+01
8.640000000000000568e+01 5.330101434629544599e+01
8.680000000000001137e+01 5.317490281358386284e+01
8.720000000000000284e+01 5.304965872916648095e+01
8.760000000000000853e+01 5.292527206687823593e+01
8.800000000000000000e+01 5.280173296324489485e+01
8.840000000000000568e+01 5.267903171408739382e+01
8.880000000000001137e+01 5.255715877121281210e+01
8.920000000000000284e+01 5.243610473918929671e+01
8.960000000000000853e+01 5.231586037220227325e+01
9.000000000000000000e+01 5.219641657098983956e+01
9.040000000000000568e+01 5.209708776563723376e+01
9.080000000000001137e+01 5.198049047576296999e+01
9.120000000000000284e+01 5.186465412826446908e+01
9.160000000000000853e+01 5.174957037301430063e+01
9.200000000000000000e+01 5.163523098855329607e+01
9.240000000000000568e+01 5.152162787953976419e+01
9.280000000000001137e+01 5.140875307426063046e+01
9.320000000000000284e+01 5.129659872220246086e+01
9.360000000000000853e+01 5.118515709168070771e+01
9.400000000000000000e+01 5.107442056752583426e+01
9.440000000000000568e+01 5.096438164882420097e+01
9.480000000000001137e+01 5.085503294671268293e+01
9.520000000000000284e+01 5.074636718222508591e+01
9.560000000000000853e+01 5.063837718418930933e+01
9.600000000000000000e+01 5.053105588717351537e+01
9.640000000000000568e+01 5.042750371412302712e+01
9.680000000000001137e+01 5.032237865043730096e+01
9.720000000000000284e+01 5.021809367351580278e+01
9.760000000000000853e+01 5.011444166240917752e+01
9.800000000000000000e+01 5.001141615841539334e+01
9.840000000000000568e+01 4.990901079538730301e+01
9.880000000000001137e+01 4.980721929802568582e+01
9.920000000000000284e+01 4.970603548021102824e+01
9.960000000000000853e+01 4.960545324337235940e+01
1.000000000000000000e+02 4.950546657489291391e+01
1.004000000000000057e+02 4.940606954655100935e+01
1.008000000000000114e+02 4.930725631299561229e+01
1.012000000000000028e+02 4.920902111025557701e+01
1.016000000000000085e+02 4.911135825428149815e+01
1.020000000000000000e+02 4.901426213951970112e+01
1.024000000000000057e+02 4.891772723751716256e+01
1.028000000000000114e+02 4.882174809555677086e+01
1.032000000000000028e+02 4.872631933532220216e+01
1.036000000000000085e+02 4.863143565159142412e+01
1.040000000000000000e+02 4.853709181095825187e+01
1.044000000000000057e+02 4.844302896132263925e+01
1.048000000000000114e+02 4.834940069764741111e+01
1.052000000000000028e+02 4.825630028540228977e+01
1.056000000000000085e+02 4.816372272302413649e+01
1.060000000000000000e+02 4.807166307550522077e+01
1.064000000000000057e+02 4.798011647325326123e+01
1.068000000000000114e+02 4.788907811097561762e+01
1.072000000000000028e+02 4.779853223815872809e+01
1.076000000000000085e+02 4.770829984489770936e+01
1.080000000000000000e+02 4.761856207160744248e+01
1.084000000000000057e+02 4.750546458154141760e+01
1.088000000000000114e+02 4.741779729755827333e+01
1.092000000000000028e+02 4.733060754149294524e+01
1.096000000000000085e+02 4.724389092271253787e+01
1.100000000000000000e+02 4.715736756830084886e+01
1.104000000000000057e+02 4.707128832238801408e+01
1.108000000000000114e+02 4.698567128055665165e+01
1.112000000000000028e+02 4.690051225382931932e+01
1.116000000000000085e+02 4.681580710668296774e+01
1.120000000000000000e+02 4.673155175616936674e+01
1.124000000000000057e+02 4.664774217105303933e+01
1.128000000000000114e+02 4.656437437096665377e+01
1.132000000000000028e+02 4.648144442558321288e+01
1.136000000000000085e+02 4.639894845380474919e+01
1.140000000000000000e+02 4.631688262296720637e+01
1.144000000000000057e+02 4.623524314806087432e+01
1.148000000000000114e+02 4.615402629096641363e+01
1.152000000000000028e+02 4.607322835970557406e+01
1.156000000000000085e+02 4.599284570770691971e+01
1.160000000000000000e+02 4.591287473308554468e+01
1.164000000000000057e+02 4.583331187793696415e+01
1.168000000000000114e+02 4.575415362764459104e+01
1.172000000000000028e+02 4.567539651020063474e+01
1.176000000000000085e+02 4.559703709553993178e+01
1.180000000000000000e+02 4.551907199488655920e+01
1.184000000000000057e+02 4.544149786011298886e+01
1.188000000000000114e+02 4.536431138311136380e+01
1.192000000000000028e+02 4.529254195404017480e+01
1.196000000000000085e+02 4.521632473410107167e+01
1.200000000000000000e+02 4.514048521883004383e+01
1.204000000000000057e+02 4.507505933016864219e+01
1.208000000000000114e+02 4.500026489217950143e+01
1.212000000000000028e+02 4.492583648199720869e+01
1.216000000000000085e+02 4.485177107488289039e+01
1.220000000000000000e+02 4.477806568130099407e+01
1.224000000000000057e+02 4.470471734639073702e+01
1.228000000000000114e+02 4.463172314944746688e+01
1.232000000000000028e+02 4.455908020341335174e+01
1.236000000000000085e+02 4.448678565437750621e+01
1.240000000000000000e+02 4.441483668108504901e+01
1.244000000000000057e+02 4.434323049445522003e+01
1.248000000000000114e+02 4.427196433710814460e+01
1.252000000000000028e+02 4.420555508706226533e+01
1.256000000000000085e+02 4.413536272337429978e+01
1.260000000000000000e+02 4.406550021611481327e+01
1.264000000000000057e+02 4.399596494841901517e+01
1.268000000000000114e+02 4.392675433266213503e+01
1.272000000000000028e+02 4.385786581003794282e+01
1.276000000000000085e+02 4.378929685014475126e+01
1.280000000000000000e+02 4.372104495057867979e+01
1.284000000000000057e+02 4.365310763653400272e+01
1.288000000000000114e+02 4.358548246041060992e+01
1.291999999999999886e+02 4.351816700142818917e+01
1.296000000000000227e+02 4.345115886524710902e+01
1.300000000000000000e+02 4.338445568359598070e+01
1.304000000000000057e+02 4.331805511390547281e+01
1.308000000000000114e+02 4.325193746382287685e+01
1.311999999999999886e+02 4.318589311142801535e+01
1.316000000000000227e+02 4.311978725203530161e+01
1.320000000000000000e+02 4.305397768090855237e+01
1.324000000000000057e+02 4.298846216093819805e+01
1.328000000000000114e+02 4.292323847878073906e+01
1.331999999999999886e+02 4.285830444453317511e+01
1.336000000000000227e+02 4.279365789141296261e+01
1.340000000000000000e+02 4.272929667544335786e+01
1.344000000000000057e+02 4.266521867514383359e+01
1.348000000000000114e+02 4.260142179122595252e+01
1.351999999999999886e+02 4.253790394629393035e+01
1.356000000000000227e+02 4.247466308455037876e+01
1.360000000000000000e+02 4.241169717150676632e+01
1.364000000000000057e+02 4.234900155898908025e+01
1.368000000000000114e+02 4.228653535622731141e+01
1.371999999999999886e+02 4.222433834376157336e+01
1.376000000000000227e+02 4.216240856798631853e+01
1.380000000000000000e+02 4.210074409524075634e+01
1.384000000000000057e+02 4.203934301154638575e+01
1.388000000000000114e+02 4.197820342234873436e+01
1.392000000000000171e+02 4.191732345226328960e+01
1.395999999999999943e+02 4.185670124482544452e+01
1.400000000000000000e+02 4.179633496224445821e+01
1.404000000000000057e+02 4.173622278516131701e+01
1.408000000000000114e+02 4.167622785392592277e+01
1.412000000000000171e+02 4.161647881385540160e+01
1.415999999999999943e+02 4.155697911131447597e+01
1.420000000000000000e+02 4.149772699414923238e+01
1.424000000000000057e+02 4.143872072752414937e+01
1.428000000000000114e+02 4.137995859370145268e+01
1.432000000000000171e+02 4.132143889182384555e+01
1.435999999999999943e+02 4.125749556777462601e+01
1.440000000000000000e+02 4.119971495088536528e+01
1.444000000000000057e+02 4.114217043436872245e+01
1.448000000000000114e+02 4.108486039396864697e+01
1.452000000000000171e+02 4.102778322114517096e+01
1.455999999999999943e+02 4.097093732287854095e+01
1.460000000000000000e+02 4.091432112147614930e+01
1.464000000000000057e+02 4.085793305438245682e+01
1.468000000000000114e+02 4.080177157399185717e+01
1.472000000000000171e+02 4.074583514746427682e+01
1.475999999999999943e+02 4.069012225654363846e+01
1.480000000000000000e+02 4.063463139737901741e+01
1.484000000000000057e+02 4.057936108034847678e+01
1.488000000000000114e+02 4.052430982988558128e+01
1.492000000000000171e+02 4.046947618430846205e+01
1.495999999999999943e+02 4.041485869565141087e+01
1.500000000000000000e+02 4.036045592949899685e+01
