1.000000000000000000e+01 1.547219995207366594e+02
1.040000000000000036e+01 1.624639589555559951e+02
1.080000000000000071e+01 1.721516738638121069e+02
1.119999999999999929e+01 1.774505661638487766e+02
1.159999999999999964e+01 1.714677089402177046e+02
1.200000000000000000e+01 1.661833104868226485e+02
1.240000000000000036e+01 1.614639574057957248e+02
1.280000000000000071e+01 1.572106341226472352e+02
1.319999999999999929e+01 1.461983361149152074e+02
1.359999999999999964e+01 1.427442384391280825e+02
1.400000000000000000e+01 1.396513719642883586e+02
1.440000000000000036e+01 1.367825646642684490e+02
1.480000000000000071e+01 1.342491963487576072e+02
1.519999999999999929e+01 1.319614849556684248e+02
1.560000000000000142e+01 1.298153107840775249e+02
1.600000000000000000e+01 1.277957425546493937e+02
1.639999999999999858e+01 1.258900455315469173e+02
1.680000000000000071e+01 1.240872726269150945e+02
1.719999999999999929e+01 1.223180632860962476e+02
1.760000000000000142e+01 1.115016656668051382e+02
1.800000000000000000e+01 1.098819746628000900e+02
1.839999999999999858e+01 1.083349827001405856e+02
1.880000000000000071e+01 1.054594292447054471e+02
1.920000000000000284e+01 1.040786730267530089e+02
1.960000000000000142e+01 1.027545198354131628e+02
2.000000000000000000e+01 1.014830525998173698e+02
2.039999999999999858e+01 1.002607332801860451e+02
2.080000000000000071e+01 9.908435603938434610e+01
2.120000000000000284e+01 9.795100741331344807e+01
2.160000000000000142e+01 9.685803225944250983e+01
2.200000000000000000e+01 9.795509899050351521e+01
2.239999999999999858e+01 9.693027984082935689e+01
2.280000000000000071e+01 9.593973981528213812e+01
2.320000000000000284e+01 9.498154436742385087e+01
2.360000000000000142e+01 9.405391136462887403e+01
2.400000000000000000e+01 9.315131909508116337e+01
2.439999999999999858e+01 9.216742874727103185e+01
2.480000000000000071e+01 9.119727655610793704e+01
2.520000000000000284e+01 9.025746107265575802e+01
2.560000000000000142e+01 8.934640649833011139e+01
2.600000000000000000e+01 8.846265008999925783e+01
2.640000000000000213e+01 8.760483188673899235e+01
2.680000000000000071e+01 8.677168556034970948e+01
2.719999999999999929e+01 8.600479590600778579e+01
2.760000000000000142e+01 8.114001722409486206e+01
2.800000000000000000e+01 8.038630157168128676e+01
2.840000000000000213e+01 7.965193556085024795e+01
2.880000000000000071e+01 7.893608717405444963e+01
2.920000000000000284e+01 7.823797436102697134e+01
2.960000000000000142e+01 7.755686120481047396e+01
3.000000000000000000e+01 7.689205444425263636e+01
3.040000000000000213e+01 7.624290031419181446e+01
3.080000000000000071e+01 7.560878166937153821e+01
3.120000000000000284e+01 7.498911536226502506e+01
3.160000000000000142e+01 7.438334984856996357e+01
3.200000000000000000e+01 7.416087133065718717e+01
3.240000000000000568e+01 7.360223680499071008e+01
3.279999999999999716e+01 7.305540803608715805e+01
3.320000000000000284e+01 7.251996712084073238e+01
3.360000000000000142e+01 7.129057073899038244e+01
3.400000000000000000e+01 7.077186366723994126e+01
3.440000000000000568e+01 7.026375838229877502e+01
3.479999999999999716e+01 6.976589300091798407e+01
3.520000000000000284e+01 6.927792288507563967e+01
3.560000000000000142e+01 6.879951959109213533e+01
3.600000000000000000e+01 6.833036989647541759e+01
3.640000000000000568e+01 6.787017489775507784e+01
3.679999999999999716e+01 6.868893353624551423e+01
3.720000000000000284e+01 6.829774237393874614e+01
3.760000000000000142e+01 6.791319356793948714e+01
3.800000000000000000e+01 6.753509677337007133e+01
3.840000000000000568e+01 6.716326931726139549e+01
3.879999999999999716e+01 6.679753580082562792e+01
3.920000000000000284e+01 6.643772772687239581e+01
3.960000000000000142e+01 6.608310887746434048e+01
4.000000000000000000e+01 6.572610989383716174e+01
4.040000000000000568e+01 6.535890907046739073e+01
4.079999999999999716e+01 6.499759214118765271e+01
4.120000000000000284e+01 6.464200141455447124e+01
4.160000000000000142e+01 6.429198510734313743e+01
4.200000000000000000e+01 6.394739706104014942e+01
4.239999999999999858e+01 6.360809647487473484e+01
4.280000000000000426e+01 6.327394765425630396e+01
4.320000000000000284e+01 6.294481977357369828e+01
4.360000000000000142e+01 6.262058665239337074e+01
4.400000000000000000e+01 6.230112654416674189e+01
4.439999999999999858e+01 6.198632193662615464e+01
4.480000000000000426e+01 6.167605936310913961e+01
4.520000000000000284e+01 6.137022922410821479e+01
4.560000000000000142e+01 6.106872561839508506e+01
4.600000000000000000e+01 6.077144618311544377e+01
4.639999999999999858e+01 6.047829194229448291e+01
4.680000000000000426e+01 6.018916716323321481e+01
4.720000000000000284e+01 5.990397922031249323e+01
4.760000000000000142e+01 5.970468568755919136e+01
4.800000000000000000e+01 5.943671866537932402e+01
4.840000000000000568e+01 5.917221740504955108e+01
4.880000000000000426e+01 5.891110640282122546e+01
4.920000000000000284e+01 5.865234291818700285e+01
4.960000000000000142e+01 5.843060027566734504e+01
5.000000000000000000e+01 5.817244067307271393e+01
5.040000000000000568e+01 5.791755414814399217e+01
5.080000000000000426e+01 5.766587105159225501e+01
5.120000000000000284e+01 5.741732381555544151e+01
5.160000000000000142e+01 5.717184687360156659e+01
5.200000000000000000e+01 5.692937658448360594e+01
5.240000000000000568e+01 5.668985115943841890e+01
5.280000000000000426e+01 5.645321059283595844e+01
5.320000000000000284e+01 5.621939659599642169e+01
5.360000000000000142e+01 5.598835253400528700e+01
5.400000000000000000e+01 5.576002336536583925e+01
5.440000000000000568e+01 5.553435558433915986e+01
5.480000000000000426e+01 5.531079521244566877e+01
5.520000000000000284e+01 5.508745676244696199e+01
5.560000000000000142e+01 5.486667611474620543e+01
5.600000000000000000e+01 5.464840429863436810e+01
5.640000000000000568e+01 5.443259365696895458e+01
5.680000000000000426e+01 5.421919780091806729e+01
5.720000000000000284e+01 5.400817156660598783e+01
5.760000000000000142e+01 5.379947097356627950e+01
5.800000000000000000e+01 5.359305318491337289e+01
5.840000000000000568e+01 5.338887646914912466e+01
5.880000000000000426e+01 5.318690016352510952e+01
5.920000000000000284e+01 5.298685024551435419e+01
5.960000000000000142e+01 5.307386768299726043e+01
6.000000000000000000e+01 5.288401716403772923e+01
6.040000000000000568e+01 5.269612702575708596e+01
6.080000000000000426e+01 5.251016328163613878e+01
6.120000000000000284e+01 5.232609277199780706e+01
6.160000000000000142e+01 5.214388313814735909e+01
6.200000000000000000e+01 5.196350279749954382e+01
6.240000000000000568e+01 5.178492091964842814e+01
6.280000000000000426e+01 5.160810740333769786e+01
6.320000000000000284e+01 5.150815059427460341e+01
6.360000000000000142e+01 5.133543829058584862e+01
6.400000000000000000e+01 5.116440414478557130e+01
6.440000000000000568e+01 5.099502081741563586e+01
6.480000000000001137e+01 5.082726159266513832e+01
6.520000000000000284e+01 5.066110036011805562e+01
6.559999999999999432e+01 5.049651159715187987e+01
6.600000000000000000e+01 5.033347035195980368e+01
6.640000000000000568e+01 5.017195222717053582e+01
6.680000000000001137e+01 5.001193336404098488e+01
6.720000000000000284e+01 4.985339042719793667e+01
6.759999999999999432e+01 5.004031651604076103e+01
6.800000000000000000e+01 4.988913253126027314e+01
6.840000000000000568e+01 4.973930527209076047e+01
6.880000000000001137e+01 4.959081418554769982e+01
6.920000000000000284e+01 4.944363915668386511e+01
6.959999999999999432e+01 4.929776049656577186e+01
7.000000000000000000e+01 4.915315893065378816e+01
7.040000000000000568e+01 4.900981558756949141e+01
7.080000000000001137e+01 4.886771198823521445e+01
7.120000000000000284e+01 4.874058598217277449e+01
7.159999999999999432e+01 4.860241357536096984e+01
7.200000000000000000e+01 4.846617868703511789e+01
7.240000000000000568e+01 4.833122064891258418e+01
7.280000000000001137e+01 4.819738415900035022e+01
7.320000000000000284e+01 4.806465343592640949e+01
7.359999999999999432e+01 4.793301301201723419e+01
7.400000000000000000e+01 4.780244772523570163e+01
7.440000000000000568e+01 4.767294271137318162e+01
7.479999999999999716e+01 4.754448339648594413e+01
7.520000000000000284e+01 4.741705548956731064e+01
7.560000000000000853e+01 4.729064497544653989e+01
7.600000000000000000e+01 4.716523810790626214e+01
7.640000000000000568e+01 4.704082140301052561e+01
7.679999999999999716e+01 4.691738163263569561e+01
7.720000000000000284e+01 4.679490581819712247e+01
7.760000000000000853e+01 4.667338122456430938e+01
7.800000000000000000e+01 4.655279535415802172e+01
7.840000000000000568e+01 4.643313594122307109e+01
7.879999999999999716e+01 4.631439094627012310e+01
7.920000000000000284e+01 4.619549295243871256e+01
7.960000000000000853e+01 4.607729178181777741e+01
8.000000000000000000e+01 4.595998258387246693e+01
8.040000000000000568e+01 4.584355399444519463e+01
8.079999999999999716e+01 4.572799485361434790e+01
8.120000000000000284e+01 4.556867955300786832e+01
8.160000000000000853e+01 4.545557783182263734e+01
8.200000000000000000e+01 4.534330693980225391e+01
8.240000000000000568e+01 4.523185657035542562e+01
8.279999999999999716e+01 4.512085033397119105e+01
8.320000000000000284e+01 4.501053567389279664e+01
8.360000000000000853e+01 4.490101648964036940e+01
8.400000000000000000e+01 4.479228310081334996e+01
8.440000000000000568e+01 4.468432599303616826e+01
8.479999999999999716e+01 4.457713581428343730e+01
8.520000000000000284e+01 4.447070337130464424e+01
8.560000000000000853e+01 4.436501962614535444e+01
8.600000000000000000e+01 4.426000749849623617e+01
8.640000000000000568e+01 4.415570390774313125e+01
8.680000000000001137e+01 4.405211817512743977e+01
8.720000000000000284e+01 4.394924199338792903e+01
8.760000000000000853e+01 4.384706719037211542e+01
8.800000000000000000e+01 4.374558572620669850e+01
8.840000000000000568e+01 4.364478969054047752e+01
8.880000000000001137e+01 4.354467129985751939e+01
8.920000000000000284e+01 4.344522289485846045e+01
8.960000000000000853e+01 4.334643693790782493e+01
9.000000000000000000e+01 4.324830601054558343e+01
9.040000000000000568e+01 4.315082281106089823e+01
9.080000000000001137e+01 4.305377903531535111e+01
9.120000000000000284e+01 4.295659630323881117e+01
9.160000000000000853e+01 4.286005182724164797e+01
9.200000000000000000e+01 4.276413857111383265e+01
9.240000000000000568e+01 4.266884960745208843e+01
9.280000000000001137e+01 4.257417811549738218e+01
9.320000000000000284e+01 4.248011737902482565e+01
9.360000000000000853e+01 4.238666078428441608e+01
9.400000000000000000e+01 4.229380181799154315e+01
9.440000000000000568e+01 4.220153406536523732e+01
9.480000000000001137e+01 4.210985120821352723e+01
9.520000000000000284e+01 4.201874702306398035e+01
9.560000000000000853e+01 4.192821537933846798e+01
9.600000000000000000e+01 4.183825023757093930e+01
9.640000000000000568e+01 4.175195303230963617e+01
9.680000000000001137e+01 4.166382262234784406e+01
9.720000000000000284e+01 4.157623530826307245e+01
9.760000000000000853e+01 4.148918547010234192e+01
9.800000000000000000e+01 4.140266756951884020e+01
9.840000000000000568e+01 4.131667614824827695e+01
9.880000000000001137e+01 4.123120582662011202e+01
9.920000000000000284e+01 4.114625130210250603e+01
9.960000000000000853e+01 4.106180734788013353e+01
1.000000000000000000e+02 4.097786881146403459e+01
1.004000000000000057e+02 4.089443061333265916e+01
1.008000000000000114e+02 4.081148774560318770e+01
1.012000000000000028e+02 4.072903527073245300e+01
1.016000000000000085e+02 4.066550627054805744e+01
1.020000000000000000e+02 4.058492034380384439e+01
1.024000000000000057e+02 4.050480076671475160e+01
1.028000000000000114e+02 4.042514300151529483e+01
1.032000000000000028e+02 4.034594257249889893e+01
1.036000000000000085e+02 4.026719506492481315e+01
1.040000000000000000e+02 4.018889612394872302e+01
1.044000000000000057e+02 4.015395627410652679e+01
1.048000000000000114e+02 4.007760724936015606e+01
1.052000000000000028e+02 4.000168623025096792e+01
1.056000000000000085e+02 3.992618917398122136e+01
1.060000000000000000e+02 3.985111209147419231e+01
1.064000000000000057e+02 3.977645104645434770e+01
1.068000000000000114e+02 3.970220215454677515e+01
1.072000000000000028e+02 3.962836158239554862e+01
1.076000000000000085e+02 3.955492554680020589e+01
1.080000000000000000e+02 3.948189031387025238e+01
1.084000000000000057e+02 3.939335234333534430e+01
1.088000000000000114e+02 3.932183760975593145e+01
1.092000000000000028e+02 3.925071036196214180e+01
1.096000000000000085e+02 3.917996704861855051e+01
1.100000000000000000e+02 3.910932862516733621e+01
1.104000000000000057e+02 3.903904675334091223e+01
1.108000000000000114e+02 3.896914033574744707e+01
1.112000000000000028e+02 3.889960598003399639e+01
1.116000000000000085e+02 3.883044033707307818e+01
1.120000000000000000e+02 3.876159808903667425e+01
1.124000000000000057e+02 3.869300860921737240e+01
1.128000000000000114e+02 3.862477931720911783e+01
1.132000000000000028e+02 3.855690701574712165e+01
1.136000000000000085e+02 3.848938854757982142e+01
1.140000000000000000e+02 3.842222079482264263e+01
1.144000000000000057e+02 3.835540067832418742e+01
1.148000000000000114e+02 3.828892515704527710e+01
1.152000000000000028e+02 3.822279122744991042e+01
1.156000000000000085e+02 3.815699592290830822e+01
1.160000000000000000e+02 3.809153631311156118e+01
1.164000000000000057e+02 3.802640950349753268e+01
1.168000000000000114e+02 3.796161263468815861e+01
1.172000000000000028e+02 3.789714288193724911e+01
1.176000000000000085e+02 3.783299745458919006e+01
1.180000000000000000e+02 3.776917359554781939e+01
1.184000000000000057e+02 3.770566858075554961e+01
1.188000000000000114e+02 3.764247971868241649e+01
1.192000000000000028e+02 3.757960434982461351e+01
1.196000000000000085e+02 3.751703984621273236e+01
1.200000000000000000e+02 3.745478361092919073e+01
1.204000000000000057e+02 3.739283307763453479e+01
1.208000000000000114e+02 3.733118571010286502e+01
1.212000000000000028e+02 3.726983900176566067e+01
1.216000000000000085e+02 3.720879047526427286e+01
1.220000000000000000e+02 3.714803768201052492e+01
1.224000000000000057e+02 3.708757820175550535e+01
1.228000000000000114e+02 3.702740964216626196e+01
1.232000000000000028e+02 3.696752963841021966e+01
1.236000000000000085e+02 3.691391198187679379e+01
1.240000000000000000e+02 3.685464007480435100e+01
1.244000000000000057e+02 3.679564980900237714e+01
1.248000000000000114e+02 3.673693892364893543e+01
1.252000000000000028e+02 3.668302478765050267e+01
1.256000000000000085e+02 3.662526786536538737e+01
1.260000000000000000e+02 3.656778160666126354e+01
1.264000000000000057e+02 3.651056386904644313e+01
1.268000000000000114e+02 3.645361253392430001e+01
1.272000000000000028e+02 3.639692550624944545e+01
1.276000000000000085e+02 3.634050071418992900e+01
1.280000000000000000e+02 3.628433610879544347e+01
1.284000000000000057e+02 3.622842966367127815e+01
1.288000000000000114e+02 3.617277937465799198e+01
1.291999999999999886e+02 3.611738325951667861e+01
1.296000000000000227e+02 3.606218142477894162e+01
1.300000000000000000e+02 3.600704835158744999e+01
1.304000000000000057e+02 3.595216492801702657e+01
1.308000000000000114e+02 3.589752924617529573e+01
1.311999999999999886e+02 3.584299533192955778e+01
1.316000000000000227e+02 3.578846731558518002e+01
1.320000000000000000e+02 3.573418337372719122e+01
1.324000000000000057e+02 3.568014166511429863e+01
1.328000000000000114e+02 3.562634036805381044e+01
1.331999999999999886e+02 3.557277768013400276e+01
1.336000000000000227e+02 3.551945181796105544e+01
1.340000000000000000e+02 3.546636101690038601e+01
1.344000000000000057e+02 3.541350353082215463e+01
1.348000000000000114e+02 3.536087763185120991e+01
1.351999999999999886e+02 3.530848801440714624e+01
1.356000000000000227e+02 3.525637831945086020e+01
1.360000000000000000e+02 3.520449445873213534e+01
1.364000000000000057e+02 3.515283478270676198e+01
1.368000000000000114e+02 3.510139765879478091e+01
1.371999999999999886e+02 3.505018147115539762e+01
1.376000000000000227e+02 3.499918462046564827e+01
1.380000000000000000e+02 3.494840552370258990e+01
1.384000000000000057e+02 3.489784261392898657e+01
1.388000000000000114e+02 3.484749434008254099e+01
1.392000000000000171e+02 3.479735916676843033e+01
1.395999999999999943e+02 3.474743557405516725e+01
1.400000000000000000e+02 3.469772205727374370e+01
1.404000000000000057e+02 3.464821712681995791e+01
1.408000000000000114e+02 3.459878424947529396e+01
1.412000000000000171e+02 3.454955239370838171e+01
1.415999999999999943e+02 3.450052532579758235e+01
1.420000000000000000e+02 3.445170161030663536e+01
1.424000000000000057e+02 3.440307982596259251e+01
1.428000000000000114e+02 3.435465856547561003e+01
1.432000000000000171e+02 3.430643643536150478e+01
1.435999999999999943e+02 3.425841205576713833e+01
1.440000000000000000e+02 3.421058406029840882e+01
1.444000000000000057e+02 3.416295109585099254e+01
1.448000000000000114e+02 3.411551182244365776e+01
1.452000000000000171e+02 3.406826491305410087e+01
1.455999999999999943e+02 3.402120905345738322e+01
1.460000000000000000e+02 3.397434294206668426e+01
1.464000000000000057e+02 3.392766528977674056e+01
1.468000000000000114e+02 3.388117481980930279e+01
1.472000000000000171e+02 3.383487026756127136e+01
1.475999999999999943e+02 3.378875038045492829e+01
1.480000000000000000e+02 3.373802129230211477e+01
1.484000000000000057e+02 3.369234239620713822e+01
1.488000000000000114e+02 3.364684421445674900e+01
1.492000000000000171e+02 3.360152554215826370e+01
1.495999999999999943e+02 3.355638518572872186e+01
1.500000000000000000e+02 3.351142196275799279e+01
