1.000000000000000000e+01 5.941612196875385052e+02
1.040000000000000036e+01 6.789139279212612337e+02
1.080000000000000071e+01 7.402438260381577493e+02
1.119999999999999929e+01 7.938985402258135764e+02
1.159999999999999964e+01 8.743219592999553242e+02
1.200000000000000000e+01 9.174454389270805450e+02
1.240000000000000036e+01 9.239832065156958834e+02
1.280000000000000071e+01 1.006434775063231200e+03
1.319999999999999929e+01 1.040137664475004613e+03
1.359999999999999964e+01 1.106100057553574970e+03
1.400000000000000000e+01 1.101621801102991867e+03
1.440000000000000036e+01 1.079400088516441656e+03
1.480000000000000071e+01 1.058673251087967856e+03
1.519999999999999929e+01 1.039271726804138325e+03
1.560000000000000142e+01 1.021052622400814016e+03
1.600000000000000000e+01 1.003894419983166358e+03
1.639999999999999858e+01 9.876929376762657284e+02
1.680000000000000071e+01 9.723582025448558852e+02
1.719999999999999929e+01 9.578119984133785465e+02
1.760000000000000142e+01 9.439859205511131677e+02
1.800000000000000000e+01 9.308198162190662970e+02
1.839999999999999858e+01 9.182605225897239052e+02
1.880000000000000071e+01 9.062608364176865052e+02
1.920000000000000284e+01 8.947786661733799747e+02
1.960000000000000142e+01 8.837763291866696136e+02
2.000000000000000000e+01 8.732199650340005519e+02
2.039999999999999858e+01 8.630790428556767893e+02
2.080000000000000071e+01 8.533259451366543544e+02
2.120000000000000284e+01 8.439356141619715572e+02
2.160000000000000142e+01 8.348852501752227226e+02
2.200000000000000000e+01 8.261540524457542460e+02
2.239999999999999858e+01 8.177229961468574402e+02
2.280000000000000071e+01 8.095746392794931126e+02
2.320000000000000284e+01 8.016929549298506572e+02
2.360000000000000142e+01 7.940631849882171309e+02
2.400000000000000000e+01 7.866717121291997046e+02
2.439999999999999858e+01 7.795059473956512193e+02
2.480000000000000071e+01 7.725542311684226888e+02
2.520000000000000284e+01 7.658057456626277144e+02
2.560000000000000142e+01 7.592504373849435524e+02
2.600000000000000000e+01 7.528789482284602173e+02
2.640000000000000213e+01 7.466825540817768569e+02
2.680000000000000071e+01 7.406531099954040656e+02
2.719999999999999929e+01 7.347830010873470883e+02
2.760000000000000142e+01 7.290650984860398012e+02
2.800000000000000000e+01 7.234927197066160716e+02
2.840000000000000213e+01 7.180595929390602805e+02
2.880000000000000071e+01 7.127598247967123370e+02
2.920000000000000284e+01 7.075878711330399256e+02
2.960000000000000142e+01 7.025385105852659535e+02
3.000000000000000000e+01 6.976068205467823873e+02
3.040000000000000213e+01 6.927881553074594194e+02
3.080000000000000071e+01 6.880781261329511835e+02
3.120000000000000284e+01 6.834725830816776124e+02
3.160000000000000142e+01 6.789675983820397960e+02
3.200000000000000000e+01 6.745594512131110605e+02
3.240000000000000568e+01 6.702446137500347731e+02
3.279999999999999716e+01 6.660197383510408145e+02
3.320000000000000284e+01 6.618816457766672556e+02
3.360000000000000142e+01 6.578273143437725139e+02
3.400000000000000000e+01 6.538538699274139390e+02
3.440000000000000568e+01 6.499585767329227792e+02
3.479999999999999716e+01 6.461388287686284002e+02
3.520000000000000284e+01 6.423921419568705460e+02
3.560000000000000142e+01 6.387161468272863658e+02
3.600000000000000000e+01 6.351085817419761952e+02
3.640000000000000568e+01 6.315672866071457747e+02
3.679999999999999716e+01 6.280901970302535346e+02
3.720000000000000284e+01 6.246753388856395759e+02
3.760000000000000142e+01 6.213208232551376113e+02
3.800000000000000000e+01 6.180248417133070689e+02
3.840000000000000568e+01 6.147856619297456291e+02
3.879999999999999716e+01 6.116016235634538134e+02
3.920000000000000284e+01 6.084711344264900390e+02
3.960000000000000142e+01 6.053926668961833002e+02
4.000000000000000000e+01 6.023647545569976955e+02
4.040000000000000568e+01 5.993859890547930718e+02
4.079999999999999716e+01 5.964550171477064850e+02
4.120000000000000284e+01 5.935705379392239820e+02
4.160000000000000142e+01 5.907313002802259234e+02
4.200000000000000000e+01 5.879361003278856970e+02
4.239999999999999858e+01 5.851837792502966522e+02
4.280000000000000426e+01 5.824732210666126093e+02
4.320000000000000284e+01 5.798033506132958337e+02
4.360000000000000142e+01 5.771731316278295481e+02
4.400000000000000000e+01 5.745815649419175770e+02
4.439999999999999858e+01 5.720276867768234297e+02
4.480000000000000426e+01 5.695105671340604658e+02
4.520000000000000284e+01 5.670293082751693419e+02
4.560000000000000142e+01 5.645830432847802740e+02
4.600000000000000000e+01 5.621709347116023991e+02
4.639999999999999858e+01 5.597921732823679122e+02
4.680000000000000426e+01 5.574459766841296187e+02
4.720000000000000284e+01 5.551315884106397789e+02
4.760000000000000142e+01 5.528482766688435959e+02
4.800000000000000000e+01 5.505953333418058264e+02
4.840000000000000568e+01 5.483720730046446761e+02
4.880000000000000426e+01 5.461778319902872454e+02
4.920000000000000284e+01 5.440119675020786190e+02
4.960000000000000142e+01 5.418738567704822344e+02
5.000000000000000000e+01 5.397628962512934550e+02
5.040000000000000568e+01 5.376785008629636877e+02
5.080000000000000426e+01 5.356201032607885963e+02
5.120000000000000284e+01 5.335871531458666368e+02
5.160000000000000142e+01 5.315791166068654547e+02
5.200000000000000000e+01 5.295954754927661270e+02
5.240000000000000568e+01 5.276357268148667572e+02
5.280000000000000426e+01 5.256993821764421000e+02
5.320000000000000284e+01 5.237859672285524084e+02
5.360000000000000142e+01 5.218950211505900825e+02
5.400000000000000000e+01 5.200260961542421683e+02
5.440000000000000568e+01 5.181787570096253148e+02
5.480000000000000426e+01 5.163525805924260794e+02
5.520000000000000284e+01 5.145471554509515499e+02
5.560000000000000142e+01 5.127620813920592582e+02
5.600000000000000000e+01 5.109969690849962944e+02
5.640000000000000568e+01 5.092514396822385834e+02
5.680000000000000426e+01 5.075251244564666990e+02
5.720000000000000284e+01 5.058176644528746237e+02
5.760000000000000142e+01 5.041287101560446899e+02
5.800000000000000000e+01 5.024579211706726483e+02
5.840000000000000568e+01 5.008049659154640949e+02
5.880000000000000426e+01 4.991695213295616327e+02
5.920000000000000284e+01 4.975512725908999982e+02
5.960000000000000142e+01 4.959499128459164581e+02
6.000000000000000000e+01 4.943651429500788481e+02
6.040000000000000568e+01 4.927966712187214853e+02
6.080000000000000426e+01 4.912442131877043607e+02
6.120000000000000284e+01 4.897074913834419476e+02
6.160000000000000142e+01 4.881862351018680783e+02
6.200000000000000000e+01 4.866801801959282443e+02
6.240000000000000568e+01 4.851890688712114752e+02
6.280000000000000426e+01 4.837126494893548738e+02
6.320000000000000284e+01 4.822506763788724697e+02
6.360000000000000142e+01 4.808029096530769948e+02
6.400000000000000000e+01 4.793691150347832490e+02
6.440000000000000568e+01 4.779490636874930942e+02
6.480000000000001137e+01 4.765425320527818940e+02
6.520000000000000284e+01 4.751493016936153708e+02
6.559999999999999432e+01 4.737691591433451208e+02
6.600000000000000000e+01 4.724018957601367674e+02
6.640000000000000568e+01 4.710473075866039494e+02
6.680000000000001137e+01 4.697051952144256575e+02
6.720000000000000284e+01 4.683753636537401803e+02
6.759999999999999432e+01 4.670576222071161965e+02
6.800000000000000000e+01 4.657517843479126896e+02
6.840000000000000568e+01 4.644576676028467546e+02
6.880000000000001137e+01 4.631750934385978553e+02
6.920000000000000284e+01 4.619038871522857335e+02
6.959999999999999432e+01 4.606438777656647972e+02
7.000000000000000000e+01 4.593948979228866847e+02
7.040000000000000568e+01 4.581567837916902022e+02
7.080000000000001137e+01 4.569293749678813583e+02
7.120000000000000284e+01 4.557125143829760532e+02
7.159999999999999432e+01 4.545060482148802521e+02
7.200000000000000000e+01 4.533098258014913426e+02
7.240000000000000568e+01 4.521236995571078410e+02
7.280000000000001137e+01 4.509475248915381940e+02
7.320000000000000284e+01 4.497811601318080079e+02
7.359999999999999432e+01 4.486244664463664549e+02
7.400000000000000000e+01 4.474773077716967009e+02
7.440000000000000568e+01 4.463395507412428174e+02
7.479999999999999716e+01 4.452110646165642720e+02
7.520000000000000284e+01 4.440917212206378508e+02
7.560000000000000853e+01 4.429813948732261224e+02
7.600000000000000000e+01 4.418799623282393441e+02
7.640000000000000568e+01 4.407873027130149808e+02
7.679999999999999716e+01 4.397032974694491259e+02
7.720000000000000284e+01 4.386278302969104743e+02
7.760000000000000853e+01 4.375607870968744919e+02
7.800000000000000000e+01 4.365020559192167298e+02
7.840000000000000568e+01 4.354515269101058266e+02
7.879999999999999716e+01 4.344090922614404349e+02
7.920000000000000284e+01 4.333746461617762975e+02
7.960000000000000853e+01 4.323480847486915764e+02
8.000000000000000000e+01 4.313293060625402404e+02
8.040000000000000568e+01 4.303182100015463334e+02
8.079999999999999716e+01 4.293146982781934184e+02
8.120000000000000284e+01 4.283186743768636120e+02
8.160000000000000853e+01 4.273300435126869843e+02
8.200000000000000000e+01 4.263487125915569322e+02
8.240000000000000568e+01 4.253745901712750879e+02
8.279999999999999716e+01 4.244075864237871656e+02
8.320000000000000284e+01 4.234476130984737665e+02
8.360000000000000853e+01 4.224945834864612948e+02
8.400000000000000000e+01 4.215484123859201873e+02
8.440000000000000568e+01 4.206090160683154409e+02
8.479999999999999716e+01 4.196763122455839152e+02
8.520000000000000284e+01 4.187502200382031674e+02
8.560000000000000853e+01 4.178306599441256139e+02
8.600000000000000000e+01 4.169175538085499397e+02
8.640000000000000568e+01 4.160108247945045150e+02
8.680000000000001137e+01 4.151103973542137169e+02
8.720000000000000284e+01 4.142161972012263504e+02
8.760000000000000853e+01 4.133281512832795670e+02
8.800000000000000000e+01 4.124461877558767924e+02
8.840000000000000568e+01 4.115702359565565871e+02
8.880000000000001137e+01 4.107002263798319177e+02
8.920000000000000284e+01 4.098360906527789780e+02
8.960000000000000853e+01 4.089777615112546982e+02
9.000000000000000000e+01 4.081251727767256625e+02
9.040000000000000568e+01 4.072782593336889363e+02
9.080000000000001137e+01 4.064369571076654211e+02
9.120000000000000284e+01 4.056012030437523208e+02
9.160000000000000853e+01 4.047709350857138588e+02
9.200000000000000000e+01 4.039460921555975119e+02
9.240000000000000568e+01 4.031266141338576290e+02
9.280000000000001137e+01 4.023124418399740421e+02
9.320000000000000284e+01 4.015035170135483895e+02
9.360000000000000853e+01 4.006997822958671236e+02
9.400000000000000000e+01 3.999011812119149454e+02
9.440000000000000568e+01 3.991076581528274687e+02
9.480000000000001137e+01 3.983191583587698119e+02
9.520000000000000284e+01 3.975356279022286685e+02
9.560000000000000853e+01 3.967570136717070000e+02
9.600000000000000000e+01 3.959832633558081625e+02
9.640000000000000568e+01 3.952143254277009987e+02
9.680000000000001137e+01 3.944501491299521376e+02
9.720000000000000284e+01 3.936906844597183408e+02
9.760000000000000853e+01 3.929358821542858209e+02
9.800000000000000000e+01 3.921856936769498816e+02
9.840000000000000568e+01 3.914400712032226579e+02
9.880000000000001137e+01 3.906989676073617375e+02
9.920000000000000284e+01 3.899623364492106816e+02
9.960000000000000853e+01 3.892301319613421242e+02
1.000000000000000000e+02 3.885023090364953759e+02
1.004000000000000057e+02 3.877788232153024524e+02
1.008000000000000114e+02 3.870596306742904176e+02
1.012000000000000028e+02 3.863446882141583956e+02
1.016000000000000085e+02 3.856339532483165158e+02
1.020000000000000000e+02 3.849273837916837806e+02
1.024000000000000057e+02 3.842249384497351912e+02
1.028000000000000114e+02 3.835265764077937547e+02
1.032000000000000028e+02 3.828322574205591309e+02
1.036000000000000085e+02 3.821419418018679153e+02
1.040000000000000000e+02 3.814555904146794205e+02
1.044000000000000057e+02 3.807731646612798500e+02
1.048000000000000114e+02 3.800946264737014531e+02
1.052000000000000028e+02 3.794199383043485341e+02
1.056000000000000085e+02 3.787490631168273580e+02
1.060000000000000000e+02 3.780819643769729623e+02
1.064000000000000057e+02 3.774186060440691222e+02
1.068000000000000114e+02 3.767589525622557858e+02
1.072000000000000028e+02 3.761029688521192611e+02
1.076000000000000085e+02 3.754506203024616298e+02
1.080000000000000000e+02 3.748018727622426240e+02
1.084000000000000057e+02 3.741566925326928867e+02
1.088000000000000114e+02 3.735150463595913379e+02
1.092000000000000028e+02 3.728769014257037497e+02
1.096000000000000085e+02 3.722422253433796868e+02
1.100000000000000000e+02 3.716109861473017872e+02
1.104000000000000057e+02 3.709831522873849394e+02
1.108000000000000114e+02 3.703586926218223425e+02
1.112000000000000028e+02 3.697375764102725384e+02
1.116000000000000085e+02 3.691197733071869607e+02
1.120000000000000000e+02 3.685052533552721457e+02
1.124000000000000057e+02 3.678939869790848434e+02
1.128000000000000114e+02 3.672859449787556514e+02
1.132000000000000028e+02 3.666810985238407739e+02
1.136000000000000085e+02 3.660794191472937200e+02
1.140000000000000000e+02 3.654808787395605805e+02
1.144000000000000057e+02 3.648854495427904681e+02
1.148000000000000114e+02 3.642931041451620331e+02
1.152000000000000028e+02 3.637038154753204822e+02
1.156000000000000085e+02 3.631175567969255553e+02
1.160000000000000000e+02 3.625343017033051183e+02
1.164000000000000057e+02 3.619540241122136877e+02
1.168000000000000114e+02 3.613766982606930469e+02
1.172000000000000028e+02 3.608022987000318267e+02
1.176000000000000085e+02 3.602308002908230264e+02
1.180000000000000000e+02 3.596621781981162371e+02
1.184000000000000057e+02 3.590964078866632576e+02
1.188000000000000114e+02 3.585334651162539785e+02
1.192000000000000028e+02 3.579733259371415670e+02
1.196000000000000085e+02 3.574159666855538831e+02
1.200000000000000000e+02 3.568613639792903882e+02
1.204000000000000057e+02 3.563094947134017048e+02
1.208000000000000114e+02 3.557603360559501198e+02
1.212000000000000028e+02 3.552138654438493859e+02
1.216000000000000085e+02 3.546700605787825680e+02
1.220000000000000000e+02 3.541288994231952074e+02
1.224000000000000057e+02 3.535903601963626670e+02
1.228000000000000114e+02 3.530544213705306333e+02
1.232000000000000028e+02 3.525210616671258776e+02
1.236000000000000085e+02 3.519902600530366499e+02
1.240000000000000000e+02 3.514619957369613985e+02
1.244000000000000057e+02 3.509362481658232582e+02
1.248000000000000114e+02 3.504129970212505327e+02
1.252000000000000028e+02 3.498922222161194782e+02
1.256000000000000085e+02 3.493739038911606940e+02
1.260000000000000000e+02 3.488580224116258819e+02
1.264000000000000057e+02 3.483445583640140057e+02
1.268000000000000114e+02 3.478334925528561143e+02
1.272000000000000028e+02 3.473248059975578599e+02
1.276000000000000085e+02 3.468184799292967568e+02
1.280000000000000000e+02 3.463144957879753747e+02
1.284000000000000057e+02 3.458128352192278498e+02
1.288000000000000114e+02 3.453134800714783523e+02
1.291999999999999886e+02 3.448164123930521328e+02
1.296000000000000227e+02 3.443216144293353409e+02
1.300000000000000000e+02 3.438290686199865149e+02
1.304000000000000057e+02 3.433387575961936591e+02
1.308000000000000114e+02 3.428506641779806614e+02
1.311999999999999886e+02 3.423647713715598115e+02
1.316000000000000227e+02 3.418810623667284290e+02
1.320000000000000000e+02 3.413995205343118187e+02
1.324000000000000057e+02 3.409201294236486888e+02
1.328000000000000114e+02 3.404428727601194851e+02
1.331999999999999886e+02 3.399677344427168464e+02
1.336000000000000227e+02 3.394946985416566463e+02
1.340000000000000000e+02 3.390237492960300187e+02
1.344000000000000057e+02 3.385548711114942648e+02
1.348000000000000114e+02 3.380880485580020149e+02
1.351999999999999886e+02 3.376232663675691015e+02
1.356000000000000227e+02 3.371605094320790386e+02
1.360000000000000000e+02 3.366997628011241090e+02
1.364000000000000057e+02 3.362410116798819217e+02
1.368000000000000114e+02 3.357842414270270410e+02
1.371999999999999886e+02 3.353294375526772342e+02
1.376000000000000227e+02 3.348765857163724604e+02
1.380000000000000000e+02 3.344256717250883639e+02
1.384000000000000057e+02 3.339766815312801782e+02
1.388000000000000114e+02 3.335296012309601679e+02
1.392000000000000171e+02 3.330844170618050839e+02
1.395999999999999943e+02 3.326411154012944280e+02
1.400000000000000000e+02 3.321996827648788440e+02
1.404000000000000057e+02 3.317601058041774422e+02
1.408000000000000114e+02 3.313223713052046833e+02
1.412000000000000171e+02 3.308864661866245456e+02
1.415999999999999943e+02 3.304523774980333997e+02
1.420000000000000000e+02 3.300200924182694280e+02
1.424000000000000057e+02 3.295895982537488180e+02
1.428000000000000114e+02 3.291608824368287856e+02
1.432000000000000171e+02 3.287339325241955521e+02
1.435999999999999943e+02 3.283087361952777314e+02
1.440000000000000000e+02 3.278852812506850114e+02
1.444000000000000057e+02 3.274635556106704257e+02
1.448000000000000114e+02 3.270435473136170117e+02
1.452000000000000171e+02 3.266252445145478305e+02
1.455999999999999943e+02 3.262086354836586111e+02
1.460000000000000000e+02 3.257937086048735296e+02
1.464000000000000057e+02 3.253804523744224753e+02
1.468000000000000114e+02 3.249688553994413382e+02
1.472000000000000171e+02 3.245589063965917376e+02
1.475999999999999943e+02 3.241505941907036572e+02
1.480000000000000000e+02 3.237439077134376930e+02
1.484000000000000057e+02 3.233388360019673087e+02
1.488000000000000114e+02 3.229353681976821235e+02
1.492000000000000171e+02 3.225334935449092200e+02
1.495999999999999943e+02 3.221332013896550848e+02
1.500000000000000000e+02 3.217344811783651721e+02
