1.000000000000000000e+01 1.036055944808884419e+02
1.040000000000000036e+01 1.003986147000289151e+02
1.080000000000000071e+01 9.897566716138169340e+01
1.119999999999999929e+01 9.567848653103322931e+01
1.159999999999999964e+01 9.281149914374262266e+01
1.200000000000000000e+01 9.021375553912562850e+01
1.240000000000000036e+01 8.784340873599811061e+01
1.280000000000000071e+01 8.566746695094896324e+01
1.319999999999999929e+01 8.365945907662421632e+01
1.359999999999999964e+01 8.181679566015201033e+01
1.400000000000000000e+01 8.019189263532788914e+01
1.440000000000000036e+01 7.866836766918680723e+01
1.480000000000000071e+01 7.649883518184506670e+01
1.519999999999999929e+01 7.492359831353891764e+01
1.560000000000000142e+01 7.344232807029000298e+01
1.600000000000000000e+01 7.204563965154434868e+01
1.639999999999999858e+01 7.072544683244785801e+01
1.680000000000000071e+01 6.947473464356275485e+01
1.719999999999999929e+01 6.828737973130054684e+01
1.760000000000000142e+01 6.715800684327932402e+01
1.800000000000000000e+01 6.608187303593031459e+01
1.839999999999999858e+01 6.507315019115294774e+01
1.880000000000000071e+01 6.286562423074811079e+01
1.920000000000000284e+01 6.214893543206784443e+01
1.960000000000000142e+01 6.145993845965254110e+01
2.000000000000000000e+01 6.079682325395344833e+01
2.039999999999999858e+01 6.015794500301257131e+01
2.080000000000000071e+01 5.954180494172477722e+01
2.120000000000000284e+01 5.894703384031935656e+01
2.160000000000000142e+01 5.837237774396712098e+01
2.200000000000000000e+01 5.781668560636496323e+01
2.239999999999999858e+01 5.727889852444829444e+01
2.280000000000000071e+01 5.675804033278679128e+01
2.320000000000000284e+01 5.625320935757113716e+01
2.360000000000000142e+01 5.576357116355522692e+01
2.400000000000000000e+01 5.528447548621377905e+01
2.439999999999999858e+01 5.388747366931313110e+01
2.480000000000000071e+01 5.342233893260309685e+01
2.520000000000000284e+01 5.297007787365510012e+01
2.560000000000000142e+01 5.253008291008953279e+01
2.600000000000000000e+01 5.210178660614681689e+01
2.640000000000000213e+01 5.168465828853616983e+01
2.680000000000000071e+01 5.127820100703026185e+01
2.719999999999999929e+01 5.088194879883732114e+01
2.760000000000000142e+01 5.049546422132242185e+01
2.800000000000000000e+01 5.011833612235261626e+01
2.840000000000000213e+01 4.975017762154574541e+01
2.880000000000000071e+01 4.939062427912502073e+01
2.920000000000000284e+01 4.903933243201264247e+01
2.960000000000000142e+01 4.869597767931587384e+01
3.000000000000000000e+01 4.836025350152850422e+01
3.040000000000000213e+01 4.803021129292666558e+01
3.080000000000000071e+01 4.769062893933995895e+01
3.120000000000000284e+01 4.735848590762347499e+01
3.160000000000000142e+01 4.703349949448084999e+01
3.200000000000000000e+01 4.431968651353827937e+01
3.240000000000000568e+01 4.398884938263036304e+01
3.279999999999999716e+01 4.366503649252985042e+01
3.320000000000000284e+01 4.334799578757911576e+01
3.360000000000000142e+01 4.303748782802844630e+01
3.400000000000000000e+01 4.273328498496464789e+01
3.440000000000000568e+01 4.243517069741086090e+01
3.479999999999999716e+01 4.214293878598232368e+01
3.520000000000000284e+01 4.185639281806219714e+01
3.560000000000000142e+01 4.157534551997365213e+01
3.600000000000000000e+01 4.129961823207740679e+01
3.640000000000000568e+01 4.102904040312724732e+01
3.679999999999999716e+01 4.076344912057357561e+01
3.720000000000000284e+01 4.050268867382366977e+01
3.760000000000000142e+01 4.024661014775237078e+01
3.800000000000000000e+01 4.029656545658613709e+01
3.840000000000000568e+01 4.005713178018505971e+01
3.879999999999999716e+01 3.982189226962724149e+01
3.920000000000000284e+01 3.959072260550064470e+01
3.960000000000000142e+01 3.936292933884301704e+01
4.000000000000000000e+01 3.913593936641584037e+01
4.040000000000000568e+01 3.891274631419680929e+01
4.079999999999999716e+01 3.869324254269730545e+01
4.120000000000000284e+01 3.847732467502127207e+01
4.160000000000000142e+01 3.826489338151977648e+01
4.200000000000000000e+01 3.805585317761848074e+01
4.239999999999999858e+01 3.785011223387463275e+01
4.280000000000000426e+01 3.764758219739797340e+01
4.320000000000000284e+01 3.744817802383936112e+01
4.360000000000000142e+01 3.725181781921523338e+01
4.400000000000000000e+01 3.705842269089355767e+01
4.439999999999999858e+01 3.686791660712008678e+01
4.480000000000000426e+01 3.668022626451143964e+01
4.520000000000000284e+01 3.649496342475776345e+01
4.560000000000000142e+01 3.631155939337070038e+01
4.600000000000000000e+01 3.613072480959868926e+01
4.639999999999999858e+01 3.595239986179988279e+01
4.680000000000000426e+01 3.577652668123347013e+01
4.720000000000000284e+01 3.560304926121559532e+01
4.760000000000000142e+01 3.543191338036837124e+01
4.800000000000000000e+01 3.526306652971839384e+01
4.840000000000000568e+01 3.509645784341766728e+01
4.880000000000000426e+01 3.493203803287536857e+01
4.920000000000000284e+01 3.476975932410285708e+01
4.960000000000000142e+01 3.465319350231668238e+01
5.000000000000000000e+01 3.449886497927418105e+01
5.040000000000000568e+01 3.434649316589900536e+01
5.080000000000000426e+01 3.419603687869611264e+01
5.120000000000000284e+01 3.404745614436818357e+01
5.160000000000000142e+01 3.390071215421910722e+01
5.200000000000000000e+01 3.375576722065011381e+01
5.240000000000000568e+01 3.361258473563553650e+01
5.280000000000000426e+01 3.347112913107218191e+01
5.320000000000000284e+01 3.333136584090267718e+01
5.360000000000000142e+01 3.319326126491955620e+01
5.400000000000000000e+01 3.295233962666756611e+01
5.440000000000000568e+01 3.282179665965754367e+01
5.480000000000000426e+01 3.269273129287293500e+01
5.520000000000000284e+01 3.256511560727368959e+01
5.560000000000000142e+01 3.243892242273633286e+01
5.600000000000000000e+01 3.231412527290475367e+01
5.640000000000000568e+01 3.219069838108666204e+01
5.680000000000000426e+01 3.206861663714396116e+01
5.720000000000000284e+01 3.194785557532908626e+01
5.760000000000000142e+01 3.182839135302131695e+01
5.800000000000000000e+01 3.171020073032016739e+01
5.840000000000000568e+01 3.159326105045489541e+01
5.880000000000000426e+01 3.147755022097188515e+01
5.920000000000000284e+01 3.136281230229155526e+01
5.960000000000000142e+01 3.124837691447838495e+01
6.000000000000000000e+01 3.113511819809863823e+01
6.040000000000000568e+01 3.102301597832768110e+01
6.080000000000000426e+01 3.091205056414907659e+01
6.120000000000000284e+01 3.080220273345163662e+01
6.160000000000000142e+01 3.069345371868678995e+01
6.200000000000000000e+01 3.058578519306129806e+01
6.240000000000000568e+01 3.042998205054955463e+01
6.280000000000000426e+01 3.032710220333919438e+01
6.320000000000000284e+01 3.022521475274324843e+01
6.360000000000000142e+01 3.012430335140934545e+01
6.400000000000000000e+01 3.002435203146362497e+01
6.440000000000000568e+01 2.992534519319187325e+01
6.480000000000001137e+01 2.982726759413169759e+01
6.520000000000000284e+01 2.973010433855837675e+01
6.559999999999999432e+01 2.963384086734748735e+01
6.600000000000000000e+01 2.953846294819856411e+01
6.640000000000000568e+01 2.944395666620457419e+01
6.680000000000001137e+01 2.935030841475292362e+01
6.720000000000000284e+01 2.925750488674416516e+01
6.759999999999999432e+01 2.916553306611542951e+01
6.800000000000000000e+01 2.907438021965614894e+01
6.840000000000000568e+01 2.898403388910419309e+01
6.880000000000001137e+01 2.889448188351110147e+01
6.920000000000000284e+01 2.880571227186565153e+01
6.959999999999999432e+01 2.871771337596545948e+01
7.000000000000000000e+01 2.863047376352685092e+01
7.040000000000000568e+01 2.854398224152359731e+01
7.080000000000001137e+01 2.845822784974544462e+01
7.120000000000000284e+01 2.838695580136973717e+01
7.159999999999999432e+01 2.830414931495130304e+01
7.200000000000000000e+01 2.822203370048656268e+01
7.240000000000000568e+01 2.814059909576329943e+01
7.280000000000001137e+01 2.817665560531964530e+01
7.320000000000000284e+01 2.809744179308601630e+01
7.359999999999999432e+01 2.801886557968423119e+01
7.400000000000000000e+01 2.794091817895875351e+01
7.440000000000000568e+01 2.786359097541976126e+01
7.479999999999999716e+01 2.778687551998427807e+01
7.520000000000000284e+01 2.771076352584668712e+01
7.560000000000000853e+01 2.763524686447396306e+01
7.600000000000000000e+01 2.756031756172133385e+01
7.640000000000000568e+01 2.748596779406389246e+01
7.679999999999999716e+01 2.741218988494028252e+01
7.720000000000000284e+01 2.733897630120446820e+01
7.760000000000000853e+01 2.726631964968179744e+01
7.800000000000000000e+01 2.719421267382579899e+01
7.840000000000000568e+01 2.712264825047224548e+01
7.879999999999999716e+01 2.705161938668712196e+01
7.920000000000000284e+01 2.698089407973449028e+01
7.960000000000000853e+01 2.690853991249307597e+01
8.000000000000000000e+01 2.683673155827845136e+01
8.040000000000000568e+01 2.676546197266757332e+01
8.079999999999999716e+01 2.669472423955026841e+01
8.120000000000000284e+01 2.662451156812187492e+01
8.160000000000000853e+01 2.655481728996178958e+01
8.200000000000000000e+01 2.648563485619515490e+01
8.240000000000000568e+01 2.641695783473467429e+01
8.279999999999999716e+01 2.634841364442767286e+01
8.320000000000000284e+01 2.628034273506759888e+01
8.360000000000000853e+01 2.621410526617589909e+01
8.400000000000000000e+01 2.614834807717772946e+01
8.440000000000000568e+01 2.608306532897856300e+01
8.479999999999999716e+01 2.601825128186856517e+01
8.520000000000000284e+01 2.595390029334914672e+01
8.560000000000000853e+01 2.589000681601756781e+01
8.600000000000000000e+01 2.582656539550784203e+01
8.640000000000000568e+01 2.576357066848591515e+01
8.680000000000001137e+01 2.570101736069777587e+01
8.720000000000000284e+01 2.563890028506851593e+01
8.760000000000000853e+01 2.557721433985106074e+01
8.800000000000000000e+01 2.551595450682277999e+01
8.840000000000000568e+01 2.545511584952873463e+01
8.880000000000001137e+01 2.539469351156997590e+01
8.920000000000000284e+01 2.533468271493562440e+01
8.960000000000000853e+01 2.527507875837739348e+01
9.000000000000000000e+01 2.521587701582519969e+01
9.040000000000000568e+01 2.515707293484285856e+01
9.080000000000001137e+01 2.509866203512227756e+01
9.120000000000000284e+01 2.504063990701548903e+01
9.160000000000000853e+01 2.498300221010301669e+01
9.200000000000000000e+01 2.492574467179770181e+01
9.240000000000000568e+01 2.486886308598289119e+01
9.280000000000001137e+01 2.481235331168402070e+01
9.320000000000000284e+01 2.475621127177264924e+01
9.360000000000000853e+01 2.470043295170190589e+01
9.400000000000000000e+01 2.464501439827253648e+01
9.440000000000000568e+01 2.458995171842872196e+01
9.480000000000001137e+01 2.443876399710570269e+01
9.520000000000000284e+01 2.438511772789076559e+01
9.560000000000000853e+01 2.433181486487424650e+01
9.600000000000000000e+01 2.427885171875502124e+01
9.640000000000000568e+01 2.422933204049117251e+01
9.680000000000001137e+01 2.417775697215122221e+01
9.720000000000000284e+01 2.412650506506005144e+01
9.760000000000000853e+01 2.407557291807745870e+01
9.800000000000000000e+01 2.402495718031480010e+01
9.840000000000000568e+01 2.397465455017875868e+01
9.880000000000001137e+01 2.392466177443732889e+01
9.920000000000000284e+01 2.387497564730746547e+01
9.960000000000000853e+01 2.382559300956382486e+01
1.000000000000000000e+02 2.377651074766789208e+01
1.004000000000000057e+02 2.372772579291711637e+01
1.008000000000000114e+02 2.367923512061349811e+01
1.012000000000000028e+02 2.372480509109674784e+01
1.016000000000000085e+02 2.367819621728724044e+01
1.020000000000000000e+02 2.363186084624706851e+01
1.024000000000000057e+02 2.358579627548209956e+01
1.028000000000000114e+02 2.353999983999831258e+01
1.032000000000000028e+02 2.349446891163161766e+01
1.036000000000000085e+02 2.344920089839228439e+01
1.040000000000000000e+02 2.340419324382371258e+01
1.044000000000000057e+02 2.335944342637504079e+01
1.048000000000000114e+02 2.331494895878736173e+01
1.052000000000000028e+02 2.327070738749315026e+01
1.056000000000000085e+02 2.322671629202850596e+01
1.060000000000000000e+02 2.318297328445799721e+01
1.064000000000000057e+02 2.313885353751355112e+01
1.068000000000000114e+02 2.309368134375634085e+01
1.072000000000000028e+02 2.304875391943841834e+01
1.076000000000000085e+02 2.300406898768164865e+01
1.080000000000000000e+02 2.295962430160984269e+01
1.084000000000000057e+02 2.291541764383825708e+01
1.088000000000000114e+02 2.287144682597367762e+01
1.092000000000000028e+02 2.282770968812483048e+01
1.096000000000000085e+02 2.278420409842297545e+01
1.100000000000000000e+02 2.274065241342091426e+01
1.104000000000000057e+02 2.269730767791202908e+01
1.108000000000000114e+02 2.265419015981581197e+01
1.112000000000000028e+02 2.261129781463486665e+01
1.116000000000000085e+02 2.256862862392956970e+01
1.120000000000000000e+02 2.252618059488914781e+01
1.124000000000000057e+02 2.248395175991136341e+01
1.128000000000000114e+02 2.244194017619065917e+01
1.132000000000000028e+02 2.240014392531455201e+01
1.136000000000000085e+02 2.235856111286798509e+01
1.140000000000000000e+02 2.231718986804564508e+01
1.144000000000000057e+02 2.227602834327184667e+01
1.148000000000000114e+02 2.223507471382793099e+01
1.152000000000000028e+02 2.219432717748700057e+01
1.156000000000000085e+02 2.215378395415573110e+01
1.160000000000000000e+02 2.211344328552328875e+01
1.164000000000000057e+02 2.207330343471687684e+01
1.168000000000000114e+02 2.203336268596412140e+01
1.172000000000000028e+02 2.199361934426186949e+01
1.176000000000000085e+02 2.195407173505134324e+01
1.180000000000000000e+02 2.191471820389956804e+01
1.184000000000000057e+02 2.187555711618682253e+01
1.188000000000000114e+02 2.192760283494877527e+01
1.192000000000000028e+02 2.188957730643910793e+01
1.196000000000000085e+02 2.185173667338080961e+01
1.200000000000000000e+02 2.181407939681638197e+01
1.204000000000000057e+02 2.177660395591492204e+01
1.208000000000000114e+02 2.173930884769659144e+01
1.212000000000000028e+02 2.170219258676199559e+01
1.216000000000000085e+02 2.166525370502674974e+01
1.220000000000000000e+02 2.162849075146080935e+01
1.224000000000000057e+02 2.159190229183271725e+01
1.228000000000000114e+02 2.155548690845848370e+01
1.232000000000000028e+02 2.151922831483997101e+01
1.236000000000000085e+02 2.148309429626242917e+01
1.240000000000000000e+02 2.144712902896342399e+01
1.244000000000000057e+02 2.141133116540932946e+01
1.248000000000000114e+02 2.137569937328940028e+01
1.252000000000000028e+02 2.134475193945596772e+01
1.256000000000000085e+02 2.130985023580270621e+01
1.260000000000000000e+02 2.127510860947416660e+01
1.264000000000000057e+02 2.124052580514655730e+01
1.268000000000000114e+02 2.120610058142875687e+01
1.272000000000000028e+02 2.117183171066259106e+01
1.276000000000000085e+02 2.113771797872660940e+01
1.280000000000000000e+02 2.110375818484328647e+01
1.284000000000000057e+02 2.106995114138955927e+01
1.288000000000000114e+02 2.103629567371071118e+01
1.291999999999999886e+02 2.100279061993741081e+01
1.296000000000000227e+02 2.096943483080598014e+01
1.300000000000000000e+02 2.093622716948170748e+01
1.304000000000000057e+02 2.090316651138519077e+01
1.308000000000000114e+02 2.087025174402167593e+01
1.311999999999999886e+02 2.083748176681329056e+01
1.316000000000000227e+02 2.080573978079439001e+01
1.320000000000000000e+02 2.077428982225154641e+01
1.324000000000000057e+02 2.074298063229255717e+01
1.328000000000000114e+02 2.071181115030455189e+01
1.331999999999999886e+02 2.068078032688711687e+01
1.336000000000000227e+02 2.064988712369974877e+01
1.340000000000000000e+02 2.061913051331193358e+01
1.344000000000000057e+02 2.058850947905562734e+01
1.348000000000000114e+02 2.055802301488025918e+01
1.351999999999999886e+02 2.052767012521007928e+01
1.356000000000000227e+02 2.049744982480381239e+01
1.360000000000000000e+02 2.046736113861673800e+01
1.364000000000000057e+02 2.043740310166484164e+01
1.368000000000000114e+02 2.040757475889132522e+01
1.371999999999999886e+02 2.037787516503523477e+01
1.376000000000000227e+02 2.034830338450215592e+01
1.380000000000000000e+02 2.031885849123711907e+01
1.384000000000000057e+02 2.028953956859942309e+01
1.388000000000000114e+02 2.026034570923954803e+01
1.392000000000000171e+02 2.023127601497798977e+01
1.395999999999999943e+02 2.020232959668606298e+01
1.400000000000000000e+02 2.017350557416855139e+01
1.404000000000000057e+02 2.014480307604829079e+01
1.408000000000000114e+02 2.011608618116788705e+01
1.412000000000000171e+02 2.008748446397085274e+01
1.415999999999999943e+02 2.005900229070248741e+01
1.420000000000000000e+02 2.003063881996268591e+01
1.424000000000000057e+02 2.000239321865975484e+01
1.428000000000000114e+02 1.997426466190489691e+01
1.432000000000000171e+02 1.994625233290832256e+01
1.435999999999999943e+02 1.991835542287700989e+01
1.440000000000000000e+02 1.989057313091396395e+01
1.444000000000000057e+02 1.986290466391913867e+01
1.448000000000000114e+02 1.983534923649175852e+01
1.452000000000000171e+02 1.980790607083423538e+01
1.455999999999999943e+02 1.970455588138056413e+01
1.460000000000000000e+02 1.967749153594385092e+01
1.464000000000000057e+02 1.965053562464745340e+01
1.468000000000000114e+02 1.962368741433253660e+01
1.472000000000000171e+02 1.959694617880273881e+01
1.475999999999999943e+02 1.957031119873906988e+01
1.480000000000000000e+02 1.954378176161609915e+01
1.484000000000000057e+02 1.951735716161932999e+01
1.488000000000000114e+02 1.949103669956394924e+01
1.492000000000000171e+02 1.945608056877101077e+01
1.495999999999999943e+02 1.943026747089434991e+01
1.500000000000000000e+02 1.940455493739367299e+01
