1.000000000000000000e+01 3.476670969082600777e+02
1.040000000000000036e+01 3.695724742639370106e+02
1.080000000000000071e+01 3.901092737553034340e+02
1.119999999999999929e+01 4.279462939660545544e+02
1.159999999999999964e+01 4.445724712483115582e+02
1.200000000000000000e+01 4.429854382731543865e+02
1.240000000000000036e+01 4.402599490679103837e+02
1.280000000000000071e+01 4.394788087036999968e+02
1.319999999999999929e+01 4.374840411040563595e+02
1.359999999999999964e+01 4.403759883413607099e+02
1.400000000000000000e+01 4.371865603674627891e+02
1.440000000000000036e+01 4.298068431809538197e+02
1.480000000000000071e+01 4.228562760739039277e+02
1.519999999999999929e+01 4.162919667563300550e+02
1.560000000000000142e+01 4.100770677865933749e+02
1.600000000000000000e+01 4.041796838389230970e+02
1.639999999999999858e+01 3.985720184149374745e+02
1.680000000000000071e+01 3.932296987820961363e+02
1.719999999999999929e+01 3.881312356833956301e+02
1.760000000000000142e+01 3.832575863976932169e+02
1.800000000000000000e+01 3.785917980568819985e+02
1.839999999999999858e+01 3.741187139954084842e+02
1.880000000000000071e+01 3.698247301142849324e+02
1.920000000000000284e+01 3.656975913024542706e+02
1.960000000000000142e+01 3.617262202159264461e+02
2.000000000000000000e+01 3.579005724010920630e+02
2.039999999999999858e+01 3.542115130221608865e+02
2.080000000000000071e+01 3.506507114247858681e+02
2.120000000000000284e+01 3.472105505171423374e+02
2.160000000000000142e+01 3.438840485323401026e+02
2.200000000000000000e+01 3.406647911928535564e+02
2.239999999999999858e+01 3.375468726586191792e+02
2.280000000000000071e+01 3.345248439277213492e+02
2.320000000000000284e+01 3.315936675887768956e+02
2.360000000000000142e+01 3.287486780097368637e+02
2.400000000000000000e+01 3.259855461983833038e+02
2.439999999999999858e+01 3.233002486926141046e+02
2.480000000000000071e+01 3.206890399393235498e+02
2.520000000000000284e+01 3.181484277036912545e+02
2.560000000000000142e+01 3.156751511194271416e+02
2.600000000000000000e+01 3.132661610477001659e+02
2.640000000000000213e+01 3.109186024602375937e+02
2.680000000000000071e+01 3.086297986021500606e+02
2.719999999999999929e+01 3.063972367237741992e+02
2.760000000000000142e+01 3.042185551993362651e+02
2.800000000000000000e+01 3.020915318744282558e+02
2.840000000000000213e+01 3.000140735048687475e+02
2.880000000000000071e+01 2.979842061670945554e+02
2.920000000000000284e+01 2.960000665352838496e+02
2.960000000000000142e+01 2.940598939333361841e+02
3.000000000000000000e+01 2.921620230809795657e+02
3.040000000000000213e+01 2.903048774628923638e+02
3.080000000000000071e+01 2.884869632580666803e+02
3.120000000000000284e+01 2.867068637738742609e+02
3.160000000000000142e+01 2.849632343355980311e+02
3.200000000000000000e+01 2.832547975876901774e+02
3.240000000000000568e+01 2.815803391678237517e+02
3.279999999999999716e+01 2.799387037190221008e+02
3.320000000000000284e+01 2.783287912088468374e+02
3.360000000000000142e+01 2.767495535278904981e+02
3.400000000000000000e+01 2.751999913426847115e+02
3.440000000000000568e+01 2.736791511806823678e+02
3.479999999999999716e+01 2.721861227272130463e+02
3.520000000000000284e+01 2.707200363163094039e+02
3.560000000000000142e+01 2.692800605990703389e+02
3.600000000000000000e+01 2.678654003748058585e+02
3.640000000000000568e+01 2.664752945716109025e+02
3.679999999999999716e+01 2.651090143642732642e+02
3.720000000000000284e+01 2.637658614185401689e+02
3.760000000000000142e+01 2.624451662517748787e+02
3.800000000000000000e+01 2.611462867009352635e+02
3.840000000000000568e+01 2.598686064896173775e+02
3.879999999999999716e+01 2.586115338866326283e+02
3.920000000000000284e+01 2.573745004492466251e+02
3.960000000000000142e+01 2.561569598447982230e+02
4.000000000000000000e+01 2.549583867449497916e+02
4.040000000000000568e+01 2.537782757873071660e+02
4.079999999999999716e+01 2.526161405995800919e+02
4.120000000000000284e+01 2.514715128818558867e+02
4.160000000000000142e+01 2.503439415429148198e+02
4.200000000000000000e+01 2.492329918868440473e+02
4.239999999999999858e+01 2.481382448465055006e+02
4.280000000000000426e+01 2.470592962606823448e+02
4.320000000000000284e+01 2.459957561919755733e+02
4.360000000000000142e+01 2.449472482827491717e+02
4.400000000000000000e+01 2.439134091466248435e+02
4.439999999999999858e+01 2.428938877932195908e+02
4.480000000000000426e+01 2.418883450839873035e+02
4.520000000000000284e+01 2.408964532171861492e+02
4.560000000000000142e+01 2.399178952401367440e+02
4.600000000000000000e+01 2.389523645870690416e+02
4.639999999999999858e+01 2.379995646409780363e+02
4.680000000000000426e+01 2.370592083180196141e+02
4.720000000000000284e+01 2.361310176730822832e+02
4.760000000000000142e+01 2.352147235252635085e+02
4.800000000000000000e+01 2.343100651020690748e+02
4.840000000000000568e+01 2.334167897012327444e+02
4.880000000000000426e+01 2.325346523691290486e+02
4.920000000000000284e+01 2.316634155948205773e+02
4.960000000000000142e+01 2.308028490188439150e+02
5.000000000000000000e+01 2.299527291558995898e+02
5.040000000000000568e+01 2.291128391306624508e+02
5.080000000000000426e+01 2.282829684259827445e+02
5.120000000000000284e+01 2.274629126427920482e+02
5.160000000000000142e+01 2.266524732710749959e+02
5.200000000000000000e+01 2.258514574713037746e+02
5.240000000000000568e+01 2.250596778657740629e+02
5.280000000000000426e+01 2.242769523393134534e+02
5.320000000000000284e+01 2.235031038488656350e+02
5.360000000000000142e+01 2.227379602414859505e+02
5.400000000000000000e+01 2.219813540803091598e+02
5.440000000000000568e+01 2.212331224780789682e+02
5.480000000000000426e+01 2.204931069378517350e+02
5.520000000000000284e+01 2.197611532005094830e+02
5.560000000000000142e+01 2.190371110987404677e+02
5.600000000000000000e+01 2.183208344171625868e+02
5.640000000000000568e+01 2.176121807582862289e+02
5.680000000000000426e+01 2.169110114140282803e+02
5.720000000000000284e+01 2.162171912425071127e+02
5.760000000000000142e+01 2.155305885498619318e+02
5.800000000000000000e+01 2.148510749768555854e+02
5.840000000000000568e+01 2.141785253900323482e+02
5.880000000000000426e+01 2.135128177772148206e+02
5.920000000000000284e+01 2.128538331471360721e+02
5.960000000000000142e+01 2.122014554330146154e+02
6.000000000000000000e+01 2.115555713998884926e+02
6.040000000000000568e+01 2.109160705555369759e+02
6.080000000000000426e+01 2.102828450648248122e+02
6.120000000000000284e+01 2.096557896673151333e+02
6.160000000000000142e+01 2.090348015980032983e+02
6.200000000000000000e+01 2.084197805110320019e+02
6.240000000000000568e+01 2.078106284062561144e+02
6.280000000000000426e+01 2.072072495585312026e+02
6.320000000000000284e+01 2.066095504496067861e+02
6.360000000000000142e+01 2.060174397025109556e+02
6.400000000000000000e+01 2.054308280183192039e+02
6.440000000000000568e+01 2.048496281152050074e+02
6.480000000000001137e+01 2.042737546696751565e+02
6.520000000000000284e+01 2.037031242598971517e+02
6.559999999999999432e+01 2.031376553110314660e+02
6.600000000000000000e+01 2.025772680424841496e+02
6.640000000000000568e+01 2.020218844170013881e+02
6.680000000000001137e+01 2.014714280915282814e+02
6.720000000000000284e+01 2.009258243697618411e+02
6.759999999999999432e+01 2.003850001563275782e+02
6.800000000000000000e+01 1.998488839125153049e+02
6.840000000000000568e+01 1.993174056135106866e+02
6.880000000000001137e+01 1.987904967070633404e+02
6.920000000000000284e+01 1.982680900735347223e+02
6.959999999999999432e+01 1.977501199872708071e+02
7.000000000000000000e+01 1.972365220792485161e+02
7.040000000000000568e+01 1.967272333009454996e+02
7.080000000000001137e+01 1.962221918893869770e+02
7.120000000000000284e+01 1.957213373333231061e+02
7.159999999999999432e+01 1.952246103404951327e+02
7.200000000000000000e+01 1.947319528059476852e+02
7.240000000000000568e+01 1.942433077813487898e+02
7.280000000000001137e+01 1.937586194452788675e+02
7.320000000000000284e+01 1.932778330744536106e+02
7.359999999999999432e+01 1.928008950158448442e+02
7.400000000000000000e+01 1.923277526596673965e+02
7.440000000000000568e+01 1.918583544131998906e+02
7.479999999999999716e+01 1.913926496754086770e+02
7.520000000000000284e+01 1.909305888123460022e+02
7.560000000000000853e+01 1.904721231332952698e+02
7.600000000000000000e+01 1.900172048676352574e+02
7.640000000000000568e+01 1.895657871423990173e+02
7.679999999999999716e+01 1.891178239605016529e+02
7.720000000000000284e+01 1.886732701796146898e+02
7.760000000000000853e+01 1.882320814916631946e+02
7.800000000000000000e+01 1.877942144029247515e+02
7.840000000000000568e+01 1.873596262147088964e+02
7.879999999999999716e+01 1.869282750045977650e+02
7.920000000000000284e+01 1.865001196082276351e+02
7.960000000000000853e+01 1.860751196015941105e+02
8.000000000000000000e+01 1.856532352838620454e+02
8.040000000000000568e+01 1.852344276606642666e+02
8.079999999999999716e+01 1.848186584278718669e+02
8.120000000000000284e+01 1.844058899558206690e+02
8.160000000000000853e+01 1.839960852739789061e+02
8.200000000000000000e+01 1.835892080560412865e+02
8.240000000000000568e+01 1.831852226054351149e+02
8.279999999999999716e+01 1.827840938412261949e+02
8.320000000000000284e+01 1.823857872844097585e+02
8.360000000000000853e+01 1.819902690445755979e+02
8.400000000000000000e+01 1.815975058069344641e+02
8.440000000000000568e+01 1.812074648196943940e+02
8.479999999999999716e+01 1.808201138817756828e+02
8.520000000000000284e+01 1.804354213308541262e+02
8.560000000000000853e+01 1.800533560317217621e+02
8.600000000000000000e+01 1.796738873649551351e+02
8.640000000000000568e+01 1.792969852158825006e+02
8.680000000000001137e+01 1.789226199638385992e+02
8.720000000000000284e+01 1.785507624717004944e+02
8.760000000000000853e+01 1.781813840756937566e+02
8.800000000000000000e+01 1.778144565754627706e+02
8.840000000000000568e+01 1.774499522243946217e+02
8.880000000000001137e+01 1.770878437201912732e+02
8.920000000000000284e+01 1.767281041956812544e+02
8.960000000000000853e+01 1.763707072098636388e+02
9.000000000000000000e+01 1.760156267391778897e+02
9.040000000000000568e+01 1.756628371689924677e+02
9.080000000000001137e+01 1.753123132853062316e+02
9.120000000000000284e+01 1.749640302666553566e+02
9.160000000000000853e+01 1.746179636762205973e+02
9.200000000000000000e+01 1.742740894541293528e+02
9.240000000000000568e+01 1.739323839099454005e+02
9.280000000000001137e+01 1.735928237153424902e+02
9.320000000000000284e+01 1.732553858969554597e+02
9.360000000000000853e+01 1.729200478294042398e+02
9.400000000000000000e+01 1.725867872284857754e+02
9.440000000000000568e+01 1.722555821445286028e+02
9.480000000000001137e+01 1.719264109559064764e+02
9.520000000000000284e+01 1.715992523627054425e+02
9.560000000000000853e+01 1.712740853805409529e+02
9.600000000000000000e+01 1.709508893345202409e+02
9.640000000000000568e+01 1.706296438533460105e+02
9.680000000000001137e+01 1.703103288635582260e+02
9.720000000000000284e+01 1.699929245839088594e+02
9.760000000000000853e+01 1.696774115198672064e+02
9.800000000000000000e+01 1.693637704582516790e+02
9.840000000000000568e+01 1.690519824619844371e+02
9.880000000000001137e+01 1.687420288649657891e+02
9.920000000000000284e+01 1.684338912670654054e+02
9.960000000000000853e+01 1.681275515292264231e+02
1.000000000000000000e+02 1.678229917686803390e+02
1.004000000000000057e+02 1.675201943542688809e+02
1.008000000000000114e+02 1.672191419018708416e+02
1.012000000000000028e+02 1.669198172699303200e+02
1.016000000000000085e+02 1.666222035550844112e+02
1.020000000000000000e+02 1.663262840878871884e+02
1.024000000000000057e+02 1.660320424286275340e+02
1.028000000000000114e+02 1.657394623632390562e+02
1.032000000000000028e+02 1.654485278992987389e+02
1.036000000000000085e+02 1.651592232621123628e+02
1.040000000000000000e+02 1.648715328908853053e+02
1.044000000000000057e+02 1.645854414349747117e+02
1.048000000000000114e+02 1.643009337502232938e+02
1.052000000000000028e+02 1.640179948953704354e+02
1.056000000000000085e+02 1.637366101285402920e+02
1.060000000000000000e+02 1.634567649038041566e+02
1.064000000000000057e+02 1.631784448678153012e+02
1.068000000000000114e+02 1.629016358565147868e+02
1.072000000000000028e+02 1.626263238919062246e+02
1.076000000000000085e+02 1.623524951788976409e+02
1.080000000000000000e+02 1.620801361022093658e+02
1.084000000000000057e+02 1.618092332233455863e+02
1.088000000000000114e+02 1.615397732776285125e+02
1.092000000000000028e+02 1.612717431712938208e+02
1.096000000000000085e+02 1.610051299786446179e+02
1.100000000000000000e+02 1.607399209392645503e+02
1.104000000000000057e+02 1.604761034552868182e+02
1.108000000000000114e+02 1.602136650887186988e+02
1.112000000000000028e+02 1.599525935588197569e+02
1.116000000000000085e+02 1.596928767395332898e+02
1.120000000000000000e+02 1.594345026569685047e+02
1.124000000000000057e+02 1.591774594869331736e+02
1.128000000000000114e+02 1.589217355525155995e+02
1.132000000000000028e+02 1.586673193217135918e+02
1.136000000000000085e+02 1.584141994051112192e+02
1.140000000000000000e+02 1.581623645536006393e+02
1.144000000000000057e+02 1.579118036561480949e+02
1.148000000000000114e+02 1.576625057376046186e+02
1.152000000000000028e+02 1.574144599565580904e+02
1.156000000000000085e+02 1.571676556032276153e+02
1.160000000000000000e+02 1.569220820973983450e+02
1.164000000000000057e+02 1.566777289863956071e+02
1.168000000000000114e+02 1.564345859430987105e+02
1.172000000000000028e+02 1.561926427639915005e+02
1.176000000000000085e+02 1.559518893672508852e+02
1.180000000000000000e+02 1.557123157908714006e+02
1.184000000000000057e+02 1.554739121908247057e+02
1.188000000000000114e+02 1.552366688392543779e+02
1.192000000000000028e+02 1.550005761227040466e+02
1.196000000000000085e+02 1.547656245403788660e+02
1.200000000000000000e+02 1.545318047024393309e+02
1.204000000000000057e+02 1.542991073283266417e+02
1.208000000000000114e+02 1.540675232451192755e+02
1.212000000000000028e+02 1.538370433859195145e+02
1.216000000000000085e+02 1.536076587882697595e+02
1.220000000000000000e+02 1.533793605925980046e+02
1.224000000000000057e+02 1.531521400406911653e+02
1.228000000000000114e+02 1.529259884741969131e+02
1.232000000000000028e+02 1.527008973331518575e+02
1.236000000000000085e+02 1.524768581545367283e+02
1.240000000000000000e+02 1.522538625708575637e+02
1.244000000000000057e+02 1.520319023087522510e+02
1.248000000000000114e+02 1.518109691876217369e+02
1.252000000000000028e+02 1.515910551182862207e+02
1.256000000000000085e+02 1.513721521016645681e+02
1.260000000000000000e+02 1.511542522274775138e+02
1.264000000000000057e+02 1.509373476729735160e+02
1.268000000000000114e+02 1.507214307016769794e+02
1.272000000000000028e+02 1.505064936621587890e+02
1.276000000000000085e+02 1.502925289868277900e+02
1.280000000000000000e+02 1.500795291907435569e+02
1.284000000000000057e+02 1.498674868704500227e+02
1.288000000000000114e+02 1.496563947028286066e+02
1.291999999999999886e+02 1.494462454439719750e+02
1.296000000000000227e+02 1.492370319280762487e+02
1.300000000000000000e+02 1.490287470663530769e+02
1.304000000000000057e+02 1.488213838459594456e+02
1.308000000000000114e+02 1.486149353289463875e+02
1.311999999999999886e+02 1.484093946512251989e+02
1.316000000000000227e+02 1.482047550215510228e+02
1.320000000000000000e+02 1.480010097205240527e+02
1.324000000000000057e+02 1.477981520996067673e+02
1.328000000000000114e+02 1.475961755801585014e+02
1.331999999999999886e+02 1.473950736524854221e+02
1.336000000000000227e+02 1.471948398749067621e+02
1.340000000000000000e+02 1.469954678728362296e+02
1.344000000000000057e+02 1.467969513378790793e+02
1.348000000000000114e+02 1.465992840269434510e+02
1.351999999999999886e+02 1.464024597613667993e+02
1.356000000000000227e+02 1.462064724260566493e+02
1.360000000000000000e+02 1.460113159686450217e+02
1.364000000000000057e+02 1.458169843986569276e+02
1.368000000000000114e+02 1.456234717866925052e+02
1.371999999999999886e+02 1.454307722636218045e+02
1.376000000000000227e+02 1.452388800197934415e+02
1.380000000000000000e+02 1.450477893042552751e+02
1.384000000000000057e+02 1.448574944239877595e+02
1.388000000000000114e+02 1.446679897431499455e+02
1.392000000000000171e+02 1.444792696823369340e+02
1.395999999999999943e+02 1.442913287178496944e+02
1.400000000000000000e+02 1.441041613809759099e+02
1.404000000000000057e+02 1.439177622572827318e+02
1.408000000000000114e+02 1.437321259859203337e+02
1.412000000000000171e+02 1.435472472589365225e+02
1.415999999999999943e+02 1.433631208206021483e+02
1.420000000000000000e+02 1.431797414667469184e+02
1.424000000000000057e+02 1.429971040441056971e+02
1.428000000000000114e+02 1.428152034496748684e+02
1.432000000000000171e+02 1.426340346300788724e+02
1.435999999999999943e+02 1.424535925809461503e+02
1.440000000000000000e+02 1.422738723462950361e+02
1.444000000000000057e+02 1.420948690179289429e+02
1.448000000000000114e+02 1.419165777348409279e+02
1.452000000000000171e+02 1.417389936826272105e+02
1.455999999999999943e+02 1.415621120929095014e+02
1.460000000000000000e+02 1.413859282427667097e+02
1.464000000000000057e+02 1.412104374541742686e+02
1.468000000000000114e+02 1.410356350934529246e+02
1.472000000000000171e+02 1.408615165707253425e+02
1.475999999999999943e+02 1.406880773393806123e+02
1.480000000000000000e+02 1.405153128955474244e+02
1.484000000000000057e+02 1.403432187775745490e+02
1.488000000000000114e+02 1.401717905655194443e+02
1.492000000000000171e+02 1.400010238806441407e+02
1.495999999999999943e+02 1.398309143849187137e+02
1.500000000000000000e+02 1.396614577805322881e+02
