1.000000000000000000e+01 1.608228575071184423e+02
1.040000000000000036e+01 1.745162257237633696e+02
1.080000000000000071e+01 1.907577486203128672e+02
1.119999999999999929e+01 2.006172528108841959e+02
1.159999999999999964e+01 1.936516766027464485e+02
1.200000000000000000e+01 1.875171399615053929e+02
1.240000000000000036e+01 1.820497117534128790e+02
1.280000000000000071e+01 1.771290653883217772e+02
1.319999999999999929e+01 1.726642933143448886e+02
1.359999999999999964e+01 1.670227632816426535e+02
1.400000000000000000e+01 1.634743429895678446e+02
1.440000000000000036e+01 1.601917766269440051e+02
1.480000000000000071e+01 1.571412850008598241e+02
1.519999999999999929e+01 1.542950319337805638e+02
1.560000000000000142e+01 1.516298133530885650e+02
1.600000000000000000e+01 1.491260884723978393e+02
1.639999999999999858e+01 1.467299598707937776e+02
1.680000000000000071e+01 1.444182716064329099e+02
1.719999999999999929e+01 1.422311244246657793e+02
1.760000000000000142e+01 1.266052832780652295e+02
1.800000000000000000e+01 1.247452421819520225e+02
1.839999999999999858e+01 1.229673216150626729e+02
1.880000000000000071e+01 1.198695827290696627e+02
1.920000000000000284e+01 1.182747808150782305e+02
1.960000000000000142e+01 1.167441819222662929e+02
2.000000000000000000e+01 1.152733838278794707e+02
2.039999999999999858e+01 1.143907362601036652e+02
2.080000000000000071e+01 1.130869479264080439e+02
2.120000000000000284e+01 1.118284012269753589e+02
2.160000000000000142e+01 1.106123935937277167e+02
2.200000000000000000e+01 1.094364527611180620e+02
2.239999999999999858e+01 1.082983113149000474e+02
2.280000000000000071e+01 1.071958846810282040e+02
2.320000000000000284e+01 1.061272520080609070e+02
2.360000000000000142e+01 1.050906394956912493e+02
2.400000000000000000e+01 1.040766919352912367e+02
2.439999999999999858e+01 1.029365567593746817e+02
2.480000000000000071e+01 1.018053632231051608e+02
2.520000000000000284e+01 1.007398785820154785e+02
2.560000000000000142e+01 9.971368837690810949e+01
2.600000000000000000e+01 9.871766412320218365e+01
2.640000000000000213e+01 9.775031804082966858e+01
2.680000000000000071e+01 9.681026454426202577e+01
2.719999999999999929e+01 9.589621130197038212e+01
2.760000000000000142e+01 9.500695124088586851e+01
2.800000000000000000e+01 9.430816341452947427e+01
2.840000000000000213e+01 9.346053565593368262e+01
2.880000000000000071e+01 9.263478386474585591e+01
2.920000000000000284e+01 9.182996226007082896e+01
2.960000000000000142e+01 9.104518195143579362e+01
3.000000000000000000e+01 9.027960658133743266e+01
3.040000000000000213e+01 8.953244837123212108e+01
3.080000000000000071e+01 8.880296452734032187e+01
3.120000000000000284e+01 8.809045396801386119e+01
3.160000000000000142e+01 8.739425433905051932e+01
3.200000000000000000e+01 8.708364762077621890e+01
3.240000000000000568e+01 8.644298015632421084e+01
3.279999999999999716e+01 8.581816040592863715e+01
3.320000000000000284e+01 8.520646709009864139e+01
3.360000000000000142e+01 8.460743606540957273e+01
3.400000000000000000e+01 8.402062618181237497e+01
3.440000000000000568e+01 8.344561782253099125e+01
3.479999999999999716e+01 8.288201155670493847e+01
3.520000000000000284e+01 8.232942689455455820e+01
3.560000000000000142e+01 8.178750113591050308e+01
3.600000000000000000e+01 8.125588830388316808e+01
3.640000000000000568e+01 8.073425815627908264e+01
3.679999999999999716e+01 8.212772181262545246e+01
3.720000000000000284e+01 8.170303173231626204e+01
3.760000000000000142e+01 8.116846480972003519e+01
3.800000000000000000e+01 8.075965511709398470e+01
3.840000000000000568e+01 8.035728796337714641e+01
3.879999999999999716e+01 7.996119023076897747e+01
3.920000000000000284e+01 7.957119537465790415e+01
3.960000000000000142e+01 7.918656882861857582e+01
4.000000000000000000e+01 7.880469744833435186e+01
4.040000000000000568e+01 7.842853586432673296e+01
4.079999999999999716e+01 7.805793845714114809e+01
4.120000000000000284e+01 7.769276485594033943e+01
4.160000000000000142e+01 7.733287969438579523e+01
4.200000000000000000e+01 7.697815238040126928e+01
4.239999999999999858e+01 7.662845687888797386e+01
4.280000000000000426e+01 7.628116545671858262e+01
4.320000000000000284e+01 7.593756883801489721e+01
4.360000000000000142e+01 7.559875658078956917e+01
4.400000000000000000e+01 7.526461513211066290e+01
4.439999999999999858e+01 7.493503474244636209e+01
4.480000000000000426e+01 7.460990930154814293e+01
4.520000000000000284e+01 7.428913618297903554e+01
4.560000000000000142e+01 7.397261609674970373e+01
4.600000000000000000e+01 7.366025294956513392e+01
4.639999999999999858e+01 7.335195371221794858e+01
4.680000000000000426e+01 7.304762829369865074e+01
4.720000000000000284e+01 7.274718942162105861e+01
4.760000000000000142e+01 7.245055252859003758e+01
4.800000000000000000e+01 7.215763564416367615e+01
4.840000000000000568e+01 7.190709474750698860e+01
4.880000000000000426e+01 7.162432127612744637e+01
4.920000000000000284e+01 7.134349983831849329e+01
4.960000000000000142e+01 7.109486795973444373e+01
5.000000000000000000e+01 7.081001968141781333e+01
5.040000000000000568e+01 7.052864284491997182e+01
5.080000000000000426e+01 7.025066561898472628e+01
5.120000000000000284e+01 6.997601826918489110e+01
5.160000000000000142e+01 6.970463307897935579e+01
5.200000000000000000e+01 6.943644427440594313e+01
5.240000000000000568e+01 6.917138795221188730e+01
5.280000000000000426e+01 6.890940201123710551e+01
5.320000000000000284e+01 6.865042608687589620e+01
5.360000000000000142e+01 6.672794146583353836e+01
5.400000000000000000e+01 6.646910128285308872e+01
5.440000000000000568e+01 6.621293448378281710e+01
5.480000000000000426e+01 6.595958824118301322e+01
5.520000000000000284e+01 6.570906959831353333e+01
5.560000000000000142e+01 6.546132546668943064e+01
5.600000000000000000e+01 6.521630415969508476e+01
5.640000000000000568e+01 6.497395534488883584e+01
5.680000000000000426e+01 6.473422999829234925e+01
5.720000000000000284e+01 6.449708036056681237e+01
5.760000000000000142e+01 6.426245989498407596e+01
5.800000000000000000e+01 6.403032324710581236e+01
5.840000000000000568e+01 6.380062620608885737e+01
5.880000000000000426e+01 6.357332566753907344e+01
5.920000000000000284e+01 6.334814520446907693e+01
5.960000000000000142e+01 6.312439445716837838e+01
6.000000000000000000e+01 6.290292807782780216e+01
6.040000000000000568e+01 6.268370687904880612e+01
6.080000000000000426e+01 6.248605115966594781e+01
6.120000000000000284e+01 6.227022372970309760e+01
6.160000000000000142e+01 6.205654902688114305e+01
6.200000000000000000e+01 6.184499097266749601e+01
6.240000000000000568e+01 6.163551433767769794e+01
6.280000000000000426e+01 6.142808471596359965e+01
6.320000000000000284e+01 6.122266850025216200e+01
6.360000000000000142e+01 6.101923285809380815e+01
6.400000000000000000e+01 6.081774570888052978e+01
6.440000000000000568e+01 6.061817570169658609e+01
6.480000000000001137e+01 6.042049219396611193e+01
6.520000000000000284e+01 6.022466523086373513e+01
6.559999999999999432e+01 6.003066552545627133e+01
6.600000000000000000e+01 5.983846443954453065e+01
6.640000000000000568e+01 5.964803396517641687e+01
6.680000000000001137e+01 5.945934670680345846e+01
6.720000000000000284e+01 5.927254036284654859e+01
6.759999999999999432e+01 5.960408182237628694e+01
6.800000000000000000e+01 5.942795907697534119e+01
6.840000000000000568e+01 5.925338041179138315e+01
6.880000000000001137e+01 5.908032290238293172e+01
6.920000000000000284e+01 5.890876410525999773e+01
6.959999999999999432e+01 5.873868204482855049e+01
7.000000000000000000e+01 5.857005520076998550e+01
7.040000000000000568e+01 5.840286249583843414e+01
7.080000000000001137e+01 5.823708328405958667e+01
7.120000000000000284e+01 5.808645328611679304e+01
7.159999999999999432e+01 5.792494641632318064e+01
7.200000000000000000e+01 5.776477886382923543e+01
7.240000000000000568e+01 5.760593182427108161e+01
7.280000000000001137e+01 5.744838686634348335e+01
7.320000000000000284e+01 5.729212592222327771e+01
7.359999999999999432e+01 5.713713127829414873e+01
7.400000000000000000e+01 5.698338556616232609e+01
7.440000000000000568e+01 5.680542349048113948e+01
7.479999999999999716e+01 5.665445966778941767e+01
7.520000000000000284e+01 5.650469268676519619e+01
7.560000000000000853e+01 5.635610648358873220e+01
7.600000000000000000e+01 5.620868529908150180e+01
7.640000000000000568e+01 5.606241367123065800e+01
7.679999999999999716e+01 5.591727642793863140e+01
7.720000000000000284e+01 5.577325867999001474e+01
7.760000000000000853e+01 5.563034581422790836e+01
7.800000000000000000e+01 5.548852348693220904e+01
7.840000000000000568e+01 5.534777761739309199e+01
7.879999999999999716e+01 5.520809438167256644e+01
7.920000000000000284e+01 5.506946020654757490e+01
7.960000000000000853e+01 5.493186176362863193e+01
8.000000000000000000e+01 5.479528596364784221e+01
8.040000000000000568e+01 5.465971995091021540e+01
8.079999999999999716e+01 5.452515109790336112e+01
8.120000000000000284e+01 5.439156700005966627e+01
8.160000000000000853e+01 5.425803802926923680e+01
8.200000000000000000e+01 5.412362319652419274e+01
8.240000000000000568e+01 5.399018543365467337e+01
8.279999999999999716e+01 5.385734649800978247e+01
8.320000000000000284e+01 5.372535201054384402e+01
8.360000000000000853e+01 5.359430407867549917e+01
8.400000000000000000e+01 5.346419125944381534e+01
8.440000000000000568e+01 5.333500230482496818e+01
8.479999999999999716e+01 5.320672615744461353e+01
8.520000000000000284e+01 5.307935194640596421e+01
8.560000000000000853e+01 5.295286898322962799e+01
8.600000000000000000e+01 5.282716446650366748e+01
8.640000000000000568e+01 5.270229654605444125e+01
8.680000000000001137e+01 5.257828192725335015e+01
8.720000000000000284e+01 5.245511082651685797e+01
8.760000000000000853e+01 5.233277361773316017e+01
8.800000000000000000e+01 5.221126082900040899e+01
8.840000000000000568e+01 5.209056313944761740e+01
8.880000000000001137e+01 5.197067137613567667e+01
8.920000000000000284e+01 5.186601967577617245e+01
8.960000000000000853e+01 5.174806113374864935e+01
9.000000000000000000e+01 5.163087822892491374e+01
9.040000000000000568e+01 5.151446240469576310e+01
9.080000000000001137e+01 5.139880523698054304e+01
9.120000000000000284e+01 5.128389843158507233e+01
9.160000000000000853e+01 5.116973382162385064e+01
9.200000000000000000e+01 5.105630336500487942e+01
9.240000000000000568e+01 5.094359914197520567e+01
9.280000000000001137e+01 5.083161335272534842e+01
9.320000000000000284e+01 5.072033831505142132e+01
9.360000000000000853e+01 5.060976646207245722e+01
9.400000000000000000e+01 5.049989034000242327e+01
9.440000000000000568e+01 5.039070260597437567e+01
9.480000000000001137e+01 5.028219602591618553e+01
9.520000000000000284e+01 5.017436347247569728e+01
9.560000000000000853e+01 5.006719792299442418e+01
9.600000000000000000e+01 4.996069245752828181e+01
9.640000000000000568e+01 4.985794764155678394e+01
9.680000000000001137e+01 4.975346147602463986e+01
9.720000000000000284e+01 4.964970819371842481e+01
9.760000000000000853e+01 4.954659373831989200e+01
9.800000000000000000e+01 4.944409833141074984e+01
9.840000000000000568e+01 4.934221573888873991e+01
9.880000000000001137e+01 4.924093981478187487e+01
9.920000000000000284e+01 4.914026449964489984e+01
9.960000000000000853e+01 4.904018381899124535e+01
1.000000000000000000e+02 4.894069188175991769e+01
1.004000000000000057e+02 4.884178287881596248e+01
1.008000000000000114e+02 4.874345108148417438e+01
1.012000000000000028e+02 4.864569084011468192e+01
1.016000000000000085e+02 4.854849658267982448e+01
1.020000000000000000e+02 4.845186281340158274e+01
1.024000000000000057e+02 4.835578411140860311e+01
1.028000000000000114e+02 4.826025512942209872e+01
1.032000000000000028e+02 4.816527059247007969e+01
1.036000000000000085e+02 4.807082529662891091e+01
1.040000000000000000e+02 4.797691410779166432e+01
1.044000000000000057e+02 4.788353196046267612e+01
1.048000000000000114e+02 4.779067385657737788e+01
1.052000000000000028e+02 4.769833486434711034e+01
1.056000000000000085e+02 4.760099925184394465e+01
1.060000000000000000e+02 4.750980717143750098e+01
1.064000000000000057e+02 4.741911945399193939e+01
1.068000000000000114e+02 4.732893142146011911e+01
1.072000000000000028e+02 4.723923845669536803e+01
1.076000000000000085e+02 4.715003600243125703e+01
1.080000000000000000e+02 4.706131956028217900e+01
1.084000000000000057e+02 4.694923490747180495e+01
1.088000000000000114e+02 4.686257207890663778e+01
1.092000000000000028e+02 4.677637850658636864e+01
1.096000000000000085e+02 4.669064990819779837e+01
1.100000000000000000e+02 4.660510651733674337e+01
1.104000000000000057e+02 4.651999928287401076e+01
1.108000000000000114e+02 4.643534640339714059e+01
1.112000000000000028e+02 4.635114379123243111e+01
1.116000000000000085e+02 4.626738741049342707e+01
1.120000000000000000e+02 4.618407327623433645e+01
1.124000000000000057e+02 4.610119745362039367e+01
1.128000000000000114e+02 4.601875605711472161e+01
1.132000000000000028e+02 4.593674524968145079e+01
1.136000000000000085e+02 4.585515192968910014e+01
1.140000000000000000e+02 4.577383121392386300e+01
1.144000000000000057e+02 4.569293132789057665e+01
1.148000000000000114e+02 4.561244860274772606e+01
1.152000000000000028e+02 4.553237941468912453e+01
1.156000000000000085e+02 4.545272018423071358e+01
1.160000000000000000e+02 4.537346737551109754e+01
1.164000000000000057e+02 4.529461749560562112e+01
1.168000000000000114e+02 4.521616709385377675e+01
1.172000000000000028e+02 4.513811276119929516e+01
1.176000000000000085e+02 4.506045112954311804e+01
1.180000000000000000e+02 4.498317887110842150e+01
1.184000000000000057e+02 4.490629269781795330e+01
1.188000000000000114e+02 4.482978936068297315e+01
1.192000000000000028e+02 4.475366564920378920e+01
1.196000000000000085e+02 4.467791839078148541e+01
1.200000000000000000e+02 4.460254445014085434e+01
1.204000000000000057e+02 4.452754072876377478e+01
1.208000000000000114e+02 4.445290416433346081e+01
1.212000000000000028e+02 4.448917502932589230e+01
1.216000000000000085e+02 4.441669342378705210e+01
1.220000000000000000e+02 4.434456128733700808e+01
1.224000000000000057e+02 4.427277577432187172e+01
1.228000000000000114e+02 4.420399672237500255e+01
1.232000000000000028e+02 4.413305654510475762e+01
1.236000000000000085e+02 4.406245357252410599e+01
1.240000000000000000e+02 4.399218509742943439e+01
1.244000000000000057e+02 4.392224844324445598e+01
1.248000000000000114e+02 4.385264096357309427e+01
1.252000000000000028e+02 4.378787964592226700e+01
1.256000000000000085e+02 4.371932457736689770e+01
1.260000000000000000e+02 4.365108883454994526e+01
1.264000000000000057e+02 4.358316990575722372e+01
1.268000000000000114e+02 4.351556530711621207e+01
1.272000000000000028e+02 4.344827258219774535e+01
1.276000000000000085e+02 4.338128930162454822e+01
1.280000000000000000e+02 4.331461306268667499e+01
1.284000000000000057e+02 4.324824148896362175e+01
1.288000000000000114e+02 4.318217222995308191e+01
1.291999999999999886e+02 4.311640296070597600e+01
1.296000000000000227e+02 4.305093138146793308e+01
1.300000000000000000e+02 4.298575521732686866e+01
1.304000000000000057e+02 4.292087221786654538e+01
1.308000000000000114e+02 4.285628015682617331e+01
1.311999999999999886e+02 4.279176070160185219e+01
1.316000000000000227e+02 4.272717066936288433e+01
1.320000000000000000e+02 4.266284186581795268e+01
1.324000000000000057e+02 4.259879343070083024e+01
1.328000000000000114e+02 4.253502801051176618e+01
1.331999999999999886e+02 4.247154349794152495e+01
1.336000000000000227e+02 4.240833780776516448e+01
1.340000000000000000e+02 4.234540887654360120e+01
1.344000000000000057e+02 4.228275466232998525e+01
1.348000000000000114e+02 4.222037314438105682e+01
1.351999999999999886e+02 4.215826232287317055e+01
1.356000000000000227e+02 4.209642021862295280e+01
1.360000000000000000e+02 4.203484487281265558e+01
1.364000000000000057e+02 4.197353434671980921e+01
1.368000000000000114e+02 4.191248672145142251e+01
1.371999999999999886e+02 4.185170009768239652e+01
1.376000000000000227e+02 4.179117259539820850e+01
1.380000000000000000e+02 4.173090235364178113e+01
1.384000000000000057e+02 4.167088753026418857e+01
1.388000000000000114e+02 4.161112630167973236e+01
1.392000000000000171e+02 4.155161686262459853e+01
1.395999999999999943e+02 4.149235742591950782e+01
1.400000000000000000e+02 4.143334622223608221e+01
1.404000000000000057e+02 4.137458149986695588e+01
1.408000000000000114e+02 4.131592646601486507e+01
1.412000000000000171e+02 4.125750983206287259e+01
1.415999999999999943e+02 4.119870371961893341e+01
1.420000000000000000e+02 4.114086500307841021e+01
1.424000000000000057e+02 4.108326430627496961e+01
1.428000000000000114e+02 4.102589997901839070e+01
1.432000000000000171e+02 4.096877038721672903e+01
1.435999999999999943e+02 4.091187391267398255e+01
1.440000000000000000e+02 4.085520895289052135e+01
1.444000000000000057e+02 4.079877392086691401e+01
1.448000000000000114e+02 4.074256724491058179e+01
1.452000000000000171e+02 4.068658736844543711e+01
1.455999999999999943e+02 4.063083274982444237e+01
1.460000000000000000e+02 4.057530186214496126e+01
1.464000000000000057e+02 4.051999319306703740e+01
1.468000000000000114e+02 4.046490524463421679e+01
1.472000000000000171e+02 4.041003653309723376e+01
1.475999999999999943e+02 4.035538558874027615e+01
1.480000000000000000e+02 4.030095095570987240e+01
1.484000000000000057e+02 4.024673119184627978e+01
1.488000000000000114e+02 4.019272486851745896e+01
1.492000000000000171e+02 4.013893057045553547e+01
1.495999999999999943e+02 4.008534689559547104e+01
1.500000000000000000e+02 4.003197245491641354e+01
