1.000000000000000000e+01 8.148222027731231947e+02
1.040000000000000036e+01 8.561568996274168057e+02
1.080000000000000071e+01 8.941560421235337799e+02
1.119999999999999929e+01 9.590016698953210152e+02
1.159999999999999964e+01 9.685913929548750048e+02
1.200000000000000000e+01 9.656512393950774822e+02
1.240000000000000036e+01 9.589151017313764669e+02
1.280000000000000071e+01 1.038813083020048680e+03
1.319999999999999929e+01 1.105404920266134923e+03
1.359999999999999964e+01 1.181967239186628149e+03
1.400000000000000000e+01 1.184496698505053928e+03
1.440000000000000036e+01 1.161216663463205805e+03
1.480000000000000071e+01 1.139473616023060458e+03
1.519999999999999929e+01 1.119094271187358572e+03
1.560000000000000142e+01 1.099932694572507444e+03
1.600000000000000000e+01 1.081864821602757274e+03
1.639999999999999858e+01 1.064784291752130002e+03
1.680000000000000071e+01 1.048599234425343639e+03
1.719999999999999929e+01 1.033229755623116944e+03
1.760000000000000142e+01 1.018605948792512891e+03
1.800000000000000000e+01 1.004666303323742341e+03
1.839999999999999858e+01 9.913564185685664825e+02
1.880000000000000071e+01 9.786279553334759385e+02
1.920000000000000284e+01 9.664377739194983405e+02
1.960000000000000142e+01 9.547472201306245552e+02
2.000000000000000000e+01 9.435215297029777730e+02
2.039999999999999858e+01 9.327293282914025667e+02
2.080000000000000071e+01 9.223422091549865627e+02
2.120000000000000284e+01 9.123343744699033095e+02
2.160000000000000142e+01 9.026823290914328481e+02
2.200000000000000000e+01 8.933646178180331390e+02
2.239999999999999858e+01 8.843615989452609938e+02
2.280000000000000071e+01 8.756552482572037661e+02
2.320000000000000284e+01 8.672289886769477789e+02
2.360000000000000142e+01 8.590675416515614415e+02
2.400000000000000000e+01 8.511567970306205098e+02
2.439999999999999858e+01 8.434836987478586252e+02
2.480000000000000071e+01 8.360361440615582751e+02
2.520000000000000284e+01 8.288028944726668215e+02
2.560000000000000142e+01 8.217734967371861785e+02
2.600000000000000000e+01 8.149382126342951551e+02
2.640000000000000213e+01 8.082879563541691823e+02
2.680000000000000071e+01 8.018142385376827406e+02
2.719999999999999929e+01 7.955091161404949389e+02
2.760000000000000142e+01 7.893651474115583824e+02
2.800000000000000000e+01 7.833753513749174999e+02
2.840000000000000213e+01 7.775331712870738556e+02
2.880000000000000071e+01 7.718324416128517669e+02
2.920000000000000284e+01 7.662673581227403474e+02
2.960000000000000142e+01 7.608324507658851417e+02
3.000000000000000000e+01 7.555225590167079872e+02
3.040000000000000213e+01 7.503328094306920093e+02
3.080000000000000071e+01 7.452585951772094859e+02
3.120000000000000284e+01 7.402955573451555438e+02
3.160000000000000142e+01 7.354395678412863617e+02
3.200000000000000000e+01 7.306867137220879158e+02
3.240000000000000568e+01 7.260332828182044977e+02
3.279999999999999716e+01 7.214757505263158919e+02
3.320000000000000284e+01 7.170107676572083619e+02
3.360000000000000142e+01 7.126351492409283992e+02
3.400000000000000000e+01 7.083458642005402908e+02
3.440000000000000568e+01 7.041400258153846607e+02
3.479999999999999716e+01 7.000148829029758417e+02
3.520000000000000284e+01 6.959678116559604177e+02
3.560000000000000142e+01 6.919963080770025954e+02
3.600000000000000000e+01 6.880979809601659554e+02
3.640000000000000568e+01 6.842705453724287281e+02
3.679999999999999716e+01 6.805118165934802619e+02
3.720000000000000284e+01 6.768197044759491519e+02
3.760000000000000142e+01 6.731922081918052072e+02
3.800000000000000000e+01 6.696274113338680536e+02
3.840000000000000568e+01 6.661234773442250798e+02
3.879999999999999716e+01 6.626786452439214372e+02
3.920000000000000284e+01 6.592912256405954849e+02
3.960000000000000142e+01 6.559595969927992201e+02
4.000000000000000000e+01 6.526822021116068981e+02
4.040000000000000568e+01 6.494575448818002315e+02
4.079999999999999716e+01 6.462841871864274026e+02
4.120000000000000284e+01 6.431607460199102206e+02
4.160000000000000142e+01 6.400858907761082719e+02
4.200000000000000000e+01 6.370583406988773731e+02
4.239999999999999858e+01 6.340768624836713343e+02
4.280000000000000426e+01 6.311402680196686106e+02
4.320000000000000284e+01 6.282474122627381803e+02
4.360000000000000142e+01 6.253971912303337604e+02
4.400000000000000000e+01 6.225885401100906620e+02
4.439999999999999858e+01 6.198204314745477177e+02
4.480000000000000426e+01 6.170918735949853726e+02
4.520000000000000284e+01 6.144019088479124093e+02
4.560000000000000142e+01 6.117496122082080774e+02
4.600000000000000000e+01 6.091340898233796679e+02
4.639999999999999858e+01 6.065544776637963196e+02
4.680000000000000426e+01 6.040099402441361462e+02
4.720000000000000284e+01 6.014996694116279059e+02
4.760000000000000142e+01 5.990228831969775456e+02
4.800000000000000000e+01 5.965788247241662248e+02
4.840000000000000568e+01 5.941667611755710823e+02
4.880000000000000426e+01 5.917859828091031886e+02
4.920000000000000284e+01 5.894358020242846123e+02
4.960000000000000142e+01 5.871155524744009426e+02
5.000000000000000000e+01 5.848245882220484191e+02
5.040000000000000568e+01 5.825622829355819476e+02
5.080000000000000426e+01 5.803280291241325131e+02
5.120000000000000284e+01 5.781212374090127923e+02
5.160000000000000142e+01 5.759413358294746104e+02
5.200000000000000000e+01 5.737877691809102316e+02
5.240000000000000568e+01 5.716599983837148784e+02
5.280000000000000426e+01 5.695574998811338219e+02
5.320000000000000284e+01 5.674797650645309659e+02
5.360000000000000142e+01 5.654262997246050872e+02
5.400000000000000000e+01 5.633966235271776668e+02
5.440000000000000568e+01 5.613902695122516207e+02
5.480000000000000426e+01 5.594067836151315305e+02
5.520000000000000284e+01 5.574457242084531572e+02
5.560000000000000142e+01 5.555066616640531265e+02
5.600000000000000000e+01 5.535891779336627678e+02
5.640000000000000568e+01 5.516928661474771616e+02
5.680000000000000426e+01 5.498173302296959264e+02
5.720000000000000284e+01 5.479621845301977601e+02
5.760000000000000142e+01 5.461270534715442864e+02
5.800000000000000000e+01 5.443115712105667399e+02
5.840000000000000568e+01 5.425153813138234682e+02
5.880000000000000426e+01 5.407381364462584088e+02
5.920000000000000284e+01 5.389794980724279867e+02
5.960000000000000142e+01 5.372391361696998047e+02
6.000000000000000000e+01 5.355167289528563970e+02
6.040000000000000568e+01 5.338119626095701733e+02
6.080000000000000426e+01 5.321245310462442148e+02
6.120000000000000284e+01 5.304541356437403010e+02
6.160000000000000142e+01 5.288004850225393056e+02
6.200000000000000000e+01 5.271632948169076371e+02
6.240000000000000568e+01 5.255422874576602226e+02
6.280000000000000426e+01 5.239371919631347509e+02
6.320000000000000284e+01 5.223477437380133779e+02
6.360000000000000142e+01 5.207736843796408266e+02
6.400000000000000000e+01 5.192147614915145368e+02
6.440000000000000568e+01 5.176707285036288795e+02
6.480000000000001137e+01 5.161413444993801249e+02
6.520000000000000284e+01 5.146263740487487439e+02
6.559999999999999432e+01 5.131255870474891481e+02
6.600000000000000000e+01 5.116387585620736900e+02
6.640000000000000568e+01 5.101656686801489400e+02
6.680000000000001137e+01 5.087061023662693060e+02
6.720000000000000284e+01 5.072598493226934124e+02
6.759999999999999432e+01 5.058267038550295638e+02
6.800000000000000000e+01 5.044064647425344674e+02
6.840000000000000568e+01 5.029989351128724593e+02
6.880000000000001137e+01 5.016039223211558920e+02
6.920000000000000284e+01 5.002212378330948468e+02
6.959999999999999432e+01 4.988506971120884259e+02
7.000000000000000000e+01 4.974921195101051126e+02
7.040000000000000568e+01 4.961453281621986662e+02
7.080000000000001137e+01 4.948101498845190918e+02
7.120000000000000284e+01 4.934864150756798722e+02
7.159999999999999432e+01 4.921739576213540204e+02
7.200000000000000000e+01 4.908726148019716788e+02
7.240000000000000568e+01 4.895822272034018852e+02
7.280000000000001137e+01 4.883026386305047026e+02
7.320000000000000284e+01 4.870336960234429284e+02
7.359999999999999432e+01 4.857752493766538464e+02
7.400000000000000000e+01 4.845271516603748978e+02
7.440000000000000568e+01 4.832892587446355606e+02
7.479999999999999716e+01 4.820614293256177803e+02
7.520000000000000284e+01 4.808435248543017337e+02
7.560000000000000853e+01 4.796354094673116037e+02
7.600000000000000000e+01 4.784369499198824087e+02
7.640000000000000568e+01 4.772480155208692736e+02
7.679999999999999716e+01 4.760684780697286556e+02
7.720000000000000284e+01 4.748982117953976285e+02
7.760000000000000853e+01 4.737370932970065383e+02
7.800000000000000000e+01 4.725850014863588058e+02
7.840000000000000568e+01 4.714418175321154649e+02
7.879999999999999716e+01 4.703074248056260558e+02
7.920000000000000284e+01 4.691817088283473254e+02
7.960000000000000853e+01 4.680645572207956207e+02
8.000000000000000000e+01 4.669558596529795409e+02
8.040000000000000568e+01 4.658555077962635096e+02
8.079999999999999716e+01 4.647633952766113907e+02
8.120000000000000284e+01 4.636794176291655276e+02
8.160000000000000853e+01 4.626034722541152746e+02
8.200000000000000000e+01 4.615354583738115934e+02
8.240000000000000568e+01 4.604752769910863321e+02
8.279999999999999716e+01 4.594228308487374193e+02
8.320000000000000284e+01 4.583780243901392168e+02
8.360000000000000853e+01 4.573407637209434711e+02
8.400000000000000000e+01 4.563109565718340264e+02
8.440000000000000568e+01 4.552885122623000029e+02
8.479999999999999716e+01 4.542733416653979930e+02
8.520000000000000284e+01 4.532653571734674642e+02
8.560000000000000853e+01 4.522644726647716880e+02
8.600000000000000000e+01 4.512706034710331551e+02
8.640000000000000568e+01 4.502836663458360817e+02
8.680000000000001137e+01 4.493035794338684923e+02
8.720000000000000284e+01 4.483302622409772198e+02
8.760000000000000853e+01 4.473636356050101313e+02
8.800000000000000000e+01 4.464036216674228399e+02
8.840000000000000568e+01 4.454501438456239271e+02
8.880000000000001137e+01 4.445031268060379261e+02
8.920000000000000284e+01 4.435624964378630466e+02
8.960000000000000853e+01 4.426281798275023220e+02
9.000000000000000000e+01 4.417001052336491398e+02
9.040000000000000568e+01 4.407782020630056081e+02
9.080000000000001137e+01 4.398624008466160831e+02
9.120000000000000284e+01 4.389526332167969258e+02
9.160000000000000853e+01 4.380488318846443576e+02
9.200000000000000000e+01 4.371509306181051215e+02
9.240000000000000568e+01 4.362588642205902829e+02
9.280000000000001137e+01 4.353725685101190948e+02
9.320000000000000284e+01 4.344919802989760456e+02
9.360000000000000853e+01 4.336170373738667649e+02
9.400000000000000000e+01 4.327476784765575530e+02
9.440000000000000568e+01 4.318838432849851188e+02
9.480000000000001137e+01 4.310254723948235664e+02
9.520000000000000284e+01 4.301725073014948180e+02
9.560000000000000853e+01 4.293248903826095102e+02
9.600000000000000000e+01 4.284825648808277379e+02
9.640000000000000568e+01 4.276454748871261700e+02
9.680000000000001137e+01 4.268135653244612513e+02
9.720000000000000284e+01 4.259867819318165516e+02
9.760000000000000853e+01 4.251650712486241446e+02
9.800000000000000000e+01 4.243483805995505236e+02
9.840000000000000568e+01 4.235366580796340941e+02
9.880000000000001137e+01 4.227298525397685580e+02
9.920000000000000284e+01 4.219279135725198557e+02
9.960000000000000853e+01 4.211307914982677971e+02
1.000000000000000000e+02 4.203384373516653909e+02
1.004000000000000057e+02 4.195508028684063220e+02
1.008000000000000114e+02 4.187678404722900041e+02
1.012000000000000028e+02 4.179895032625818203e+02
1.016000000000000085e+02 4.172157450016536018e+02
1.020000000000000000e+02 4.164465201029037758e+02
1.024000000000000057e+02 4.156817836189444506e+02
1.028000000000000114e+02 4.149214912300511742e+02
1.032000000000000028e+02 4.141655992328687717e+02
1.036000000000000085e+02 4.134140645293636567e+02
1.040000000000000000e+02 4.126668446160206258e+02
1.044000000000000057e+02 4.119238975732733934e+02
1.048000000000000114e+02 4.111851820551664218e+02
1.052000000000000028e+02 4.104506572792391808e+02
1.056000000000000085e+02 4.097202830166298213e+02
1.060000000000000000e+02 4.089940195823900808e+02
1.064000000000000057e+02 4.082718278260085185e+02
1.068000000000000114e+02 4.075536691221353180e+02
1.072000000000000028e+02 4.068395053615030292e+02
1.076000000000000085e+02 4.061292989420409185e+02
1.080000000000000000e+02 4.054230127601742879e+02
1.084000000000000057e+02 4.047206102023091034e+02
1.088000000000000114e+02 4.040220551364911898e+02
1.092000000000000028e+02 4.033273119042418671e+02
1.096000000000000085e+02 4.026363453125611613e+02
1.100000000000000000e+02 4.019491206260972262e+02
1.104000000000000057e+02 4.012656035594754940e+02
1.108000000000000114e+02 4.005857602697865332e+02
1.112000000000000028e+02 3.999095573492266453e+02
1.116000000000000085e+02 3.992369618178877317e+02
1.120000000000000000e+02 3.985679411166942714e+02
1.124000000000000057e+02 3.979024631004815546e+02
1.128000000000000114e+02 3.972404960312143203e+02
1.132000000000000028e+02 3.965820085713411913e+02
1.136000000000000085e+02 3.959269697772803625e+02
1.140000000000000000e+02 3.952753490930369935e+02
1.144000000000000057e+02 3.946271163439450333e+02
1.148000000000000114e+02 3.939822417305344970e+02
1.152000000000000028e+02 3.933406958225178300e+02
1.156000000000000085e+02 3.927024495528947341e+02
1.160000000000000000e+02 3.920674742121727263e+02
1.164000000000000057e+02 3.914357414426984860e+02
1.168000000000000114e+02 3.908072232331018085e+02
1.172000000000000028e+02 3.901818919128435255e+02
1.176000000000000085e+02 3.895597201468715411e+02
1.180000000000000000e+02 3.889406809303770274e+02
1.184000000000000057e+02 3.883247475836526519e+02
1.188000000000000114e+02 3.877118937470469291e+02
1.192000000000000028e+02 3.871020933760160005e+02
1.196000000000000085e+02 3.864953207362679564e+02
1.200000000000000000e+02 3.858915503989990725e+02
1.204000000000000057e+02 3.852907572362195197e+02
1.208000000000000114e+02 3.846929164161661561e+02
1.212000000000000028e+02 3.840980033988017226e+02
1.216000000000000085e+02 3.835059939313965742e+02
1.220000000000000000e+02 3.829168640441929483e+02
1.224000000000000057e+02 3.823305900461493252e+02
1.228000000000000114e+02 3.817471485207631758e+02
1.232000000000000028e+02 3.811665163219694250e+02
1.236000000000000085e+02 3.805886705701143455e+02
1.240000000000000000e+02 3.800135886480036334e+02
1.244000000000000057e+02 3.794412481970206841e+02
1.248000000000000114e+02 3.788716271133163787e+02
1.252000000000000028e+02 3.783047035440664558e+02
1.256000000000000085e+02 3.777404558837971535e+02
1.260000000000000000e+02 3.771788627707757087e+02
1.264000000000000057e+02 3.766199030834663404e+02
1.268000000000000114e+02 3.760635559370479655e+02
1.272000000000000028e+02 3.755098006799950099e+02
1.276000000000000085e+02 3.749586168907174510e+02
1.280000000000000000e+02 3.744099843742610005e+02
1.284000000000000057e+02 3.738638831590644713e+02
1.288000000000000114e+02 3.733202934937747841e+02
1.291999999999999886e+02 3.727791958441163729e+02
1.296000000000000227e+02 3.722405708898157286e+02
1.300000000000000000e+02 3.717043995215796599e+02
1.304000000000000057e+02 3.711706628381244855e+02
1.308000000000000114e+02 3.706393421432579203e+02
1.311999999999999886e+02 3.701104189430099041e+02
1.316000000000000227e+02 3.695838749428124856e+02
1.320000000000000000e+02 3.690596920447291041e+02
1.324000000000000057e+02 3.685378523447295720e+02
1.328000000000000114e+02 3.680183381300117276e+02
1.331999999999999886e+02 3.675011318763687882e+02
1.336000000000000227e+02 3.669862162456000192e+02
1.340000000000000000e+02 3.664735740829662518e+02
1.344000000000000057e+02 3.659631884146871244e+02
1.348000000000000114e+02 3.654550424454797053e+02
1.351999999999999886e+02 3.649491195561389532e+02
1.356000000000000227e+02 3.644454033011582510e+02
1.360000000000000000e+02 3.639438774063883102e+02
1.364000000000000057e+02 3.634445257667359215e+02
1.368000000000000114e+02 3.629473324438997111e+02
1.371999999999999886e+02 3.624522816641432428e+02
1.376000000000000227e+02 3.619593578161040455e+02
1.380000000000000000e+02 3.614685454486399294e+02
1.384000000000000057e+02 3.609798292687075900e+02
1.388000000000000114e+02 3.604931941392782164e+02
1.392000000000000171e+02 3.600086250772850462e+02
1.395999999999999943e+02 3.595261072516045147e+02
1.400000000000000000e+02 3.590456259810698043e+02
1.404000000000000057e+02 3.585671667325161138e+02
1.408000000000000114e+02 3.580907151188570765e+02
1.412000000000000171e+02 3.576162568971919313e+02
1.415999999999999943e+02 3.571437779669424231e+02
1.420000000000000000e+02 3.566732643680194315e+02
1.424000000000000057e+02 3.562047022790179085e+02
1.428000000000000114e+02 3.557380780154414879e+02
1.432000000000000171e+02 3.552733780279532425e+02
1.435999999999999943e+02 3.548105889006548068e+02
1.440000000000000000e+02 3.543496973493927840e+02
1.444000000000000057e+02 3.538906902200895388e+02
1.448000000000000114e+02 3.534335544871021284e+02
1.452000000000000171e+02 3.529782772516053910e+02
1.455999999999999943e+02 3.525248457399992503e+02
1.460000000000000000e+02 3.520732473023427360e+02
1.464000000000000057e+02 3.516234694108089229e+02
1.468000000000000114e+02 3.511754996581666433e+02
1.472000000000000171e+02 3.507293257562827762e+02
1.475999999999999943e+02 3.502849355346487528e+02
1.480000000000000000e+02 3.498423169389287750e+02
1.484000000000000057e+02 3.494014580295300334e+02
1.488000000000000114e+02 3.489623469801945816e+02
1.492000000000000171e+02 3.485249720766123573e+02
1.495999999999999943e+02 3.480893217150550072e+02
1.500000000000000000e+02 3.476553844010294370e+02
