1.000000000000000000e+01 3.818589734155072080e+01
1.040000000000000036e+01 4.291369509374002433e+01
1.080000000000000071e+01 6.762572086959121975e+01
1.119999999999999929e+01 6.628643083320727669e+01
1.159999999999999964e+01 6.506177349057338688e+01
1.200000000000000000e+01 6.052967940522998447e+01
1.240000000000000036e+01 5.866977658615405744e+01
1.280000000000000071e+01 5.698516682408504153e+01
1.319999999999999929e+01 5.544839544762033512e+01
1.359999999999999964e+01 5.403788399146529287e+01
1.400000000000000000e+01 5.273636970049211925e+01
1.440000000000000036e+01 5.152983109413122520e+01
1.480000000000000071e+01 5.040672826512025040e+01
1.519999999999999929e+01 4.935745328257829101e+01
1.560000000000000142e+01 4.838262914566267625e+01
1.600000000000000000e+01 4.751020822967131352e+01
1.639999999999999858e+01 4.668412794032591506e+01
1.680000000000000071e+01 4.590029763652846384e+01
1.719999999999999929e+01 4.515512824775500889e+01
1.760000000000000142e+01 4.444545404430245128e+01
1.800000000000000000e+01 4.376846912742546181e+01
1.839999999999999858e+01 4.312167541480702937e+01
1.880000000000000071e+01 4.250283969841277809e+01
1.920000000000000284e+01 4.190995793155207139e+01
1.960000000000000142e+01 4.134122532723189636e+01
2.000000000000000000e+01 4.079501116582723341e+01
2.039999999999999858e+01 4.026983744755990813e+01
2.080000000000000071e+01 3.929545084001077271e+01
2.120000000000000284e+01 3.881018828144740951e+01
2.160000000000000142e+01 3.834296731640736766e+01
2.200000000000000000e+01 3.789266634133144152e+01
2.239999999999999858e+01 3.745826101153527077e+01
2.280000000000000071e+01 3.703881346783755646e+01
2.320000000000000284e+01 3.663346300927042165e+01
2.360000000000000142e+01 3.624141798488244604e+01
2.400000000000000000e+01 3.586194871825399844e+01
2.439999999999999858e+01 3.549438131083304171e+01
2.480000000000000071e+01 3.513809219635447079e+01
2.520000000000000284e+01 3.479250333978848886e+01
2.560000000000000142e+01 3.445487580711498055e+01
2.600000000000000000e+01 3.412181761696954396e+01
2.640000000000000213e+01 3.379821267012519570e+01
2.680000000000000071e+01 3.348361432263965298e+01
2.719999999999999929e+01 3.317760526762117479e+01
2.760000000000000142e+01 3.287979508035425624e+01
2.800000000000000000e+01 3.258981801191424665e+01
2.840000000000000213e+01 3.230733100187607931e+01
2.880000000000000071e+01 3.203201188468706562e+01
2.920000000000000284e+01 3.176355776763981353e+01
2.960000000000000142e+01 3.150168356124829927e+01
3.000000000000000000e+01 3.124612064528033173e+01
3.040000000000000213e+01 3.099661565579960865e+01
3.080000000000000071e+01 3.075292938037526369e+01
3.120000000000000284e+01 3.051483575017282135e+01
3.160000000000000142e+01 3.028212091898455327e+01
3.200000000000000000e+01 3.005458242042271166e+01
3.240000000000000568e+01 2.994665675103495772e+01
3.279999999999999716e+01 2.973132134474640509e+01
3.320000000000000284e+01 2.952064953491136379e+01
3.360000000000000142e+01 2.931447206161789865e+01
3.400000000000000000e+01 2.914808863442539533e+01
3.440000000000000568e+01 2.898701475834477392e+01
3.479999999999999716e+01 2.882913999565643337e+01
3.520000000000000284e+01 2.867435365494802824e+01
3.560000000000000142e+01 2.852255044938424788e+01
3.600000000000000000e+01 2.837363015864539051e+01
3.640000000000000568e+01 2.822749731651230931e+01
3.679999999999999716e+01 2.808406092182008962e+01
3.720000000000000284e+01 2.794323417073347215e+01
3.760000000000000142e+01 2.780493420850224595e+01
3.800000000000000000e+01 2.766908189903648108e+01
3.840000000000000568e+01 2.753560161080283919e+01
3.879999999999999716e+01 2.740465833979462928e+01
3.920000000000000284e+01 2.727602347017659667e+01
3.960000000000000142e+01 2.714949852673186470e+01
4.000000000000000000e+01 2.702502324005521928e+01
4.040000000000000568e+01 2.690253977823430276e+01
4.079999999999999716e+01 2.678199262013892223e+01
4.120000000000000284e+01 2.666332843672248742e+01
4.160000000000000142e+01 2.654649597974098185e+01
4.200000000000000000e+01 2.643144597734524126e+01
4.239999999999999858e+01 2.631813103604812198e+01
4.280000000000000426e+01 2.620650554860944936e+01
4.320000000000000284e+01 2.609652560741930216e+01
4.360000000000000142e+01 2.598814892299415646e+01
4.400000000000000000e+01 2.588133474723127847e+01
4.439999999999999858e+01 2.577604380109526616e+01
4.480000000000000426e+01 2.567223820643565446e+01
4.520000000000000284e+01 2.556988142165880618e+01
4.560000000000000142e+01 2.546893818099748330e+01
4.600000000000000000e+01 2.536937443714210616e+01
4.639999999999999858e+01 2.520990843813471471e+01
4.680000000000000426e+01 2.511723492988143036e+01
4.720000000000000284e+01 2.502577837214597167e+01
4.760000000000000142e+01 2.493551067341102367e+01
4.800000000000000000e+01 2.484640466557029015e+01
4.840000000000000568e+01 2.475843406476490927e+01
4.880000000000000426e+01 2.467157343424617011e+01
4.920000000000000284e+01 2.458579814914104844e+01
4.960000000000000142e+01 2.450108436300595116e+01
5.000000000000000000e+01 2.441740897606175054e+01
5.040000000000000568e+01 2.433474960501069972e+01
5.080000000000000426e+01 2.425308455434242205e+01
5.120000000000000284e+01 2.417239278904255428e+01
5.160000000000000142e+01 2.409265390862331913e+01
5.200000000000000000e+01 2.401384812240058153e+01
5.240000000000000568e+01 2.393595622594697403e+01
5.280000000000000426e+01 2.385895957865528061e+01
5.320000000000000284e+01 2.378284008235026903e+01
5.360000000000000142e+01 2.370758016089143894e+01
5.400000000000000000e+01 2.363293852599722555e+01
5.440000000000000568e+01 2.355667683036095639e+01
5.480000000000000426e+01 2.348127356669770904e+01
5.520000000000000284e+01 2.340671179177709860e+01
5.560000000000000142e+01 2.333297503908101334e+01
5.600000000000000000e+01 2.326004730147705502e+01
5.640000000000000568e+01 2.318791301466092492e+01
5.680000000000000426e+01 2.311655704132746081e+01
5.720000000000000284e+01 2.304596465603268385e+01
5.760000000000000142e+01 2.297612153071116836e+01
5.800000000000000000e+01 2.290701372081554155e+01
5.840000000000000568e+01 2.283862765204640866e+01
5.880000000000000426e+01 2.277095010764327299e+01
5.920000000000000284e+01 2.270396821620837713e+01
5.960000000000000142e+01 2.263766944003723580e+01
6.000000000000000000e+01 2.257204156393093797e+01
6.040000000000000568e+01 2.096208111930069862e+01
6.080000000000000426e+01 2.088972503837132422e+01
6.120000000000000284e+01 2.081812244267475620e+01
6.160000000000000142e+01 2.074726010530876863e+01
6.200000000000000000e+01 2.067712512514858858e+01
6.240000000000000568e+01 2.060770491654354331e+01
6.280000000000000426e+01 2.053898719941117434e+01
6.320000000000000284e+01 2.049864141650284566e+01
6.360000000000000142e+01 2.043432791952253780e+01
6.400000000000000000e+01 2.037063262805322239e+01
6.440000000000000568e+01 2.030754551322678481e+01
6.480000000000001137e+01 2.024505677425840133e+01
6.520000000000000284e+01 2.018315683179488218e+01
6.559999999999999432e+01 2.012183632149902834e+01
6.600000000000000000e+01 2.006108608786036740e+01
6.640000000000000568e+01 2.000089717822276469e+01
6.680000000000001137e+01 1.994126083701995356e+01
6.720000000000000284e+01 1.988216850021056104e+01
6.759999999999999432e+01 1.982361178990441175e+01
6.800000000000000000e+01 1.976558250917241466e+01
6.840000000000000568e+01 1.970807263703265733e+01
6.880000000000001137e+01 1.965107432360563422e+01
6.920000000000000284e+01 1.959457988543195128e+01
6.959999999999999432e+01 1.953858180094600527e+01
7.000000000000000000e+01 1.948307270609963382e+01
7.040000000000000568e+01 1.942804539012979959e+01
7.080000000000001137e+01 1.937349279146477699e+01
7.120000000000000284e+01 1.931940799376346973e+01
7.159999999999999432e+01 1.926578422208280017e+01
7.200000000000000000e+01 1.921261483916829604e+01
7.240000000000000568e+01 1.915987140623210294e+01
7.280000000000001137e+01 1.910674959452660460e+01
7.320000000000000284e+01 1.905407572073506373e+01
7.359999999999999432e+01 1.900184340155973572e+01
7.400000000000000000e+01 1.895004638151020870e+01
7.440000000000000568e+01 1.889867852961540962e+01
7.479999999999999716e+01 1.884773383623875276e+01
7.520000000000000284e+01 1.879720640999260439e+01
7.560000000000000853e+01 1.874709047474847168e+01
7.600000000000000000e+01 1.869738036673937387e+01
7.640000000000000568e+01 1.864807053175100293e+01
7.679999999999999716e+01 1.859915552239860403e+01
7.720000000000000284e+01 1.855062999548630387e+01
7.760000000000000853e+01 1.850248870944615120e+01
7.800000000000000000e+01 1.845472652185380014e+01
7.840000000000000568e+01 1.840733838701843084e+01
7.879999999999999716e+01 1.836031935364395906e+01
7.920000000000000284e+01 1.831366456255930331e+01
7.960000000000000853e+01 1.826736924451522981e+01
8.000000000000000000e+01 1.822142871804539155e+01
8.040000000000000568e+01 1.817583838738950774e+01
8.079999999999999716e+01 1.813059374047639238e+01
8.120000000000000284e+01 1.808569034696496658e+01
8.160000000000000853e+01 1.804112385634115157e+01
8.200000000000000000e+01 1.799688999606881623e+01
8.240000000000000568e+01 1.795298456979299218e+01
8.279999999999999716e+01 1.790940345559362257e+01
8.320000000000000284e+01 1.788292935767376690e+01
8.360000000000000853e+01 1.784064556597017770e+01
8.400000000000000000e+01 1.779866637863840850e+01
8.440000000000000568e+01 1.775698808502225745e+01
8.479999999999999716e+01 1.771560703800486181e+01
8.520000000000000284e+01 1.767451965261053459e+01
8.560000000000000853e+01 1.763372240464411789e+01
8.600000000000000000e+01 1.759321182936673722e+01
8.640000000000000568e+01 1.755298452020665678e+01
8.680000000000001137e+01 1.751303712750426911e+01
8.720000000000000284e+01 1.747226319000911587e+01
8.760000000000000853e+01 1.743134577983908073e+01
8.800000000000000000e+01 1.739071226781621249e+01
8.840000000000000568e+01 1.735035933483377235e+01
8.880000000000001137e+01 1.731028371632541862e+01
8.920000000000000284e+01 1.727048220111300481e+01
8.960000000000000853e+01 1.723095163028411037e+01
9.000000000000000000e+01 1.719168889609829165e+01
9.040000000000000568e+01 1.715269094092127844e+01
9.080000000000001137e+01 1.711395475618629547e+01
9.120000000000000284e+01 1.707547738138153193e+01
9.160000000000000853e+01 1.703725590306320470e+01
9.200000000000000000e+01 1.699928745389329876e+01
9.240000000000000568e+01 1.696156921170130971e+01
9.280000000000001137e+01 1.692409839856927789e+01
9.320000000000000284e+01 1.688687227993944617e+01
9.360000000000000853e+01 1.684988816374385934e+01
9.400000000000000000e+01 1.681309562814289293e+01
9.440000000000000568e+01 1.677650936025558792e+01
9.480000000000001137e+01 1.674015757014059602e+01
9.520000000000000284e+01 1.670403772756940342e+01
9.560000000000000853e+01 1.666814734069638959e+01
9.600000000000000000e+01 1.663248395531001123e+01
9.640000000000000568e+01 1.659704515410173542e+01
9.680000000000001137e+01 1.656182855595236347e+01
9.720000000000000284e+01 1.652683181523516254e+01
9.760000000000000853e+01 1.649205262113538950e+01
9.800000000000000000e+01 1.645748869698570616e+01
9.840000000000000568e+01 1.642313779961709841e+01
9.880000000000001137e+01 1.638899771872487676e+01
9.920000000000000284e+01 1.635506627624923226e+01
9.960000000000000853e+01 1.632134132577015606e+01
1.000000000000000000e+02 1.628782075191610801e+01
1.004000000000000057e+02 1.625450246978624946e+01
1.008000000000000114e+02 1.622138442438577144e+01
1.012000000000000028e+02 1.618846459007397343e+01
1.016000000000000085e+02 1.615574097002479448e+01
1.020000000000000000e+02 1.612321159569945905e+01
1.024000000000000057e+02 1.609087452633087167e+01
1.028000000000000114e+02 1.605872784841950462e+01
1.032000000000000028e+02 1.602676967524045182e+01
1.036000000000000085e+02 1.599499814636133266e+01
1.040000000000000000e+02 1.596341142717085049e+01
1.044000000000000057e+02 1.593200770841761837e+01
1.048000000000000114e+02 1.590078520575903731e+01
1.052000000000000028e+02 1.586974215932003851e+01
1.056000000000000085e+02 1.583887683326127949e+01
1.060000000000000000e+02 1.580532225696799742e+01
1.064000000000000057e+02 1.577507089710896437e+01
1.068000000000000114e+02 1.574499036951442221e+01
1.072000000000000028e+02 1.571507904878133388e+01
1.076000000000000085e+02 1.568533533127043889e+01
1.080000000000000000e+02 1.565575763473107784e+01
1.084000000000000057e+02 1.562634439793379570e+01
1.088000000000000114e+02 1.559709408031077871e+01
1.092000000000000028e+02 1.556800516160373959e+01
1.096000000000000085e+02 1.553907614151911076e+01
1.100000000000000000e+02 1.551030553939045831e+01
1.104000000000000057e+02 1.548169189384779898e+01
1.108000000000000114e+02 1.545323376249379521e+01
1.112000000000000028e+02 1.542492972158651199e+01
1.116000000000000085e+02 1.539677836572869296e+01
1.120000000000000000e+02 1.536877830756338525e+01
1.124000000000000057e+02 1.534092817747566784e+01
1.128000000000000114e+02 1.531322662330048523e+01
1.132000000000000028e+02 1.528567231003627214e+01
1.136000000000000085e+02 1.525826391956439210e+01
1.140000000000000000e+02 1.523100015037415389e+01
1.144000000000000057e+02 1.520387971729328314e+01
1.148000000000000114e+02 1.517690135122375494e+01
1.152000000000000028e+02 1.515006379888285792e+01
1.156000000000000085e+02 1.512336582254933681e+01
1.160000000000000000e+02 1.509680619981450533e+01
1.164000000000000057e+02 1.507038372333824228e+01
1.168000000000000114e+02 1.504409720060974287e+01
1.172000000000000028e+02 1.501794545371288869e+01
1.176000000000000085e+02 1.499192731909616683e+01
1.180000000000000000e+02 1.496593861763686917e+01
1.184000000000000057e+02 1.494002908994240286e+01
1.188000000000000114e+02 1.491425087023524476e+01
1.192000000000000028e+02 1.488860283886904945e+01
1.196000000000000085e+02 1.486308388963050575e+01
1.200000000000000000e+02 1.483769292953181917e+01
1.204000000000000057e+02 1.481242887860704549e+01
1.208000000000000114e+02 1.478729066971229145e+01
1.212000000000000028e+02 1.476227724832967070e+01
1.216000000000000085e+02 1.473738757237484265e+01
1.220000000000000000e+02 1.476970851414396435e+01
1.224000000000000057e+02 1.474642474106536483e+01
1.228000000000000114e+02 1.472325254409148876e+01
1.232000000000000028e+02 1.470019101811551820e+01
1.236000000000000085e+02 1.467723926838031900e+01
1.240000000000000000e+02 1.465439641032591034e+01
1.244000000000000057e+02 1.463166156943967522e+01
1.248000000000000114e+02 1.460903388110926926e+01
1.252000000000000028e+02 1.458651249047813891e+01
1.256000000000000085e+02 1.456409655230368827e+01
1.260000000000000000e+02 1.454178523081785279e+01
1.264000000000000057e+02 1.451957769959025057e+01
1.268000000000000114e+02 1.449747314139369792e+01
1.272000000000000028e+02 1.447547074807209455e+01
1.276000000000000085e+02 1.445356972041065191e+01
1.280000000000000000e+02 1.443176926800837379e+01
1.284000000000000057e+02 1.441006860915275389e+01
1.288000000000000114e+02 1.438846697069666902e+01
1.291999999999999886e+02 1.436696358793739847e+01
1.296000000000000227e+02 1.434555770449772893e+01
1.300000000000000000e+02 1.432424857220911818e+01
1.304000000000000057e+02 1.430303545099684115e+01
1.308000000000000114e+02 1.428191760876710958e+01
1.311999999999999886e+02 1.426289811189005263e+01
1.316000000000000227e+02 1.424218409497331095e+01
1.320000000000000000e+02 1.422156172615135006e+01
1.324000000000000057e+02 1.420103031865657428e+01
1.328000000000000114e+02 1.418058919297967435e+01
1.331999999999999886e+02 1.416023767677072520e+01
1.336000000000000227e+02 1.413997510474191621e+01
1.340000000000000000e+02 1.411980081857187486e+01
1.344000000000000057e+02 1.409971416681161926e+01
1.348000000000000114e+02 1.407971450479203313e+01
1.351999999999999886e+02 1.405980119453286470e+01
1.356000000000000227e+02 1.403997360465321975e+01
1.360000000000000000e+02 1.402023111028356972e+01
1.364000000000000057e+02 1.400057309297909569e+01
1.368000000000000114e+02 1.398099894063454052e+01
1.371999999999999886e+02 1.396150804740037898e+01
1.376000000000000227e+02 1.394209981360038242e+01
1.380000000000000000e+02 1.392277364565046760e+01
1.384000000000000057e+02 1.390352895597892768e+01
1.388000000000000114e+02 1.388436516294783374e+01
1.392000000000000171e+02 1.386528169077579875e+01
1.395999999999999943e+02 1.384627796946189093e+01
1.400000000000000000e+02 1.382735343471080824e+01
1.404000000000000057e+02 1.380850752785921287e+01
1.408000000000000114e+02 1.378973969580324521e+01
1.412000000000000171e+02 1.377104939092714275e+01
1.415999999999999943e+02 1.375243607103304200e+01
1.420000000000000000e+02 1.373389919927180181e+01
1.424000000000000057e+02 1.371543824407500267e+01
1.428000000000000114e+02 1.369705267908789992e+01
1.432000000000000171e+02 1.367874198310349243e+01
1.435999999999999943e+02 1.366050563999759504e+01
1.440000000000000000e+02 1.364234313866487724e+01
1.444000000000000057e+02 1.362425397295594109e+01
1.448000000000000114e+02 1.360617003703858074e+01
1.452000000000000171e+02 1.358815443218988506e+01
1.455999999999999943e+02 1.357021116147841688e+01
1.460000000000000000e+02 1.355233973338564724e+01
1.464000000000000057e+02 1.353453966110428297e+01
1.468000000000000114e+02 1.351681046247999163e+01
1.472000000000000171e+02 1.349915165995405175e+01
1.475999999999999943e+02 1.348156278050684875e+01
1.480000000000000000e+02 1.346404335560221810e+01
1.484000000000000057e+02 1.344659292113264648e+01
1.488000000000000114e+02 1.342921101736525280e+01
1.492000000000000171e+02 1.341189718888861826e+01
1.495999999999999943e+02 1.339465098456036607e+01
1.500000000000000000e+02 1.337747195745556184e+01
