1.000000000000000000e+01 1.359370756322110481e+02
1.040000000000000036e+01 1.588257466681028234e+02
1.080000000000000071e+01 1.800830891264752722e+02
1.119999999999999929e+01 1.891885845273531856e+02
1.159999999999999964e+01 1.816338145735049352e+02
1.200000000000000000e+01 1.750342428822547731e+02
1.240000000000000036e+01 1.691973652492733891e+02
1.280000000000000071e+01 1.639821734919972869e+02
1.319999999999999929e+01 1.592824226561097589e+02
1.359999999999999964e+01 1.550351385330610015e+02
1.400000000000000000e+01 1.512460671919358788e+02
1.440000000000000036e+01 1.477621066147758313e+02
1.480000000000000071e+01 1.445431182860166075e+02
1.519999999999999929e+01 1.415561348569522977e+02
1.560000000000000142e+01 1.387737701585987224e+02
1.600000000000000000e+01 1.361730440532750208e+02
1.639999999999999858e+01 1.338492411485590594e+02
1.680000000000000071e+01 1.317709720909072644e+02
1.719999999999999929e+01 1.298111924731883278e+02
1.760000000000000142e+01 1.144067202824508342e+02
1.800000000000000000e+01 1.127621430653508696e+02
1.839999999999999858e+01 1.111939033327199553e+02
1.880000000000000071e+01 1.083002038311499149e+02
1.920000000000000284e+01 1.069039543344565431e+02
1.960000000000000142e+01 1.055665832732987610e+02
2.000000000000000000e+01 1.042838549798893837e+02
2.039999999999999858e+01 1.030519613137237656e+02
2.080000000000000071e+01 1.018674665698009392e+02
2.120000000000000284e+01 1.007272609563296015e+02
2.160000000000000142e+01 9.962852109145890722e+01
2.200000000000000000e+01 9.856867628641010981e+01
2.239999999999999858e+01 9.754537962782369220e+01
2.280000000000000071e+01 9.655648306322713381e+01
2.320000000000000284e+01 9.560001584345846481e+01
2.360000000000000142e+01 9.467416579436888924e+01
2.400000000000000000e+01 9.377338631608327546e+01
2.439999999999999858e+01 9.275108435772189353e+01
2.480000000000000071e+01 9.173569301942852405e+01
2.520000000000000284e+01 9.075279409874528369e+01
2.560000000000000142e+01 8.980066092825694568e+01
2.600000000000000000e+01 8.887769354845615055e+01
2.640000000000000213e+01 8.798240694033529508e+01
2.680000000000000071e+01 8.711342057195759025e+01
2.719999999999999929e+01 8.626944908846950000e+01
2.760000000000000142e+01 8.544929400013216991e+01
2.800000000000000000e+01 8.465183624393996809e+01
2.840000000000000213e+01 8.387602951201070312e+01
2.880000000000000071e+01 7.898189991539921095e+01
2.920000000000000284e+01 7.821501403549800102e+01
2.960000000000000142e+01 7.746795383644770538e+01
3.000000000000000000e+01 7.673987226655317784e+01
3.040000000000000213e+01 7.602997237389260476e+01
3.080000000000000071e+01 7.533750354284387640e+01
3.120000000000000284e+01 7.466175807177567947e+01
3.160000000000000142e+01 7.400206805582752168e+01
3.200000000000000000e+01 7.372771087647367949e+01
3.240000000000000568e+01 7.311914165637212193e+01
3.279999999999999716e+01 7.252422669547323153e+01
3.320000000000000284e+01 7.194245854641955873e+01
3.360000000000000142e+01 7.137335595736264793e+01
3.400000000000000000e+01 7.081646214894676916e+01
3.440000000000000568e+01 7.027134322846693237e+01
3.479999999999999716e+01 6.973758672842728856e+01
3.520000000000000284e+01 6.921480025808246239e+01
3.560000000000000142e+01 6.870261025774297536e+01
3.600000000000000000e+01 6.820066084667875828e+01
3.640000000000000568e+01 6.770861275639030907e+01
3.679999999999999716e+01 6.913156888636224551e+01
3.720000000000000284e+01 6.873627421714738261e+01
3.760000000000000142e+01 6.834771300480500145e+01
3.800000000000000000e+01 6.796569185286364245e+01
3.840000000000000568e+01 6.759002517674713317e+01
3.879999999999999716e+01 6.722053479781939700e+01
3.920000000000000284e+01 6.685704956316061498e+01
3.960000000000000142e+01 6.649883071612140384e+01
4.000000000000000000e+01 6.614326130858427177e+01
4.040000000000000568e+01 6.579329252456670929e+01
4.079999999999999716e+01 6.544877562859343811e+01
4.120000000000000284e+01 6.509918695685790624e+01
4.160000000000000142e+01 6.475386812878444687e+01
4.200000000000000000e+01 6.441382809868642312e+01
4.239999999999999858e+01 6.407893124099743432e+01
4.280000000000000426e+01 6.374904682351675689e+01
4.320000000000000284e+01 6.342404878043470262e+01
4.360000000000000142e+01 6.310381549819643254e+01
4.400000000000000000e+01 6.278822961334819297e+01
4.439999999999999858e+01 6.247717782157829447e+01
4.480000000000000426e+01 6.217055069722117366e+01
4.520000000000000284e+01 6.186824252255102152e+01
4.560000000000000142e+01 6.157015112623864184e+01
4.600000000000000000e+01 6.127617773039300886e+01
4.639999999999999858e+01 6.098622680565006249e+01
4.680000000000000426e+01 6.070020593380992580e+01
4.720000000000000284e+01 6.041802567755988917e+01
4.760000000000000142e+01 6.013959945685189723e+01
4.800000000000000000e+01 5.986484343153522047e+01
4.840000000000000568e+01 5.959367638987033899e+01
4.880000000000000426e+01 5.932601964257768401e+01
4.920000000000000284e+01 5.906034259613279858e+01
4.960000000000000142e+01 5.882687869443383732e+01
5.000000000000000000e+01 5.855721810827657237e+01
5.040000000000000568e+01 5.829104500924199783e+01
5.080000000000000426e+01 5.802828408580785435e+01
5.120000000000000284e+01 5.776886230303031056e+01
5.160000000000000142e+01 5.751270881422345838e+01
5.200000000000000000e+01 5.725975487681428433e+01
5.240000000000000568e+01 5.700993377214052771e+01
5.280000000000000426e+01 5.676318072897433353e+01
5.320000000000000284e+01 5.651943285056738375e+01
5.360000000000000142e+01 5.627862904502700303e+01
5.400000000000000000e+01 5.604070995884391948e+01
5.440000000000000568e+01 5.580561791340385724e+01
5.480000000000000426e+01 5.557329684432501438e+01
5.520000000000000284e+01 5.534369224347355498e+01
5.560000000000000142e+01 5.511675110351765028e+01
5.600000000000000000e+01 5.489242186488954189e+01
5.640000000000000568e+01 5.467065436503196452e+01
5.680000000000000426e+01 5.445139978981356421e+01
5.720000000000000284e+01 5.423461062700361879e+01
5.760000000000000142e+01 5.402024062170385577e+01
5.800000000000000000e+01 5.380824473363988147e+01
5.840000000000000568e+01 5.359857909622107286e+01
5.880000000000000426e+01 5.339120097728262238e+01
5.920000000000000284e+01 5.339645630390238296e+01
5.960000000000000142e+01 5.320174045157659748e+01
6.000000000000000000e+01 5.300905853921391042e+01
6.040000000000000568e+01 5.281837498411742615e+01
6.080000000000000426e+01 5.262965507587069425e+01
6.120000000000000284e+01 5.244286494887200689e+01
6.160000000000000142e+01 5.225797155592359644e+01
6.200000000000000000e+01 5.207494264282790652e+01
6.240000000000000568e+01 5.189374672394582433e+01
6.280000000000000426e+01 5.171435305867385068e+01
6.320000000000000284e+01 5.153673162879939440e+01
6.360000000000000142e+01 5.136085311669584286e+01
6.400000000000000000e+01 5.118668888432028297e+01
6.440000000000000568e+01 5.101421095297940411e+01
6.480000000000001137e+01 5.084339198383024438e+01
6.520000000000000284e+01 5.067420525908443807e+01
6.559999999999999432e+01 5.050662466388597949e+01
6.600000000000000000e+01 5.034062466883405307e+01
6.640000000000000568e+01 5.017618031312395033e+01
6.680000000000001137e+01 5.001326718828022422e+01
6.720000000000000284e+01 4.985186142245732555e+01
6.759999999999999432e+01 5.020796355448607073e+01
6.800000000000000000e+01 5.005621559035834167e+01
6.840000000000000568e+01 4.990582815558519769e+01
6.880000000000001137e+01 4.975678062531609669e+01
6.920000000000000284e+01 4.960905281577656467e+01
6.959999999999999432e+01 4.946262497208611109e+01
7.000000000000000000e+01 4.931747775648835841e+01
7.040000000000000568e+01 4.917359223697686588e+01
7.080000000000001137e+01 4.903094987630095858e+01
7.120000000000000284e+01 4.890328846813807928e+01
7.159999999999999432e+01 4.876458396483184288e+01
7.200000000000000000e+01 4.862705455934599286e+01
7.240000000000000568e+01 4.849068341763987178e+01
7.280000000000001137e+01 4.835545404595033858e+01
7.320000000000000284e+01 4.822135028190591299e+01
7.359999999999999432e+01 4.808835628592505884e+01
7.400000000000000000e+01 4.795645653288828214e+01
7.440000000000000568e+01 4.782563580407363446e+01
7.479999999999999716e+01 4.769587917934539689e+01
7.520000000000000284e+01 4.756717202958726887e+01
7.560000000000000853e+01 4.743950000937018530e+01
7.600000000000000000e+01 4.731284904984679685e+01
7.640000000000000568e+01 4.718720535186395892e+01
7.679999999999999716e+01 4.706255537928542765e+01
7.720000000000000284e+01 4.693888585251725232e+01
7.760000000000000853e+01 4.681570276327379787e+01
7.800000000000000000e+01 4.669170633033858309e+01
7.840000000000000568e+01 4.656867910970174051e+01
7.879999999999999716e+01 4.644660832288236918e+01
7.920000000000000284e+01 4.632548142880613540e+01
7.960000000000000853e+01 4.620528611811248254e+01
8.000000000000000000e+01 4.608601030762891071e+01
8.040000000000000568e+01 4.596764213500659224e+01
8.079999999999999716e+01 4.585016995351203661e+01
8.120000000000000284e+01 4.573358232696897829e+01
8.160000000000000853e+01 4.561786802484574821e+01
8.200000000000000000e+01 4.550301601748302716e+01
8.240000000000000568e+01 4.538901547145709259e+01
8.279999999999999716e+01 4.527548948190186451e+01
8.320000000000000284e+01 4.516268498787346175e+01
8.360000000000000853e+01 4.505070539557357279e+01
8.400000000000000000e+01 4.493954054186190916e+01
8.440000000000000568e+01 4.482918043992147261e+01
8.479999999999999716e+01 4.471961527531188096e+01
8.520000000000000284e+01 4.461083540213106602e+01
8.560000000000000853e+01 4.450283133928139279e+01
8.600000000000000000e+01 4.439549147543911545e+01
8.640000000000000568e+01 4.428887513353760852e+01
8.680000000000001137e+01 4.418300017537986690e+01
8.720000000000000284e+01 4.407785795743772894e+01
8.760000000000000853e+01 4.397343997757131717e+01
8.800000000000000000e+01 4.386973787205390352e+01
8.840000000000000568e+01 4.376674341267330703e+01
8.880000000000001137e+01 4.366444850390739418e+01
8.920000000000000284e+01 4.356284518017163521e+01
8.960000000000000853e+01 4.346192560313618714e+01
9.000000000000000000e+01 4.336168205911090467e+01
9.040000000000000568e+01 4.326210695649584892e+01
9.080000000000001137e+01 4.316319282329552465e+01
9.120000000000000284e+01 4.306493230469504141e+01
9.160000000000000853e+01 4.296731816069615206e+01
9.200000000000000000e+01 4.287034326381167659e+01
9.240000000000000568e+01 4.277400059681642119e+01
9.280000000000001137e+01 4.267828325055300098e+01
9.320000000000000284e+01 4.258318442179118080e+01
9.360000000000000853e+01 4.248869741113868770e+01
9.400000000000000000e+01 4.239481562100277756e+01
9.440000000000000568e+01 4.230153255360031750e+01
9.480000000000001137e+01 4.220884180901566651e+01
9.520000000000000284e+01 4.211673708330452826e+01
9.560000000000000853e+01 4.202521216664283799e+01
9.600000000000000000e+01 4.193426094151919870e+01
9.640000000000000568e+01 4.184698476561251113e+01
9.680000000000001137e+01 4.175788242199884337e+01
9.720000000000000284e+01 4.166933013666721308e+01
9.760000000000000853e+01 4.158132221618227220e+01
9.800000000000000000e+01 4.149385304979877276e+01
9.840000000000000568e+01 4.140691710791646329e+01
9.880000000000001137e+01 4.132050894057023527e+01
9.920000000000000284e+01 4.123462317595473081e+01
9.960000000000000853e+01 4.114925451898211861e+01
1.000000000000000000e+02 4.106439774987262581e+01
1.004000000000000057e+02 4.098004772277658248e+01
1.008000000000000114e+02 4.089619936442722548e+01
1.012000000000000028e+02 4.081284767282373593e+01
1.016000000000000085e+02 4.072998771594316025e+01
1.020000000000000000e+02 4.073709308084525560e+01
1.024000000000000057e+02 4.065658721791970720e+01
1.028000000000000114e+02 4.057654704426735748e+01
1.032000000000000028e+02 4.049696803377205612e+01
1.036000000000000085e+02 4.041784572210261928e+01
1.040000000000000000e+02 4.033917570562702792e+01
1.044000000000000057e+02 4.026095364035003143e+01
1.048000000000000114e+02 4.018317524087333936e+01
1.052000000000000028e+02 4.010583627937810292e+01
1.056000000000000085e+02 4.002893258462891879e+01
1.060000000000000000e+02 3.995246004099901427e+01
1.064000000000000057e+02 3.987641458751578227e+01
1.068000000000000114e+02 3.980079221692643898e+01
1.072000000000000028e+02 3.972558897478334217e+01
1.076000000000000085e+02 3.965080095854813180e+01
1.080000000000000000e+02 3.957642431671460770e+01
1.084000000000000057e+02 3.947860546565709683e+01
1.088000000000000114e+02 3.940613507182175113e+01
1.092000000000000028e+02 3.933406119125245937e+01
1.096000000000000085e+02 3.926238015829822814e+01
1.100000000000000000e+02 3.919081281594641553e+01
1.104000000000000057e+02 3.911961071529809431e+01
1.108000000000000114e+02 3.904879265011705058e+01
1.112000000000000028e+02 3.897835512095732469e+01
1.116000000000000085e+02 3.890829467331506208e+01
1.120000000000000000e+02 3.883860789688368698e+01
1.124000000000000057e+02 3.876929142482394752e+01
1.128000000000000114e+02 3.870034193304883985e+01
1.132000000000000028e+02 3.863175613952304133e+01
1.136000000000000085e+02 3.856353080357615681e+01
1.140000000000000000e+02 3.849566272523002652e+01
1.144000000000000057e+02 3.842814874453910789e+01
1.148000000000000114e+02 3.836098574094424407e+01
1.152000000000000028e+02 3.829417063263895926e+01
1.156000000000000085e+02 3.822770037594845860e+01
1.160000000000000000e+02 3.816157196472069302e+01
1.164000000000000057e+02 3.809578242972931861e+01
1.168000000000000114e+02 3.803032883808843678e+01
1.172000000000000028e+02 3.796520829267851838e+01
1.176000000000000085e+02 3.790041793158357564e+01
1.180000000000000000e+02 3.783595492753907052e+01
1.184000000000000057e+02 3.777181648739053799e+01
1.188000000000000114e+02 3.770799985156253342e+01
1.192000000000000028e+02 3.764450229353760591e+01
1.196000000000000085e+02 3.758132111934533270e+01
1.200000000000000000e+02 3.751845366706097451e+01
1.204000000000000057e+02 3.745589730631349568e+01
1.208000000000000114e+02 3.739364943780298489e+01
1.212000000000000028e+02 3.733170749282699319e+01
1.216000000000000085e+02 3.727006893281580346e+01
1.220000000000000000e+02 3.720873124887632599e+01
1.224000000000000057e+02 3.714769196134432150e+01
1.228000000000000114e+02 3.708694861934520048e+01
1.232000000000000028e+02 3.702649880036253904e+01
1.236000000000000085e+02 3.696634010981481566e+01
1.240000000000000000e+02 3.690647018063970108e+01
1.244000000000000057e+02 3.684688667288601494e+01
1.248000000000000114e+02 3.678758727331307909e+01
1.252000000000000028e+02 3.673308929915950216e+01
1.256000000000000085e+02 3.667475316385314699e+01
1.260000000000000000e+02 3.661663374397780046e+01
1.264000000000000057e+02 3.655868097868356159e+01
1.268000000000000114e+02 3.650099974965522875e+01
1.272000000000000028e+02 3.644358791116189167e+01
1.276000000000000085e+02 3.638644334134900049e+01
1.280000000000000000e+02 3.632956394189567817e+01
1.284000000000000057e+02 3.627294763767798003e+01
1.288000000000000114e+02 3.621659237643817164e+01
1.291999999999999886e+02 3.616049612845963424e+01
1.296000000000000227e+02 3.610465688624753966e+01
1.300000000000000000e+02 3.604907266421506051e+01
1.304000000000000057e+02 3.599374149837488801e+01
1.308000000000000114e+02 3.593866144603622814e+01
1.311999999999999886e+02 3.588361445534305005e+01
1.316000000000000227e+02 3.582845762142656554e+01
1.320000000000000000e+02 3.577354909930011218e+01
1.324000000000000057e+02 3.571888700783070192e+01
1.328000000000000114e+02 3.566446948592943755e+01
1.331999999999999886e+02 3.561029469227626976e+01
1.336000000000000227e+02 3.555636080504920926e+01
1.340000000000000000e+02 3.550266602165833518e+01
1.344000000000000057e+02 3.544920855848393160e+01
1.348000000000000114e+02 3.539598665061930660e+01
1.351999999999999886e+02 3.534299855161764725e+01
1.356000000000000227e+02 3.529024253324317328e+01
1.360000000000000000e+02 3.523771688522635515e+01
1.364000000000000057e+02 3.518541991502321054e+01
1.368000000000000114e+02 3.513334994757848762e+01
1.371999999999999886e+02 3.508150532509272779e+01
1.376000000000000227e+02 3.502988440679320092e+01
1.380000000000000000e+02 3.497848556870849279e+01
1.384000000000000057e+02 3.492730720344668782e+01
1.388000000000000114e+02 3.487634771997730354e+01
1.392000000000000171e+02 3.482560554341660009e+01
1.395999999999999943e+02 3.477507911481637848e+01
1.400000000000000000e+02 3.472476689095613267e+01
1.404000000000000057e+02 3.467466734413859086e+01
1.408000000000000114e+02 3.462464390350388044e+01
1.412000000000000171e+02 3.457482550032433721e+01
1.415999999999999943e+02 3.452521586412068899e+01
1.420000000000000000e+02 3.447581352313127212e+01
1.424000000000000057e+02 3.442661702018375536e+01
1.428000000000000114e+02 3.437762491250876451e+01
1.432000000000000171e+02 3.432883577155637056e+01
1.435999999999999943e+02 3.428024818281559050e+01
1.440000000000000000e+02 3.423186074563649584e+01
1.444000000000000057e+02 3.418367207305524147e+01
1.448000000000000114e+02 3.413568079162172353e+01
1.452000000000000171e+02 3.408788554122987335e+01
1.455999999999999943e+02 3.404028497495065153e+01
1.460000000000000000e+02 3.399287775886747909e+01
1.464000000000000057e+02 3.394566257191431191e+01
1.468000000000000114e+02 3.389863810571601022e+01
1.472000000000000171e+02 3.385180306443135123e+01
1.475999999999999943e+02 3.380515616459823036e+01
1.480000000000000000e+02 3.375869613498132082e+01
1.484000000000000057e+02 3.371242171642190755e+01
1.488000000000000114e+02 3.366633166169017244e+01
1.492000000000000171e+02 3.362042473533948339e+01
1.495999999999999943e+02 3.357469971356295702e+01
1.500000000000000000e+02 3.352915538405217433e+01
