1.000000000000000000e+01 8.062893339912088209e+01
1.040000000000000036e+01 1.107469517973396904e+02
1.080000000000000071e+01 1.288263887110605026e+02
1.119999999999999929e+01 1.433741430102092522e+02
1.159999999999999964e+01 1.439237008185189666e+02
1.200000000000000000e+01 1.455895861688301522e+02
1.240000000000000036e+01 1.473419365333394921e+02
1.280000000000000071e+01 1.491601082665414140e+02
1.319999999999999929e+01 1.520064948107912812e+02
1.359999999999999964e+01 1.568371281869947325e+02
1.400000000000000000e+01 1.665024634987082948e+02
1.440000000000000036e+01 1.631765070857969988e+02
1.480000000000000071e+01 1.600746358181735900e+02
1.519999999999999929e+01 1.571712478779016919e+02
1.560000000000000142e+01 1.544448216625467580e+02
1.600000000000000000e+01 1.518770903879308207e+02
1.639999999999999858e+01 1.494524169645918903e+02
1.680000000000000071e+01 1.471573130363466930e+02
1.719999999999999929e+01 1.449800637348138821e+02
1.760000000000000142e+01 1.429104312451690646e+02
1.800000000000000000e+01 1.409394179975731447e+02
1.839999999999999858e+01 1.390590755706677442e+02
1.880000000000000071e+01 1.372623490624417002e+02
1.920000000000000284e+01 1.355429492807933514e+02
1.960000000000000142e+01 1.338952469729310906e+02
2.000000000000000000e+01 1.323141846736518517e+02
2.039999999999999858e+01 1.307952027574431781e+02
2.080000000000000071e+01 1.293341770301950646e+02
2.120000000000000284e+01 1.279273657634518173e+02
2.160000000000000142e+01 1.265713645068470896e+02
2.200000000000000000e+01 1.252630673476083132e+02
2.239999999999999858e+01 1.239996335448846452e+02
2.280000000000000071e+01 1.227784586693829851e+02
2.320000000000000284e+01 1.215971495387610446e+02
2.360000000000000142e+01 1.204535023663493973e+02
2.400000000000000000e+01 1.193454836424671583e+02
2.439999999999999858e+01 1.182712133494593019e+02
2.480000000000000071e+01 1.172289501778722070e+02
2.520000000000000284e+01 1.162170784651611086e+02
2.560000000000000142e+01 1.152340966225076642e+02
2.600000000000000000e+01 1.142786068516748230e+02
2.640000000000000213e+01 1.133493059838711474e+02
2.680000000000000071e+01 1.124449772975453925e+02
2.719999999999999929e+01 1.115644831928305791e+02
2.760000000000000142e+01 1.107067586177787035e+02
2.800000000000000000e+01 1.098708051561636694e+02
2.840000000000000213e+01 1.090556856989834102e+02
2.880000000000000071e+01 1.082605196322488865e+02
2.920000000000000284e+01 1.074844784825333619e+02
2.960000000000000142e+01 1.067267819693265807e+02
3.000000000000000000e+01 1.059866944197150076e+02
3.040000000000000213e+01 1.052635215064604637e+02
3.080000000000000071e+01 1.045566072753265985e+02
3.120000000000000284e+01 1.038653314316206462e+02
3.160000000000000142e+01 1.031891068594797787e+02
3.200000000000000000e+01 1.025273773505204957e+02
3.240000000000000568e+01 1.018796155211522176e+02
3.279999999999999716e+01 1.012453209001959067e+02
3.320000000000000284e+01 1.006240181704890944e+02
3.360000000000000142e+01 1.000152555499483213e+02
3.400000000000000000e+01 9.941860329912427119e+01
3.440000000000000568e+01 9.883365234366556251e+01
3.479999999999999716e+01 9.826001300131900962e+01
3.520000000000000284e+01 9.769731380416452282e+01
3.560000000000000142e+01 9.714520040773129494e+01
3.600000000000000000e+01 9.660333457947781710e+01
3.640000000000000568e+01 9.607139325986408096e+01
3.679999999999999716e+01 9.554906768990512944e+01
3.720000000000000284e+01 9.503606259968296399e+01
3.760000000000000142e+01 9.453209545282022930e+01
3.800000000000000000e+01 9.403689574238637761e+01
3.840000000000000568e+01 9.355020433412833825e+01
3.879999999999999716e+01 9.307177285329144922e+01
3.920000000000000284e+01 9.260136311163569189e+01
3.960000000000000142e+01 9.213874657155348302e+01
4.000000000000000000e+01 9.168370384446882326e+01
4.040000000000000568e+01 9.123602422094280939e+01
4.079999999999999716e+01 9.079550523013232066e+01
4.120000000000000284e+01 9.036195222644830949e+01
4.160000000000000142e+01 8.993517800144141461e+01
4.200000000000000000e+01 8.951500241910677858e+01
4.239999999999999858e+01 8.910125207294736072e+01
4.280000000000000426e+01 8.869375996327174505e+01
4.320000000000000284e+01 8.829236519332276600e+01
4.360000000000000142e+01 8.789691268294642157e+01
4.400000000000000000e+01 8.750725289861105693e+01
4.439999999999999858e+01 8.712324159868009588e+01
4.480000000000000426e+01 8.674473959292477332e+01
4.520000000000000284e+01 8.637161251534192274e+01
4.560000000000000142e+01 8.600373060941087999e+01
4.600000000000000000e+01 8.564096852498973078e+01
4.639999999999999858e+01 8.528320512610832793e+01
4.680000000000000426e+01 8.493032330897135296e+01
4.720000000000000284e+01 8.458220982953358202e+01
4.760000000000000142e+01 8.423875514005511889e+01
4.800000000000000000e+01 8.389985323408696161e+01
4.840000000000000568e+01 8.356540149937538331e+01
4.880000000000000426e+01 8.323530057820933337e+01
4.920000000000000284e+01 8.290945423476786402e+01
4.960000000000000142e+01 8.258776922905492768e+01
5.000000000000000000e+01 8.227015519703682855e+01
5.040000000000000568e+01 8.195652453662304993e+01
5.080000000000000426e+01 8.164679229915554970e+01
5.120000000000000284e+01 8.134087608609321762e+01
5.160000000000000142e+01 8.103869595059919106e+01
5.200000000000000000e+01 8.074017430375661775e+01
5.240000000000000568e+01 8.044523582515741111e+01
5.280000000000000426e+01 8.015380737762349384e+01
5.320000000000000284e+01 7.986581792583616846e+01
5.360000000000000142e+01 7.958119845866225717e+01
5.400000000000000000e+01 7.929988191498004824e+01
5.440000000000000568e+01 7.902180311281887271e+01
5.480000000000000426e+01 7.874689868163812889e+01
5.520000000000000284e+01 7.847510699758232988e+01
5.560000000000000142e+01 7.820636812155780149e+01
5.600000000000000000e+01 7.794062373998661997e+01
5.640000000000000568e+01 7.767781710810103846e+01
5.680000000000000426e+01 7.741789299565078863e+01
5.720000000000000284e+01 7.716079763490166954e+01
5.760000000000000142e+01 7.690647867081199252e+01
5.800000000000000000e+01 7.665488511327932031e+01
5.840000000000000568e+01 7.640596729135626219e+01
5.880000000000000426e+01 7.615967680933965767e+01
5.920000000000000284e+01 7.591596650464265394e+01
5.960000000000000142e+01 7.567479040736492379e+01
6.000000000000000000e+01 7.543610370147987965e+01
6.040000000000000568e+01 7.519986268756289860e+01
6.080000000000000426e+01 7.496602474698867979e+01
6.120000000000000284e+01 7.473454830752901046e+01
6.160000000000000142e+01 7.450539281028709127e+01
6.200000000000000000e+01 7.427851867790653273e+01
6.240000000000000568e+01 7.405388728399771026e+01
6.280000000000000426e+01 7.383146092372619762e+01
6.320000000000000284e+01 7.361120278551130980e+01
6.360000000000000142e+01 7.339307692378551451e+01
6.400000000000000000e+01 7.317704823276771720e+01
6.440000000000000568e+01 7.296308242120589682e+01
6.480000000000001137e+01 7.275114598804717048e+01
6.520000000000000284e+01 7.254120619899465794e+01
6.559999999999999432e+01 7.233323106391348745e+01
6.600000000000000000e+01 7.212718931504967657e+01
6.640000000000000568e+01 7.192305038602694367e+01
6.680000000000001137e+01 7.172078439158933350e+01
6.720000000000000284e+01 7.152036210805799499e+01
6.759999999999999432e+01 7.132175495447251024e+01
6.800000000000000000e+01 7.112493497438886436e+01
6.840000000000000568e+01 7.092987481830638785e+01
6.880000000000001137e+01 7.073654772669888757e+01
6.920000000000000284e+01 7.054492751362478486e+01
6.959999999999999432e+01 7.035498855089339543e+01
7.000000000000000000e+01 7.016670575276479838e+01
7.040000000000000568e+01 6.998005456116247558e+01
7.080000000000001137e+01 6.979501093137798762e+01
7.120000000000000284e+01 6.961155131824874331e+01
7.159999999999999432e+01 6.942965266279037451e+01
7.200000000000000000e+01 6.924929237926565406e+01
7.240000000000000568e+01 6.907044834267395572e+01
7.280000000000001137e+01 6.889309887664424537e+01
7.320000000000000284e+01 6.871722274171683864e+01
7.359999999999999432e+01 6.854279912399901775e+01
7.400000000000000000e+01 6.836980762418045288e+01
7.440000000000000568e+01 6.819822824689485685e+01
7.479999999999999716e+01 6.802804139041528231e+01
7.520000000000000284e+01 6.785922783667038516e+01
7.560000000000000853e+01 6.769176874157004420e+01
7.600000000000000000e+01 6.752564562562916706e+01
7.640000000000000568e+01 6.736084036487842752e+01
7.679999999999999716e+01 6.719733518205200085e+01
7.720000000000000284e+01 6.703511263804210785e+01
7.760000000000000853e+01 6.687415562361100285e+01
7.800000000000000000e+01 6.671444735135088422e+01
7.840000000000000568e+01 6.655597134788358460e+01
7.879999999999999716e+01 6.639871144629096023e+01
7.920000000000000284e+01 6.624265177876847588e+01
7.960000000000000853e+01 6.608777676949378588e+01
8.000000000000000000e+01 6.593407112770317724e+01
8.040000000000000568e+01 6.578151984096864169e+01
8.079999999999999716e+01 6.563010816866869845e+01
8.120000000000000284e+01 6.547982163564626035e+01
8.160000000000000853e+01 6.533064602604757454e+01
8.200000000000000000e+01 6.518256737733561579e+01
8.240000000000000568e+01 6.503557197447271676e+01
8.279999999999999716e+01 6.488964634426615419e+01
8.320000000000000284e+01 6.474477724987194449e+01
8.360000000000000853e+01 6.460095168545096556e+01
8.400000000000000000e+01 6.445815687097295665e+01
8.440000000000000568e+01 6.431638024716338009e+01
8.479999999999999716e+01 6.417560947058836973e+01
8.520000000000000284e+01 6.403583240887348893e+01
8.560000000000000853e+01 6.389703713605204882e+01
8.600000000000000000e+01 6.375921192803853188e+01
8.640000000000000568e+01 6.362234525822356090e+01
8.680000000000001137e+01 6.348642579318630652e+01
8.720000000000000284e+01 6.335144238852058152e+01
8.760000000000000853e+01 6.321738408477124693e+01
8.800000000000000000e+01 6.308424010347750510e+01
8.840000000000000568e+01 6.295199984331951981e+01
8.880000000000001137e+01 6.282065287636544326e+01
8.920000000000000284e+01 6.269018894441552447e+01
8.960000000000000853e+01 6.256059795544057067e+01
9.000000000000000000e+01 6.243186998011178446e+01
9.040000000000000568e+01 6.230399524841901382e+01
9.080000000000001137e+01 6.217696414637529756e+01
9.120000000000000284e+01 6.205076721280421737e+01
9.160000000000000853e+01 6.192539513620874203e+01
9.200000000000000000e+01 6.180083875171803243e+01
9.240000000000000568e+01 6.167708903811058008e+01
9.280000000000001137e+01 6.155413711491132034e+01
9.320000000000000284e+01 6.143197423956033987e+01
9.360000000000000853e+01 6.131059180465128833e+01
9.400000000000000000e+01 6.118998133523733429e+01
9.440000000000000568e+01 6.107013448620296003e+01
9.480000000000001137e+01 6.095104303969927173e+01
9.520000000000000284e+01 6.083269890264153901e+01
9.560000000000000853e+01 6.071509410426661901e+01
9.600000000000000000e+01 6.059822079374910686e+01
9.640000000000000568e+01 6.048207123787411632e+01
9.680000000000001137e+01 6.036663781876543311e+01
9.720000000000000284e+01 6.025191303166717915e+01
9.760000000000000853e+01 6.013788948277775148e+01
9.800000000000000000e+01 6.002455988713455071e+01
9.840000000000000568e+01 5.991191706654777249e+01
9.880000000000001137e+01 5.979995394758251592e+01
9.920000000000000284e+01 5.968866355958726899e+01
9.960000000000000853e+01 5.957803903276781909e+01
1.000000000000000000e+02 5.946807359630546586e+01
1.004000000000000057e+02 5.935876057651791626e+01
1.008000000000000114e+02 5.925009339506224393e+01
1.012000000000000028e+02 5.914206556717829244e+01
1.016000000000000085e+02 5.903467069997181227e+01
1.020000000000000000e+02 5.892790249073601672e+01
1.024000000000000057e+02 5.882175472531071136e+01
1.028000000000000114e+02 5.871622127647795963e+01
1.032000000000000028e+02 5.861129610239321153e+01
1.036000000000000085e+02 5.850697324505112107e+01
1.040000000000000000e+02 5.840324682878513585e+01
1.044000000000000057e+02 5.830011105879975730e+01
1.048000000000000114e+02 5.819756021973508098e+01
1.052000000000000028e+02 5.809558867426218853e+01
1.056000000000000085e+02 5.799419086170923521e+01
1.060000000000000000e+02 5.789336129671678322e+01
1.064000000000000057e+02 5.779309456792238109e+01
1.068000000000000114e+02 5.769338533667287550e+01
1.072000000000000028e+02 5.759422833576444134e+01
1.076000000000000085e+02 5.749561836820902272e+01
1.080000000000000000e+02 5.739755030602717767e+01
1.084000000000000057e+02 5.730001908906600505e+01
1.088000000000000114e+02 5.720301972384193334e+01
1.092000000000000028e+02 5.710654728240781708e+01
1.096000000000000085e+02 5.701059690124331070e+01
1.100000000000000000e+02 5.691516378016853395e+01
1.104000000000000057e+02 5.682024318127979967e+01
1.108000000000000114e+02 5.672583042790756025e+01
1.112000000000000028e+02 5.663192090359548558e+01
1.116000000000000085e+02 5.653851005110038130e+01
1.120000000000000000e+02 5.644559337141247113e+01
1.124000000000000057e+02 5.635316642279556731e+01
1.128000000000000114e+02 5.626122481984641155e+01
1.132000000000000028e+02 5.616976423257316497e+01
1.136000000000000085e+02 5.607878038549211652e+01
1.140000000000000000e+02 5.598826905674253851e+01
1.144000000000000057e+02 5.589822607721912107e+01
1.148000000000000114e+02 5.580864732972150222e+01
1.152000000000000028e+02 5.571952874812072309e+01
1.156000000000000085e+02 5.563086631654177694e+01
1.160000000000000000e+02 5.554265606856262849e+01
1.164000000000000057e+02 5.545489408642829687e+01
1.168000000000000114e+02 5.536757650028076227e+01
1.172000000000000028e+02 5.528069948740328243e+01
1.176000000000000085e+02 5.519425927147977262e+01
1.180000000000000000e+02 5.510825212186801991e+01
1.184000000000000057e+02 5.502267435288705855e+01
1.188000000000000114e+02 5.493752232311818062e+01
1.192000000000000028e+02 5.485279243471898525e+01
1.196000000000000085e+02 5.476848113275080010e+01
1.200000000000000000e+02 5.468458490451835985e+01
1.204000000000000057e+02 5.460110027892250173e+01
1.208000000000000114e+02 5.451802382582437900e+01
1.212000000000000028e+02 5.443535215542201655e+01
1.216000000000000085e+02 5.435308191763825647e+01
1.220000000000000000e+02 5.427120980152019314e+01
1.224000000000000057e+02 5.418973253464959328e+01
1.228000000000000114e+02 5.410864688256427968e+01
1.232000000000000028e+02 5.402794964819013757e+01
1.236000000000000085e+02 5.394763767128353038e+01
1.240000000000000000e+02 5.386770782788375556e+01
1.244000000000000057e+02 5.378815702977571078e+01
1.248000000000000114e+02 5.370898222396208155e+01
1.252000000000000028e+02 5.363018039214518495e+01
1.256000000000000085e+02 5.355174855021810743e+01
1.260000000000000000e+02 5.347368374776491606e+01
1.264000000000000057e+02 5.339598306756997914e+01
1.268000000000000114e+02 5.331864362513582023e+01
1.272000000000000028e+02 5.324166256820968357e+01
1.276000000000000085e+02 5.316503707631848386e+01
1.280000000000000000e+02 5.308876436031184909e+01
1.284000000000000057e+02 5.301284166191334180e+01
1.288000000000000114e+02 5.293726625327945357e+01
1.291999999999999886e+02 5.286203543656643689e+01
1.296000000000000227e+02 5.278714654350437741e+01
1.300000000000000000e+02 5.271259693497917453e+01
1.304000000000000057e+02 5.263838400062122957e+01
1.308000000000000114e+02 5.256450515840153770e+01
1.311999999999999886e+02 5.249095785423470772e+01
1.316000000000000227e+02 5.241773956158869652e+01
1.320000000000000000e+02 5.234484778110121539e+01
1.324000000000000057e+02 5.227228004020282270e+01
1.328000000000000114e+02 5.220003389274614136e+01
1.331999999999999886e+02 5.212810691864170565e+01
1.336000000000000227e+02 5.205649672349961321e+01
1.340000000000000000e+02 5.198520093827748667e+01
1.344000000000000057e+02 5.191421721893411956e+01
1.348000000000000114e+02 5.184354324608901265e+01
1.351999999999999886e+02 5.177317672468768706e+01
1.356000000000000227e+02 5.170311538367232629e+01
1.360000000000000000e+02 5.163335697565808857e+01
1.364000000000000057e+02 5.156389927661462735e+01
1.368000000000000114e+02 5.149474008555292670e+01
1.371999999999999886e+02 5.142587722421724550e+01
1.376000000000000227e+02 5.135730853678216334e+01
1.380000000000000000e+02 5.128903188955445813e+01
1.384000000000000057e+02 5.122104517067989349e+01
1.388000000000000114e+02 5.115334628985483789e+01
1.392000000000000171e+02 5.108593317804240996e+01
1.395999999999999943e+02 5.101880378719322806e+01
1.400000000000000000e+02 5.095195608997077841e+01
1.404000000000000057e+02 5.088538807948105358e+01
1.408000000000000114e+02 5.081909776900645426e+01
1.412000000000000171e+02 5.075308319174413896e+01
1.415999999999999943e+02 5.068734240054837414e+01
1.420000000000000000e+02 5.062187346767694862e+01
1.424000000000000057e+02 5.055667448454170909e+01
1.428000000000000114e+02 5.049174356146287579e+01
1.432000000000000171e+02 5.042707882742741532e+01
1.435999999999999943e+02 5.036267842985098753e+01
1.440000000000000000e+02 5.029854053434368666e+01
1.444000000000000057e+02 5.023466332447948446e+01
1.448000000000000114e+02 5.017104500156920466e+01
1.452000000000000171e+02 5.010768378443692228e+01
1.455999999999999943e+02 5.004457790920006488e+01
1.460000000000000000e+02 4.998172562905252647e+01
1.464000000000000057e+02 4.991912521405146919e+01
1.468000000000000114e+02 4.985677495090716604e+01
1.472000000000000171e+02 4.979467314277609802e+01
1.475999999999999943e+02 4.973281810905723432e+01
1.480000000000000000e+02 4.967120818519140357e+01
1.484000000000000057e+02 4.960984172246363499e+01
1.488000000000000114e+02 4.954871708780851947e+01
1.492000000000000171e+02 4.948783266361851219e+01
1.495999999999999943e+02 4.942718684755513436e+01
1.500000000000000000e+02 4.936677805236287497e+01
