1.000000000000000000e+01 7.381008079071593784e+02
1.040000000000000036e+01 8.544732757372092919e+02
1.080000000000000071e+01 9.051394770206405838e+02
1.119999999999999929e+01 9.521358180107090448e+02
1.159999999999999964e+01 1.014975819389084791e+03
1.200000000000000000e+01 1.065336043978339376e+03
1.240000000000000036e+01 1.078324529128213271e+03
1.280000000000000071e+01 1.176585075062704618e+03
1.319999999999999929e+01 1.213163837449867970e+03
1.359999999999999964e+01 1.259220559461453831e+03
1.400000000000000000e+01 1.251668659096983447e+03
1.440000000000000036e+01 1.226552717144605822e+03
1.480000000000000071e+01 1.203094299224056840e+03
1.519999999999999929e+01 1.181109156564687282e+03
1.560000000000000142e+01 1.160441480780433267e+03
1.600000000000000000e+01 1.140958352485956311e+03
1.639999999999999858e+01 1.122545485841188110e+03
1.680000000000000071e+01 1.105103920382630804e+03
1.719999999999999929e+01 1.088547416787573638e+03
1.760000000000000142e+01 1.072800383500794169e+03
1.800000000000000000e+01 1.057796209055193685e+03
1.839999999999999858e+01 1.043475908180768783e+03
1.880000000000000071e+01 1.029787013287100081e+03
1.920000000000000284e+01 1.016682659750142193e+03
1.960000000000000142e+01 1.004120825684449983e+03
2.000000000000000000e+01 9.920636959053343844e+02
2.039999999999999858e+01 9.804771265106689953e+02
2.080000000000000071e+01 9.693301915791580541e+02
2.120000000000000284e+01 9.585947973382976670e+02
2.160000000000000142e+01 9.482453521177964149e+02
2.200000000000000000e+01 9.382584826999604957e+02
2.239999999999999858e+01 9.286127894720611948e+02
2.280000000000000071e+01 9.192886341975498681e+02
2.320000000000000284e+01 9.102679553423328116e+02
2.360000000000000142e+01 9.015341067857334565e+02
2.400000000000000000e+01 8.930717164633545053e+02
2.439999999999999858e+01 8.848665620688527724e+02
2.480000000000000071e+01 8.769054614127743434e+02
2.520000000000000284e+01 8.691761754214295479e+02
2.560000000000000142e+01 8.616673220747736650e+02
2.600000000000000000e+01 8.543682998429086410e+02
2.640000000000000213e+01 8.472692193968421179e+02
2.680000000000000071e+01 8.403608425489379670e+02
2.719999999999999929e+01 8.336345275287574168e+02
2.760000000000000142e+01 8.270821798260799369e+02
2.800000000000000000e+01 8.206962079390921190e+02
2.840000000000000213e+01 8.144694834554934459e+02
2.880000000000000071e+01 8.083953049704155092e+02
2.920000000000000284e+01 8.024673654098469342e+02
2.960000000000000142e+01 7.966797223835748127e+02
3.000000000000000000e+01 7.910267712390282213e+02
3.040000000000000213e+01 7.855032205280937205e+02
3.080000000000000071e+01 7.801040696340130580e+02
3.120000000000000284e+01 7.748245883357376442e+02
3.160000000000000142e+01 7.696602981133135017e+02
3.200000000000000000e+01 7.646069550206184431e+02
3.240000000000000568e+01 7.596605339715616765e+02
3.279999999999999716e+01 7.548172143031256383e+02
3.320000000000000284e+01 7.500733664937051799e+02
3.360000000000000142e+01 7.454255399284437544e+02
3.400000000000000000e+01 7.408704516148446828e+02
3.440000000000000568e+01 7.364049757621726258e+02
3.479999999999999716e+01 7.320261341471448304e+02
3.520000000000000284e+01 7.277310871963677528e+02
3.560000000000000142e+01 7.235171257230108495e+02
3.600000000000000000e+01 7.193816632614382343e+02
3.640000000000000568e+01 7.153222289490643107e+02
3.679999999999999716e+01 7.113364609096172444e+02
3.720000000000000284e+01 7.074221000963852930e+02
3.760000000000000142e+01 7.035769845579413868e+02
3.800000000000000000e+01 6.997990440923322240e+02
3.840000000000000568e+01 6.960862952588593089e+02
3.879999999999999716e+01 6.924368367193869744e+02
3.920000000000000284e+01 6.888488448836278621e+02
3.960000000000000142e+01 6.853205698351354158e+02
4.000000000000000000e+01 6.818503315167579331e+02
4.040000000000000568e+01 6.784365161561670448e+02
4.079999999999999716e+01 6.750775729137145618e+02
4.120000000000000284e+01 6.717720107363893476e+02
4.160000000000000142e+01 6.685183954029939741e+02
4.200000000000000000e+01 6.653153467468927147e+02
4.239999999999999858e+01 6.621615360437994013e+02
4.280000000000000426e+01 6.590556835530921944e+02
4.320000000000000284e+01 6.559965562020472589e+02
4.360000000000000142e+01 6.529829654032439521e+02
4.400000000000000000e+01 6.500137649961382067e+02
4.439999999999999858e+01 6.470878493045081541e+02
4.480000000000000426e+01 6.442041513021074479e+02
4.520000000000000284e+01 6.413616408794474637e+02
4.560000000000000142e+01 6.385593232051511450e+02
4.600000000000000000e+01 6.357962371758196696e+02
4.639999999999999858e+01 6.330714539487908041e+02
4.680000000000000426e+01 6.303840755525801569e+02
4.720000000000000284e+01 6.277332335701696593e+02
4.760000000000000142e+01 6.251180878906559428e+02
4.800000000000000000e+01 6.225378255250851680e+02
4.840000000000000568e+01 6.199916594825954235e+02
4.880000000000000426e+01 6.174788277032549786e+02
4.920000000000000284e+01 6.149985920442336464e+02
4.960000000000000142e+01 6.125502373161732521e+02
5.000000000000000000e+01 6.101330703668342039e+02
5.040000000000000568e+01 6.077464192092913891e+02
5.080000000000000426e+01 6.053896321921301933e+02
5.120000000000000284e+01 6.030620772092656807e+02
5.160000000000000142e+01 6.007631409471566712e+02
5.200000000000000000e+01 5.984922281673360658e+02
5.240000000000000568e+01 5.962487610223054162e+02
5.280000000000000426e+01 5.940321784029712262e+02
5.320000000000000284e+01 5.918419353159096090e+02
5.360000000000000142e+01 5.896775022888571129e+02
5.400000000000000000e+01 5.875383648029215919e+02
5.440000000000000568e+01 5.854240227501005620e+02
5.480000000000000426e+01 5.833339899147783854e+02
5.520000000000000284e+01 5.812677934779566158e+02
5.560000000000000142e+01 5.792249735430434612e+02
5.600000000000000000e+01 5.772050826820997145e+02
5.640000000000000568e+01 5.752076855015020556e+02
5.680000000000000426e+01 5.732323582260457897e+02
5.720000000000000284e+01 5.712786883005666141e+02
5.760000000000000142e+01 5.693462740082097753e+02
5.800000000000000000e+01 5.674347241045325063e+02
5.840000000000000568e+01 5.655436574666612159e+02
5.880000000000000426e+01 5.636727027567795858e+02
5.920000000000000284e+01 5.618214980992531764e+02
5.960000000000000142e+01 5.599896907707440050e+02
6.000000000000000000e+01 5.581769369026977756e+02
6.040000000000000568e+01 5.563829011956229351e+02
6.080000000000000426e+01 5.546072566446100609e+02
6.120000000000000284e+01 5.528496842755719172e+02
6.160000000000000142e+01 5.511098728917116887e+02
6.200000000000000000e+01 5.493875188297494105e+02
6.240000000000000568e+01 5.476823257254686723e+02
6.280000000000000426e+01 5.459940042881595446e+02
6.320000000000000284e+01 5.443222720835628934e+02
6.360000000000000142e+01 5.426668533249377333e+02
6.400000000000000000e+01 5.410274786718943005e+02
6.440000000000000568e+01 5.394038850366505358e+02
6.480000000000001137e+01 5.377958153973934259e+02
6.520000000000000284e+01 5.362030186184331342e+02
6.559999999999999432e+01 5.346252492768638831e+02
6.600000000000000000e+01 5.330622674954495324e+02
6.640000000000000568e+01 5.315138387814747603e+02
6.680000000000001137e+01 5.299797338713067347e+02
6.720000000000000284e+01 5.284597285804331932e+02
6.759999999999999432e+01 5.269536036587454646e+02
6.800000000000000000e+01 5.254611446508537256e+02
6.840000000000000568e+01 5.239821417612253072e+02
6.880000000000001137e+01 5.225163897239531252e+02
6.920000000000000284e+01 5.210636876769632408e+02
6.959999999999999432e+01 5.196238390404861320e+02
7.000000000000000000e+01 5.181966513996204640e+02
7.040000000000000568e+01 5.167819363908258765e+02
7.080000000000001137e+01 5.153795095921914253e+02
7.120000000000000284e+01 5.139891904173310877e+02
7.159999999999999432e+01 5.126108020127645659e+02
7.200000000000000000e+01 5.112441711586486690e+02
7.240000000000000568e+01 5.098891281727313753e+02
7.280000000000001137e+01 5.085455068174030089e+02
7.320000000000000284e+01 5.072131442097298191e+02
7.359999999999999432e+01 5.058918807343538901e+02
7.400000000000000000e+01 5.045815599591540490e+02
7.440000000000000568e+01 5.032820285535641460e+02
7.479999999999999716e+01 5.019931362094495171e+02
7.520000000000000284e+01 5.007147355644466415e+02
7.560000000000000853e+01 4.994466821276778319e+02
7.600000000000000000e+01 4.981888342077515972e+02
7.640000000000000568e+01 4.969410528429664282e+02
7.679999999999999716e+01 4.957032017336412650e+02
7.720000000000000284e+01 4.944751471764906228e+02
7.760000000000000853e+01 4.932567580009775270e+02
7.800000000000000000e+01 4.920479055075701353e+02
7.840000000000000568e+01 4.908484634078363342e+02
7.879999999999999716e+01 4.896583077663107133e+02
7.920000000000000284e+01 4.884773169440742322e+02
7.960000000000000853e+01 4.873053715439850180e+02
8.000000000000000000e+01 4.861423543575032795e+02
8.040000000000000568e+01 4.849881503130578722e+02
8.079999999999999716e+01 4.838426464258989199e+02
8.120000000000000284e+01 4.827057317493885762e+02
8.160000000000000853e+01 4.815772973276788207e+02
8.200000000000000000e+01 4.804572361497324096e+02
8.240000000000000568e+01 4.793454431046392870e+02
8.279999999999999716e+01 4.782418149381875310e+02
8.320000000000000284e+01 4.771462502106467127e+02
8.360000000000000853e+01 4.760586492557224574e+02
8.400000000000000000e+01 4.749789141406466797e+02
8.440000000000000568e+01 4.739069486273618850e+02
8.479999999999999716e+01 4.728426581347706588e+02
8.520000000000000284e+01 4.717859497020090203e+02
8.560000000000000853e+01 4.707367319527155587e+02
8.600000000000000000e+01 4.696949150602629857e+02
8.640000000000000568e+01 4.686604107139203848e+02
8.680000000000001137e+01 4.676331320859198968e+02
8.720000000000000284e+01 4.666129937993952694e+02
8.760000000000000853e+01 4.655999118971681696e+02
8.800000000000000000e+01 4.645938038113548032e+02
8.840000000000000568e+01 4.635945883337669784e+02
8.880000000000001137e+01 4.626021855870834543e+02
8.920000000000000284e+01 4.616165169967683255e+02
8.960000000000000853e+01 4.606375052637126828e+02
9.000000000000000000e+01 4.596650743375789148e+02
9.040000000000000568e+01 4.586991493908245729e+02
9.080000000000001137e+01 4.577396567933873257e+02
9.120000000000000284e+01 4.567865240880090596e+02
9.160000000000000853e+01 4.558396799661824730e+02
9.200000000000000000e+01 4.548990542446993572e+02
9.240000000000000568e+01 4.539645778427839105e+02
9.280000000000001137e+01 4.530361827597946558e+02
9.320000000000000284e+01 4.521138020534757516e+02
9.360000000000000853e+01 4.511973698187454715e+02
9.400000000000000000e+01 4.502868211670016763e+02
9.440000000000000568e+01 4.493820922059338727e+02
9.480000000000001137e+01 4.484831200198238434e+02
9.520000000000000284e+01 4.475898426503227938e+02
9.560000000000000853e+01 4.467021990776908069e+02
9.600000000000000000e+01 4.458201292024851909e+02
9.640000000000000568e+01 4.449435738276856114e+02
9.680000000000001137e+01 4.440724746412432751e+02
9.720000000000000284e+01 4.432067741990429113e+02
9.760000000000000853e+01 4.423464159082644755e+02
9.800000000000000000e+01 4.414913440111365617e+02
9.840000000000000568e+01 4.406415035690662307e+02
9.880000000000001137e+01 4.397968404471399708e+02
9.920000000000000284e+01 4.389573012989803829e+02
9.960000000000000853e+01 4.381228335519542725e+02
1.000000000000000000e+02 4.372933853927174823e+02
1.004000000000000057e+02 4.364689057530912351e+02
1.008000000000000114e+02 4.356493442962590166e+02
1.012000000000000028e+02 4.348346514032757000e+02
1.016000000000000085e+02 4.340247781598813503e+02
1.020000000000000000e+02 4.332196763436106721e+02
1.024000000000000057e+02 4.324192984111907094e+02
1.028000000000000114e+02 4.316235974862191256e+02
1.032000000000000028e+02 4.308325273471157857e+02
1.036000000000000085e+02 4.300460424153399117e+02
1.040000000000000000e+02 4.292640977438678078e+02
1.044000000000000057e+02 4.284866490059202420e+02
1.048000000000000114e+02 4.277136524839390859e+02
1.052000000000000028e+02 4.269450650588006511e+02
1.056000000000000085e+02 4.261808441992637313e+02
1.060000000000000000e+02 4.254209479516451893e+02
1.064000000000000057e+02 4.246653349297165505e+02
1.068000000000000114e+02 4.239139643048169432e+02
1.072000000000000028e+02 4.231667957961767002e+02
1.076000000000000085e+02 4.224237896614461647e+02
1.080000000000000000e+02 4.216849066874242453e+02
1.084000000000000057e+02 4.209501081809827383e+02
1.088000000000000114e+02 4.202193559601805646e+02
1.092000000000000028e+02 4.194926123455638276e+02
1.096000000000000085e+02 4.187698401516461786e+02
1.100000000000000000e+02 4.180510026785668742e+02
1.104000000000000057e+02 4.173360637039202174e+02
1.108000000000000114e+02 4.166249874747531408e+02
1.112000000000000028e+02 4.159177386997269537e+02
1.116000000000000085e+02 4.152142825414392746e+02
1.120000000000000000e+02 4.145145846089014867e+02
1.124000000000000057e+02 4.138186109501691021e+02
1.128000000000000114e+02 4.131263280451205446e+02
1.132000000000000028e+02 4.124377027983815651e+02
1.136000000000000085e+02 4.117527025323904013e+02
1.140000000000000000e+02 4.110712949806031133e+02
1.144000000000000057e+02 4.103934482808318762e+02
1.148000000000000114e+02 4.097191309687171952e+02
1.152000000000000028e+02 4.090483119713276210e+02
1.156000000000000085e+02 4.083809606008859419e+02
1.160000000000000000e+02 4.077170465486183275e+02
1.164000000000000057e+02 4.070565398787230720e+02
1.168000000000000114e+02 4.063994110224578549e+02
1.172000000000000028e+02 4.057456307723398936e+02
1.176000000000000085e+02 4.050951702764597258e+02
1.180000000000000000e+02 4.044480010329033917e+02
1.184000000000000057e+02 4.038040948842819944e+02
1.188000000000000114e+02 4.031634240123661925e+02
1.192000000000000028e+02 4.025259609328218744e+02
1.196000000000000085e+02 4.018916784900462744e+02
1.200000000000000000e+02 4.012605498521024856e+02
1.204000000000000057e+02 4.006325485057478772e+02
1.208000000000000114e+02 4.000076482515572138e+02
1.212000000000000028e+02 3.993858231991362686e+02
1.216000000000000085e+02 3.987670477624251362e+02
1.220000000000000000e+02 3.981512966550881174e+02
1.224000000000000057e+02 3.975385448859902908e+02
1.228000000000000114e+02 3.969287677547562225e+02
1.232000000000000028e+02 3.963219408474112129e+02
1.236000000000000085e+02 3.957180400321017828e+02
1.240000000000000000e+02 3.951170414548951157e+02
1.244000000000000057e+02 3.945189215356547834e+02
1.248000000000000114e+02 3.939236569639903109e+02
1.252000000000000028e+02 3.933312246952818327e+02
1.256000000000000085e+02 3.927416019467744945e+02
1.260000000000000000e+02 3.921547661937446492e+02
1.264000000000000057e+02 3.915706951657335253e+02
1.268000000000000114e+02 3.909893668428487672e+02
1.272000000000000028e+02 3.904107594521314013e+02
1.276000000000000085e+02 3.898348514639876612e+02
1.280000000000000000e+02 3.892616215886832265e+02
1.284000000000000057e+02 3.886910487728999897e+02
1.288000000000000114e+02 3.881231121963523947e+02
1.291999999999999886e+02 3.875577912684642001e+02
1.296000000000000227e+02 3.869950656251011196e+02
1.300000000000000000e+02 3.864349151253635455e+02
1.304000000000000057e+02 3.858773198484310569e+02
1.308000000000000114e+02 3.853222600904643969e+02
1.311999999999999886e+02 3.847697163615598583e+02
1.316000000000000227e+02 3.842196693827547733e+02
1.320000000000000000e+02 3.836721000830867752e+02
1.324000000000000057e+02 3.831269895967006391e+02
1.328000000000000114e+02 3.825843192600053158e+02
1.331999999999999886e+02 3.820440706088805882e+02
1.336000000000000227e+02 3.815062253759278974e+02
1.340000000000000000e+02 3.809707654877705068e+02
1.344000000000000057e+02 3.804376730623973799e+02
1.348000000000000114e+02 3.799069304065512256e+02
1.351999999999999886e+02 3.793785200131616193e+02
1.356000000000000227e+02 3.788524245588191661e+02
1.360000000000000000e+02 3.783286269012931484e+02
1.364000000000000057e+02 3.778071100770886233e+02
1.368000000000000114e+02 3.772878572990452994e+02
1.371999999999999886e+02 3.767708519539748977e+02
1.376000000000000227e+02 3.762560776003371075e+02
1.380000000000000000e+02 3.757435179659547089e+02
1.384000000000000057e+02 3.752331569457643354e+02
1.388000000000000114e+02 3.747249785996050377e+02
1.392000000000000171e+02 3.742189671500420900e+02
1.395999999999999943e+02 3.737151069802255279e+02
1.400000000000000000e+02 3.732133826317840999e+02
1.404000000000000057e+02 3.727137788027523584e+02
1.408000000000000114e+02 3.722162803455310041e+02
1.412000000000000171e+02 3.717208722648795742e+02
1.415999999999999943e+02 3.712275397159421573e+02
1.420000000000000000e+02 3.707362680023023245e+02
1.424000000000000057e+02 3.702470425740709175e+02
1.428000000000000114e+02 3.697598490260029394e+02
1.432000000000000171e+02 3.692746730956440615e+02
1.435999999999999943e+02 3.687915006615063476e+02
1.440000000000000000e+02 3.683103177412726836e+02
1.444000000000000057e+02 3.678311104900286637e+02
1.448000000000000114e+02 3.673538651985222714e+02
1.452000000000000171e+02 3.668785682914510744e+02
1.455999999999999943e+02 3.664052063257746568e+02
1.460000000000000000e+02 3.659337659890537680e+02
1.464000000000000057e+02 3.654642340978151651e+02
1.468000000000000114e+02 3.649965975959416369e+02
1.472000000000000171e+02 3.645308435530851057e+02
1.475999999999999943e+02 3.640669591631061621e+02
1.480000000000000000e+02 3.636049317425357117e+02
1.484000000000000057e+02 3.631447487290601543e+02
1.488000000000000114e+02 3.626863976800302680e+02
1.492000000000000171e+02 3.622298662709914083e+02
1.495999999999999943e+02 3.617751422942366162e+02
1.500000000000000000e+02 3.613222136573808143e+02
