1.000000000000000000e+01 7.106328628197812805e+02
1.040000000000000036e+01 7.608591571971460326e+02
1.080000000000000071e+01 7.774593969208809767e+02
1.119999999999999929e+01 7.985579628098807916e+02
1.159999999999999964e+01 8.195476038816216260e+02
1.200000000000000000e+01 8.071365271730812765e+02
1.240000000000000036e+01 7.910549265963799144e+02
1.280000000000000071e+01 7.760275485143467904e+02
1.319999999999999929e+01 7.619378494168369116e+02
1.359999999999999964e+01 7.486871327937676597e+02
1.400000000000000000e+01 7.361911047139340099e+02
1.440000000000000036e+01 7.243772221504681283e+02
1.480000000000000071e+01 7.131826241972935350e+02
1.519999999999999929e+01 7.025524986147524942e+02
1.560000000000000142e+01 6.924387780863280568e+02
1.600000000000000000e+01 6.827990893740638967e+02
1.639999999999999858e+01 6.735958986981979706e+02
1.680000000000000071e+01 6.647958109732450112e+02
1.719999999999999929e+01 6.563689908466237739e+02
1.760000000000000142e+01 6.482886810214070010e+02
1.800000000000000000e+01 6.405307989182745132e+02
1.839999999999999858e+01 6.330735969009811015e+02
1.880000000000000071e+01 6.258973744411712232e+02
1.920000000000000284e+01 6.189842330038097771e+02
1.960000000000000142e+01 6.123178662870851667e+02
2.000000000000000000e+01 6.058833798895145719e+02
2.039999999999999858e+01 5.996671356033177744e+02
2.080000000000000071e+01 5.936566164213603543e+02
2.120000000000000284e+01 5.878403090502780515e+02
2.160000000000000142e+01 5.822076012861271010e+02
2.200000000000000000e+01 5.767486920622501430e+02
2.239999999999999858e+01 5.714545123457412501e+02
2.280000000000000071e+01 5.663166553571397799e+02
2.320000000000000284e+01 5.613273148318156700e+02
2.360000000000000142e+01 5.564792302418534291e+02
2.400000000000000000e+01 5.517656380626165173e+02
2.439999999999999858e+01 5.471802283053116298e+02
2.480000000000000071e+01 5.427171056510684366e+02
2.520000000000000284e+01 5.383707546175263587e+02
2.560000000000000142e+01 5.341360082690777062e+02
2.600000000000000000e+01 5.300080200494337532e+02
2.640000000000000213e+01 5.259822383722796530e+02
2.680000000000000071e+01 5.220543836542228746e+02
2.719999999999999929e+01 5.182204275154688276e+02
2.760000000000000142e+01 5.144765739088693408e+02
2.800000000000000000e+01 5.108192419681340084e+02
2.840000000000000213e+01 5.072450503919031348e+02
2.880000000000000071e+01 5.037508032026792080e+02
2.920000000000000284e+01 5.003334767388907380e+02
2.960000000000000142e+01 4.969902077550369768e+02
3.000000000000000000e+01 4.937182825193485769e+02
3.040000000000000213e+01 4.905151268110030855e+02
3.080000000000000071e+01 4.873782967299215443e+02
3.120000000000000284e+01 4.843054702417844624e+02
3.160000000000000142e+01 4.812944393893224628e+02
3.200000000000000000e+01 4.783431031083283074e+02
3.240000000000000568e+01 4.754494605933368803e+02
3.279999999999999716e+01 4.726116051636531665e+02
3.320000000000000284e+01 4.698277185854667550e+02
3.360000000000000142e+01 4.670960658102736716e+02
3.400000000000000000e+01 4.644149900937912889e+02
3.440000000000000568e+01 4.617829084630813554e+02
3.479999999999999716e+01 4.591983075027284258e+02
3.520000000000000284e+01 4.566597394337151172e+02
3.560000000000000142e+01 4.541658184611289926e+02
3.600000000000000000e+01 4.517152173690627706e+02
3.640000000000000568e+01 4.493066643430635168e+02
3.679999999999999716e+01 4.469389400022751033e+02
3.720000000000000284e+01 4.446108746250212107e+02
3.760000000000000142e+01 4.423213455530221836e+02
3.800000000000000000e+01 4.400692747607320712e+02
3.840000000000000568e+01 4.378536265774603748e+02
3.879999999999999716e+01 4.356734055509909922e+02
3.920000000000000284e+01 4.335276544423731480e+02
3.960000000000000142e+01 4.314154523424199965e+02
4.000000000000000000e+01 4.293359129012304720e+02
4.040000000000000568e+01 4.272881826627667579e+02
4.079999999999999716e+01 4.252714394971557113e+02
4.120000000000000284e+01 4.232848911239765926e+02
4.160000000000000142e+01 4.213277737203245579e+02
4.200000000000000000e+01 4.193993506079290228e+02
4.239999999999999858e+01 4.174989110140463140e+02
4.280000000000000426e+01 4.156257689012521723e+02
4.320000000000000284e+01 4.137792618616279015e+02
4.360000000000000142e+01 4.119587500711741086e+02
4.400000000000000000e+01 4.101636153005912320e+02
4.439999999999999858e+01 4.083932599788545303e+02
4.480000000000000426e+01 4.066471063062679150e+02
4.520000000000000284e+01 4.049245954139210539e+02
4.560000000000000142e+01 4.032251865666935373e+02
4.600000000000000000e+01 4.015483564071505498e+02
4.639999999999999858e+01 3.998935982378629888e+02
4.680000000000000426e+01 3.982604213398526554e+02
4.720000000000000284e+01 3.966483503250232729e+02
4.760000000000000142e+01 3.950569245205820721e+02
4.800000000000000000e+01 3.934856973835927079e+02
4.840000000000000568e+01 3.919342359439230563e+02
4.880000000000000426e+01 3.904021202739664318e+02
4.920000000000000284e+01 3.888889429836218028e+02
4.960000000000000142e+01 3.873943087391168092e+02
5.000000000000000000e+01 3.859178338043472536e+02
5.040000000000000568e+01 3.844591456034939370e+02
5.080000000000000426e+01 3.830178823037530265e+02
5.120000000000000284e+01 3.815936924170924840e+02
5.160000000000000142e+01 3.801862344200116013e+02
5.200000000000000000e+01 3.787951763903458868e+02
5.240000000000000568e+01 3.774201956602173595e+02
5.280000000000000426e+01 3.760609784842846466e+02
5.320000000000000284e+01 3.747172197224994648e+02
5.360000000000000142e+01 3.733886225366202325e+02
5.400000000000000000e+01 3.720748980997829563e+02
5.440000000000000568e+01 3.707757653184651190e+02
5.480000000000000426e+01 3.694909505662208744e+02
5.520000000000000284e+01 3.682201874286006955e+02
5.560000000000000142e+01 3.669632164587007424e+02
5.600000000000000000e+01 3.657197849428214340e+02
5.640000000000000568e+01 3.644896466757418239e+02
5.680000000000000426e+01 3.632725617451451399e+02
5.720000000000000284e+01 3.620682963247566022e+02
5.760000000000000142e+01 3.608766224757780492e+02
5.800000000000000000e+01 3.596973179562277210e+02
5.840000000000000568e+01 3.585301660378147517e+02
5.880000000000000426e+01 3.573749553299961690e+02
5.920000000000000284e+01 3.562314796108856285e+02
5.960000000000000142e+01 3.550995376646988575e+02
6.000000000000000000e+01 3.539789331254381750e+02
6.040000000000000568e+01 3.528694743265335205e+02
6.080000000000000426e+01 3.517709741561734518e+02
6.120000000000000284e+01 3.506832499180702598e+02
6.160000000000000142e+01 3.496061231974214252e+02
6.200000000000000000e+01 3.485394197318361194e+02
6.240000000000000568e+01 3.474829692870117697e+02
6.280000000000000426e+01 3.464366055369541186e+02
6.320000000000000284e+01 3.454001659485439291e+02
6.360000000000000142e+01 3.443734916702667306e+02
6.400000000000000000e+01 3.433564274249262098e+02
6.440000000000000568e+01 3.423488214061744088e+02
6.480000000000001137e+01 3.413505251786986037e+02
6.520000000000000284e+01 3.403613935819118979e+02
6.559999999999999432e+01 3.393812846370028637e+02
6.600000000000000000e+01 3.384100594572064438e+02
6.640000000000000568e+01 3.374475821611637798e+02
6.680000000000001137e+01 3.364937197892460858e+02
6.720000000000000284e+01 3.355483422227227379e+02
6.759999999999999432e+01 3.346113221056596103e+02
6.800000000000000000e+01 3.336825347694395418e+02
6.840000000000000568e+01 3.327618581597995444e+02
6.880000000000001137e+01 3.318491727662875519e+02
6.920000000000000284e+01 3.309443615540433825e+02
6.959999999999999432e+01 3.300473098978127950e+02
7.000000000000000000e+01 3.291579055181099989e+02
7.040000000000000568e+01 3.282760384194449443e+02
7.080000000000001137e+01 3.274016008305368359e+02
7.120000000000000284e+01 3.265344871464390621e+02
7.159999999999999432e+01 3.256745938725027258e+02
7.200000000000000000e+01 3.248218195701101649e+02
7.240000000000000568e+01 3.239760648041134345e+02
7.280000000000001137e+01 3.231372320919126082e+02
7.320000000000000284e+01 3.223052258541152923e+02
7.359999999999999432e+01 3.214799523667186918e+02
7.400000000000000000e+01 3.206613197147588608e+02
7.440000000000000568e+01 3.198492377473745591e+02
7.479999999999999716e+01 3.190436180342331340e+02
7.520000000000000284e+01 3.182443738232726673e+02
7.560000000000000853e+01 3.174514199997099126e+02
7.600000000000000000e+01 3.166646730462725827e+02
7.640000000000000568e+01 3.158840510046101713e+02
7.679999999999999716e+01 3.151094734378445423e+02
7.720000000000000284e+01 3.143408613942182228e+02
7.760000000000000853e+01 3.135781373718039049e+02
7.800000000000000000e+01 3.128212252842387215e+02
7.840000000000000568e+01 3.120700504274469154e+02
7.879999999999999716e+01 3.113245394473190117e+02
7.920000000000000284e+01 3.105846203083127079e+02
7.960000000000000853e+01 3.098502222629473408e+02
8.000000000000000000e+01 3.091212758221598733e+02
8.040000000000000568e+01 3.083977127264936371e+02
8.079999999999999716e+01 3.076794659180938538e+02
8.120000000000000284e+01 3.069664695134815133e+02
8.160000000000000853e+01 3.062586587770813367e+02
8.200000000000000000e+01 3.055559700954788696e+02
8.240000000000000568e+01 3.048583409523813543e+02
8.279999999999999716e+01 3.041657099042633945e+02
8.320000000000000284e+01 3.034780165566714345e+02
8.360000000000000853e+01 3.027952015411677849e+02
8.400000000000000000e+01 3.021172064928946952e+02
8.440000000000000568e+01 3.014439740287364202e+02
8.479999999999999716e+01 3.007754477260630779e+02
8.520000000000000284e+01 3.001115721020357796e+02
8.560000000000000853e+01 2.994522925934573436e+02
8.600000000000000000e+01 2.987975555371498899e+02
8.640000000000000568e+01 2.981473081508451628e+02
8.680000000000001137e+01 2.975014985145692208e+02
8.720000000000000284e+01 2.968600755525087607e+02
8.760000000000000853e+01 2.962229890153431597e+02
8.800000000000000000e+01 2.955901894630276843e+02
8.840000000000000568e+01 2.949616282480159839e+02
8.880000000000001137e+01 2.943372574989064674e+02
8.920000000000000284e+01 2.937170301045019869e+02
8.960000000000000853e+01 2.931008996982682788e+02
9.000000000000000000e+01 2.924888206431824642e+02
9.040000000000000568e+01 2.918807480169562041e+02
9.080000000000001137e+01 2.912766375976260633e+02
9.120000000000000284e+01 2.906764458494982932e+02
9.160000000000000853e+01 2.900801299094379715e+02
9.200000000000000000e+01 2.894876475734938595e+02
9.240000000000000568e+01 2.888989572838468121e+02
9.280000000000001137e+01 2.883140181160755446e+02
9.320000000000000284e+01 2.877327897667278194e+02
9.360000000000000853e+01 2.871552325411902302e+02
9.400000000000000000e+01 2.865813073418477757e+02
9.440000000000000568e+01 2.860109756565237831e+02
9.480000000000001137e+01 2.854441995471948985e+02
9.520000000000000284e+01 2.848809416389704552e+02
9.560000000000000853e+01 2.843211651093312184e+02
9.600000000000000000e+01 2.837648336776190376e+02
9.640000000000000568e+01 2.832119115947712658e+02
9.680000000000001137e+01 2.826623636332922729e+02
9.720000000000000284e+01 2.821161550774568241e+02
9.760000000000000853e+01 2.815732517137375908e+02
9.800000000000000000e+01 2.810336198214523051e+02
9.840000000000000568e+01 2.804972261636229405e+02
9.880000000000001137e+01 2.799640379780427679e+02
9.920000000000000284e+01 2.794340229685446957e+02
9.960000000000000853e+01 2.789071492964657182e+02
1.000000000000000000e+02 2.783833855723027568e+02
1.004000000000000057e+02 2.778627008475545495e+02
1.008000000000000114e+02 2.773450646067439038e+02
1.012000000000000028e+02 2.768304467596174163e+02
1.016000000000000085e+02 2.763188176335157777e+02
1.020000000000000000e+02 2.758101479659126767e+02
1.024000000000000057e+02 2.753044088971149108e+02
1.028000000000000114e+02 2.748015719631233651e+02
1.032000000000000028e+02 2.743016090886467282e+02
1.036000000000000085e+02 2.738044925802672651e+02
1.040000000000000000e+02 2.733101951197526773e+02
1.044000000000000057e+02 2.728186897575116063e+02
1.048000000000000114e+02 2.723299499061884035e+02
1.052000000000000028e+02 2.718439493343939262e+02
1.056000000000000085e+02 2.713606621605689497e+02
1.060000000000000000e+02 2.708800628469773528e+02
1.064000000000000057e+02 2.704021261938243015e+02
1.068000000000000114e+02 2.699268273334987498e+02
1.072000000000000028e+02 2.694541417249347433e+02
1.076000000000000085e+02 2.689840451480902743e+02
1.080000000000000000e+02 2.685165136985398249e+02
1.084000000000000057e+02 2.680515237821790038e+02
1.088000000000000114e+02 2.675890521100368460e+02
1.092000000000000028e+02 2.671290756931948636e+02
1.096000000000000085e+02 2.666715718378087558e+02
1.100000000000000000e+02 2.662165181402322105e+02
1.104000000000000057e+02 2.657638924822378499e+02
1.108000000000000114e+02 2.653136730263353229e+02
1.112000000000000028e+02 2.648658382111830747e+02
1.116000000000000085e+02 2.644203667470914638e+02
1.120000000000000000e+02 2.639772376116159194e+02
1.124000000000000057e+02 2.635364300452369548e+02
1.128000000000000114e+02 2.630979235471257880e+02
1.132000000000000028e+02 2.626616978709932937e+02
1.136000000000000085e+02 2.622277330210205832e+02
1.140000000000000000e+02 2.617960092478687670e+02
1.144000000000000057e+02 2.613665070447664220e+02
1.148000000000000114e+02 2.609392071436736842e+02
1.152000000000000028e+02 2.605140905115190435e+02
1.156000000000000085e+02 2.600911383465104336e+02
1.160000000000000000e+02 2.596703320745156702e+02
1.164000000000000057e+02 2.592516533455130343e+02
1.168000000000000114e+02 2.588350840301088738e+02
1.172000000000000028e+02 2.584206062161218824e+02
1.176000000000000085e+02 2.580082022052315551e+02
1.180000000000000000e+02 2.575978545096905350e+02
1.184000000000000057e+02 2.571895458490976125e+02
1.188000000000000114e+02 2.567832591472324566e+02
1.192000000000000028e+02 2.563789775289488375e+02
1.196000000000000085e+02 2.559766843171249207e+02
1.200000000000000000e+02 2.555763630296718816e+02
1.204000000000000057e+02 2.551779973765956697e+02
1.208000000000000114e+02 2.547815712571147060e+02
1.212000000000000028e+02 2.543870687568291942e+02
1.216000000000000085e+02 2.539944741449428136e+02
1.220000000000000000e+02 2.536037718715349740e+02
1.224000000000000057e+02 2.532149465648823252e+02
1.228000000000000114e+02 2.528279830288292374e+02
1.232000000000000028e+02 2.524428662402052623e+02
1.236000000000000085e+02 2.520595813462892636e+02
1.240000000000000000e+02 2.516781136623189923e+02
1.244000000000000057e+02 2.512984486690451433e+02
1.248000000000000114e+02 2.509205720103286694e+02
1.252000000000000028e+02 2.505444694907814096e+02
1.256000000000000085e+02 2.501701270734477589e+02
1.260000000000000000e+02 2.497975308775273788e+02
1.264000000000000057e+02 2.494266671761384089e+02
1.268000000000000114e+02 2.490575223941191041e+02
1.272000000000000028e+02 2.486900831058683821e+02
1.276000000000000085e+02 2.483243360332236875e+02
1.280000000000000000e+02 2.479602680433760895e+02
1.284000000000000057e+02 2.475978661468205928e+02
1.288000000000000114e+02 2.472371174953427726e+02
1.291999999999999886e+02 2.468780093800392024e+02
1.296000000000000227e+02 2.465205292293723289e+02
1.300000000000000000e+02 2.461646646072582598e+02
1.304000000000000057e+02 2.458104032111870367e+02
1.308000000000000114e+02 2.454577328703751391e+02
1.311999999999999886e+02 2.451066415439490243e+02
1.316000000000000227e+02 2.447571173191589651e+02
1.320000000000000000e+02 2.444091484096237821e+02
1.324000000000000057e+02 2.440627231536039972e+02
1.328000000000000114e+02 2.437178300123043755e+02
1.331999999999999886e+02 2.433744575682047753e+02
1.336000000000000227e+02 2.430325945234184246e+02
1.340000000000000000e+02 2.426922296980777105e+02
1.344000000000000057e+02 2.423533520287461727e+02
1.348000000000000114e+02 2.420159505668568158e+02
1.351999999999999886e+02 2.416800144771764280e+02
1.356000000000000227e+02 2.413455330362941424e+02
1.360000000000000000e+02 2.410124956311356073e+02
1.364000000000000057e+02 2.406808917575006035e+02
1.368000000000000114e+02 2.403507110186245654e+02
1.371999999999999886e+02 2.400219431237634353e+02
1.376000000000000227e+02 2.396945778868010848e+02
1.380000000000000000e+02 2.393686052248797296e+02
1.384000000000000057e+02 2.390440151570510352e+02
1.388000000000000114e+02 2.387207978029502158e+02
1.392000000000000171e+02 2.383989433814901986e+02
1.395999999999999943e+02 2.380784422095768207e+02
1.400000000000000000e+02 2.377592847008445744e+02
1.404000000000000057e+02 2.374414613644119925e+02
1.408000000000000114e+02 2.371249628036567856e+02
1.412000000000000171e+02 2.368097797150099950e+02
1.415999999999999943e+02 2.364959028867693860e+02
1.420000000000000000e+02 2.361833231979309744e+02
1.424000000000000057e+02 2.358720316170387150e+02
1.428000000000000114e+02 2.355620192010527205e+02
1.432000000000000171e+02 2.352532770942335674e+02
1.435999999999999943e+02 2.349457965270455588e+02
1.440000000000000000e+02 2.346395688150753926e+02
1.444000000000000057e+02 2.343345853579679954e+02
1.448000000000000114e+02 2.340308376383790119e+02
1.452000000000000171e+02 2.337283172209424436e+02
1.455999999999999943e+02 2.334270157512544301e+02
1.460000000000000000e+02 2.331269249548727203e+02
1.464000000000000057e+02 2.328280366363305234e+02
1.468000000000000114e+02 2.325303426781659084e+02
1.472000000000000171e+02 2.322338350399654701e+02
1.475999999999999943e+02 2.319385057574224334e+02
1.480000000000000000e+02 2.316443469414085143e+02
1.484000000000000057e+02 2.313513507770603610e+02
1.488000000000000114e+02 2.310595095228788409e+02
1.492000000000000171e+02 2.307688155098419713e+02
1.495999999999999943e+02 2.304792611405308662e+02
1.500000000000000000e+02 2.301908388882689565e+02
