1.000000000000000000e+01 2.706180424706273016e+02
1.040000000000000036e+01 2.952798206510781824e+02
1.080000000000000071e+01 3.115522239134077154e+02
1.119999999999999929e+01 3.102324898117071257e+02
1.159999999999999964e+01 3.091977600237462411e+02
1.200000000000000000e+01 3.083925209218419923e+02
1.240000000000000036e+01 3.078015456711930256e+02
1.280000000000000071e+01 3.073709457678752983e+02
1.319999999999999929e+01 3.086502810134886658e+02
1.359999999999999964e+01 3.178923075541978847e+02
1.400000000000000000e+01 3.128138374429909163e+02
1.440000000000000036e+01 3.080354130495006757e+02
1.480000000000000071e+01 3.035256332743255143e+02
1.519999999999999929e+01 2.992578072170860537e+02
1.560000000000000142e+01 2.952090397886287292e+02
1.600000000000000000e+01 2.913595332899200230e+02
1.639999999999999858e+01 2.876920454477458975e+02
1.680000000000000071e+01 2.841914629586925685e+02
1.719999999999999929e+01 2.808444617468865090e+02
1.760000000000000142e+01 2.776392332940502001e+02
1.800000000000000000e+01 2.745652619885967169e+02
1.839999999999999858e+01 2.716131423451788010e+02
1.880000000000000071e+01 2.687744277222410574e+02
1.920000000000000284e+01 2.660415041701220389e+02
1.960000000000000142e+01 2.634074845111159107e+02
2.000000000000000000e+01 2.608661188431027540e+02
2.039999999999999858e+01 2.584117184772146061e+02
2.080000000000000071e+01 2.560390909418327396e+02
2.120000000000000284e+01 2.537434841622233250e+02
2.160000000000000142e+01 2.515205382944738517e+02
2.200000000000000000e+01 2.493662439808863382e+02
2.239999999999999858e+01 2.472769060211427927e+02
2.280000000000000071e+01 2.452491116337767494e+02
2.320000000000000284e+01 2.432797026264740907e+02
2.360000000000000142e+01 2.413657509095318119e+02
2.400000000000000000e+01 2.395045368805190265e+02
2.439999999999999858e+01 2.376935302844717910e+02
2.480000000000000071e+01 2.359303732163913594e+02
2.520000000000000284e+01 2.342128649841896504e+02
2.560000000000000142e+01 2.325389485927010185e+02
2.600000000000000000e+01 2.309066986446651413e+02
2.640000000000000213e+01 2.293143104840233946e+02
2.680000000000000071e+01 2.277600904315426078e+02
2.719999999999999929e+01 2.262424469835266052e+02
2.760000000000000142e+01 2.247598828619047424e+02
2.800000000000000000e+01 2.233109878188360256e+02
2.840000000000000213e+01 2.218944321115996843e+02
2.880000000000000071e+01 2.205089605743240497e+02
2.920000000000000284e+01 2.191533872223311334e+02
2.960000000000000142e+01 2.178265903327998103e+02
3.000000000000000000e+01 2.165275079522737656e+02
3.040000000000000213e+01 2.152551337874323565e+02
3.080000000000000071e+01 2.140085134406490965e+02
3.120000000000000284e+01 2.127867409562896057e+02
3.160000000000000142e+01 2.115889556475605673e+02
3.200000000000000000e+01 2.104143391770836615e+02
3.240000000000000568e+01 2.092621128673141015e+02
3.279999999999999716e+01 2.081315352194995967e+02
3.320000000000000284e+01 2.070218996221427687e+02
3.360000000000000142e+01 2.059325322319261602e+02
3.400000000000000000e+01 2.048627900118134733e+02
3.440000000000000568e+01 2.038120589126008326e+02
3.479999999999999716e+01 2.027797521855638365e+02
3.520000000000000284e+01 2.017653088150698579e+02
3.560000000000000142e+01 2.007681920611095734e+02
3.600000000000000000e+01 1.997878881026666136e+02
3.640000000000000568e+01 1.988239047737075680e+02
3.679999999999999716e+01 1.978757703843415072e+02
3.720000000000000284e+01 1.969430326203881236e+02
3.760000000000000142e+01 1.960252575152096881e+02
3.800000000000000000e+01 1.951220284882140845e+02
3.840000000000000568e+01 1.942329454449348987e+02
3.879999999999999716e+01 1.933576239340402765e+02
3.920000000000000284e+01 1.924956943570266503e+02
3.960000000000000142e+01 1.916468012267159224e+02
4.000000000000000000e+01 1.908106024710034205e+02
4.040000000000000568e+01 1.899867687786016859e+02
4.079999999999999716e+01 1.891749829837933135e+02
4.120000000000000284e+01 1.883749394874514849e+02
4.160000000000000142e+01 1.875863437118062507e+02
4.200000000000000000e+01 1.868089115866382315e+02
4.239999999999999858e+01 1.860423690647637045e+02
4.280000000000000426e+01 1.852864516648408824e+02
4.320000000000000284e+01 1.845409040396814362e+02
4.360000000000000142e+01 1.838054795683885629e+02
4.400000000000000000e+01 1.830799399707705675e+02
4.439999999999999858e+01 1.823640549425950894e+02
4.480000000000000426e+01 1.816576018103551178e+02
4.520000000000000284e+01 1.809603652043152238e+02
4.560000000000000142e+01 1.802721367486964539e+02
4.600000000000000000e+01 1.795927147679395262e+02
4.639999999999999858e+01 1.789219040080625120e+02
4.680000000000000426e+01 1.782595153721966312e+02
4.720000000000000284e+01 1.776053656694500091e+02
4.760000000000000142e+01 1.769592773763060336e+02
4.800000000000000000e+01 1.763210784098183410e+02
4.840000000000000568e+01 1.756906019119136033e+02
4.880000000000000426e+01 1.750676860441612916e+02
4.920000000000000284e+01 1.744521737924088995e+02
4.960000000000000142e+01 1.738439127807248497e+02
5.000000000000000000e+01 1.732427550941244476e+02
5.040000000000000568e+01 1.726485571095896319e+02
5.080000000000000426e+01 1.720611793349249865e+02
5.120000000000000284e+01 1.714804862550199402e+02
5.160000000000000142e+01 1.709063461851165755e+02
5.200000000000000000e+01 1.703386311307048402e+02
5.240000000000000568e+01 1.697772166536927330e+02
5.280000000000000426e+01 1.692219817445190415e+02
5.320000000000000284e+01 1.686728086998971605e+02
5.360000000000000142e+01 1.681295830058972456e+02
5.400000000000000000e+01 1.675921932260914105e+02
5.440000000000000568e+01 1.670605308945028185e+02
5.480000000000000426e+01 1.665344904131159751e+02
5.520000000000000284e+01 1.660139689537162724e+02
5.560000000000000142e+01 1.654988663638463606e+02
5.600000000000000000e+01 1.649890850766718415e+02
5.640000000000000568e+01 1.644845300245670785e+02
5.680000000000000426e+01 1.639851085562376056e+02
5.720000000000000284e+01 1.634907303572100830e+02
5.760000000000000142e+01 1.630013073735263731e+02
5.800000000000000000e+01 1.625167537384907064e+02
5.840000000000000568e+01 1.620369857023243298e+02
5.880000000000000426e+01 1.615619215645924385e+02
5.920000000000000284e+01 1.610914816092731598e+02
5.960000000000000142e+01 1.606255880423477436e+02
6.000000000000000000e+01 1.601641649317950282e+02
6.040000000000000568e+01 1.597071381498817573e+02
6.080000000000000426e+01 1.592544353176444929e+02
6.120000000000000284e+01 1.588059857514646183e+02
6.160000000000000142e+01 1.583617204116434323e+02
6.200000000000000000e+01 1.579215718528892012e+02
6.240000000000000568e+01 1.574854741766307882e+02
6.280000000000000426e+01 1.570533629850801276e+02
6.320000000000000284e+01 1.566251753369662367e+02
6.360000000000000142e+01 1.562008497048694835e+02
6.400000000000000000e+01 1.557803259340876991e+02
6.440000000000000568e+01 1.553635452029690782e+02
6.480000000000001137e+01 1.549504499846499357e+02
6.520000000000000284e+01 1.545409840101387431e+02
6.559999999999999432e+01 1.541350922326901127e+02
6.600000000000000000e+01 1.537327207934156661e+02
6.640000000000000568e+01 1.533338169880813098e+02
6.680000000000001137e+01 1.529383292350417491e+02
6.720000000000000284e+01 1.525462070442666800e+02
6.759999999999999432e+01 1.521574009874150306e+02
6.800000000000000000e+01 1.517718626689145083e+02
6.840000000000000568e+01 1.513895446980073416e+02
6.880000000000001137e+01 1.510104006617235086e+02
6.920000000000000284e+01 1.506343850987451560e+02
6.959999999999999432e+01 1.502614534741276486e+02
7.000000000000000000e+01 1.498915621548438253e+02
7.040000000000000568e+01 1.495246683861203110e+02
7.080000000000001137e+01 1.491607302685343370e+02
7.120000000000000284e+01 1.487997067358433583e+02
7.159999999999999432e+01 1.484415575335196422e+02
7.200000000000000000e+01 1.480862431979622329e+02
7.240000000000000568e+01 1.477337250363625287e+02
7.280000000000001137e+01 1.473839651071976391e+02
7.320000000000000284e+01 1.470369262013299192e+02
7.359999999999999432e+01 1.466925718236890930e+02
7.400000000000000000e+01 1.463508661755161029e+02
7.440000000000000568e+01 1.460117741371493025e+02
7.479999999999999716e+01 1.456752612513313352e+02
7.520000000000000284e+01 1.453412937070204975e+02
7.560000000000000853e+01 1.450098383236862958e+02
7.600000000000000000e+01 1.446808625360738461e+02
7.640000000000000568e+01 1.443543343794192708e+02
7.679999999999999716e+01 1.440302224751015672e+02
7.720000000000000284e+01 1.437084960167138092e+02
7.760000000000000853e+01 1.433891247565418610e+02
7.800000000000000000e+01 1.430720789924335463e+02
7.840000000000000568e+01 1.427573295550473347e+02
7.879999999999999716e+01 1.424448477954662451e+02
7.920000000000000284e+01 1.421346055731649756e+02
7.960000000000000853e+01 1.418265752443183487e+02
8.000000000000000000e+01 1.415207296504396197e+02
8.040000000000000568e+01 1.412170421073376474e+02
8.079999999999999716e+01 1.409154863943820146e+02
8.120000000000000284e+01 1.406160367440665766e+02
8.160000000000000853e+01 1.403186678318611484e+02
8.200000000000000000e+01 1.400233547663418108e+02
8.240000000000000568e+01 1.397300730795915058e+02
8.279999999999999716e+01 1.394387987178608341e+02
8.320000000000000284e+01 1.391495080324826006e+02
8.360000000000000853e+01 1.388621777710298488e+02
8.400000000000000000e+01 1.385767850687115299e+02
8.440000000000000568e+01 1.382933074399966813e+02
8.479999999999999716e+01 1.380117227704612617e+02
8.520000000000000284e+01 1.377320093088498254e+02
8.560000000000000853e+01 1.374541456593454143e+02
8.600000000000000000e+01 1.371781107740413859e+02
8.640000000000000568e+01 1.369038839456091239e+02
8.680000000000001137e+01 1.366314448001551511e+02
8.720000000000000284e+01 1.363607732902620455e+02
8.760000000000000853e+01 1.360918496882075033e+02
8.800000000000000000e+01 1.358246545793567748e+02
8.840000000000000568e+01 1.355591688557217935e+02
8.880000000000001137e+01 1.352953737096837301e+02
8.920000000000000284e+01 1.350332506278726612e+02
8.960000000000000853e+01 1.347727813852006875e+02
9.000000000000000000e+01 1.345139480390431004e+02
9.040000000000000568e+01 1.342567329235643285e+02
9.080000000000001137e+01 1.340011186441829807e+02
9.120000000000000284e+01 1.337470880721733408e+02
9.160000000000000853e+01 1.334946243393983707e+02
9.200000000000000000e+01 1.332437108331709510e+02
9.240000000000000568e+01 1.329943311912394392e+02
9.280000000000001137e+01 1.327464692968938778e+02
9.320000000000000284e+01 1.325001092741899527e+02
9.360000000000000853e+01 1.322552354832864694e+02
9.400000000000000000e+01 1.320118325158940422e+02
9.440000000000000568e+01 1.317698851908313031e+02
9.480000000000001137e+01 1.315293785496857026e+02
9.520000000000000284e+01 1.312902978525764013e+02
9.560000000000000853e+01 1.310526285740154719e+02
9.600000000000000000e+01 1.308163563988659917e+02
9.640000000000000568e+01 1.305814672183931862e+02
9.680000000000001137e+01 1.303479471264066945e+02
9.720000000000000284e+01 1.301157824154916227e+02
9.760000000000000853e+01 1.298849595733249203e+02
9.800000000000000000e+01 1.296554652790766227e+02
9.840000000000000568e+01 1.294272863998916137e+02
9.880000000000001137e+01 1.292004099874511382e+02
9.920000000000000284e+01 1.289748232746116798e+02
9.960000000000000853e+01 1.287505136721188137e+02
1.000000000000000000e+02 1.285274687653938201e+02
1.004000000000000057e+02 1.283056763113924319e+02
1.008000000000000114e+02 1.280851242355322483e+02
1.012000000000000028e+02 1.278658006286878503e+02
1.016000000000000085e+02 1.276476937442517539e+02
1.020000000000000000e+02 1.274307919952595114e+02
1.024000000000000057e+02 1.272150839515771850e+02
1.028000000000000114e+02 1.270005583371496130e+02
1.032000000000000028e+02 1.267872040273080358e+02
1.036000000000000085e+02 1.265750100461353327e+02
1.040000000000000000e+02 1.263639655638877173e+02
1.044000000000000057e+02 1.261540598944712599e+02
1.048000000000000114e+02 1.259452824929716002e+02
1.052000000000000028e+02 1.257376229532363539e+02
1.056000000000000085e+02 1.255310710055079113e+02
1.060000000000000000e+02 1.253256165141060308e+02
1.064000000000000057e+02 1.251212494751584643e+02
1.068000000000000114e+02 1.249179600143792186e+02
1.072000000000000028e+02 1.247157383848924610e+02
1.076000000000000085e+02 1.245145749651012750e+02
1.080000000000000000e+02 1.243144602566003840e+02
1.084000000000000057e+02 1.241153848821313090e+02
1.088000000000000114e+02 1.239173395835796185e+02
1.092000000000000028e+02 1.237203152200122247e+02
1.096000000000000085e+02 1.235243027657549248e+02
1.100000000000000000e+02 1.233292933085083973e+02
1.104000000000000057e+02 1.231352780475019415e+02
1.108000000000000114e+02 1.229422482916844359e+02
1.112000000000000028e+02 1.227501954579510084e+02
1.116000000000000085e+02 1.225591110694050059e+02
1.120000000000000000e+02 1.223689867536544540e+02
1.124000000000000057e+02 1.221798142411417558e+02
1.128000000000000114e+02 1.219915853635065019e+02
1.132000000000000028e+02 1.218042920519800987e+02
1.136000000000000085e+02 1.216179263358117595e+02
1.140000000000000000e+02 1.214324803407248368e+02
1.144000000000000057e+02 1.212479462874033374e+02
1.148000000000000114e+02 1.210643164900072719e+02
1.152000000000000028e+02 1.208815833547166108e+02
1.156000000000000085e+02 1.206997393783033345e+02
1.160000000000000000e+02 1.205187771467302156e+02
1.164000000000000057e+02 1.203386893337766423e+02
1.168000000000000114e+02 1.201594686996901515e+02
1.172000000000000028e+02 1.199811080898635254e+02
1.176000000000000085e+02 1.198036004335367863e+02
1.180000000000000000e+02 1.196269387425234072e+02
1.184000000000000057e+02 1.194511161099601253e+02
1.188000000000000114e+02 1.192761257090804037e+02
1.192000000000000028e+02 1.191019607920101464e+02
1.196000000000000085e+02 1.189286146885861513e+02
1.200000000000000000e+02 1.187560808051955803e+02
1.204000000000000057e+02 1.185843526236375993e+02
1.208000000000000114e+02 1.184134237000050547e+02
1.212000000000000028e+02 1.182432876635868979e+02
1.216000000000000085e+02 1.180739382157903776e+02
1.220000000000000000e+02 1.179053691290828567e+02
1.224000000000000057e+02 1.177375742459525156e+02
1.228000000000000114e+02 1.175705474778878852e+02
1.232000000000000028e+02 1.174042828043754696e+02
1.236000000000000085e+02 1.172387742719155170e+02
1.240000000000000000e+02 1.170740159930549709e+02
1.244000000000000057e+02 1.169100021454376446e+02
1.248000000000000114e+02 1.167467269708714923e+02
1.252000000000000028e+02 1.165841847744117956e+02
1.256000000000000085e+02 1.164223699234606784e+02
1.260000000000000000e+02 1.162612768468824811e+02
1.264000000000000057e+02 1.161009000341343267e+02
1.268000000000000114e+02 1.159412340344119059e+02
1.272000000000000028e+02 1.157822734558100422e+02
1.276000000000000085e+02 1.156240129644977230e+02
1.280000000000000000e+02 1.154664472839072715e+02
1.284000000000000057e+02 1.153095711939375718e+02
1.288000000000000114e+02 1.151533795301707812e+02
1.291999999999999886e+02 1.149978671831023007e+02
1.296000000000000227e+02 1.148430290973841039e+02
1.300000000000000000e+02 1.146888602710806708e+02
1.304000000000000057e+02 1.145353557549373278e+02
1.308000000000000114e+02 1.143825106516613346e+02
1.311999999999999886e+02 1.142303201152146244e+02
1.316000000000000227e+02 1.140787793501184240e+02
1.320000000000000000e+02 1.139278836107696975e+02
1.324000000000000057e+02 1.137776282007687030e+02
1.328000000000000114e+02 1.136280084722577328e+02
1.331999999999999886e+02 1.134790198252708961e+02
1.336000000000000227e+02 1.133306577070942325e+02
1.340000000000000000e+02 1.131829176116369808e+02
1.344000000000000057e+02 1.130357950788123702e+02
1.348000000000000114e+02 1.128892856939290681e+02
1.351999999999999886e+02 1.127433850870922214e+02
1.356000000000000227e+02 1.125980889326143313e+02
1.360000000000000000e+02 1.124533929484356776e+02
1.364000000000000057e+02 1.123092928955538099e+02
1.368000000000000114e+02 1.121657845774625599e+02
1.371999999999999886e+02 1.120228638395998360e+02
1.376000000000000227e+02 1.118805265688041288e+02
1.380000000000000000e+02 1.117387686927800416e+02
1.384000000000000057e+02 1.115975861795718203e+02
1.388000000000000114e+02 1.114569750370454670e+02
1.392000000000000171e+02 1.113169313123791255e+02
1.395999999999999943e+02 1.111774510915612240e+02
1.400000000000000000e+02 1.110385304988966055e+02
1.404000000000000057e+02 1.109001656965204319e+02
1.408000000000000114e+02 1.107623528839195899e+02
1.412000000000000171e+02 1.106250882974614882e+02
1.415999999999999943e+02 1.104883682099302291e+02
1.420000000000000000e+02 1.103521889300700138e+02
1.424000000000000057e+02 1.102165468021353547e+02
1.428000000000000114e+02 1.100814382054484355e+02
1.432000000000000171e+02 1.099468595539631224e+02
1.435999999999999943e+02 1.098128072958356682e+02
1.440000000000000000e+02 1.096792779130018118e+02
1.444000000000000057e+02 1.095462679207606698e+02
1.448000000000000114e+02 1.094137738673644265e+02
1.452000000000000171e+02 1.092817923336146748e+02
1.455999999999999943e+02 1.091503199324645124e+02
1.460000000000000000e+02 1.090193533086267337e+02
1.464000000000000057e+02 1.088888891381879205e+02
1.468000000000000114e+02 1.087589241282282586e+02
1.472000000000000171e+02 1.086294550164469683e+02
1.475999999999999943e+02 1.085004785707933621e+02
1.480000000000000000e+02 1.083719915891033025e+02
1.484000000000000057e+02 1.082439908987410746e+02
1.488000000000000114e+02 1.081164733562464590e+02
1.492000000000000171e+02 1.079894358469871918e+02
1.495999999999999943e+02 1.078628752848160985e+02
1.500000000000000000e+02 1.077367886117337008e+02
