1.000000000000000000e+01 5.506482926415039003e+01
1.040000000000000036e+01 6.734065749898043407e+01
1.080000000000000071e+01 6.631265215578312677e+01
1.119999999999999929e+01 6.301235644395213598e+01
1.159999999999999964e+01 6.088605672701687865e+01
1.200000000000000000e+01 5.897530050527474543e+01
1.240000000000000036e+01 5.724393015713033606e+01
1.280000000000000071e+01 5.566404947803384573e+01
1.319999999999999929e+01 5.421368734189695715e+01
1.359999999999999964e+01 5.287523476546284229e+01
1.400000000000000000e+01 5.163436619567002595e+01
1.440000000000000036e+01 5.050238702110364386e+01
1.480000000000000071e+01 4.947889762390970247e+01
1.519999999999999929e+01 4.851500305119137124e+01
1.560000000000000142e+01 4.760496137194505195e+01
1.600000000000000000e+01 4.674379370861240091e+01
1.639999999999999858e+01 4.592715618758978025e+01
1.680000000000000071e+01 4.515123762670992846e+01
1.719999999999999929e+01 4.441267697887712984e+01
1.760000000000000142e+01 4.370849611803613755e+01
1.800000000000000000e+01 4.303604466634057246e+01
1.839999999999999858e+01 4.239295436342865742e+01
1.880000000000000071e+01 4.177710106479045749e+01
1.920000000000000284e+01 4.063064740045280132e+01
1.960000000000000142e+01 4.007684242492451432e+01
2.000000000000000000e+01 3.954541392322925475e+01
2.039999999999999858e+01 3.903485085883939121e+01
2.080000000000000071e+01 3.854378435886457765e+01
2.120000000000000284e+01 3.807097065342528452e+01
2.160000000000000142e+01 3.761527649113710936e+01
2.200000000000000000e+01 3.717566661145205131e+01
2.239999999999999858e+01 3.675119293529216691e+01
2.280000000000000071e+01 3.634098519879172784e+01
2.320000000000000284e+01 3.594424280511100278e+01
2.360000000000000142e+01 3.556022770923485865e+01
2.400000000000000000e+01 3.517447190885509656e+01
2.439999999999999858e+01 3.480027967645980169e+01
2.480000000000000071e+01 3.443739311025008476e+01
2.520000000000000284e+01 3.408524282623887558e+01
2.560000000000000142e+01 3.374329923582745039e+01
2.600000000000000000e+01 3.341106900850290629e+01
2.640000000000000213e+01 3.308809191429840268e+01
2.680000000000000071e+01 3.277393799843493127e+01
2.719999999999999929e+01 3.246820504735158863e+01
2.760000000000000142e+01 3.217051631103717568e+01
2.800000000000000000e+01 3.188051845138935647e+01
2.840000000000000213e+01 3.159787969040205979e+01
2.880000000000000071e+01 3.132228813544362822e+01
2.920000000000000284e+01 3.105345026183749724e+01
2.960000000000000142e+01 3.079108953547834915e+01
3.000000000000000000e+01 3.053494516037877204e+01
3.040000000000000213e+01 3.039608361602333275e+01
3.080000000000000071e+01 3.016584285650358765e+01
3.120000000000000284e+01 2.994076859178146321e+01
3.160000000000000142e+01 2.972066683952788679e+01
3.200000000000000000e+01 2.950535376238990892e+01
3.240000000000000568e+01 2.929465499073275225e+01
3.279999999999999716e+01 2.908840500020847131e+01
3.320000000000000284e+01 2.891856297452497415e+01
3.360000000000000142e+01 2.875573107318373189e+01
3.400000000000000000e+01 2.859605196215537148e+01
3.440000000000000568e+01 2.843941910438962140e+01
3.479999999999999716e+01 2.828573105658243492e+01
3.520000000000000284e+01 2.813489115643746885e+01
3.560000000000000142e+01 2.798680723325784214e+01
3.600000000000000000e+01 2.784139133982778702e+01
3.640000000000000568e+01 2.769855950374748588e+01
3.679999999999999716e+01 2.755408750378491334e+01
3.720000000000000284e+01 2.741203103215286063e+01
3.760000000000000142e+01 2.727240636448111744e+01
3.800000000000000000e+01 2.713514087984530221e+01
3.840000000000000568e+01 2.700016502999841350e+01
3.879999999999999716e+01 2.686741217218893496e+01
3.920000000000000284e+01 2.673681841304548357e+01
3.960000000000000142e+01 2.660832246266856771e+01
4.000000000000000000e+01 2.648186549814549196e+01
4.040000000000000568e+01 2.635739103577413545e+01
4.079999999999999716e+01 2.623484481134295265e+01
4.120000000000000284e+01 2.611417466787059638e+01
4.160000000000000142e+01 2.599533045025930988e+01
4.200000000000000000e+01 2.587826390636174523e+01
4.239999999999999858e+01 2.576292859400276569e+01
4.280000000000000426e+01 2.564927979353473120e+01
4.320000000000000284e+01 2.553727442553947569e+01
4.360000000000000142e+01 2.542687097332107271e+01
4.400000000000000000e+01 2.531802940986127126e+01
4.439999999999999858e+01 2.519118302794143816e+01
4.480000000000000426e+01 2.509399935123907355e+01
4.520000000000000284e+01 2.499808867305396021e+01
4.560000000000000142e+01 2.490342182030766338e+01
4.600000000000000000e+01 2.480997057089541613e+01
4.639999999999999858e+01 2.471770761369253222e+01
4.680000000000000426e+01 2.462660651061249339e+01
4.720000000000000284e+01 2.453664166059290608e+01
4.760000000000000142e+01 2.444778826539419114e+01
4.800000000000000000e+01 2.436002229710340572e+01
4.840000000000000568e+01 2.427332046724339065e+01
4.880000000000000426e+01 2.418766019739380013e+01
4.920000000000000284e+01 2.410301959123688675e+01
4.960000000000000142e+01 2.401937740794673459e+01
5.000000000000000000e+01 2.393671303684600105e+01
5.040000000000000568e+01 2.385500647325898882e+01
5.080000000000000426e+01 2.377423829549458389e+01
5.120000000000000284e+01 2.369438964289682303e+01
5.160000000000000142e+01 2.361544219490474816e+01
5.200000000000000000e+01 2.353737815106693176e+01
5.240000000000000568e+01 2.345921837519603415e+01
5.280000000000000426e+01 2.337918864478755410e+01
5.320000000000000284e+01 2.330006227462269308e+01
5.360000000000000142e+01 2.322182140181869414e+01
5.400000000000000000e+01 2.314444866710118021e+01
5.440000000000000568e+01 2.306792719644688461e+01
5.480000000000000426e+01 2.299224058354418077e+01
5.520000000000000284e+01 2.291737287302840897e+01
5.560000000000000142e+01 2.284330854445175163e+01
5.600000000000000000e+01 2.277003249694961795e+01
5.640000000000000568e+01 2.269753003456789742e+01
5.680000000000000426e+01 2.262578685221765440e+01
5.720000000000000284e+01 2.255478902222533577e+01
5.760000000000000142e+01 2.248452298144906081e+01
5.800000000000000000e+01 2.241497551893260010e+01
5.840000000000000568e+01 2.234613376407087060e+01
5.880000000000000426e+01 2.227798517526168354e+01
5.920000000000000284e+01 2.221051752902042153e+01
5.960000000000000142e+01 2.069018870638598884e+01
6.000000000000000000e+01 2.061754275892002397e+01
6.040000000000000568e+01 2.054564756143090420e+01
6.080000000000000426e+01 2.047449000768621374e+01
6.120000000000000284e+01 2.040405731219302510e+01
6.160000000000000142e+01 2.033433700012783163e+01
6.200000000000000000e+01 2.026531689765159072e+01
6.240000000000000568e+01 2.025948054413415989e+01
6.280000000000000426e+01 2.019483862217682812e+01
6.320000000000000284e+01 2.013081703722225768e+01
6.360000000000000142e+01 2.006740573937194938e+01
6.400000000000000000e+01 2.000459490685904740e+01
6.440000000000000568e+01 1.994237493940862294e+01
6.480000000000001137e+01 1.988073645183317950e+01
6.520000000000000284e+01 1.981967026785364183e+01
6.559999999999999432e+01 1.975916741413649191e+01
6.600000000000000000e+01 1.969921911453812413e+01
6.640000000000000568e+01 1.963981678454796764e+01
6.680000000000001137e+01 1.958095202592227224e+01
6.720000000000000284e+01 1.952261662150088029e+01
6.759999999999999432e+01 1.946480253019964124e+01
6.800000000000000000e+01 1.940750188217143091e+01
6.840000000000000568e+01 1.935070697412915663e+01
6.880000000000001137e+01 1.929441026482427191e+01
6.920000000000000284e+01 1.923860437067481755e+01
6.959999999999999432e+01 1.918328206153707782e+01
7.000000000000000000e+01 1.912843625661537672e+01
7.040000000000000568e+01 1.907406002050462135e+01
7.080000000000001137e+01 1.902014655936061160e+01
7.120000000000000284e+01 1.896668921719317424e+01
7.159999999999999432e+01 1.891368147227754548e+01
7.200000000000000000e+01 1.886091299704625257e+01
7.240000000000000568e+01 1.880830477623024066e+01
7.280000000000001137e+01 1.875613242771532896e+01
7.320000000000000284e+01 1.870438984584559705e+01
7.359999999999999432e+01 1.865307104493244594e+01
7.400000000000000000e+01 1.860217015623038250e+01
7.440000000000000568e+01 1.855168142500569672e+01
7.479999999999999716e+01 1.850159920769462474e+01
7.520000000000000284e+01 1.845191796914775750e+01
7.560000000000000853e+01 1.840263227995765760e+01
7.600000000000000000e+01 1.835373681386676026e+01
7.640000000000000568e+01 1.830522634525257786e+01
7.679999999999999716e+01 1.825709574668769619e+01
7.720000000000000284e+01 1.820933998657172026e+01
7.760000000000000853e+01 1.816195412683292076e+01
7.800000000000000000e+01 1.811493332069688122e+01
7.840000000000000568e+01 1.806827281052014911e+01
7.879999999999999716e+01 1.802196792568639694e+01
7.920000000000000284e+01 1.797601408056311101e+01
7.960000000000000853e+01 1.793040677251677550e+01
8.000000000000000000e+01 1.788514157998448439e+01
8.040000000000000568e+01 1.784021416060014076e+01
8.079999999999999716e+01 1.779562024937345655e+01
8.120000000000000284e+01 1.775135565691994799e+01
8.160000000000000853e+01 1.770741626774026400e+01
8.200000000000000000e+01 1.766379803854724884e+01
8.240000000000000568e+01 1.762049699663913316e+01
8.279999999999999716e+01 1.757750923831742540e+01
8.320000000000000284e+01 1.754528046404279351e+01
8.360000000000000853e+01 1.750332476306580887e+01
8.400000000000000000e+01 1.746166823717782535e+01
8.440000000000000568e+01 1.742030726989640499e+01
8.479999999999999716e+01 1.737923830621647170e+01
8.520000000000000284e+01 1.733845785126662520e+01
8.560000000000000853e+01 1.729796246900118462e+01
8.600000000000000000e+01 1.725652268475514006e+01
8.640000000000000568e+01 1.721492512975861189e+01
8.680000000000001137e+01 1.717361785568672161e+01
8.720000000000000284e+01 1.713259744171985233e+01
8.760000000000000853e+01 1.709186052371286024e+01
8.800000000000000000e+01 1.705140379298747888e+01
8.840000000000000568e+01 1.701122399515609018e+01
8.880000000000001137e+01 1.697131792897591041e+01
8.920000000000000284e+01 1.693168244523275945e+01
8.960000000000000853e+01 1.689231444565334783e+01
9.000000000000000000e+01 1.685321088184540983e+01
9.040000000000000568e+01 1.681436875426468092e+01
9.080000000000001137e+01 1.677578511120803029e+01
9.120000000000000284e+01 1.673745704783188515e+01
9.160000000000000853e+01 1.669938170519528597e+01
9.200000000000000000e+01 1.666155626932675560e+01
9.240000000000000568e+01 1.662397797031431423e+01
9.280000000000001137e+01 1.658664408141801516e+01
9.320000000000000284e+01 1.654955191820426919e+01
9.360000000000000853e+01 1.651269883770136104e+01
9.400000000000000000e+01 1.647608223757553958e+01
9.440000000000000568e+01 1.643969955532712390e+01
9.480000000000001137e+01 1.640350680251269466e+01
9.520000000000000284e+01 1.636752753237686520e+01
9.560000000000000853e+01 1.633177469076422739e+01
9.600000000000000000e+01 1.629624587492162391e+01
9.640000000000000568e+01 1.626093871792331313e+01
9.680000000000001137e+01 1.622585088798411235e+01
9.720000000000000284e+01 1.619098008778854236e+01
9.760000000000000853e+01 1.615632405383562542e+01
9.800000000000000000e+01 1.612188055579888157e+01
9.840000000000000568e+01 1.608764739590105819e+01
9.880000000000001137e+01 1.605362240830334741e+01
9.920000000000000284e+01 1.601980345850844145e+01
9.960000000000000853e+01 1.598618844277733331e+01
1.000000000000000000e+02 1.595277528755928387e+01
1.004000000000000057e+02 1.591956194893470311e+01
1.008000000000000114e+02 1.588654641207057061e+01
1.012000000000000028e+02 1.585372669068808449e+01
1.016000000000000085e+02 1.582110082654220307e+01
1.020000000000000000e+02 1.578866688891271153e+01
1.024000000000000057e+02 1.575642297410664838e+01
1.028000000000000114e+02 1.572436720497165830e+01
1.032000000000000028e+02 1.569249773042002261e+01
1.036000000000000085e+02 1.566081272496314369e+01
1.040000000000000000e+02 1.562931038825619368e+01
1.044000000000000057e+02 1.559798894465256680e+01
1.048000000000000114e+02 1.556684664276808050e+01
1.052000000000000028e+02 1.553588175505445435e+01
1.056000000000000085e+02 1.550509257738201896e+01
1.060000000000000000e+02 1.547447742863131026e+01
1.064000000000000057e+02 1.544403465029336786e+01
1.068000000000000114e+02 1.541376260607848536e+01
1.072000000000000028e+02 1.538365968153324559e+01
1.076000000000000085e+02 1.534736498951164485e+01
1.080000000000000000e+02 1.531794228982244555e+01
1.084000000000000057e+02 1.528868174127983437e+01
1.088000000000000114e+02 1.525958183503303545e+01
1.092000000000000028e+02 1.523064108199112709e+01
1.096000000000000085e+02 1.520185801248974933e+01
1.100000000000000000e+02 1.517323117596472670e+01
1.104000000000000057e+02 1.514475914063235429e+01
1.108000000000000114e+02 1.511644049317623661e+01
1.112000000000000028e+02 1.508827383844049663e+01
1.116000000000000085e+02 1.506025779912926588e+01
1.120000000000000000e+02 1.503239101551215740e+01
1.124000000000000057e+02 1.500467214513576764e+01
1.128000000000000114e+02 1.497709986254089998e+01
1.132000000000000028e+02 1.494967285898549392e+01
1.136000000000000085e+02 1.492238984217303965e+01
1.140000000000000000e+02 1.489524953598642298e+01
1.144000000000000057e+02 1.486825068022695540e+01
1.148000000000000114e+02 1.484139203035866927e+01
1.152000000000000028e+02 1.481467235725752474e+01
1.156000000000000085e+02 1.478809044696559205e+01
1.160000000000000000e+02 1.476164510044997513e+01
1.164000000000000057e+02 1.473533513336645484e+01
1.168000000000000114e+02 1.470915937582773125e+01
1.172000000000000028e+02 1.468311667217604111e+01
1.176000000000000085e+02 1.465720588076024278e+01
1.180000000000000000e+02 1.463142587371712899e+01
1.184000000000000057e+02 1.460577553675691753e+01
1.188000000000000114e+02 1.458025376895280623e+01
1.192000000000000028e+02 1.455485948253455497e+01
1.196000000000000085e+02 1.452959160268591354e+01
1.200000000000000000e+02 1.450444906734590944e+01
1.204000000000000057e+02 1.447924686378490833e+01
1.208000000000000114e+02 1.451534542967672969e+01
1.212000000000000028e+02 1.449184641195564538e+01
1.216000000000000085e+02 1.446845982864877733e+01
1.220000000000000000e+02 1.444518476532384454e+01
1.224000000000000057e+02 1.442202031803584994e+01
1.228000000000000114e+02 1.439896559317209679e+01
1.232000000000000028e+02 1.437601970729990342e+01
1.236000000000000085e+02 1.435318178701712810e+01
1.240000000000000000e+02 1.433045096880539049e+01
1.244000000000000057e+02 1.430782639888585805e+01
1.248000000000000114e+02 1.428530723307765982e+01
1.252000000000000028e+02 1.426289263665878337e+01
1.256000000000000085e+02 1.424058178422946952e+01
1.260000000000000000e+02 1.421837385957798361e+01
1.264000000000000057e+02 1.419626805554878857e+01
1.268000000000000114e+02 1.417426357391299341e+01
1.272000000000000028e+02 1.415235962524110036e+01
1.276000000000000085e+02 1.413055542877794934e+01
1.280000000000000000e+02 1.410885021231984027e+01
1.284000000000000057e+02 1.408724321209380292e+01
1.288000000000000114e+02 1.406573367263892216e+01
1.291999999999999886e+02 1.404432084668971470e+01
1.296000000000000227e+02 1.402300399506152928e+01
1.300000000000000000e+02 1.400178238653787766e+01
1.304000000000000057e+02 1.398065529775970717e+01
1.308000000000000114e+02 1.395962201311653672e+01
1.311999999999999886e+02 1.393868182463945438e+01
1.316000000000000227e+02 1.391783403189591795e+01
1.320000000000000000e+02 1.389707794188631595e+01
1.324000000000000057e+02 1.387641286894228898e+01
1.328000000000000114e+02 1.385583813462672254e+01
1.331999999999999886e+02 1.383535306763542039e+01
1.336000000000000227e+02 1.381495700370041746e+01
1.340000000000000000e+02 1.379464928549492519e+01
1.344000000000000057e+02 1.377442926253976374e+01
1.348000000000000114e+02 1.375868917873576791e+01
1.351999999999999886e+02 1.373893302646001757e+01
1.356000000000000227e+02 1.371926129577887643e+01
1.360000000000000000e+02 1.369967337381177330e+01
1.364000000000000057e+02 1.368016865395597392e+01
1.368000000000000114e+02 1.366074653580363574e+01
1.371999999999999886e+02 1.364140642506017720e+01
1.376000000000000227e+02 1.362214773346402907e+01
1.380000000000000000e+02 1.360296987870761498e+01
1.384000000000000057e+02 1.358387228435961802e+01
1.388000000000000114e+02 1.356485437978851394e+01
1.392000000000000171e+02 1.354591560008727136e+01
1.395999999999999943e+02 1.352705538599929191e+01
1.400000000000000000e+02 1.350827318384550146e+01
1.404000000000000057e+02 1.348956844545261546e+01
1.408000000000000114e+02 1.347094062808248793e+01
1.412000000000000171e+02 1.345238919436262570e+01
1.415999999999999943e+02 1.343391361221773117e+01
1.420000000000000000e+02 1.341551335480238549e+01
1.424000000000000057e+02 1.339718790043469454e+01
1.428000000000000114e+02 1.337893673253104510e+01
1.432000000000000171e+02 1.336075933954180073e+01
1.435999999999999943e+02 1.334265521488805817e+01
1.440000000000000000e+02 1.332462385689931139e+01
1.444000000000000057e+02 1.330666476875210158e+01
1.448000000000000114e+02 1.328877745840961921e+01
1.452000000000000171e+02 1.327096143856222099e+01
1.455999999999999943e+02 1.325321622656881715e+01
1.460000000000000000e+02 1.323554134439918606e+01
1.464000000000000057e+02 1.321793631857715923e+01
1.468000000000000114e+02 1.320040068012464118e+01
1.472000000000000171e+02 1.318293396450648025e+01
1.475999999999999943e+02 1.316553571157618663e+01
1.480000000000000000e+02 1.314820546552241609e+01
1.484000000000000057e+02 1.313094277481631877e+01
1.488000000000000114e+02 1.311373399295850817e+01
1.492000000000000171e+02 1.309651314771474517e+01
1.495999999999999943e+02 1.307935878593163537e+01
1.500000000000000000e+02 1.306227047144716735e+01
