1.000000000000000000e+01 4.580250979165961098e+02
1.040000000000000036e+01 5.036241148784656616e+02
1.080000000000000071e+01 5.122057385490454635e+02
1.119999999999999929e+01 5.235798014363231232e+02
1.159999999999999964e+01 5.392299602743428295e+02
1.200000000000000000e+01 5.528657882532186250e+02
1.240000000000000036e+01 5.630057075002417832e+02
1.280000000000000071e+01 5.598222700411424739e+02
1.319999999999999929e+01 5.601423614759943348e+02
1.359999999999999964e+01 5.501232957631677891e+02
1.400000000000000000e+01 5.407246373560517441e+02
1.440000000000000036e+01 5.318805210367747804e+02
1.480000000000000071e+01 5.235348768230944643e+02
1.519999999999999929e+01 5.156395761108414035e+02
1.560000000000000142e+01 5.081529998251015172e+02
1.600000000000000000e+01 5.010389172764038221e+02
1.639999999999999858e+01 4.942655975369600014e+02
1.680000000000000071e+01 4.878050973720243064e+02
1.719999999999999929e+01 4.816326849888995412e+02
1.760000000000000142e+01 4.757263695007871434e+02
1.800000000000000000e+01 4.700665135569921631e+02
1.839999999999999858e+01 4.646355120400908163e+02
1.880000000000000071e+01 4.594175237163449310e+02
1.920000000000000284e+01 4.543982456781801602e+02
1.960000000000000142e+01 4.495647226303556181e+02
2.000000000000000000e+01 4.449051847477360297e+02
2.039999999999999858e+01 4.404089091150363515e+02
2.080000000000000071e+01 4.360661007491214605e+02
2.120000000000000284e+01 4.318677899755268754e+02
2.160000000000000142e+01 4.278057435361295688e+02
2.200000000000000000e+01 4.238723872835156499e+02
2.239999999999999858e+01 4.200607386987230711e+02
2.280000000000000071e+01 4.163643477745202972e+02
2.320000000000000284e+01 4.127772450527426713e+02
2.360000000000000142e+01 4.092938958040462012e+02
2.400000000000000000e+01 4.059091595014269842e+02
2.439999999999999858e+01 4.026182538724848428e+02
2.480000000000000071e+01 3.994167229254977656e+02
2.520000000000000284e+01 3.963004084355091550e+02
2.560000000000000142e+01 3.932654244523923808e+02
2.600000000000000000e+01 3.903081344561211949e+02
2.640000000000000213e+01 3.874251308375031613e+02
2.680000000000000071e+01 3.846132164272662521e+02
2.719999999999999929e+01 3.818693878340785659e+02
2.760000000000000142e+01 3.791908203840362148e+02
2.800000000000000000e+01 3.765748544813218359e+02
2.840000000000000213e+01 3.740189832329253932e+02
2.880000000000000071e+01 3.715208412001549050e+02
2.920000000000000284e+01 3.690781941567026934e+02
2.960000000000000142e+01 3.666889297476907359e+02
3.000000000000000000e+01 3.643510489567773902e+02
3.040000000000000213e+01 3.620626582993629086e+02
3.080000000000000071e+01 3.598219626694353224e+02
3.120000000000000284e+01 3.576272587758684267e+02
3.160000000000000142e+01 3.554769291111908842e+02
3.200000000000000000e+01 3.533694364021488354e+02
3.240000000000000568e+01 3.513033184968995215e+02
3.279999999999999716e+01 3.492771836485212589e+02
3.320000000000000284e+01 3.472897061587794951e+02
3.360000000000000142e+01 3.453396223498505151e+02
3.400000000000000000e+01 3.434257268350122558e+02
3.440000000000000568e+01 3.415468690622518011e+02
3.479999999999999716e+01 3.397019501073334595e+02
3.520000000000000284e+01 3.378899196951815611e+02
3.560000000000000142e+01 3.361097734304862570e+02
3.600000000000000000e+01 3.343605502202668731e+02
3.640000000000000568e+01 3.326413298727607071e+02
3.679999999999999716e+01 3.309512308584637594e+02
3.720000000000000284e+01 3.292894082204545612e+02
3.760000000000000142e+01 3.276550516223036880e+02
3.800000000000000000e+01 3.260473835229201427e+02
3.840000000000000568e+01 3.244656574686331396e+02
3.879999999999999716e+01 3.229091564936549048e+02
3.920000000000000284e+01 3.213771916208383459e+02
3.960000000000000142e+01 3.198691004553359107e+02
4.000000000000000000e+01 3.183842458643877080e+02
4.040000000000000568e+01 3.169220147370381824e+02
4.079999999999999716e+01 3.154818168180861448e+02
4.120000000000000284e+01 3.140630836110440214e+02
4.160000000000000142e+01 3.126652673453027091e+02
4.200000000000000000e+01 3.112878400030771218e+02
4.239999999999999858e+01 3.099302924020651631e+02
4.280000000000000426e+01 3.085921333300648257e+02
4.320000000000000284e+01 3.072728887280853769e+02
4.360000000000000142e+01 3.059721009187562117e+02
4.400000000000000000e+01 3.046893278770750157e+02
4.439999999999999858e+01 3.034241425407625457e+02
4.480000000000000426e+01 3.021761321576892669e+02
4.520000000000000284e+01 3.009448976680310466e+02
4.560000000000000142e+01 2.997300531189740127e+02
4.600000000000000000e+01 2.985312251099530840e+02
4.639999999999999858e+01 2.973480522665464605e+02
4.680000000000000426e+01 2.961801847412829716e+02
4.720000000000000284e+01 2.950272837397423018e+02
4.760000000000000142e+01 2.938890210704371384e+02
4.800000000000000000e+01 2.927650787170723561e+02
4.840000000000000568e+01 2.916551484318708845e+02
4.880000000000000426e+01 2.905589313487434993e+02
4.920000000000000284e+01 2.894761376151626564e+02
4.960000000000000142e+01 2.884064860416734746e+02
5.000000000000000000e+01 2.873497037680476751e+02
5.040000000000000568e+01 2.863055259451488155e+02
5.080000000000000426e+01 2.852736954316366109e+02
5.120000000000000284e+01 2.842539625046964602e+02
5.160000000000000142e+01 2.832460845840280967e+02
5.200000000000000000e+01 2.822498259683779906e+02
5.240000000000000568e+01 2.812649575839433851e+02
5.280000000000000426e+01 2.802912567440178009e+02
5.320000000000000284e+01 2.793285069192852461e+02
5.360000000000000142e+01 2.783764975182070316e+02
5.400000000000000000e+01 2.774350236769795970e+02
5.440000000000000568e+01 2.765038860585697194e+02
5.480000000000000426e+01 2.755828906603662745e+02
5.520000000000000284e+01 2.746718486300119366e+02
5.560000000000000142e+01 2.737705760890044644e+02
5.600000000000000000e+01 2.728788939636827422e+02
5.640000000000000568e+01 2.719966278232300283e+02
5.680000000000000426e+01 2.711236077243542013e+02
5.720000000000000284e+01 2.702596680623179282e+02
5.760000000000000142e+01 2.694046474280131065e+02
5.800000000000000000e+01 2.685583884707917264e+02
5.840000000000000568e+01 2.677207377667775745e+02
5.880000000000000426e+01 2.668915456924023033e+02
5.920000000000000284e+01 2.660706663029194488e+02
5.960000000000000142e+01 2.652579572156679433e+02
6.000000000000000000e+01 2.644532794978626953e+02
6.040000000000000568e+01 2.636564975587086224e+02
6.080000000000000426e+01 2.628674790456380492e+02
6.120000000000000284e+01 2.620860947444891735e+02
6.160000000000000142e+01 2.613122184834456903e+02
6.200000000000000000e+01 2.605457270405726149e+02
6.240000000000000568e+01 2.597865000547880072e+02
6.280000000000000426e+01 2.590344199401215519e+02
6.320000000000000284e+01 2.582893718031145340e+02
6.360000000000000142e+01 2.575512433632275702e+02
6.400000000000000000e+01 2.568199248761254125e+02
6.440000000000000568e+01 2.560953090597168966e+02
6.480000000000001137e+01 2.553772910228325372e+02
6.520000000000000284e+01 2.546657681964293829e+02
6.559999999999999432e+01 2.539606402672171157e+02
6.600000000000000000e+01 2.532618091136048406e+02
6.640000000000000568e+01 2.525691787438726692e+02
6.680000000000001137e+01 2.518826552364773192e+02
6.720000000000000284e+01 2.512021466824039351e+02
6.759999999999999432e+01 2.505275631294823029e+02
6.800000000000000000e+01 2.498588165285879370e+02
6.840000000000000568e+01 2.491958206816523784e+02
6.880000000000001137e+01 2.485384911914115378e+02
6.920000000000000284e+01 2.478867454128232453e+02
6.959999999999999432e+01 2.472405024060880692e+02
7.000000000000000000e+01 2.465996828912118985e+02
7.040000000000000568e+01 2.459642092040493822e+02
7.080000000000001137e+01 2.453340052537723466e+02
7.120000000000000284e+01 2.447089964817077430e+02
7.159999999999999432e+01 2.440891098214934232e+02
7.200000000000000000e+01 2.434742736605022060e+02
7.240000000000000568e+01 2.428644178024862015e+02
7.280000000000001137e+01 2.422594734313953495e+02
7.320000000000000284e+01 2.416593730763280234e+02
7.359999999999999432e+01 2.410640505775699864e+02
7.400000000000000000e+01 2.404734410536832456e+02
7.440000000000000568e+01 2.398874808696061223e+02
7.479999999999999716e+01 2.393061076057271634e+02
7.520000000000000284e+01 2.387292600278986754e+02
7.560000000000000853e+01 2.381568780583554030e+02
7.600000000000000000e+01 2.375889027475071202e+02
7.640000000000000568e+01 2.370252762465724174e+02
7.679999999999999716e+01 2.364659417810261459e+02
7.720000000000000284e+01 2.359108436248299654e+02
7.760000000000000853e+01 2.353599270754201598e+02
7.800000000000000000e+01 2.348131384294256918e+02
7.840000000000000568e+01 2.342704249590912866e+02
7.879999999999999716e+01 2.337317348893822100e+02
7.920000000000000284e+01 2.331970173757457587e+02
7.960000000000000853e+01 2.326662224825092551e+02
8.000000000000000000e+01 2.321393011618916944e+02
8.040000000000000568e+01 2.316162052336082411e+02
8.079999999999999716e+01 2.310968873650492412e+02
8.120000000000000284e+01 2.305813010520128046e+02
8.160000000000000853e+01 2.300694005999745855e+02
8.200000000000000000e+01 2.295611411058748104e+02
8.240000000000000568e+01 2.290564784404081138e+02
8.279999999999999716e+01 2.285553692307978508e+02
8.320000000000000284e+01 2.280577708440402489e+02
8.360000000000000853e+01 2.275636413706030226e+02
8.400000000000000000e+01 2.270729396085636154e+02
8.440000000000000568e+01 2.265856250481732843e+02
8.479999999999999716e+01 2.261016578568339810e+02
8.520000000000000284e+01 2.256209988644736484e+02
8.560000000000000853e+01 2.251436095493093887e+02
8.600000000000000000e+01 2.246694520239839790e+02
8.640000000000000568e+01 2.241984890220665534e+02
8.680000000000001137e+01 2.237306838849046358e+02
8.720000000000000284e+01 2.232660005488169190e+02
8.760000000000000853e+01 2.228044035326165613e+02
8.800000000000000000e+01 2.223458579254554479e+02
8.840000000000000568e+01 2.218903293749784496e+02
8.880000000000001137e+01 2.214377840757791489e+02
8.920000000000000284e+01 2.209881887581482829e+02
8.960000000000000853e+01 2.205415106771049238e+02
9.000000000000000000e+01 2.200977176017033798e+02
9.040000000000000568e+01 2.196567778046064063e+02
9.080000000000001137e+01 2.192186600519181638e+02
9.120000000000000284e+01 2.187833335932677130e+02
9.160000000000000853e+01 2.183507681521373343e+02
9.200000000000000000e+01 2.179209339164273729e+02
9.240000000000000568e+01 2.174938015292513853e+02
9.280000000000001137e+01 2.170693420799545379e+02
9.320000000000000284e+01 2.166475270953494601e+02
9.360000000000000853e+01 2.162283285311622762e+02
9.400000000000000000e+01 2.158117187636844676e+02
9.440000000000000568e+01 2.153976705816225490e+02
9.480000000000001137e+01 2.149861571781424345e+02
9.520000000000000284e+01 2.145771521431010171e+02
9.560000000000000853e+01 2.141706294554606416e+02
9.600000000000000000e+01 2.137665634758812416e+02
9.640000000000000568e+01 2.133649289394858215e+02
9.680000000000001137e+01 2.129657009487929145e+02
9.720000000000000284e+01 2.125688549668131486e+02
9.760000000000000853e+01 2.121743668103043774e+02
9.800000000000000000e+01 2.117822126431819356e+02
9.840000000000000568e+01 2.113923689700782802e+02
9.880000000000001137e+01 2.110048126300500826e+02
9.920000000000000284e+01 2.106195207904270319e+02
9.960000000000000853e+01 2.102364709407993359e+02
1.000000000000000000e+02 2.098556408871402823e+02
1.004000000000000057e+02 2.094770087460602497e+02
1.008000000000000114e+02 2.091005529391880486e+02
1.012000000000000028e+02 2.087262521876772325e+02
1.016000000000000085e+02 2.083540855068335702e+02
1.020000000000000000e+02 2.079840322008603835e+02
1.024000000000000057e+02 2.076160718577188504e+02
1.028000000000000114e+02 2.072501843441007736e+02
1.032000000000000028e+02 2.068863498005100610e+02
1.036000000000000085e+02 2.065245486364504188e+02
1.040000000000000000e+02 2.061647615257172674e+02
1.044000000000000057e+02 2.058069694017898996e+02
1.048000000000000114e+02 2.054511534533226893e+02
1.052000000000000028e+02 2.050972951197316547e+02
1.056000000000000085e+02 2.047453760868749555e+02
1.060000000000000000e+02 2.043953782828245664e+02
1.064000000000000057e+02 2.040472838737263714e+02
1.068000000000000114e+02 2.037010752597474834e+02
1.072000000000000028e+02 2.033567350711078916e+02
1.076000000000000085e+02 2.030142461641942759e+02
1.080000000000000000e+02 2.026735916177549655e+02
1.084000000000000057e+02 2.023347547291724879e+02
1.088000000000000114e+02 2.019977190108131992e+02
1.092000000000000028e+02 2.016624681864516333e+02
1.096000000000000085e+02 2.013289861877672990e+02
1.100000000000000000e+02 2.009972571509130148e+02
1.104000000000000057e+02 2.006672654131525633e+02
1.108000000000000114e+02 2.003389955095658479e+02
1.112000000000000028e+02 2.000124321698204426e+02
1.116000000000000085e+02 1.996875603150076586e+02
1.120000000000000000e+02 1.993643650545416790e+02
1.124000000000000057e+02 1.990428316831200277e+02
1.128000000000000114e+02 1.987229456777444057e+02
1.132000000000000028e+02 1.984046926948000760e+02
1.136000000000000085e+02 1.980880585671927747e+02
1.140000000000000000e+02 1.977730293015412428e+02
1.144000000000000057e+02 1.974595910754248393e+02
1.148000000000000114e+02 1.971477302346844738e+02
1.152000000000000028e+02 1.968374332907756639e+02
1.156000000000000085e+02 1.965286869181728093e+02
1.160000000000000000e+02 1.962214779518229761e+02
1.164000000000000057e+02 1.959157933846488504e+02
1.168000000000000114e+02 1.956116203650989860e+02
1.172000000000000028e+02 1.953089461947448910e+02
1.176000000000000085e+02 1.950077583259229925e+02
1.180000000000000000e+02 1.947080443594221038e+02
1.184000000000000057e+02 1.944097920422133257e+02
1.188000000000000114e+02 1.941129892652231774e+02
1.192000000000000028e+02 1.938176240611480807e+02
1.196000000000000085e+02 1.935236846023093165e+02
1.200000000000000000e+02 1.932311591985481982e+02
1.204000000000000057e+02 1.929400362951596151e+02
1.208000000000000114e+02 1.926503044708639720e+02
1.212000000000000028e+02 1.923619524358163630e+02
1.216000000000000085e+02 1.920749690296517826e+02
1.220000000000000000e+02 1.917893432195663763e+02
1.224000000000000057e+02 1.915050640984333086e+02
1.228000000000000114e+02 1.912221208829529644e+02
1.232000000000000028e+02 1.909405029118359778e+02
1.236000000000000085e+02 1.906601996440197127e+02
1.240000000000000000e+02 1.903812006569160076e+02
1.244000000000000057e+02 1.901034956446904971e+02
1.248000000000000114e+02 1.898270744165728843e+02
1.252000000000000028e+02 1.895519268951963170e+02
1.256000000000000085e+02 1.892780431149672040e+02
1.260000000000000000e+02 1.890054132204628559e+02
1.264000000000000057e+02 1.887340274648578031e+02
1.268000000000000114e+02 1.884638762083773997e+02
1.272000000000000028e+02 1.881949499167785973e+02
1.276000000000000085e+02 1.879272391598570380e+02
1.280000000000000000e+02 1.876607346099799543e+02
1.284000000000000057e+02 1.873954270406447051e+02
1.288000000000000114e+02 1.871313073250618118e+02
1.291999999999999886e+02 1.868683664347623790e+02
1.296000000000000227e+02 1.866065954382295899e+02
1.300000000000000000e+02 1.863459854995534499e+02
1.304000000000000057e+02 1.860865278771080682e+02
1.308000000000000114e+02 1.858282139222518481e+02
1.311999999999999886e+02 1.855710350780495332e+02
1.316000000000000227e+02 1.853149828780152291e+02
1.320000000000000000e+02 1.850600489448776784e+02
1.324000000000000057e+02 1.848062249893648357e+02
1.328000000000000114e+02 1.845535028090098422e+02
1.331999999999999886e+02 1.843018742869762718e+02
1.336000000000000227e+02 1.840513313909028454e+02
1.340000000000000000e+02 1.838018661717678128e+02
1.344000000000000057e+02 1.835534707627712692e+02
1.348000000000000114e+02 1.833061373782364001e+02
1.351999999999999886e+02 1.830598583125284051e+02
1.356000000000000227e+02 1.828146259389914121e+02
1.360000000000000000e+02 1.825704327089023025e+02
1.364000000000000057e+02 1.823272711504418453e+02
1.368000000000000114e+02 1.820851338676822024e+02
1.371999999999999886e+02 1.818440135395911170e+02
1.376000000000000227e+02 1.816039029190516771e+02
1.380000000000000000e+02 1.813647948318982515e+02
1.384000000000000057e+02 1.811266821759674599e+02
1.388000000000000114e+02 1.808895579201646058e+02
1.392000000000000171e+02 1.806534151035445745e+02
1.395999999999999943e+02 1.804182468344077392e+02
1.400000000000000000e+02 1.801840462894097072e+02
1.404000000000000057e+02 1.799508067126852779e+02
1.408000000000000114e+02 1.797185214149864692e+02
1.412000000000000171e+02 1.794871837728334185e+02
1.415999999999999943e+02 1.792567872276791263e+02
1.420000000000000000e+02 1.790273252850867607e+02
1.424000000000000057e+02 1.787987915139200936e+02
1.428000000000000114e+02 1.785711795455460447e+02
1.432000000000000171e+02 1.783444830730502417e+02
1.435999999999999943e+02 1.781186958504638369e+02
1.440000000000000000e+02 1.778938116920025720e+02
1.444000000000000057e+02 1.776698244713176109e+02
1.448000000000000114e+02 1.774467281207577116e+02
1.452000000000000171e+02 1.772245166306424835e+02
1.455999999999999943e+02 1.770031840485466432e+02
1.460000000000000000e+02 1.767827244785954690e+02
1.464000000000000057e+02 1.765631320807705151e+02
1.468000000000000114e+02 1.763444010702258993e+02
1.472000000000000171e+02 1.761265257166149070e+02
1.475999999999999943e+02 1.759095003434264868e+02
1.480000000000000000e+02 1.756933193273318352e+02
1.484000000000000057e+02 1.754779770975407018e+02
1.488000000000000114e+02 1.752634681351671020e+02
1.492000000000000171e+02 1.750497869726044655e+02
1.495999999999999943e+02 1.748369281929100794e+02
1.500000000000000000e+02 1.746248864291984546e+02
