1.000000000000000000e+01 5.542554655504275161e+02
1.040000000000000036e+01 6.092689866674545556e+02
1.080000000000000071e+01 6.852845233495977482e+02
1.119999999999999929e+01 7.406583341044998861e+02
1.159999999999999964e+01 8.160625591165369315e+02
1.200000000000000000e+01 8.545448668943714665e+02
1.240000000000000036e+01 8.997580822086379158e+02
1.280000000000000071e+01 9.479546390868731578e+02
1.319999999999999929e+01 9.995310648060730045e+02
1.359999999999999964e+01 1.046395932299661126e+03
1.400000000000000000e+01 1.029796847585085288e+03
1.440000000000000036e+01 1.026616574743333103e+03
1.480000000000000071e+01 1.006176771119104160e+03
1.519999999999999929e+01 9.870494850194237415e+02
1.560000000000000142e+01 9.690926812230561609e+02
1.600000000000000000e+01 9.521857075937105037e+02
1.639999999999999858e+01 9.362252166341277189e+02
1.680000000000000071e+01 9.211220191552483811e+02
1.719999999999999929e+01 9.067986240567865934e+02
1.760000000000000142e+01 8.931872912508329136e+02
1.800000000000000000e+01 8.802284738726259548e+02
1.839999999999999858e+01 8.678695596301201931e+02
1.880000000000000071e+01 8.560638447057663143e+02
1.920000000000000284e+01 8.447696903676719558e+02
1.960000000000000142e+01 8.339498245252168545e+02
2.000000000000000000e+01 8.235707592959457770e+02
2.039999999999999858e+01 8.136023021896586442e+02
2.080000000000000071e+01 8.040171434130356829e+02
2.120000000000000284e+01 7.947905055050021019e+02
2.160000000000000142e+01 7.858998443464033699e+02
2.200000000000000000e+01 7.773245927730043832e+02
2.239999999999999858e+01 7.690459397208724113e+02
2.280000000000000071e+01 7.610466391661403804e+02
2.320000000000000284e+01 7.533108441740148464e+02
2.360000000000000142e+01 7.458239622093399248e+02
2.400000000000000000e+01 7.385725285314808843e+02
2.439999999999999858e+01 7.315440950363743013e+02
2.480000000000000071e+01 7.247271323461741304e+02
2.520000000000000284e+01 7.181109433034248468e+02
2.560000000000000142e+01 7.116855863186380020e+02
2.600000000000000000e+01 7.054418072604180452e+02
2.640000000000000213e+01 6.993709787759436267e+02
2.680000000000000071e+01 6.934650460946156727e+02
2.719999999999999929e+01 6.877164785052966636e+02
2.760000000000000142e+01 6.821182258128194462e+02
2.800000000000000000e+01 6.766636791763322663e+02
2.840000000000000213e+01 6.713466358138057331e+02
2.880000000000000071e+01 6.661612671262537333e+02
2.920000000000000284e+01 6.611020898540443795e+02
2.960000000000000142e+01 6.561639399278245719e+02
3.000000000000000000e+01 6.513419487194448720e+02
3.040000000000000213e+01 6.466315214350584029e+02
3.080000000000000071e+01 6.420283174241819779e+02
3.120000000000000284e+01 6.375282322057989859e+02
3.160000000000000142e+01 6.331273810361625465e+02
3.200000000000000000e+01 6.288220838634222218e+02
3.240000000000000568e+01 6.246088515319707994e+02
3.279999999999999716e+01 6.204843731148946517e+02
3.320000000000000284e+01 6.164455042664418443e+02
3.360000000000000142e+01 6.124892564982571912e+02
3.400000000000000000e+01 6.086127872935174992e+02
3.440000000000000568e+01 6.048133909822271335e+02
3.479999999999999716e+01 6.010884903089689715e+02
3.520000000000000284e+01 5.974356286315010038e+02
3.560000000000000142e+01 5.938524626948574223e+02
3.600000000000000000e+01 5.903367559311666355e+02
3.640000000000000568e+01 5.868863722403265228e+02
3.679999999999999716e+01 5.834992702110589562e+02
3.720000000000000284e+01 5.801734977457622335e+02
3.760000000000000142e+01 5.769071870560580919e+02
3.800000000000000000e+01 5.736985499990412336e+02
3.840000000000000568e+01 5.705458737270082565e+02
3.879999999999999716e+01 5.674475166259403522e+02
3.920000000000000284e+01 5.644019045202444431e+02
3.960000000000000142e+01 5.614075271232652540e+02
4.000000000000000000e+01 5.584629347148818397e+02
4.040000000000000568e+01 5.555667350291379307e+02
4.079999999999999716e+01 5.527175903363108773e+02
4.120000000000000284e+01 5.499142147051602478e+02
4.160000000000000142e+01 5.471553714322895985e+02
4.200000000000000000e+01 5.444398706266402996e+02
4.239999999999999858e+01 5.417665669381245834e+02
4.280000000000000426e+01 5.391343574202936679e+02
4.320000000000000284e+01 5.365421795177489912e+02
4.360000000000000142e+01 5.339890091697459411e+02
4.400000000000000000e+01 5.314738590221070353e+02
4.439999999999999858e+01 5.289957767401776891e+02
4.480000000000000426e+01 5.265538434161146597e+02
4.520000000000000284e+01 5.241471720643096432e+02
4.560000000000000142e+01 5.217749061992157067e+02
4.600000000000000000e+01 5.194362184902728359e+02
4.639999999999999858e+01 5.171303094890212151e+02
4.680000000000000426e+01 5.148564064238453284e+02
4.720000000000000284e+01 5.126137620581299643e+02
4.760000000000000142e+01 5.104016536078991066e+02
4.800000000000000000e+01 5.082193817153028021e+02
4.840000000000000568e+01 5.060662694745564636e+02
4.880000000000000426e+01 5.039416615071882006e+02
4.920000000000000284e+01 5.018449230836521338e+02
4.960000000000000142e+01 4.997754392885807988e+02
5.000000000000000000e+01 4.977326142271215303e+02
5.040000000000000568e+01 4.957158702699834976e+02
5.080000000000000426e+01 4.937246473349699727e+02
5.120000000000000284e+01 4.917584022029256516e+02
5.160000000000000142e+01 4.898166078661598704e+02
5.200000000000000000e+01 4.878987529075286602e+02
5.240000000000000568e+01 4.860043409084822770e+02
5.280000000000000426e+01 4.841328898844871560e+02
5.320000000000000284e+01 4.822839317463326552e+02
5.360000000000000142e+01 4.804570117859268521e+02
5.400000000000000000e+01 4.786516881852713823e+02
5.440000000000000568e+01 4.768675315473856244e+02
5.480000000000000426e+01 4.751041244480267096e+02
5.520000000000000284e+01 4.733610610071184510e+02
5.560000000000000142e+01 4.716379464788715268e+02
5.600000000000000000e+01 4.699343968596343757e+02
5.640000000000000568e+01 4.682500385125726439e+02
5.680000000000000426e+01 4.665845078083265207e+02
5.720000000000000284e+01 4.649374507808467456e+02
5.760000000000000142e+01 4.633085227976524720e+02
5.800000000000000000e+01 4.616973882438017540e+02
5.840000000000000568e+01 4.601037202189019126e+02
5.880000000000000426e+01 4.585272002465275705e+02
5.920000000000000284e+01 4.569675179954465420e+02
5.960000000000000142e+01 4.554243710120908872e+02
6.000000000000000000e+01 4.538974644637366964e+02
6.040000000000000568e+01 4.523865108918897704e+02
6.080000000000000426e+01 4.508912299753991419e+02
6.120000000000000284e+01 4.494113483028459086e+02
6.160000000000000142e+01 4.479465991537803689e+02
6.200000000000000000e+01 4.464967222884027933e+02
6.240000000000000568e+01 4.450614637453027171e+02
6.280000000000000426e+01 4.436405756468952859e+02
6.320000000000000284e+01 4.422338160122063755e+02
6.360000000000000142e+01 4.408409485766840135e+02
6.400000000000000000e+01 4.394617426187210754e+02
6.440000000000000568e+01 4.380959727925978768e+02
6.480000000000001137e+01 4.367434189675637981e+02
6.520000000000000284e+01 4.354038660727917431e+02
6.559999999999999432e+01 4.340771039479541855e+02
6.600000000000000000e+01 4.327629271991792166e+02
6.640000000000000568e+01 4.314611350601596769e+02
6.680000000000001137e+01 4.301715312581976036e+02
6.720000000000000284e+01 4.288939238849774256e+02
6.759999999999999432e+01 4.276281252718709425e+02
6.800000000000000000e+01 4.263739518695883248e+02
6.840000000000000568e+01 4.251312241319942586e+02
6.880000000000001137e+01 4.238997664039217170e+02
6.920000000000000284e+01 4.226794068128195931e+02
6.959999999999999432e+01 4.214699771640808308e+02
7.000000000000000000e+01 4.202713128399037714e+02
7.040000000000000568e+01 4.190832527015449500e+02
7.080000000000001137e+01 4.179056389948312358e+02
7.120000000000000284e+01 4.167383172588014304e+02
7.159999999999999432e+01 4.155811362373566453e+02
7.200000000000000000e+01 4.144339477938013374e+02
7.240000000000000568e+01 4.132966068281646130e+02
7.280000000000001137e+01 4.121689711971953329e+02
7.320000000000000284e+01 4.110509016369275059e+02
7.359999999999999432e+01 4.099422616877203609e+02
7.400000000000000000e+01 4.088429176216795895e+02
7.440000000000000568e+01 4.077527383723696630e+02
7.479999999999999716e+01 4.066715954667330379e+02
7.520000000000000284e+01 4.055993629591338276e+02
7.560000000000000853e+01 4.045359173674480644e+02
7.600000000000000000e+01 4.034811376111265986e+02
7.640000000000000568e+01 4.024349049511568523e+02
7.679999999999999716e+01 4.013971029318566934e+02
7.720000000000000284e+01 4.003676173244335814e+02
7.760000000000000853e+01 3.993463360722458333e+02
7.800000000000000000e+01 3.983331492377068344e+02
7.840000000000000568e+01 3.973279489507710878e+02
7.879999999999999716e+01 3.963306293589505458e+02
7.920000000000000284e+01 3.953410865788035267e+02
7.960000000000000853e+01 3.943592186488490370e+02
8.000000000000000000e+01 3.933849254838534080e+02
8.040000000000000568e+01 3.924181088304449077e+02
8.079999999999999716e+01 3.914586722240092627e+02
8.120000000000000284e+01 3.905065209468232297e+02
8.160000000000000853e+01 3.895615619873843798e+02
8.200000000000000000e+01 3.886237040008954864e+02
8.240000000000000568e+01 3.876928572708666820e+02
8.279999999999999716e+01 3.867689336717976403e+02
8.320000000000000284e+01 3.858518466329022658e+02
8.360000000000000853e+01 3.849415111028442311e+02
8.400000000000000000e+01 3.840378435154481735e+02
8.440000000000000568e+01 3.831407617563551185e+02
8.479999999999999716e+01 3.822501851305925697e+02
8.520000000000000284e+01 3.813660343310277767e+02
8.560000000000000853e+01 3.804882314076775174e+02
8.600000000000000000e+01 3.796166997378462611e+02
8.640000000000000568e+01 3.787513639970658232e+02
8.680000000000001137e+01 3.778921501308126381e+02
8.720000000000000284e+01 3.770389853269763307e+02
8.760000000000000853e+01 3.761917979890571360e+02
8.800000000000000000e+01 3.753505177100693118e+02
8.840000000000000568e+01 3.745150752471285500e+02
8.880000000000001137e+01 3.736854024967019541e+02
8.920000000000000284e+01 3.728614324705000627e+02
8.960000000000000853e+01 3.720430992719925030e+02
9.000000000000000000e+01 3.712303380735266956e+02
9.040000000000000568e+01 3.704230850940319328e+02
9.080000000000001137e+01 3.696212775772916643e+02
9.120000000000000284e+01 3.688248537707669357e+02
9.160000000000000853e+01 3.680337529049519389e+02
9.200000000000000000e+01 3.672479151732513856e+02
9.240000000000000568e+01 3.664672817123571917e+02
9.280000000000001137e+01 3.656917945831162342e+02
9.320000000000000284e+01 3.649213967518704180e+02
9.360000000000000853e+01 3.641560320722569486e+02
9.400000000000000000e+01 3.633956452674558477e+02
9.440000000000000568e+01 3.626401819128703323e+02
9.480000000000001137e+01 3.618895884192288577e+02
9.520000000000000284e+01 3.611438120160964331e+02
9.560000000000000853e+01 3.604028007357828756e+02
9.600000000000000000e+01 3.596665033976375980e+02
9.640000000000000568e+01 3.589348695927191670e+02
9.680000000000001137e+01 3.582078496688302494e+02
9.720000000000000284e+01 3.574853947159057270e+02
9.760000000000000853e+01 3.567674565517467613e+02
9.800000000000000000e+01 3.560539877080885844e+02
9.840000000000000568e+01 3.553449414169942884e+02
9.880000000000001137e+01 3.546402715975656292e+02
9.920000000000000284e+01 3.539399328429610705e+02
9.960000000000000853e+01 3.532438804077144709e+02
1.000000000000000000e+02 3.525520701953435037e+02
1.004000000000000057e+02 3.518644587462432014e+02
1.008000000000000114e+02 3.511810032258545107e+02
1.012000000000000028e+02 3.505016614131011465e+02
1.016000000000000085e+02 3.498263916890880409e+02
1.020000000000000000e+02 3.491551530260542222e+02
1.024000000000000057e+02 3.484879049765721675e+02
1.028000000000000114e+02 3.478246076629894787e+02
1.032000000000000028e+02 3.471652217671047538e+02
1.036000000000000085e+02 3.465097085200707738e+02
1.040000000000000000e+02 3.458580296925224502e+02
1.044000000000000057e+02 3.452101475849190138e+02
1.048000000000000114e+02 3.445660250180993671e+02
1.052000000000000028e+02 3.439256253240420165e+02
1.056000000000000085e+02 3.432889123368252626e+02
1.060000000000000000e+02 3.426558503837835588e+02
1.064000000000000057e+02 3.420264042768528725e+02
1.068000000000000114e+02 3.414005393041030061e+02
1.072000000000000028e+02 3.407782212214491437e+02
1.076000000000000085e+02 3.401594162445405800e+02
1.080000000000000000e+02 3.395440910408210584e+02
1.084000000000000057e+02 3.389322127217562866e+02
1.088000000000000114e+02 3.383237488352249329e+02
1.092000000000000028e+02 3.377186673580692968e+02
1.096000000000000085e+02 3.371169366888000809e+02
1.100000000000000000e+02 3.365185256404546408e+02
1.104000000000000057e+02 3.359234034336011518e+02
1.108000000000000114e+02 3.353315396894878404e+02
1.112000000000000028e+02 3.347429044233326181e+02
1.116000000000000085e+02 3.341574680377507320e+02
1.120000000000000000e+02 3.335752013163152583e+02
1.124000000000000057e+02 3.329960754172486759e+02
1.128000000000000114e+02 3.324200618672428504e+02
1.132000000000000028e+02 3.318471325554024247e+02
1.136000000000000085e+02 3.312772597273101951e+02
1.140000000000000000e+02 3.307104159792118026e+02
1.144000000000000057e+02 3.301465742523154177e+02
1.148000000000000114e+02 3.295857078272051695e+02
1.152000000000000028e+02 3.290277903183647936e+02
1.156000000000000085e+02 3.284727956688095674e+02
1.160000000000000000e+02 3.279206981448232909e+02
1.164000000000000057e+02 3.273714723307986674e+02
1.168000000000000114e+02 3.268250931241780108e+02
1.172000000000000028e+02 3.262815357304921804e+02
1.176000000000000085e+02 3.257407756584955791e+02
1.180000000000000000e+02 3.252027887153956272e+02
1.184000000000000057e+02 3.246675510021729565e+02
1.188000000000000114e+02 3.241350389089919872e+02
1.192000000000000028e+02 3.236052291106983034e+02
1.196000000000000085e+02 3.230780985624030563e+02
1.200000000000000000e+02 3.225536244951493927e+02
1.204000000000000057e+02 3.220317844116618176e+02
1.208000000000000114e+02 3.215125560821753652e+02
1.212000000000000028e+02 3.209959175403427025e+02
1.216000000000000085e+02 3.204818470792181415e+02
1.220000000000000000e+02 3.199703232473158323e+02
1.224000000000000057e+02 3.194613248447419664e+02
1.228000000000000114e+02 3.189548309193982050e+02
1.232000000000000028e+02 3.184508207632542849e+02
1.236000000000000085e+02 3.179492739086906568e+02
1.240000000000000000e+02 3.174501701249066627e+02
1.244000000000000057e+02 3.169534894143953352e+02
1.248000000000000114e+02 3.164592120094815186e+02
1.252000000000000028e+02 3.159673183689232587e+02
1.256000000000000085e+02 3.154777891745744682e+02
1.260000000000000000e+02 3.149906053281074492e+02
1.264000000000000057e+02 3.145057479477947027e+02
1.268000000000000114e+02 3.140231983653477528e+02
1.272000000000000028e+02 3.135429381228129841e+02
1.276000000000000085e+02 3.130649489695219927e+02
1.280000000000000000e+02 3.125892128590965058e+02
1.284000000000000057e+02 3.121157119465055416e+02
1.288000000000000114e+02 3.116444285851752056e+02
1.291999999999999886e+02 3.111753453241487364e+02
1.296000000000000227e+02 3.107084449052954938e+02
1.300000000000000000e+02 3.102437102605702535e+02
1.304000000000000057e+02 3.097811245093184880e+02
1.308000000000000114e+02 3.093206709556293390e+02
1.311999999999999886e+02 3.088623330857338374e+02
1.316000000000000227e+02 3.084060945654479156e+02
1.320000000000000000e+02 3.079519392376594169e+02
1.324000000000000057e+02 3.074998511198580786e+02
1.328000000000000114e+02 3.070498144017072946e+02
1.331999999999999886e+02 3.066018134426578854e+02
1.336000000000000227e+02 3.061558327696011474e+02
1.340000000000000000e+02 3.057118570745628290e+02
1.344000000000000057e+02 3.052698712124347935e+02
1.348000000000000114e+02 3.048298601987455072e+02
1.351999999999999886e+02 3.043918092074673041e+02
1.356000000000000227e+02 3.039557035688608266e+02
1.360000000000000000e+02 3.035215287673546527e+02
1.364000000000000057e+02 3.030892704394603925e+02
1.368000000000000114e+02 3.026589143717222896e+02
1.371999999999999886e+02 3.022304464987007577e+02
1.376000000000000227e+02 3.018038529009882041e+02
1.380000000000000000e+02 3.013791198032586180e+02
1.384000000000000057e+02 3.009562335723478554e+02
1.388000000000000114e+02 3.005351807153659252e+02
1.392000000000000171e+02 3.001159478778395169e+02
1.395999999999999943e+02 2.996985218418846557e+02
1.400000000000000000e+02 2.992828895244091427e+02
1.404000000000000057e+02 2.988690379753433035e+02
1.408000000000000114e+02 2.984569543758997270e+02
1.412000000000000171e+02 2.980466260368603457e+02
1.415999999999999943e+02 2.976380403968914266e+02
1.420000000000000000e+02 2.972311850208843680e+02
1.424000000000000057e+02 2.968260475983237257e+02
1.428000000000000114e+02 2.964226159416811015e+02
1.432000000000000171e+02 2.960208779848329641e+02
1.435999999999999943e+02 2.956208217815051853e+02
1.440000000000000000e+02 2.952224355037404848e+02
1.444000000000000057e+02 2.948257074403908291e+02
1.448000000000000114e+02 2.944306259956324539e+02
1.452000000000000171e+02 2.940371796875046471e+02
1.455999999999999943e+02 2.936453571464707579e+02
1.460000000000000000e+02 2.932551471140016019e+02
1.464000000000000057e+02 2.928665384411805803e+02
1.468000000000000114e+02 2.924795200873303429e+02
1.472000000000000171e+02 2.920940811186603696e+02
1.475999999999999943e+02 2.917102107069352996e+02
1.480000000000000000e+02 2.913278981281632696e+02
1.484000000000000057e+02 2.909471327613046014e+02
1.488000000000000114e+02 2.905679040869999312e+02
1.492000000000000171e+02 2.901902016863169251e+02
1.495999999999999943e+02 2.898140152395168911e+02
1.500000000000000000e+02 2.894393345248391824e+02
