1.000000000000000000e+01 4.026357797102617155e+02
1.040000000000000036e+01 4.323254188042362216e+02
1.080000000000000071e+01 4.553015829394154252e+02
1.119999999999999929e+01 4.814173651274616077e+02
1.159999999999999964e+01 5.059162964449016044e+02
1.200000000000000000e+01 5.380718018610241415e+02
1.240000000000000036e+01 5.610598292086165202e+02
1.280000000000000071e+01 6.041797465421743709e+02
1.319999999999999929e+01 6.419634355705387634e+02
1.359999999999999964e+01 6.780021275262332665e+02
1.400000000000000000e+01 6.833148671524768361e+02
1.440000000000000036e+01 6.702020216875957885e+02
1.480000000000000071e+01 6.579719538841191024e+02
1.519999999999999929e+01 6.465229814372984265e+02
1.560000000000000142e+01 6.357697310667524562e+02
1.600000000000000000e+01 6.256398366145375576e+02
1.639999999999999858e+01 6.160714339176872727e+02
1.680000000000000071e+01 6.070112317067583945e+02
1.719999999999999929e+01 5.984130061925668542e+02
1.760000000000000142e+01 5.902364121469219072e+02
1.800000000000000000e+01 5.824460337202091296e+02
1.839999999999999858e+01 5.750106191603215393e+02
1.880000000000000071e+01 5.679024582316553733e+02
1.920000000000000284e+01 5.610968715328136796e+02
1.960000000000000142e+01 5.545717884101578647e+02
2.000000000000000000e+01 5.483073956430763474e+02
2.039999999999999858e+01 5.422858431289498640e+02
2.080000000000000071e+01 5.364909958267276124e+02
2.120000000000000284e+01 5.309082235088872039e+02
2.160000000000000142e+01 5.255242216199094401e+02
2.200000000000000000e+01 5.203268578858094315e+02
2.239999999999999858e+01 5.153050403649115196e+02
2.280000000000000071e+01 5.104486034485542518e+02
2.320000000000000284e+01 5.057482089658506084e+02
2.360000000000000142e+01 5.011952600591613418e+02
2.400000000000000000e+01 4.967818259065956568e+02
2.439999999999999858e+01 4.925005756973202438e+02
2.480000000000000071e+01 4.883447205319687328e+02
2.520000000000000284e+01 4.843079621372431802e+02
2.560000000000000142e+01 4.803844474610608017e+02
2.600000000000000000e+01 4.765687283602806019e+02
2.640000000000000213e+01 4.728557257133172698e+02
2.680000000000000071e+01 4.692406973897078615e+02
2.719999999999999929e+01 4.657192095917915822e+02
2.760000000000000142e+01 4.622871111531485440e+02
2.800000000000000000e+01 4.589405104368050843e+02
2.840000000000000213e+01 4.556757545253788066e+02
2.880000000000000071e+01 4.524894104369338947e+02
2.920000000000000284e+01 4.493782481356162180e+02
2.960000000000000142e+01 4.463392251361946137e+02
3.000000000000000000e+01 4.433694725273080621e+02
3.040000000000000213e+01 4.404662822602158485e+02
3.080000000000000071e+01 4.376270955687500646e+02
3.120000000000000284e+01 4.348494924024559509e+02
3.160000000000000142e+01 4.321311817689760346e+02
3.200000000000000000e+01 4.294699928939271558e+02
3.240000000000000568e+01 4.268638671171034957e+02
3.279999999999999716e+01 4.243108504530570144e+02
3.320000000000000284e+01 4.218090867521422638e+02
3.360000000000000142e+01 4.193568114051553266e+02
3.400000000000000000e+01 4.169523455408502173e+02
3.440000000000000568e+01 4.145940906710369518e+02
3.479999999999999716e+01 4.122805237427263023e+02
3.520000000000000284e+01 4.100101925609917544e+02
3.560000000000000142e+01 4.077817115499276497e+02
3.600000000000000000e+01 4.055937578223713444e+02
3.640000000000000568e+01 4.034450675319729953e+02
3.679999999999999716e+01 4.013344324837802333e+02
3.720000000000000284e+01 3.992606969818149310e+02
3.760000000000000142e+01 3.972227548941677355e+02
3.800000000000000000e+01 3.952195469179728207e+02
3.840000000000000568e+01 3.932500580282615488e+02
3.879999999999999716e+01 3.913133150961629667e+02
3.920000000000000284e+01 3.894083846632360633e+02
3.960000000000000142e+01 3.875343708598996386e+02
4.000000000000000000e+01 3.856904134569884945e+02
4.040000000000000568e+01 3.838756860404261033e+02
4.079999999999999716e+01 3.820893942998604302e+02
4.120000000000000284e+01 3.803307744228962974e+02
4.160000000000000142e+01 3.785990915872603750e+02
4.200000000000000000e+01 3.768936385438682919e+02
4.239999999999999858e+01 3.752137342843501528e+02
4.280000000000000426e+01 3.735587227871090477e+02
4.320000000000000284e+01 3.719279718364649057e+02
4.360000000000000142e+01 3.703208719098724373e+02
4.400000000000000000e+01 3.687368351285928725e+02
4.439999999999999858e+01 3.671752942675610143e+02
4.480000000000000426e+01 3.656357018205162035e+02
4.520000000000000284e+01 3.641175291167673436e+02
4.560000000000000142e+01 3.626202654862322561e+02
4.600000000000000000e+01 3.611434174696458967e+02
4.639999999999999858e+01 3.596865080710605298e+02
4.680000000000000426e+01 3.582490760499704834e+02
4.720000000000000284e+01 3.568306752505869213e+02
4.760000000000000142e+01 3.554308739659683170e+02
4.800000000000000000e+01 3.540492543348707386e+02
4.840000000000000568e+01 3.526854117693371791e+02
4.880000000000000426e+01 3.513389544111787473e+02
4.920000000000000284e+01 3.500095026156297422e+02
4.960000000000000142e+01 3.486966884605765813e+02
5.000000000000000000e+01 3.474001552798692387e+02
5.040000000000000568e+01 3.461195572193196313e+02
5.080000000000000426e+01 3.448545588140904101e+02
5.120000000000000284e+01 3.436048345862582210e+02
5.160000000000000142e+01 3.423700686614170081e+02
5.200000000000000000e+01 3.411499544032590165e+02
5.240000000000000568e+01 3.399441940651404934e+02
5.280000000000000426e+01 3.387524984577014493e+02
5.320000000000000284e+01 3.375745866316671027e+02
5.360000000000000142e+01 3.364101855750143955e+02
5.400000000000000000e+01 3.352590299237355680e+02
5.440000000000000568e+01 3.341208616854802358e+02
5.480000000000000426e+01 3.329954299753984515e+02
5.520000000000000284e+01 3.318824907635512318e+02
5.560000000000000142e+01 3.307818066332894773e+02
5.600000000000000000e+01 3.296931465500416607e+02
5.640000000000000568e+01 3.286162856399797079e+02
5.680000000000000426e+01 3.275510049780657482e+02
5.720000000000000284e+01 3.264970913850127658e+02
5.760000000000000142e+01 3.254543372327133284e+02
5.800000000000000000e+01 3.244225402577231989e+02
5.840000000000000568e+01 3.234015033824049397e+02
5.880000000000000426e+01 3.223910345433608882e+02
5.920000000000000284e+01 3.213909465268040435e+02
5.960000000000000142e+01 3.204010568105378525e+02
6.000000000000000000e+01 3.194211874122296990e+02
6.040000000000000568e+01 3.184511647436844441e+02
6.080000000000000426e+01 3.174908194708360725e+02
6.120000000000000284e+01 3.165399863791945450e+02
6.160000000000000142e+01 3.155985042444956434e+02
6.200000000000000000e+01 3.146662157083169973e+02
6.240000000000000568e+01 3.137429671584357038e+02
6.280000000000000426e+01 3.128286086137135840e+02
6.320000000000000284e+01 3.119229936133078240e+02
6.360000000000000142e+01 3.110259791100158395e+02
6.400000000000000000e+01 3.101374253675721206e+02
6.440000000000000568e+01 3.092571958617233463e+02
6.480000000000001137e+01 3.083851571849193078e+02
6.520000000000000284e+01 3.075211789544616749e+02
6.559999999999999432e+01 3.066651337239649138e+02
6.600000000000000000e+01 3.058168968979858278e+02
6.640000000000000568e+01 3.049763466496900719e+02
6.680000000000001137e+01 3.041433638414265488e+02
6.720000000000000284e+01 3.033178319480892355e+02
6.759999999999999432e+01 3.024996369831507081e+02
6.800000000000000000e+01 3.016886674272575988e+02
6.840000000000000568e+01 3.008848141592831666e+02
6.880000000000001137e+01 3.000879703897363697e+02
6.920000000000000284e+01 2.992980315964341003e+02
6.959999999999999432e+01 2.985148954623439295e+02
7.000000000000000000e+01 2.977384618155119256e+02
7.040000000000000568e+01 2.969686325709926109e+02
7.080000000000001137e+01 2.962053116747026706e+02
7.120000000000000284e+01 2.954484050491226981e+02
7.159999999999999432e+01 2.946978205407745008e+02
7.200000000000000000e+01 2.939534678694076888e+02
7.240000000000000568e+01 2.932152585788271040e+02
7.280000000000001137e+01 2.924831059893003271e+02
7.320000000000000284e+01 2.917569251514847224e+02
7.359999999999999432e+01 2.910366328018163813e+02
7.400000000000000000e+01 2.903221473193066799e+02
7.440000000000000568e+01 2.896133886836946090e+02
7.479999999999999716e+01 2.889102784349024660e+02
7.520000000000000284e+01 2.882127396337493792e+02
7.560000000000000853e+01 2.875206968238751983e+02
7.600000000000000000e+01 2.868340759948312666e+02
7.640000000000000568e+01 2.861528045462951013e+02
7.679999999999999716e+01 2.854768112533698172e+02
7.720000000000000284e+01 2.848060262329279908e+02
7.760000000000000853e+01 2.841403809109639269e+02
7.800000000000000000e+01 2.834798079909186868e+02
7.840000000000000568e+01 2.828242414229417250e+02
7.879999999999999716e+01 2.821736163740597476e+02
7.920000000000000284e+01 2.815278691992180597e+02
7.960000000000000853e+01 2.808869374131658674e+02
8.000000000000000000e+01 2.802507596631560318e+02
8.040000000000000568e+01 2.796192757024318780e+02
8.079999999999999716e+01 2.789924263644729194e+02
8.120000000000000284e+01 2.783701535379759662e+02
8.160000000000000853e+01 2.777524001425443885e+02
8.200000000000000000e+01 2.771391101050642192e+02
8.240000000000000568e+01 2.765302283367417999e+02
8.279999999999999716e+01 2.759257007107831896e+02
8.320000000000000284e+01 2.753254740406930523e+02
8.360000000000000853e+01 2.747294960591725044e+02
8.400000000000000000e+01 2.741377153975974466e+02
8.440000000000000568e+01 2.735500815660566332e+02
8.479999999999999716e+01 2.729665449339345287e+02
8.520000000000000284e+01 2.723870567110173511e+02
8.560000000000000853e+01 2.718115689291097397e+02
8.600000000000000000e+01 2.712400344241419816e+02
8.640000000000000568e+01 2.706724068187557464e+02
8.680000000000001137e+01 2.701086405053503086e+02
8.720000000000000284e+01 2.695486906295772087e+02
8.760000000000000853e+01 2.689925130742671513e+02
8.800000000000000000e+01 2.684400644437779988e+02
8.840000000000000568e+01 2.678913020487487415e+02
8.880000000000001137e+01 2.673461838912485860e+02
8.920000000000000284e+01 2.668046686503083720e+02
8.960000000000000853e+01 2.662667156678221545e+02
9.000000000000000000e+01 2.657322849348092291e+02
9.040000000000000568e+01 2.652013370780240393e+02
9.080000000000001137e+01 2.646738333469049280e+02
9.120000000000000284e+01 2.641497356008505903e+02
9.160000000000000853e+01 2.636290062968150210e+02
9.200000000000000000e+01 2.631116084772116324e+02
9.240000000000000568e+01 2.625975057581169949e+02
9.280000000000001137e+01 2.620866623177656152e+02
9.320000000000000284e+01 2.615790428853276808e+02
9.360000000000000853e+01 2.610746127299605632e+02
9.400000000000000000e+01 2.605733376501277121e+02
9.440000000000000568e+01 2.600751839631749363e+02
9.480000000000001137e+01 2.595801184951597520e+02
9.520000000000000284e+01 2.590881085709232821e+02
9.560000000000000853e+01 2.585991220044007832e+02
9.600000000000000000e+01 2.581131270891618783e+02
9.640000000000000568e+01 2.576300925891752058e+02
9.680000000000001137e+01 2.571499877297909507e+02
9.720000000000000284e+01 2.566727821889346615e+02
9.760000000000000853e+01 2.561984460885076373e+02
9.800000000000000000e+01 2.557269499859869200e+02
9.840000000000000568e+01 2.552582648662199745e+02
9.880000000000001137e+01 2.547923621334090285e+02
9.920000000000000284e+01 2.543292136032794986e+02
9.960000000000000853e+01 2.538687914954268763e+02
1.000000000000000000e+02 2.534110684258391757e+02
1.004000000000000057e+02 2.529560173995878358e+02
1.008000000000000114e+02 2.525036118036844925e+02
1.012000000000000028e+02 2.520538254000977645e+02
1.016000000000000085e+02 2.516066323189269838e+02
1.020000000000000000e+02 2.511620070517278407e+02
1.024000000000000057e+02 2.507199244449863613e+02
1.028000000000000114e+02 2.502803596937370401e+02
1.032000000000000028e+02 2.498432883353220859e+02
1.036000000000000085e+02 2.494086862432866951e+02
1.040000000000000000e+02 2.489765296214086447e+02
1.044000000000000057e+02 2.485467949978567788e+02
1.048000000000000114e+02 2.481194592194770792e+02
1.052000000000000028e+02 2.476944994462011493e+02
1.056000000000000085e+02 2.472718931455755467e+02
1.060000000000000000e+02 2.468516180874078145e+02
1.064000000000000057e+02 2.464336523385268549e+02
1.068000000000000114e+02 2.460179742576546289e+02
1.072000000000000028e+02 2.456045624903860016e+02
1.076000000000000085e+02 2.451933959642747141e+02
1.080000000000000000e+02 2.447844538840224402e+02
1.084000000000000057e+02 2.443777157267683151e+02
1.088000000000000114e+02 2.439731612374762619e+02
1.092000000000000028e+02 2.435707704244187823e+02
1.096000000000000085e+02 2.431705235547532311e+02
1.100000000000000000e+02 2.427724011501894097e+02
1.104000000000000057e+02 2.423763839827463471e+02
1.108000000000000114e+02 2.419824530705952839e+02
1.112000000000000028e+02 2.415905896739873526e+02
1.116000000000000085e+02 2.412007752912638523e+02
1.120000000000000000e+02 2.408129916549473535e+02
1.124000000000000057e+02 2.404272207279106510e+02
1.128000000000000114e+02 2.400434446996235067e+02
1.132000000000000028e+02 2.396616459824734875e+02
1.136000000000000085e+02 2.392818072081605010e+02
1.140000000000000000e+02 2.389039112241626697e+02
1.144000000000000057e+02 2.385279410902715540e+02
1.148000000000000114e+02 2.381538800751965823e+02
1.152000000000000028e+02 2.377817116532345096e+02
1.156000000000000085e+02 2.374114195010054971e+02
1.160000000000000000e+02 2.370429874942517188e+02
1.164000000000000057e+02 2.366763997046978716e+02
1.168000000000000114e+02 2.363116403969734449e+02
1.172000000000000028e+02 2.359486940255929710e+02
1.176000000000000085e+02 2.355875452319949090e+02
1.180000000000000000e+02 2.352281788416370318e+02
1.184000000000000057e+02 2.348705798611467799e+02
1.188000000000000114e+02 2.345147334755261568e+02
1.192000000000000028e+02 2.341606250454090912e+02
1.196000000000000085e+02 2.338082401043705545e+02
1.200000000000000000e+02 2.334575643562864684e+02
1.204000000000000057e+02 2.331085836727425544e+02
1.208000000000000114e+02 2.327612840904918698e+02
1.212000000000000028e+02 2.324156518089593533e+02
1.216000000000000085e+02 2.320716731877926122e+02
1.220000000000000000e+02 2.317293347444580718e+02
1.224000000000000057e+02 2.313886231518807506e+02
1.228000000000000114e+02 2.310495252361283463e+02
1.232000000000000028e+02 2.307120279741364470e+02
1.236000000000000085e+02 2.303761184914758360e+02
1.240000000000000000e+02 2.300417840601601540e+02
1.244000000000000057e+02 2.297090120964928985e+02
1.248000000000000114e+02 2.293777901589538999e+02
1.252000000000000028e+02 2.290481059461228313e+02
1.256000000000000085e+02 2.287199472946406331e+02
1.260000000000000000e+02 2.283933021772067775e+02
1.264000000000000057e+02 2.280681587006126279e+02
1.268000000000000114e+02 2.277445051038089616e+02
1.272000000000000028e+02 2.274223297560084234e+02
1.276000000000000085e+02 2.271016211548206911e+02
1.280000000000000000e+02 2.267823679244207256e+02
1.284000000000000057e+02 2.264645588137487948e+02
1.288000000000000114e+02 2.261481826947422746e+02
1.291999999999999886e+02 2.258332285605977745e+02
1.296000000000000227e+02 2.255196855240631635e+02
1.300000000000000000e+02 2.252075428157600925e+02
1.304000000000000057e+02 2.248967897825339719e+02
1.308000000000000114e+02 2.245874158858332521e+02
1.311999999999999886e+02 2.242794107001161592e+02
1.316000000000000227e+02 2.239727639112842894e+02
1.320000000000000000e+02 2.236674653151432324e+02
1.324000000000000057e+02 2.233635048158889731e+02
1.328000000000000114e+02 2.230608724246197880e+02
1.331999999999999886e+02 2.227595582578735502e+02
1.336000000000000227e+02 2.224595525361890793e+02
1.340000000000000000e+02 2.221608455826920192e+02
1.344000000000000057e+02 2.218634278217038229e+02
1.348000000000000114e+02 2.215672897773742704e+02
1.351999999999999886e+02 2.212724220723362976e+02
1.356000000000000227e+02 2.209788154263831927e+02
1.360000000000000000e+02 2.206864606551675934e+02
1.364000000000000057e+02 2.203953486689219687e+02
1.368000000000000114e+02 2.201054704711993679e+02
1.371999999999999886e+02 2.198168171576358247e+02
1.376000000000000227e+02 2.195293799147316633e+02
1.380000000000000000e+02 2.192431500186538074e+02
1.384000000000000057e+02 2.189581188340561653e+02
1.388000000000000114e+02 2.186742778129200246e+02
1.392000000000000171e+02 2.183916184934126932e+02
1.395999999999999943e+02 2.181101324987643295e+02
1.400000000000000000e+02 2.178298115361628788e+02
1.404000000000000057e+02 2.175506473956664877e+02
1.408000000000000114e+02 2.172726319491333697e+02
1.412000000000000171e+02 2.169957571491684121e+02
1.415999999999999943e+02 2.167200150280864932e+02
1.420000000000000000e+02 2.164453976968920585e+02
1.424000000000000057e+02 2.161718973442746119e+02
1.428000000000000114e+02 2.158995062356205210e+02
1.432000000000000171e+02 2.156282167120391762e+02
1.435999999999999943e+02 2.153580211894053491e+02
1.440000000000000000e+02 2.150889121574156775e+02
1.444000000000000057e+02 2.148208821786600993e+02
1.448000000000000114e+02 2.145539238877074695e+02
1.452000000000000171e+02 2.142880299902053594e+02
1.455999999999999943e+02 2.140231932619934128e+02
1.460000000000000000e+02 2.137594065482305723e+02
1.464000000000000057e+02 2.134966627625352658e+02
1.468000000000000114e+02 2.132349548861390929e+02
1.472000000000000171e+02 2.129742759670527903e+02
1.475999999999999943e+02 2.127146191192453557e+02
1.480000000000000000e+02 2.124559775218351092e+02
1.484000000000000057e+02 2.121983444182931180e+02
1.488000000000000114e+02 2.119417131156587004e+02
1.492000000000000171e+02 2.116860769837661849e+02
1.495999999999999943e+02 2.114314294544838049e+02
1.500000000000000000e+02 2.111777640209632807e+02
