1.000000000000000000e+01 1.832777613421872047e+02
1.040000000000000036e+01 1.941024649060563263e+02
1.080000000000000071e+01 2.045611582199337022e+02
1.119999999999999929e+01 2.162909629271233030e+02
1.159999999999999964e+01 2.262139265611749579e+02
1.200000000000000000e+01 2.494351808115842175e+02
1.240000000000000036e+01 2.674672142559786607e+02
1.280000000000000071e+01 2.746497125959244840e+02
1.319999999999999929e+01 2.847624548731238292e+02
1.359999999999999964e+01 2.974984978329546834e+02
1.400000000000000000e+01 2.921998371628781115e+02
1.440000000000000036e+01 2.872565722807371458e+02
1.480000000000000071e+01 2.826271371397299959e+02
1.519999999999999929e+01 2.782767665465113396e+02
1.560000000000000142e+01 2.741760916407981767e+02
1.600000000000000000e+01 2.703000805967841416e+02
1.639999999999999858e+01 2.666272272898254982e+02
1.680000000000000071e+01 2.631389212719117268e+02
1.719999999999999929e+01 2.598189524473941105e+02
1.760000000000000142e+01 2.566531172683323234e+02
1.800000000000000000e+01 2.536289024426752121e+02
1.839999999999999858e+01 2.507352285292024874e+02
1.880000000000000071e+01 2.479622403037983247e+02
1.920000000000000284e+01 2.453011340178933324e+02
1.960000000000000142e+01 2.427440140235450770e+02
2.000000000000000000e+01 2.402837729728525176e+02
2.039999999999999858e+01 2.379139910905232114e+02
2.080000000000000071e+01 2.356288509905113813e+02
2.120000000000000284e+01 2.334230652468260985e+02
2.160000000000000142e+01 2.312918144958823632e+02
2.200000000000000000e+01 2.292306942868768260e+02
2.239999999999999858e+01 2.272356692393127560e+02
2.280000000000000071e+01 2.253030333362013380e+02
2.320000000000000284e+01 2.234293753947848700e+02
2.360000000000000142e+01 2.216115489266725262e+02
2.400000000000000000e+01 2.198466457356899468e+02
2.439999999999999858e+01 2.181319727118182357e+02
2.480000000000000071e+01 2.164650313689306245e+02
2.520000000000000284e+01 2.148434997469185532e+02
2.560000000000000142e+01 2.132652163585665335e+02
2.600000000000000000e+01 2.117281659107812573e+02
2.640000000000000213e+01 2.102304665705481455e+02
2.680000000000000071e+01 2.087703585798808490e+02
2.719999999999999929e+01 2.073461940523279736e+02
2.760000000000000142e+01 2.059564278073184482e+02
2.800000000000000000e+01 2.045996091185876935e+02
2.840000000000000213e+01 2.032743742697786047e+02
2.880000000000000071e+01 2.019794398245968523e+02
2.920000000000000284e+01 2.007135965310431232e+02
2.960000000000000142e+01 1.994757037896066834e+02
3.000000000000000000e+01 1.982646846241686660e+02
3.040000000000000213e+01 1.970795211019715794e+02
3.080000000000000071e+01 1.959192501555596380e+02
3.120000000000000284e+01 1.947829597652462894e+02
3.160000000000000142e+01 1.936697854655537299e+02
3.200000000000000000e+01 1.925789071433148365e+02
3.240000000000000568e+01 1.915095460988136153e+02
3.279999999999999716e+01 1.904609623445613238e+02
3.320000000000000284e+01 1.894324521191104793e+02
3.360000000000000142e+01 1.884233455957764534e+02
3.400000000000000000e+01 1.874330047682901750e+02
3.440000000000000568e+01 1.864608214973098939e+02
3.479999999999999716e+01 1.855062157033901826e+02
3.520000000000000284e+01 1.845686336934869587e+02
3.560000000000000142e+01 1.836475466093830278e+02
3.600000000000000000e+01 1.827424489875772906e+02
3.640000000000000568e+01 1.818528574212104729e+02
3.679999999999999716e+01 1.809783093155137976e+02
3.720000000000000284e+01 1.801183617290824941e+02
3.760000000000000142e+01 1.792725902940028959e+02
3.800000000000000000e+01 1.784405882085121107e+02
3.840000000000000568e+01 1.776219652964499858e+02
3.879999999999999716e+01 1.768163471282860826e+02
3.920000000000000284e+01 1.760233741989701173e+02
3.960000000000000142e+01 1.752427011582773559e+02
4.000000000000000000e+01 1.744739960896978346e+02
4.040000000000000568e+01 1.737169398342604438e+02
4.079999999999999716e+01 1.729712253559902990e+02
4.120000000000000284e+01 1.722365571459778835e+02
4.160000000000000142e+01 1.715126506622886779e+02
4.200000000000000000e+01 1.707992318031715797e+02
4.239999999999999858e+01 1.700960364112317507e+02
4.280000000000000426e+01 1.694028098064204926e+02
4.320000000000000284e+01 1.687193063458670395e+02
4.360000000000000142e+01 1.680452890087317712e+02
4.400000000000000000e+01 1.673805290044035416e+02
4.439999999999999858e+01 1.667248054024914552e+02
4.480000000000000426e+01 1.660779047831809976e+02
4.520000000000000284e+01 1.654396209066322001e+02
4.560000000000000142e+01 1.648097544001950894e+02
4.600000000000000000e+01 1.641881124623099026e+02
4.639999999999999858e+01 1.635745085820410623e+02
4.680000000000000426e+01 1.629687622732709258e+02
4.720000000000000284e+01 1.623706988226483077e+02
4.760000000000000142e+01 1.617801490504516835e+02
4.800000000000000000e+01 1.611969490835858778e+02
4.840000000000000568e+01 1.606209401399850947e+02
4.880000000000000426e+01 1.600519683237458537e+02
4.920000000000000284e+01 1.594898844303586998e+02
4.960000000000000142e+01 1.589345437614513230e+02
5.000000000000000000e+01 1.583858059484941805e+02
5.040000000000000568e+01 1.578435347849567734e+02
5.080000000000000426e+01 1.573075980664355313e+02
5.120000000000000284e+01 1.567778674383069699e+02
5.160000000000000142e+01 1.562542182504867299e+02
5.200000000000000000e+01 1.557365294189037286e+02
5.240000000000000568e+01 1.552246832933221867e+02
5.280000000000000426e+01 1.547185655311677976e+02
5.320000000000000284e+01 1.542180649770361640e+02
5.360000000000000142e+01 1.537230735475808387e+02
5.400000000000000000e+01 1.532334861214970658e+02
5.440000000000000568e+01 1.527492004343349663e+02
5.480000000000000426e+01 1.522701169778912913e+02
5.520000000000000284e+01 1.517961389039447226e+02
5.560000000000000142e+01 1.513271719321121509e+02
5.600000000000000000e+01 1.508631242616184522e+02
5.640000000000000568e+01 1.504039064867829154e+02
5.680000000000000426e+01 1.499494315160366398e+02
5.720000000000000284e+01 1.494996144942978162e+02
5.760000000000000142e+01 1.490543727285387376e+02
5.800000000000000000e+01 1.486136256163910616e+02
5.840000000000000568e+01 1.481772945776408790e+02
5.880000000000000426e+01 1.477453029884772491e+02
5.920000000000000284e+01 1.473175761183615293e+02
5.960000000000000142e+01 1.468940410693955414e+02
6.000000000000000000e+01 1.464746267180699988e+02
6.040000000000000568e+01 1.460592636592845963e+02
6.080000000000000426e+01 1.456478841525333507e+02
6.120000000000000284e+01 1.452404220701569102e+02
6.160000000000000142e+01 1.448368128475681260e+02
6.200000000000000000e+01 1.444369934353610176e+02
6.240000000000000568e+01 1.440409022532203949e+02
6.280000000000000426e+01 1.436484791455500272e+02
6.320000000000000284e+01 1.432596653387456058e+02
6.360000000000000142e+01 1.428744034000386591e+02
6.400000000000000000e+01 1.424926371978445729e+02
6.440000000000000568e+01 1.421143118635483802e+02
6.480000000000001137e+01 1.417393737546678381e+02
6.520000000000000284e+01 1.413677704193339935e+02
6.559999999999999432e+01 1.409994505620342693e+02
6.600000000000000000e+01 1.406343640105648376e+02
6.640000000000000568e+01 1.402724616841414900e+02
6.680000000000001137e+01 1.399136955626210579e+02
6.720000000000000284e+01 1.395580186567879082e+02
6.759999999999999432e+01 1.392053849796614315e+02
6.800000000000000000e+01 1.388557495187837105e+02
6.840000000000000568e+01 1.385090682094468377e+02
6.880000000000001137e+01 1.381652979088229927e+02
6.920000000000000284e+01 1.378243963709607840e+02
6.959999999999999432e+01 1.374863222226137225e+02
7.000000000000000000e+01 1.371510349398680546e+02
7.040000000000000568e+01 1.368184948255385791e+02
7.080000000000001137e+01 1.364886629873027175e+02
7.120000000000000284e+01 1.361615013165441326e+02
7.159999999999999432e+01 1.358369724678786952e+02
7.200000000000000000e+01 1.355150398393371063e+02
7.240000000000000568e+01 1.351956675531785095e+02
7.280000000000001137e+01 1.348788204373121289e+02
7.320000000000000284e+01 1.345644640073035703e+02
7.359999999999999432e+01 1.342525644489441561e+02
7.400000000000000000e+01 1.339430886013626036e+02
7.440000000000000568e+01 1.336360039406587248e+02
7.479999999999999716e+01 1.333312785640407583e+02
7.520000000000000284e+01 1.330288811744468092e+02
7.560000000000000853e+01 1.327287810656340810e+02
7.600000000000000000e+01 1.324309481077185922e+02
7.640000000000000568e+01 1.321353527331488351e+02
7.679999999999999716e+01 1.318419659230989396e+02
7.720000000000000284e+01 1.315507591942654813e+02
7.760000000000000853e+01 1.312617045860542646e+02
7.800000000000000000e+01 1.309747746481438355e+02
7.840000000000000568e+01 1.306899424284113707e+02
7.879999999999999716e+01 1.304071814612100866e+02
7.920000000000000284e+01 1.301264657559843840e+02
7.960000000000000853e+01 1.298477697862128366e+02
8.000000000000000000e+01 1.295710684786663478e+02
8.040000000000000568e+01 1.292963372029719551e+02
8.079999999999999716e+01 1.290235517614712535e+02
8.120000000000000284e+01 1.287526883793641730e+02
8.160000000000000853e+01 1.284837236951283614e+02
8.200000000000000000e+01 1.282166347512044808e+02
8.240000000000000568e+01 1.279513989849398570e+02
8.279999999999999716e+01 1.276879942197810465e+02
8.320000000000000284e+01 1.274263986567074056e+02
8.360000000000000853e+01 1.271665908658983994e+02
8.400000000000000000e+01 1.269085497786261811e+02
8.440000000000000568e+01 1.266522546793669051e+02
8.479999999999999716e+01 1.263976851981238667e+02
8.520000000000000284e+01 1.261448213029549663e+02
8.560000000000000853e+01 1.258936432926990960e+02
8.600000000000000000e+01 1.256441317898940753e+02
8.640000000000000568e+01 1.253962677338813450e+02
8.680000000000001137e+01 1.251500323740904292e+02
8.720000000000000284e+01 1.249054072634985033e+02
8.760000000000000853e+01 1.246623742522590987e+02
8.800000000000000000e+01 1.244209154814952427e+02
8.840000000000000568e+01 1.241810133772514320e+02
8.880000000000001137e+01 1.239426506446001497e+02
8.920000000000000284e+01 1.237058102618980229e+02
8.960000000000000853e+01 1.234704754751870155e+02
9.000000000000000000e+01 1.232366297927366929e+02
9.040000000000000568e+01 1.230042569797226975e+02
9.080000000000001137e+01 1.227733410530383082e+02
9.120000000000000284e+01 1.225438662762341124e+02
9.160000000000000853e+01 1.223158171545830726e+02
9.200000000000000000e+01 1.220891784302664718e+02
9.240000000000000568e+01 1.218639350776776666e+02
9.280000000000001137e+01 1.216400722988401952e+02
9.320000000000000284e+01 1.214175755189368431e+02
9.360000000000000853e+01 1.211964303819464135e+02
9.400000000000000000e+01 1.209766227463855444e+02
9.440000000000000568e+01 1.207581386811517632e+02
9.480000000000001137e+01 1.205409644614661033e+02
9.520000000000000284e+01 1.203250865649111461e+02
9.560000000000000853e+01 1.201104916675629255e+02
9.600000000000000000e+01 1.198971666402133565e+02
9.640000000000000568e+01 1.196850985446810114e+02
9.680000000000001137e+01 1.194742746302078586e+02
9.720000000000000284e+01 1.192646823299392196e+02
9.760000000000000853e+01 1.190563092574849975e+02
9.800000000000000000e+01 1.188491432035599473e+02
9.840000000000000568e+01 1.186431721327004567e+02
9.880000000000001137e+01 1.184383841800565733e+02
9.920000000000000284e+01 1.182347676482561667e+02
9.960000000000000853e+01 1.180323110043401300e+02
1.000000000000000000e+02 1.178310028767665756e+02
1.004000000000000057e+02 1.176308320524816935e+02
1.008000000000000114e+02 1.174317874740562928e+02
1.012000000000000028e+02 1.172338582368854532e+02
1.016000000000000085e+02 1.170370335864503772e+02
1.020000000000000000e+02 1.168413029156403553e+02
1.024000000000000057e+02 1.166466557621333351e+02
1.028000000000000114e+02 1.164530818058337900e+02
1.032000000000000028e+02 1.162605708663661090e+02
1.036000000000000085e+02 1.160691129006224003e+02
1.040000000000000000e+02 1.158786980003629452e+02
1.044000000000000057e+02 1.156893163898682815e+02
1.048000000000000114e+02 1.155009584236415776e+02
1.052000000000000028e+02 1.153136145841595521e+02
1.056000000000000085e+02 1.151272754796716100e+02
1.060000000000000000e+02 1.149419318420449656e+02
1.064000000000000057e+02 1.147575745246554391e+02
1.068000000000000114e+02 1.145741945003222497e+02
1.072000000000000028e+02 1.143917828592860246e+02
1.076000000000000085e+02 1.142103308072288002e+02
1.080000000000000000e+02 1.140298296633349224e+02
1.084000000000000057e+02 1.138502708583922214e+02
1.088000000000000114e+02 1.136716459329317388e+02
1.092000000000000028e+02 1.134939465354060673e+02
1.096000000000000085e+02 1.133171644204043815e+02
1.100000000000000000e+02 1.131412914469039350e+02
1.104000000000000057e+02 1.129663195765569128e+02
1.108000000000000114e+02 1.127922408720117744e+02
1.112000000000000028e+02 1.126190474952682337e+02
1.116000000000000085e+02 1.124467317060652647e+02
1.120000000000000000e+02 1.122752858603012243e+02
1.124000000000000057e+02 1.121047024084852097e+02
1.128000000000000114e+02 1.119349738942190555e+02
1.132000000000000028e+02 1.117660929527093998e+02
1.136000000000000085e+02 1.115980523093088408e+02
1.140000000000000000e+02 1.114308447780855573e+02
1.144000000000000057e+02 1.112644632604209392e+02
1.148000000000000114e+02 1.110989007436343314e+02
1.152000000000000028e+02 1.109341502996343962e+02
1.156000000000000085e+02 1.107702050835966361e+02
1.160000000000000000e+02 1.106070583326659857e+02
1.164000000000000057e+02 1.104447033646844432e+02
1.168000000000000114e+02 1.102831335769429444e+02
1.172000000000000028e+02 1.101223424449568427e+02
1.176000000000000085e+02 1.099623235212648353e+02
1.180000000000000000e+02 1.098030704342500172e+02
1.184000000000000057e+02 1.096445768869836570e+02
1.188000000000000114e+02 1.094868366560902473e+02
1.192000000000000028e+02 1.093298435906339421e+02
1.196000000000000085e+02 1.091735916110254436e+02
1.200000000000000000e+02 1.090180747079495518e+02
1.204000000000000057e+02 1.088632869413120829e+02
1.208000000000000114e+02 1.087092224392064139e+02
1.212000000000000028e+02 1.085558753968989407e+02
1.216000000000000085e+02 1.084032400758329402e+02
1.220000000000000000e+02 1.082513108026508917e+02
1.224000000000000057e+02 1.081000819682340222e+02
1.228000000000000114e+02 1.079495480267598850e+02
1.232000000000000028e+02 1.077997034947761250e+02
1.236000000000000085e+02 1.076505429502917508e+02
1.240000000000000000e+02 1.075020610318838976e+02
1.244000000000000057e+02 1.073542524378211453e+02
1.248000000000000114e+02 1.072071119252019287e+02
1.252000000000000028e+02 1.070606343091084938e+02
1.256000000000000085e+02 1.069148144617758192e+02
1.260000000000000000e+02 1.067696473117749605e+02
1.264000000000000057e+02 1.066251278432109473e+02
1.268000000000000114e+02 1.064812510949344926e+02
1.272000000000000028e+02 1.063380121597676862e+02
1.276000000000000085e+02 1.061954061837429037e+02
1.280000000000000000e+02 1.060534283653550176e+02
1.284000000000000057e+02 1.059120739548265249e+02
1.288000000000000114e+02 1.057713382533851529e+02
1.291999999999999886e+02 1.056312166125542831e+02
1.296000000000000227e+02 1.054917044334547995e+02
1.300000000000000000e+02 1.053527971661195153e+02
1.304000000000000057e+02 1.052144903088189096e+02
1.308000000000000114e+02 1.050767794073981634e+02
1.311999999999999886e+02 1.049396600546258611e+02
1.316000000000000227e+02 1.048031278895529113e+02
1.320000000000000000e+02 1.046671785968830903e+02
1.324000000000000057e+02 1.045318079063532366e+02
1.328000000000000114e+02 1.043970115921244854e+02
1.331999999999999886e+02 1.042627854721831397e+02
1.336000000000000227e+02 1.041291254077517010e+02
1.340000000000000000e+02 1.039960273027095639e+02
1.344000000000000057e+02 1.038634871030232318e+02
1.348000000000000114e+02 1.037315007961858413e+02
1.351999999999999886e+02 1.036000644106659223e+02
1.356000000000000227e+02 1.034691740153651125e+02
1.360000000000000000e+02 1.033388257190847099e+02
1.364000000000000057e+02 1.032090156700007384e+02
1.368000000000000114e+02 1.030797400551477381e+02
1.371999999999999886e+02 1.029509950999107275e+02
1.376000000000000227e+02 1.028227770675250952e+02
1.380000000000000000e+02 1.026950822585850887e+02
1.384000000000000057e+02 1.025679070105594519e+02
1.388000000000000114e+02 1.024412476973152764e+02
1.392000000000000171e+02 1.023151007286491989e+02
1.395999999999999943e+02 1.021894625498260893e+02
1.400000000000000000e+02 1.020643296411247718e+02
1.404000000000000057e+02 1.019396985173913492e+02
1.408000000000000114e+02 1.018155657275991217e+02
1.412000000000000171e+02 1.016919278544155247e+02
1.415999999999999943e+02 1.015687815137758463e+02
1.420000000000000000e+02 1.014461233544635377e+02
1.424000000000000057e+02 1.013239500576968908e+02
1.428000000000000114e+02 1.012022583367225934e+02
1.432000000000000171e+02 1.010810449364147132e+02
1.435999999999999943e+02 1.009603066328807301e+02
1.440000000000000000e+02 1.008400402330728980e+02
1.444000000000000057e+02 1.007202425744059582e+02
1.448000000000000114e+02 1.006009105243805095e+02
1.452000000000000171e+02 1.004820409802121617e+02
1.455999999999999943e+02 1.003636308684661458e+02
1.460000000000000000e+02 1.002456771446978223e+02
1.464000000000000057e+02 1.001281767930980493e+02
1.468000000000000114e+02 1.000111268261443200e+02
1.472000000000000171e+02 9.989452428425693142e+01
1.475999999999999943e+02 9.977836623546038197e+01
1.480000000000000000e+02 9.966264977504965827e+01
1.484000000000000057e+02 9.954737202526155215e+01
1.488000000000000114e+02 9.943253013495100845e+01
1.492000000000000171e+02 9.931812127927190659e+01
1.495999999999999943e+02 9.920414265936283016e+01
1.500000000000000000e+02 9.909059150203735555e+01
