1.000000000000000000e+01 4.000413064241073471e+02
1.040000000000000036e+01 4.446985968747170546e+02
1.080000000000000071e+01 5.014427883179049559e+02
1.119999999999999929e+01 5.718412718478107308e+02
1.159999999999999964e+01 6.164434624010031030e+02
1.200000000000000000e+01 6.490947685392945914e+02
1.240000000000000036e+01 6.721930150764932250e+02
1.280000000000000071e+01 6.838024161999505850e+02
1.319999999999999929e+01 6.979251001379038826e+02
1.359999999999999964e+01 6.996386134594761188e+02
1.400000000000000000e+01 6.904631793322175781e+02
1.440000000000000036e+01 6.775338581515767373e+02
1.480000000000000071e+01 6.654179890737250389e+02
1.519999999999999929e+01 6.540290335054899060e+02
1.560000000000000142e+01 6.432932448470054396e+02
1.600000000000000000e+01 6.331472762150436893e+02
1.639999999999999858e+01 6.235363237909450618e+02
1.680000000000000071e+01 6.144126673519482438e+02
1.719999999999999929e+01 6.057345097995878405e+02
1.760000000000000142e+01 5.974650448357821233e+02
1.800000000000000000e+01 5.895717008642980090e+02
1.839999999999999858e+01 5.820255225294289403e+02
1.880000000000000071e+01 5.748006608464457940e+02
1.920000000000000284e+01 5.678739498059482003e+02
1.960000000000000142e+01 5.612245524293313110e+02
2.000000000000000000e+01 5.548336630450123721e+02
2.039999999999999858e+01 5.486842554091217607e+02
2.080000000000000071e+01 5.427608684642075332e+02
2.120000000000000284e+01 5.370494231947952812e+02
2.160000000000000142e+01 5.315370653279618409e+02
2.200000000000000000e+01 5.262120296335192506e+02
2.239999999999999858e+01 5.210635223700355709e+02
2.280000000000000071e+01 5.160816190500977427e+02
2.320000000000000284e+01 5.112571751984386879e+02
2.360000000000000142e+01 5.065817481780645721e+02
2.400000000000000000e+01 5.020475284837216350e+02
2.439999999999999858e+01 4.976472791653171726e+02
2.480000000000000071e+01 4.933742822588333183e+02
2.520000000000000284e+01 4.892222912786387496e+02
2.560000000000000142e+01 4.851854889705025471e+02
2.600000000000000000e+01 4.812584496450567144e+02
2.640000000000000213e+01 4.774361055116378338e+02
2.680000000000000071e+01 4.737137165161288408e+02
2.719999999999999929e+01 4.700868432566134061e+02
2.760000000000000142e+01 4.665513226097373263e+02
2.800000000000000000e+01 4.631032457505939419e+02
2.840000000000000213e+01 4.597389382912733709e+02
2.880000000000000071e+01 4.564549422992172936e+02
2.920000000000000284e+01 4.532479999872434746e+02
2.960000000000000142e+01 4.501150388933982640e+02
3.000000000000000000e+01 4.470531583913746658e+02
3.040000000000000213e+01 4.440596173916638350e+02
3.080000000000000071e+01 4.411318231103906555e+02
3.120000000000000284e+01 4.382673207973011813e+02
3.160000000000000142e+01 4.354637843269714494e+02
3.200000000000000000e+01 4.327190075682688644e+02
3.240000000000000568e+01 4.300308964566510213e+02
3.279999999999999716e+01 4.273974617022396387e+02
3.320000000000000284e+01 4.248168120739175606e+02
3.360000000000000142e+01 4.222871482061211736e+02
3.400000000000000000e+01 4.198067568806370673e+02
3.440000000000000568e+01 4.173740057406953383e+02
3.479999999999999716e+01 4.149873383990369575e+02
3.520000000000000284e+01 4.126452699055207631e+02
3.560000000000000142e+01 4.103463825432779686e+02
3.600000000000000000e+01 4.080893219254783162e+02
3.640000000000000568e+01 4.058727933674891801e+02
3.679999999999999716e+01 4.036955585116313614e+02
3.720000000000000284e+01 4.015564321838918431e+02
3.760000000000000142e+01 3.994542794638896339e+02
3.800000000000000000e+01 3.973880129511090331e+02
3.840000000000000568e+01 3.953565902119733551e+02
3.879999999999999716e+01 3.933590113937113983e+02
3.920000000000000284e+01 3.913943169922243897e+02
3.960000000000000142e+01 3.894615857622836756e+02
4.000000000000000000e+01 3.875599327593986345e+02
4.040000000000000568e+01 3.856885075036157673e+02
4.079999999999999716e+01 3.838464922563265986e+02
4.120000000000000284e+01 3.820331004019186025e+02
4.160000000000000142e+01 3.802475749267729270e+02
4.200000000000000000e+01 3.784891869887300118e+02
4.239999999999999858e+01 3.767572345707001773e+02
4.280000000000000426e+01 3.750510412126051278e+02
4.320000000000000284e+01 3.733699548162902602e+02
4.360000000000000142e+01 3.717133465184789429e+02
4.400000000000000000e+01 3.700806096272090713e+02
4.439999999999999858e+01 3.684711586175533284e+02
4.480000000000000426e+01 3.668844281827355189e+02
4.520000000000000284e+01 3.653198723370528000e+02
4.560000000000000142e+01 3.637769635672761979e+02
4.600000000000000000e+01 3.622551920294494039e+02
4.639999999999999858e+01 3.607540647882321991e+02
4.680000000000000426e+01 3.592731050961338042e+02
4.720000000000000284e+01 3.578118517101803491e+02
4.760000000000000142e+01 3.563698582437266396e+02
4.800000000000000000e+01 3.549466925512874695e+02
4.840000000000000568e+01 3.535419361444091919e+02
4.880000000000000426e+01 3.521551836367401620e+02
4.920000000000000284e+01 3.507860422165807108e+02
4.960000000000000142e+01 3.494341311453129606e+02
5.000000000000000000e+01 3.480990812802172059e+02
5.040000000000000568e+01 3.467805346202775354e+02
5.080000000000000426e+01 3.454781438736743553e+02
5.120000000000000284e+01 3.441915720457453745e+02
5.160000000000000142e+01 3.429204920462746600e+02
5.200000000000000000e+01 3.416645863150428113e+02
5.240000000000000568e+01 3.404235464646374112e+02
5.280000000000000426e+01 3.391970729395901571e+02
5.320000000000000284e+01 3.379848746909584634e+02
5.360000000000000142e+01 3.367866688655306007e+02
5.400000000000000000e+01 3.356021805088788597e+02
5.440000000000000568e+01 3.344311422815358696e+02
5.480000000000000426e+01 3.332732941876088262e+02
5.520000000000000284e+01 3.321283833151923091e+02
5.560000000000000142e+01 3.309961635879741948e+02
5.600000000000000000e+01 3.298763955274663999e+02
5.640000000000000568e+01 3.287688460253253311e+02
5.680000000000000426e+01 3.276732881252583525e+02
5.720000000000000284e+01 3.265895008140398659e+02
5.760000000000000142e+01 3.255172688211893046e+02
5.800000000000000000e+01 3.244563824268885242e+02
5.840000000000000568e+01 3.234066372777384686e+02
5.880000000000000426e+01 3.223678342099792644e+02
5.920000000000000284e+01 3.213397790798164237e+02
5.960000000000000142e+01 3.203222826005176103e+02
6.000000000000000000e+01 3.193151601859611333e+02
6.040000000000000568e+01 3.183182318003347291e+02
6.080000000000000426e+01 3.173313218137013791e+02
6.120000000000000284e+01 3.163542588631592025e+02
6.160000000000000142e+01 3.153868757193444026e+02
6.200000000000000000e+01 3.144290091580302260e+02
6.240000000000000568e+01 3.134804998365963229e+02
6.280000000000000426e+01 3.125411921751494901e+02
6.320000000000000284e+01 3.116109342420885469e+02
6.360000000000000142e+01 3.106895776439192218e+02
6.400000000000000000e+01 3.097769774191310717e+02
6.440000000000000568e+01 3.088729919359616929e+02
6.480000000000001137e+01 3.079774827938798580e+02
6.520000000000000284e+01 3.070903147286263675e+02
6.559999999999999432e+01 3.062113555206648812e+02
6.600000000000000000e+01 3.053404759068935164e+02
6.640000000000000568e+01 3.044775494954855048e+02
6.680000000000001137e+01 3.036224526837236226e+02
6.720000000000000284e+01 3.027750645787071448e+02
6.759999999999999432e+01 3.019352669208113866e+02
6.800000000000000000e+01 3.011029440097885868e+02
6.840000000000000568e+01 3.002779826334013933e+02
6.880000000000001137e+01 2.994602719984863484e+02
6.920000000000000284e+01 2.986497036643520460e+02
6.959999999999999432e+01 2.978461714784156698e+02
7.000000000000000000e+01 2.970495715139913955e+02
7.040000000000000568e+01 2.962598020101449947e+02
7.080000000000001137e+01 2.954767633135342066e+02
7.120000000000000284e+01 2.947003578221560360e+02
7.159999999999999432e+01 2.939304899309295820e+02
7.200000000000000000e+01 2.931670659790416380e+02
7.240000000000000568e+01 2.924099941989892386e+02
7.280000000000001137e+01 2.916591846672534984e+02
7.320000000000000284e+01 2.909145492565439781e+02
7.359999999999999432e+01 2.901760015895538345e+02
7.400000000000000000e+01 2.894434569941699920e+02
7.440000000000000568e+01 2.887168324600845608e+02
7.479999999999999716e+01 2.879960465967548089e+02
7.520000000000000284e+01 2.872810195926624601e+02
7.560000000000000853e+01 2.865716731758259925e+02
7.600000000000000000e+01 2.858679305755196083e+02
7.640000000000000568e+01 2.851697164851547655e+02
7.679999999999999716e+01 2.844769570262842535e+02
7.720000000000000284e+01 2.837895797136873739e+02
7.760000000000000853e+01 2.831075134214981972e+02
7.800000000000000000e+01 2.824306883503408017e+02
7.840000000000000568e+01 2.817590359954350561e+02
7.879999999999999716e+01 2.810924891156405465e+02
7.920000000000000284e+01 2.804309817034041998e+02
7.960000000000000853e+01 2.797744489555825567e+02
8.000000000000000000e+01 2.791228272451070893e+02
8.040000000000000568e+01 2.784760540934645405e+02
8.079999999999999716e+01 2.778340681439642026e+02
8.120000000000000284e+01 2.771968091357659887e+02
8.160000000000000853e+01 2.765642178786439445e+02
8.200000000000000000e+01 2.759362362284595065e+02
8.240000000000000568e+01 2.753128070633218840e+02
8.279999999999999716e+01 2.746938742604133949e+02
8.320000000000000284e+01 2.740793826734558252e+02
8.360000000000000853e+01 2.734692781107996211e+02
8.400000000000000000e+01 2.728635073141124394e+02
8.440000000000000568e+01 2.722620179376512510e+02
8.479999999999999716e+01 2.716647585280958310e+02
8.520000000000000284e+01 2.710716785049277178e+02
8.560000000000000853e+01 2.704827281413368496e+02
8.600000000000000000e+01 2.698978585456385417e+02
8.640000000000000568e+01 2.693170216431851713e+02
8.680000000000001137e+01 2.687401701587569960e+02
8.720000000000000284e+01 2.681672575994173826e+02
8.760000000000000853e+01 2.675982382378167586e+02
8.800000000000000000e+01 2.670330670959333474e+02
8.840000000000000568e+01 2.664716999292355695e+02
8.880000000000001137e+01 2.659140932112539417e+02
8.920000000000000284e+01 2.653602041185500298e+02
8.960000000000000853e+01 2.648099905160694334e+02
9.000000000000000000e+01 2.642634109428694842e+02
9.040000000000000568e+01 2.637204245982068187e+02
9.080000000000001137e+01 2.631809913279782904e+02
9.120000000000000284e+01 2.626450716115005548e+02
9.160000000000000853e+01 2.621126265486211082e+02
9.200000000000000000e+01 2.615836178471508333e+02
9.240000000000000568e+01 2.610580078106058863e+02
9.280000000000001137e+01 2.605357593262539240e+02
9.320000000000000284e+01 2.600168358534527329e+02
9.360000000000000853e+01 2.595012014122733035e+02
9.400000000000000000e+01 2.589888205724014369e+02
9.440000000000000568e+01 2.584796584423055492e+02
9.480000000000001137e+01 2.579736806586680018e+02
9.520000000000000284e+01 2.574708533760684190e+02
9.560000000000000853e+01 2.569711432569142744e+02
9.600000000000000000e+01 2.564745174616107306e+02
9.640000000000000568e+01 2.559809436389630832e+02
9.680000000000001137e+01 2.554903899168059525e+02
9.720000000000000284e+01 2.550028248928517769e+02
9.760000000000000853e+01 2.545182176257537776e+02
9.800000000000000000e+01 2.540365376263767985e+02
9.840000000000000568e+01 2.535577548492697133e+02
9.880000000000001137e+01 2.530818396843353639e+02
9.920000000000000284e+01 2.526087629486917763e+02
9.960000000000000853e+01 2.521384958787186861e+02
1.000000000000000000e+02 2.516710101222863898e+02
1.004000000000000057e+02 2.512062777311599575e+02
1.008000000000000114e+02 2.507442711535752551e+02
1.012000000000000028e+02 2.502849632269822564e+02
1.016000000000000085e+02 2.498283271709501605e+02
1.020000000000000000e+02 2.493743365802314713e+02
1.024000000000000057e+02 2.489229654179794977e+02
1.028000000000000114e+02 2.484741880091164887e+02
1.032000000000000028e+02 2.480279790338473731e+02
1.036000000000000085e+02 2.475843135213158632e+02
1.040000000000000000e+02 2.471431668433994560e+02
1.044000000000000057e+02 2.467045147086390102e+02
1.048000000000000114e+02 2.462683331563003719e+02
1.052000000000000028e+02 2.458345985505636691e+02
1.056000000000000085e+02 2.454032875748379467e+02
1.060000000000000000e+02 2.449743772261974755e+02
1.064000000000000057e+02 2.445478448099361231e+02
1.068000000000000114e+02 2.441236679342386537e+02
1.072000000000000028e+02 2.437018245049633833e+02
1.076000000000000085e+02 2.432822927205356791e+02
1.080000000000000000e+02 2.428650510669485527e+02
1.084000000000000057e+02 2.424500783128675607e+02
1.088000000000000114e+02 2.420373535048375970e+02
1.092000000000000028e+02 2.416268559625899002e+02
1.096000000000000085e+02 2.412185652744447566e+02
1.100000000000000000e+02 2.408124612928102977e+02
1.104000000000000057e+02 2.404085241297725020e+02
1.108000000000000114e+02 2.400067341527761187e+02
1.112000000000000028e+02 2.396070719803927886e+02
1.116000000000000085e+02 2.392095184781757098e+02
1.120000000000000000e+02 2.388140547545974925e+02
1.124000000000000057e+02 2.384206621570700975e+02
1.128000000000000114e+02 2.380293222680444956e+02
1.132000000000000028e+02 2.376400169011880621e+02
1.136000000000000085e+02 2.372527280976384816e+02
1.140000000000000000e+02 2.368674381223317482e+02
1.144000000000000057e+02 2.364841294604022721e+02
1.148000000000000114e+02 2.361027848136546936e+02
1.152000000000000028e+02 2.357233870971040801e+02
1.156000000000000085e+02 2.353459194355845341e+02
1.160000000000000000e+02 2.349703651604230004e+02
1.164000000000000057e+02 2.345967078061782445e+02
1.168000000000000114e+02 2.342249311074426146e+02
1.172000000000000028e+02 2.338550189957055352e+02
1.176000000000000085e+02 2.334869555962768004e+02
1.180000000000000000e+02 2.331207252252693252e+02
1.184000000000000057e+02 2.327563123866389958e+02
1.188000000000000114e+02 2.323937017692808809e+02
1.192000000000000028e+02 2.320328782441801252e+02
1.196000000000000085e+02 2.316738268616169876e+02
1.200000000000000000e+02 2.313165328484241741e+02
1.204000000000000057e+02 2.309609816052953875e+02
1.208000000000000114e+02 2.306071587041445241e+02
1.212000000000000028e+02 2.302550498855134151e+02
1.216000000000000085e+02 2.299046410560281117e+02
1.220000000000000000e+02 2.295559182859017824e+02
1.224000000000000057e+02 2.292088678064837950e+02
1.228000000000000114e+02 2.288634760078537624e+02
1.232000000000000028e+02 2.285197294364593859e+02
1.236000000000000085e+02 2.281776147927973284e+02
1.240000000000000000e+02 2.278371189291365795e+02
1.244000000000000057e+02 2.274982288472823484e+02
1.248000000000000114e+02 2.271609316963809988e+02
1.252000000000000028e+02 2.268252147707639210e+02
1.256000000000000085e+02 2.264910655078302284e+02
1.260000000000000000e+02 2.261584714859673682e+02
1.264000000000000057e+02 2.258274204225083963e+02
1.268000000000000114e+02 2.254979001717256892e+02
1.272000000000000028e+02 2.251698987228604381e+02
1.276000000000000085e+02 2.248434041981860503e+02
1.280000000000000000e+02 2.245184048511066237e+02
1.284000000000000057e+02 2.241948890642875654e+02
1.288000000000000114e+02 2.238728453478198617e+02
1.291999999999999886e+02 2.235522623374155842e+02
1.296000000000000227e+02 2.232331287926349148e+02
1.300000000000000000e+02 2.229154335951440089e+02
1.304000000000000057e+02 2.225991657470022460e+02
1.308000000000000114e+02 2.222843143689798069e+02
1.311999999999999886e+02 2.219708686989032458e+02
1.316000000000000227e+02 2.216588180900293992e+02
1.320000000000000000e+02 2.213481520094477162e+02
1.324000000000000057e+02 2.210388600365085949e+02
1.328000000000000114e+02 2.207309318612788331e+02
1.331999999999999886e+02 2.204243572830232836e+02
1.336000000000000227e+02 2.201191262087113785e+02
1.340000000000000000e+02 2.198152286515496030e+02
1.344000000000000057e+02 2.195126547295373882e+02
1.348000000000000114e+02 2.192113946640477593e+02
1.351999999999999886e+02 2.189114387784313180e+02
1.356000000000000227e+02 2.186127774966433321e+02
1.360000000000000000e+02 2.183154013418932209e+02
1.364000000000000057e+02 2.180193009353168350e+02
1.368000000000000114e+02 2.177244669946697400e+02
1.371999999999999886e+02 2.174308903330422993e+02
1.376000000000000227e+02 2.171385618575957892e+02
1.380000000000000000e+02 2.168474725683184943e+02
1.384000000000000057e+02 2.165576135568027212e+02
1.388000000000000114e+02 2.162689760050404857e+02
1.392000000000000171e+02 2.159815511842398337e+02
1.395999999999999943e+02 2.156953304536591531e+02
1.400000000000000000e+02 2.154103052594606424e+02
1.404000000000000057e+02 2.151264671335816843e+02
1.408000000000000114e+02 2.148438076926248073e+02
1.412000000000000171e+02 2.145623186367644166e+02
1.415999999999999943e+02 2.142819917486714303e+02
1.420000000000000000e+02 2.140028188924547976e+02
1.424000000000000057e+02 2.137247920126189342e+02
1.428000000000000114e+02 2.134479031330388921e+02
1.432000000000000171e+02 2.131721443559499392e+02
1.435999999999999943e+02 2.128975078609542493e+02
1.440000000000000000e+02 2.126239859040421152e+02
1.444000000000000057e+02 2.123515708166285663e+02
1.448000000000000114e+02 2.120802550046051067e+02
1.452000000000000171e+02 2.118100309474060055e+02
1.455999999999999943e+02 2.115408911970882855e+02
1.460000000000000000e+02 2.112728283774270039e+02
1.464000000000000057e+02 2.110058351830229526e+02
1.468000000000000114e+02 2.107399043784251376e+02
1.472000000000000171e+02 2.104750287972660203e+02
1.475999999999999943e+02 2.102112013414096054e+02
1.480000000000000000e+02 2.099484149801130570e+02
1.484000000000000057e+02 2.096866627492003943e+02
1.488000000000000114e+02 2.094259377502488917e+02
1.492000000000000171e+02 2.091662331497873595e+02
1.495999999999999943e+02 2.089075421785067590e+02
1.500000000000000000e+02 2.086498581304823006e+02
