1.000000000000000000e+01 3.680690350432320201e+02
1.040000000000000036e+01 4.112846281873071348e+02
1.080000000000000071e+01 4.285423903837607895e+02
1.119999999999999929e+01 4.664352893760569145e+02
1.159999999999999964e+01 4.839252020138486046e+02
1.200000000000000000e+01 4.951066642584562487e+02
1.240000000000000036e+01 5.109992636639519787e+02
1.280000000000000071e+01 5.235329618150248052e+02
1.319999999999999929e+01 5.468807841164450565e+02
1.359999999999999964e+01 5.799599913836880205e+02
1.400000000000000000e+01 6.337607740585021929e+02
1.440000000000000036e+01 6.216291780603360166e+02
1.480000000000000071e+01 6.103343658472443849e+02
1.519999999999999929e+01 5.997763997333529460e+02
1.560000000000000142e+01 5.898720508748695011e+02
1.600000000000000000e+01 5.805512669672978063e+02
1.639999999999999858e+01 5.717545296951923319e+02
1.680000000000000071e+01 5.634308449735043496e+02
1.719999999999999929e+01 5.555361918697066130e+02
1.760000000000000142e+01 5.480323096923474395e+02
1.800000000000000000e+01 5.408857382240425977e+02
1.839999999999999858e+01 5.340670500784897285e+02
1.880000000000000071e+01 5.275502307019465889e+02
1.920000000000000284e+01 5.213121731359393607e+02
1.960000000000000142e+01 5.153322629157351003e+02
2.000000000000000000e+01 5.095920344440513645e+02
2.039999999999999858e+01 5.040748845450444833e+02
2.080000000000000071e+01 4.987658321374651678e+02
2.120000000000000284e+01 4.936513153882808638e+02
2.160000000000000142e+01 4.887190195414976301e+02
2.200000000000000000e+01 4.839577300180063730e+02
2.239999999999999858e+01 4.793572064626000042e+02
2.280000000000000071e+01 4.749080742543204678e+02
2.320000000000000284e+01 4.706017306545902557e+02
2.360000000000000142e+01 4.664302632872761478e+02
2.400000000000000000e+01 4.623863790579693500e+02
2.439999999999999858e+01 4.584633419503294931e+02
2.480000000000000071e+01 4.546549184034688551e+02
2.520000000000000284e+01 4.509553291898653242e+02
2.560000000000000142e+01 4.473592068887600703e+02
2.600000000000000000e+01 4.438615581936320496e+02
2.640000000000000213e+01 4.404577304104792006e+02
2.680000000000000071e+01 4.371433816012776674e+02
2.719999999999999929e+01 4.339144539080515415e+02
2.760000000000000142e+01 4.307671496605623815e+02
2.800000000000000000e+01 4.276979099272027725e+02
2.840000000000000213e+01 4.247033952162211108e+02
2.880000000000000071e+01 4.217804680745116457e+02
2.920000000000000284e+01 4.189261773651531939e+02
2.960000000000000142e+01 4.161377440337190592e+02
3.000000000000000000e+01 4.134125481979582446e+02
3.040000000000000213e+01 4.107481174164611843e+02
3.080000000000000071e+01 4.081421160099378653e+02
3.120000000000000284e+01 4.055923353242338294e+02
3.160000000000000142e+01 4.030966848375693417e+02
3.200000000000000000e+01 4.006531840260455510e+02
3.240000000000000568e+01 3.982599549114742103e+02
3.279999999999999716e+01 3.959152152243004252e+02
3.320000000000000284e+01 3.936172721219661526e+02
3.360000000000000142e+01 3.913645164096943176e+02
3.400000000000000000e+01 3.891554172164627516e+02
3.440000000000000568e+01 3.869885170840300930e+02
3.479999999999999716e+01 3.848624274313401656e+02
3.520000000000000284e+01 3.827758243605705957e+02
3.560000000000000142e+01 3.807274447745661519e+02
3.600000000000000000e+01 3.787160827784668982e+02
3.640000000000000568e+01 3.767405863410671714e+02
3.679999999999999716e+01 3.747998541938500239e+02
3.720000000000000284e+01 3.728928329477942611e+02
3.760000000000000142e+01 3.710185144099597778e+02
3.800000000000000000e+01 3.691759330835631090e+02
3.840000000000000568e+01 3.673641638367770383e+02
3.879999999999999716e+01 3.655823197268540525e+02
3.920000000000000284e+01 3.638295499673906761e+02
3.960000000000000142e+01 3.621050380276493001e+02
4.000000000000000000e+01 3.604079998538373957e+02
4.040000000000000568e+01 3.587376822031307597e+02
4.079999999999999716e+01 3.570933610820258650e+02
4.120000000000000284e+01 3.554743402813284092e+02
4.160000000000000142e+01 3.538799500007357324e+02
4.200000000000000000e+01 3.523095455565592715e+02
4.239999999999999858e+01 3.507625061666680040e+02
4.280000000000000426e+01 3.492382338072177390e+02
4.320000000000000284e+01 3.477361521361690393e+02
4.360000000000000142e+01 3.462557054789979816e+02
4.400000000000000000e+01 3.447963578723661158e+02
4.439999999999999858e+01 3.433575921618459006e+02
4.480000000000000426e+01 3.419389091501033136e+02
4.520000000000000284e+01 3.405398267922103628e+02
4.560000000000000142e+01 3.391598794350153980e+02
4.600000000000000000e+01 3.377986170977273446e+02
4.639999999999999858e+01 3.364556047910827488e+02
4.680000000000000426e+01 3.351304218726548356e+02
4.720000000000000284e+01 3.338226614360448252e+02
4.760000000000000142e+01 3.325319297318536655e+02
4.800000000000000000e+01 3.312578456184876927e+02
4.840000000000000568e+01 3.300000400409825261e+02
4.880000000000000426e+01 3.287581555361625760e+02
4.920000000000000284e+01 3.275318457625651831e+02
4.960000000000000142e+01 3.263207750536677736e+02
5.000000000000000000e+01 3.251246179930574272e+02
5.040000000000000568e+01 3.239430590102693941e+02
5.080000000000000426e+01 3.227757919961104562e+02
5.120000000000000284e+01 3.216225199363581737e+02
5.160000000000000142e+01 3.204829545628003302e+02
5.200000000000000000e+01 3.193568160206477842e+02
5.240000000000000568e+01 3.182438325514117992e+02
5.280000000000000426e+01 3.171437401904001945e+02
5.320000000000000284e+01 3.160562824780356550e+02
5.360000000000000142e+01 3.149812101842510970e+02
5.400000000000000000e+01 3.139182810452638819e+02
5.440000000000000568e+01 3.128672595120724509e+02
5.480000000000000426e+01 3.118279165100585715e+02
5.520000000000000284e+01 3.108000292091179517e+02
5.560000000000000142e+01 3.097833808037737526e+02
5.600000000000000000e+01 3.087777603027621467e+02
5.640000000000000568e+01 3.077829623276079474e+02
5.680000000000000426e+01 3.067987869197369264e+02
5.720000000000000284e+01 3.058250393556983795e+02
5.760000000000000142e+01 3.048615299700943524e+02
5.800000000000000000e+01 3.039080739858368929e+02
5.840000000000000568e+01 3.029644913513756137e+02
5.880000000000000426e+01 3.020306065845563808e+02
5.920000000000000284e+01 3.011062486227936006e+02
5.960000000000000142e+01 3.001912506792538125e+02
6.000000000000000000e+01 2.992854501047663689e+02
6.040000000000000568e+01 2.983886882551910276e+02
6.080000000000000426e+01 2.975008103639897854e+02
6.120000000000000284e+01 2.966216654197590401e+02
6.160000000000000142e+01 2.957511060484967516e+02
6.200000000000000000e+01 2.948889884003864950e+02
6.240000000000000568e+01 2.940351720408947358e+02
6.280000000000000426e+01 2.931895198459874337e+02
6.320000000000000284e+01 2.923518979012810632e+02
6.360000000000000142e+01 2.915221754049539413e+02
6.400000000000000000e+01 2.907002245742534683e+02
6.440000000000000568e+01 2.898859205554393270e+02
6.480000000000001137e+01 2.890791413370167788e+02
6.520000000000000284e+01 2.882797676661150490e+02
6.559999999999999432e+01 2.874876829678780723e+02
6.600000000000000000e+01 2.867027732677389622e+02
6.640000000000000568e+01 2.859249271164558763e+02
6.680000000000001137e+01 2.851540355177940000e+02
6.720000000000000284e+01 2.843899918587426896e+02
6.759999999999999432e+01 2.836326918421635810e+02
6.800000000000000000e+01 2.828820334217685968e+02
6.840000000000000568e+01 2.821379167393337184e+02
6.880000000000001137e+01 2.814002440640568921e+02
6.920000000000000284e+01 2.806689197339738939e+02
6.959999999999999432e+01 2.799438500993495609e+02
7.000000000000000000e+01 2.792249434679655451e+02
7.040000000000000568e+01 2.785121100522301845e+02
7.080000000000001137e+01 2.778052619180376155e+02
7.120000000000000284e+01 2.771043129353089967e+02
7.159999999999999432e+01 2.764091787301496197e+02
7.200000000000000000e+01 2.757197766385596651e+02
7.240000000000000568e+01 2.750360256616393144e+02
7.280000000000001137e+01 2.743578464222313187e+02
7.320000000000000284e+01 2.736851611229454306e+02
7.359999999999999432e+01 2.730178935055141665e+02
7.400000000000000000e+01 2.723559688114286246e+02
7.440000000000000568e+01 2.716993137438080339e+02
7.479999999999999716e+01 2.710478564304560223e+02
7.520000000000000284e+01 2.704015263880607449e+02
7.560000000000000853e+01 2.697602544874971500e+02
7.600000000000000000e+01 2.691239729201904538e+02
7.640000000000000568e+01 2.684926151655033664e+02
7.679999999999999716e+01 2.678661159591099477e+02
7.720000000000000284e+01 2.672444112623197725e+02
7.760000000000000853e+01 2.666274382323209693e+02
7.800000000000000000e+01 2.660151351933073443e+02
7.840000000000000568e+01 2.654074416084592940e+02
7.879999999999999716e+01 2.648042980527496297e+02
7.920000000000000284e+01 2.642056461865436745e+02
7.960000000000000853e+01 2.636114287299679972e+02
8.000000000000000000e+01 2.630215894380208965e+02
8.040000000000000568e+01 2.624360730763975198e+02
8.079999999999999716e+01 2.618548253980088134e+02
8.120000000000000284e+01 2.612777931201672459e+02
8.160000000000000853e+01 2.607049239024189546e+02
8.200000000000000000e+01 2.601361663250007723e+02
8.240000000000000568e+01 2.595714698678989407e+02
8.279999999999999716e+01 2.590107848904934826e+02
8.320000000000000284e+01 2.584540626117654369e+02
8.360000000000000853e+01 2.579012550910501886e+02
8.400000000000000000e+01 2.573523152093191015e+02
8.440000000000000568e+01 2.568071966509711501e+02
8.479999999999999716e+01 2.562658538861203397e+02
8.520000000000000284e+01 2.557282421533598438e+02
8.560000000000000853e+01 2.551943174429909220e+02
8.600000000000000000e+01 2.546640364806993944e+02
8.640000000000000568e+01 2.541373567116668823e+02
8.680000000000001137e+01 2.536142362851021517e+02
8.720000000000000284e+01 2.530946340391806189e+02
8.760000000000000853e+01 2.525785094863783513e+02
8.800000000000000000e+01 2.520658227991880551e+02
8.840000000000000568e+01 2.515565347962069609e+02
8.880000000000001137e+01 2.510506069285828517e+02
8.920000000000000284e+01 2.505480012668094787e+02
8.960000000000000853e+01 2.500486804878590590e+02
9.000000000000000000e+01 2.495526078626426170e+02
9.040000000000000568e+01 2.490597472437882232e+02
9.080000000000001137e+01 2.485700630537270968e+02
9.120000000000000284e+01 2.480835202730788751e+02
9.160000000000000853e+01 2.476000844293269552e+02
9.200000000000000000e+01 2.471197215857756078e+02
9.240000000000000568e+01 2.466423983307798551e+02
9.280000000000001137e+01 2.461680817672412616e+02
9.320000000000000284e+01 2.456967395023606855e+02
9.360000000000000853e+01 2.452283396376415396e+02
9.400000000000000000e+01 2.447628507591359153e+02
9.440000000000000568e+01 2.443002419279257822e+02
9.480000000000001137e+01 2.438404826708348594e+02
9.520000000000000284e+01 2.433835429713615213e+02
9.560000000000000853e+01 2.429293932608289879e+02
9.600000000000000000e+01 2.424780044097452958e+02
9.640000000000000568e+01 2.420293477193675926e+02
9.680000000000001137e+01 2.415833949134654972e+02
9.720000000000000284e+01 2.411401181302763916e+02
9.760000000000000853e+01 2.406994899146498028e+02
9.800000000000000000e+01 2.402614832103731715e+02
9.840000000000000568e+01 2.398260713526757399e+02
9.880000000000001137e+01 2.393932280609046188e+02
9.920000000000000284e+01 2.389629274313696783e+02
9.960000000000000853e+01 2.385351439303505003e+02
1.000000000000000000e+02 2.381098523872633166e+02
1.004000000000000057e+02 2.376870279879825318e+02
1.008000000000000114e+02 2.372666462683121154e+02
1.012000000000000028e+02 2.368486831076046428e+02
1.016000000000000085e+02 2.364331147225215943e+02
1.020000000000000000e+02 2.360199176609340839e+02
1.024000000000000057e+02 2.356090687959571710e+02
1.028000000000000114e+02 2.352005453201173850e+02
1.032000000000000028e+02 2.347943247396474646e+02
1.036000000000000085e+02 2.343903848689062102e+02
1.040000000000000000e+02 2.339887038249201510e+02
1.044000000000000057e+02 2.335892600220438453e+02
1.048000000000000114e+02 2.331920321667351459e+02
1.052000000000000028e+02 2.327969992524435270e+02
1.056000000000000085e+02 2.324041405546078920e+02
1.060000000000000000e+02 2.320134356257610762e+02
1.064000000000000057e+02 2.316248642907388557e+02
1.068000000000000114e+02 2.312384066419901387e+02
1.072000000000000028e+02 2.308540430349862049e+02
1.076000000000000085e+02 2.304717540837270349e+02
1.080000000000000000e+02 2.300915206563410891e+02
1.084000000000000057e+02 2.297133238707768896e+02
1.088000000000000114e+02 2.293371450905847269e+02
1.092000000000000028e+02 2.289629659207853365e+02
1.096000000000000085e+02 2.285907682038233588e+02
1.100000000000000000e+02 2.282205340156047555e+02
1.104000000000000057e+02 2.278522456616145462e+02
1.108000000000000114e+02 2.274858856731143248e+02
1.112000000000000028e+02 2.271214368034162021e+02
1.116000000000000085e+02 2.267588820242330598e+02
1.120000000000000000e+02 2.263982045221015369e+02
1.124000000000000057e+02 2.260393876948772913e+02
1.128000000000000114e+02 2.256824151483002083e+02
1.132000000000000028e+02 2.253272706926280193e+02
1.136000000000000085e+02 2.249739383393367689e+02
1.140000000000000000e+02 2.246224022978869641e+02
1.144000000000000057e+02 2.242726469725521952e+02
1.148000000000000114e+02 2.239246569593117329e+02
1.152000000000000028e+02 2.235784170428025845e+02
1.156000000000000085e+02 2.232339121933314345e+02
1.160000000000000000e+02 2.228911275639446785e+02
1.164000000000000057e+02 2.225500484875550171e+02
1.168000000000000114e+02 2.222106604741233298e+02
1.172000000000000028e+02 2.218729492078949761e+02
1.176000000000000085e+02 2.215369005446887058e+02
1.180000000000000000e+02 2.212025005092373817e+02
1.184000000000000057e+02 2.208697352925791506e+02
1.188000000000000114e+02 2.205385912494984098e+02
1.192000000000000028e+02 2.202090548960143508e+02
1.196000000000000085e+02 2.198811129069172523e+02
1.200000000000000000e+02 2.195547521133509292e+02
1.204000000000000057e+02 2.192299595004396906e+02
1.208000000000000114e+02 2.189067222049605448e+02
1.212000000000000028e+02 2.185850275130575255e+02
1.216000000000000085e+02 2.182648628579986507e+02
1.220000000000000000e+02 2.179462158179744620e+02
1.224000000000000057e+02 2.176290741139362410e+02
1.228000000000000114e+02 2.173134256074745849e+02
1.232000000000000028e+02 2.169992582987360379e+02
1.236000000000000085e+02 2.166865603243776093e+02
1.240000000000000000e+02 2.163753199555589504e+02
1.244000000000000057e+02 2.160655255959695182e+02
1.248000000000000114e+02 2.157571657798926310e+02
1.252000000000000028e+02 2.154502291703032029e+02
1.256000000000000085e+02 2.151447045569996135e+02
1.260000000000000000e+02 2.148405808547692573e+02
1.264000000000000057e+02 2.145378471015860669e+02
1.268000000000000114e+02 2.142364924568403524e+02
1.272000000000000028e+02 2.139365061995997337e+02
1.276000000000000085e+02 2.136378777269001716e+02
1.280000000000000000e+02 2.133405965520676091e+02
1.284000000000000057e+02 2.130446523030684034e+02
1.288000000000000114e+02 2.127500347208886637e+02
1.291999999999999886e+02 2.124567336579415553e+02
1.296000000000000227e+02 2.121647390765021441e+02
1.300000000000000000e+02 2.118740410471693849e+02
1.304000000000000057e+02 2.115846297473541711e+02
1.308000000000000114e+02 2.112964954597935616e+02
1.311999999999999886e+02 2.110096285710902464e+02
1.316000000000000227e+02 2.107240195702766528e+02
1.320000000000000000e+02 2.104396590474037794e+02
1.324000000000000057e+02 2.101565376921535346e+02
1.328000000000000114e+02 2.098746462924745231e+02
1.331999999999999886e+02 2.095939757332409386e+02
1.336000000000000227e+02 2.093145169949335695e+02
1.340000000000000000e+02 2.090362611523430019e+02
1.344000000000000057e+02 2.087591993732944502e+02
1.348000000000000114e+02 2.084833229173935365e+02
1.351999999999999886e+02 2.082086231347930720e+02
1.356000000000000227e+02 2.079350914649797346e+02
1.360000000000000000e+02 2.076627194355811810e+02
1.364000000000000057e+02 2.073914986611922586e+02
1.368000000000000114e+02 2.071214208422207150e+02
1.371999999999999886e+02 2.068524777637515228e+02
1.376000000000000227e+02 2.065846612944294520e+02
1.380000000000000000e+02 2.063179633853603434e+02
1.384000000000000057e+02 2.060523760690291795e+02
1.388000000000000114e+02 2.057878914582364018e+02
1.392000000000000171e+02 2.055245017450509692e+02
1.395999999999999943e+02 2.052621991997799000e+02
1.400000000000000000e+02 2.050009761699544697e+02
1.404000000000000057e+02 2.047408250793326943e+02
1.408000000000000114e+02 2.044817384269171896e+02
1.412000000000000171e+02 2.042237087859889755e+02
1.415999999999999943e+02 2.039667288031562862e+02
1.420000000000000000e+02 2.037107911974179615e+02
1.424000000000000057e+02 2.034558887592425265e+02
1.428000000000000114e+02 2.032020143496602032e+02
1.432000000000000171e+02 2.029491608993705825e+02
1.435999999999999943e+02 2.026973214078628018e+02
1.440000000000000000e+02 2.024464889425503600e+02
1.444000000000000057e+02 2.021966566379184655e+02
1.448000000000000114e+02 2.019478176946852841e+02
1.452000000000000171e+02 2.016999653789753779e+02
1.455999999999999943e+02 2.014530930215062767e+02
1.460000000000000000e+02 2.012071940167869002e+02
1.464000000000000057e+02 2.009622618223290260e+02
1.468000000000000114e+02 2.007182899578697288e+02
1.472000000000000171e+02 2.004752720046065235e+02
1.475999999999999943e+02 2.002332016044430816e+02
1.480000000000000000e+02 1.999920724592471970e+02
1.484000000000000057e+02 1.997518783301192968e+02
1.488000000000000114e+02 1.995126130366721213e+02
1.492000000000000171e+02 1.992742704563210054e+02
1.495999999999999943e+02 1.990368445235849890e+02
1.500000000000000000e+02 1.988003292293977893e+02
