1.000000000000000000e+01 3.322298241587915300e+02
1.040000000000000036e+01 3.303023620972016374e+02
1.080000000000000071e+01 3.285516623784287731e+02
1.119999999999999929e+01 3.426381097471872863e+02
1.159999999999999964e+01 3.469093892828922208e+02
1.200000000000000000e+01 3.573680568902182131e+02
1.240000000000000036e+01 3.676837052732447546e+02
1.280000000000000071e+01 3.777717926562209527e+02
1.319999999999999929e+01 3.939315459348106288e+02
1.359999999999999964e+01 4.159789338468396522e+02
1.400000000000000000e+01 4.528262596279599848e+02
1.440000000000000036e+01 4.451354750610762494e+02
1.480000000000000071e+01 4.379579326186414505e+02
1.519999999999999929e+01 4.312324318474971392e+02
1.560000000000000142e+01 4.249081078151972974e+02
1.600000000000000000e+01 4.189422173210825804e+02
1.639999999999999858e+01 4.132984898273090835e+02
1.680000000000000071e+01 4.079458782287762233e+02
1.719999999999999929e+01 4.028575982208657820e+02
1.760000000000000142e+01 3.980103795877936932e+02
1.800000000000000000e+01 3.933838755339793920e+02
1.839999999999999858e+01 3.889601915399267682e+02
1.880000000000000071e+01 3.847235057692338387e+02
1.920000000000000284e+01 3.806597604192498920e+02
1.960000000000000142e+01 3.767564086346033037e+02
2.000000000000000000e+01 3.730022053654024603e+02
2.039999999999999858e+01 3.693870332965684611e+02
2.080000000000000071e+01 3.659017570014958665e+02
2.120000000000000284e+01 3.625380999868385743e+02
2.160000000000000142e+01 3.592885404375106759e+02
2.200000000000000000e+01 3.561462223415329049e+02
2.239999999999999858e+01 3.531048793438420716e+02
2.280000000000000071e+01 3.501587691974642667e+02
2.320000000000000284e+01 3.473026170864505389e+02
2.360000000000000142e+01 3.445315664147869938e+02
2.400000000000000000e+01 3.418411359091989539e+02
2.439999999999999858e+01 3.392271820863773542e+02
2.480000000000000071e+01 3.366858662979652195e+02
2.520000000000000284e+01 3.342136256982683449e+02
2.560000000000000142e+01 3.318071475866414630e+02
2.600000000000000000e+01 3.294633466639538142e+02
2.640000000000000213e+01 3.271793448143658338e+02
2.680000000000000071e+01 3.249524530829334594e+02
2.719999999999999929e+01 3.227801555687179871e+02
2.760000000000000142e+01 3.206600949940166743e+02
2.800000000000000000e+01 3.185900597445650533e+02
2.840000000000000213e+01 3.165679722043058177e+02
2.880000000000000071e+01 3.145918782325455254e+02
2.920000000000000284e+01 3.126599376518107078e+02
2.960000000000000142e+01 3.107704156321088362e+02
3.000000000000000000e+01 3.089216748721138970e+02
3.040000000000000213e+01 3.071121684904501308e+02
3.080000000000000071e+01 3.053404335510995793e+02
3.120000000000000284e+01 3.036050851562761181e+02
3.160000000000000142e+01 3.019048110481533627e+02
3.200000000000000000e+01 3.002383666677748124e+02
3.240000000000000568e+01 2.986045706255001733e+02
3.279999999999999716e+01 2.970023005425725842e+02
3.320000000000000284e+01 2.954304892279458272e+02
3.360000000000000142e+01 2.938881211584939592e+02
3.400000000000000000e+01 2.923742292342024598e+02
3.440000000000000568e+01 2.908878917829981674e+02
3.479999999999999716e+01 2.894282297925548164e+02
3.520000000000000284e+01 2.879944043487781755e+02
3.560000000000000142e+01 2.865856142627584973e+02
3.600000000000000000e+01 2.852010938698224436e+02
3.640000000000000568e+01 2.838401109859534017e+02
3.679999999999999716e+01 2.825019650082937801e+02
3.720000000000000284e+01 2.811859851477371990e+02
3.760000000000000142e+01 2.798915287827655334e+02
3.800000000000000000e+01 2.786179799247053666e+02
3.840000000000000568e+01 2.773647477855013790e+02
3.879999999999999716e+01 2.761312654399160920e+02
3.920000000000000284e+01 2.749169885748041224e+02
3.960000000000000142e+01 2.737213943187641689e+02
4.000000000000000000e+01 2.725439801460690319e+02
4.040000000000000568e+01 2.713842628493011944e+02
4.079999999999999716e+01 2.702417775756077276e+02
4.120000000000000284e+01 2.691160769219177382e+02
4.160000000000000142e+01 2.680067300848608056e+02
4.200000000000000000e+01 2.669133220614773450e+02
4.239999999999999858e+01 2.658354528971339619e+02
4.280000000000000426e+01 2.647727369773505188e+02
4.320000000000000284e+01 2.637248023605055778e+02
4.360000000000000142e+01 2.626912901486335272e+02
4.400000000000000000e+01 2.616718538937418543e+02
4.439999999999999858e+01 2.606661590372781347e+02
4.480000000000000426e+01 2.596738823805577567e+02
4.520000000000000284e+01 2.586947115841322216e+02
4.560000000000000142e+01 2.577283446942259388e+02
4.600000000000000000e+01 2.567744896945122832e+02
4.639999999999999858e+01 2.558328640816257007e+02
4.680000000000000426e+01 2.549031944629217890e+02
4.720000000000000284e+01 2.539852161751094854e+02
4.760000000000000142e+01 2.530786729224704175e+02
4.800000000000000000e+01 2.521833164334798880e+02
4.840000000000000568e+01 2.512989061347186635e+02
4.880000000000000426e+01 2.504252088410487147e+02
4.920000000000000284e+01 2.495619984610913775e+02
4.960000000000000142e+01 2.487090557171147225e+02
5.000000000000000000e+01 2.478661678784966398e+02
5.040000000000000568e+01 2.470331285079839176e+02
5.080000000000000426e+01 2.462097372200224186e+02
5.120000000000000284e+01 2.453957994504772557e+02
5.160000000000000142e+01 2.445911262371084831e+02
5.200000000000000000e+01 2.437955340102088257e+02
5.240000000000000568e+01 2.430088443928451625e+02
5.280000000000000426e+01 2.422308840101839564e+02
5.320000000000000284e+01 2.414614843074108705e+02
5.360000000000000142e+01 2.407004813757870920e+02
5.400000000000000000e+01 2.399477157864108392e+02
5.440000000000000568e+01 2.392030324312817697e+02
5.480000000000000426e+01 2.384662803712869845e+02
5.520000000000000284e+01 2.377373126907529581e+02
5.560000000000000142e+01 2.370159863582276216e+02
5.600000000000000000e+01 2.363021620931762641e+02
5.640000000000000568e+01 2.355957042382943598e+02
5.680000000000000426e+01 2.348964806371569409e+02
5.720000000000000284e+01 2.342043625169411030e+02
5.760000000000000142e+01 2.335192243759716462e+02
5.800000000000000000e+01 2.328409438758558281e+02
5.840000000000000568e+01 2.321694017379856234e+02
5.880000000000000426e+01 2.315044816441974262e+02
5.920000000000000284e+01 2.308460701413923744e+02
5.960000000000000142e+01 2.301940565499293143e+02
6.000000000000000000e+01 2.295483328756154719e+02
6.040000000000000568e+01 2.289087937251249514e+02
6.080000000000000426e+01 2.282753362246899371e+02
6.120000000000000284e+01 2.276478599419125146e+02
6.160000000000000142e+01 2.270262668105560238e+02
6.200000000000000000e+01 2.264104610581818520e+02
6.240000000000000568e+01 2.258003491365035984e+02
6.280000000000000426e+01 2.251958396543384708e+02
6.320000000000000284e+01 2.245968433130404094e+02
6.360000000000000142e+01 2.240032728443067072e+02
6.400000000000000000e+01 2.234150429502551560e+02
6.440000000000000568e+01 2.228320702456724121e+02
6.480000000000001137e+01 2.222542732023417500e+02
6.520000000000000284e+01 2.216815720953606785e+02
6.559999999999999432e+01 2.211138889513641743e+02
6.600000000000000000e+01 2.205511474985744087e+02
6.640000000000000568e+01 2.199932731185990633e+02
6.680000000000001137e+01 2.194401927999077486e+02
6.720000000000000284e+01 2.188918350929149881e+02
6.759999999999999432e+01 2.183481300666063021e+02
6.800000000000000000e+01 2.178090092666429314e+02
6.840000000000000568e+01 2.172744056748869923e+02
6.880000000000001137e+01 2.167442536702880602e+02
6.920000000000000284e+01 2.162184889910794823e+02
6.959999999999999432e+01 2.156970486982296507e+02
7.000000000000000000e+01 2.151798711401017385e+02
7.040000000000000568e+01 2.146668959182719902e+02
7.080000000000001137e+01 2.141580638544635917e+02
7.120000000000000284e+01 2.136533169585517271e+02
7.159999999999999432e+01 2.131525983975994052e+02
7.200000000000000000e+01 2.126558524658842089e+02
7.240000000000000568e+01 2.121630245558789625e+02
7.280000000000001137e+01 2.116740611301498234e+02
7.320000000000000284e+01 2.111889096941380046e+02
7.359999999999999432e+01 2.107075187697914771e+02
7.400000000000000000e+01 2.102298378700156718e+02
7.440000000000000568e+01 2.097558174739138224e+02
7.479999999999999716e+01 2.092854090027857410e+02
7.520000000000000284e+01 2.088185647968605281e+02
7.560000000000000853e+01 2.083552380927337992e+02
7.600000000000000000e+01 2.078953830014863229e+02
7.640000000000000568e+01 2.074389544874584885e+02
7.679999999999999716e+01 2.069859083476576416e+02
7.720000000000000284e+01 2.065362011917756604e+02
7.760000000000000853e+01 2.060897904227963409e+02
7.800000000000000000e+01 2.056466342181705613e+02
7.840000000000000568e+01 2.052066915115404129e+02
7.879999999999999716e+01 2.047699219749932809e+02
7.920000000000000284e+01 2.043362860018273750e+02
7.960000000000000853e+01 2.039057446898113710e+02
8.000000000000000000e+01 2.034782598249216221e+02
8.040000000000000568e+01 2.030537938655401717e+02
8.079999999999999716e+01 2.026323099270990156e+02
8.120000000000000284e+01 2.022137717671546682e+02
8.160000000000000853e+01 2.017981437708794488e+02
8.200000000000000000e+01 2.013853909369558721e+02
8.240000000000000568e+01 2.009754788638596779e+02
8.279999999999999716e+01 2.005683737365203569e+02
8.320000000000000284e+01 2.001640423133459592e+02
8.360000000000000853e+01 1.997624519136002732e+02
8.400000000000000000e+01 1.993635704051218624e+02
8.440000000000000568e+01 1.989673661923729355e+02
8.479999999999999716e+01 1.985738082048084721e+02
8.520000000000000284e+01 1.981828658855549179e+02
8.560000000000000853e+01 1.977945091803887578e+02
8.600000000000000000e+01 1.974087085270056434e+02
8.640000000000000568e+01 1.970254348445713219e+02
8.680000000000001137e+01 1.966446595235443624e+02
8.720000000000000284e+01 1.962663544157642264e+02
8.760000000000000853e+01 1.958904918247947933e+02
8.800000000000000000e+01 1.955170444965163767e+02
8.840000000000000568e+01 1.951459856099584158e+02
8.880000000000001137e+01 1.947772887683656222e+02
8.920000000000000284e+01 1.944109279904906771e+02
8.960000000000000853e+01 1.940468777021061157e+02
9.000000000000000000e+01 1.936851127277296882e+02
9.040000000000000568e+01 1.933256082825560043e+02
9.080000000000001137e+01 1.929683399645892337e+02
9.120000000000000284e+01 1.926132837469696710e+02
9.160000000000000853e+01 1.922604159704903282e+02
9.200000000000000000e+01 1.919097133362959084e+02
9.240000000000000568e+01 1.915611528987608096e+02
9.280000000000001137e+01 1.912147120585393054e+02
9.320000000000000284e+01 1.908703685557840402e+02
9.360000000000000853e+01 1.905281004635280340e+02
9.400000000000000000e+01 1.901878861812247692e+02
9.440000000000000568e+01 1.898497044284419530e+02
9.480000000000001137e+01 1.895135342387060575e+02
9.520000000000000284e+01 1.891793549534913836e+02
9.560000000000000853e+01 1.888471462163506089e+02
9.600000000000000000e+01 1.885168879671831803e+02
9.640000000000000568e+01 1.881885604366369762e+02
9.680000000000001137e+01 1.878621441406400834e+02
9.720000000000000284e+01 1.875376198750588514e+02
9.760000000000000853e+01 1.872149687104788995e+02
9.800000000000000000e+01 1.868941719871056364e+02
9.840000000000000568e+01 1.865752113097810252e+02
9.880000000000001137e+01 1.862580685431135805e+02
9.920000000000000284e+01 1.859427258067186699e+02
9.960000000000000853e+01 1.856291654705655390e+02
1.000000000000000000e+02 1.853173701504288147e+02
1.004000000000000057e+02 1.850073227034420142e+02
1.008000000000000114e+02 1.846990062237489667e+02
1.012000000000000028e+02 1.843924040382524652e+02
1.016000000000000085e+02 1.840874997024557445e+02
1.020000000000000000e+02 1.837842769963961018e+02
1.024000000000000057e+02 1.834827199206663977e+02
1.028000000000000114e+02 1.831828126925242373e+02
1.032000000000000028e+02 1.828845397420847405e+02
1.036000000000000085e+02 1.825878857085957065e+02
1.040000000000000000e+02 1.822928354367929273e+02
1.044000000000000057e+02 1.819993739733335758e+02
1.048000000000000114e+02 1.817074865633054799e+02
1.052000000000000028e+02 1.814171586468107193e+02
1.056000000000000085e+02 1.811283758556214707e+02
1.060000000000000000e+02 1.808411240099061956e+02
1.064000000000000057e+02 1.805553891150246955e+02
1.068000000000000114e+02 1.802711573583899565e+02
1.072000000000000028e+02 1.799884151063953937e+02
1.076000000000000085e+02 1.797071489014062422e+02
1.080000000000000000e+02 1.794273454588121695e+02
1.084000000000000057e+02 1.791489916641414482e+02
1.088000000000000114e+02 1.788720745702338775e+02
1.092000000000000028e+02 1.785965813944714000e+02
1.096000000000000085e+02 1.783224995160651076e+02
1.100000000000000000e+02 1.780498164733969872e+02
1.104000000000000057e+02 1.777785199614159524e+02
1.108000000000000114e+02 1.775085978290853745e+02
1.112000000000000028e+02 1.772400380768824277e+02
1.116000000000000085e+02 1.769728288543469432e+02
1.120000000000000000e+02 1.767069584576790646e+02
1.124000000000000057e+02 1.764424153273845093e+02
1.128000000000000114e+02 1.761791880459663560e+02
1.132000000000000028e+02 1.759172653356620231e+02
1.136000000000000085e+02 1.756566360562246985e+02
1.140000000000000000e+02 1.753972892027479986e+02
1.144000000000000057e+02 1.751392139035327773e+02
1.148000000000000114e+02 1.748823994179957140e+02
1.152000000000000028e+02 1.746268351346175223e+02
1.156000000000000085e+02 1.743725105689312898e+02
1.160000000000000000e+02 1.741194153615488176e+02
1.164000000000000057e+02 1.738675392762251306e+02
1.168000000000000114e+02 1.736168721979592817e+02
1.172000000000000028e+02 1.733674041311315364e+02
1.176000000000000085e+02 1.731191251976754302e+02
1.180000000000000000e+02 1.728720256352845297e+02
1.184000000000000057e+02 1.726260957956525033e+02
1.188000000000000114e+02 1.723813261427462749e+02
1.192000000000000028e+02 1.721377072511111805e+02
1.196000000000000085e+02 1.718952298042075597e+02
1.200000000000000000e+02 1.716538845927784394e+02
1.204000000000000057e+02 1.714136625132464928e+02
1.208000000000000114e+02 1.711745545661413814e+02
1.212000000000000028e+02 1.709365518545552902e+02
1.216000000000000085e+02 1.706996455826263741e+02
1.220000000000000000e+02 1.704638270540506539e+02
1.224000000000000057e+02 1.702290876706197196e+02
1.228000000000000114e+02 1.699954189307860020e+02
1.232000000000000028e+02 1.697628124282525732e+02
1.236000000000000085e+02 1.695312598505893504e+02
1.240000000000000000e+02 1.693007529778732589e+02
1.244000000000000057e+02 1.690712836813529520e+02
1.248000000000000114e+02 1.688428439221371491e+02
1.252000000000000028e+02 1.686154257499060520e+02
1.256000000000000085e+02 1.683890213016455846e+02
1.260000000000000000e+02 1.681636228004037434e+02
1.264000000000000057e+02 1.679392225540689765e+02
1.268000000000000114e+02 1.677158129541692801e+02
1.272000000000000028e+02 1.674933864746931818e+02
1.276000000000000085e+02 1.672719356709299063e+02
1.280000000000000000e+02 1.670514531783306893e+02
1.284000000000000057e+02 1.668319317113889326e+02
1.288000000000000114e+02 1.666133640625400005e+02
1.291999999999999886e+02 1.663957431010796597e+02
1.296000000000000227e+02 1.661790617721009085e+02
1.300000000000000000e+02 1.659633130954492231e+02
1.304000000000000057e+02 1.657484901646948288e+02
1.308000000000000114e+02 1.655345861461231607e+02
1.311999999999999886e+02 1.653215942777415535e+02
1.316000000000000227e+02 1.651095078683030692e+02
1.320000000000000000e+02 1.648983202963466965e+02
1.324000000000000057e+02 1.646880250092529536e+02
1.328000000000000114e+02 1.644786155223158630e+02
1.331999999999999886e+02 1.642700854178302166e+02
1.336000000000000227e+02 1.640624283441933642e+02
1.340000000000000000e+02 1.638556380150222935e+02
1.344000000000000057e+02 1.636497082082853183e+02
1.348000000000000114e+02 1.634446327654473237e+02
1.351999999999999886e+02 1.632404055906298197e+02
1.356000000000000227e+02 1.630370206497836421e+02
1.360000000000000000e+02 1.628344719698762617e+02
1.364000000000000057e+02 1.626327536380909464e+02
1.368000000000000114e+02 1.624318598010399910e+02
1.371999999999999886e+02 1.622317846639897141e+02
1.376000000000000227e+02 1.620325224900983585e+02
1.380000000000000000e+02 1.618340675996660423e+02
1.384000000000000057e+02 1.616364143693965048e+02
1.388000000000000114e+02 1.614395572316708467e+02
1.392000000000000171e+02 1.612434906738324116e+02
1.395999999999999943e+02 1.610482092374833769e+02
1.400000000000000000e+02 1.608537075177918609e+02
1.404000000000000057e+02 1.606599801628105126e+02
1.408000000000000114e+02 1.604670218728052475e+02
1.412000000000000171e+02 1.602748273995948125e+02
1.415999999999999943e+02 1.600833915459003265e+02
1.420000000000000000e+02 1.598927091647049963e+02
1.424000000000000057e+02 1.597027751586239788e+02
1.428000000000000114e+02 1.595135844792835087e+02
1.432000000000000171e+02 1.593251321267100025e+02
1.435999999999999943e+02 1.591374131487279726e+02
1.440000000000000000e+02 1.589504226403680320e+02
1.444000000000000057e+02 1.587641557432826858e+02
1.448000000000000114e+02 1.585786076451722408e+02
1.452000000000000171e+02 1.583937735792185606e+02
1.455999999999999943e+02 1.582096488235277434e+02
1.460000000000000000e+02 1.580262287005809299e+02
1.464000000000000057e+02 1.578435085766937789e+02
1.468000000000000114e+02 1.576614838614836458e+02
1.472000000000000171e+02 1.574801500073448892e+02
1.475999999999999943e+02 1.572995025089317949e+02
1.480000000000000000e+02 1.571195369026496564e+02
1.484000000000000057e+02 1.569402487661527061e+02
1.488000000000000114e+02 1.567616337178502022e+02
1.492000000000000171e+02 1.565836874164190249e+02
1.495999999999999943e+02 1.564064055603240888e+02
1.500000000000000000e+02 1.562297838873453202e+02
