1.000000000000000000e+01 1.790927181841047968e+02
1.040000000000000036e+01 1.796804336796512302e+02
1.080000000000000071e+01 1.802896932737968712e+02
1.119999999999999929e+01 1.903681822884797725e+02
1.159999999999999964e+01 1.986528852117070301e+02
1.200000000000000000e+01 2.113608208430224522e+02
1.240000000000000036e+01 2.237854073783012439e+02
1.280000000000000071e+01 2.359159952629019585e+02
1.319999999999999929e+01 2.524975275726025359e+02
1.359999999999999964e+01 2.717911198541389695e+02
1.400000000000000000e+01 3.014271063015486334e+02
1.440000000000000036e+01 3.211699368136486328e+02
1.480000000000000071e+01 3.150373160683215588e+02
1.519999999999999929e+01 3.093411375772013798e+02
1.560000000000000142e+01 3.040277052374540290e+02
1.600000000000000000e+01 2.990524962748188500e+02
1.639999999999999858e+01 2.943781954595292518e+02
1.680000000000000071e+01 2.899732280958131696e+02
1.719999999999999929e+01 2.858106473501298979e+02
1.760000000000000142e+01 2.818672780310776602e+02
1.800000000000000000e+01 2.781230490879772219e+02
1.839999999999999858e+01 2.745604670794386948e+02
1.880000000000000071e+01 2.711641963813284519e+02
1.920000000000000284e+01 2.679207212181894420e+02
1.960000000000000142e+01 2.648180711289453484e+02
2.000000000000000000e+01 2.618455961215297521e+02
2.039999999999999858e+01 2.589937811217783974e+02
2.080000000000000071e+01 2.562540917709306996e+02
2.120000000000000284e+01 2.536188454374646994e+02
2.160000000000000142e+01 2.510811026635749954e+02
2.200000000000000000e+01 2.486345752900016350e+02
2.239999999999999858e+01 2.462735482834865479e+02
2.280000000000000071e+01 2.439928128918062669e+02
2.320000000000000284e+01 2.417876092174267910e+02
2.360000000000000142e+01 2.396535766653203154e+02
2.400000000000000000e+01 2.375867110076256665e+02
2.439999999999999858e+01 2.355833270355996660e+02
2.480000000000000071e+01 2.336400259511537456e+02
2.520000000000000284e+01 2.317536667963533432e+02
2.560000000000000142e+01 2.299213413372899026e+02
2.600000000000000000e+01 2.281403519146353460e+02
2.640000000000000213e+01 2.264081918515124130e+02
2.680000000000000071e+01 2.247225280736003583e+02
2.719999999999999929e+01 2.230811856494145502e+02
2.760000000000000142e+01 2.214821340026171299e+02
2.800000000000000000e+01 2.199234745847579688e+02
2.840000000000000213e+01 2.184034298273707293e+02
2.880000000000000071e+01 2.169203332179517929e+02
2.920000000000000284e+01 2.154726203659024577e+02
2.960000000000000142e+01 2.140588209427249637e+02
3.000000000000000000e+01 2.126775513962016930e+02
3.040000000000000213e+01 2.113275083514168671e+02
3.080000000000000071e+01 2.100074626226889336e+02
3.120000000000000284e+01 2.087162537700701250e+02
3.160000000000000142e+01 2.074527851423050038e+02
3.200000000000000000e+01 2.062160193552271039e+02
3.240000000000000568e+01 2.050049741606918019e+02
3.279999999999999716e+01 2.038187186664397927e+02
3.320000000000000284e+01 2.026563698718780699e+02
3.360000000000000142e+01 2.015170894887662598e+02
3.400000000000000000e+01 2.004000810192763709e+02
3.440000000000000568e+01 1.993045870669425028e+02
3.479999999999999716e+01 1.982298868586827325e+02
3.520000000000000284e+01 1.971752939584156366e+02
3.560000000000000142e+01 1.961401541548535192e+02
3.600000000000000000e+01 1.951238435078680595e+02
3.640000000000000568e+01 1.941257665394255412e+02
3.679999999999999716e+01 1.931453545565070726e+02
3.720000000000000284e+01 1.921820640946831418e+02
3.760000000000000142e+01 1.912353754721289647e+02
3.800000000000000000e+01 1.903047914448561642e+02
3.840000000000000568e+01 1.893898359548224732e+02
3.879999999999999716e+01 1.884900529633665087e+02
3.920000000000000284e+01 1.876050053631204833e+02
3.960000000000000142e+01 1.867342739621847159e+02
4.000000000000000000e+01 1.858774565349106638e+02
4.040000000000000568e+01 1.850341669341494821e+02
4.079999999999999716e+01 1.842040342602763303e+02
4.120000000000000284e+01 1.833867020827129295e+02
4.160000000000000142e+01 1.825818277100406988e+02
4.200000000000000000e+01 1.817890815051297579e+02
4.239999999999999858e+01 1.810081462420123444e+02
4.280000000000000426e+01 1.802387165015015285e+02
4.320000000000000284e+01 1.794804981028034661e+02
4.360000000000000142e+01 1.787332075685962991e+02
4.400000000000000000e+01 1.779965716212524569e+02
4.439999999999999858e+01 1.772703267080665057e+02
4.480000000000000426e+01 1.765542185535185240e+02
4.520000000000000284e+01 1.758480017367587607e+02
4.560000000000000142e+01 1.751514392926364962e+02
4.600000000000000000e+01 1.744643023347260282e+02
4.639999999999999858e+01 1.737863696989198843e+02
4.680000000000000426e+01 1.731174276062642434e+02
4.720000000000000284e+01 1.724572693438118165e+02
4.760000000000000142e+01 1.718056949623555454e+02
4.800000000000000000e+01 1.711625109899898405e+02
4.840000000000000568e+01 1.705275301605212235e+02
4.880000000000000426e+01 1.699005711558198755e+02
4.920000000000000284e+01 1.692814583612674824e+02
4.960000000000000142e+01 1.686700216335153470e+02
5.000000000000000000e+01 1.680660960798223016e+02
5.040000000000000568e+01 1.674695218482891903e+02
5.080000000000000426e+01 1.668801439283563184e+02
5.120000000000000284e+01 1.662978119609698524e+02
5.160000000000000142e+01 1.657223800578644841e+02
5.200000000000000000e+01 1.651537066294453098e+02
5.240000000000000568e+01 1.645916542207856139e+02
5.280000000000000426e+01 1.640360893552885955e+02
5.320000000000000284e+01 1.634868823855904054e+02
5.360000000000000142e+01 1.629439073513077858e+02
5.400000000000000000e+01 1.624070418432600036e+02
5.440000000000000568e+01 1.618761668738159756e+02
5.480000000000000426e+01 1.613511667530412410e+02
5.520000000000000284e+01 1.608319289703374295e+02
5.560000000000000142e+01 1.603183440812871368e+02
5.600000000000000000e+01 1.598103055994331783e+02
5.640000000000000568e+01 1.593077098927384725e+02
5.680000000000000426e+01 1.588104560844869013e+02
5.720000000000000284e+01 1.583184459584007300e+02
5.760000000000000142e+01 1.578315838677617649e+02
5.800000000000000000e+01 1.573497766483371834e+02
5.840000000000000568e+01 1.568729335349216569e+02
5.880000000000000426e+01 1.564009660813182450e+02
5.920000000000000284e+01 1.559337880835906844e+02
5.960000000000000142e+01 1.554713155064286241e+02
6.000000000000000000e+01 1.550134664124773565e+02
6.040000000000000568e+01 1.545601608944899112e+02
6.080000000000000426e+01 1.541113210101694335e+02
6.120000000000000284e+01 1.536668707195748027e+02
6.160000000000000142e+01 1.532267358249706604e+02
6.200000000000000000e+01 1.527908439130090414e+02
6.240000000000000568e+01 1.523591242991359422e+02
6.280000000000000426e+01 1.519315079741209047e+02
6.320000000000000284e+01 1.515079275526146603e+02
6.360000000000000142e+01 1.510883172236430880e+02
6.400000000000000000e+01 1.506726127029519660e+02
6.440000000000000568e+01 1.502607511871202917e+02
6.480000000000001137e+01 1.498526713093644958e+02
6.520000000000000284e+01 1.494483130969603621e+02
6.559999999999999432e+01 1.490476179302120840e+02
6.600000000000000000e+01 1.486505285029022616e+02
6.640000000000000568e+01 1.482569887841596312e+02
6.680000000000001137e+01 1.478669439816843578e+02
6.720000000000000284e+01 1.474803405062734782e+02
6.759999999999999432e+01 1.470971259375929776e+02
6.800000000000000000e+01 1.467172489911432649e+02
6.840000000000000568e+01 1.463406594863705550e+02
6.880000000000001137e+01 1.459673083158753855e+02
6.920000000000000284e+01 1.455971474156753516e+02
6.959999999999999432e+01 1.452301297364776076e+02
7.000000000000000000e+01 1.448662092159220833e+02
7.040000000000000568e+01 1.445053407517558526e+02
7.080000000000001137e+01 1.441474801759016202e+02
7.120000000000000284e+01 1.437925842293856817e+02
7.159999999999999432e+01 1.434406105380907661e+02
7.200000000000000000e+01 1.430915175893025548e+02
7.240000000000000568e+01 1.427452647090186133e+02
7.280000000000001137e+01 1.424018120399904603e+02
7.320000000000000284e+01 1.420611205204709790e+02
7.359999999999999432e+01 1.417231518636399699e+02
7.400000000000000000e+01 1.413878685376827775e+02
7.440000000000000568e+01 1.410552337464969810e+02
7.479999999999999716e+01 1.407252114110038406e+02
7.520000000000000284e+01 1.403977661510423616e+02
7.560000000000000853e+01 1.400728632678241183e+02
7.600000000000000000e+01 1.397504687269283181e+02
7.640000000000000568e+01 1.394305491418177780e+02
7.679999999999999716e+01 1.391130717578565736e+02
7.720000000000000284e+01 1.387980044368110839e+02
7.760000000000000853e+01 1.384853156418180049e+02
7.800000000000000000e+01 1.381749744228019097e+02
7.840000000000000568e+01 1.378669504023261823e+02
7.879999999999999716e+01 1.375612137618633994e+02
7.920000000000000284e+01 1.372577352284689312e+02
7.960000000000000853e+01 1.369564860618445721e+02
8.000000000000000000e+01 1.366574380417789030e+02
8.040000000000000568e+01 1.363605634559503414e+02
8.079999999999999716e+01 1.360658350880817693e+02
8.120000000000000284e+01 1.357732262064340603e+02
8.160000000000000853e+01 1.354827105526266848e+02
8.200000000000000000e+01 1.351942623307753593e+02
8.240000000000000568e+01 1.349078561969351426e+02
8.279999999999999716e+01 1.346234672488395177e+02
8.320000000000000284e+01 1.343410710159252517e+02
8.360000000000000853e+01 1.340606434496335169e+02
8.400000000000000000e+01 1.337821609139787711e+02
8.440000000000000568e+01 1.335056001763758786e+02
8.479999999999999716e+01 1.332309383987179103e+02
8.520000000000000284e+01 1.329581531286955283e+02
8.560000000000000853e+01 1.326872222913517021e+02
8.600000000000000000e+01 1.324181241808621223e+02
8.640000000000000568e+01 1.321508374525364786e+02
8.680000000000001137e+01 1.318853411150315651e+02
8.720000000000000284e+01 1.316216145227708978e+02
8.760000000000000853e+01 1.313596373685638525e+02
8.800000000000000000e+01 1.310993896764179567e+02
8.840000000000000568e+01 1.308408517945389349e+02
8.880000000000001137e+01 1.305840043885117439e+02
8.920000000000000284e+01 1.303288284346583055e+02
8.960000000000000853e+01 1.300753052135652013e+02
9.000000000000000000e+01 1.298234163037773783e+02
9.040000000000000568e+01 1.295731435756518977e+02
9.080000000000001137e+01 1.293244691853673771e+02
9.120000000000000284e+01 1.290773755690843529e+02
9.160000000000000853e+01 1.288318454372522410e+02
9.200000000000000000e+01 1.285878617690582644e+02
9.240000000000000568e+01 1.283454078070139985e+02
9.280000000000001137e+01 1.281044670516762380e+02
9.320000000000000284e+01 1.278650232564974232e+02
9.360000000000000853e+01 1.276270604228022876e+02
9.400000000000000000e+01 1.273905627948871029e+02
9.440000000000000568e+01 1.271555148552374419e+02
9.480000000000001137e+01 1.269219013198621155e+02
9.520000000000000284e+01 1.266897071337386791e+02
9.560000000000000853e+01 1.264589174663683622e+02
9.600000000000000000e+01 1.262295177074366848e+02
9.640000000000000568e+01 1.260014934625771446e+02
9.680000000000001137e+01 1.257748305492350056e+02
9.720000000000000284e+01 1.255495149926280192e+02
9.760000000000000853e+01 1.253255330218022152e+02
9.800000000000000000e+01 1.251028710657789418e+02
9.840000000000000568e+01 1.248815157497919017e+02
9.880000000000001137e+01 1.246614538916107051e+02
9.920000000000000284e+01 1.244426724979492462e+02
9.960000000000000853e+01 1.242251587609561625e+02
1.000000000000000000e+02 1.240089000547851299e+02
1.004000000000000057e+02 1.237938839322436309e+02
1.008000000000000114e+02 1.235800981215166701e+02
1.012000000000000028e+02 1.233675305229649268e+02
1.016000000000000085e+02 1.231561692059941322e+02
1.020000000000000000e+02 1.229460024059948609e+02
1.024000000000000057e+02 1.227370185213496399e+02
1.028000000000000114e+02 1.225292061105070047e+02
1.032000000000000028e+02 1.223225538891195470e+02
1.036000000000000085e+02 1.221170507272450152e+02
1.040000000000000000e+02 1.219126856466083950e+02
1.044000000000000057e+02 1.217094478179238166e+02
1.048000000000000114e+02 1.215073265582743147e+02
1.052000000000000028e+02 1.213063113285482473e+02
1.056000000000000085e+02 1.211063917309308522e+02
1.060000000000000000e+02 1.209075575064493790e+02
1.064000000000000057e+02 1.207097985325708009e+02
1.068000000000000114e+02 1.205131048208503302e+02
1.072000000000000028e+02 1.203174665146297571e+02
1.076000000000000085e+02 1.201228738867843902e+02
1.080000000000000000e+02 1.199293173375171904e+02
1.084000000000000057e+02 1.197367873921988917e+02
1.088000000000000114e+02 1.195452746992533548e+02
1.092000000000000028e+02 1.193547700280866621e+02
1.096000000000000085e+02 1.191652642670589444e+02
1.100000000000000000e+02 1.189767484214979021e+02
1.104000000000000057e+02 1.187892136117532971e+02
1.108000000000000114e+02 1.186026510712908646e+02
1.112000000000000028e+02 1.184170521448252344e+02
1.116000000000000085e+02 1.182324082864905677e+02
1.120000000000000000e+02 1.180487110580481556e+02
1.124000000000000057e+02 1.178659521271299013e+02
1.128000000000000114e+02 1.176841232655174565e+02
1.132000000000000028e+02 1.175032163474550657e+02
1.136000000000000085e+02 1.173232233479964464e+02
1.140000000000000000e+02 1.171441363413842538e+02
1.144000000000000057e+02 1.169659474994613646e+02
1.148000000000000114e+02 1.167886490901137790e+02
1.152000000000000028e+02 1.166122334757436079e+02
1.156000000000000085e+02 1.164366931117721151e+02
1.160000000000000000e+02 1.162620205451717368e+02
1.164000000000000057e+02 1.160882084130267344e+02
1.168000000000000114e+02 1.159152494411213752e+02
1.172000000000000028e+02 1.157431364425554250e+02
1.176000000000000085e+02 1.155718623163860741e+02
1.180000000000000000e+02 1.154014200462960105e+02
1.184000000000000057e+02 1.152318026992864759e+02
1.188000000000000114e+02 1.150630034243954185e+02
1.192000000000000028e+02 1.148950154514397752e+02
1.196000000000000085e+02 1.147278320897811739e+02
1.200000000000000000e+02 1.145614467271152535e+02
1.204000000000000057e+02 1.143958528282831537e+02
1.208000000000000114e+02 1.142310439341055144e+02
1.212000000000000028e+02 1.140670136602377625e+02
1.216000000000000085e+02 1.139037556960468152e+02
1.220000000000000000e+02 1.137412638035085024e+02
1.224000000000000057e+02 1.135795318161249838e+02
1.228000000000000114e+02 1.134185536378622317e+02
1.232000000000000028e+02 1.132583232421068828e+02
1.236000000000000085e+02 1.130988346706417360e+02
1.240000000000000000e+02 1.129400820326403050e+02
1.244000000000000057e+02 1.127820595036790223e+02
1.248000000000000114e+02 1.126247613247676611e+02
1.252000000000000028e+02 1.124681818013967813e+02
1.256000000000000085e+02 1.123123153026024283e+02
1.260000000000000000e+02 1.121571562600472731e+02
1.264000000000000057e+02 1.120026991671184220e+02
1.268000000000000114e+02 1.118489385780406877e+02
1.272000000000000028e+02 1.116958691070059899e+02
1.276000000000000085e+02 1.115434854273177052e+02
1.280000000000000000e+02 1.113917822705501806e+02
1.284000000000000057e+02 1.112407544257227698e+02
1.288000000000000114e+02 1.110903967384885220e+02
1.291999999999999886e+02 1.109407041103365543e+02
1.296000000000000227e+02 1.107916714978084940e+02
1.300000000000000000e+02 1.106432939117284633e+02
1.304000000000000057e+02 1.104955664164459108e+02
1.308000000000000114e+02 1.103484841290918723e+02
1.311999999999999886e+02 1.102020422188476800e+02
1.316000000000000227e+02 1.100562359062259645e+02
1.320000000000000000e+02 1.099110604623643184e+02
1.324000000000000057e+02 1.097665112083303427e+02
1.328000000000000114e+02 1.096225835144387020e+02
1.331999999999999886e+02 1.094792727995798032e+02
1.336000000000000227e+02 1.093365745305592753e+02
1.340000000000000000e+02 1.091944842214488176e+02
1.344000000000000057e+02 1.090529974329477341e+02
1.348000000000000114e+02 1.089121097717550981e+02
1.351999999999999886e+02 1.087718168899521487e+02
1.356000000000000227e+02 1.086321144843950606e+02
1.360000000000000000e+02 1.084929982961176904e+02
1.364000000000000057e+02 1.083544641097438017e+02
1.368000000000000114e+02 1.082165077529092230e+02
1.371999999999999886e+02 1.080791250956934562e+02
1.376000000000000227e+02 1.079423120500599964e+02
1.380000000000000000e+02 1.078060645693064004e+02
1.384000000000000057e+02 1.076703786475226110e+02
1.388000000000000114e+02 1.075352503190585054e+02
1.392000000000000171e+02 1.074006756579995283e+02
1.395999999999999943e+02 1.072666507776510798e+02
1.400000000000000000e+02 1.071331718300308182e+02
1.404000000000000057e+02 1.070002350053692339e+02
1.408000000000000114e+02 1.068678365316181242e+02
1.412000000000000171e+02 1.067359726739666712e+02
1.415999999999999943e+02 1.066046397343652785e+02
1.420000000000000000e+02 1.064738340510568548e+02
1.424000000000000057e+02 1.063435519981154584e+02
1.428000000000000114e+02 1.062137899849920331e+02
1.432000000000000171e+02 1.060845444560673911e+02
1.435999999999999943e+02 1.059558118902119190e+02
1.440000000000000000e+02 1.058275888003523164e+02
1.444000000000000057e+02 1.056998717330448017e+02
1.448000000000000114e+02 1.055726572680550959e+02
1.452000000000000171e+02 1.054459420179447307e+02
1.455999999999999943e+02 1.053197226276635661e+02
1.460000000000000000e+02 1.051939957741488456e+02
1.464000000000000057e+02 1.050687581659299923e+02
1.468000000000000114e+02 1.049440065427396291e+02
1.472000000000000171e+02 1.048197376751304546e+02
1.475999999999999943e+02 1.046959483640977311e+02
1.480000000000000000e+02 1.045726354407076428e+02
1.484000000000000057e+02 1.044497957657311673e+02
1.488000000000000114e+02 1.043274262292833896e+02
1.492000000000000171e+02 1.042055237504681031e+02
1.495999999999999943e+02 1.040840852770278957e+02
1.500000000000000000e+02 1.039631077849993517e+02
