1.000000000000000000e+01 1.453852749591474094e+02
1.040000000000000036e+01 1.547384683470037601e+02
1.080000000000000071e+01 1.627123348132017782e+02
1.119999999999999929e+01 1.687156916237263715e+02
1.159999999999999964e+01 1.736496358254895540e+02
1.200000000000000000e+01 1.794053639553886512e+02
1.240000000000000036e+01 1.879556747924468141e+02
1.280000000000000071e+01 2.003953477939349170e+02
1.319999999999999929e+01 2.163076510664904220e+02
1.359999999999999964e+01 2.336986933458447595e+02
1.400000000000000000e+01 2.495134031417430549e+02
1.440000000000000036e+01 2.605321763525383858e+02
1.480000000000000071e+01 2.643309830428078158e+02
1.519999999999999929e+01 2.599953267325148545e+02
1.560000000000000142e+01 2.483796674586599522e+02
1.600000000000000000e+01 2.318482099329357027e+02
1.639999999999999858e+01 2.135807795145312582e+02
1.680000000000000071e+01 1.966536256486582488e+02
1.719999999999999929e+01 1.831824393232112982e+02
1.760000000000000142e+01 1.738093195321068549e+02
1.800000000000000000e+01 1.677062978524884613e+02
1.839999999999999858e+01 1.630789881927609883e+02
1.880000000000000071e+01 1.579588086564604055e+02
1.920000000000000284e+01 1.509620226975129924e+02
1.960000000000000142e+01 1.417250335764193778e+02
2.000000000000000000e+01 1.308852489115786284e+02
2.039999999999999858e+01 1.196876509872895298e+02
2.080000000000000071e+01 1.094551131027139519e+02
2.120000000000000284e+01 1.011885360604538135e+02
2.160000000000000142e+01 9.545214864376870878e+01
2.200000000000000000e+01 9.251626330899128448e+01
2.239999999999999858e+01 9.258121990953391389e+01
2.280000000000000071e+01 9.587761921869888226e+01
2.320000000000000284e+01 1.025411352194119132e+02
2.360000000000000142e+01 1.123262368865227785e+02
2.400000000000000000e+01 1.243467482260034700e+02
2.439999999999999858e+01 1.370377057943323678e+02
2.480000000000000071e+01 1.484226491417948921e+02
2.520000000000000284e+01 1.566117373191262629e+02
2.560000000000000142e+01 1.603374614675257419e+02
2.600000000000000000e+01 1.593122972255075922e+02
2.640000000000000213e+01 1.542673459811830696e+02
2.680000000000000071e+01 1.466617237251369943e+02
2.719999999999999929e+01 1.381837496252913695e+02
2.760000000000000142e+01 1.302471090440458852e+02
2.800000000000000000e+01 1.236838631870074607e+02
2.840000000000000213e+01 1.187440507714001114e+02
2.880000000000000071e+01 1.153620121331969699e+02
2.920000000000000284e+01 1.135142615065181673e+02
2.960000000000000142e+01 1.134488923401768403e+02
3.000000000000000000e+01 1.156421807270100288e+02
3.040000000000000213e+01 1.204925947915425155e+02
3.080000000000000071e+01 1.279082582885572776e+02
3.120000000000000284e+01 1.370057843328713716e+02
3.160000000000000142e+01 1.460956639496831713e+02
3.200000000000000000e+01 1.530133361623337009e+02
3.240000000000000568e+01 1.557168299597126975e+02
3.279999999999999716e+01 1.529576442569603785e+02
3.320000000000000284e+01 1.447787520204558405e+02
3.360000000000000142e+01 1.326299790440310176e+02
3.400000000000000000e+01 1.190187678619378033e+02
3.440000000000000568e+01 1.067922021957124485e+02
3.479999999999999716e+01 9.829737310966815755e+01
3.520000000000000284e+01 9.471958314377741317e+01
3.560000000000000142e+01 9.582680689757434322e+01
3.600000000000000000e+01 1.001884504423429831e+02
3.640000000000000568e+01 1.057563307862583741e+02
3.679999999999999716e+01 1.105666818809239089e+02
3.720000000000000284e+01 1.132921408015047575e+02
3.760000000000000142e+01 1.134547019159762868e+02
3.800000000000000000e+01 1.112727251633859993e+02
3.840000000000000568e+01 1.072839524575098267e+02
3.879999999999999716e+01 1.019764246123277474e+02
3.920000000000000284e+01 9.562174543180171327e+01
3.960000000000000142e+01 8.836536171732039691e+01
4.000000000000000000e+01 8.047325011319905741e+01
4.040000000000000568e+01 7.255467196579928668e+01
4.079999999999999716e+01 6.561156953344926990e+01
4.120000000000000284e+01 6.087010022595040937e+01
4.160000000000000142e+01 5.945734220114396607e+01
4.200000000000000000e+01 6.204409248983467506e+01
4.239999999999999858e+01 6.857597337809403371e+01
4.280000000000000426e+01 7.818277708495904221e+01
4.320000000000000284e+01 8.931045671666988994e+01
4.360000000000000142e+01 1.000637604243535748e+02
4.400000000000000000e+01 1.086781694642324538e+02
4.439999999999999858e+01 1.139742569390179909e+02
4.480000000000000426e+01 1.156247810435661734e+02
4.520000000000000284e+01 1.141197372742589522e+02
4.560000000000000142e+01 1.104420187772498991e+02
4.600000000000000000e+01 1.056079995107237721e+02
4.639999999999999858e+01 1.003003843646130093e+02
4.680000000000000426e+01 9.477245877983021671e+01
4.720000000000000284e+01 8.905264376587582831e+01
4.760000000000000142e+01 8.331089395109835039e+01
4.800000000000000000e+01 7.816083827974681242e+01
4.840000000000000568e+01 7.470964846937174286e+01
4.880000000000000426e+01 7.430107226954352484e+01
4.920000000000000284e+01 7.804708523313973956e+01
4.960000000000000142e+01 8.633710880915258201e+01
5.000000000000000000e+01 9.852054385442140472e+01
5.040000000000000568e+01 1.128914492746888101e+02
5.080000000000000426e+01 1.269977819134919343e+02
5.120000000000000284e+01 1.381888542493268233e+02
5.160000000000000142e+01 1.442370463635156455e+02
5.200000000000000000e+01 1.438483968262738131e+02
5.240000000000000568e+01 1.369184930257261499e+02
5.280000000000000426e+01 1.244774935563039691e+02
5.320000000000000284e+01 1.083661415153295735e+02
5.360000000000000142e+01 9.075860981398717797e+01
5.400000000000000000e+01 7.367800580443260117e+01
5.440000000000000568e+01 5.863383891399504222e+01
5.480000000000000426e+01 4.645823410546283583e+01
5.520000000000000284e+01 3.734852306934259758e+01
5.560000000000000142e+01 3.106232313843992188e+01
5.600000000000000000e+01 2.717848623942043673e+01
5.640000000000000568e+01 2.534079905762913398e+01
5.680000000000000426e+01 2.542979158208584067e+01
5.720000000000000284e+01 2.763877309727428155e+01
5.760000000000000142e+01 3.244545666965032638e+01
5.800000000000000000e+01 4.047142065965496727e+01
5.840000000000000568e+01 5.222855241561152440e+01
5.880000000000000426e+01 6.778686344604879821e+01
5.920000000000000284e+01 8.646071119913297309e+01
5.960000000000000142e+01 1.066633944245848795e+02
6.000000000000000000e+01 1.260677900165393055e+02
6.040000000000000568e+01 1.421040805439113228e+02
6.080000000000000426e+01 1.526608311114411549e+02
6.120000000000000284e+01 1.567263517623788402e+02
6.160000000000000142e+01 1.547030619954457791e+02
6.200000000000000000e+01 1.482634093410875096e+02
6.240000000000000568e+01 1.398148076588139759e+02
6.280000000000000426e+01 1.317900060214707310e+02
6.320000000000000284e+01 1.260106746171045842e+02
6.360000000000000142e+01 1.233005764019783896e+02
6.400000000000000000e+01 1.234156481620361347e+02
6.440000000000000568e+01 1.252670537129701671e+02
6.480000000000001137e+01 1.273548113513868572e+02
6.520000000000000284e+01 1.282937101430929943e+02
6.559999999999999432e+01 1.272942369999187093e+02
6.600000000000000000e+01 1.244670734317349741e+02
6.640000000000000568e+01 1.208579856674179496e+02
6.680000000000001137e+01 1.181848652720055384e+02
6.720000000000000284e+01 1.183251350199311815e+02
6.759999999999999432e+01 1.226763649993266938e+02
6.800000000000000000e+01 1.315736282263080454e+02
6.840000000000000568e+01 1.439709135430811102e+02
6.880000000000001137e+01 1.575466188163167658e+02
6.920000000000000284e+01 1.692575525630309414e+02
6.959999999999999432e+01 1.761794758027575369e+02
7.000000000000000000e+01 1.763292927825280572e+02
7.040000000000000568e+01 1.691595792181194327e+02
7.080000000000001137e+01 1.555688080777653113e+02
7.120000000000000284e+01 1.374950439191547957e+02
7.159999999999999432e+01 1.173241102810087853e+02
7.200000000000000000e+01 9.736138067194909240e+01
7.240000000000000568e+01 7.950840118526961930e+01
7.280000000000001137e+01 6.514338712156232702e+01
7.320000000000000284e+01 5.511569798530847208e+01
7.359999999999999432e+01 4.975790262075705783e+01
7.400000000000000000e+01 4.886955754426622178e+01
7.440000000000000568e+01 5.169096415354660223e+01
7.479999999999999716e+01 5.692925789833717687e+01
7.520000000000000284e+01 6.290382404102791014e+01
7.560000000000000853e+01 6.783652716221151024e+01
7.600000000000000000e+01 7.023721057893004627e+01
7.640000000000000568e+01 6.926367243022987452e+01
7.679999999999999716e+01 6.491517238557837288e+01
7.720000000000000284e+01 5.797360045176818488e+01
7.760000000000000853e+01 4.971335663026070506e+01
7.800000000000000000e+01 4.149958011728561047e+01
7.840000000000000568e+01 3.442903876029497212e+01
7.879999999999999716e+01 2.912603270252244414e+01
7.920000000000000284e+01 2.572149243846017441e+01
7.960000000000000853e+01 2.396879540320973589e+01
8.000000000000000000e+01 2.341773479524517043e+01
8.040000000000000568e+01 2.357828772109368032e+01
8.079999999999999716e+01 2.403624255570855084e+01
8.120000000000000284e+01 2.451088497102962549e+01
8.160000000000000853e+01 2.486125194503871683e+01
8.200000000000000000e+01 2.505451514272471059e+01
8.240000000000000568e+01 2.511391509853540427e+01
8.279999999999999716e+01 2.506666089016789201e+01
8.320000000000000284e+01 2.491188242828462762e+01
8.360000000000000853e+01 2.462186128442486677e+01
8.400000000000000000e+01 2.417698692317871689e+01
8.440000000000000568e+01 2.362155892970276483e+01
8.479999999999999716e+01 2.312007124389303669e+01
8.520000000000000284e+01 2.299410755784105476e+01
8.560000000000000853e+01 2.372454017765014100e+01
8.600000000000000000e+01 2.590664225611920202e+01
8.640000000000000568e+01 3.014676730036217123e+01
8.680000000000001137e+01 3.689690785157965536e+01
8.720000000000000284e+01 4.624844603903681417e+01
8.760000000000000853e+01 5.774770540867990576e+01
8.800000000000000000e+01 7.033066284548158364e+01
8.840000000000000568e+01 8.246553626613088284e+01
8.880000000000001137e+01 9.251714374139542940e+01
8.920000000000000284e+01 9.922749765625320606e+01
8.960000000000000853e+01 1.021117037987879996e+02
9.000000000000000000e+01 1.015727792007472345e+02
9.040000000000000568e+01 9.866605549002038344e+01
9.080000000000001137e+01 9.463059443805327930e+01
9.120000000000000284e+01 9.043525263725838670e+01
9.160000000000000853e+01 8.657118315043682344e+01
9.200000000000000000e+01 8.316590887365232732e+01
9.240000000000000568e+01 8.029690670563843469e+01
9.280000000000001137e+01 7.827048952924282332e+01
9.320000000000000284e+01 7.766953234253666949e+01
9.360000000000000853e+01 7.912687744669806023e+01
9.400000000000000000e+01 8.294853860342989549e+01
9.440000000000000568e+01 8.879520452403571085e+01
9.480000000000001137e+01 9.559686066341375010e+01
9.520000000000000284e+01 1.017583823827261682e+02
9.560000000000000853e+01 1.055837076428139341e+02
9.600000000000000000e+01 1.057628912974461315e+02
9.640000000000000568e+01 1.017547440456492751e+02
9.680000000000001137e+01 9.394822720211644196e+01
9.720000000000000284e+01 8.356965376713738181e+01
9.760000000000000853e+01 7.238685419354057160e+01
9.800000000000000000e+01 6.231695233702337333e+01
9.840000000000000568e+01 5.505434555199528290e+01
9.880000000000001137e+01 5.180291547431424704e+01
9.920000000000000284e+01 5.314532152128303721e+01
9.960000000000000853e+01 5.904301317964346651e+01
1.000000000000000000e+02 6.894694559167967896e+01
1.004000000000000057e+02 8.199553413101001809e+01
1.008000000000000114e+02 9.725550692544548781e+01
1.012000000000000028e+02 1.139190050440569024e+02
1.016000000000000085e+02 1.313456446221060787e+02
1.020000000000000000e+02 1.488866145906691827e+02
1.024000000000000057e+02 1.655601038756171306e+02
1.028000000000000114e+02 1.797915730581860885e+02
1.032000000000000028e+02 1.894694326682567294e+02
1.036000000000000085e+02 1.924271601392240427e+02
1.040000000000000000e+02 1.872055128307129337e+02
1.044000000000000057e+02 1.737389579434854454e+02
1.048000000000000114e+02 1.536021928233442395e+02
1.052000000000000028e+02 1.296647686712662164e+02
1.056000000000000085e+02 1.053001862433464595e+02
1.060000000000000000e+02 8.349486125419069538e+01
1.064000000000000057e+02 6.619999728555526985e+01
1.068000000000000114e+02 5.410459592544744112e+01
1.072000000000000028e+02 4.680667816622931809e+01
1.076000000000000085e+02 4.323195170047044655e+01
1.080000000000000000e+02 4.212361877667851218e+01
1.084000000000000057e+02 4.246429196403210682e+01
1.088000000000000114e+02 4.373927439209616352e+01
1.092000000000000028e+02 4.598887898794384910e+01
1.096000000000000085e+02 4.963747782286618104e+01
1.100000000000000000e+02 5.514471625528204868e+01
1.104000000000000057e+02 6.259418317433034673e+01
1.108000000000000114e+02 7.138477962862314996e+01
1.112000000000000028e+02 8.018003288272471707e+01
1.116000000000000085e+02 8.718207789863458856e+01
1.120000000000000000e+02 9.065540732872855756e+01
1.124000000000000057e+02 8.949783859567676814e+01
1.128000000000000114e+02 8.361694480342431746e+01
1.132000000000000028e+02 7.395183569415191016e+01
1.136000000000000085e+02 6.214400291795506348e+01
1.140000000000000000e+02 5.001656792800696394e+01
1.144000000000000057e+02 3.908494066162275260e+01
1.148000000000000114e+02 3.027044909095754832e+01
1.152000000000000028e+02 2.386789973372713547e+01
1.156000000000000085e+02 1.970410460418374043e+01
1.160000000000000000e+02 1.737111309252032498e+01
1.164000000000000057e+02 1.643180478092487107e+01
1.168000000000000114e+02 1.654700246131313435e+01
1.172000000000000028e+02 1.752535542115896661e+01
1.176000000000000085e+02 1.932706949915686323e+01
1.180000000000000000e+02 2.205541125351463450e+01
1.184000000000000057e+02 2.595227556312617168e+01
1.188000000000000114e+02 3.138703175942166013e+01
1.192000000000000028e+02 3.880514974401729233e+01
1.196000000000000085e+02 4.860030084118670857e+01
1.200000000000000000e+02 6.090200650006720906e+01
1.204000000000000057e+02 7.532667342344328176e+01
1.208000000000000114e+02 9.079719698252354476e+01
1.212000000000000028e+02 1.055551975488446601e+02
1.216000000000000085e+02 1.174403944103553528e+02
1.220000000000000000e+02 1.244006487513511132e+02
1.224000000000000057e+02 1.250750361149338090e+02
1.228000000000000114e+02 1.192311998256918599e+02
1.232000000000000028e+02 1.078812442986348969e+02
1.236000000000000085e+02 9.303195205138209189e+01
1.240000000000000000e+02 7.717546293702685034e+01
1.244000000000000057e+02 6.271543774374361391e+01
1.248000000000000114e+02 5.151124296355388310e+01
1.252000000000000028e+02 4.463176599991943760e+01
1.256000000000000085e+02 4.230644983763957612e+01
1.260000000000000000e+02 4.400534238425180433e+01
1.264000000000000057e+02 4.859045595096910120e+01
1.268000000000000114e+02 5.452596491828148828e+01
1.272000000000000028e+02 6.016189048101080772e+01
1.276000000000000085e+02 6.408252387807070249e+01
1.280000000000000000e+02 6.545011735534927766e+01
1.284000000000000057e+02 6.422541538969802843e+01
1.288000000000000114e+02 6.115688193134415229e+01
1.291999999999999886e+02 5.750907916528651498e+01
1.296000000000000227e+02 5.461030284290886527e+01
1.300000000000000000e+02 5.338204076867182835e+01
1.304000000000000057e+02 5.402575306012160894e+01
1.308000000000000114e+02 5.598077648044859700e+01
1.311999999999999886e+02 5.815966717758374216e+01
1.316000000000000227e+02 5.935940406836229499e+01
1.320000000000000000e+02 5.868236818902757790e+01
1.324000000000000057e+02 5.580689650480782404e+01
1.328000000000000114e+02 5.102121729300774433e+01
1.331999999999999886e+02 4.504165407969694002e+01
1.336000000000000227e+02 3.872289828697779512e+01
1.340000000000000000e+02 3.279332152192773719e+01
1.344000000000000057e+02 2.770724188220150452e+01
1.348000000000000114e+02 2.363191812569233718e+01
1.351999999999999886e+02 2.052544348061395141e+01
1.356000000000000227e+02 1.824049625758734550e+01
1.360000000000000000e+02 1.660553043503103154e+01
1.364000000000000057e+02 1.546686838657522145e+01
1.368000000000000114e+02 1.469982462548326119e+01
1.371999999999999886e+02 1.420528713085745842e+01
1.376000000000000227e+02 1.390406254675141540e+01
1.380000000000000000e+02 1.373356818572435678e+01
1.384000000000000057e+02 1.364631562428702516e+01
1.388000000000000114e+02 1.360838910409788838e+01
1.392000000000000171e+02 1.359708446140471416e+01
1.395999999999999943e+02 1.359803485212814245e+01
1.400000000000000000e+02 1.360256850650021221e+01
1.404000000000000057e+02 1.360579447655260843e+01
1.408000000000000114e+02 1.360545423837305989e+01
1.412000000000000171e+02 1.360126800097881983e+01
1.415999999999999943e+02 1.359444987369549018e+01
1.420000000000000000e+02 1.358718582049645995e+01
1.424000000000000057e+02 1.358202610636885765e+01
1.428000000000000114e+02 1.358124586624574093e+01
1.432000000000000171e+02 1.358625948519993898e+01
1.435999999999999943e+02 1.359717736074954075e+01
1.440000000000000000e+02 1.361260379500733642e+01
1.444000000000000057e+02 1.362978074400371042e+01
1.448000000000000114e+02 1.364513456369107125e+01
1.452000000000000171e+02 1.365515240531586549e+01
1.455999999999999943e+02 1.365734514809849465e+01
1.460000000000000000e+02 1.365095208683493411e+01
1.464000000000000057e+02 1.363710321038320750e+01
1.468000000000000114e+02 1.361837472078511979e+01
1.472000000000000171e+02 1.359793767024019573e+01
1.475999999999999943e+02 1.357865739609620093e+01
1.480000000000000000e+02 1.356247194418460289e+01
1.484000000000000057e+02 1.355020015782275067e+01
1.488000000000000114e+02 1.354172350406045489e+01
1.492000000000000171e+02 1.353635986618096254e+01
1.495999999999999943e+02 1.353323940451568852e+01
1.500000000000000000e+02 1.353156586687596352e+01
