1.000000000000000000e+01 6.491937409957930072e+01
1.040000000000000036e+01 6.270314292845765891e+01
1.080000000000000071e+01 6.069962698667642798e+01
1.119999999999999929e+01 5.887669525891087119e+01
1.159999999999999964e+01 5.720865276127837973e+01
1.200000000000000000e+01 5.567466610267751292e+01
1.240000000000000036e+01 5.425763719665494733e+01
1.280000000000000071e+01 5.294338132082985737e+01
1.319999999999999929e+01 5.172001660084231389e+01
1.359999999999999964e+01 5.057750334519428037e+01
1.400000000000000000e+01 4.950729150998559192e+01
1.440000000000000036e+01 4.850204745479055646e+01
1.480000000000000071e+01 4.755543969453915309e+01
1.519999999999999929e+01 4.666196913097080312e+01
1.560000000000000142e+01 4.581683322605996977e+01
1.600000000000000000e+01 4.501581636416347010e+01
1.639999999999999858e+01 4.425520062722579695e+01
1.680000000000000071e+01 4.353169263122489241e+01
1.719999999999999929e+01 4.284236311015119725e+01
1.760000000000000142e+01 4.218459669953067248e+01
1.800000000000000000e+01 4.155604994241645045e+01
1.839999999999999858e+01 4.095461597073333593e+01
1.880000000000000071e+01 4.037839464170479431e+01
1.920000000000000284e+01 3.982566715973631233e+01
1.960000000000000142e+01 3.929487440791591979e+01
2.000000000000000000e+01 3.878459836428069707e+01
2.039999999999999858e+01 3.829354609649227825e+01
2.080000000000000071e+01 3.782053592219514115e+01
2.120000000000000284e+01 3.736448539679521019e+01
2.160000000000000142e+01 3.692440084997875971e+01
2.200000000000000000e+01 3.649936824024121762e+01
2.239999999999999858e+01 3.608854513549959364e+01
2.280000000000000071e+01 3.569115365942435858e+01
2.320000000000000284e+01 3.530647426892998908e+01
2.360000000000000142e+01 3.493384024945632405e+01
2.400000000000000000e+01 3.457263283215791461e+01
2.439999999999999858e+01 3.422227685160772381e+01
2.480000000000000071e+01 3.388223687467630185e+01
2.520000000000000284e+01 3.355201374131690528e+01
2.560000000000000142e+01 3.323114146643019495e+01
2.600000000000000000e+01 3.291918445908653723e+01
2.640000000000000213e+01 3.261573502138298863e+01
2.680000000000000071e+01 3.232041109429480485e+01
2.719999999999999929e+01 3.203285422220097445e+01
2.760000000000000142e+01 3.175272771144613415e+01
2.800000000000000000e+01 3.147971496145072123e+01
2.840000000000000213e+01 3.121351794958096448e+01
2.880000000000000071e+01 3.095385585331312583e+01
2.920000000000000284e+01 3.070046379522774416e+01
2.960000000000000142e+01 3.045309169810044736e+01
3.000000000000000000e+01 3.026362956667284720e+01
3.040000000000000213e+01 3.013431771513941015e+01
3.080000000000000071e+01 3.000737688706000483e+01
3.120000000000000284e+01 2.988272604577771574e+01
3.160000000000000142e+01 2.976028816189140613e+01
3.200000000000000000e+01 2.963998995717204110e+01
3.240000000000000568e+01 2.952176166837791271e+01
3.279999999999999716e+01 2.940553682915823330e+01
3.320000000000000284e+01 2.929125206842236651e+01
3.360000000000000142e+01 2.917884692371881528e+01
3.400000000000000000e+01 2.906826366831413822e+01
3.440000000000000568e+01 2.895944715079320630e+01
3.479999999999999716e+01 2.885234464611783167e+01
3.520000000000000284e+01 2.874690571718350540e+01
3.560000000000000142e+01 2.864308208600661487e+01
3.600000000000000000e+01 2.854082751375588956e+01
3.640000000000000568e+01 2.844009768891547907e+01
3.679999999999999716e+01 2.834085012293258643e+01
3.720000000000000284e+01 2.824304405276168239e+01
3.760000000000000142e+01 2.814664034976991047e+01
3.800000000000000000e+01 2.805160143451580623e+01
3.840000000000000568e+01 2.795789119695670522e+01
3.879999999999999716e+01 2.786547492167822782e+01
3.920000000000000284e+01 2.777431921777420953e+01
3.960000000000000142e+01 2.768439195303732703e+01
4.000000000000000000e+01 2.759566219214843485e+01
4.040000000000000568e+01 2.750810013857912750e+01
4.079999999999999716e+01 2.742167707994480708e+01
4.120000000000000284e+01 2.733636533656742174e+01
4.160000000000000142e+01 2.725213821302576989e+01
4.200000000000000000e+01 2.716896995248921698e+01
4.239999999999999858e+01 2.708683569364652044e+01
4.280000000000000426e+01 2.700571143005607055e+01
4.320000000000000284e+01 2.692557397175732703e+01
4.360000000000000142e+01 2.684640090899509701e+01
4.400000000000000000e+01 2.676817057791980048e+01
4.439999999999999858e+01 2.669086202813678810e+01
4.480000000000000426e+01 2.661445499198720199e+01
4.520000000000000284e+01 2.653892985545153849e+01
4.560000000000000142e+01 2.646426763057479192e+01
4.600000000000000000e+01 2.639044992931929556e+01
4.639999999999999858e+01 2.631745893875820741e+01
4.680000000000000426e+01 2.624527739752839750e+01
4.720000000000000284e+01 2.617388857346731967e+01
4.760000000000000142e+01 2.610327624236378696e+01
4.800000000000000000e+01 2.603342466775687924e+01
4.840000000000000568e+01 2.596431858172221041e+01
4.880000000000000426e+01 2.589594316658839546e+01
4.920000000000000284e+01 2.582828403753062929e+01
4.960000000000000142e+01 2.576132722599167479e+01
5.000000000000000000e+01 2.569505916388376932e+01
5.040000000000000568e+01 2.562946666852803901e+01
5.080000000000000426e+01 2.556453692829066071e+01
5.120000000000000284e+01 2.550025748887778221e+01
5.160000000000000142e+01 2.543661624025336465e+01
5.200000000000000000e+01 2.537360140414669374e+01
5.240000000000000568e+01 2.531120152211778418e+01
5.280000000000000426e+01 2.524940544415162691e+01
5.320000000000000284e+01 2.518820231775323748e+01
5.360000000000000142e+01 2.512758157751765964e+01
5.400000000000000000e+01 2.506753293515044234e+01
5.440000000000000568e+01 2.092430893671129866e+01
5.480000000000000426e+01 2.084968269124236784e+01
5.520000000000000284e+01 2.077587294115377503e+01
5.560000000000000142e+01 2.070286464594301634e+01
5.600000000000000000e+01 2.063064315199878607e+01
5.640000000000000568e+01 2.055919417988063458e+01
5.680000000000000426e+01 2.048850381210640137e+01
5.720000000000000284e+01 2.041855848142382612e+01
5.760000000000000142e+01 2.034934495954352940e+01
5.800000000000000000e+01 2.028085034631233441e+01
5.840000000000000568e+01 2.021306205930645206e+01
5.880000000000000426e+01 2.014596782382567142e+01
5.920000000000000284e+01 2.007955566327007801e+01
5.960000000000000142e+01 2.001381388988255594e+01
6.000000000000000000e+01 1.994873109584026238e+01
6.040000000000000568e+01 1.988429614468003237e+01
6.080000000000000426e+01 1.982049816304276391e+01
6.120000000000000284e+01 1.975732653272293149e+01
6.160000000000000142e+01 1.969477088301001189e+01
6.200000000000000000e+01 1.963282108330910702e+01
6.240000000000000568e+01 1.957146723602897609e+01
6.280000000000000426e+01 1.951069966972596958e+01
6.320000000000000284e+01 1.945050893249309354e+01
6.360000000000000142e+01 1.939088578558386189e+01
6.400000000000000000e+01 1.933182119726127368e+01
6.440000000000000568e+01 1.927330633686234762e+01
6.480000000000001137e+01 1.921533256906962706e+01
6.520000000000000284e+01 1.915789144838085889e+01
6.559999999999999432e+01 1.910097471376905887e+01
6.600000000000000000e+01 1.904457428352514015e+01
6.640000000000000568e+01 1.898868225027576173e+01
6.680000000000001137e+01 1.893329087616943696e+01
6.720000000000000284e+01 1.887839258822418742e+01
6.759999999999999432e+01 1.882397997383045052e+01
6.800000000000000000e+01 1.877004577640306238e+01
6.840000000000000568e+01 1.871658289117653595e+01
6.880000000000001137e+01 1.866358436113811337e+01
6.920000000000000284e+01 1.861104337309325274e+01
6.959999999999999432e+01 1.855895325385852246e+01
7.000000000000000000e+01 1.850730746657696457e+01
7.040000000000000568e+01 1.845609960715142606e+01
7.080000000000001137e+01 1.840532340079131401e+01
7.120000000000000284e+01 1.835497269866855419e+01
7.159999999999999432e+01 1.830504147467876663e+01
7.200000000000000000e+01 1.825552382230365112e+01
7.240000000000000568e+01 1.820641395157093001e+01
7.280000000000001137e+01 1.815770618610834219e+01
7.320000000000000284e+01 1.810939496028812457e+01
7.359999999999999432e+01 1.806147481645882280e+01
7.400000000000000000e+01 1.801394040226124105e+01
7.440000000000000568e+01 1.796678646802559243e+01
7.479999999999999716e+01 1.792000786424684122e+01
7.520000000000000284e+01 1.787359953913558996e+01
7.560000000000000853e+01 1.782755653624181846e+01
7.600000000000000000e+01 1.778187399214886355e+01
7.640000000000000568e+01 1.773654713423533025e+01
7.679999999999999716e+01 1.769157127850240840e+01
7.720000000000000284e+01 1.764694182746452356e+01
7.760000000000000853e+01 1.760265426810104117e+01
7.800000000000000000e+01 1.755870416986696370e+01
7.840000000000000568e+01 1.751508718276061316e+01
7.879999999999999716e+01 1.747179903544648738e+01
7.920000000000000284e+01 1.742499892767669678e+01
7.960000000000000853e+01 1.737633900993012404e+01
8.000000000000000000e+01 1.732805849230179973e+01
8.040000000000000568e+01 1.728015242322481271e+01
8.079999999999999716e+01 1.723261594168709010e+01
8.120000000000000284e+01 1.718544427510693851e+01
8.160000000000000853e+01 1.713863273726924419e+01
8.200000000000000000e+01 1.709217672632035345e+01
8.240000000000000568e+01 1.704607172281959748e+01
8.279999999999999716e+01 1.700031328784561779e+01
8.320000000000000284e+01 1.695489706115570527e+01
8.360000000000000853e+01 1.690981875939632673e+01
8.400000000000000000e+01 1.686507417436323664e+01
8.440000000000000568e+01 1.682065917130952570e+01
8.479999999999999716e+01 1.677656968730010334e+01
8.520000000000000284e+01 1.673280172961097989e+01
8.560000000000000853e+01 1.668935137417209802e+01
8.600000000000000000e+01 1.664621476405217848e+01
8.640000000000000568e+01 1.660338810798428355e+01
8.680000000000001137e+01 1.656086767893087242e+01
8.720000000000000284e+01 1.651864981268701627e+01
8.760000000000000853e+01 1.647673090652059003e+01
8.800000000000000000e+01 1.643510741784838558e+01
8.840000000000000568e+01 1.639377586294689593e+01
8.880000000000001137e+01 1.635273281569678261e+01
8.920000000000000284e+01 1.631197490635998903e+01
8.960000000000000853e+01 1.627149882038844098e+01
9.000000000000000000e+01 1.623130129726348159e+01
9.040000000000000568e+01 1.619137912936497514e+01
9.080000000000001137e+01 1.615172916086931565e+01
9.120000000000000284e+01 1.611234828667533847e+01
9.160000000000000853e+01 1.607323345135743864e+01
9.200000000000000000e+01 1.603438164814498279e+01
9.240000000000000568e+01 1.599578991792731308e+01
9.280000000000001137e+01 1.595745534828347445e+01
9.320000000000000284e+01 1.591937507253610029e+01
9.360000000000000853e+01 1.588154626882860754e+01
9.400000000000000000e+01 1.584396615922512197e+01
9.440000000000000568e+01 1.580663200883239661e+01
9.480000000000001137e+01 1.576954112494314408e+01
9.520000000000000284e+01 1.573269085620015950e+01
9.560000000000000853e+01 1.569607859178064047e+01
9.600000000000000000e+01 1.565970176060009855e+01
9.640000000000000568e+01 1.562355783053530445e+01
9.680000000000001137e+01 1.558764430766585463e+01
9.720000000000000284e+01 1.555195873553364549e+01
9.760000000000000853e+01 1.551649869441985707e+01
9.800000000000000000e+01 1.548126180063901636e+01
9.840000000000000568e+01 1.544624570584950796e+01
9.880000000000001137e+01 1.541144809638024782e+01
9.920000000000000284e+01 1.537686669257296046e+01
9.960000000000000853e+01 1.534249924813967070e+01
1.000000000000000000e+02 1.530834354953499599e+01
1.004000000000000057e+02 1.527439741534286100e+01
1.008000000000000114e+02 1.524065869567719211e+01
1.012000000000000028e+02 1.520712527159622596e+01
1.016000000000000085e+02 1.517379505453019561e+01
1.020000000000000000e+02 1.514066598572174271e+01
1.024000000000000057e+02 1.510773603567906420e+01
1.028000000000000114e+02 1.507500320364125379e+01
1.032000000000000028e+02 1.504246551705547397e+01
1.036000000000000085e+02 1.501012103106585904e+01
1.040000000000000000e+02 1.497796782801358617e+01
1.044000000000000057e+02 1.494600401694810898e+01
1.048000000000000114e+02 1.491422773314890904e+01
1.052000000000000028e+02 1.488263713765788410e+01
1.056000000000000085e+02 1.485123041682180300e+01
1.060000000000000000e+02 1.482000578184463002e+01
1.064000000000000057e+02 1.478896146834963687e+01
1.068000000000000114e+02 1.475809573595086199e+01
1.072000000000000028e+02 1.472740686783371622e+01
1.076000000000000085e+02 1.469689317034456444e+01
1.080000000000000000e+02 1.466655297258900958e+01
1.084000000000000057e+02 1.463638462603874046e+01
1.088000000000000114e+02 1.460638650414655793e+01
1.092000000000000028e+02 1.457655700196958470e+01
1.096000000000000085e+02 1.454689453580026637e+01
1.100000000000000000e+02 1.451739754280520422e+01
1.104000000000000057e+02 1.448806448067126240e+01
1.108000000000000114e+02 1.445889382725922445e+01
1.112000000000000028e+02 1.442988408026446123e+01
1.116000000000000085e+02 1.440103375688454079e+01
1.120000000000000000e+02 1.437234139349375894e+01
1.124000000000000057e+02 1.456510361730591718e+01
1.128000000000000114e+02 1.454172137048098357e+01
1.132000000000000028e+02 1.451845465953121739e+01
1.136000000000000085e+02 1.449530251328625852e+01
1.140000000000000000e+02 1.447226397209166393e+01
1.144000000000000057e+02 1.444933808763309990e+01
1.148000000000000114e+02 1.442652392276359663e+01
1.152000000000000028e+02 1.440382055133414418e+01
1.156000000000000085e+02 1.438122705802739887e+01
1.160000000000000000e+02 1.435874253819446267e+01
1.164000000000000057e+02 1.433636609769464165e+01
1.168000000000000114e+02 1.431409685273821175e+01
1.172000000000000028e+02 1.429193392973197696e+01
1.176000000000000085e+02 1.426987646512771590e+01
1.180000000000000000e+02 1.424792360527333912e+01
1.184000000000000057e+02 1.422607450626673220e+01
1.188000000000000114e+02 1.420432833381232562e+01
1.192000000000000028e+02 1.418268426308009111e+01
1.196000000000000085e+02 1.416114147856721850e+01
1.200000000000000000e+02 1.413969917396215692e+01
1.204000000000000057e+02 1.411835655201114825e+01
1.208000000000000114e+02 1.409711282438710178e+01
1.212000000000000028e+02 1.407596721156073016e+01
1.216000000000000085e+02 1.405491894267412079e+01
1.220000000000000000e+02 1.403396725541630374e+01
1.224000000000000057e+02 1.401311139590122146e+01
1.228000000000000114e+02 1.399235061854767537e+01
1.232000000000000028e+02 1.397168418596143091e+01
1.236000000000000085e+02 1.395111136881935998e+01
1.240000000000000000e+02 1.393063144575556933e+01
1.244000000000000057e+02 1.391024370324950432e+01
1.248000000000000114e+02 1.388994743551599598e+01
1.252000000000000028e+02 1.386974194439715369e+01
1.256000000000000085e+02 1.384962653925612663e+01
1.260000000000000000e+02 1.382960053687268243e+01
1.264000000000000057e+02 1.380966326134053368e+01
1.268000000000000114e+02 1.378981404396640897e+01
1.272000000000000028e+02 1.377005222317086819e+01
1.276000000000000085e+02 1.375037714439067926e+01
1.280000000000000000e+02 1.373078815998299973e+01
1.284000000000000057e+02 1.371128462913096868e+01
1.288000000000000114e+02 1.369186591775100759e+01
1.291999999999999886e+02 1.367253139840162746e+01
1.296000000000000227e+02 1.365328045019370684e+01
1.300000000000000000e+02 1.363411245870231525e+01
1.304000000000000057e+02 1.361502681587989549e+01
1.308000000000000114e+02 1.359602291997101098e+01
1.311999999999999886e+02 1.357710017542831515e+01
1.316000000000000227e+02 1.355825799283005928e+01
1.320000000000000000e+02 1.353949578879879212e+01
1.324000000000000057e+02 1.352081298592151448e+01
1.328000000000000114e+02 1.350220901267100437e+01
1.331999999999999886e+02 1.348368330332850995e+01
1.336000000000000227e+02 1.346523529790758644e+01
1.340000000000000000e+02 1.344686444207926002e+01
1.344000000000000057e+02 1.342857018709828942e+01
1.348000000000000114e+02 1.341035198973067644e+01
1.351999999999999886e+02 1.339220931218227051e+01
1.356000000000000227e+02 1.337414162202853518e+01
1.360000000000000000e+02 1.335614839214544070e+01
1.364000000000000057e+02 1.333822910064138512e+01
1.368000000000000114e+02 1.332038323079025410e+01
1.371999999999999886e+02 1.330261027096546478e+01
1.376000000000000227e+02 1.328490971457508429e+01
1.380000000000000000e+02 1.326728105999793605e+01
1.384000000000000057e+02 1.324972381052070070e+01
1.388000000000000114e+02 1.323223747427601360e+01
1.392000000000000171e+02 1.321482156418147191e+01
1.395999999999999943e+02 1.319747559787960789e+01
1.400000000000000000e+02 1.318019909767878772e+01
1.404000000000000057e+02 1.316299159049498613e+01
1.408000000000000114e+02 1.314585260779452547e+01
1.412000000000000171e+02 1.312878168553755209e+01
1.415999999999999943e+02 1.311177836412250564e+01
1.420000000000000000e+02 1.309484218833134328e+01
1.424000000000000057e+02 1.307797270727562555e+01
1.428000000000000114e+02 1.306116947434339970e+01
1.432000000000000171e+02 1.304443204714689131e+01
1.435999999999999943e+02 1.302775998747097574e+01
1.440000000000000000e+02 1.301115286122240100e+01
1.444000000000000057e+02 1.299461023837979212e+01
1.448000000000000114e+02 1.297813169294437863e+01
1.452000000000000171e+02 1.296171680289145556e+01
1.455999999999999943e+02 1.294480879807419171e+01
1.460000000000000000e+02 1.292733659970370219e+01
1.464000000000000057e+02 1.290993401542152164e+01
1.468000000000000114e+02 1.289260057569379114e+01
1.472000000000000171e+02 1.287533581545515915e+01
1.475999999999999943e+02 1.285813927405394708e+01
1.480000000000000000e+02 1.284101049519814985e+01
1.484000000000000057e+02 1.282394902690223049e+01
1.488000000000000114e+02 1.280695442143472462e+01
1.492000000000000171e+02 1.279002623526659477e+01
1.495999999999999943e+02 1.277316402902038028e+01
1.500000000000000000e+02 1.275636736742009170e+01
